<?xml version="1.0" encoding="UTF-8" standalone="no"?>
<svg
   xmlns:dc="http://purl.org/dc/elements/1.1/"
   xmlns:cc="http://creativecommons.org/ns#"
   xmlns:rdf="http://www.w3.org/1999/02/22-rdf-syntax-ns#"
   xmlns:svg="http://www.w3.org/2000/svg"
   xmlns="http://www.w3.org/2000/svg"
   xmlns:sodipodi="http://sodipodi.sourceforge.net/DTD/sodipodi-0.dtd"
   xmlns:inkscape="http://www.inkscape.org/namespaces/inkscape"
   version="1.1"
   viewBox="0 0 583.86914 103.03511"
   stroke-miterlimit="10"
   id="svg89"
   sodipodi:docname="TopSort-1.svg"
   inkscape:version="0.92.3 (2405546, 2018-03-11)"
   inkscape:export-xdpi="60"
   inkscape:export-ydpi="60"
   inkscape:export-filename="C:\Users\Bent\Desktop\Bebras\Group08\2018-BE-05_Cinderellas_ball\TopSort-1.png"
   width="583.86914"
   height="103.0351"
   style="fill:none;stroke:none;stroke-linecap:square;stroke-miterlimit:10">
  <metadata
     id="metadata95">
    <rdf:RDF>
      <cc:Work
         rdf:about="">
        <dc:format>image/svg+xml</dc:format>
        <dc:type
           rdf:resource="http://purl.org/dc/dcmitype/StillImage" />
        <dc:title />
      </cc:Work>
    </rdf:RDF>
  </metadata>
  <defs
     id="defs93" />
  <sodipodi:namedview
     pagecolor="#ffffff"
     bordercolor="#666666"
     borderopacity="1"
     objecttolerance="10"
     gridtolerance="10"
     guidetolerance="10"
     inkscape:pageopacity="0"
     inkscape:pageshadow="2"
     inkscape:window-width="1366"
     inkscape:window-height="705"
     id="namedview91"
     showgrid="false"
     inkscape:snap-nodes="true"
     inkscape:zoom="1.46"
     inkscape:cx="254.9804"
     inkscape:cy="78.066802"
     inkscape:window-x="-8"
     inkscape:window-y="-8"
     inkscape:window-maximized="1"
     inkscape:current-layer="svg89"
     inkscape:measure-start="0,0"
     inkscape:measure-end="0,0"
     inkscape:snap-others="false"
     inkscape:snap-bbox="true"
     inkscape:snap-global="false"
     showguides="false"
     fit-margin-top="0"
     fit-margin-left="0"
     fit-margin-right="0"
     fit-margin-bottom="0" />
  <clipPath
     id="p.0">
    <path
       d="m 0,0 473.01575,0 0,301.1076 -473.01575,0 z"
       id="path2"
       inkscape:connector-curvature="0"
       style="clip-rule:nonzero" />
  </clipPath>
  <path
     style="fill:#c9daf8;fill-rule:evenodd;stroke-width:1.1375078"
     inkscape:connector-curvature="0"
     id="path11"
     d="m 449.50662,0.113699 134.36252,0 0,47.846569 -134.36253,0 z" />
  <text
     xml:space="preserve"
     style="font-style:normal;font-variant:normal;font-weight:normal;font-stretch:normal;line-height:0%;font-family:'Liberation Sans';-inkscape-font-specification:Sans;text-align:center;letter-spacing:0px;word-spacing:0px;text-anchor:middle;fill:#000000;fill-opacity:1;stroke:none;stroke-width:1px;stroke-linecap:butt;stroke-linejoin:miter;stroke-opacity:1"
     x="473.83087"
     y="34.288624"
     id="text8574"><tspan
       sodipodi:role="line"
       id="tspan8572"
       x="477.52878"
       y="34.288624"
       style="font-size:26.66666603px;line-height:1.25"> </tspan></text>
  <path
     style="fill-rule:evenodd;stroke:#000000;stroke-width:0.86831605;stroke-linecap:butt;stroke-linejoin:round"
     inkscape:connector-curvature="0"
     id="path41-2"
     d="m 67.990819,49.3907 c 0,4.555031 10.61124,9.110066 26.52811,12.526344 7.958441,1.708133 17.243311,3.131581 27.191351,4.127997 4.97402,0.498205 10.11386,0.889655 15.33659,1.156546 1.30568,0.06672 2.61654,0.125666 3.93128,0.176539 l 0.41485,-13.93031"
     sodipodi:nodetypes="cssccc"
     inkscape:export-xdpi="60"
     inkscape:export-ydpi="60" />
  <path
     style="fill-rule:evenodd;stroke:#000000;stroke-width:0.77253175;stroke-linecap:butt;stroke-linejoin:round"
     inkscape:connector-curvature="0"
     id="path41-2-7"
     d="m 188.26399,49.890642 c 0,5.62234 13.2004,11.244686 33.00096,15.461447 9.90027,2.108374 21.45063,3.865356 33.82596,5.095247 6.18769,0.614941 12.58163,1.098114 19.07869,1.427541 1.62428,0.08235 3.25497,0.155112 4.89051,0.217904 l 0.51608,-17.194382"
     sodipodi:nodetypes="cssccc"
     inkscape:export-xdpi="60"
     inkscape:export-ydpi="60" />
  <path
     style="fill-rule:evenodd;stroke:#000000;stroke-width:0.77664524;stroke-linecap:butt;stroke-linejoin:round"
     inkscape:connector-curvature="0"
     id="path41-2-9"
     d="m 294.43623,54.650297 c 0,4.143161 12.39159,8.286332 30.97898,11.393709 9.29369,1.55368 20.13636,2.848421 31.7535,3.754735 5.80855,0.453161 11.81074,0.809216 17.90976,1.051973 1.52474,0.06067 3.05552,0.114298 4.59086,0.160578 l 0.48445,-12.670723"
     sodipodi:nodetypes="cssccc"
     inkscape:export-xdpi="60"
     inkscape:export-ydpi="60" />
  <path
     style="fill:#000000;fill-rule:evenodd;stroke:#000000;stroke-width:0.95512295;stroke-linecap:butt;stroke-miterlimit:10"
     inkscape:connector-curvature="0"
     id="path79-7-95-7"
     d="m 138.60209,57.782169 7.33557,0.2285 -4.21272,-8.28937 z"
     sodipodi:nodetypes="cccc"
     inkscape:export-xdpi="60"
     inkscape:export-ydpi="60" />
  <path
     style="fill:#000000;fill-rule:evenodd;stroke:#000000;stroke-width:0.95512295;stroke-linecap:butt;stroke-miterlimit:10"
     inkscape:connector-curvature="0"
     id="path79-7-95-9"
     d="m 276.03224,60.016815 7.33559,0.2285 -4.21273,-8.28937 z"
     sodipodi:nodetypes="cccc"
     inkscape:export-xdpi="60"
     inkscape:export-ydpi="60" />
  <path
     style="fill:#000000;fill-rule:evenodd;stroke:#000000;stroke-width:0.95512295;stroke-linecap:butt;stroke-miterlimit:10"
     inkscape:connector-curvature="0"
     id="path79-7-95-2"
     d="m 495.02666,56.944191 7.33558,0.2285 -4.21272,-8.28937 z"
     sodipodi:nodetypes="cccc"
     inkscape:export-xdpi="60"
     inkscape:export-ydpi="60" />
  <text
     id="text71"
     y="32.845329"
     x="452.4115"
     style="font-style:normal;font-weight:normal;line-height:0%;font-family:sans-serif;letter-spacing:0px;word-spacing:0px;fill:#000000;fill-opacity:1;stroke:none"
     xml:space="preserve"><tspan
       style="font-size:26.66666603px;line-height:1.25"
       y="32.845329"
       x="452.4115"
       id="tspan69"
       sodipodi:role="line">Charming</tspan></text>
  <path
     style="fill:#c9daf8;fill-rule:evenodd;stroke:none;stroke-width:1.04707432;stroke-linecap:square;stroke-miterlimit:10"
     inkscape:connector-curvature="0"
     id="path11-7"
     d="m 336.31285,0.279335 110.06084,0 0,47.846569 -110.06085,0 z" />
  <text
     xml:space="preserve"
     style="font-style:normal;font-variant:normal;font-weight:normal;font-stretch:normal;line-height:0%;font-family:'Liberation Sans';-inkscape-font-specification:Sans;text-align:center;letter-spacing:0px;word-spacing:0px;text-anchor:middle;fill:#000000;fill-opacity:1;stroke:none;stroke-width:1px;stroke-linecap:butt;stroke-linejoin:miter;stroke-miterlimit:10;stroke-opacity:1"
     x="345.79532"
     y="33.876392"
     id="text8574-6"
     transform="scale(0.98322795,1.0170582)"><tspan
       sodipodi:role="line"
       id="tspan8572-0"
       x="349.43121"
       y="33.876392"
       style="font-size:26.21941185px;line-height:1.25"> </tspan></text>
  <text
     transform="scale(0.84621319,1.1817353)"
     id="text75-5"
     y="31.319372"
     x="405.37045"
     style="font-style:normal;font-weight:normal;line-height:0%;font-family:sans-serif;letter-spacing:0px;word-spacing:0px;fill:#000000;fill-opacity:1;stroke:none;stroke-width:0.86064804;stroke-linecap:square;stroke-miterlimit:10"
     xml:space="preserve"><tspan
       style="font-size:26.1548996px;line-height:1.25;stroke-width:0.86064804"
       y="31.319372"
       x="405.37045"
       id="tspan73-5"
       sodipodi:role="line">Heracles</tspan></text>
  <path
     style="fill:#c9daf8;fill-rule:evenodd;stroke:none;stroke-width:1.05786383;stroke-linecap:square;stroke-miterlimit:10"
     inkscape:connector-curvature="0"
     id="path11-2"
     d="m 9e-6,0 116.206081,0 0,47.84657 -116.20609,0 z" />
  <text
     xml:space="preserve"
     style="font-style:normal;font-variant:normal;font-weight:normal;font-stretch:normal;line-height:0%;font-family:'Liberation Sans';-inkscape-font-specification:Sans;text-align:center;letter-spacing:0px;word-spacing:0px;text-anchor:middle;fill:#000000;fill-opacity:1;stroke:none;stroke-width:1px;stroke-linecap:butt;stroke-linejoin:miter;stroke-miterlimit:10;stroke-opacity:1"
     x="170.69299"
     y="-3.5345728"
     id="text8574-4"><tspan
       sodipodi:role="line"
       id="tspan8572-02"
       x="174.39091"
       y="-3.5345728"
       style="font-size:26.66666603px;line-height:1.25"> </tspan></text>
  <text
     id="text71-0"
     y="35.429966"
     x="7.6535048"
     style="font-style:normal;font-weight:normal;line-height:0%;font-family:sans-serif;letter-spacing:0px;word-spacing:0px;fill:#000000;fill-opacity:1;stroke:none;stroke-linecap:square;stroke-miterlimit:10"
     xml:space="preserve"><tspan
       style="font-size:26.66666603px;line-height:1.25"
       y="35.429966"
       x="7.6535048"
       id="tspan69-1"
       sodipodi:role="line">Florian</tspan></text>
  <path
     style="fill:#c9daf8;fill-rule:evenodd;stroke:none;stroke-width:1.1375078;stroke-linecap:square;stroke-miterlimit:10"
     inkscape:connector-curvature="0"
     id="path11-2-9"
     d="m 120.11174,0 134.36251,0 0,47.84657 -134.36252,0 z" />
  <text
     id="text179"
     y="35.429966"
     x="135.89635"
     style="font-style:normal;font-weight:normal;line-height:0%;font-family:sans-serif;letter-spacing:0px;word-spacing:0px;fill:#000000;fill-opacity:1;stroke:none;stroke-linecap:square;stroke-miterlimit:10"
     xml:space="preserve"><tspan
       y="35.429966"
       x="135.89635"
       id="tspan177"
       sodipodi:role="line"
       style="font-size:26.66666603px;line-height:1.25">Kristoff</tspan></text>
  <path
     style="fill:#c9daf8;fill-rule:evenodd;stroke:none;stroke-width:0.83793223;stroke-linecap:square;stroke-miterlimit:10"
     inkscape:connector-curvature="0"
     id="path11-28"
     d="m 258.65922,1.117317 72.91001,0 0,47.846569 -72.91002,0 z" />
  <text
     xml:space="preserve"
     style="font-style:normal;font-variant:normal;font-weight:normal;font-stretch:normal;line-height:0%;font-family:'Liberation Sans';-inkscape-font-specification:Sans;text-align:center;letter-spacing:0px;word-spacing:0px;text-anchor:middle;fill:#000000;fill-opacity:1;stroke:none;stroke-width:1px;stroke-linecap:butt;stroke-linejoin:miter;stroke-miterlimit:10;stroke-opacity:1"
     x="70.413651"
     y="49.258724"
     id="text8574-9"><tspan
       sodipodi:role="line"
       id="tspan8572-1"
       x="74.111565"
       y="49.258724"
       style="font-size:26.66666603px;line-height:1.25"> </tspan></text>
  <text
     transform="scale(0.87799828,1.1389544)"
     id="text75-7"
     y="32.425533"
     x="312.32172"
     style="font-style:normal;font-weight:normal;line-height:0%;font-family:sans-serif;letter-spacing:0px;word-spacing:0px;fill:#000000;fill-opacity:1;stroke:none;stroke-width:0.87799829;stroke-linecap:square;stroke-miterlimit:10"
     xml:space="preserve"><tspan
       style="font-size:26.94889832px;line-height:1.25;stroke-width:0.87799829"
       y="32.425533"
       x="312.32172"
       id="tspan73-7"
       sodipodi:role="line">Milo</tspan></text>
  <path
     style="fill:#000000;fill-rule:evenodd;stroke:#000000;stroke-width:0.95512295;stroke-linecap:butt;stroke-miterlimit:10"
     inkscape:connector-curvature="0"
     id="path79-7-95-04-6"
     d="m 377.04829,57.631699 7.33557,0.2285 -4.21272,-8.28937 z"
     sodipodi:nodetypes="cccc"
     inkscape:export-xdpi="60"
     inkscape:export-ydpi="60" />
  <path
     style="fill:none;fill-rule:evenodd;stroke:#000000;stroke-width:0.77664524;stroke-linecap:butt;stroke-linejoin:round;stroke-miterlimit:10"
     inkscape:connector-curvature="0"
     id="path41-2-9-0"
     d="m 410.56875,48.677176 c 0,5.544513 12.68785,11.089039 31.71963,15.247433 9.51589,2.079185 20.61779,3.811849 32.51268,5.024708 5.94742,0.606435 12.09311,1.08292 18.33795,1.407785 1.56119,0.08119 3.12857,0.152957 4.70062,0.214891 l 0.49603,-16.956375"
     sodipodi:nodetypes="cssccc"
     inkscape:export-xdpi="60"
     inkscape:export-ydpi="60" />
</svg>
