<?xml version="1.0" encoding="UTF-8"?>
<svg viewBox="0 0 102.27763 91.033775" xmlns="http://www.w3.org/2000/svg">
 <defs>
  <filter id="b">
   <feGaussianBlur stdDeviation="1.28207"/>
  </filter>
  <linearGradient id="a" x1="316.07" x2="332.97" y1="536.01" y2="547.49" gradientUnits="userSpaceOnUse">
   <stop stop-color="#cf9361" offset="0"/>
   <stop stop-color="#aa6934" offset="1"/>
  </linearGradient>
 </defs>
 <g transform="translate(-298.86 -486.85)">
  <path transform="matrix(.94152 .33697 -.33697 .94152 529.41 210.51)" d="m-60.45763,363.375c0,.074-.0039.14803-.0117.22193" fill="#c3dd6e"/>
  <path d="m350.71813,489.92367c-1.81487.0401-3.07813.91914-3.3125,3.0625 0,0-7.22208,11.70352-10,13.21875-.2245.2245-.67341.59413-1.28125,1.0625-.53851-3.20531-1.74515-7.8309-4.1875-6.84375-3.65955,1.47911-2.46875,4.65625-2.46875,4.65625s-2.99142-1.53015-3.9375-.84375-1.84375,4.6875-1.84375,4.6875l-3.5625-.6875 .0312,5.3125c0,0-7.42631-.1902-2.15625,3 1.15507.69922 2.21481,1.24549 3.21875,1.6875l-2.5625,1.75c-1.18787,1.18032-1.25515,3.33553-1.4375,5.8125-3.24467-.0174-7.847.37167-7.3125,2.90625 .81446,3.86222 4.125,3.25 4.125,3.25s-2.00986,2.66696-1.5,3.71875c.40403.83346 2.77548,1.98797 3.78125,2.4375-.0876.56114-.11247,1.00584.0312,1.4375l-.8125,2.15625 2.5625.4375c.48558.54897 1.14413,1.21486 1.875,1.9375 .15352.25415.33692.50726.53125.75-.0376,1.35636.24632,2.63775 1.65625,1.59375 .31923.23975.66944.46814 1.03125.6875 2.19851,1.98719 4.73094,4.15545 7.3125,6.21875 .43753.34969 5.84719,4.01151 12.03125,8.15625 11.83362,7.93124 13.11073,8.90793 13.71875,10.5 .27732.72608.27447.79357-.0937,1.5-.21079.40435-.3578.7672-.3125.8125s1.29071.18287 2.78125.3125 3.14702.2088 3.6875.1875c2.64294-.10435 7.76898-3.90184 13.21875-9.8125 3.55237-3.85278 7.93377-9.31847 12.0625-14.96875 3.43978-1.33767 5.76472-2.4118 5.84375-2.875 .0257-.15039-.10438-.51648-.28125-1.03125 3.01713-1.55065 4.90625-3.78036 4.90625-6.25 0-1.99-1.22598-3.80295-3.28125-5.25 .29415-1.82436.55749-3.4755.875-5.34375 .51995-3.05939.88655-5.5822.84375-5.625s-.63791.0799-1.34375.28125c-.0576.0164-.12573.0453-.1875.0625 .27449-2.54429.46875-4.78125.46875-4.78125-.0697.13257-.14787.34944-.21875.53125l.28125-1.8125c0,0-.13814.16102-.15625.1875 .459-1.88962.1924-1.49759-1.5-1.125-1.52911.2889-3.78742.53172-5.71875-.0625l-17.5-12.84375c.1973-3.55132-13.42458-14.2995-19.90625-14.15625zm19.9375,10.46875c.47875.69933.82728,1.39951 1,2.15625l.4375.3125c-.18704-.6076-.48064-1.17395-.875-1.75-.16455-.24037-.37006-.47469-.5625-.71875zm22.75,31.78125-.1875,1-.1875.28125-.28125-.15625c.21456-.38478.45674-.74691.65625-1.125zm-20.4375,26.65625c-2.37022,2.30395-4.51185,4.05253-6.375,5.15625-.001-.043.002-.0825 0-.125 1.93659-1.27627 4.18392-3.00104 6.375-5.03125z" fill="#d3d7cf" filter="url(#b)"/>
  <path d="m348.63 574.61c-1.4905-0.12963-2.7472-0.27277-2.7925-0.31808s0.09-0.41322 0.30079-0.81757c0.36822-0.70643 0.37192-0.7647 0.0946-1.4908-0.60802-1.5921-1.8676-2.5562-13.701-10.487-6.1841-4.1447-11.602-7.822-12.039-8.1717-5.872-4.6931-11.689-10.052-13.193-12.153-1.079-1.5075-1.2085-1.9511-0.96065-3.2928 0.24934-1.35 0.70089-6.3294 0.59837-6.5985-0.041-0.10746 0.11991-0.62453 0.35747-1.149 1.0558-2.3311 4.5087-5.5086 12.756-11.738 6.1436-4.6406 6.8385-5.2375 8.4938-7.2954 1.8188-2.2612 6.7974-9.6522 6.7974-10.091 0-0.16977 0.20391-0.71789 0.45315-1.218 0.50396-1.0113 1.5888-1.857 2.8068-2.1881 1.8257-0.49624 5.2012 0.29945 8.5841 2.0235 5.8919 3.0028 12.182 8.3865 13.629 11.666 0.41598 0.94257 0.5346 1.0385 8.695 7.0341 4.5503 3.3432 8.4489 6.1506 8.6636 6.2386 0.5756 0.23609 3.412 0.20337 4.633-0.0534 0.58337-0.12271 1.6382-0.38786 2.344-0.58922s1.3184-0.33107 1.3612-0.28823-0.34753 2.581-0.86748 5.6404-1.1607 6.9944-1.424 8.7445l-0.47865 3.182-1.427 2.1213c-5.2572 7.8151-11.817 16.287-16.775 21.664-5.4498 5.9107-10.574 9.7193-13.217 9.8236-0.54048 0.0213-2.2022-0.0673-3.6928-0.1969zm7.8918-10.587c6.0039-3.5259 15.006-13.717 24.797-28.074l1.8922-2.7745 0.36754-2.1753c0.20215-1.1964 0.42148-2.445 0.48742-2.7746l0.11987-0.59927-0.66316 0.12441c-0.45139 0.0847-0.62605 0.0644-0.54695-0.0636 0.0645-0.1043-0.0157-0.18805-0.17998-0.18805-0.21879 0-0.27463-0.11288-0.21364-0.4319l0.0826-0.43189-2.0507 0.0909c-3.616 0.16022-3.0115 0.48174-13.337-7.0936-6.9952-5.132-8.9365-6.6393-9.0131-6.9981-0.0537-0.25157-0.42048-0.86574-0.81498-1.3648-0.73831-0.93403-0.88169-1.2169-0.4963-0.97914 0.53504 0.33009-1.0898-1.4735-2.4111-2.6762-5.2155-4.7478-12.304-8.5539-15.206-8.1647-0.81645 0.10951-1.5194 0.76899-1.5194 1.4254 0 0.95873-6.0183 9.8375-8.5337 12.59-1.0335 1.1308-2.5485 2.3588-7.7098 6.2494-6.2074 4.6792-9.8584 7.8402-11.259 9.7476-0.78366 1.0676-0.72721 1.5384 0.36869 3.0755 1.4302 2.006 7.1322 7.2733 12.372 11.429 0.68059 0.53977 6.1158 4.2655 12.078 8.2795 11.466 7.7187 12.611 8.6045 13.545 10.479 0.24837 0.4984 0.45158 1.0919 0.45158 1.319s0.0994 0.45057 0.22097 0.49676c0.49299 0.18734 2.9602 0.40392 4.2868 0.37631 1.351-0.0281 1.4799-0.068 2.8836-0.89236z" fill="#88542a"/>
  <path d="m326.51 510.14s-0.90556-11.187-4.5651-9.7074-2.4656 4.6447-2.4656 4.6447-2.9866-1.529-3.9327-0.84259-1.8433 4.6972-1.8433 4.6972l-3.5718-0.68444 0.0421 5.3032s-7.4489-0.18144-2.1789 3.0088 9.2652 3.3995 9.2652 3.3995l9.2501-9.819z" fill="#c3dd6e" stroke="#8faf27" stroke-linejoin="round" stroke-width="2"/>
  <path d="m310.26 525.92s-11.172-1.0701-10.358 2.7921 4.1404 3.2419 4.1404 3.2419-2.029 2.6722-1.5192 3.724 4.3012 2.6384 4.3012 2.6384l-1.3002 3.3965 5.2284 0.88848s-1.4848 7.3017 2.5801 2.6727 4.9716-8.5255 4.9716-8.5255l-8.0448-10.829z" fill="#c3dd6e" stroke="#8faf27" stroke-linejoin="round" stroke-width="2"/>
  <path d="m343.06 554.16s-9.8825 5.3193-7.0589 8.0775 5.2438 0.39403 5.2438 0.39403-0.20168 3.3492 0.80674 3.9402 5.0421-0.19702 5.0421-0.19702l0.80673 3.5462 4.8404-2.1671s2.8236 6.8954 3.6303 0.78805-0.60506-9.8506-0.60506-9.8506l-12.706-4.5313z" fill="#c3dd6e" stroke="#8faf27" stroke-width="2"/>
  <path d="m354.47 507.55-47.413 28.991s31.85 22.274 31.126 24.749 44.879-12.021 45.241-14.142-20.63-43.487-28.954-39.598z" fill="#fffbde"/>
  <path transform="matrix(.94505 0 0 1 387.68 -4.7013)" d="m-50.912 546.07c0 4.6863-7.2022 8.4853-16.087 8.4853s-16.087-3.799-16.087-8.4853 7.2022-8.4853 16.087-8.4853 16.087 3.799 16.087 8.4853z" fill="#a52728"/>
  <path transform="matrix(.87912 0 0 .87912 382.91 59.858)" d="m-50.912 546.07c0 4.6863-7.2022 8.4853-16.087 8.4853s-16.087-3.799-16.087-8.4853 7.2022-8.4853 16.087-8.4853 16.087 3.799 16.087 8.4853z" fill="#e34a4d"/>
  <path transform="matrix(.30769 0 0 .27644 346.04 392.94)" d="m-50.912 546.07c0 4.6863-7.2022 8.4853-16.087 8.4853s-16.087-3.799-16.087-8.4853 7.2022-8.4853 16.087-8.4853 16.087 3.799 16.087 8.4853z" fill="#ec847c" opacity=".32707"/>
  <path transform="matrix(.30769 0 0 .27644 352.23 387.99)" d="m-50.912 546.07c0 4.6863-7.2022 8.4853-16.087 8.4853s-16.087-3.799-16.087-8.4853 7.2022-8.4853 16.087-8.4853 16.087 3.799 16.087 8.4853z" fill="#e65d5c"/>
  <path transform="matrix(.30769 0 0 .27644 337.38 389.23)" d="m-50.912 546.07c0 4.6863-7.2022 8.4853-16.087 8.4853s-16.087-3.799-16.087-8.4853 7.2022-8.4853 16.087-8.4853 16.087 3.799 16.087 8.4853z" fill="#e65d5c"/>
  <path transform="matrix(.25275 0 0 .22708 339.89 411.66)" d="m-50.912 546.07c0 4.6863-7.2022 8.4853-16.087 8.4853s-16.087-3.799-16.087-8.4853 7.2022-8.4853 16.087-8.4853 16.087 3.799 16.087 8.4853z" fill="#e65d5c"/>
  <path transform="matrix(.94505 0 0 1 436.18 -6.2013)" d="m-50.912 546.07c0 4.6863-7.2022 8.4853-16.087 8.4853s-16.087-3.799-16.087-8.4853 7.2022-8.4853 16.087-8.4853 16.087 3.799 16.087 8.4853z" fill="#a52728"/>
  <path transform="matrix(.87912 0 0 .87912 431.41 58.358)" d="m-50.912 546.07c0 4.6863-7.2022 8.4853-16.087 8.4853s-16.087-3.799-16.087-8.4853 7.2022-8.4853 16.087-8.4853 16.087 3.799 16.087 8.4853z" fill="#e34a4d"/>
  <path transform="matrix(.30769 0 0 .27644 394.54 391.44)" d="m-50.912 546.07c0 4.6863-7.2022 8.4853-16.087 8.4853s-16.087-3.799-16.087-8.4853 7.2022-8.4853 16.087-8.4853 16.087 3.799 16.087 8.4853z" fill="#ec847c" opacity=".32707"/>
  <path transform="matrix(.30769 0 0 .27644 400.73 386.49)" d="m-50.912 546.07c0 4.6863-7.2022 8.4853-16.087 8.4853s-16.087-3.799-16.087-8.4853 7.2022-8.4853 16.087-8.4853 16.087 3.799 16.087 8.4853z" fill="#e65d5c"/>
  <path transform="matrix(.30769 0 0 .27644 385.88 387.73)" d="m-50.912 546.07c0 4.6863-7.2022 8.4853-16.087 8.4853s-16.087-3.799-16.087-8.4853 7.2022-8.4853 16.087-8.4853 16.087 3.799 16.087 8.4853z" fill="#e65d5c"/>
  <path transform="matrix(.25275 0 0 .22708 388.39 410.16)" d="m-50.912 546.07c0 4.6863-7.2022 8.4853-16.087 8.4853s-16.087-3.799-16.087-8.4853 7.2022-8.4853 16.087-8.4853 16.087 3.799 16.087 8.4853z" fill="#e65d5c"/>
  <path d="m308.64 519.98c-1.8074 1.7959-0.96179 5.7572-1.9946 9.8621 0 3.3353 15.075 14.91 15.075 14.91l19.98 13.392s6.5709 2.8216 4.747 5.6438l6.1817 1.7191c10.845-2.8222 30.707-33.334 30.707-33.334l2.176-14.242s-5.0346 7.4952-8.3913 6.469c-31.318-29.516-36.747-26.154-68.481-4.4196z" fill="#cf9361" stroke="#cf9361" stroke-width="1.0192"/>
  <path d="m337.41 492.99s-7.2221 11.699-10 13.214c-1.7678 1.7678-17.204 12.031-18.214 16.071 0 3.283 14.744 14.676 14.744 14.676l19.541 13.181s6.9157 4.0078 4.6428 6.7857l6.046 0.46175c10.607-2.7779 30.033-32.811 30.033-32.811l1.148-6.469c0.459-1.8896 0.18054-1.4778-1.5119-1.1052-1.5291 0.2889-3.7837 0.51742-5.715-0.0768l-17.5-12.857c0.25254-4.5457-22.143-20.87-23.214-11.071z" fill="#fff7dc" stroke="#cf9361" stroke-width="3"/>
  <path d="m342.59313,498.86117c-.27765.0129-.51461.23812-.59375.53125 .21057,1.50299 1.45074,2.00245 2.65625,2.5 .19883-.0976.35064-.20433.46875-.3125-1.18512-.48899-2.38704-.99329-2.59375-2.46875 .0264-.0977.0675-.17506.125-.25h-.0625z" fill="#cf9361"/>
  <path d="m321.35563,520.82367c-.16659.008-.30877.14287-.35625.31875 .12634.90179.87044,1.20147 1.59375,1.5 .1193-.0586.21038-.1226.28125-.1875-.71107-.29339-1.43222-.59597-1.55625-1.48125 .0158-.0586.0405-.10504.075-.15h-.0375z" fill="#cf9361"/>
  <path d="m358.39637,528.18763c-.16659.008-.30877.14287-.35625.31875 .12634.90179.87044,1.20147 1.59375,1.5 .1193-.0586.21038-.1226.28125-.1875-.71108-.29339-1.43223-.59597-1.55625-1.48125 .0158-.0586.0405-.10504.075-.15h-.0375z" fill="#cf9361"/>
  <path d="m331.22223,525.48258c-.21868.0129-.40532.23812-.46765.53124 .16585,1.50294 1.14262,2.00239 2.0921,2.49992 .1566-.0976.27616-.20432.36919-.31249-.93342-.48897-1.88006-.99326-2.04287-2.46867 .0208-.0977.0532-.17505.0985-.25h-.0492z" fill="#cf9361"/>
  <path d="m351.14852,519.70235c-.16659.008-.30876.14287-.35625.31875 .12634.90179.87045,1.20147 1.59375,1.5 .1193-.0586.21039-.1226.28125-.1875-.71107-.29339-1.43222-.59597-1.55625-1.48125 .0158-.0586.0405-.10504.075-.15h-.0375z" fill="#cf9361"/>
  <path d="m340.42971,490.76117c-.56373.0165-.95111.15286-1.1875.3125-.31518.21286-.55546.51575-.65625,1.4375l-.0312.34375-.1875.28125c0,0-1.82051,2.94092-4,6.09375-1.08974,1.57642-2.26537,3.23246-3.375,4.59375-.99576,1.22159-1.84083,2.16193-2.84375,2.8125-.11469.0744-.22399.1847-.34375.25-.7198.66376-1.72597,1.40491-3.28125,2.5625-1.71399,1.27571-3.82388,2.83912-5.90625,4.46875s-4.13692,3.3496-5.6875,4.84375c-1.46686,1.41347-2.3091,2.67633-2.46875,3.0625 .0325.0693.0618.17333.3125.5625 .13275.20603.33776.46512.53125.71875-.25075-.38917-.28002-.49318-.3125-.5625 .15878-.38519 1.03226-1.67942 2.5-3.09375 1.55058-1.49415 3.57388-3.18287 5.65625-4.8125s4.22351-3.19304 5.9375-4.46875c1.55444-1.15696 2.53015-1.89894 3.25-2.5625 .11976-.0653.22906-.1756.34375-.25 1.00292-.65057 1.84799-1.62216 2.84375-2.84375 1.10963-1.36129 2.28526-2.98608 3.375-4.5625 2.17949-3.15283 4-6.09375 4-6.09375l.1875-.28125 .0312-.34375c.10079-.92175.34107-1.22464.65625-1.4375s.90346-.37171 1.8125-.28125c1.81809.18091 4.62895,1.35059 7.375,3s5.48797,3.76791 7.46875,5.6875c.77771.75368 1.38663,1.4334 1.875,2.0625l-.125-.1875c-.50435-.73671-1.29086-1.63396-2.28125-2.59375-1.98078-1.91959-4.7227-4.03809-7.46875-5.6875s-5.55691-2.81909-7.375-3c-.22726-.0226-.43709-.0367-.625-.0312v-5e-005zm20.21875,9.625c.47875.69933.82728,1.39951 1,2.15625l.4375.3125c-.18704-.6076-.48064-1.17395-.875-1.75-.16455-.24037-.37006-.47469-.5625-.71875zm-1.34375,4.15625v.3125l.65625.5 17.5,12.84375 .1875.15625 .25.0625c1.97506.6077 3.83321.51645 5.375.28125l.15625-.8125c-1.65331.31476-3.79014.51168-6.0625-.1875l-.25-.0625-.1875-.15625-17.5-12.84375-.125-.0937v-5e-005z" fill="#e7c9b0"/>
  <path d="m318.86 531.22-1.4688 10.25c0.90361 0.75523 1.7959 1.5124 2.7188 2.25 0.43752 0.34969 5.8472 4.0115 12.031 8.1562 11.834 7.9312 13.111 8.9079 13.719 10.5 0.23247 0.60872 0.24298 0.77335 0.0312 1.2188l0.25 0.15625c0-0.84518 1.1831-5.4567 2.4062-10.031-0.0744-0.19873-0.15154-0.39616-0.25-0.59375-0.93396-1.8742-2.0655-2.7813-13.531-10.5-5.9625-4.0139-11.413-7.7415-12.094-8.2812-1.2649-1.0032-2.5604-2.0538-3.8125-3.125z" fill="url(#a)"/>
  <path d="m377.51 533.17c-6.518 7.2055-15.684 20.887-23.548 22.542 0 0-2.0358 6.846-1.1213 10.196 2.8397-1.0295 8.4304-5.01 13.031-10 4.9579-5.3771 13.149-15.466 17.531-23.781 1.25-2 2.0196-12.914 2.0196-12.914-0.52416 0.99628-1.0462 3.5211-2.077 5.4955-1.8504 3.5442-4.5068 6.9814-5.8355 8.4613z" fill="#aa6934"/>
  <path d="m367.45919,519.73621c-.58022.0656-1.02269.30028-1.24248.6878-.58612,1.03338.64687,2.84452 2.75121,4.03807 .94986.53875 1.90164.83572 2.72902.93186-.42638-.15488-.87447-.33039-1.30904-.57687-2.10434-1.19355-3.33733-3.00468-2.75121-4.03807 .3262-.57512 1.14826-.77176 2.17434-.64342-.87125-.31908-1.69948-.47314-2.35184-.39937z" fill="#cf9361"/>
  <path d="m346.77632,538.82809c-.58022.0656-1.02269.30028-1.24249.6878-.58611,1.03338.64687,2.84452 2.75122,4.03807 .94986.53875 1.90164.83572 2.72902.93186-.42639-.15488-.87447-.33039-1.30904-.57687-2.10435-1.19355-3.33733-3.00468-2.75122-4.03807 .32621-.57512 1.14827-.77176 2.17435-.64342-.87125-.31908-1.69948-.47314-2.35184-.39937z" fill="#cf9361"/>
  <path d="m339.88 514.06c-1.309 2.2826-3.7391 3.1489-5.8393 2.2217s-3.4802-2.7907-3.0822-4.1622 1.9313-3.2163 4.2196-3.0316c2.7076 0.21859 5.0998 3.6005 4.7019 4.972z" fill="#cf9361"/>
  <path transform="matrix(.50616 .22346 -.18115 .62435 434.99 302.11)" d="m-60.458 363.38c0 2.1967-3.3637 3.9775-7.513 3.9775s-7.513-1.7808-7.513-3.9775 3.3637-3.9775 7.513-3.9775 7.513 1.7808 7.513 3.9775z" fill="#c3dd6e"/>
  <path d="m337.09 512.57c-1.7106-0.11722-2.1858 3.2824-2.1858 3.2824m-2.3759-1.2895c0.38014-0.35168 1.3305-2.9307 2.1858-3.5168" fill="none" stroke="#8faf27"/>
  <path d="m346 561.86 0.375 2.625-5.8509-4.857-14.024-9.893-2 0.125-0.75-2.375c-4.5741-3.7458-8.1638-5.7416-13.033-9.4874l-0.30715-0.79599-6.2845-5.7166 1.875-1 7.2561 7.6799 12.119 9.6951 2.25 1.625 15.56 9.6538 2.8153 2.7212z" fill="#2e3436" opacity=".2"/>
  <path d="m310.12 512.49 2.75 3" fill="none" stroke="#8faf27" stroke-width="2"/>
  <path d="m319.75 505.24 2.75 3" fill="none" stroke="#8faf27" stroke-width="2"/>
  <path d="m314 508.99 3.125 3.125" fill="none" stroke="#8faf27" stroke-width="2"/>
 </g>
</svg>
