<?xml version="1.0" encoding="UTF-8" standalone="no"?>
<!-- Created with Inkscape (http://www.inkscape.org/) -->

<svg
   xmlns:dc="http://purl.org/dc/elements/1.1/"
   xmlns:cc="http://creativecommons.org/ns#"
   xmlns:rdf="http://www.w3.org/1999/02/22-rdf-syntax-ns#"
   xmlns:svg="http://www.w3.org/2000/svg"
   xmlns="http://www.w3.org/2000/svg"
   xmlns:sodipodi="http://sodipodi.sourceforge.net/DTD/sodipodi-0.dtd"
   xmlns:inkscape="http://www.inkscape.org/namespaces/inkscape"
   width="155.86212mm"
   height="39.890331mm"
   viewBox="0 0 155.86212 39.890331"
   version="1.1"
   id="svg13511"
   inkscape:version="0.92.3 (2405546, 2018-03-11)"
   sodipodi:docname="2018-TW-03a.svg">
  <defs
     id="defs13505" />
  <sodipodi:namedview
     id="base"
     pagecolor="#ffffff"
     bordercolor="#666666"
     borderopacity="1.0"
     inkscape:pageopacity="0.0"
     inkscape:pageshadow="2"
     inkscape:zoom="1.979899"
     inkscape:cx="287.37469"
     inkscape:cy="35.948007"
     inkscape:document-units="mm"
     inkscape:current-layer="layer1"
     showgrid="false"
     fit-margin-top="2"
     fit-margin-left="2"
     fit-margin-right="2"
     fit-margin-bottom="2"
     inkscape:window-width="1920"
     inkscape:window-height="1017"
     inkscape:window-x="-8"
     inkscape:window-y="-8"
     inkscape:window-maximized="1" />
  <metadata
     id="metadata13508">
    <rdf:RDF>
      <cc:Work
         rdf:about="">
        <dc:format>image/svg+xml</dc:format>
        <dc:type
           rdf:resource="http://purl.org/dc/dcmitype/StillImage" />
        <dc:title />
      </cc:Work>
    </rdf:RDF>
  </metadata>
  <g
     inkscape:label="Layer 1"
     inkscape:groupmode="layer"
     id="layer1"
     transform="translate(286.46106,-72.438389)">
    <g
       transform="translate(-317.18626,-219.47387)"
       id="g17726-8">
      <g
         id="g17703-4">
        <path
           style="clip-rule:evenodd;fill:#9f7a52;fill-rule:evenodd"
           inkscape:connector-curvature="0"
           clip-path="none"
           d="M 0.382,57.785 V 29.083 c 0,-15.851 26.022,-28.701 58.122,-28.701 32.101,0 58.122,12.85 58.122,28.701 V 57.784 H 0.382 Z"
           id="path8-33-6-59"
           transform="matrix(0.26458333,0,0,0.26458333,120.76925,293.91246)" />
        <path
           style="fill:none;stroke:#803d20;stroke-width:0.76550001;stroke-miterlimit:8"
           inkscape:connector-curvature="0"
           clip-path="none"
           stroke-miterlimit="8"
           d="M 0.382,57.785 V 29.083 c 0,-15.851 26.022,-28.701 58.122,-28.701 32.101,0 58.122,12.85 58.122,28.701 V 57.784 H 0.382 Z"
           id="path10-74-6-5"
           transform="matrix(0.26458333,0,0,0.26458333,120.76925,293.91246)" />
        <g
           transform="matrix(0.8394406,0,0,0.8394406,130.48956,43.917914)"
           id="g9112-2-6"
           clip-path="none">
          <path
             sodipodi:nodetypes="cssscssssssssssc"
             inkscape:connector-curvature="0"
             id="path6329-3-8-3"
             d="m 9.86615,308.20598 c -0.052,0.0309 -0.10802,-0.0282 -0.1297,-0.0861 -0.15611,-0.4171 0.15716,-0.89463 0.62125,-1.3672 0.0568,-0.0578 0.15637,-0.18051 0.15637,-0.12716 v 4e-5 c 0.67067,0.79353 1.82034,0.36337 3.26182,0.48428 0.58783,0.0493 0.36359,0.46081 -0.12993,0.46952 -0.816,0.0144 -0.68498,-0.0383 -1.63812,0.0673 -0.0929,0.0103 -0.1631,0.0957 -0.0264,0.15397 0.45063,0.1922 0.53461,0.074 1.10285,0.15106 0.51295,0.0695 0.23923,0.6377 -0.41774,0.52447 -0.44588,-0.0768 -1.44921,-0.5752 -1.67827,-0.57556 -0.14521,-2.3e-4 -0.0532,0.13554 0.003,0.23683 0.21262,0.38587 1.31771,0.86739 1.54246,0.9252 0.59607,0.15333 0.43672,0.47791 -0.40361,0.459 -0.82722,-0.0186 -1.67877,-1.55536 -2.2636,-1.31565 z"
             style="display:inline;opacity:1;fill:#000000;fill-opacity:1;fill-rule:evenodd;stroke:none;stroke-width:0.26458332px;stroke-linecap:butt;stroke-linejoin:miter;stroke-opacity:1" />
          <path
             sodipodi:nodetypes="cssssssssssssccc"
             inkscape:connector-curvature="0"
             id="path6331-8-5-4"
             d="m 3.37463,306.31682 c -0.0936,0.53075 -2.06157,0.049 -2.44083,0.22405 -0.32527,0.15015 -0.69868,0.55118 -0.0589,0.44299 0.47129,-0.0797 1.51855,0.0168 2.13398,0.13803 0.11728,0.0231 0.10131,0.11868 0.0708,0.1692 -0.23194,0.38425 -1.26786,0.0536 -2.09069,0.31302 -0.2667,0.0841 0.46724,0.4832 0.74548,0.45504 1.38311,-0.13999 1.70453,-0.3642 1.73677,-0.2714 0.0183,0.0527 0.14545,0.19969 0.0337,0.33017 -0.49901,0.58247 -1.00754,0.14741 -1.92532,0.95084 -0.13569,0.11878 -0.0381,0.30893 0.14174,0.29529 1.45878,-0.11065 2.0895,-1.59232 2.93522,0.43113 0.0291,0.0696 0.17032,-1.41789 0.17968,-1.49158 0.0733,-0.5775 -0.39668,-1.24413 -0.8976,-1.61834 -0.23724,-0.0402 -0.38656,-0.21458 -0.56407,-0.36844 z"
             style="display:inline;opacity:1;fill:#000000;fill-rule:evenodd;stroke:none;stroke-width:0.26458332px;stroke-linecap:butt;stroke-linejoin:miter;stroke-opacity:1" />
          <path
             sodipodi:nodetypes="cssssssssssc"
             inkscape:connector-curvature="0"
             id="path6327-1-5-8"
             d="m 5.26911,311.37438 c 2.11756,0.0983 1.53413,0.30695 2.362,0.28503 0.30596,-0.008 0.63917,-0.1283 0.83015,-0.36221 0.30913,-0.37864 0.22467,-1.40614 0.43537,-1.5989 0.30186,-0.27617 0.39706,-0.30061 0.8254,-0.57436 0.62762,-0.4011 0.98157,-0.90763 1.0029,-1.61295 0.0198,-0.65381 -0.21991,-2.05016 -1.22617,-2.1273 -2.36069,-0.18097 -2.61248,0.50502 -4.19169,-0.42793 -0.69416,-0.41009 -1.75156,0.50584 -1.87976,1.00885 -0.27349,1.07309 0.81857,2.71509 1.19429,3.39237 0.24559,0.44272 0.19787,1.16514 0.32681,1.71283 0.0445,0.1889 0.019,0.28434 0.3207,0.30457 z"
             style="display:inline;opacity:1;fill:#ffffff;fill-rule:evenodd;stroke:none;stroke-width:0.26458332px;stroke-linecap:butt;stroke-linejoin:miter;stroke-opacity:1" />
          <path
             sodipodi:nodetypes="cccccccscccccccccccccssccscsscssssscsccsssssscc"
             inkscape:connector-curvature="0"
             id="path7012-2-43-5"
             d="m 4.90149,304.74054 c -0.69241,0.0321 -1.5548,0.74295 -1.64951,1.15394 -0.18933,0.82163 0.23077,1.7124 1.25264,3.55585 0.2456,0.44272 0.12789,1.14213 0.25683,1.68982 0.0445,0.1889 0.0771,0.35443 0.37879,0.37466 2.11755,0.0983 1.69788,0.24228 2.52575,0.22036 0.30596,-0.008 0.70943,-0.1575 0.9004,-0.39141 0.30913,-0.37864 0.24819,-1.39422 0.45888,-1.58698 0.30187,-0.27618 0.38557,-0.25387 0.81391,-0.52762 0.62762,-0.4011 1.02821,-0.98967 1.04955,-1.69499 0.0198,-0.65381 -0.33681,-2.19042 -1.34308,-2.26756 -2.36069,-0.18097 -2.62415,0.50507 -4.20336,-0.42788 -0.13015,-0.0769 -0.28101,-0.1056 -0.4408,-0.0982 z m 0.0496,0.45631 c 0.18376,-5.3e-4 0.6258,0.29042 0.6258,0.29042 0.29314,0.13506 0.41482,0.26219 1.19942,0.28525 0.005,0.42052 0.24897,1.74283 -0.10542,2.3518 -0.19307,0.33175 -0.3584,0.5015 -1.06557,0.5581 -1.15447,-0.0829 -0.97546,-0.23427 -1.63246,-1.18804 -0.23981,-0.55709 -0.38448,-1.05556 -0.29094,-1.37666 0.16482,-0.56579 0.39282,-0.91825 1.26917,-0.92087 z m 4.41679,0.46302 c 0.46374,-0.0356 1.24636,1.07922 1.13998,1.87637 -0.11654,0.8733 -0.69687,1.35548 -1.35444,1.66708 -0.20219,0.0745 -0.46907,0.0613 -0.76946,0.0377 -0.34284,-0.027 -0.69089,-0.37126 -0.53795,-0.99994 0.19936,-0.81952 0.14228,-1.60209 0.46922,-2.50993 0.30907,-0.0181 0.65421,-0.0408 1.05265,-0.0713 z m -3.31687,3.28737 c 0.25664,-0.0359 0.55721,-0.10503 0.65516,-0.007 0.1044,0.10477 0.0891,1.39341 -0.24416,2.02022 -0.13439,0.25276 -0.42273,0.19316 -0.77591,0.14298 -0.38935,-0.0553 -0.38439,-0.0531 -0.43427,-0.16186 -0.11331,-0.24706 -0.13274,-0.9148 -0.12648,-1.30897 0.006,-0.38873 0.0968,-0.54448 0.17201,-0.59248 0.35045,-0.0941 0.42805,-0.0476 0.75365,-0.0931 z m 1.19039,0.13619 c 0.51054,0.24669 0.50745,0.47486 0.90781,0.60413 0.20441,0.066 0.45937,0.14756 0.44869,0.26042 -0.051,0.53886 -0.10036,0.62884 -0.23048,1.04954 -0.0363,0.11749 -0.24546,0.0966 -0.40526,0.15724 -0.22894,0.0868 -0.37228,0.16189 -0.46342,0.17143 -0.17041,0.0178 -0.34862,0.0668 -0.4563,-0.24443 -0.19087,-0.55168 -0.10322,-1.3096 -0.0885,-1.82537 0.007,-0.23405 0.25328,-0.18945 0.28741,-0.17296 z"
             style="display:inline;opacity:1;fill:#000000;fill-rule:evenodd;stroke:none;stroke-width:0.26458332px;stroke-linecap:butt;stroke-linejoin:miter;stroke-opacity:1" />
          <path
             sodipodi:nodetypes="csssssc"
             inkscape:connector-curvature="0"
             id="path6325-8-4-1"
             d="m 5.29404,304.92876 c 1.49305,0.80334 2.70133,0.15714 4.28657,0.48416 0.71021,0.14651 -0.0857,2.72381 -1.4602,2.70644 -0.25005,-0.003 -0.77167,-0.0161 -1.14539,-0.1669 -0.46275,-0.18674 -1.37019,-0.82065 -1.76898,-1.51291 -0.26932,-0.46751 -0.17679,-1.65326 0.088,-1.51079 z"
             style="display:inline;opacity:1;fill:#000000;fill-rule:evenodd;stroke:none;stroke-width:0.26458332px;stroke-linecap:butt;stroke-linejoin:miter;stroke-opacity:1" />
          <path
             sodipodi:nodetypes="sssss"
             inkscape:connector-curvature="0"
             id="path7017-5-74-3"
             d="m 5.31335,305.99477 c 0,-0.23977 0.35995,-0.37703 0.59532,-0.35554 0.2293,0.0209 0.48464,0.28265 0.47335,0.51263 -0.0116,0.2362 -0.27656,0.39219 -0.51263,0.37828 -0.24914,-0.0147 -0.55604,-0.29902 -0.55604,-0.53537 z"
             style="display:inline;opacity:1;fill:#ffffff;fill-rule:evenodd;stroke:none;stroke-width:0.26458332px;stroke-linecap:butt;stroke-linejoin:miter;stroke-opacity:1" />
          <path
             sodipodi:nodetypes="sssss"
             inkscape:connector-curvature="0"
             id="path6321-7-3-8"
             d="m 1.95763,303.08612 c 0.81768,0.0106 1.06548,0.51082 1.08669,0.95676 0.0254,0.53526 -0.36639,1.02004 -1.05978,1.04504 -0.71461,0.0258 -1.1025,-0.44073 -1.1254,-0.99779 -0.0133,-0.32433 0.3321,-1.01393 1.09849,-1.00401 z"
             style="display:inline;fill:#1a1a1a;fill-rule:evenodd;stroke:none;stroke-width:0.26458332px;stroke-linecap:butt;stroke-linejoin:miter;stroke-opacity:1" />
          <path
             sodipodi:nodetypes="sssss"
             inkscape:connector-curvature="0"
             id="path6323-5-7-0"
             d="m 12.30473,303.44048 c -0.62097,-0.006 -1.06912,0.52582 -1.06621,1.02166 0.003,0.49049 0.57593,1.00078 1.06621,0.98634 0.6922,-0.0204 1.08499,-0.51436 1.11616,-1.00973 0.0351,-0.55716 -0.49842,-0.99207 -1.11616,-0.99827 z"
             style="display:inline;fill:#1a1a1a;fill-rule:evenodd;stroke:none;stroke-width:0.26458332px;stroke-linecap:butt;stroke-linejoin:miter;stroke-opacity:1" />
        </g>
      </g>
      <g
         id="g17708-9">
        <path
           id="path18-64-6-42"
           d="M 116.626,58.549 V 87.25 c 0,15.851 -26.021,28.701 -58.122,28.701 -32.1,0 -58.122,-12.851 -58.122,-28.701 V 58.549 Z"
           clip-path="none"
           inkscape:connector-curvature="0"
           style="clip-rule:evenodd;fill:#9f7a52;fill-rule:evenodd"
           transform="matrix(0.26458333,0,0,0.26458333,120.76925,293.73056)" />
        <path
           id="path38-8-3-1"
           d="m 104.008,59.167 v 23.727 c 0,13.104 -20.887,23.726 -46.651,23.726 -25.764,0 -46.65,-10.623 -46.65,-23.727 V 59.167 Z"
           clip-path="none"
           inkscape:connector-curvature="0"
           style="clip-rule:evenodd;fill:#ffffff;fill-rule:evenodd"
           transform="matrix(0.26458333,0,0,0.26458333,120.76925,293.64588)" />
        <path
           id="path20-87-3-7"
           d="M 116.626,58.549 V 87.25 c 0,15.851 -26.021,28.701 -58.122,28.701 -32.1,0 -58.122,-12.851 -58.122,-28.701 V 58.549 Z"
           stroke-miterlimit="8"
           clip-path="none"
           inkscape:connector-curvature="0"
           style="fill:none;stroke:#803d20;stroke-width:0.76550001;stroke-miterlimit:8"
           transform="matrix(0.26458333,0,0,0.26458333,120.76925,293.73056)" />
      </g>
    </g>
    <g
       id="g21289"
       transform="translate(-265.33118,-214.00065)">
      <g
         aria-label="40"
         style="font-size:5.64444447px;font-family:sans-serif;text-align:center;text-anchor:middle;stroke-width:0.26447746"
         id="text110-4-7">
        <path
           inkscape:connector-curvature="0"
           d="m 102.62811,302.16306 -1.4056,2.1966 h 1.4056 z m -0.14607,-0.48507 h 0.70004 v 2.68167 h 0.58704 v 0.46302 h -0.58704 v 0.97014 h -0.55397 v -0.97014 h -1.8576 v -0.53744 z"
           style="font-size:5.64444447px;font-family:sans-serif;text-align:center;text-anchor:middle;stroke-width:0.26447746"
           id="path33525" />
        <path
           inkscape:connector-curvature="0"
           d="m 105.88303,302.04455 q -0.42994,0 -0.64767,0.42444 -0.21498,0.42168 -0.21498,1.27055 0,0.84611 0.21498,1.27055 0.21773,0.42168 0.64767,0.42168 0.43271,0 0.64768,-0.42168 0.21773,-0.42444 0.21773,-1.27055 0,-0.84887 -0.21773,-1.27055 -0.21497,-0.42444 -0.64768,-0.42444 z m 0,-0.44097 q 0.69178,0 1.05558,0.54846 0.36656,0.5457 0.36656,1.5875 0,1.03904 -0.36656,1.5875 -0.3638,0.5457 -1.05558,0.5457 -0.69177,0 -1.05833,-0.5457 -0.3638,-0.54846 -0.3638,-1.5875 0,-1.0418 0.3638,-1.5875 0.36656,-0.54846 1.05833,-0.54846 z"
           style="font-size:5.64444447px;font-family:sans-serif;text-align:center;text-anchor:middle;stroke-width:0.26447746"
           id="path33527" />
      </g>
      <g
         transform="translate(-410.9137,103.08515)"
         id="g29093">
        <path
           style="fill:none;stroke:#040000;stroke-width:0.20299999;stroke-miterlimit:8;stroke-dasharray:none;stroke-opacity:1"
           clip-path="none"
           d="m 514.95128,185.73453 v 11.48614 m 0,6.98095 v 11.39334"
           id="line38-1-0-7"
           inkscape:connector-curvature="0"
           sodipodi:nodetypes="cccc" />
        <path
           inkscape:connector-curvature="0"
           style="fill:none;fill-opacity:1;stroke:#040000;stroke-width:0.20299999;stroke-linecap:round;stroke-linejoin:miter;stroke-miterlimit:8;stroke-dasharray:none;stroke-opacity:1"
           clip-path="none"
           d="m 515.89664,214.13212 -0.94536,1.61872 -0.94483,-1.61898"
           id="polyline40-1-6-6" />
        <path
           inkscape:connector-curvature="0"
           transform="matrix(0,0.26458333,-0.26458333,0,566.28521,183.83668)"
           style="fill:none;stroke:#040000;stroke-width:0.76609999;stroke-linecap:round;stroke-miterlimit:8"
           clip-path="none"
           d="m 12.612,197.589 -6.118,-3.572 6.117,-3.572"
           id="polyline42-4-5-0" />
      </g>
    </g>
    <g
       transform="translate(-265.01687,-214.00065)"
       id="g21282">
      <g
         transform="translate(-411.89343,103.36226)"
         id="g29081">
        <path
           style="fill:none;stroke:#040000;stroke-width:0.20299999;stroke-miterlimit:8;stroke-dasharray:none;stroke-opacity:1"
           clip-path="none"
           d="m 480.85745,218.83272 h 10.66049 m 9.10667,0 h 10.51526"
           id="line38-1-70"
           inkscape:connector-curvature="0"
           sodipodi:nodetypes="cccc" />
        <path
           style="fill:none;fill-opacity:1;stroke:#040000;stroke-width:0.20299999;stroke-linecap:round;stroke-linejoin:miter;stroke-miterlimit:8;stroke-dasharray:none;stroke-opacity:1"
           clip-path="none"
           d="m 509.63182,217.88736 1.61872,0.94536 -1.61898,0.94483"
           id="polyline40-1-5"
           inkscape:connector-curvature="0" />
        <path
           inkscape:connector-curvature="0"
           transform="matrix(0.26458333,0,0,0.26458333,478.97588,167.49879)"
           style="fill:none;stroke:#040000;stroke-width:0.76609999;stroke-linecap:round;stroke-miterlimit:8"
           clip-path="none"
           d="m 12.612,197.589 -6.118,-3.572 6.117,-3.572"
           id="polyline42-4-7" />
      </g>
      <g
         aria-label="40"
         style="font-size:5.64444447px;text-align:center;text-anchor:middle;stroke-width:0.26447746"
         id="text80-7-4">
        <path
           inkscape:connector-curvature="0"
           d="m 82.669307,320.61961 -1.405599,2.19659 h 1.405599 z m -0.146072,-0.48507 h 0.700044 v 2.68166 h 0.587044 v 0.46302 h -0.587044 v 0.97014 h -0.553972 v -0.97014 h -1.857595 v -0.53743 z"
           style="font-style:normal;font-variant:normal;font-weight:normal;font-family:sans-serif"
           id="path33532" />
        <path
           inkscape:connector-curvature="0"
           d="m 85.924233,320.5011 q -0.429947,0 -0.647678,0.42443 -0.214973,0.42168 -0.214973,1.27055 0,0.84612 0.214973,1.27055 0.217731,0.42168 0.647678,0.42168 0.432704,0 0.647678,-0.42168 0.21773,-0.42443 0.21773,-1.27055 0,-0.84887 -0.21773,-1.27055 -0.214974,-0.42443 -0.647678,-0.42443 z m 0,-0.44098 q 0.691776,0 1.055578,0.54846 0.366558,0.54571 0.366558,1.5875 0,1.03904 -0.366558,1.5875 -0.363802,0.54571 -1.055578,0.54571 -0.691775,0 -1.058333,-0.54571 -0.363802,-0.54846 -0.363802,-1.5875 0,-1.04179 0.363802,-1.5875 0.366558,-0.54846 1.058333,-0.54846 z"
           style="font-style:normal;font-variant:normal;font-weight:normal;font-family:sans-serif"
           id="path33534" />
      </g>
    </g>
    <g
       transform="translate(-265.01687,-214.00065)"
       id="g58475">
      <g
         transform="translate(-57.02988,1.11677)"
         id="g17791-0">
        <path
           style="clip-rule:evenodd;fill:#9f7a52;fill-rule:evenodd"
           inkscape:connector-curvature="0"
           clip-path="none"
           d="M 0.382,29.467 V 14.925 c 0,-8.031 12.84,-14.542 28.679,-14.542 15.839,0 28.679,6.511 28.679,14.542 v 14.542 z"
           id="path8-3-2-53"
           transform="matrix(0.26458333,0,0,0.26458333,166.44249,302.32791)" />
        <path
           style="fill:none;stroke:#803d20;stroke-width:0.76550001;stroke-miterlimit:8"
           inkscape:connector-curvature="0"
           clip-path="none"
           stroke-miterlimit="8"
           d="M 0.382,29.467 V 14.925 c 0,-8.031 12.84,-14.542 28.679,-14.542 15.839,0 28.679,6.511 28.679,14.542 v 14.542 z"
           id="path10-4-2-1"
           transform="matrix(0.26458333,0,0,0.26458333,166.44249,302.32791)" />
        <g
           transform="matrix(0.54130115,0,0,0.54130115,170.3051,140.1946)"
           id="g9112-9-74"
           clip-path="none">
          <path
             sodipodi:nodetypes="cssscssssssssssc"
             inkscape:connector-curvature="0"
             id="path6329-3-3-8"
             d="m 9.86615,308.20598 c -0.052,0.0309 -0.10802,-0.0282 -0.1297,-0.0861 -0.15611,-0.4171 0.15716,-0.89463 0.62125,-1.3672 0.0568,-0.0578 0.15637,-0.18051 0.15637,-0.12716 v 4e-5 c 0.67067,0.79353 1.82034,0.36337 3.26182,0.48428 0.58783,0.0493 0.36359,0.46081 -0.12993,0.46952 -0.816,0.0144 -0.68498,-0.0383 -1.63812,0.0673 -0.0929,0.0103 -0.1631,0.0957 -0.0264,0.15397 0.45063,0.1922 0.53461,0.074 1.10285,0.15106 0.51295,0.0695 0.23923,0.6377 -0.41774,0.52447 -0.44588,-0.0768 -1.44921,-0.5752 -1.67827,-0.57556 -0.14521,-2.3e-4 -0.0532,0.13554 0.003,0.23683 0.21262,0.38587 1.31771,0.86739 1.54246,0.9252 0.59607,0.15333 0.43672,0.47791 -0.40361,0.459 -0.82722,-0.0186 -1.67877,-1.55536 -2.2636,-1.31565 z"
             style="display:inline;opacity:1;fill:#000000;fill-opacity:1;fill-rule:evenodd;stroke:none;stroke-width:0.26458332px;stroke-linecap:butt;stroke-linejoin:miter;stroke-opacity:1" />
          <path
             sodipodi:nodetypes="cssssssssssssccc"
             inkscape:connector-curvature="0"
             id="path6331-8-0-3"
             d="m 3.37463,306.31682 c -0.0936,0.53075 -2.06157,0.049 -2.44083,0.22405 -0.32527,0.15015 -0.69868,0.55118 -0.0589,0.44299 0.47129,-0.0797 1.51855,0.0168 2.13398,0.13803 0.11728,0.0231 0.10131,0.11868 0.0708,0.1692 -0.23194,0.38425 -1.26786,0.0536 -2.09069,0.31302 -0.2667,0.0841 0.46724,0.4832 0.74548,0.45504 1.38311,-0.13999 1.70453,-0.3642 1.73677,-0.2714 0.0183,0.0527 0.14545,0.19969 0.0337,0.33017 -0.49901,0.58247 -1.00754,0.14741 -1.92532,0.95084 -0.13569,0.11878 -0.0381,0.30893 0.14174,0.29529 1.45878,-0.11065 2.0895,-1.59232 2.93522,0.43113 0.0291,0.0696 0.17032,-1.41789 0.17968,-1.49158 0.0733,-0.5775 -0.39668,-1.24413 -0.8976,-1.61834 -0.23724,-0.0402 -0.38656,-0.21458 -0.56407,-0.36844 z"
             style="display:inline;opacity:1;fill:#000000;fill-rule:evenodd;stroke:none;stroke-width:0.26458332px;stroke-linecap:butt;stroke-linejoin:miter;stroke-opacity:1" />
          <path
             sodipodi:nodetypes="cssssssssssc"
             inkscape:connector-curvature="0"
             id="path6327-1-0-0"
             d="m 5.26911,311.37438 c 2.11756,0.0983 1.53413,0.30695 2.362,0.28503 0.30596,-0.008 0.63917,-0.1283 0.83015,-0.36221 0.30913,-0.37864 0.22467,-1.40614 0.43537,-1.5989 0.30186,-0.27617 0.39706,-0.30061 0.8254,-0.57436 0.62762,-0.4011 0.98157,-0.90763 1.0029,-1.61295 0.0198,-0.65381 -0.21991,-2.05016 -1.22617,-2.1273 -2.36069,-0.18097 -2.61248,0.50502 -4.19169,-0.42793 -0.69416,-0.41009 -1.75156,0.50584 -1.87976,1.00885 -0.27349,1.07309 0.81857,2.71509 1.19429,3.39237 0.24559,0.44272 0.19787,1.16514 0.32681,1.71283 0.0445,0.1889 0.019,0.28434 0.3207,0.30457 z"
             style="display:inline;opacity:1;fill:#ffffff;fill-rule:evenodd;stroke:none;stroke-width:0.26458332px;stroke-linecap:butt;stroke-linejoin:miter;stroke-opacity:1" />
          <path
             sodipodi:nodetypes="cccccccscccccccccccccssccscsscssssscsccsssssscc"
             inkscape:connector-curvature="0"
             id="path7012-2-77-6"
             d="m 4.90149,304.74054 c -0.69241,0.0321 -1.5548,0.74295 -1.64951,1.15394 -0.18933,0.82163 0.23077,1.7124 1.25264,3.55585 0.2456,0.44272 0.12789,1.14213 0.25683,1.68982 0.0445,0.1889 0.0771,0.35443 0.37879,0.37466 2.11755,0.0983 1.69788,0.24228 2.52575,0.22036 0.30596,-0.008 0.70943,-0.1575 0.9004,-0.39141 0.30913,-0.37864 0.24819,-1.39422 0.45888,-1.58698 0.30187,-0.27618 0.38557,-0.25387 0.81391,-0.52762 0.62762,-0.4011 1.02821,-0.98967 1.04955,-1.69499 0.0198,-0.65381 -0.33681,-2.19042 -1.34308,-2.26756 -2.36069,-0.18097 -2.62415,0.50507 -4.20336,-0.42788 -0.13015,-0.0769 -0.28101,-0.1056 -0.4408,-0.0982 z m 0.0496,0.45631 c 0.18376,-5.3e-4 0.6258,0.29042 0.6258,0.29042 0.29314,0.13506 0.41482,0.26219 1.19942,0.28525 0.005,0.42052 0.24897,1.74283 -0.10542,2.3518 -0.19307,0.33175 -0.3584,0.5015 -1.06557,0.5581 -1.15447,-0.0829 -0.97546,-0.23427 -1.63246,-1.18804 -0.23981,-0.55709 -0.38448,-1.05556 -0.29094,-1.37666 0.16482,-0.56579 0.39282,-0.91825 1.26917,-0.92087 z m 4.41679,0.46302 c 0.46374,-0.0356 1.24636,1.07922 1.13998,1.87637 -0.11654,0.8733 -0.69687,1.35548 -1.35444,1.66708 -0.20219,0.0745 -0.46907,0.0613 -0.76946,0.0377 -0.34284,-0.027 -0.69089,-0.37126 -0.53795,-0.99994 0.19936,-0.81952 0.14228,-1.60209 0.46922,-2.50993 0.30907,-0.0181 0.65421,-0.0408 1.05265,-0.0713 z m -3.31687,3.28737 c 0.25664,-0.0359 0.55721,-0.10503 0.65516,-0.007 0.1044,0.10477 0.0891,1.39341 -0.24416,2.02022 -0.13439,0.25276 -0.42273,0.19316 -0.77591,0.14298 -0.38935,-0.0553 -0.38439,-0.0531 -0.43427,-0.16186 -0.11331,-0.24706 -0.13274,-0.9148 -0.12648,-1.30897 0.006,-0.38873 0.0968,-0.54448 0.17201,-0.59248 0.35045,-0.0941 0.42805,-0.0476 0.75365,-0.0931 z m 1.19039,0.13619 c 0.51054,0.24669 0.50745,0.47486 0.90781,0.60413 0.20441,0.066 0.45937,0.14756 0.44869,0.26042 -0.051,0.53886 -0.10036,0.62884 -0.23048,1.04954 -0.0363,0.11749 -0.24546,0.0966 -0.40526,0.15724 -0.22894,0.0868 -0.37228,0.16189 -0.46342,0.17143 -0.17041,0.0178 -0.34862,0.0668 -0.4563,-0.24443 -0.19087,-0.55168 -0.10322,-1.3096 -0.0885,-1.82537 0.007,-0.23405 0.25328,-0.18945 0.28741,-0.17296 z"
             style="display:inline;opacity:1;fill:#000000;fill-rule:evenodd;stroke:none;stroke-width:0.26458332px;stroke-linecap:butt;stroke-linejoin:miter;stroke-opacity:1" />
          <path
             sodipodi:nodetypes="csssssc"
             inkscape:connector-curvature="0"
             id="path6325-8-13-64"
             d="m 5.29404,304.92876 c 1.49305,0.80334 2.70133,0.15714 4.28657,0.48416 0.71021,0.14651 -0.0857,2.72381 -1.4602,2.70644 -0.25005,-0.003 -0.77167,-0.0161 -1.14539,-0.1669 -0.46275,-0.18674 -1.37019,-0.82065 -1.76898,-1.51291 -0.26932,-0.46751 -0.17679,-1.65326 0.088,-1.51079 z"
             style="display:inline;opacity:1;fill:#000000;fill-rule:evenodd;stroke:none;stroke-width:0.26458332px;stroke-linecap:butt;stroke-linejoin:miter;stroke-opacity:1" />
          <path
             sodipodi:nodetypes="sssss"
             inkscape:connector-curvature="0"
             id="path7017-5-0-2"
             d="m 5.31335,305.99477 c 0,-0.23977 0.35995,-0.37703 0.59532,-0.35554 0.2293,0.0209 0.48464,0.28265 0.47335,0.51263 -0.0116,0.2362 -0.27656,0.39219 -0.51263,0.37828 -0.24914,-0.0147 -0.55604,-0.29902 -0.55604,-0.53537 z"
             style="display:inline;opacity:1;fill:#ffffff;fill-rule:evenodd;stroke:none;stroke-width:0.26458332px;stroke-linecap:butt;stroke-linejoin:miter;stroke-opacity:1" />
          <path
             sodipodi:nodetypes="sssss"
             inkscape:connector-curvature="0"
             id="path6321-7-10-4"
             d="m 1.95763,303.08612 c 0.81768,0.0106 1.06548,0.51082 1.08669,0.95676 0.0254,0.53526 -0.36639,1.02004 -1.05978,1.04504 -0.71461,0.0258 -1.1025,-0.44073 -1.1254,-0.99779 -0.0133,-0.32433 0.3321,-1.01393 1.09849,-1.00401 z"
             style="display:inline;fill:#1a1a1a;fill-rule:evenodd;stroke:none;stroke-width:0.26458332px;stroke-linecap:butt;stroke-linejoin:miter;stroke-opacity:1" />
          <path
             sodipodi:nodetypes="sssss"
             inkscape:connector-curvature="0"
             id="path6323-5-6-6"
             d="m 12.30473,303.44048 c -0.62097,-0.006 -1.06912,0.52582 -1.06621,1.02166 0.003,0.49049 0.57593,1.00078 1.06621,0.98634 0.6922,-0.0204 1.08499,-0.51436 1.11616,-1.00973 0.0351,-0.55716 -0.49842,-0.99207 -1.11616,-0.99827 z"
             style="display:inline;fill:#1a1a1a;fill-rule:evenodd;stroke:none;stroke-width:0.26458332px;stroke-linecap:butt;stroke-linejoin:miter;stroke-opacity:1" />
        </g>
      </g>
      <g
         id="g58457">
        <path
           style="clip-rule:evenodd;fill:#9f7a52;fill-rule:evenodd;stroke-width:0.26458332"
           inkscape:connector-curvature="0"
           clip-path="none"
           d="m 124.68965,311.24116 v 3.8473 c 0,2.12487 -3.39725,3.84757 -7.58798,3.84757 -4.19074,0 -7.58799,-1.7227 -7.58799,-3.84757 v -3.8473 z"
           id="path28-5-2" />
        <path
           id="path38-5-9-5"
           d="m 48.18,29.849 v 9.567 c 0,5.283 -8.731,9.566 -19.502,9.566 -10.77,0 -19.501,-4.283 -19.501,-9.566 v -9.567 z"
           clip-path="none"
           inkscape:connector-curvature="0"
           style="clip-rule:evenodd;fill:#ffffff;fill-rule:evenodd"
           transform="matrix(0.26458333,0,0,0.26458333,109.41261,303.4213)" />
        <path
           style="fill:none;stroke:#803d20;stroke-width:0.20253853;stroke-miterlimit:8"
           inkscape:connector-curvature="0"
           clip-path="none"
           stroke-miterlimit="8"
           d="m 124.68965,311.24116 v 3.8473 c 0,2.12487 -3.39725,3.84757 -7.58798,3.84757 -4.19074,0 -7.58799,-1.7227 -7.58799,-3.84757 v -3.8473 z"
           id="path30-6-4" />
      </g>
    </g>
    <g
       id="g21305"
       transform="translate(-264.4556,-214.00065)">
      <g
         transform="translate(-409.63883,103.08515)"
         id="g29118">
        <path
           style="fill:none;stroke:#040000;stroke-width:0.20299999;stroke-miterlimit:8;stroke-dasharray:none;stroke-opacity:1"
           clip-path="none"
           d="m 538.2968,200.64542 v 4.539 m 0,5.91244 v 4.51089"
           id="line38-1-6-9-2"
           inkscape:connector-curvature="0"
           sodipodi:nodetypes="cccc" />
        <path
           inkscape:connector-curvature="0"
           style="fill:none;fill-opacity:1;stroke:#040000;stroke-width:0.20299999;stroke-linecap:round;stroke-linejoin:miter;stroke-miterlimit:8;stroke-dasharray:none;stroke-opacity:1"
           clip-path="none"
           d="m 539.24216,214.13211 -0.94536,1.61872 -0.94483,-1.61899"
           id="polyline40-1-1-2-02" />
        <path
           inkscape:connector-curvature="0"
           transform="matrix(0,0.26458333,-0.26458333,0,589.63073,198.84239)"
           style="fill:none;stroke:#040000;stroke-width:0.76609999;stroke-linecap:round;stroke-miterlimit:8"
           clip-path="none"
           d="m 12.612,197.589 -6.118,-3.572 6.117,-3.572"
           id="polyline42-4-9-3-3" />
      </g>
      <g
         aria-label="20"
         style="font-size:5.64444447px;text-align:center;text-anchor:middle;stroke-width:0.26447746"
         id="text80-7-2-3-7">
        <path
           inkscape:connector-curvature="0"
           d="m 126.12953,312.82715 h 1.94304 v 0.46853 h -2.61276 v -0.46853 q 0.31695,-0.32797 0.86265,-0.87919 0.54846,-0.55397 0.68902,-0.71382 0.26734,-0.30041 0.37207,-0.50712 0.10749,-0.20946 0.10749,-0.41065 0,-0.32798 -0.23151,-0.53468 -0.22876,-0.20671 -0.59807,-0.20671 -0.26183,0 -0.55397,0.091 -0.28939,0.091 -0.62012,0.27561 v -0.56224 q 0.33624,-0.13505 0.62838,-0.20395 0.29215,-0.0689 0.53468,-0.0689 0.63941,0 1.01975,0.3197 0.38034,0.31971 0.38034,0.85439 0,0.25356 -0.0965,0.48231 -0.0937,0.226 -0.34451,0.53468 -0.0689,0.0799 -0.43822,0.46302 -0.36931,0.38034 -1.0418,1.0666 z"
           style="font-size:5.64444447px;font-family:sans-serif;text-align:center;text-anchor:middle;fill:#040000;stroke-width:0.26447746"
           id="path33538" />
        <path
           inkscape:connector-curvature="0"
           d="m 130.43453,309.54742 q -0.42995,0 -0.64768,0.42444 -0.21498,0.42168 -0.21498,1.27055 0,0.84611 0.21498,1.27055 0.21773,0.42168 0.64768,0.42168 0.4327,0 0.64767,-0.42168 0.21773,-0.42444 0.21773,-1.27055 0,-0.84887 -0.21773,-1.27055 -0.21497,-0.42444 -0.64767,-0.42444 z m 0,-0.44097 q 0.69177,0 1.05557,0.54846 0.36656,0.5457 0.36656,1.5875 0,1.03904 -0.36656,1.5875 -0.3638,0.5457 -1.05557,0.5457 -0.69178,0 -1.05834,-0.5457 -0.3638,-0.54846 -0.3638,-1.5875 0,-1.0418 0.3638,-1.5875 0.36656,-0.54846 1.05834,-0.54846 z"
           style="font-size:5.64444447px;font-family:sans-serif;text-align:center;text-anchor:middle;fill:#040000;stroke-width:0.26447746"
           id="path33540" />
      </g>
    </g>
    <g
       transform="translate(-265.01687,-214.00065)"
       id="g21297">
      <g
         transform="translate(-410.12377,103.36226)"
         id="g29105">
        <path
           style="fill:none;stroke:#040000;stroke-width:0.20299999;stroke-miterlimit:8;stroke-dasharray:none;stroke-opacity:1"
           clip-path="none"
           d="m 519.84328,218.83272 h 3.47022 m 8.33884,0 h 2.94498"
           id="line38-1-6-0"
           inkscape:connector-curvature="0"
           sodipodi:nodetypes="cccc" />
        <path
           inkscape:connector-curvature="0"
           style="fill:none;fill-opacity:1;stroke:#040000;stroke-width:0.20299999;stroke-linecap:round;stroke-linejoin:miter;stroke-miterlimit:8;stroke-dasharray:none;stroke-opacity:1"
           clip-path="none"
           d="m 533.09465,217.88736 1.61872,0.94536 -1.61899,0.94483"
           id="polyline40-1-1-6" />
        <path
           inkscape:connector-curvature="0"
           transform="matrix(0.26458333,0,0,0.26458333,518.01897,167.49879)"
           style="fill:none;stroke:#040000;stroke-width:0.76609999;stroke-linecap:round;stroke-miterlimit:8"
           clip-path="none"
           d="m 12.612,197.589 -6.118,-3.572 6.117,-3.572"
           id="polyline42-4-9-4" />
      </g>
      <g
         aria-label="20"
         style="font-size:5.64444447px;text-align:center;text-anchor:middle;stroke-width:0.26447746"
         id="text80-7-2-9">
        <path
           inkscape:connector-curvature="0"
           d="m 114.57296,323.78083 h 1.94304 v 0.46853 h -2.61276 v -0.46853 q 0.31694,-0.32798 0.86265,-0.87919 0.54846,-0.55397 0.68902,-0.71383 0.26734,-0.30041 0.37207,-0.50711 0.10748,-0.20947 0.10748,-0.41066 0,-0.32797 -0.23151,-0.53468 -0.22875,-0.2067 -0.59806,-0.2067 -0.26183,0 -0.55398,0.091 -0.28938,0.0909 -0.62011,0.2756 v -0.56224 q 0.33624,-0.13504 0.62838,-0.20395 0.29215,-0.0689 0.53468,-0.0689 0.63941,0 1.01975,0.31971 0.38034,0.3197 0.38034,0.85438 0,0.25356 -0.0965,0.48231 -0.0937,0.226 -0.3445,0.53468 -0.0689,0.0799 -0.43822,0.46302 -0.36932,0.38034 -1.0418,1.06661 z"
           style="font-size:5.64444447px;font-family:sans-serif;text-align:center;text-anchor:middle;fill:#040000;stroke-width:0.26447746"
           id="path33544" />
        <path
           inkscape:connector-curvature="0"
           d="m 118.87795,320.5011 q -0.42994,0 -0.64767,0.42443 -0.21498,0.42168 -0.21498,1.27055 0,0.84612 0.21498,1.27055 0.21773,0.42168 0.64767,0.42168 0.43271,0 0.64768,-0.42168 0.21773,-0.42443 0.21773,-1.27055 0,-0.84887 -0.21773,-1.27055 -0.21497,-0.42443 -0.64768,-0.42443 z m 0,-0.44098 q 0.69178,0 1.05558,0.54846 0.36656,0.54571 0.36656,1.5875 0,1.03904 -0.36656,1.5875 -0.3638,0.54571 -1.05558,0.54571 -0.69177,0 -1.05833,-0.54571 -0.3638,-0.54846 -0.3638,-1.5875 0,-1.04179 0.3638,-1.5875 0.36656,-0.54846 1.05833,-0.54846 z"
           style="font-size:5.64444447px;font-family:sans-serif;text-align:center;text-anchor:middle;fill:#040000;stroke-width:0.26447746"
           id="path33546" />
      </g>
    </g>
    <g
       transform="translate(-265.01687,-214.00065)"
       id="g58348">
      <g
         transform="translate(-38.89601,1.62586)"
         id="g17647-0">
        <path
           style="clip-rule:evenodd;fill:#9f7a52;fill-rule:evenodd"
           inkscape:connector-curvature="0"
           clip-path="none"
           d="M 0.382,14.159 V 7.271 c 0,-3.804 6.505,-6.888 14.53,-6.888 8.025,0 14.531,3.083 14.531,6.888 V 14.16 H 0.382 Z"
           id="path8-6-5"
           transform="matrix(0.26458333,0,0,0.26458333,93.721363,309.71637)" />
        <path
           style="fill:none;stroke:#803d20;stroke-width:0.7672441;stroke-miterlimit:8;stroke-dasharray:none;stroke-opacity:1"
           inkscape:connector-curvature="0"
           clip-path="none"
           stroke-miterlimit="8"
           d="M 0.382,14.159 V 7.271 c 0,-3.804 6.505,-6.888 14.53,-6.888 8.025,0 14.531,3.083 14.531,6.888 V 14.16 H 0.382 Z"
           id="path10-6-8"
           transform="matrix(0.26458333,0,0,0.26458333,93.721363,309.71637)" />
        <g
           transform="matrix(0.24498854,0,0,0.24498854,95.996846,236.54617)"
           id="g9112-8-1">
          <path
             sodipodi:nodetypes="cssscssssssssssc"
             inkscape:connector-curvature="0"
             id="path6329-3-0-0"
             d="m 9.86615,308.20598 c -0.052,0.0309 -0.10802,-0.0282 -0.1297,-0.0861 -0.15611,-0.4171 0.15716,-0.89463 0.62125,-1.3672 0.0568,-0.0578 0.15637,-0.18051 0.15637,-0.12716 v 4e-5 c 0.67067,0.79353 1.82034,0.36337 3.26182,0.48428 0.58783,0.0493 0.36359,0.46081 -0.12993,0.46952 -0.816,0.0144 -0.68498,-0.0383 -1.63812,0.0673 -0.0929,0.0103 -0.1631,0.0957 -0.0264,0.15397 0.45063,0.1922 0.53461,0.074 1.10285,0.15106 0.51295,0.0695 0.23923,0.6377 -0.41774,0.52447 -0.44588,-0.0768 -1.44921,-0.5752 -1.67827,-0.57556 -0.14521,-2.3e-4 -0.0532,0.13554 0.003,0.23683 0.21262,0.38587 1.31771,0.86739 1.54246,0.9252 0.59607,0.15333 0.43672,0.47791 -0.40361,0.459 -0.82722,-0.0186 -1.67877,-1.55536 -2.2636,-1.31565 z"
             style="display:inline;opacity:1;fill:#000000;fill-opacity:1;fill-rule:evenodd;stroke:none;stroke-width:0.26458332px;stroke-linecap:butt;stroke-linejoin:miter;stroke-opacity:1" />
          <path
             sodipodi:nodetypes="cssssssssssssccc"
             inkscape:connector-curvature="0"
             id="path6331-8-4-8"
             d="m 3.37463,306.31682 c -0.0936,0.53075 -2.06157,0.049 -2.44083,0.22405 -0.32527,0.15015 -0.69868,0.55118 -0.0589,0.44299 0.47129,-0.0797 1.51855,0.0168 2.13398,0.13803 0.11728,0.0231 0.10131,0.11868 0.0708,0.1692 -0.23194,0.38425 -1.26786,0.0536 -2.09069,0.31302 -0.2667,0.0841 0.46724,0.4832 0.74548,0.45504 1.38311,-0.13999 1.70453,-0.3642 1.73677,-0.2714 0.0183,0.0527 0.14545,0.19969 0.0337,0.33017 -0.49901,0.58247 -1.00754,0.14741 -1.92532,0.95084 -0.13569,0.11878 -0.0381,0.30893 0.14174,0.29529 1.45878,-0.11065 2.0895,-1.59232 2.93522,0.43113 0.0291,0.0696 0.17032,-1.41789 0.17968,-1.49158 0.0733,-0.5775 -0.39668,-1.24413 -0.8976,-1.61834 -0.23724,-0.0402 -0.38656,-0.21458 -0.56407,-0.36844 z"
             style="display:inline;opacity:1;fill:#000000;fill-rule:evenodd;stroke:none;stroke-width:0.26458332px;stroke-linecap:butt;stroke-linejoin:miter;stroke-opacity:1" />
          <path
             sodipodi:nodetypes="cssssssssssc"
             inkscape:connector-curvature="0"
             id="path6327-1-6-0"
             d="m 5.26911,311.37438 c 2.11756,0.0983 1.53413,0.30695 2.362,0.28503 0.30596,-0.008 0.63917,-0.1283 0.83015,-0.36221 0.30913,-0.37864 0.22467,-1.40614 0.43537,-1.5989 0.30186,-0.27617 0.39706,-0.30061 0.8254,-0.57436 0.62762,-0.4011 0.98157,-0.90763 1.0029,-1.61295 0.0198,-0.65381 -0.21991,-2.05016 -1.22617,-2.1273 -2.36069,-0.18097 -2.61248,0.50502 -4.19169,-0.42793 -0.69416,-0.41009 -1.75156,0.50584 -1.87976,1.00885 -0.27349,1.07309 0.81857,2.71509 1.19429,3.39237 0.24559,0.44272 0.19787,1.16514 0.32681,1.71283 0.0445,0.1889 0.019,0.28434 0.3207,0.30457 z"
             style="display:inline;opacity:1;fill:#ffffff;fill-rule:evenodd;stroke:none;stroke-width:0.26458332px;stroke-linecap:butt;stroke-linejoin:miter;stroke-opacity:1" />
          <path
             sodipodi:nodetypes="cccccccscccccccccccccssccscsscssssscsccsssssscc"
             inkscape:connector-curvature="0"
             id="path7012-2-7-7"
             d="m 4.90149,304.74054 c -0.69241,0.0321 -1.5548,0.74295 -1.64951,1.15394 -0.18933,0.82163 0.23077,1.7124 1.25264,3.55585 0.2456,0.44272 0.12789,1.14213 0.25683,1.68982 0.0445,0.1889 0.0771,0.35443 0.37879,0.37466 2.11755,0.0983 1.69788,0.24228 2.52575,0.22036 0.30596,-0.008 0.70943,-0.1575 0.9004,-0.39141 0.30913,-0.37864 0.24819,-1.39422 0.45888,-1.58698 0.30187,-0.27618 0.38557,-0.25387 0.81391,-0.52762 0.62762,-0.4011 1.02821,-0.98967 1.04955,-1.69499 0.0198,-0.65381 -0.33681,-2.19042 -1.34308,-2.26756 -2.36069,-0.18097 -2.62415,0.50507 -4.20336,-0.42788 -0.13015,-0.0769 -0.28101,-0.1056 -0.4408,-0.0982 z m 0.0496,0.45631 c 0.18376,-5.3e-4 0.6258,0.29042 0.6258,0.29042 0.29314,0.13506 0.41482,0.26219 1.19942,0.28525 0.005,0.42052 0.24897,1.74283 -0.10542,2.3518 -0.19307,0.33175 -0.3584,0.5015 -1.06557,0.5581 -1.15447,-0.0829 -0.97546,-0.23427 -1.63246,-1.18804 -0.23981,-0.55709 -0.38448,-1.05556 -0.29094,-1.37666 0.16482,-0.56579 0.39282,-0.91825 1.26917,-0.92087 z m 4.41679,0.46302 c 0.46374,-0.0356 1.24636,1.07922 1.13998,1.87637 -0.11654,0.8733 -0.69687,1.35548 -1.35444,1.66708 -0.20219,0.0745 -0.46907,0.0613 -0.76946,0.0377 -0.34284,-0.027 -0.69089,-0.37126 -0.53795,-0.99994 0.19936,-0.81952 0.14228,-1.60209 0.46922,-2.50993 0.30907,-0.0181 0.65421,-0.0408 1.05265,-0.0713 z m -3.31687,3.28737 c 0.25664,-0.0359 0.55721,-0.10503 0.65516,-0.007 0.1044,0.10477 0.0891,1.39341 -0.24416,2.02022 -0.13439,0.25276 -0.42273,0.19316 -0.77591,0.14298 -0.38935,-0.0553 -0.38439,-0.0531 -0.43427,-0.16186 -0.11331,-0.24706 -0.13274,-0.9148 -0.12648,-1.30897 0.006,-0.38873 0.0968,-0.54448 0.17201,-0.59248 0.35045,-0.0941 0.42805,-0.0476 0.75365,-0.0931 z m 1.19039,0.13619 c 0.51054,0.24669 0.50745,0.47486 0.90781,0.60413 0.20441,0.066 0.45937,0.14756 0.44869,0.26042 -0.051,0.53886 -0.10036,0.62884 -0.23048,1.04954 -0.0363,0.11749 -0.24546,0.0966 -0.40526,0.15724 -0.22894,0.0868 -0.37228,0.16189 -0.46342,0.17143 -0.17041,0.0178 -0.34862,0.0668 -0.4563,-0.24443 -0.19087,-0.55168 -0.10322,-1.3096 -0.0885,-1.82537 0.007,-0.23405 0.25328,-0.18945 0.28741,-0.17296 z"
             style="display:inline;opacity:1;fill:#000000;fill-rule:evenodd;stroke:none;stroke-width:0.26458332px;stroke-linecap:butt;stroke-linejoin:miter;stroke-opacity:1" />
          <path
             sodipodi:nodetypes="csssssc"
             inkscape:connector-curvature="0"
             id="path6325-8-1-8"
             d="m 5.29404,304.92876 c 1.49305,0.80334 2.70133,0.15714 4.28657,0.48416 0.71021,0.14651 -0.0857,2.72381 -1.4602,2.70644 -0.25005,-0.003 -0.77167,-0.0161 -1.14539,-0.1669 -0.46275,-0.18674 -1.37019,-0.82065 -1.76898,-1.51291 -0.26932,-0.46751 -0.17679,-1.65326 0.088,-1.51079 z"
             style="display:inline;opacity:1;fill:#000000;fill-rule:evenodd;stroke:none;stroke-width:0.26458332px;stroke-linecap:butt;stroke-linejoin:miter;stroke-opacity:1" />
          <path
             sodipodi:nodetypes="sssss"
             inkscape:connector-curvature="0"
             id="path7017-5-4-9"
             d="m 5.31335,305.99477 c 0,-0.23977 0.35995,-0.37703 0.59532,-0.35554 0.2293,0.0209 0.48464,0.28265 0.47335,0.51263 -0.0116,0.2362 -0.27656,0.39219 -0.51263,0.37828 -0.24914,-0.0147 -0.55604,-0.29902 -0.55604,-0.53537 z"
             style="display:inline;opacity:1;fill:#ffffff;fill-rule:evenodd;stroke:none;stroke-width:0.26458332px;stroke-linecap:butt;stroke-linejoin:miter;stroke-opacity:1" />
          <path
             sodipodi:nodetypes="sssss"
             inkscape:connector-curvature="0"
             id="path6321-7-1-9"
             d="m 1.95763,303.08612 c 0.81768,0.0106 1.06548,0.51082 1.08669,0.95676 0.0254,0.53526 -0.36639,1.02004 -1.05978,1.04504 -0.71461,0.0258 -1.1025,-0.44073 -1.1254,-0.99779 -0.0133,-0.32433 0.3321,-1.01393 1.09849,-1.00401 z"
             style="display:inline;fill:#1a1a1a;fill-rule:evenodd;stroke:none;stroke-width:0.26458332px;stroke-linecap:butt;stroke-linejoin:miter;stroke-opacity:1" />
          <path
             sodipodi:nodetypes="sssss"
             inkscape:connector-curvature="0"
             id="path6323-5-5-2"
             d="m 12.30473,303.44048 c -0.62097,-0.006 -1.06912,0.52582 -1.06621,1.02166 0.003,0.49049 0.57593,1.00078 1.06621,0.98634 0.6922,-0.0204 1.08499,-0.51436 1.11616,-1.00973 0.0351,-0.55716 -0.49842,-0.99207 -1.11616,-0.99827 z"
             style="display:inline;fill:#1a1a1a;fill-rule:evenodd;stroke:none;stroke-width:0.26458332px;stroke-linecap:butt;stroke-linejoin:miter;stroke-opacity:1" />
        </g>
      </g>
      <g
         id="g58330">
        <path
           id="path18-2-3"
           d="m 62.61548,315.08847 v 1.92378 c 0,1.06257 -1.721379,1.92379 -3.84466,1.92379 -2.123282,0 -3.844396,-0.86149 -3.844396,-1.92379 v -1.92378 z"
           clip-path="none"
           inkscape:connector-curvature="0"
           style="clip-rule:evenodd;fill:#9f7a52;fill-rule:evenodd;stroke-width:0.26458332" />
        <path
           id="path38-95-0"
           d="m 24.473,14.542 v 5.356 c 0,2.959 -4.623,5.358 -10.325,5.358 -5.702,0 -10.325,-2.399 -10.325,-5.358 v -5.356 z"
           clip-path="none"
           inkscape:connector-curvature="0"
           style="clip-rule:evenodd;fill:#ffffff;fill-rule:evenodd"
           transform="matrix(0.26458333,0,0,0.26458333,54.825353,311.32569)" />
        <path
           id="path20-3-9"
           d="m 62.61548,315.08847 v 1.92378 c 0,1.06257 -1.721379,1.92379 -3.84466,1.92379 -2.123282,0 -3.844396,-0.86149 -3.844396,-1.92379 v -1.92378 z"
           stroke-miterlimit="8"
           clip-path="none"
           inkscape:connector-curvature="0"
           style="fill:none;stroke:#803d20;stroke-width:0.20253853;stroke-miterlimit:8" />
      </g>
    </g>
    <g
       transform="translate(-265.01687,-214.00065)"
       id="g21268">
      <g
         transform="translate(-410.67156,103.08515)"
         id="g29068">
        <path
           style="fill:none;stroke:#040000;stroke-width:0.20299999;stroke-miterlimit:8;stroke-dasharray:none;stroke-opacity:1"
           clip-path="none"
           d="m 475.99233,208.5517 v 1.92017 m 0,3.21457 v 1.95776"
           id="line38-1-6-6-5-5"
           inkscape:connector-curvature="0"
           sodipodi:nodetypes="cccc" />
        <path
           inkscape:connector-curvature="0"
           style="fill:none;fill-opacity:1;stroke:#040000;stroke-width:0.20299999;stroke-linecap:round;stroke-linejoin:miter;stroke-miterlimit:8;stroke-dasharray:none;stroke-opacity:1"
           clip-path="none"
           d="m 476.93769,214.13211 -0.94536,1.61872 -0.94483,-1.61899"
           id="polyline40-1-1-4-1-2" />
        <path
           inkscape:connector-curvature="0"
           transform="matrix(0,0.26458333,-0.26458333,0,527.32626,206.7397)"
           style="fill:none;stroke:#040000;stroke-width:0.76609999;stroke-linecap:round;stroke-miterlimit:8"
           clip-path="none"
           d="m 12.612,197.589 -6.118,-3.572 6.117,-3.572"
           id="polyline42-4-9-1-2-6" />
      </g>
      <g
         aria-label="10"
         style="font-size:3.52777767px;text-align:center;text-anchor:middle;stroke-width:0.26447746"
         id="text80-7-2-4-0-2">
        <path
           inkscape:connector-curvature="0"
           d="m 63.625015,316.08188 h 0.511597 v -1.76578 l -0.556555,0.11162 v -0.28526 l 0.553454,-0.11162 h 0.31316 v 2.05104 h 0.511596 v 0.26355 h -1.333252 z"
           style="font-size:3.17499995px;font-family:sans-serif;text-align:center;text-anchor:middle;fill:#040000;stroke-width:0.26447746"
           id="path33550" />
        <path
           inkscape:connector-curvature="0"
           d="m 66.262063,314.23703 q -0.241845,0 -0.364318,0.23875 -0.120923,0.23719 -0.120923,0.71468 0,0.47594 0.120923,0.71469 0.122473,0.23719 0.364318,0.23719 0.243396,0 0.364319,-0.23719 0.122473,-0.23875 0.122473,-0.71469 0,-0.47749 -0.122473,-0.71468 -0.120923,-0.23875 -0.364319,-0.23875 z m 0,-0.24805 q 0.389124,0 0.593763,0.30851 0.206189,0.30696 0.206189,0.89297 0,0.58446 -0.206189,0.89297 -0.204639,0.30696 -0.593763,0.30696 -0.389123,0 -0.595312,-0.30696 -0.204639,-0.30851 -0.204639,-0.89297 0,-0.58601 0.204639,-0.89297 0.206189,-0.30851 0.595312,-0.30851 z"
           style="font-size:3.17499995px;font-family:sans-serif;text-align:center;text-anchor:middle;fill:#040000;stroke-width:0.26447746"
           id="path33552" />
      </g>
    </g>
    <g
       transform="translate(-265.01687,-214.00065)"
       id="g21260">
      <g
         transform="translate(-409.69182,103.36226)"
         id="g29055">
        <path
           style="fill:none;stroke:#040000;stroke-width:0.20299999;stroke-miterlimit:8;stroke-dasharray:none;stroke-opacity:1"
           clip-path="none"
           d="m 464.85053,218.83272 h 1.59892 m 4.18455,0 h 1.36642"
           id="line38-1-6-6-3"
           inkscape:connector-curvature="0"
           sodipodi:nodetypes="cccc" />
        <path
           inkscape:connector-curvature="0"
           style="fill:none;fill-opacity:1;stroke:#040000;stroke-width:0.20299999;stroke-linecap:round;stroke-linejoin:miter;stroke-miterlimit:8;stroke-dasharray:none;stroke-opacity:1"
           clip-path="none"
           d="m 470.58876,217.88736 1.61872,0.94536 -1.61899,0.94483"
           id="polyline40-1-1-4-3" />
        <path
           inkscape:connector-curvature="0"
           transform="matrix(0.26458333,0,0,0.26458333,462.99953,167.49879)"
           style="fill:none;stroke:#040000;stroke-width:0.76609999;stroke-linecap:round;stroke-miterlimit:8"
           clip-path="none"
           d="m 12.612,197.589 -6.118,-3.572 6.117,-3.572"
           id="polyline42-4-9-1-9" />
      </g>
      <g
         aria-label="10"
         style="font-size:3.52777767px;text-align:center;text-anchor:middle;stroke-width:0.26447746"
         id="text80-7-2-4-4">
        <path
           inkscape:connector-curvature="0"
           d="m 57.074932,323.08691 h 0.511597 v -1.76578 l -0.556555,0.11162 v -0.28525 l 0.553454,-0.11162 h 0.313159 v 2.05103 h 0.511597 v 0.26355 h -1.333252 z"
           style="font-size:3.17499995px;font-family:sans-serif;text-align:center;text-anchor:middle;fill:#040000;stroke-width:0.26447746"
           id="path33556" />
        <path
           inkscape:connector-curvature="0"
           d="m 59.71198,321.24207 q -0.241845,0 -0.364319,0.23874 -0.120922,0.2372 -0.120922,0.71469 0,0.47594 0.120922,0.71468 0.122474,0.2372 0.364319,0.2372 0.243396,0 0.364319,-0.2372 0.122473,-0.23874 0.122473,-0.71468 0,-0.47749 -0.122473,-0.71469 -0.120923,-0.23874 -0.364319,-0.23874 z m 0,-0.24805 q 0.389124,0 0.593763,0.30851 0.206188,0.30695 0.206188,0.89297 0,0.58446 -0.206188,0.89296 -0.204639,0.30696 -0.593763,0.30696 -0.389123,0 -0.595312,-0.30696 -0.204639,-0.3085 -0.204639,-0.89296 0,-0.58602 0.204639,-0.89297 0.206189,-0.30851 0.595312,-0.30851 z"
           style="font-size:3.17499995px;font-family:sans-serif;text-align:center;text-anchor:middle;fill:#040000;stroke-width:0.26447746"
           id="path33558" />
      </g>
    </g>
    <g
       transform="translate(-283.59933,-219.23977)"
       id="g17514-0">
      <g
         id="g17491-4">
        <path
           style="clip-rule:evenodd;fill:#9f7a52;fill-rule:evenodd"
           inkscape:connector-curvature="0"
           clip-path="none"
           d="m 0.383,43.243 v -21.43 c 0,-11.835 32.356,-21.43 72.27,-21.43 39.914,0 72.27,9.595 72.27,21.43 V 43.244 H 0.383 Z"
           id="path8-0-7-71"
           transform="matrix(0.26458333,0,0,0.26458333,-0.8618,301.19134)" />
        <path
           style="fill:none;stroke:#803d20;stroke-width:0.76550001;stroke-miterlimit:8"
           inkscape:connector-curvature="0"
           clip-path="none"
           stroke-miterlimit="8"
           d="m 0.383,43.243 v -21.43 c 0,-11.835 32.356,-21.43 72.27,-21.43 39.914,0 72.27,9.595 72.27,21.43 V 43.244 H 0.383 Z"
           id="path10-5-3-0"
           transform="matrix(0.26458333,0,0,0.26458333,-0.8618,301.19134)" />
        <g
           id="g17478-2">
          <path
             sodipodi:nodetypes="cssscssssssssssc"
             inkscape:connector-curvature="0"
             id="path6329-3-65-0"
             d="m 20.36145,307.90471 c -0.04171,0.0248 -0.08665,-0.0226 -0.104042,-0.0691 -0.125227,-0.33459 0.126069,-0.71765 0.498349,-1.09673 0.04556,-0.0464 0.125435,-0.1448 0.125435,-0.102 v 3e-5 c 0.537993,0.63654 1.460224,0.29148 2.616538,0.38847 0.47154,0.0396 0.291661,0.36965 -0.104226,0.37664 -0.654572,0.0115 -0.549471,-0.0307 -1.314052,0.054 -0.07452,0.008 -0.130835,0.0768 -0.02118,0.12351 0.361483,0.15418 0.428849,0.0594 0.884675,0.12118 0.411473,0.0557 0.191903,0.51154 -0.335099,0.42072 -0.357672,-0.0616 -1.162515,-0.46141 -1.34626,-0.4617 -0.116483,-1.9e-4 -0.04268,0.10872 0.0024,0.18998 0.170557,0.30953 1.057028,0.69579 1.237316,0.74216 0.47815,0.123 0.350324,0.38337 -0.323764,0.3682 -0.663572,-0.0149 -1.346661,-1.24766 -1.815794,-1.05538 z"
             style="display:inline;opacity:1;fill:#000000;fill-opacity:1;fill-rule:evenodd;stroke:none;stroke-width:0.21224108px;stroke-linecap:butt;stroke-linejoin:miter;stroke-opacity:1" />
          <path
             sodipodi:nodetypes="cssssssssssssccc"
             inkscape:connector-curvature="0"
             id="path6331-8-3-8"
             d="m 15.15414,306.38929 c -0.07508,0.42575 -1.653731,0.0393 -1.957963,0.17972 -0.260922,0.12045 -0.560461,0.44214 -0.04725,0.35536 0.378056,-0.0639 1.218137,0.0135 1.711817,0.11072 0.09408,0.0185 0.08127,0.0952 0.05679,0.13573 -0.186055,0.30823 -1.01704,0.043 -1.677091,0.25109 -0.213939,0.0675 0.374807,0.38761 0.598003,0.36502 1.10949,-0.11229 1.367324,-0.29215 1.393186,-0.21771 0.01468,0.0423 0.116676,0.16019 0.02703,0.26486 -0.400291,0.46724 -0.808219,0.11824 -1.544436,0.76273 -0.108846,0.0953 -0.03056,0.24782 0.1137,0.23687 1.170191,-0.0888 1.676137,-1.27731 2.354549,0.34584 0.02334,0.0558 0.136625,-1.13739 0.144134,-1.1965 0.0588,-0.46325 -0.318205,-0.998 -0.720029,-1.29818 -0.190307,-0.0323 -0.310087,-0.17213 -0.452481,-0.29555 z"
             style="display:inline;opacity:1;fill:#000000;fill-rule:evenodd;stroke:none;stroke-width:0.21224108px;stroke-linecap:butt;stroke-linejoin:miter;stroke-opacity:1" />
          <path
             sodipodi:nodetypes="cssssssssssc"
             inkscape:connector-curvature="0"
             id="path6327-1-69-5"
             d="m 16.673837,310.44631 c 1.698646,0.0789 1.230635,0.24623 1.894728,0.22865 0.245433,-0.006 0.512724,-0.10292 0.665923,-0.29056 0.247975,-0.30373 0.180224,-1.12796 0.349241,-1.28259 0.242143,-0.22154 0.31851,-0.24114 0.662112,-0.46073 0.503459,-0.32176 0.787387,-0.72808 0.804497,-1.29387 0.01588,-0.52446 -0.176405,-1.64458 -0.983598,-1.70645 -1.893677,-0.14517 -2.095656,0.40511 -3.362452,-0.34328 -0.556835,-0.32896 -1.405051,0.40577 -1.507889,0.80927 -0.219386,0.8608 0.656633,2.17797 0.958025,2.72126 0.197005,0.35514 0.158725,0.93464 0.262157,1.37399 0.0357,0.15153 0.01524,0.22809 0.257256,0.24431 z"
             style="display:inline;opacity:1;fill:#ffffff;fill-rule:evenodd;stroke:none;stroke-width:0.21224108px;stroke-linecap:butt;stroke-linejoin:miter;stroke-opacity:1" />
          <path
             sodipodi:nodetypes="cccccccscccccccccccccssccscsscssssscsccsssssscc"
             inkscape:connector-curvature="0"
             id="path7012-2-5-3"
             d="m 16.378943,305.12484 c -0.555431,0.0258 -1.247215,0.59597 -1.323189,0.92566 -0.151875,0.65908 0.185117,1.37363 1.004832,2.8524 0.197013,0.35513 0.102589,0.91618 0.206021,1.35552 0.0357,0.15153 0.06185,0.28431 0.303855,0.30054 1.698637,0.0789 1.36199,0.19435 2.026083,0.17677 0.245432,-0.006 0.569084,-0.12634 0.722275,-0.31398 0.247975,-0.30373 0.199091,-1.1184 0.3681,-1.27303 0.242152,-0.22154 0.309293,-0.20365 0.652895,-0.42324 0.503459,-0.32175 0.824801,-0.79388 0.841919,-1.35967 0.01588,-0.52447 -0.270179,-1.75709 -1.07738,-1.81897 -1.893677,-0.14517 -2.105017,0.40515 -3.371814,-0.34324 -0.104402,-0.0617 -0.225418,-0.0847 -0.353597,-0.0788 z m 0.03979,0.36604 c 0.147407,-4.3e-4 0.501999,0.23296 0.501999,0.23296 0.235148,0.10835 0.332756,0.21033 0.96214,0.22882 0.004,0.33733 0.199716,1.39805 -0.08457,1.88655 -0.154875,0.26612 -0.287498,0.40229 -0.85477,0.44769 -0.926082,-0.0665 -0.782485,-0.18792 -1.309512,-0.95301 -0.192368,-0.44688 -0.308418,-0.84674 -0.233383,-1.10432 0.132213,-0.45386 0.315108,-0.73659 1.018091,-0.73869 z m 3.543021,0.37142 c 0.371999,-0.0286 0.999794,0.86572 0.914459,1.50517 -0.09349,0.70053 -0.559009,1.08733 -1.086493,1.33728 -0.162191,0.0598 -0.376274,0.0492 -0.617238,0.0302 -0.275016,-0.0216 -0.554212,-0.29781 -0.431528,-0.80212 0.159921,-0.65739 0.114133,-1.28515 0.376395,-2.01339 0.247927,-0.0145 0.524788,-0.0327 0.844405,-0.0572 z m -2.660697,2.63703 c 0.205869,-0.0288 0.446978,-0.0842 0.52555,-0.006 0.08375,0.084 0.07147,1.11775 -0.195858,1.62056 -0.107803,0.20276 -0.339101,0.15495 -0.622412,0.11469 -0.312326,-0.0444 -0.308347,-0.0426 -0.348359,-0.12984 -0.09089,-0.19818 -0.10648,-0.73382 -0.101459,-1.05001 0.0048,-0.31183 0.07765,-0.43677 0.137982,-0.47527 0.281121,-0.0755 0.343369,-0.0382 0.604556,-0.0747 z m 0.954896,0.10925 c 0.409541,0.19789 0.407062,0.38092 0.728219,0.48462 0.163972,0.0529 0.368494,0.11836 0.359926,0.2089 -0.04091,0.43225 -0.08051,0.50443 -0.184884,0.84191 -0.02912,0.0942 -0.196901,0.0775 -0.325088,0.12613 -0.183649,0.0696 -0.298632,0.12986 -0.371742,0.13752 -0.136698,0.0143 -0.279653,0.0536 -0.366031,-0.19608 -0.15311,-0.44254 -0.0828,-1.05052 -0.07099,-1.46426 0.0056,-0.18775 0.203174,-0.15197 0.230552,-0.13874 z"
             style="display:inline;opacity:1;fill:#000000;fill-rule:evenodd;stroke:none;stroke-width:0.21224108px;stroke-linecap:butt;stroke-linejoin:miter;stroke-opacity:1" />
          <path
             sodipodi:nodetypes="csssssc"
             inkscape:connector-curvature="0"
             id="path6325-8-2-6"
             d="m 16.693836,305.27582 c 1.197681,0.64442 2.166928,0.12606 3.438562,0.38838 0.56971,0.11753 -0.06875,2.18496 -1.17133,2.17103 -0.200583,-0.002 -0.619012,-0.0129 -0.918799,-0.13388 -0.371205,-0.1498 -1.099127,-0.6583 -1.419024,-1.21361 -0.216041,-0.37503 -0.141816,-1.3262 0.07059,-1.21192 z"
             style="display:inline;opacity:1;fill:#000000;fill-rule:evenodd;stroke:none;stroke-width:0.21224108px;stroke-linecap:butt;stroke-linejoin:miter;stroke-opacity:1" />
          <path
             sodipodi:nodetypes="sssss"
             inkscape:connector-curvature="0"
             id="path7017-5-2-2"
             d="m 16.709325,306.13095 c 0,-0.19234 0.288742,-0.30245 0.477549,-0.28521 0.183938,0.0168 0.388764,0.22674 0.379708,0.41122 -0.0093,0.18947 -0.221849,0.3146 -0.411217,0.30344 -0.199853,-0.0118 -0.44604,-0.23986 -0.44604,-0.42945 z"
             style="display:inline;opacity:1;fill:#ffffff;fill-rule:evenodd;stroke:none;stroke-width:0.21224108px;stroke-linecap:butt;stroke-linejoin:miter;stroke-opacity:1" />
          <path
             sodipodi:nodetypes="sssss"
             inkscape:connector-curvature="0"
             id="path6321-7-72-6"
             d="m 14.017464,303.79771 c 0.655919,0.009 0.854697,0.40977 0.871711,0.76749 0.02037,0.42937 -0.293907,0.81824 -0.850124,0.8383 -0.57324,0.0207 -0.884394,-0.35354 -0.902764,-0.8004 -0.01067,-0.26017 0.266401,-0.81335 0.881177,-0.80539 z"
             style="display:inline;fill:#1a1a1a;fill-rule:evenodd;stroke:none;stroke-width:0.21224108px;stroke-linecap:butt;stroke-linejoin:miter;stroke-opacity:1" />
          <path
             sodipodi:nodetypes="sssss"
             inkscape:connector-curvature="0"
             id="path6323-5-0-9"
             d="m 22.317608,304.08197 c -0.498124,-0.005 -0.857617,0.4218 -0.855283,0.81954 0.0024,0.39346 0.461995,0.8028 0.855283,0.79122 0.555263,-0.0164 0.870348,-0.41261 0.895351,-0.80998 0.02816,-0.44694 -0.399818,-0.79581 -0.895351,-0.80078 z"
             style="display:inline;fill:#1a1a1a;fill-rule:evenodd;stroke:none;stroke-width:0.21224108px;stroke-linecap:butt;stroke-linejoin:miter;stroke-opacity:1" />
        </g>
      </g>
      <g
         id="g17496-2">
        <path
           id="path18-8-5-2"
           d="m 144.923,43.243 v 21.812 c 0,12.047 -32.356,21.813 -72.27,21.813 -39.914,0 -72.27,-9.767 -72.27,-21.813 V 43.243 Z"
           clip-path="none"
           inkscape:connector-curvature="0"
           style="clip-rule:evenodd;fill:#9f7a52;fill-rule:evenodd"
           transform="matrix(0.26458333,0,0,0.26458333,-0.8618,301.19134)" />
        <path
           id="path38-85-3-58"
           d="m 133.834,43.625 v 16.838 c 0,9.3 -27.563,16.838 -61.563,16.838 -34,0 -61.563,-7.538 -61.563,-16.838 V 43.625 Z"
           clip-path="none"
           inkscape:connector-curvature="0"
           style="clip-rule:evenodd;fill:#ffffff;fill-rule:evenodd"
           transform="matrix(0.26458333,0,0,0.26458333,-0.8618,301.12518)" />
        <path
           id="path20-88-2-5"
           d="m 144.923,43.243 v 21.812 c 0,12.047 -32.356,21.813 -72.27,21.813 -39.914,0 -72.27,-9.767 -72.27,-21.813 V 43.243 Z"
           stroke-miterlimit="8"
           clip-path="none"
           inkscape:connector-curvature="0"
           style="fill:none;stroke:#803d20;stroke-width:0.76550001;stroke-miterlimit:8"
           transform="matrix(0.26458333,0,0,0.26458333,-0.8618,301.19134)" />
      </g>
    </g>
    <g
       id="g21236"
       transform="translate(-264.61999,-214.00065)">
      <g
         transform="translate(-410.6875,103.08515)"
         id="g28266">
        <path
           style="fill:none;stroke:#040000;stroke-width:0.20299999;stroke-miterlimit:8;stroke-dasharray:none;stroke-opacity:1"
           clip-path="none"
           d="m 433.30316,193.18671 v 8.08484 m 0,6.24268 v 8.09422"
           id="line38-1-6-9-5-6"
           inkscape:connector-curvature="0"
           sodipodi:nodetypes="cccc" />
        <path
           inkscape:connector-curvature="0"
           style="fill:none;fill-opacity:1;stroke:#040000;stroke-width:0.20299999;stroke-linecap:round;stroke-linejoin:miter;stroke-miterlimit:8;stroke-dasharray:none;stroke-opacity:1"
           clip-path="none"
           d="m 434.24852,214.13211 -0.94536,1.61872 -0.94483,-1.61899"
           id="polyline40-1-1-2-5-9" />
        <path
           inkscape:connector-curvature="0"
           transform="matrix(0,0.26458333,-0.26458333,0,484.63709,191.34992)"
           style="fill:none;stroke:#040000;stroke-width:0.76609999;stroke-linecap:round;stroke-miterlimit:8"
           clip-path="none"
           d="m 12.612,197.589 -6.118,-3.572 6.117,-3.572"
           id="polyline42-4-9-3-1-8" />
      </g>
      <g
         aria-label="30"
         style="font-size:5.64444447px;text-align:center;text-anchor:middle;stroke-width:0.26447746"
         id="text80-7-2-3-1-8">
        <path
           inkscape:connector-curvature="0"
           d="m 21.286119,307.3308 q 0.399631,0.0854 0.622873,0.35553 0.225998,0.2701 0.225998,0.66697 0,0.60909 -0.418924,0.94258 -0.418923,0.33348 -1.190625,0.33348 -0.259071,0 -0.534678,-0.0524 -0.272852,-0.0496 -0.564996,-0.15158 v -0.53744 q 0.23151,0.13505 0.507118,0.20395 0.275608,0.0689 0.57602,0.0689 0.523654,0 0.796506,-0.2067 0.275608,-0.20671 0.275608,-0.60083 0,-0.3638 -0.256315,-0.56775 -0.253559,-0.20671 -0.708312,-0.20671 h -0.479557 v -0.4575 h 0.501606 q 0.410655,0 0.628385,-0.16261 0.21773,-0.16537 0.21773,-0.47405 0,-0.31695 -0.225998,-0.48507 -0.223242,-0.17087 -0.642166,-0.17087 -0.228754,0 -0.490582,0.0496 -0.261827,0.0496 -0.57602,0.15434 v -0.49609 q 0.316949,-0.0882 0.592557,-0.13229 0.278364,-0.0441 0.523654,-0.0441 0.633898,0 1.003212,0.28939 0.369314,0.28663 0.369314,0.77721 0,0.34176 -0.195681,0.57878 -0.195681,0.23427 -0.556727,0.32522 z"
           style="font-size:5.64444447px;font-family:sans-serif;text-align:center;text-anchor:middle;fill:#040000;stroke-width:0.26447746"
           id="path33562" />
        <path
           inkscape:connector-curvature="0"
           d="m 24.383948,305.80117 q -0.429948,0 -0.647678,0.42444 -0.214974,0.42168 -0.214974,1.27055 0,0.84612 0.214974,1.27055 0.21773,0.42168 0.647678,0.42168 0.432704,0 0.647678,-0.42168 0.21773,-0.42443 0.21773,-1.27055 0,-0.84887 -0.21773,-1.27055 -0.214974,-0.42444 -0.647678,-0.42444 z m 0,-0.44097 q 0.691776,0 1.055578,0.54846 0.366558,0.5457 0.366558,1.5875 0,1.03904 -0.366558,1.5875 -0.363802,0.5457 -1.055578,0.5457 -0.691775,0 -1.058333,-0.5457 -0.363802,-0.54846 -0.363802,-1.5875 0,-1.0418 0.363802,-1.5875 0.366558,-0.54846 1.058333,-0.54846 z"
           style="font-size:5.64444447px;font-family:sans-serif;text-align:center;text-anchor:middle;fill:#040000;stroke-width:0.26447746"
           id="path33564" />
      </g>
    </g>
    <g
       transform="translate(-265.01687,-214.00065)"
       id="g21228">
      <g
         transform="translate(-410.12371,103.85213)"
         id="g28235">
        <path
           style="fill:none;stroke:#040000;stroke-width:0.20299999;stroke-miterlimit:8;stroke-dasharray:none;stroke-opacity:1"
           clip-path="none"
           d="m 391.03627,218.34285 h 14.71705 m 8.37656,0 h 14.67299"
           id="line38-1-6-4-9"
           inkscape:connector-curvature="0"
           sodipodi:nodetypes="cccc" />
        <path
           inkscape:connector-curvature="0"
           style="fill:none;fill-opacity:1;stroke:#040000;stroke-width:0.20299999;stroke-linecap:round;stroke-linejoin:miter;stroke-miterlimit:8;stroke-dasharray:none;stroke-opacity:1"
           clip-path="none"
           d="m 427.30489,217.39749 1.61872,0.94536 -1.61899,0.94483"
           id="polyline40-1-1-43-1" />
        <path
           inkscape:connector-curvature="0"
           transform="matrix(0.26458333,0,0,0.26458333,389.16231,167.00892)"
           style="fill:none;stroke:#040000;stroke-width:0.76609999;stroke-linecap:round;stroke-miterlimit:8"
           clip-path="none"
           d="m 12.612,197.589 -6.118,-3.572 6.117,-3.572"
           id="polyline42-4-9-8-6" />
      </g>
      <g
         aria-label="50"
         style="font-size:5.64444447px;text-align:center;text-anchor:middle;stroke-width:0.26447746"
         id="text80-7-2-5-7">
        <path
           inkscape:connector-curvature="0"
           d="m -3.2352569,320.13454 h 2.1855686 v 0.46853 h -1.6756944 v 1.00872 q 0.1212673,-0.0413 0.2425347,-0.0606 0.1212674,-0.022 0.2425347,-0.022 0.6890191,0 1.0914063,0.37758 0.40238713,0.37759 0.40238713,1.02251 0,0.66421 -0.41341143,1.03353 -0.4134115,0.36656 -1.1658203,0.36656 -0.2590712,0 -0.5291667,-0.0441 -0.2673394,-0.0441 -0.5539714,-0.13229 v -0.55949 q 0.2480469,0.13505 0.5126302,0.2012 0.2645834,0.0661 0.5594836,0.0661 0.4768012,0 0.7551649,-0.2508 0.2783637,-0.2508 0.2783637,-0.68075 0,-0.42995 -0.2783637,-0.68075 -0.2783637,-0.25081 -0.7551649,-0.25081 -0.2232422,0 -0.4464844,0.0496 -0.2204861,0.0496 -0.4519966,0.15434 z"
           style="font-size:5.64444447px;font-family:sans-serif;text-align:center;text-anchor:middle;fill:#040000;stroke-width:0.26447746"
           id="path33568" />
        <path
           inkscape:connector-curvature="0"
           d="m 1.5437796,320.5011 q -0.429948,0 -0.64767799,0.42443 -0.21497396,0.42168 -0.21497396,1.27055 0,0.84612 0.21497396,1.27055 0.21772999,0.42168 0.64767799,0.42168 0.432704,0 0.6476779,-0.42168 0.2177301,-0.42443 0.2177301,-1.27055 0,-0.84887 -0.2177301,-1.27055 -0.2149739,-0.42443 -0.6476779,-0.42443 z m 0,-0.44098 q 0.6917751,0 1.0555772,0.54846 0.3665582,0.54571 0.3665582,1.5875 0,1.03904 -0.3665582,1.5875 -0.3638021,0.54571 -1.0555772,0.54571 -0.69177521,0 -1.05833337,-0.54571 -0.36380209,-0.54846 -0.36380209,-1.5875 0,-1.04179 0.36380209,-1.5875 0.36655816,-0.54846 1.05833337,-0.54846 z"
           style="font-size:5.64444447px;font-family:sans-serif;text-align:center;text-anchor:middle;fill:#040000;stroke-width:0.26447746"
           id="path33570" />
      </g>
    </g>
    <g
       transform="translate(-289.55742,-217.49566)"
       id="g17587-9">
      <g
         id="g17564-7">
        <path
           style="clip-rule:evenodd;fill:#9f7a52;fill-rule:evenodd"
           inkscape:connector-curvature="0"
           clip-path="none"
           d="M 0.382,50.896 V 25.639 C 0.382,11.69 16.475,0.383 36.326,0.383 56.178,0.383 72.27,11.691 72.27,25.639 V 50.895 H 0.382 Z"
           id="path8-4-6-8"
           transform="matrix(0.26458333,0,0,0.26458333,51.807786,295.59965)" />
        <path
           style="fill:none;stroke:#803d20;stroke-width:0.76550001;stroke-miterlimit:8"
           inkscape:connector-curvature="0"
           clip-path="none"
           stroke-miterlimit="8"
           d="M 0.382,50.896 V 25.639 C 0.382,11.69 16.475,0.383 36.326,0.383 56.178,0.383 72.27,11.691 72.27,25.639 V 50.895 H 0.382 Z"
           id="path10-2-9-2"
           transform="matrix(0.26458333,0,0,0.26458333,51.807786,295.59965)" />
        <g
           transform="matrix(0.74049682,0,0,0.74049682,56.256366,76.335353)"
           id="g9112-81-9">
          <path
             sodipodi:nodetypes="cssscssssssssssc"
             inkscape:connector-curvature="0"
             id="path6329-3-75-4"
             d="m 9.86615,308.20598 c -0.052,0.0309 -0.10802,-0.0282 -0.1297,-0.0861 -0.15611,-0.4171 0.15716,-0.89463 0.62125,-1.3672 0.0568,-0.0578 0.15637,-0.18051 0.15637,-0.12716 v 4e-5 c 0.67067,0.79353 1.82034,0.36337 3.26182,0.48428 0.58783,0.0493 0.36359,0.46081 -0.12993,0.46952 -0.816,0.0144 -0.68498,-0.0383 -1.63812,0.0673 -0.0929,0.0103 -0.1631,0.0957 -0.0264,0.15397 0.45063,0.1922 0.53461,0.074 1.10285,0.15106 0.51295,0.0695 0.23923,0.6377 -0.41774,0.52447 -0.44588,-0.0768 -1.44921,-0.5752 -1.67827,-0.57556 -0.14521,-2.3e-4 -0.0532,0.13554 0.003,0.23683 0.21262,0.38587 1.31771,0.86739 1.54246,0.9252 0.59607,0.15333 0.43672,0.47791 -0.40361,0.459 -0.82722,-0.0186 -1.67877,-1.55536 -2.2636,-1.31565 z"
             style="display:inline;opacity:1;fill:#000000;fill-opacity:1;fill-rule:evenodd;stroke:none;stroke-width:0.26458332px;stroke-linecap:butt;stroke-linejoin:miter;stroke-opacity:1" />
          <path
             sodipodi:nodetypes="cssssssssssssccc"
             inkscape:connector-curvature="0"
             id="path6331-8-2-5"
             d="m 3.37463,306.31682 c -0.0936,0.53075 -2.06157,0.049 -2.44083,0.22405 -0.32527,0.15015 -0.69868,0.55118 -0.0589,0.44299 0.47129,-0.0797 1.51855,0.0168 2.13398,0.13803 0.11728,0.0231 0.10131,0.11868 0.0708,0.1692 -0.23194,0.38425 -1.26786,0.0536 -2.09069,0.31302 -0.2667,0.0841 0.46724,0.4832 0.74548,0.45504 1.38311,-0.13999 1.70453,-0.3642 1.73677,-0.2714 0.0183,0.0527 0.14545,0.19969 0.0337,0.33017 -0.49901,0.58247 -1.00754,0.14741 -1.92532,0.95084 -0.13569,0.11878 -0.0381,0.30893 0.14174,0.29529 1.45878,-0.11065 2.0895,-1.59232 2.93522,0.43113 0.0291,0.0696 0.17032,-1.41789 0.17968,-1.49158 0.0733,-0.5775 -0.39668,-1.24413 -0.8976,-1.61834 -0.23724,-0.0402 -0.38656,-0.21458 -0.56407,-0.36844 z"
             style="display:inline;opacity:1;fill:#000000;fill-rule:evenodd;stroke:none;stroke-width:0.26458332px;stroke-linecap:butt;stroke-linejoin:miter;stroke-opacity:1" />
          <path
             sodipodi:nodetypes="cssssssssssc"
             inkscape:connector-curvature="0"
             id="path6327-1-05-5"
             d="m 5.26911,311.37438 c 2.11756,0.0983 1.53413,0.30695 2.362,0.28503 0.30596,-0.008 0.63917,-0.1283 0.83015,-0.36221 0.30913,-0.37864 0.22467,-1.40614 0.43537,-1.5989 0.30186,-0.27617 0.39706,-0.30061 0.8254,-0.57436 0.62762,-0.4011 0.98157,-0.90763 1.0029,-1.61295 0.0198,-0.65381 -0.21991,-2.05016 -1.22617,-2.1273 -2.36069,-0.18097 -2.61248,0.50502 -4.19169,-0.42793 -0.69416,-0.41009 -1.75156,0.50584 -1.87976,1.00885 -0.27349,1.07309 0.81857,2.71509 1.19429,3.39237 0.24559,0.44272 0.19787,1.16514 0.32681,1.71283 0.0445,0.1889 0.019,0.28434 0.3207,0.30457 z"
             style="display:inline;opacity:1;fill:#ffffff;fill-rule:evenodd;stroke:none;stroke-width:0.26458332px;stroke-linecap:butt;stroke-linejoin:miter;stroke-opacity:1" />
          <path
             sodipodi:nodetypes="cccccccscccccccccccccssccscsscssssscsccsssssscc"
             inkscape:connector-curvature="0"
             id="path7012-2-3-8"
             d="m 4.90149,304.74054 c -0.69241,0.0321 -1.5548,0.74295 -1.64951,1.15394 -0.18933,0.82163 0.23077,1.7124 1.25264,3.55585 0.2456,0.44272 0.12789,1.14213 0.25683,1.68982 0.0445,0.1889 0.0771,0.35443 0.37879,0.37466 2.11755,0.0983 1.69788,0.24228 2.52575,0.22036 0.30596,-0.008 0.70943,-0.1575 0.9004,-0.39141 0.30913,-0.37864 0.24819,-1.39422 0.45888,-1.58698 0.30187,-0.27618 0.38557,-0.25387 0.81391,-0.52762 0.62762,-0.4011 1.02821,-0.98967 1.04955,-1.69499 0.0198,-0.65381 -0.33681,-2.19042 -1.34308,-2.26756 -2.36069,-0.18097 -2.62415,0.50507 -4.20336,-0.42788 -0.13015,-0.0769 -0.28101,-0.1056 -0.4408,-0.0982 z m 0.0496,0.45631 c 0.18376,-5.3e-4 0.6258,0.29042 0.6258,0.29042 0.29314,0.13506 0.41482,0.26219 1.19942,0.28525 0.005,0.42052 0.24897,1.74283 -0.10542,2.3518 -0.19307,0.33175 -0.3584,0.5015 -1.06557,0.5581 -1.15447,-0.0829 -0.97546,-0.23427 -1.63246,-1.18804 -0.23981,-0.55709 -0.38448,-1.05556 -0.29094,-1.37666 0.16482,-0.56579 0.39282,-0.91825 1.26917,-0.92087 z m 4.41679,0.46302 c 0.46374,-0.0356 1.24636,1.07922 1.13998,1.87637 -0.11654,0.8733 -0.69687,1.35548 -1.35444,1.66708 -0.20219,0.0745 -0.46907,0.0613 -0.76946,0.0377 -0.34284,-0.027 -0.69089,-0.37126 -0.53795,-0.99994 0.19936,-0.81952 0.14228,-1.60209 0.46922,-2.50993 0.30907,-0.0181 0.65421,-0.0408 1.05265,-0.0713 z m -3.31687,3.28737 c 0.25664,-0.0359 0.55721,-0.10503 0.65516,-0.007 0.1044,0.10477 0.0891,1.39341 -0.24416,2.02022 -0.13439,0.25276 -0.42273,0.19316 -0.77591,0.14298 -0.38935,-0.0553 -0.38439,-0.0531 -0.43427,-0.16186 -0.11331,-0.24706 -0.13274,-0.9148 -0.12648,-1.30897 0.006,-0.38873 0.0968,-0.54448 0.17201,-0.59248 0.35045,-0.0941 0.42805,-0.0476 0.75365,-0.0931 z m 1.19039,0.13619 c 0.51054,0.24669 0.50745,0.47486 0.90781,0.60413 0.20441,0.066 0.45937,0.14756 0.44869,0.26042 -0.051,0.53886 -0.10036,0.62884 -0.23048,1.04954 -0.0363,0.11749 -0.24546,0.0966 -0.40526,0.15724 -0.22894,0.0868 -0.37228,0.16189 -0.46342,0.17143 -0.17041,0.0178 -0.34862,0.0668 -0.4563,-0.24443 -0.19087,-0.55168 -0.10322,-1.3096 -0.0885,-1.82537 0.007,-0.23405 0.25328,-0.18945 0.28741,-0.17296 z"
             style="display:inline;opacity:1;fill:#000000;fill-rule:evenodd;stroke:none;stroke-width:0.26458332px;stroke-linecap:butt;stroke-linejoin:miter;stroke-opacity:1" />
          <path
             sodipodi:nodetypes="csssssc"
             inkscape:connector-curvature="0"
             id="path6325-8-0-4"
             d="m 5.29404,304.92876 c 1.49305,0.80334 2.70133,0.15714 4.28657,0.48416 0.71021,0.14651 -0.0857,2.72381 -1.4602,2.70644 -0.25005,-0.003 -0.77167,-0.0161 -1.14539,-0.1669 -0.46275,-0.18674 -1.37019,-0.82065 -1.76898,-1.51291 -0.26932,-0.46751 -0.17679,-1.65326 0.088,-1.51079 z"
             style="display:inline;opacity:1;fill:#000000;fill-rule:evenodd;stroke:none;stroke-width:0.26458332px;stroke-linecap:butt;stroke-linejoin:miter;stroke-opacity:1" />
          <path
             sodipodi:nodetypes="sssss"
             inkscape:connector-curvature="0"
             id="path7017-5-7-4"
             d="m 5.31335,305.99477 c 0,-0.23977 0.35995,-0.37703 0.59532,-0.35554 0.2293,0.0209 0.48464,0.28265 0.47335,0.51263 -0.0116,0.2362 -0.27656,0.39219 -0.51263,0.37828 -0.24914,-0.0147 -0.55604,-0.29902 -0.55604,-0.53537 z"
             style="display:inline;opacity:1;fill:#ffffff;fill-rule:evenodd;stroke:none;stroke-width:0.26458332px;stroke-linecap:butt;stroke-linejoin:miter;stroke-opacity:1" />
          <path
             sodipodi:nodetypes="sssss"
             inkscape:connector-curvature="0"
             id="path6321-7-6-4"
             d="m 1.95763,303.08612 c 0.81768,0.0106 1.06548,0.51082 1.08669,0.95676 0.0254,0.53526 -0.36639,1.02004 -1.05978,1.04504 -0.71461,0.0258 -1.1025,-0.44073 -1.1254,-0.99779 -0.0133,-0.32433 0.3321,-1.01393 1.09849,-1.00401 z"
             style="display:inline;fill:#1a1a1a;fill-rule:evenodd;stroke:none;stroke-width:0.26458332px;stroke-linecap:butt;stroke-linejoin:miter;stroke-opacity:1" />
          <path
             sodipodi:nodetypes="sssss"
             inkscape:connector-curvature="0"
             id="path6323-5-1-3"
             d="m 12.30473,303.44048 c -0.62097,-0.006 -1.06912,0.52582 -1.06621,1.02166 0.003,0.49049 0.57593,1.00078 1.06621,0.98634 0.6922,-0.0204 1.08499,-0.51436 1.11616,-1.00973 0.0351,-0.55716 -0.49842,-0.99207 -1.11616,-0.99827 z"
             style="display:inline;fill:#1a1a1a;fill-rule:evenodd;stroke:none;stroke-width:0.26458332px;stroke-linecap:butt;stroke-linejoin:miter;stroke-opacity:1" />
        </g>
      </g>
      <g
         id="g17569-5">
        <path
           id="path18-0-9-0"
           d="m 72.271,50.896 v 25.257 c 0,13.949 -16.093,25.257 -35.944,25.257 C 16.476,101.41 0.383,90.102 0.383,76.153 V 50.896 Z"
           clip-path="none"
           inkscape:connector-curvature="0"
           style="clip-rule:evenodd;fill:#9f7a52;fill-rule:evenodd"
           transform="matrix(0.26458333,0,0,0.26458333,51.807786,295.59965)" />
        <path
           id="path38-0-7-8"
           d="m 61.182,51.278 v 19.899 c 0,10.99 -11.3,19.899 -25.238,19.899 -13.938,0 -25.237,-8.909 -25.237,-19.899 V 51.278 Z"
           clip-path="none"
           inkscape:connector-curvature="0"
           style="clip-rule:evenodd;fill:#ffffff;fill-rule:evenodd"
           transform="matrix(0.26458333,0,0,0.26458333,51.807786,295.5583)" />
        <path
           id="path20-8-9-0"
           d="m 72.271,50.896 v 25.257 c 0,13.949 -16.093,25.257 -35.944,25.257 C 16.476,101.41 0.383,90.102 0.383,76.153 V 50.896 Z"
           stroke-miterlimit="8"
           clip-path="none"
           inkscape:connector-curvature="0"
           style="fill:none;stroke:#803d20;stroke-width:0.76550001;stroke-miterlimit:8"
           transform="matrix(0.26458333,0,0,0.26458333,51.807786,295.59965)" />
      </g>
    </g>
    <g
       transform="translate(-265.01687,-214.00065)"
       id="g21244">
      <g
         transform="translate(-409.9422,103.36226)"
         id="g29029">
        <path
           style="fill:none;stroke:#040000;stroke-width:0.20299999;stroke-miterlimit:8;stroke-dasharray:none;stroke-opacity:1"
           clip-path="none"
           d="m 437.59317,218.83272 h 5.54123 m 7.98201,0 h 4.89547"
           id="line38-1-6-0-6"
           inkscape:connector-curvature="0"
           sodipodi:nodetypes="cccc" />
        <path
           inkscape:connector-curvature="0"
           style="fill:none;fill-opacity:1;stroke:#040000;stroke-width:0.20299999;stroke-linecap:round;stroke-linejoin:miter;stroke-miterlimit:8;stroke-dasharray:none;stroke-opacity:1"
           clip-path="none"
           d="m 454.61237,217.88736 1.61872,0.94536 -1.61899,0.94483"
           id="polyline40-1-1-6-1" />
        <path
           inkscape:connector-curvature="0"
           transform="matrix(0.26458333,0,0,0.26458333,435.69203,167.49879)"
           style="fill:none;stroke:#040000;stroke-width:0.76609999;stroke-linecap:round;stroke-miterlimit:8"
           clip-path="none"
           d="m 12.612,197.589 -6.118,-3.572 6.117,-3.572"
           id="polyline42-4-9-4-4" />
      </g>
      <g
         aria-label="25"
         style="font-size:5.64444447px;text-align:center;text-anchor:middle;stroke-width:0.26447746"
         id="text80-7-2-9-1">
        <path
           inkscape:connector-curvature="0"
           d="m 34.409178,323.78083 h 1.943034 v 0.46853 h -2.61276 v -0.46853 q 0.316948,-0.32798 0.862652,-0.87919 0.548459,-0.55397 0.689019,-0.71383 0.267339,-0.30041 0.37207,-0.50711 0.107487,-0.20947 0.107487,-0.41066 0,-0.32797 -0.23151,-0.53468 -0.228755,-0.2067 -0.598069,-0.2067 -0.261827,0 -0.553971,0.091 -0.289388,0.0909 -0.620118,0.2756 v -0.56224 q 0.336242,-0.13504 0.628386,-0.20395 0.292144,-0.0689 0.534679,-0.0689 0.639409,0 1.019748,0.31971 0.380338,0.3197 0.380338,0.85438 0,0.25356 -0.09646,0.48231 -0.09371,0.226 -0.34451,0.53468 -0.0689,0.0799 -0.438216,0.46302 -0.369314,0.38034 -1.041797,1.06661 z"
           style="font-size:5.64444447px;font-family:sans-serif;text-align:center;text-anchor:middle;fill:#040000;stroke-width:0.26447746"
           id="path33574" />
        <path
           inkscape:connector-curvature="0"
           d="m 37.529057,320.13454 h 2.185568 v 0.46853 h -1.675694 v 1.00872 q 0.121267,-0.0413 0.242535,-0.0606 0.121267,-0.022 0.242534,-0.022 0.689019,0 1.091406,0.37758 0.402388,0.37759 0.402388,1.02251 0,0.66421 -0.413412,1.03353 -0.413411,0.36656 -1.16582,0.36656 -0.259071,0 -0.529167,-0.0441 -0.267339,-0.0441 -0.553971,-0.13229 v -0.55949 q 0.248047,0.13505 0.51263,0.2012 0.264583,0.0661 0.559484,0.0661 0.476801,0 0.755165,-0.2508 0.278363,-0.2508 0.278363,-0.68075 0,-0.42995 -0.278363,-0.68075 -0.278364,-0.25081 -0.755165,-0.25081 -0.223243,0 -0.446485,0.0496 -0.220486,0.0496 -0.451996,0.15434 z"
           style="font-size:5.64444447px;font-family:sans-serif;text-align:center;text-anchor:middle;fill:#040000;stroke-width:0.26447746"
           id="path33576" />
      </g>
    </g>
    <g
       id="g21252"
       transform="translate(-264.4877,-214.00065)">
      <g
         transform="translate(-408.2449,103.08515)"
         id="g29042">
        <path
           style="fill:none;stroke:#040000;stroke-width:0.20299999;stroke-miterlimit:8;stroke-dasharray:none;stroke-opacity:1"
           clip-path="none"
           d="m 458.49464,189.24161 v 9.93741 m 0,6.50982 v 9.98625"
           id="line38-1-6-9-5-6-4"
           inkscape:connector-curvature="0"
           sodipodi:nodetypes="cccc" />
        <path
           inkscape:connector-curvature="0"
           style="fill:none;fill-opacity:1;stroke:#040000;stroke-width:0.20299999;stroke-linecap:round;stroke-linejoin:miter;stroke-miterlimit:8;stroke-dasharray:none;stroke-opacity:1"
           clip-path="none"
           d="m 459.44,214.13211 -0.94536,1.61872 -0.94483,-1.61899"
           id="polyline40-1-1-2-5-9-9" />
        <path
           inkscape:connector-curvature="0"
           transform="matrix(0,0.26458333,-0.26458333,0,509.82857,187.50235)"
           style="fill:none;stroke:#040000;stroke-width:0.76609999;stroke-linecap:round;stroke-miterlimit:8"
           clip-path="none"
           d="m 12.612,197.589 -6.118,-3.572 6.117,-3.572"
           id="polyline42-4-9-3-1-8-4" />
      </g>
      <g
         aria-label="35"
         style="font-size:5.64444447px;text-align:center;text-anchor:middle;stroke-width:0.26447746"
         id="text80-7-2-3-1-8-0">
        <path
           inkscape:connector-curvature="0"
           d="m 48.979453,305.40703 q 0.399631,0.0854 0.622873,0.35553 0.225999,0.2701 0.225999,0.66697 0,0.6091 -0.418924,0.94258 -0.418924,0.33349 -1.190625,0.33349 -0.259071,0 -0.534679,-0.0524 -0.272851,-0.0496 -0.564995,-0.15158 v -0.53744 q 0.23151,0.13505 0.507118,0.20395 0.275607,0.0689 0.57602,0.0689 0.523654,0 0.796506,-0.2067 0.275607,-0.20671 0.275607,-0.60083 0,-0.3638 -0.256315,-0.56775 -0.253559,-0.2067 -0.708311,-0.2067 h -0.479558 v -0.45751 h 0.501606 q 0.410656,0 0.628386,-0.16261 0.21773,-0.16537 0.21773,-0.47405 0,-0.31694 -0.225999,-0.48507 -0.223242,-0.17087 -0.642165,-0.17087 -0.228755,0 -0.490582,0.0496 -0.261827,0.0496 -0.57602,0.15434 v -0.4961 q 0.316949,-0.0882 0.592556,-0.13229 0.278364,-0.0441 0.523655,-0.0441 0.633897,0 1.003212,0.28938 0.369314,0.28664 0.369314,0.77722 0,0.34175 -0.195681,0.57877 -0.195682,0.23427 -0.556728,0.32522 z"
           style="font-size:5.64444447px;font-family:sans-serif;text-align:center;text-anchor:middle;fill:#040000;stroke-width:0.26447746"
           id="path33580" />
        <path
           inkscape:connector-curvature="0"
           d="m 50.89217,303.51085 h 2.185569 v 0.46853 h -1.675695 v 1.00873 q 0.121268,-0.0413 0.242535,-0.0606 0.121267,-0.0221 0.242535,-0.0221 0.689019,0 1.091406,0.37759 0.402387,0.37758 0.402387,1.0225 0,0.66422 -0.413411,1.03353 -0.413412,0.36656 -1.165821,0.36656 -0.259071,0 -0.529166,-0.0441 -0.26734,-0.0441 -0.553972,-0.13229 v -0.55948 q 0.248047,0.13504 0.51263,0.20119 0.264584,0.0661 0.559484,0.0661 0.476801,0 0.755165,-0.2508 0.278364,-0.2508 0.278364,-0.68075 0,-0.42995 -0.278364,-0.68075 -0.278364,-0.2508 -0.755165,-0.2508 -0.223242,0 -0.446484,0.0496 -0.220487,0.0496 -0.451997,0.15434 z"
           style="font-size:5.64444447px;font-family:sans-serif;text-align:center;text-anchor:middle;fill:#040000;stroke-width:0.26447746"
           id="path33582" />
      </g>
    </g>
  </g>
</svg>
