<?xml version="1.0" encoding="UTF-8" standalone="no"?>
<svg
   inkscape:version="1.2.2 (732a01da63, 2022-12-09)"
   sodipodi:docname="j13-option-a.svg"
   version="1.1"
   viewBox="0 0 563.03 366.37"
   data-name="圖層 2"
   id="圖層_2"
   xmlns:inkscape="http://www.inkscape.org/namespaces/inkscape"
   xmlns:sodipodi="http://sodipodi.sourceforge.net/DTD/sodipodi-0.dtd"
   xmlns="http://www.w3.org/2000/svg"
   xmlns:svg="http://www.w3.org/2000/svg"
   xmlns:rdf="http://www.w3.org/1999/02/22-rdf-syntax-ns#"
   xmlns:cc="http://creativecommons.org/ns#"
   xmlns:dc="http://purl.org/dc/elements/1.1/">
  <metadata
     id="metadata240">
    <rdf:RDF>
      <cc:Work
         rdf:about="">
        <dc:format>image/svg+xml</dc:format>
        <dc:type
           rdf:resource="http://purl.org/dc/dcmitype/StillImage" />
        <dc:title />
      </cc:Work>
    </rdf:RDF>
  </metadata>
  <sodipodi:namedview
     inkscape:current-layer="圖層_2"
     inkscape:window-maximized="1"
     inkscape:window-y="-8"
     inkscape:window-x="-8"
     inkscape:cy="199.796"
     inkscape:cx="242.56579"
     inkscape:zoom="1.6366694"
     showgrid="false"
     id="namedview238"
     inkscape:window-height="1017"
     inkscape:window-width="1920"
     inkscape:pageshadow="2"
     inkscape:pageopacity="0"
     guidetolerance="10"
     gridtolerance="10"
     objecttolerance="10"
     borderopacity="1"
     bordercolor="#666666"
     pagecolor="#ffffff"
     inkscape:showpageshadow="2"
     inkscape:pagecheckerboard="0"
     inkscape:deskcolor="#d1d1d1" />
  <defs
     id="defs7">
    <style
       id="style2">.cls-1,.cls-12,.cls-3,.cls-4{fill:none;}.cls-2{fill:#040000;}.cls-3{stroke:#040000;stroke-width:2px;}.cls-3,.cls-8{stroke-miterlimit:10;}.cls-4,.cls-8,.cls-9{stroke:#3e3a39;}.cls-12,.cls-4,.cls-9{stroke-linecap:round;stroke-linejoin:round;}.cls-4{stroke-width:6px;}.cls-5,.cls-8{fill:#404a4b;}.cls-6{fill:#bbc0b8;}.cls-7{clip-path:url(#clip-path);}.cls-9{fill:#fff;}.cls-10{fill:#7d2448;}.cls-11{fill:#a05f7c;}.cls-12{stroke:#fff;}</style>
    <clipPath
       id="clip-path">
      <path
         id="path4"
         d="M362.08,261l-18.95-.13-18.95-.14c-3.25,3-8.4,86.3-3.75,88.62a20.56,20.56,0,0,0,11.53.09c6.64-2.25,6.55-44.28,11-66.2,4.14,22,3.45,64,10,66.35a20.65,20.65,0,0,0,11.53.08C369.23,347.36,366.71,264,362.08,261Z"
         class="cls-1" />
    </clipPath>
  </defs>
  <polygon
     id="polygon131"
     points="196.87 172.33 268.08 131.76 339.3 172.33 268.08 212.89 196.87 172.33"
     class="cls-3" />
  <polyline
     id="polyline141"
     points="196.87 172.33 102.36 172.33 102.36 251.75"
     class="cls-3" />
  <polyline
     id="polyline145"
     points="335.99 172.33 430.5 172.33 430.5 251.75"
     class="cls-3" />
  <polyline
     id="polyline175"
     points="62.02 40 267.86 40 267.86 119.43"
     class="cls-3" />
  <path
     id="path177"
     d="M267.86,131.5c-2.1-5.68-5.7-12.73-9.51-17.1l9.51,3.44,9.51-3.44C273.57,118.77,270,125.82,267.86,131.5Z"
     class="cls-2" />
  <rect
     class="cls-3"
     x="57.034592"
     y="264.54813"
     width="177.76572"
     height="67.775726"
     id="rect43" />
  <path
     class="cls-4"
     d="m 56.91745,265.121 v 0 -3.83 h -38.72 v 3.66 c -3.25,8.43 -7.85,85.7 -3.38,87.94 a 11.4,11.4 0 0 0 0.52,4.34 0.87,0.87 0 0 0 0.59,0.53 18.63,18.63 0 0 0 8.71,0.1 0.88,0.88 0 0 0 0.69,-0.79 11.88,11.88 0 0 1 1,-4.1 c 6.64,-2.24 6.55,-44.27 11,-66.19 4.14,22 3.45,64 10,66.35 a 11.56,11.56 0 0 1 1,4.1 0.87,0.87 0 0 0 0.67,0.81 18.75,18.75 0 0 0 8.72,0 0.83,0.83 0 0 0 0.59,-0.52 11.32,11.32 0 0 0 0.58,-4.33 c 4.58,-2.17 2.37,-80.12 -1.97,-88.07 z"
     id="path45" />
  <path
     class="cls-5"
     d="m 58.93745,353.211 a 11.32,11.32 0 0 1 -0.58,4.33 0.83,0.83 0 0 1 -0.59,0.52 18.75,18.75 0 0 1 -8.72,0 0.87,0.87 0 0 1 -0.67,-0.81 11.56,11.56 0 0 0 -1,-4.1 z"
     id="path47" />
  <path
     class="cls-5"
     d="m 14.81745,352.891 a 11.4,11.4 0 0 0 0.52,4.34 0.87,0.87 0 0 0 0.59,0.53 18.63,18.63 0 0 0 8.71,0.1 0.88,0.88 0 0 0 0.69,-0.79 11.88,11.88 0 0 1 1,-4.1 z"
     id="path49" />
  <path
     class="cls-6"
     d="m 56.46745,264.541 -18.95,-0.14 -18.95,-0.13 c -3.25,3 -8.4,86.3 -3.75,88.62 a 20.47,20.47 0 0 0 11.53,0.08 c 6.64,-2.24 6.55,-44.27 11,-66.19 4.14,22 3.45,64 10,66.35 a 20.65,20.65 0 0 0 11.53,0.08 c 4.74,-2.26 2.22,-85.6 -2.41,-88.67 z"
     id="path51" />
  <rect
     class="cls-5"
     x="18.197449"
     y="261.29099"
     width="38.73"
     height="3.8299999"
     id="rect53" />
  <g
     class="cls-7"
     clip-path="url(#clip-path)"
     id="g107"
     transform="translate(-305.61255,0.61099691)">
    <circle
       class="cls-8"
       cx="320.63"
       cy="342.97"
       r="4.5100002"
       id="circle55" />
    <circle
       class="cls-9"
       cx="322.35999"
       cy="325.03"
       r="4.5100002"
       id="circle57" />
    <circle
       class="cls-8"
       cx="324.07999"
       cy="307.09"
       r="4.5100002"
       id="circle59" />
    <circle
       class="cls-9"
       cx="326.01999"
       cy="287"
       r="4.5100002"
       id="circle61" />
    <circle
       class="cls-8"
       cx="337.85999"
       cy="330.57001"
       r="4.5100002"
       id="circle63" />
    <circle
       class="cls-9"
       cx="335.98999"
       cy="350"
       r="4.5100002"
       id="circle65" />
    <circle
       class="cls-9"
       cx="339.59"
       cy="312.63"
       r="4.5100002"
       id="circle67" />
    <circle
       class="cls-8"
       cx="341.32001"
       cy="294.70001"
       r="4.5100002"
       id="circle69" />
    <circle
       class="cls-9"
       cx="343.25"
       cy="274.60001"
       r="4.5100002"
       id="circle71" />
    <circle
       class="cls-8"
       cx="354.95001"
       cy="319.67999"
       r="4.5100002"
       id="circle73" />
    <circle
       class="cls-8"
       cx="366.70001"
       cy="344.60999"
       r="4.5100002"
       id="circle75" />
    <circle
       class="cls-8"
       cx="372.04001"
       cy="308.75"
       r="4.5100002"
       id="circle77" />
    <circle
       class="cls-9"
       cx="353.06"
       cy="339.26001"
       r="4.5100002"
       id="circle79" />
    <circle
       class="cls-9"
       cx="369.91"
       cy="327.34"
       r="4.5100002"
       id="circle81" />
    <circle
       class="cls-8"
       cx="351.23001"
       cy="358.28"
       r="4.5100002"
       id="circle83" />
    <circle
       class="cls-9"
       cx="356.82001"
       cy="300.23999"
       r="4.5100002"
       id="circle85" />
    <circle
       class="cls-9"
       cx="372.35999"
       cy="286.94"
       r="4.5100002"
       id="circle87" />
    <circle
       class="cls-8"
       cx="358.54999"
       cy="282.29999"
       r="4.5100002"
       id="circle89" />
    <circle
       class="cls-9"
       cx="360.48999"
       cy="262.20999"
       r="4.5100002"
       id="circle91" />
    <circle
       class="cls-8"
       cx="310.47"
       cy="280.89001"
       r="4.5100002"
       id="circle93" />
    <circle
       class="cls-9"
       cx="312.41"
       cy="260.79999"
       r="4.5100002"
       id="circle95" />
    <circle
       class="cls-8"
       cx="327.70999"
       cy="268.48999"
       r="4.5100002"
       id="circle97" />
    <circle
       class="cls-9"
       cx="329.64001"
       cy="248.39999"
       r="4.5100002"
       id="circle99" />
    <circle
       class="cls-8"
       cx="358.42999"
       cy="282.54999"
       r="4.5100002"
       id="circle101" />
    <circle
       class="cls-8"
       cx="344.94"
       cy="256.10001"
       r="4.5100002"
       id="circle103" />
    <circle
       class="cls-9"
       cx="346.88"
       cy="236"
       r="4.5100002"
       id="circle105" />
  </g>
  <path
     id="path143"
     d="m 102.36,263.82 c -2.11,-5.68 -5.71,-12.73 -9.52,-17.09 l 9.52,3.44 9.51,-3.44 c -3.81,4.36 -7.41,11.41 -9.51,17.09 z"
     class="cls-2" />
  <path
     id="path147"
     d="m 430.5,263.82 c -2.11,-5.68 -5.7,-12.73 -9.51,-17.09 l 9.51,3.44 9.51,-3.44 c -3.81,4.36 -7.4,11.41 -9.51,17.09 z"
     class="cls-2" />
  <rect
     class="cls-3"
     x="367.92096"
     y="263.93784"
     width="177.76572"
     height="67.775726"
     id="rect221" />
  <g
     id="g4876"
     transform="translate(-16)">
    <path
       class="cls-4"
       d="m 382.59384,264.4907 v 0 -3.81 h -38.54 v 3.64 c -3.23,8.39 -7.81,85.28 -3.36,87.51 a 11.29,11.29 0 0 0 0.52,4.32 0.84,0.84 0 0 0 0.58,0.53 18.6,18.6 0 0 0 8.67,0.1 0.86,0.86 0 0 0 0.68,-0.79 11.78,11.78 0 0 1 1,-4.08 c 6.61,-2.23 6.52,-44.06 11,-65.87 4.12,21.88 3.43,63.7 10,66 a 11.46,11.46 0 0 1 1,4.08 0.84,0.84 0 0 0 0.67,0.8 18.68,18.68 0 0 0 8.61,0.08 0.86,0.86 0 0 0 0.59,-0.52 11.41,11.41 0 0 0 0.58,-4.31 c 4.51,-2.17 2.31,-79.77 -2,-87.68 z"
       id="path223" />
    <path
       class="cls-10"
       d="m 384.60384,352.1507 a 11.41,11.41 0 0 1 -0.58,4.31 0.86,0.86 0 0 1 -0.6,0.54 18.68,18.68 0 0 1 -8.67,0 0.84,0.84 0 0 1 -0.67,-0.8 11.46,11.46 0 0 0 -1,-4.08 z"
       id="path225" />
    <path
       class="cls-10"
       d="m 340.69384,351.8307 a 11.29,11.29 0 0 0 0.52,4.32 0.84,0.84 0 0 0 0.58,0.53 18.6,18.6 0 0 0 8.67,0.1 0.86,0.86 0 0 0 0.68,-0.79 11.78,11.78 0 0 1 1,-4.08 z"
       id="path227" />
    <path
       class="cls-11"
       d="m 382.13384,263.9107 -18.85,-0.13 -18.86,-0.14 c -3.23,2.95 -8.35,85.88 -3.73,88.19 a 20.35,20.35 0 0 0 11.47,0.08 c 6.61,-2.23 6.52,-44.06 11,-65.87 4.12,21.88 3.43,63.7 10,66 a 20.47,20.47 0 0 0 11.48,0.08 c 4.61,-2.22 2.1,-85.2 -2.51,-88.21 z"
       id="path229" />
    <rect
       class="cls-10"
       x="344.05383"
       y="260.68069"
       width="38.540001"
       height="3.8099999"
       id="rect231" />
    <path
       class="cls-12"
       d="m 360.29384,263.6407 c 0,0 -0.47,10 0,15.41"
       id="path233" />
    <path
       class="cls-12"
       d="m 364.52384,262.5807 c 0,0 3.47,8.56 1.5,12.73"
       id="path235" />
  </g>
  <text
     xml:space="preserve"
     style="font-style:normal;font-variant:normal;font-weight:normal;font-stretch:normal;font-size:24px;line-height:100%;font-family:sans-serif;-inkscape-font-specification:sans-serif;text-align:start;text-anchor:start;fill:#000000;fill-opacity:1;stroke:none;stroke-width:2.26772;stroke-linecap:butt;stroke-linejoin:round;stroke-miterlimit:4;stroke-dasharray:none;stroke-dashoffset:0;stroke-opacity:1"
     x="37.270824"
     y="-57.050884"
     id="text936" />
  <text
     xml:space="preserve"
     style="font-style:normal;font-variant:normal;font-weight:normal;font-stretch:normal;font-size:24px;line-height:1.25;font-family:sans-serif;-inkscape-font-specification:'sans-serif, Normal';font-variant-ligatures:normal;font-variant-position:normal;font-variant-caps:normal;font-variant-numeric:normal;font-variant-alternates:normal;font-variant-east-asian:normal;text-indent:0;text-align:start;text-decoration-line:none;text-decoration-style:solid;text-decoration-color:#000000;letter-spacing:0px;word-spacing:0px;text-transform:none;writing-mode:lr-tb;direction:ltr;text-orientation:mixed;dominant-baseline:auto;baseline-shift:baseline;white-space:normal;vector-effect:none;fill:#000000;fill-opacity:1;stroke:none;stroke-width:1;stroke-linecap:butt;stroke-linejoin:miter;stroke-miterlimit:4;stroke-dasharray:none;stroke-dashoffset:0;stroke-opacity:1;-inkscape-stroke:none;stop-color:#000000"
     x="32.675671"
     y="164.04797"
     id="text533-2"><tspan
       sodipodi:role="line"
       id="tspan647"
       x="32.675671"
       y="164.04797">моложе 20 лет</tspan></text>
  <text
     xml:space="preserve"
     style="font-style:normal;font-variant:normal;font-weight:normal;font-stretch:normal;font-size:24px;line-height:1.25;font-family:sans-serif;font-variant-ligatures:normal;font-variant-position:normal;font-variant-caps:normal;font-variant-numeric:normal;font-variant-alternates:normal;font-variant-east-asian:normal;text-indent:0;text-align:center;text-decoration-line:none;text-decoration-style:solid;text-decoration-color:#000000;letter-spacing:0px;word-spacing:0px;text-transform:none;writing-mode:lr-tb;direction:ltr;text-orientation:mixed;dominant-baseline:auto;baseline-shift:baseline;text-anchor:middle;white-space:normal;vector-effect:none;fill:#000000;fill-opacity:1;stroke:none;stroke-width:1;stroke-linecap:butt;stroke-linejoin:miter;stroke-miterlimit:4;stroke-dasharray:none;stroke-dashoffset:0;stroke-opacity:1;-inkscape-stroke:none;stop-color:#000000;-inkscape-font-specification:'sans-serif, Normal'"
     x="145.16905"
     y="290.04791"
     id="text533-3"><tspan
       sodipodi:role="line"
       id="tspan835">пёстрые</tspan><tspan
       sodipodi:role="line"
       id="tspan837">штаны</tspan></text>
  <text
     xml:space="preserve"
     style="font-style:normal;font-variant:normal;font-weight:normal;font-stretch:normal;font-size:24px;line-height:1.25;font-family:sans-serif;font-variant-ligatures:normal;font-variant-position:normal;font-variant-caps:normal;font-variant-numeric:normal;font-variant-alternates:normal;font-variant-east-asian:normal;text-indent:0;text-align:center;text-decoration-line:none;text-decoration-style:solid;text-decoration-color:#000000;letter-spacing:0px;word-spacing:0px;text-transform:none;writing-mode:lr-tb;direction:ltr;text-orientation:mixed;dominant-baseline:auto;baseline-shift:baseline;text-anchor:middle;white-space:normal;vector-effect:none;fill:#000000;fill-opacity:1;stroke:none;stroke-width:1;stroke-linecap:butt;stroke-linejoin:miter;stroke-miterlimit:4;stroke-dasharray:none;stroke-dashoffset:0;stroke-opacity:1;-inkscape-stroke:none;stop-color:#000000;-inkscape-font-specification:'sans-serif, Normal'"
     x="455.30234"
     y="290.04791"
     id="text533-3-5"><tspan
       sodipodi:role="line"
       id="tspan655">однотонные</tspan><tspan
       sodipodi:role="line"
       id="tspan657">штаны</tspan></text>
  <text
     xml:space="preserve"
     style="font-style:normal;font-variant:normal;font-weight:normal;font-stretch:normal;font-size:24px;line-height:1.25;font-family:sans-serif;-inkscape-font-specification:'sans-serif, Normal';font-variant-ligatures:normal;font-variant-caps:normal;font-variant-numeric:normal;font-variant-east-asian:normal;letter-spacing:0px;word-spacing:0px;fill:#000000;fill-opacity:1;stroke:none"
     x="340.67566"
     y="164.04797"
     id="text533-8"><tspan
       sodipodi:role="line"
       id="tspan649"
       x="340.67566"
       y="164.04797">20 лет или старше</tspan></text>
  <text
     xml:space="preserve"
     style="font-style:normal;font-variant:normal;font-weight:normal;font-stretch:normal;font-size:24px;line-height:1.25;font-family:sans-serif;-inkscape-font-specification:'sans-serif, Normal';font-variant-ligatures:normal;font-variant-caps:normal;font-variant-numeric:normal;font-variant-east-asian:normal;letter-spacing:0px;word-spacing:0px;fill:#000000;fill-opacity:1;stroke:none"
     x="216.53311"
     y="180.13297"
     id="text533-84"><tspan
       sodipodi:role="line"
       id="tspan645"
       x="216.53311"
       y="180.13297">возраст?</tspan></text>
  <text
     xml:space="preserve"
     style="font-style:normal;font-variant:normal;font-weight:normal;font-stretch:normal;font-size:24px;line-height:1.25;font-family:sans-serif;font-variant-ligatures:normal;font-variant-position:normal;font-variant-caps:normal;font-variant-numeric:normal;font-variant-alternates:normal;font-variant-east-asian:normal;text-indent:0;text-align:center;text-decoration-line:none;text-decoration-style:solid;text-decoration-color:#000000;letter-spacing:0px;word-spacing:0px;text-transform:none;writing-mode:lr-tb;direction:ltr;text-orientation:mixed;dominant-baseline:auto;baseline-shift:baseline;text-anchor:middle;white-space:normal;vector-effect:none;fill:#000000;fill-opacity:1;stroke:none;stroke-width:1;stroke-linecap:butt;stroke-linejoin:miter;stroke-miterlimit:4;stroke-dasharray:none;stroke-dashoffset:0;stroke-opacity:1;-inkscape-stroke:none;stop-color:#000000;-inkscape-font-specification:'sans-serif, Normal'"
     x="167.36696"
     y="26.321701"
     id="text533-0"><tspan
       sodipodi:role="line"
       id="tspan643">150 см или выше</tspan></text>
</svg>
