<?xml version="1.0" encoding="UTF-8" standalone="no"?>
<svg
   id="圖層_2"
   data-name="圖層 2"
   viewBox="0 0 1140.03 484.37"
   version="1.1"
   sodipodi:docname="j13-body3.svg"
   inkscape:version="1.2.2 (732a01da63, 2022-12-09)"
   xmlns:inkscape="http://www.inkscape.org/namespaces/inkscape"
   xmlns:sodipodi="http://sodipodi.sourceforge.net/DTD/sodipodi-0.dtd"
   xmlns="http://www.w3.org/2000/svg"
   xmlns:svg="http://www.w3.org/2000/svg"
   xmlns:rdf="http://www.w3.org/1999/02/22-rdf-syntax-ns#"
   xmlns:cc="http://creativecommons.org/ns#"
   xmlns:dc="http://purl.org/dc/elements/1.1/">
  <metadata
     id="metadata3481">
    <rdf:RDF>
      <cc:Work
         rdf:about="">
        <dc:format>image/svg+xml</dc:format>
        <dc:type
           rdf:resource="http://purl.org/dc/dcmitype/StillImage" />
      </cc:Work>
    </rdf:RDF>
  </metadata>
  <sodipodi:namedview
     pagecolor="#ffffff"
     bordercolor="#666666"
     borderopacity="1"
     objecttolerance="10"
     gridtolerance="10"
     guidetolerance="10"
     inkscape:pageopacity="0"
     inkscape:pageshadow="2"
     inkscape:window-width="1920"
     inkscape:window-height="1017"
     id="namedview3479"
     showgrid="false"
     inkscape:zoom="1.4175066"
     inkscape:cx="436.68227"
     inkscape:cy="205.99551"
     inkscape:window-x="-8"
     inkscape:window-y="-8"
     inkscape:window-maximized="1"
     inkscape:current-layer="圖層_2"
     inkscape:showpageshadow="2"
     inkscape:pagecheckerboard="0"
     inkscape:deskcolor="#d1d1d1" />
  <defs
     id="defs3240">
    <style
       id="style3235">.cls-1,.cls-12,.cls-3,.cls-4{fill:none;}.cls-2{fill:#040000;}.cls-12,.cls-3{stroke:#040000;stroke-miterlimit:10;stroke-width:2px;}.cls-10,.cls-11,.cls-4{stroke:#3e3a39;stroke-linecap:round;stroke-linejoin:round;}.cls-4{stroke-width:6px;}.cls-5{fill:#f6ebb8;}.cls-6{fill:#f9ca9c;}.cls-7{fill:#0e4280;}.cls-8{fill:#0a2745;}.cls-9{clip-path:url(#clip-path);}.cls-10{fill:#009bdf;}.cls-11{fill:#fff;}.cls-12{stroke-dasharray:19.74 19.74;}.cls-13{fill:#231815;}</style>
    <clipPath
       id="clip-path">
      <path
         class="cls-1"
         d="M420.6,433.34C417.06,432.2,398.55,401,398.55,401l-19-.15H359.67s-18.6,31.33-22.14,32.47h0s1.23,2.75,5.93,4.45a22.71,22.71,0,0,0,8.58,1.32s1.64,4.38,10.54,5.57a21.32,21.32,0,0,0,6.66.07h0a10.59,10.59,0,0,0,3.52-1.28l.43-.26s1.32,2.31,5.84,2.31,5.84-2.31,5.84-2.31l.43.26c3,1.77,6.49,1.72,10.21,1.22,8.92-1.19,10.55-5.57,10.55-5.57a22.51,22.51,0,0,0,8.58-1.32C419.37,436.09,420.6,433.34,420.6,433.34Z"
         id="path3237" />
    </clipPath>
  </defs>
  <polygon
     class="cls-3"
     points="316.68,249.76 387.9,290.33 316.68,330.89 245.47,290.33 "
     id="polygon3280"
     transform="translate(2)" />
  <polyline
     class="cls-3"
     points="245.47 290.33 150.96 290.33 150.96 369.75"
     id="polyline3290"
     transform="translate(2)" />
  <path
     class="cls-2"
     d="m 153,381.82 c -2.11,-5.68 -5.71,-12.73 -9.52,-17.09 l 9.52,3.44 9.51,-3.44 c -3.85,4.36 -7.45,11.41 -9.51,17.09 z"
     id="path3292" />
  <polyline
     class="cls-3"
     points="384.59 290.33 479.1 290.33 479.1 369.75"
     id="polyline3294"
     transform="translate(2)" />
  <path
     class="cls-2"
     d="m 481.1,381.82 c -2.11,-5.68 -5.7,-12.73 -9.51,-17.09 l 9.51,3.44 9.51,-3.44 c -3.81,4.36 -7.41,11.41 -9.51,17.09 z"
     id="path3296" />
  <rect
     class="cls-3"
     x="65.03714"
     y="381.93716"
     width="177.76572"
     height="67.775719"
     id="rect3318" />
  <path
     class="cls-3"
     d="M 675.21,32 A 26.46,26.46 0 0 1 648.75,58.46 H 567.19 A 26.46,26.46 0 0 1 540.73,32 v 0 A 26.46,26.46 0 0 1 567.19,5.53 h 81.56 A 26.46,26.46 0 0 1 675.21,32 Z"
     id="path3340" />
  <polygon
     class="cls-3"
     points="607.59,107.79 695.73,158 607.59,208.21 519.46,158 "
     id="polygon3352"
     transform="translate(2)" />
  <line
     class="cls-3"
     x1="609.89001"
     y1="58.450001"
     x2="609.89001"
     y2="95.879997"
     id="line3368" />
  <path
     class="cls-2"
     d="m 609.89,108 c -2.11,-5.68 -5.7,-12.72 -9.51,-17.09 l 9.51,3.44 9.51,-3.44 c -3.81,4.32 -7.4,11.36 -9.51,17.09 z"
     id="path3370" />
  <rect
     class="cls-3"
     x="394.24716"
     y="381.93716"
     width="177.76572"
     height="67.775726"
     id="rect3400" />
  <path
     class="cls-4"
     d="m 67.41,401 v -5.79 H 28.52 v 5.64 c -6,9.91 -19.41,31.59 -22.14,32.47 0,0 2.58,5.77 14.52,5.77 0,0 1.63,4.38 10.54,5.57 3.9,0.53 7.5,0.56 10.64,-1.48 0,0 1.32,2.31 5.84,2.31 4.52,0 5.84,-2.31 5.84,-2.31 3.13,2 6.74,2 10.63,1.48 8.92,-1.19 10.55,-5.57 10.55,-5.57 11.94,0 14.52,-5.77 14.52,-5.77 C 86.74,432.47 73.46,411 67.41,401 Z"
     id="path3402" />
  <path
     class="cls-5"
     d="M 64.39,396 H 31.46 c 0,0 -21.53,36.2 -25.08,37.34 0,0 2.58,5.77 14.52,5.77 0,0 1.63,4.38 10.54,5.57 3.9,0.53 7.5,0.56 10.64,-1.48 0,0 1.32,2.31 5.84,2.31 4.52,0 5.84,-2.31 5.84,-2.31 3.13,2 6.74,2 10.63,1.48 8.92,-1.19 10.55,-5.57 10.55,-5.57 11.94,0 14.52,-5.77 14.52,-5.77 C 85.91,432.2 64.39,396 64.39,396 Z"
     id="path3404" />
  <path
     class="cls-6"
     d="m 20.9,439.11 c 0,0 8.78,-9.54 10.56,-16.48 0,0 -12,18.57 -25.08,10.71 0,0 3.18,5.99 14.52,5.77 z"
     id="path3406" />
  <path
     class="cls-6"
     d="m 42.08,443.2 c 0,0 2.18,-13.2 1.5,-17.2 0,0 -1.91,16.19 -5.48,18.72 a 12.4,12.4 0 0 0 3.98,-1.52 z"
     id="path3408" />
  <path
     class="cls-6"
     d="m 74.94,439.11 c 0,0 -8.78,-9.54 -10.55,-16.48 0,0 12,18.57 25.07,10.71 0,0 -3.19,5.99 -14.52,5.77 z"
     id="path3410" />
  <path
     class="cls-6"
     d="m 53.76,443.2 c 0,0 -2.18,-13.2 -1.5,-17.2 0,0 1.9,16.19 5.48,18.72 a 12.4,12.4 0 0 1 -3.98,-1.52 z"
     id="path3412" />
  <rect
     class="cls-6"
     x="28.52"
     y="395.23001"
     width="38.880001"
     height="5.79"
     id="rect3414" />
  <path
     class="cls-4"
     d="m 400.55,401 v -5.79 h -38.88 v 5.64 c -6,9.91 -19.41,31.59 -22.14,32.47 0,0 2.58,5.77 14.51,5.77 0,0 1.64,4.38 10.54,5.57 3.9,0.53 7.51,0.56 10.64,-1.48 0,0 1.32,2.31 5.84,2.31 4.52,0 5.84,-2.31 5.84,-2.31 3.14,2 6.75,2 10.64,1.48 8.92,-1.19 10.55,-5.57 10.55,-5.57 11.93,0 14.51,-5.77 14.51,-5.77 C 419.89,432.47 406.61,411 400.55,401 Z"
     id="path3416" />
  <path
     class="cls-7"
     d="M 397.53,396 H 364.6 c 0,0 -21.53,36.2 -25.07,37.34 0,0 2.58,5.77 14.51,5.77 0,0 1.64,4.38 10.54,5.57 3.9,0.53 7.51,0.56 10.64,-1.48 0,0 1.32,2.31 5.84,2.31 4.52,0 5.84,-2.31 5.84,-2.31 3.14,2 6.75,2 10.64,1.48 8.92,-1.19 10.55,-5.57 10.55,-5.57 11.93,0 14.51,-5.77 14.51,-5.77 C 419.06,432.2 397.53,396 397.53,396 Z"
     id="path3418" />
  <rect
     class="cls-8"
     x="361.67001"
     y="395.23001"
     width="38.880001"
     height="5.79"
     id="rect3420" />
  <g
     class="cls-9"
     clip-path="url(#clip-path)"
     id="g3460"
     transform="translate(2)">
    <circle
       class="cls-10"
       cx="361.26001"
       cy="379.29001"
       r="5.0599999"
       id="circle3422" />
    <circle
       class="cls-11"
       cx="378.66"
       cy="389.64001"
       r="5.0599999"
       id="circle3424" />
    <circle
       class="cls-10"
       cx="396.04999"
       cy="399.98001"
       r="5.0599999"
       id="circle3426" />
    <circle
       class="cls-11"
       cx="415.54001"
       cy="411.57001"
       r="5.0599999"
       id="circle3428" />
    <circle
       class="cls-10"
       cx="365.60001"
       cy="402.73999"
       r="5.0599999"
       id="circle3430" />
    <circle
       class="cls-11"
       cx="346.76001"
       cy="391.53"
       r="5.0599999"
       id="circle3432" />
    <circle
       class="cls-11"
       cx="383"
       cy="413.07999"
       r="5.0599999"
       id="circle3434" />
    <circle
       class="cls-10"
       cx="400.39001"
       cy="423.42999"
       r="5.0599999"
       id="circle3436" />
    <circle
       class="cls-11"
       cx="419.88"
       cy="435.01999"
       r="5.0599999"
       id="circle3438" />
    <circle
       class="cls-10"
       cx="368.48001"
       cy="425.31"
       r="5.0599999"
       id="circle3440" />
    <circle
       class="cls-10"
       cx="337.53"
       cy="425.31"
       r="5.0599999"
       id="circle3442" />
    <circle
       class="cls-10"
       cx="371.39999"
       cy="447.91"
       r="5.0599999"
       id="circle3444" />
    <circle
       class="cls-11"
       cx="349.48999"
       cy="414.01999"
       r="5.0599999"
       id="circle3446" />
    <circle
       class="cls-11"
       cx="353.54001"
       cy="436.84"
       r="5.0599999"
       id="circle3448" />
    <circle
       class="cls-10"
       cx="331.06"
       cy="403.04999"
       r="5.0599999"
       id="circle3450" />
    <circle
       class="cls-11"
       cx="387.34"
       cy="436.53"
       r="5.0599999"
       id="circle3452" />
    <circle
       class="cls-11"
       cx="393.41"
       cy="458.67999"
       r="5.0599999"
       id="circle3454" />
    <circle
       class="cls-10"
       cx="404.73001"
       cy="446.87"
       r="5.0599999"
       id="circle3456" />
    <circle
       class="cls-11"
       cx="424.22"
       cy="458.45999"
       r="5.0599999"
       id="circle3458" />
  </g>
  <path
     class="cls-8"
     d="m 354,439.11 c 0,0 8.79,-9.54 10.56,-16.48 0,0 -12,18.57 -25.07,10.71 0.04,0 3.22,5.99 14.51,5.77 z"
     id="path3462" />
  <path
     class="cls-8"
     d="m 375.22,443.2 c 0,0 2.19,-13.2 1.51,-17.2 0,0 -1.91,16.19 -5.49,18.72 a 12.4,12.4 0 0 0 3.98,-1.52 z"
     id="path3464" />
  <path
     class="cls-8"
     d="m 408.09,439.11 c 0,0 -8.78,-9.54 -10.56,-16.48 0,0 12,18.57 25.07,10.71 0,0 -3.18,5.99 -14.51,5.77 z"
     id="path3466" />
  <path
     class="cls-8"
     d="m 386.9,443.2 c 0,0 -2.18,-13.2 -1.49,-17.2 0,0 1.9,16.19 5.48,18.72 a 12.42,12.42 0 0 1 -3.99,-1.52 z"
     id="path3468" />
  <polyline
     class="cls-3"
     points="522.3 158 316.45 158 316.45 237.43"
     id="polyline3470"
     transform="translate(2)" />
  <path
     class="cls-2"
     d="m 318.45,249.5 c -2.11,-5.68 -5.7,-12.73 -9.51,-17.1 l 9.51,3.44 9.55,-3.44 c -3.85,4.37 -7.44,11.42 -9.55,17.1 z"
     id="path3472" />
  <path
     class="cls-12"
     d="M1070.62,448.76H746a62.25,62.25,0,0,1-62.25-62.25V215.77A62.25,62.25,0,0,1,746,153.52h324.62a62.25,62.25,0,0,1,62.25,62.25V386.51a62.25,62.25,0,0,1-62.25,62.25Z"
     id="path3474" />
  <path
     class="cls-13"
     d="M902.36,323.19a4.34,4.34,0,0,1-1.62-3.43,21.67,21.67,0,0,1,1.92-9.5,27,27,0,0,1,4.21-6.55,60.73,60.73,0,0,1,7.21-6.55,39.55,39.55,0,0,0,6.91-6.43,9.16,9.16,0,0,0,2-5.71q0-13-17.07-13a32.74,32.74,0,0,0-8.18,1,25.68,25.68,0,0,0-7.09,2.95,6.36,6.36,0,0,1-3.12,1,5.13,5.13,0,0,1-4.93-4.93c0-1.84,1-3.41,3-4.69a35.74,35.74,0,0,1,10-4.45,44.66,44.66,0,0,1,11.3-1.32q12.38,0,19.77,6.19T934,284.42a19.61,19.61,0,0,1-1.68,8.17,20.7,20.7,0,0,1-3.84,5.89,69,69,0,0,1-6.62,5.89,42.46,42.46,0,0,0-8,7.7,12.8,12.8,0,0,0-2.34,7.69,4.37,4.37,0,0,1-1.63,3.37,5.51,5.51,0,0,1-3.78,1.44A5.66,5.66,0,0,1,902.36,323.19Zm-1.5,22.05a7.05,7.05,0,0,1-2.17-5.16,7.42,7.42,0,0,1,7.22-7.22,7.05,7.05,0,0,1,5.17,2.17,6.91,6.91,0,0,1,2.16,5.05,7.39,7.39,0,0,1-7.33,7.33A6.89,6.89,0,0,1,900.86,345.24Z"
     id="path3476" />
  <text
     xml:space="preserve"
     style="font-style:normal;font-variant:normal;font-weight:normal;font-stretch:normal;font-size:24px;line-height:1.25;font-family:sans-serif;-inkscape-font-specification:'sans-serif, Normal';font-variant-ligatures:normal;font-variant-position:normal;font-variant-caps:normal;font-variant-numeric:normal;font-variant-alternates:normal;font-variant-east-asian:normal;text-indent:0;text-align:center;text-decoration-line:none;text-decoration-style:solid;text-decoration-color:#000000;letter-spacing:0px;word-spacing:0px;text-transform:none;writing-mode:lr-tb;direction:ltr;text-orientation:mixed;dominant-baseline:auto;baseline-shift:baseline;text-anchor:middle;white-space:normal;vector-effect:none;fill:#000000;fill-opacity:1;stroke:none;stroke-width:1;stroke-linecap:butt;stroke-linejoin:miter;stroke-miterlimit:4;stroke-dasharray:none;stroke-dashoffset:0;stroke-opacity:1;-inkscape-stroke:none;stop-color:#000000"
     x="608.88708"
     y="165.808"
     id="text533"><tspan
       sodipodi:role="line"
       id="tspan480"
       x="608.88708"
       y="165.808">рост?</tspan></text>
  <text
     xml:space="preserve"
     style="font-style:normal;font-variant:normal;font-weight:normal;font-stretch:normal;font-size:24px;line-height:1.25;font-family:sans-serif;font-variant-ligatures:normal;font-variant-position:normal;font-variant-caps:normal;font-variant-numeric:normal;font-variant-alternates:normal;font-variant-east-asian:normal;text-indent:0;text-align:center;text-decoration-line:none;text-decoration-style:solid;text-decoration-color:#000000;letter-spacing:0px;word-spacing:0px;text-transform:none;writing-mode:lr-tb;direction:ltr;text-orientation:mixed;dominant-baseline:auto;baseline-shift:baseline;text-anchor:middle;white-space:normal;vector-effect:none;fill:#000000;fill-opacity:1;stroke:none;stroke-width:1;stroke-linecap:butt;stroke-linejoin:miter;stroke-miterlimit:4;stroke-dasharray:none;stroke-dashoffset:0;stroke-opacity:1;-inkscape-stroke:none;stop-color:#000000;-inkscape-font-specification:'sans-serif, Normal'"
     x="369.23315"
     y="144.972"
     id="text533-0"><tspan
       sodipodi:role="line"
       id="tspan482">до 150 см</tspan></text>
  <text
     xml:space="preserve"
     style="font-style:normal;font-variant:normal;font-weight:normal;font-stretch:normal;font-size:24px;line-height:1.25;font-family:sans-serif;-inkscape-font-specification:'sans-serif, Normal';font-variant-ligatures:normal;font-variant-position:normal;font-variant-caps:normal;font-variant-numeric:normal;font-variant-alternates:normal;font-variant-east-asian:normal;text-indent:0;text-align:start;text-decoration-line:none;text-decoration-style:solid;text-decoration-color:#000000;letter-spacing:0px;word-spacing:0px;text-transform:none;writing-mode:lr-tb;direction:ltr;text-orientation:mixed;dominant-baseline:auto;baseline-shift:baseline;white-space:normal;vector-effect:none;fill:#000000;fill-opacity:1;stroke:none;stroke-width:1;stroke-linecap:butt;stroke-linejoin:miter;stroke-miterlimit:4;stroke-dasharray:none;stroke-dashoffset:0;stroke-opacity:1;-inkscape-stroke:none;stop-color:#000000"
     x="72.457092"
     y="277.39999"
     id="text533-2"><tspan
       sodipodi:role="line"
       id="tspan484"
       x="72.457092"
       y="277.39999">моложе 20 лет</tspan></text>
  <text
     xml:space="preserve"
     style="font-style:normal;font-variant:normal;font-weight:normal;font-stretch:normal;font-size:24px;line-height:1.25;font-family:sans-serif;-inkscape-font-specification:'sans-serif, Normal';font-variant-ligatures:normal;font-variant-position:normal;font-variant-caps:normal;font-variant-numeric:normal;font-variant-alternates:normal;font-variant-east-asian:normal;text-indent:0;text-align:center;text-decoration-line:none;text-decoration-style:solid;text-decoration-color:#000000;letter-spacing:0px;word-spacing:0px;text-transform:none;writing-mode:lr-tb;direction:ltr;text-orientation:mixed;dominant-baseline:auto;baseline-shift:baseline;text-anchor:middle;white-space:normal;vector-effect:none;fill:#000000;fill-opacity:1;stroke:none;stroke-width:1;stroke-linecap:butt;stroke-linejoin:miter;stroke-miterlimit:4;stroke-dasharray:none;stroke-dashoffset:0;stroke-opacity:1;-inkscape-stroke:none;stop-color:#000000"
     x="154.28"
     y="407.25702"
     id="text533-3"><tspan
       sodipodi:role="line"
       id="tspan488"
       x="154.28"
       y="407.25702">однотонная</tspan><tspan
       sodipodi:role="line"
       id="tspan490"
       x="154.28"
       y="437.25702">юбка</tspan></text>
  <text
     xml:space="preserve"
     style="font-style:normal;font-variant:normal;font-weight:normal;font-stretch:normal;font-size:24px;line-height:1.25;font-family:sans-serif;-inkscape-font-specification:'sans-serif, Normal';font-variant-ligatures:normal;font-variant-position:normal;font-variant-caps:normal;font-variant-numeric:normal;font-variant-alternates:normal;font-variant-east-asian:normal;text-indent:0;text-align:center;text-decoration-line:none;text-decoration-style:solid;text-decoration-color:#000000;letter-spacing:0px;word-spacing:0px;text-transform:none;writing-mode:lr-tb;direction:ltr;text-orientation:mixed;dominant-baseline:auto;baseline-shift:baseline;text-anchor:middle;white-space:normal;vector-effect:none;fill:#000000;fill-opacity:1;stroke:none;stroke-width:1;stroke-linecap:butt;stroke-linejoin:miter;stroke-miterlimit:4;stroke-dasharray:none;stroke-dashoffset:0;stroke-opacity:1;-inkscape-stroke:none;stop-color:#000000"
     x="483.13004"
     y="407.25702"
     id="text533-3-5"><tspan
       sodipodi:role="line"
       id="tspan492"
       x="483.13004"
       y="407.25702">пёстрая</tspan><tspan
       sodipodi:role="line"
       id="tspan494"
       x="483.13004"
       y="437.25702">юбка</tspan></text>
  <text
     xml:space="preserve"
     style="font-style:normal;font-variant:normal;font-weight:normal;font-stretch:normal;font-size:24px;line-height:1.25;font-family:sans-serif;-inkscape-font-specification:'sans-serif, Normal';font-variant-ligatures:normal;font-variant-caps:normal;font-variant-numeric:normal;font-variant-east-asian:normal;letter-spacing:0px;word-spacing:0px;fill:#000000;fill-opacity:1;stroke:none"
     x="396.67566"
     y="277.39999"
     id="text533-8"><tspan
       sodipodi:role="line"
       id="tspan486"
       x="396.67566"
       y="277.39999">20 лет или старше</tspan></text>
  <text
     xml:space="preserve"
     style="font-style:normal;font-variant:normal;font-weight:normal;font-stretch:normal;font-size:24px;line-height:1.25;font-family:sans-serif;-inkscape-font-specification:'sans-serif, Normal';font-variant-ligatures:normal;font-variant-caps:normal;font-variant-numeric:normal;font-variant-east-asian:normal;letter-spacing:0px;word-spacing:0px;fill:#000000;fill-opacity:1;stroke:none"
     x="267.13312"
     y="298.13297"
     id="text533-84"><tspan
       sodipodi:role="line"
       id="tspan496"
       x="267.13312"
       y="298.13297">возраст?</tspan></text>
  <text
     xml:space="preserve"
     style="font-style:normal;font-variant:normal;font-weight:normal;font-stretch:normal;font-size:24px;line-height:1.25;font-family:sans-serif;-inkscape-font-specification:'sans-serif, Normal';font-variant-ligatures:normal;font-variant-position:normal;font-variant-caps:normal;font-variant-numeric:normal;font-variant-alternates:normal;font-variant-east-asian:normal;text-indent:0;text-align:center;text-decoration-line:none;text-decoration-style:solid;text-decoration-color:#000000;letter-spacing:0px;word-spacing:0px;text-transform:none;writing-mode:lr-tb;direction:ltr;text-orientation:mixed;dominant-baseline:auto;baseline-shift:baseline;text-anchor:middle;white-space:normal;vector-effect:none;fill:#000000;fill-opacity:1;stroke:none;stroke-width:1;stroke-linecap:butt;stroke-linejoin:miter;stroke-miterlimit:4;stroke-dasharray:none;stroke-dashoffset:0;stroke-opacity:1;-inkscape-stroke:none;stop-color:#000000"
     x="607.56201"
     y="39.667"
     id="text476"><tspan
       sodipodi:role="line"
       id="tspan478"
       x="607.56201"
       y="39.667">старт</tspan></text>
</svg>
