<?xml version="1.0" encoding="UTF-8" standalone="no"?>
<!-- Created with Inkscape (http://www.inkscape.org/) -->

<svg
   xmlns:dc="http://purl.org/dc/elements/1.1/"
   xmlns:cc="http://creativecommons.org/ns#"
   xmlns:rdf="http://www.w3.org/1999/02/22-rdf-syntax-ns#"
   xmlns:svg="http://www.w3.org/2000/svg"
   xmlns="http://www.w3.org/2000/svg"
   xmlns:sodipodi="http://sodipodi.sourceforge.net/DTD/sodipodi-0.dtd"
   xmlns:inkscape="http://www.inkscape.org/namespaces/inkscape"
   width="148.22577mm"
   height="190.66373mm"
   viewBox="0 0 148.22577 190.66373"
   version="1.1"
   id="svg8"
   inkscape:version="0.91pre4 r13712"
   sodipodi:docname="counter_2.svg">
  <defs
     id="defs2" />
  <sodipodi:namedview
     id="base"
     pagecolor="#ffffff"
     bordercolor="#666666"
     borderopacity="1.0"
     inkscape:pageopacity="0.0"
     inkscape:pageshadow="2"
     inkscape:zoom="0.76729121"
     inkscape:cx="166.52158"
     inkscape:cy="390.87196"
     inkscape:document-units="mm"
     inkscape:current-layer="g7263"
     showgrid="false"
     fit-margin-top="-12"
     fit-margin-left="-80"
     fit-margin-right="-29"
     fit-margin-bottom="-3.1"
     inkscape:window-width="1600"
     inkscape:window-height="837"
     inkscape:window-x="-9"
     inkscape:window-y="-9"
     inkscape:window-maximized="1" />
  <metadata
     id="metadata5">
    <rdf:RDF>
      <cc:Work
         rdf:about="">
        <dc:format>image/svg+xml</dc:format>
        <dc:type
           rdf:resource="http://purl.org/dc/dcmitype/StillImage" />
        <dc:title />
      </cc:Work>
    </rdf:RDF>
  </metadata>
  <g
     inkscape:label="Ebene 1"
     inkscape:groupmode="layer"
     id="layer1"
     style="display:inline"
     transform="translate(-59.961715,-55.144299)">
    <rect
       style="display:inline;opacity:1;fill:#8e8e8e;fill-opacity:1;fill-rule:evenodd;stroke:none;stroke-width:1.52676749;stroke-miterlimit:4;stroke-dasharray:none;stroke-dashoffset:0;stroke-opacity:1"
       id="rect9691"
       width="148.30009"
       height="5.5207062"
       x="60.089607"
       y="240.4174"
       ry="0" />
    <rect
       style="opacity:0;fill:#27a7f5;fill-opacity:0.70098039;fill-rule:evenodd;stroke:#1921aa;stroke-width:1;stroke-miterlimit:4;stroke-dasharray:none;stroke-dashoffset:0;stroke-opacity:1"
       id="rect4498"
       width="9.6992836"
       height="28.174112"
       x="42.953972"
       y="131.18843" />
    <rect
       style="opacity:1;fill:#27a7f5;fill-opacity:1;fill-rule:evenodd;stroke:#075b8e;stroke-width:1;stroke-miterlimit:4;stroke-dasharray:none;stroke-dashoffset:0;stroke-opacity:1"
       id="rect4506-4"
       width="5.2676439"
       height="165.8071"
       x="65.354439"
       y="-160.80843"
       transform="rotate(92.020963)" />
    <rect
       style="opacity:1;fill:#27a7f5;fill-opacity:1;fill-rule:evenodd;stroke:#075b8e;stroke-width:1;stroke-miterlimit:4;stroke-dasharray:none;stroke-dashoffset:0;stroke-opacity:1"
       id="rect4506"
       width="5.6045003"
       height="17.997776"
       x="83.766937"
       y="167.25098" />
    <rect
       style="opacity:1;fill:#27a7f5;fill-opacity:1;fill-rule:evenodd;stroke:#075b8e;stroke-width:1.00000024;stroke-miterlimit:4;stroke-dasharray:none;stroke-dashoffset:0;stroke-opacity:1"
       id="rect4506-6"
       width="5.6045046"
       height="29.626444"
       x="215.09213"
       y="-114.99225"
       transform="matrix(-0.00158826,0.99999874,-0.99999983,-5.8613874e-4,0,0)" />
    <path
       id="rect4506-2"
       style="opacity:1;fill:#838383;fill-opacity:1;fill-rule:evenodd;stroke:none;stroke-width:0.1;stroke-miterlimit:4;stroke-dasharray:none;stroke-dashoffset:0;stroke-opacity:1"
       d="m 89.900608,185.80749 6.95195,17.35656 1.288517,-0.5161 -6.951947,-17.35656 z m 26.444292,9.53412 -37.885652,15.20746 2.08812,5.20077 37.885642,-15.20745 z"
       inkscape:connector-curvature="0" />
    <circle
       style="opacity:1;fill:#393939;fill-opacity:1;fill-rule:evenodd;stroke:none;stroke-width:0.04693468;stroke-miterlimit:4;stroke-dasharray:none;stroke-dashoffset:0;stroke-opacity:1"
       id="path4570"
       cx="98.452507"
       cy="205.56682"
       r="2.5" />
    <rect
       style="opacity:1;fill:#27a7f5;fill-opacity:1;fill-rule:evenodd;stroke:#075b8e;stroke-width:1;stroke-miterlimit:4;stroke-dasharray:none;stroke-dashoffset:0;stroke-opacity:1"
       id="rect4506-42"
       width="5.1119409"
       height="194.2133"
       x="204.13438"
       y="43.644299" />
    <rect
       style="opacity:1;fill:#27a7f5;fill-opacity:1;fill-rule:evenodd;stroke:#075b8e;stroke-width:1;stroke-miterlimit:4;stroke-dasharray:none;stroke-dashoffset:0;stroke-opacity:1"
       id="rect4506-63"
       width="5.0526547"
       height="256.16855"
       x="242.53842"
       y="-228.39561"
       transform="rotate(88.054164)" />
    <path
       id="rect4506-2-2"
       style="opacity:1;fill:#838383;fill-opacity:1;fill-rule:evenodd;stroke:none;stroke-width:0.1;stroke-miterlimit:4;stroke-dasharray:none;stroke-dashoffset:0;stroke-opacity:1"
       d="m 112.89598,149.77689 6.95194,17.35656 1.28852,-0.5161 -6.95195,-17.35656 z m 26.44428,9.53412 -37.88564,15.20746 2.08811,5.20077 37.88564,-15.20745 z"
       inkscape:connector-curvature="0" />
    <rect
       style="opacity:1;fill:#27a7f5;fill-opacity:1;fill-rule:evenodd;stroke:#075b8e;stroke-width:1;stroke-miterlimit:4;stroke-dasharray:none;stroke-dashoffset:0;stroke-opacity:1"
       id="rect4506-8"
       width="5.6045003"
       height="17.997776"
       x="106.76231"
       y="131.2204" />
    <rect
       style="opacity:1;fill:#27a7f5;fill-opacity:1;fill-rule:evenodd;stroke:#075b8e;stroke-width:1.00000024;stroke-miterlimit:4;stroke-dasharray:none;stroke-dashoffset:0;stroke-opacity:1"
       id="rect4506-6-5"
       width="5.6045046"
       height="29.626444"
       x="179.04805"
       y="-137.93025"
       transform="matrix(-0.00158826,0.99999874,-0.99999983,-5.8613874e-4,0,0)" />
    <circle
       style="opacity:1;fill:#393939;fill-opacity:1;fill-rule:evenodd;stroke:none;stroke-width:0.04693468;stroke-miterlimit:4;stroke-dasharray:none;stroke-dashoffset:0;stroke-opacity:1"
       id="path4570-8"
       cx="121.44788"
       cy="169.53624"
       r="2.5" />
    <rect
       style="opacity:1;fill:#27a7f5;fill-opacity:1;fill-rule:evenodd;stroke:#075b8e;stroke-width:1;stroke-miterlimit:4;stroke-dasharray:none;stroke-dashoffset:0;stroke-opacity:1"
       id="rect4506-1"
       width="5.6045003"
       height="17.997776"
       x="129.97203"
       y="95.560013" />
    <rect
       style="opacity:1;fill:#27a7f5;fill-opacity:1;fill-rule:evenodd;stroke:#075b8e;stroke-width:1.00000024;stroke-miterlimit:4;stroke-dasharray:none;stroke-dashoffset:0;stroke-opacity:1"
       id="rect4506-6-9"
       width="5.6045046"
       height="29.626444"
       x="143.37405"
       y="-161.08345"
       transform="matrix(-0.00158826,0.99999874,-0.99999983,-5.8613874e-4,0,0)" />
    <path
       id="rect4506-2-8"
       style="opacity:1;fill:#838383;fill-opacity:1;fill-rule:evenodd;stroke:none;stroke-width:0.1;stroke-miterlimit:4;stroke-dasharray:none;stroke-dashoffset:0;stroke-opacity:1"
       d="m 136.1057,114.11651 6.95195,17.35656 1.28852,-0.5161 -6.95195,-17.35656 z m 26.44429,9.53412 -37.88565,15.20746 2.08812,5.20077 37.88564,-15.20745 z"
       inkscape:connector-curvature="0" />
    <circle
       style="opacity:1;fill:#393939;fill-opacity:1;fill-rule:evenodd;stroke:none;stroke-width:0.04693468;stroke-miterlimit:4;stroke-dasharray:none;stroke-dashoffset:0;stroke-opacity:1"
       id="path4570-4"
       cx="144.65759"
       cy="133.87585"
       r="2.5" />
    <rect
       style="opacity:1;fill:#27a7f5;fill-opacity:1;fill-rule:evenodd;stroke:#075b8e;stroke-width:1;stroke-miterlimit:4;stroke-dasharray:none;stroke-dashoffset:0;stroke-opacity:1"
       id="rect4506-5"
       width="5.6045003"
       height="17.997776"
       x="175.93784"
       y="58.847801" />
    <rect
       style="opacity:1;fill:#27a7f5;fill-opacity:1;fill-rule:evenodd;stroke:#075b8e;stroke-width:1.00000024;stroke-miterlimit:4;stroke-dasharray:none;stroke-dashoffset:0;stroke-opacity:1"
       id="rect4506-6-96"
       width="5.6045046"
       height="29.626444"
       x="107.11044"
       y="-183.66721"
       transform="matrix(-0.00158826,0.99999874,-0.99999983,-5.8613874e-4,0,0)" />
    <path
       id="rect4506-2-88"
       style="opacity:1;fill:#838383;fill-opacity:1;fill-rule:evenodd;stroke:none;stroke-width:0.1;stroke-miterlimit:4;stroke-dasharray:none;stroke-dashoffset:0;stroke-opacity:1"
       d="m 175.8381,77.866173 -6.95195,17.35656 -1.28852,-0.5161 6.95195,-17.35656 z m -26.44429,9.53412 37.88565,15.207457 -2.08812,5.20077 -37.88564,-15.207447 z"
       inkscape:connector-curvature="0" />
    <circle
       style="opacity:1;fill:#393939;fill-opacity:1;fill-rule:evenodd;stroke:none;stroke-width:0.04693468;stroke-miterlimit:4;stroke-dasharray:none;stroke-dashoffset:0;stroke-opacity:1"
       id="path4570-6"
       cx="167.29897"
       cy="97.625519"
       r="2.5" />
    <circle
       style="display:inline;opacity:1;fill:#121760;fill-opacity:1;fill-rule:evenodd;stroke:none;stroke-width:0.73404038;stroke-miterlimit:4;stroke-dasharray:none;stroke-dashoffset:0;stroke-opacity:1"
       id="path4700-6-5-7-3"
       cx="191.4926"
       cy="99.234703"
       r="5" />
    <g
       id="g7263">
      <rect
         y="214.69099"
         x="109.24572"
         height="6.4631987"
         width="1.5046891"
         id="rect7242-0"
         style="display:inline;opacity:1;fill:#032940;fill-opacity:1;fill-rule:evenodd;stroke:none;stroke-width:0.88277215;stroke-miterlimit:4;stroke-dasharray:none;stroke-dashoffset:0;stroke-opacity:1" />
      <ellipse
         ry="2.4086151"
         rx="2.3677912"
         cy="217.8436"
         cx="89.890327"
         id="path7259"
         style="opacity:1;fill:none;fill-opacity:1;fill-rule:evenodd;stroke:#ffff00;stroke-width:1.69999993;stroke-miterlimit:4;stroke-dasharray:none;stroke-dashoffset:0;stroke-opacity:1" />
    </g>
    <g
       transform="translate(23.020179,-35.991167)"
       style="display:inline"
       id="g7263-9">
      <rect
         y="214.69099"
         x="109.24572"
         height="6.4631987"
         width="1.5046891"
         id="rect7242-0-1"
         style="display:inline;opacity:1;fill:#032940;fill-opacity:1;fill-rule:evenodd;stroke:none;stroke-width:0.88277215;stroke-miterlimit:4;stroke-dasharray:none;stroke-dashoffset:0;stroke-opacity:1" />
      <ellipse
         ry="2.4086151"
         rx="2.3677912"
         cy="217.8436"
         cx="89.890327"
         id="path7259-2"
         style="opacity:1;fill:none;fill-opacity:1;fill-rule:evenodd;stroke:#ffff00;stroke-width:1.69999993;stroke-miterlimit:4;stroke-dasharray:none;stroke-dashoffset:0;stroke-opacity:1" />
    </g>
    <g
       transform="translate(46.388179,-71.585043)"
       style="display:inline"
       id="g7263-3">
      <rect
         y="214.69099"
         x="109.24572"
         height="6.4631987"
         width="1.5046891"
         id="rect7242-0-4"
         style="display:inline;opacity:1;fill:#032940;fill-opacity:1;fill-rule:evenodd;stroke:none;stroke-width:0.88277215;stroke-miterlimit:4;stroke-dasharray:none;stroke-dashoffset:0;stroke-opacity:1" />
      <ellipse
         ry="2.4086151"
         rx="2.3677912"
         cy="217.8436"
         cx="89.890327"
         id="path7259-7"
         style="opacity:1;fill:none;fill-opacity:1;fill-rule:evenodd;stroke:#ffff00;stroke-width:1.69999993;stroke-miterlimit:4;stroke-dasharray:none;stroke-dashoffset:0;stroke-opacity:1" />
    </g>
    <g
       transform="translate(69.108179,-107.87617)"
       style="display:inline"
       id="g7263-9-1">
      <rect
         y="214.69099"
         x="109.24572"
         height="6.4631987"
         width="1.5046891"
         id="rect7242-0-1-2"
         style="display:inline;opacity:1;fill:#ffff00;fill-opacity:1;fill-rule:evenodd;stroke:none;stroke-width:0.88277215;stroke-miterlimit:4;stroke-dasharray:none;stroke-dashoffset:0;stroke-opacity:1" />
      <ellipse
         ry="2.4086151"
         rx="2.3677912"
         cy="217.8436"
         cx="89.890327"
         id="path7259-2-2"
         style="opacity:1;fill:none;fill-opacity:1;fill-rule:evenodd;stroke:#032940;stroke-width:1.69999993;stroke-miterlimit:4;stroke-dasharray:none;stroke-dashoffset:0;stroke-opacity:1" />
    </g>
    <text
       xml:space="preserve"
       style="font-style:normal;font-weight:normal;font-size:10.58333302px;line-height:1.25;font-family:sans-serif;letter-spacing:0px;word-spacing:0px;display:inline;fill:#000000;fill-opacity:1;stroke:none;stroke-width:0.26458332"
       x="162.00955"
       y="227.00716"
       id="text5460"><tspan
         sodipodi:role="line"
         id="tspan5458"
         x="162.00955"
         y="227.00716"
         style="font-size:12.69999981px;stroke-width:0.26458332">0001</tspan></text>
  </g>
</svg>
