<?xml version="1.0" encoding="UTF-8" standalone="no"?>
<!-- Created with Inkscape (http://www.inkscape.org/) -->

<svg
   xmlns:dc="http://purl.org/dc/elements/1.1/"
   xmlns:cc="http://creativecommons.org/ns#"
   xmlns:rdf="http://www.w3.org/1999/02/22-rdf-syntax-ns#"
   xmlns:svg="http://www.w3.org/2000/svg"
   xmlns="http://www.w3.org/2000/svg"
   xmlns:xlink="http://www.w3.org/1999/xlink"
   xmlns:sodipodi="http://sodipodi.sourceforge.net/DTD/sodipodi-0.dtd"
   xmlns:inkscape="http://www.inkscape.org/namespaces/inkscape"
   width="125.30666mm"
   height="64.064445mm"
   viewBox="0 0 443.99999 227"
   id="svg2"
   version="1.1"
   inkscape:version="0.92.4 (5da689c313, 2019-01-14)"
   sodipodi:docname="j10_RS-01_a.svg">
  <defs
     id="defs4" />
  <sodipodi:namedview
     id="base"
     pagecolor="#ffffff"
     bordercolor="#666666"
     borderopacity="1.0"
     inkscape:pageopacity="0.0"
     inkscape:pageshadow="2"
     inkscape:zoom="2.1555302"
     inkscape:cx="-8.5920749"
     inkscape:cy="97.476777"
     inkscape:document-units="px"
     inkscape:current-layer="layer1"
     showgrid="false"
     inkscape:window-width="1218"
     inkscape:window-height="1001"
     inkscape:window-x="-8"
     inkscape:window-y="-8"
     inkscape:window-maximized="1" />
  <metadata
     id="metadata7">
    <rdf:RDF>
      <cc:Work
         rdf:about="">
        <dc:format>image/svg+xml</dc:format>
        <dc:type
           rdf:resource="http://purl.org/dc/dcmitype/StillImage" />
        <dc:title />
      </cc:Work>
    </rdf:RDF>
  </metadata>
  <g
     inkscape:label="Layer 1"
     inkscape:groupmode="layer"
     id="layer1"
     transform="translate(-0.48479715,-0.22003095)">
    <image
       y="0.22003095"
       x="0.48479715"
       id="image3344"
       xlink:href="data:image/png;base64,iVBORw0KGgoAAAANSUhEUgAAAbwAAADjCAIAAABxfTYeAAAAA3NCSVQICAjb4U/gAAAgAElEQVR4 nOy9eZxc1XEvXufcrfeefTQzmtFoFs1oYbQghAQCYRsDMYsBxxCDN2K8kNiJg2MT8gl5fsTL7/nF jzg23sjixP692OAFOxgvrGExAu070mySZp/pWXq7+zn1++N0X7VmY0bTPc0vuD58htbt232/XVWn Tp2qOnUIIvb39z/22GOu6yIiFJsIIeFw+P3vf38oFJrrnl/84hcPPPBAOp3mnC8ntt/T7+n39NYk SmkwGPzCF75w4403klOnTn30ox9NJBKu6xYbWIZkWW5tbX3ooYdqa2unvcU5/973vveVr3yFMcYY Kwq839Pv6ff0FiRJkiiln//858mll16aSCRM0yw2pPMoGo1u3rz5n/7pnyiludd1Xd+5c6dpmgKw +BnFco8JAGMs19uVZZkQUhQ8BAAAcpcLlFJJkorIHM557sRWdGG5jGFWWIQQWZYBoFjCQsRcN6Xo zMnV5Dcbc948mqwoiizL8uTkpG3bhBAAKPpqlxAikFiWNTw8zDmfZjQBQFXVdDotbvb7/X6fr1hR BUJIOp02TFMAoJSGQyEqSaQoaAAQIB6PM8YQkRCiaVooGCwacyg1DCOVSnlXgsGgpmlYJB0jhCSS Sdu2BXMURYlGo0UDQ6njOPF4XEiHEOLz+QJ+fxE1OZVOm6YpmEMIiUYiRUECAAiAiEKTBTZN00Kh UBE1xzTNVDqNiIwxv98vO44j7BQAVFRU+P3+YplOSmkymYzH4wKPmOtmknhX6P3999139TXXQLHW 6ZL0T4888v0f/MCyLEmSIpHI9/75n1fU1WExAh1ICJWkD33wgz29vZZlBYLBG66//t577y0Wc4gk PfP00w/8j//BOQdCOGP/68tfvnjrViyesO6///7du3fruu7z+zdv2vQPDz3EGSvKDEck6dTrr9/9 8Y87rssZUxTlzz71qZtvuaWImvztb33r0cceS6fTiqLU1dX96Ic/RICi4CGyPDo09Md33z0xOem6 rqZp77v99k/cc08RNefp3/72wS98wbZtAKCUnjNMiBiNRktKSpYYKxQLDfF6UcklSZIQcWpqyjPi b0ilpaWVlZUXgjJPFIlEPCMuy3LNihXlFRVFxKNpmocnHAoVlznl5eW5/6ysrKwoKp6A3+8xx69p xQUTn5z09JwQUlpSUlxhhcPhXE0uLnMkREmSPDyRcLi4eEpLS3ON0nnenFi6X7DRRERVVU3TTCaT 4hnBYFCW5YXbzcU6uY7jAABfPGBCCGRDAYgIiBewMqKSlMsrRLRse4F4CCFkRuTh3Fdxvlg8hFJC SO6jRVSoiMwR0vHowoVFKWRXGEsSVo52cURYMJ+pJM3z7gX8IipJlmXlXim6sM7LAyOKdfpi8UwH A3ABa2oqSbbj5P4KlzG4IObMAmnx/JmpybMvgS+AENHn81mW9eSTT3oXW1paNm/ebBhGvp6yRBKW BQBcx7FtmzEm5lVN08TAuABrdcEYJif6YrFT4+M9pplwXUuSAwF/aVXlmqrq1mCogiwLmPOAZe04 d13LtsUokmVZU1Uq0gLLjIdSQggiOrbtui5jjFIqy7KqaWIpc2GjaFEktIIzNjnZOzx8Ih7vt8yk y5mqhkLByuqqtZVVLZovuDxgcumcJtu27ThF0eRzYLKag5w7liVMniRJiqIoqiruKRp/HMd1HMd1 BX9UVV06f/JjNBFRBEOfeOKJ3OuGYczM5BSFhFxty5oYH5+cmkokEpZtiwmEUqqqajQaraqqqqys pJQWTsBCYAP9e0+8/sTg0BFdn3RsGwEQgSMgByBSKFDV1HRZR8dNVVXNZFm0TTDHdZzJsbGJqalE PG5aluM4wt2QZTkajVZWVq6orqaStGzzip5KjU9MTE1NpdNpYcQJIZRSTdNKS0tXrFhRUlICheQP lSTm2N29z508+euxWJdpJpBzxhE5ICGcoSRpJdH6NWvetmH9H4QjVctjpwRzTMOYmJiYmppKJZOW bds5mlxSUlJdXV1RUbE8ykNFVG1ycnJyMh6Pp3XdcRzXdSmloraxrKxsxYoVwWAQEZchmTNzpNuO I5SZUioSgFVVVVWVlVSSLow/+TGa4XA4Ho//6le/mnb9TWIxBXcG+/pGRkdtx7Ft23VdEW8VEYlE IjE8PNzZ2VleXt7e3l5VVZABQCXJ0Cf37H3k5KnfcsYsO6lIAU2LcODIAAE4R+SYTMb27H308OHf bL/0ju3b76CSXFDVFz7CyNDQ8PCwaduWZTHGcpnDGIvFYt3d3SUlJa2trfX19VBI7aeSZBrG4MDA xNSUbdtiBIqSAIFnampqcHDw1KlTNTU17e3t4XC4EPyhkjQe635l9zcGhg4iomMlFa2USooEiAw4 AkrIGB+N9Q4OnTx06Mkrr/jYuvXvKChnILtUHBoYGI3FXNedKSxPkysrK9va2ioqKgpnyoV5Ssbj /f39KV23LMt1XWGeOOcCz+Tk5NmzZ/1+f0NDw5o1a1RVLagyU0lirjsyODg8MmI7jmVZnPNcSK7r joyMdHV1lZWVtbe3V1dXXwB/lmo0ZVkOhUKHDh06cuTIEr+qQEQlydT13p6epK47pnm2v39yaqqt tVVVVcuyhPMCAIQQxtjQ0NDo6Gh7e/uGDRvyOwCoJCXiQ88+9/mR0ROEyMmEL5W+QpXPlFcNA1IU ISAERCIrKpVUx7aeefbh0dHe66+/T1F9BVI1QilznDOnT8cmJjjiYH//8MhI0+rV4WhU13XBHESU ZZlzHovFxsbGmpqaNm/eLMsFMeVUkqYmJ3u7uxlAKpHo6emhlLatXZtOp8UKVJTsUUpd1+3q6hoc HNy8eXNDQ0N+TQOVpP6ze5594YuGEUfmTE02mlZLKPhSJEqRMcxEx4AAVWSfLPkm40OP//zz8fjQ jsveD4QUyEhRSdJTqd7e3rRhWIZx5vTptGG0tbfLcqYGRvBHURTXdfv6+oaHhzds2NDW1gYFsJsi Vjg8ONjf1weSNDk+3tPTU1Ze3rh6tcjlCjBCcwzDOHLkyODg4CWXXFJaWlogZRbTbW93d1LXbdPs yxnpoqqSECLyS4yx4eHhkZGRtWvXbtiwgRCyqJF+4UaTEBIKhQzD+MEPfnDBX1JoIpSaut7Z2ekw lk4mjxw9OjE5CQCaorS2tRFCOOeYJQBQFMVxnAMHDti2vWXLlnwNACpJph5/9vkHR8dOUiKPDDe7 rA4AbHd1Onk8EKpGdBFRyA0ROEcqKT5f5OChJ6mk3XjjfYTSvLswYkne3dmZ1HXmuoeOHBkZGQEA jrh27VpKqeM4ufyRZdl13RMnTpimuWPHDkmS8guJStLk+HhvT4+kqgNnzx47flxEw31+f93Klbqu C2dBeA2EEFVVdV1/+eWXOeeNjY35KkmhkhQbff35F75oW2nuGqMjVyAEASCV3qn5f6MoZWLMc1H7 jcAZKpLPRfe3T31TUQJbL7m1EEaKSlIqmezq7ARKk/H4wcOHk8kkAGiq2tza6rqul0T1ClFd192z Z4/jOBs2bMh7vQ6hdLCvr39gQFbVkydPdnV1McbGJyf9Pl84GhUlnx4JUz46Ovpf//VfV155ZVlZ Wd7tJqHUNIyuU6dsxtKJxOGjRyenpgBAluW2tjbIJLemj/SDBw+KkU4WM9IvZPksQhU+n+/FF198 /PHHL+AblodE+u90b6/tOMmpqb379gmLCQDpdNowDMGpaSSieEeOHOns7Jwnwb0oGABw4OC/j4wc lSVldLjFZXWAAAjBwG7NH0JkAAAIwDPjMPMfEE0L79v3i8MHf7PwMqxFUX9fXzKVcixr7/79wmIC gGWaRjrtPXEaczRN6+rqOnz4cH4hEUqNdPrM6dNUUfrOnNl/4ICXPxRupgcmF5UkSZzz3bt3j4+P z5/jXjgM29JfefWbhhl3nfTo8JXCYgI3QqEnZTmMyIWbKYSFGTBAiCxJyjPPPjI8kB+1OQ8VIa5t nz1zhgPERkZe27tXWEwAMExTJOJnarLwyvfv33/mzJm8MMcjKknjY2ODg4Oyqp48fvzkyZNCQIwx 3TDE6iSXxFSnqmoikXjllVcsy8ovizIjvafHdJxkPL7v4EFhMQHANE09nZ450sW8qyjKkSNHTp06 tSg8i4OuKEokElEU5bXXXnvsscf6+/sX9fFlJkLp6MhIKp12HWfP/v1pXQcAQkhLU1PHpk2SJIlg UO78g9kdGoSQgwcPplKppWsboXQy1nOq6zeqEp4clxxWCxwBWCT6y5IKVZb8GSkCAIAYj5nUEAcA CkB/t/tHrmXmXe+nJiYmJiYkRTly5MjExIS4Xl9X17FxYyAUEptncqdfj1Gqqh4/fnx0dDSfkBAH BgYYwOT4+MHDh4XfpMjyRevXt65ZI4JTnoxySZIkwzD2798v1u9LREEIOXvmpaHhQ7Lsm4itRRIA BILJiornS0prCEgCQ9apA87PMUiStHh8fPdrP4bsTJkvIpQODw0ZhmGb5v6DB4WVpJS2r1mzbv16 RBQx31k9AEQ8cOCAYRj5slOEENuyhgYHVb+/78yZk11d4nokEtm6efOKmhpd16cNK0GIqCjKyMjI 8ePH886f2NhYKp3mrrvvwAGxD40Q0tzYeNFFFymqKmw6zuZLSpJ0+PDhZDK5cGVeBB8DgUAymXz8 8cd/8pOf9Pb2LvyDRSFCiOs4ExMTiqad7evz9vO1trS0r1snQsLiyjTnxRuKiUQiXz+z58xLtpNy nFQyuQkQgJJQ8OVISQ1zxfo3c5v4P2d4btMvoixrwyO9vacP5gWJR4gYi8WoLA8PDg5lfcz6lSs3 dHRomiaYM+s4FEPRsqzOzs58gSGU6ul0MpmkhHR1dXnVTuvXrWtobLQsay4kkB2Kg4ODY2NjS7QL IgbSe+ZFSuV0ash264EDAJaWPesPrXAci4tnzrImAEQARFX1d3XvTUwsFcl5qAixTHN8YkJW1a6e Hj3rgK9tb29taxNZMpix/PSuyLI8Pj7e19eXLztFKI1PTZmmmU4mT2UtZjgUumjdutKKCq+LxazD Soys7u7u/Bpxx3HGx8cVTes7ezaRSIjrLS0tazdsQETPN5oJBhEppYlE4vTp0wt/4oJwCz/20Ucf ffrpp3Vdn/WeNWvWLPypy0BiuWdZlqnrp8+cERerq6paWlsTiYQoNpqHleL+wcFB5Hwp2kYoRcTJ yW5KFMOwgfqAgETGIyUS5ww5elmFzHIPM3+BZ15TQk1LHxzMm4USqCzDMHQdEHuz6hKJRJpbWkQz lHmMFAAIVRseHjZNM18RjEQigQCTExODw8PiYtOqVQ2NjVNTU7lx1VyRQY4EHccZGBhYOgzH1Ccm eyWq6KkmAAAKfu1EIFTnMjtrHOdYEyBwACrJ6fTUaOz0EpGch4rSdCrlum46mTx79qy4WFdbu7qp aWpqatr0Bhls0ymPi0JETMTjWiAwMDQkukBQSltbWqJlZSJoMP+wErulR0dH82jETV03TdNIp09n +VNZWdnc3DxtpM9FhJD+/n7xYiFPXKjRnOddTdNuvPHGq666aiFftZxkWRYCpNNpz9CvrKvzSjQE TRuQkOWvCHnoum5aFizFaBKCjJnmFCXUtqrFRZ+/i0o+zhkgCD3PzSqAd4UjInAAgkTXJyF/iz4x Obuua+h6MuuD169cGQwGvQAZzHBectlFCDFNU2TYl44HEW3LUlR1ampKPMvn81VXVyeTyWlygbkH gBixS8Rj2gnXMRh3bTsjLH/wFBAqnj3NzfSEJXaaiOIHx7GFsPJItm1LipJKpcT2Z0LIyro6sTsD zmfIrBMMISSdTjPXXfoMJxLNomgvkY0bVpSXV9fUeMKaC4b3mjHmxWTzQpZpEkoNXU+l0+JKfV0d ZPdZzYMEsqqu67pt2wsc6UsqOSotLb388ssjkUg6nc4vF/JCjDFZUVKpFCJSSktLSgLBoJltSjTP IPS+QSQlyRK7vREiS6rLHVm2goFDkjzi02TGQ5hxLTNuJgDkhlzOuZwIiCjLKswRlLkwYoyBJBmG YZompTQQCETCYZF7mVXvc5OzAkZ+W5qKsj5hwRVFqa6sDITD6XR6GhgBY6bgYJGNDuYiShVCKCLT tEGNnlaUmKpVMNfBjIDmCj1nhQUAQHJbOuSFOGOEEBFikmW5vLQ0EArlCiv3h09ji+AYY8xlTM1H DJpzzji3DSOeTAKAqqoVFRXeg+YaVrnvIuK0jYlLhwSEpHRdjPRoNBoKhYSrNHN05yq2p9UiXqdp 2kIU6AKl29HR0dbWJmLwXhDhzUayLJu6Ho5EtmzerCmKLMveHtuZrMScace7oqrqovbOzyTknEpS MFTtunZJaZSDQ6DCdVwuTCYAZLMKmM0qeMs98VjGUZKkkpIVS2PGdJJlmTmOqigXb94sugRKiiKi hxnkM371NM3TNE3NbpJbIhFCqCQZ6XTtihXl5eWKJCmqahgGz6ndyX0xq+BUVRU1ZEtBomlhn78k pY9XVLkIMmCNyxye8SIz98wMPZ/LqCNXff68C0uSJFPXS0pKtm7ZIsuyoihijplVjWfVZ1VVVUWB fEy6lFJKCGOsbc0aQJRlWVbVXDdzViSQIzhKqc/nWzoSjyRZtk0zHApdvHmz2EtKZqR5c5Hkkrgu SZKqqgssoVuQ0UREx3H8fn9FRcXGjRsjkYht257L9qYlze8HAJ/fH4lGbdsW20sWIlRBnPNoNLrE FpCISABqV2w+fvwXjDMAwpgLAFk3c/asAqCn7sCRBQIljY2bl8qO81GpmibLsiTLdfX1dpYwZ86A OaYWj4LBYDAYzFepZsDv55xHy8okSbIsS2wveUM83s8hhJSVlS0RA3KuaL4V1R1DQ8dkn4+jyxnC OWFNXxN4fzPBaATXtVdUNlVXNy8RyTTyBwIAEAiFoqWlnibD3ALK/JwcTS4pKSH52B+MiITSQCAw MTlZVV2NiLZtz5Wpy/1U7kVZlpcurNwv9/v9lBCf3x+ORh3H8ZR5Hp7kkuCPoigLVOYFxTjEI2+8 8UZR0iw6veOb22Ii58FgMBQKOZalp1Kmac468+Dc1oEQ0tDQAEteFCNiff2l5eWtjmOIoAkHL+U6 +3IPAXjGtSG2qbe3XVZZvSqPDEfOVU0Lh8MivWAYhrdcmpUVM4cBY6y+vn6Jbvg5PIjhaFRTVcsw 9FRKFBjNgwfOXxNwzv1+f319/dJhAEBr8zv9vihjjhduzg09g5ARy/xsb02AAMiRu+7mTdcpee21 jJwHQyG/3+/O0GQP9jQBTWOXLMurVq3KFx5CSLSkBABswxC5Vm/B6z16VhiYTdmVl5eXl5fnTZ8R /YFAMBi0BX8Mw/ONPBizgsm9R/BngZAWERjWdV3X9f+/nMyDiITSmpoaMahmLkzmEq246DhObW2t 2J+3VCScq77Q5k0fBCSMuV6zKs4BgBAgAAQIQQ6ZJlaECLcFkViWUVpaveuKD4rvWSKS81Ah1tbW KorCGINs8GsuxfLYIu5xXbekpKStrS1feo+c+/z+6upq5rqM83kstwcecgRn23Zra2teOrEj55XV 7evX3mxaaeQIhBDMSASQABIAAqK7ORCChHPI1iERw0i1Nl9yybabcqEunRBRkuUVK1YwxnKZAwBi i1TuzTOFaNt2Q0NDbU1NvvQHOS8pLS0pKbFtO/dh3tNnheHBI4SsX79eluW84REjvbaWEMKyD/be mhZLnUm2bdfU1CxqpL8pGmoUiDhjZRUVdXV1jLGZebFpaVaSJQBwXTcQCGzbti1vnhTnzS27tl78 IdtMMdfhnDHucnQZc13mMuZy5nLucu4yJv46AMx1DSrBTTf8ZeWKVXnfdoacB0KhVatWMc7FL5yZ d/YY4r0lgoaU0ksuuSQQCOTTn0JcUVdXUloqhOU9ehqemR90HKempmbjxo15MVXiSy7e+uHm1btM K86ZyKC4HF3GXc5cVwiIu67rMnQBXM5dAGZaiYqK2ne/+7OSvNDQ2CJQcV5ZXV29YoXruni+XGaq sfdCbLKORCIXX3yxKH3LDxhEQunqpiZF01zGcgfOrAqT+0/bttvb2xsbG/PLIs5YSVlZTW2taAGX y5P5tVocX3HppZcqirJw/uQ5zfdmI0Rc3dyciMf7+vokWeaILNt/BbONT7ztzOKF8O3f9ra3VVRU 5MtUISIB2HrJh0dHT504+StFDkFmGsxUqzCGwrvk2SwtY2ia6evf9Zdr119ZoMY5yHntypWJeFxs GPWYM5Mt3mvGmGmau3btWr16dX7tOHKuKEpbe/urr76aiMcppe4bgUFE0zTD4fCVV17p8+Wtpwly Livarl2fGYt1x8a7xZYt4MABEEFkXzgCRwAOYsaxbUeWlFvefV95ZUMhulEgIiGkdc2aRDw+PDIi mJPLkFkZ5TgOpfSKK67Ie48MzlgwFGpva3v1tde463KhsTNgiMPaxDzEOdd1vbGxcfv27ZDXOhCP mpubU4nE2b6+WfkzU39Ea4Vdu3ZVVlYuij//3Y0m55Ikta9d2z84ODY6KrZ8CF+Oi4pNxjhjwl4I Vpqm+c53vnP16tV5nwypJF115WcGBw9OTJwFksk7Z20lZuNiwBCBg2Gk1q995xVXfii/a71cEna6 Zc2a/oGBs2fPyrLMRI0V52KZzBlzXFdwTDDHMIytW7d2dHQUAhJnzB8IrG1re/rZZ13HQcSMmDh3 BQzX5TlgxL7Ja665pqSkpABGoeKqK+599Ccft1kKORGZOgRgDAGAI4g9lGK5bJrp6675THPrpYXr C4ecS7Lcvm5d/+BgYmICsqU/TPCEMc656zielWKMOY5z/fXX19XVFcKOc8bKKyubGht3v/aamP8Z 58JuesJijLlZo2nbdmlp6ZVXXlmg/liiTKWtvb1/YCB3pDPGeLY0W/hDbs5Iv/rqq5ubmxcrtf/m RhMAOGOBUKilufnkiROSomQmQGEoGRP/FMQ5N3S9tq7u8h07oACTIXIejFQ0rrqir+8bmi8izKVI I3hFLYjAOAIiZ/aWLTeRxR85sFhIsqKsX7fu2LFjYgpmubOIcMkZY4iu6zqW5QsEdl1xReFQIefV tbU1K1a8tmePT1VdzjljXPxFFGfwZuY5zlOp1PYdO1pbWwtkqupXXVJdta6n52VFCWA2h54JZuQI i7tuMBDZvPFGKIwD5RFnLBKNNq9e/dunnlJkmXnCYoxlldl1XcEcwzRXr169bdu2gkJa09Z24ODB /r4+SVGE1ea5/h1jLNuS1TCMq9/+9rxPb7nEGfMHgy0tLa+fPClT6vHHG/IsO9g5Y5ZpVlZX77zs Mli81P77G01BK1euBErHRkepLGN2EHJhF8TMwxhHTKVSV1xxhVyYVqlikV5Xuxk5WEYaCM3UrLBs xVH2CBPmOsFgeX39prxjmBVVZXW1z+/v7ekRrQ1ymSMsqRiHumFc3NJSVlFRuHEoWLSyru7Z554T myUYY8IPF7YSAXh2ojNte8P69VAYUyVWBrXVG48f/RXXAEQuCABF3jybLkcOlp1e1bA5Wl6bdwyz Um1dnW3bk1NThFKPOcIWeMzhnKfS6bWi+WHBjBRyTmW5pqbmwIEDiqaBODydZZbp6GkOouu6Pp+v bVl2Wq+sqwOAkViMUipGOnoegBjpiJyxVCp1+c6dFzbS3ypGMxyJAMBYLKZqGmb9FwAQoU0EENI1 dX3FijxXJk8jRfHZlgUAJCcLhyJAll2IO44V8JVIZFnSdIiyoqiKMhqL+Xw+wRyglLsuiGEAAIgu Y+l0ukIcMFngarPS0lLDMJKplESpKJDMgOEZDokFlyLLBT/BkVLTMBBlAgQAAAEJAALyzOIAAGwz JVFZymsPqnmotLSUI46MjmqaxjkXjTLPheqymmwYRlV1dUGRiBkuGAxOJRKUECBETF9CWDwbKOCc m4axuqkpVPiz1BExFI1SSkdGRnw+n4AguCOO1fPsuKHrF6w8bxWjyTmfmpqKxWKaz4fZqggAABRN M4AzBohpw5h2TGDeyXEMU08BEkpyhhl6f4AjMtc29CnHtQuKJJeSqdR4LObz+wVzxERyHnMAUum0 WWDmCEKAyYmJeDIpS1K2HDJTNMa9UhvXlWQ5v7vxZpKZThK0TV2nkO0uCkAQGCIVLRoBJOJYZgIX 3O5hiYQA8Xg8Fov5fL6MkZqmyZwDgK7rhdZkQZZljcdioiM6ztAcyEYPU6kUL/wBQYISiUQsFvP7 /XPyh/OUruvZhkyLpbeK0SSEjMViE5OTmqoK7eY5u5jFJCli2HaBVS0cXgHMVlWwbQIAM8cZBYiW oONKqhYsKJJcmpycnJya0nRdVLRkNCxn3SsmbWOOHlf5JYI4NDKip9OqqsJsYADAcRwC4BbYaAaC ZdEwxOMGZwQy3iagqNRDUWELJZWgyWFSsFMuphGldHRsbHJiQtO0zF6JXE0WCBFN03Ts5Zh0dV0f HBry+XyZk8pnE5btOFNTU3RZJhUAGB8fn5ycNHT9nPLAeQxCzh3XNS9Umd8SRlNk1i7asOHs2bNi A8O0OjLI9iTXVHXtunUFRbKyYdO7bvrSL376v0dHJ7N15eK9TFhTkqBtTfNtd/6vUKS8oKd05dLG jo7/euEFEbaHGXV2AKCqquO6Gzs6oMDpDkQsKStrbmrq7ukxDCPXg8t9EQ6HqyoqKqurCxpg3bb9 A/1nD/76yf/Xtlh2j1ZGUuKFLEPtysuvu+mvxUK0QEjOQeJckuV169aNjY2ZpjmLJgMITQ4EAqub mgqNBwDa2trKy8oc1xWdNGfioZSGQ6GNmzb587fpdk5CBELWrVvX2dU1+0gHAADN56OOI47BuAB6 axhNROD8T/70T8Ph8F9+9rOisdW0Gi4A2LZ16/d/8IPVzc0FjJ0jEkqvvf7+17sC3/z0p2e9JxKJ /M0XHt2yZUvhzhGcBgk4v/nWW4Oh0Mc+/vGJiQlRvzaNOQ319T9+7BuUl9EAACAASURBVLFLLi1g VU0GD+eKpn3pS1/6wt/93SP//M+O4zB2XgmguO2jd9/9pS99qaRgp3QJJKFIxQfv/rdnXyL/8W// Nus9GzZs+Ncf/qpAJ2LOAgkREP/yM5/xa9rffv7zmfqenNMfxW1XX331d771rfpV+d8TMY04Y6tW r/7G17/+53/xF3v27BF2apqwKKXf/PrX//juu6HA0y1klfnjn/hEOBS69zOfMS1r1pF+6bZt3/ve 99rXrr0w/vx33hGUS4goSdIHP/ShxsbGZDJpGIZlWWJACj5KknT3xz62pq1tGYwCAOzcuVM01JpJ LS0tra2thSvPnAUSIgC885prtm/fnkgkZjIHAN57222XXHopFF7vIVtb86G77qKUptNp0zS9eU7c EA6HP/mpT1Ussib5wpAAwNvf/va5bti+fXsoFFo2SUG2SuwDH/pQXV1dKpUyTdMTlrhBUZRPfOIT q/K9+2Au4ow1NjXdfvvtyWRS1/WZwlq3bt37P/QhZcE9hJZIiEgpvf1972tds2bWkU4p/fBdd7Wv XXvBeN4qRhMy22xY0xxrFkVRVq5cuWxgGGOyPLubL0nScg5CQUKB5mIOADQ2Nnq3LQ9Fo9GamppZ 3yovLy8tLV02JPNkMKRss8HlJERUFGX16tWzvquqam3tMtU/eVRXV6dp2qxvNTY20vxt4lwICYdj Lv5QSpfYiOctZDQBQJzCPNe7MwPqhSNxjOI87y5PKnYazfPbly316dE8YHJd4GWguaY3ABCH0y6z sEj2PPpZ381dpy8b8ZxDt6YRIsrLq89vyJ8lKvNbyWiKlOIc+VZEnOv4o0KQaEg661uO44j9XssG xiN77nxrOnuQwLKR2OY661uu63oH/C4DzaMYGWEt74yCiKLf6Fw3LCdzBLmuO1elqq7rqXR6mT3N efgjDv9Yyve/JRJBGSKEUmrbtkgvTivRUFU1jz0H35BCoVBzc/PRo0eDwWAuklQqdd111xV0t9k8 JIymL1vK6pFlWZnl+bKrvizLub2mCCGu65aWli7nCrSqqqqqqiqVSimKkgvPcZzrrrtOUZTlF5Y4 o4lSqqpqrlA45z6fbzk1WZDrurZti+b5uSBF47VgMFjoDRHTSPBn1pEO84ahFkJvJaOJqKrqPffc c/bs2Xg87jXc55zrun777beL9mLLAIQzdtFFFz36wx/e+YEPdHd3h8Nh0XJtcnLyve997/1/9VdF cTMB4H3ve9/+/ft7enr8fr/QfuGAb9++/dprr13mdEd5efmf//mff+UrX1EUxbNWrutalvXpT386 HA4vU2KB85tvvlmV5T/55Ccty/L7/QDgOI6u65/73OduufnmZXYzAQAQA4HAn/7pnw4NDZmm6QUT hSbffffdrS0tyyysDRs2fPSjH/3Zz37m9/tp9vg2y7ICgcA999yjFmZf8tyAUNO0j33sYz09PZOT k95IR8R0On3rrbduWtpIfwsZTbHr66abbgoEAnfcccfIyEggEBALvfe+973/z5e/rGnasomWM9ay Zs23v/3te+6559VXXxUXb7vttocffjgSjS6/54KIyNiOHTu+853vvOc97+ns7BQucDqd3r59+8MP P1xWVracqBAxEol8+tOfdhznb//2b4UDJba4PPDAAx/96EeXrbpAVPm864YbvpRI3Hfffb29vQAQ DAbvvffev/7rvy50R5W5IKmqevvtt8uyfPfdd4+MjPj9fsdxLMu66667Hvyf/zMvJ1ssCk99ff0/ fu1r6XT6Bz/4gaZpiqLouh4Ohx9++OGdO3cuM4sQkRJy/fXX+3y+973vfd5I13X9D//wD7/693+v LM2IFzamWSyPaS4SFchXX331T3/6U1FeI0nS/fff/93vftcfCCyzaDljmzdv/s1vfvPlL3/59ttv //73v/+jH/1omW3TTEjr16//+c9/fvPNN4tyjbvuuuuxxx6rra1dflSi1cJnP/vZ7373u3V1dYlE orKy8hvf+Mb9998Py5vHR86R8zvuuOP555+/9957P/zhD//yl7988MEHi2IxcyG95z3v+dGPftTR 0ZFIJHw+34MPPviP//iPVJKKIixZUR5++OEHHnhAVdVEInHxxRf/+Mc/vummm4rgiWdH+jve8Y7H H3/88ssvTyQShJDPfe5zjzzyyNJHet48zVnt46L6IS8PCZdq586dzzzzzN69e6uqqlpaWiBbkbfM xBmLRqN/9Vd/lXtl+WHkEmesra3tJz/5yd69e1VV7ejoKCIq5Bwo/cAHPvCud73rxIkTra2t1dXV RcEj1Ka5ufmrX/2qh624ui0Kua+55pqdO3fu379/5cqVIu5cLGFxxkKh0Oc///kPfvCDQ0NDF198 sej/UiwuCZFddtllTz311N69e8vLy9esWQP54E/ejGY6nb766qtTqZQX0UDEaDS6/Im8hRBnTFXV y0Q3vaJqP89uW3zzzC6iK9rWrVshO2MXEYxoAFFeXr5z504o9qQizh+HN80SStiFQCDwZmCOB6Cp qUlkWoqOR2BQFGWH6JCbp5GeT08zGAxGo9FcWMUqnVkIvRkk6tGbjUtvKubAmwnPm01S8GZijqD/ 9njOM5q5ZyRdAHHOZxb6LfzbLuDRIpVJl6uV4UzyaVpuY4JQKFRcPN6jCSGqqhYXjD+btRQUDAah qHgUWfZO1BL16oTSImwhAACAUCh0XgsJTYPiMienRF+iVLwuFp5QKCRlF6yibKiIYCBrZzw6z2iK Yqvl3/shSHSfXtT9P/nZz46dOMGWfR+bIFmWd+/eLbxpxlgykfja178ejUaXf18dABBKKSFDw8Pi 6ZZpvvbaa1//+teXpz/YTJJlufPUqUyLBERCyL/9+7/X19cXhTkCz/Hjx8Wkbtt2Z2fnP37ta8UC I8ny6PCwGGuI6LruE08+eba/v1iarCjKSy+/LIoTXNcdjcUeeughSmlR8EiSlEwm44mEsAaO47zw 4ots7h1HhSZFVY8fPy4ao2Qm3aamJm/FUazdex55O5x8Pl9LS8tPf/rTaTvYdF1/xzveITrxAICq qsvWMXtWEtOM579oOY5nUUi0mYHs9uTcYuzlJ8ZY7spD0zQv3l0UEo0kRPhYlmXhiReLOKKVsyWs 6JrsuK6T1WRK6VwbyZeHxL4GYZcQUVFVZe6drMtAniZTSiORiCzLsjCiAFAsW55LuQ0cZzVAuY7w PNv+lo08kKLza3HBeCR2zrwZBOrR8jQSn59yD7x+U6Uo31SazDl/8zCHEOI6TqG7TS+QxF4Puays LBaLTWs9W3QihEQikVkdk9yLRZ+ff+9pzkO/9zTnIc557iyiqKpcXE/TcRzHyWgypb7iepoAlmme 8zTfNJos9s7Ko6Oj3vKcF7v0jGYj0Ig4NjY2T/80cfOaNWtqa2qWv6eLIEmSuru7T585wxgT3W62 Xnyxz+8vSo2O4Ntre/ak02nGmKIotTU1a9vb3eIxZ3ho6MixY+KfiLhhw4bysrIiCuvQoUOx8XGh VKUlJVu2bCkWGEJIKpF4bd8+sa+JUtrS1FRfX18sPLIknezs7O/vd12XUur3+XYU5hTrhRAhxHGc PXv3itb0sizX1da2tbcXK+AryfLI0NDho0ch23ROzuVLOBwuYjk6IcSyLF3XPcdt/ptlWf6TT3zi une9a7kAzkLf+sY3vvGtb5mmKUlSNBJ56KtfLa+qKiKeW2+55fWTJxljPr//6quv/psHHigimKd/ +9s/+eQnOedACDJ2/333bdm6tYh4/uxTn3ru+efT6bTm823s6Pj2d75TRDCdr79+83veYzuOKCS8 68Mf/sPbbisinn946KF/+dd/FU1JauvqvvvII0UEY6RSN7z73QMDA6IJyHXXXnvf/fcXEc+Lzz// kY99zPMpz/lxiFhZWVlSUlJEX2BkZCSdTi98hStidkW08m6OU4kAIj21cDyz/tIL+zniq3JL0rzV zQV829JJBFVzrwi9KiKe87rdeC8WhmcunbxgYU0bZUXX5PPwZGEU0dOc1rqpWGBgNk0+b/GL2cNG FvWN3pra00vxPYv9kRewKwaz580u6ikwW0HoBWx9ITNarGek+0bfQwgh2eiebRq2lXJdU9NCqhaU FHWm+VsQZaXgUX6ZA4tskHHBzJmGh8wWBr2ArR1EkviMFmEL+R7ihYw4dyzDtpMuc31aRNUCNFv4 uVhhkTlaUC+KOfPULS6WPzOFJcprFj0iZpNXHpizeE2ejzmLHOkzmXMhiXxCiJIl0SPLcRyRgqeU SpKkaVooFKKUOo4jou8X8JS8k5Aocm7oeiqZNCzLdRwgRJblQCAQjURUTYPC72cQ4pwY7+3re214 +Mj4xBnHNR3XlamqqsHS0qa62o3NTTuC4YplAOORxxzLNFPJpGGatuOIhInf749GIj6/nyzjllNh qpjrppNJPZ22bNt2HEmSZFkOh8PhUEhWFCgwfzwTMDR4qK9v78josXh82HEtzpFS1e8rqaxoq6/f 3NS4XdZ8hQaTS0KFmOPEYqeHR08YRtw0U5KkKkqwrHTVytp1gXB0OYUFOUbKNnTHNQ0jKUmypgVV NSBnE27Lwx+BBBEnYmeHho/r+oRhJgmRZDlYGq2tq10fKa0UdvCCcw+LM5qU0kAgwDkfGBh4/fXX x8fH57+/vr6+vb29oqLCcZziluNQSWKuGxsZGY3FDMNIJhJO9pg6MamqqlpZWdnQ0FBeXg6FEbAY hFOTfQcP/d8zZ15J6xMIlAAFIAjE5OjER4aGTh458mQkWrd+3XXbtv6R5g8ug6pRSWKMTY2NjYyO 6oaRTCZt2xZnQArmKIpSWlra0NBQXV1NC9x2THDJNs3RkZHxqal0Op1OpcTZwt7phn6/f8WKFQ0N DeJQs0Jk3sTYGxw4cOjwDweHDltWGogESMRp58zlk1ND/QOHDxz6WWVl6+aNt3ZsvH4Z2guJucRI x4+d+OWxE78enzitpydt1+GcM5dzTiXZHw5WtzRftm3re1Y1XkSWywmwjNSp7ufPnt03OHQslZqw HVMk4UOB6rrai9asuby1dYckSYW241SSXMd6/dRTR449MTJyMpkcd1ybc84Zck4o0fyB8lUNF1+y 5Za163aSC5XXIoym6En33HPPjYyMLPAjfX19fX19ALBly5b29nbDMLwCnWUjMQjjk5NnzpyxHCcV j5u2HQyFMFtLL0jX9a6urp6ensbGxg0bNuS9t6aA0d313KuvfTOZGgUEPR1SlIFgqMFlDjLgBBRJ 5kRTFEilYs+/8N3u7t3XXvuZmpr2guo9lSQ9lTpz+nTKMIx0OpVKBUIhWZYppd7BsIZhJJPJs2fP 1tbWdnR0hEKhAkES8YGRwcH+gQEkZGpigjEWDIcNw8jFE4/HY7FYV1dXe3t7a2ur8JHzCEMYgv37 /u3Q4f+wXYs7ZipZHQiOar4yl7vIQJKAEuTUxzkOD3c+0f/Frq7d117zF8FwATv7CVQnTz3zwktf Hx/v5cwBAFmJUIlzRO6iwzhynJgaePGV77+25/Ft22674Q/+zB8olLAgO90ePvzj/QcfHRntdplN iQpAGAdk6PJ4bLy/s+uVF373/caGi6+68iMbNlxZIDsuxldf3/7nX/iHgcHDnDvImapEZcXPXM4Z Mo6Mc12f2Hfg5/v3P3nRRdfdfONnyysupOfhgowmISQUCh07duzw4cOL/zkAAPv379+/f/8NN9wQ CAS8/PjyEKF0ZHCwr78fKB0dHu7s6kql05s3boyWlqazR5eIwIKiKK7rvv7667FY7LLLLsvjYdZC op2nfv3iS1/lQFwnOR7bxTEKPC3Lv5OVEg7nTgrjALKkBnzK2f6jjz56/3vf88XalesKpPdUkibH x3t6eoDSyfHxzu7u8fHxde3tdfX1yWTSa/RLKZVlmTF2+vTpWCy2Y8eOygIcn0sI4YhnenpisRhD HOjv7+zqUhRlU0eHrCi2befiURTFsqy9e/fGYrFLL72U5s9uEko556+++q0jx36kSAE9yROJqxA0 2+orrzpDicqAIyLPglZVv0PZkSO/SSYnbr3lwXC0vCBGgVIAePnl77zy2nc4AnDdsa5EDCra8yAF gDNAIEAAiCRpfk11XPepZ77T03P47rseKq+oKQQkKkmJ+Mhvn/1iV9fzQChiEt1WyTeGoAAwjigB Elmh1M8ZP3nq5VOn9r5t10fe/e5P590lF+Pr6JH/fPr5L1uOgWA51kWcNaLvF4SWAmRlhRSA+P0R 12Z79j7e23vkIx9+aHXTRYsFs6Bi41Ao9Ktf/eqCLaZHTzzxxPDw8LRTcQpKVJJiIyNn+/pUn+90 T8+effum4nHXdU92doojViAny+yt00dHR1944QVd1/PVI4BQOjx4+KXf/QMhkpEeGRu+nmMUAJD4 bSuFmElXZmSLwDgiQMAXmZwc+dnPv5hMjBeiWwGVpOTUVG9vr6JpQ4ODr+7ZMzY2xjk/1dU1OT4u TubJJQBQFCWZTL7wwgsTExP5h0RI3+nT4+PjlNLjR48ePXbMsqxUKtV75oyobZ6GR5jyrq6u3bt3 e/uClwyBEEJOHH/88JEfKnJwYhzjibchagDAeanr6AgEEQABOCAAIHCOFGggWNLds+dXv34IOZ81 ebV0VK+++i8vv/owpaprE9O4E7EeoMyxmoBzxoEhAgfGRc4EKJGDwdKurt3ffuTPU4mpvAuLSlJi auTnT9zb3fWcIkmO2eSYH0C+3bHCnHPkwLNajQAAxOePEIn855P/8H//40HGWH5ZRCg9dfLpp559 kHOGLGGlb0W+jpCAbV6B3EIkAgwXcnMRKPUFomNjvd985JMD/V2LZc4bQEfEcDj89NNPT01NzXrD pZdeetNNN91xxx133nmn+Hvbbbdde+21zc3Ns97/4osvxmIx3/n9bwpEhFIjne4fGFA07dTJk0eP HxfXNVVdUVnppfhnkqIoo6OjBw4cyMtQJJS6trVn3z8x5ljm1HjsJqASAEhkvLLyqUBoJecM4Lxx mHmN6POFhka6Xnrp+5Dv/VqEENe2+/r6iCQN9PUdOHhQFJ3IklSzYkVuDco0uynLcjKZ3LNnj+u6 eVR9KkkTY2NjsRih9ODhw30DA+J6JBIpiUSEmwnn1514dryzs7OzszMvYAil8cm+g4d+ICvB5FQy mdoBHICAqrxeUbVPVUs4P7cmQMzICxE4B58vcvTYs4cP/TbvCylCaf/Z/a+8+h1Z9lumbZs3ZgDA EJUPIkPCM5YcEZAjB2AcOQfNH3395O9+8vjXIK/6QyhlrvvM818aGDqkqmoq2cHcDvGW667gzOYo eiQDBwAE5MARCcjBYPSpZ/7lt7/+16V0U5tGVJImJ/qff+HvEdFxxs30nQBiio1L8ksANDPIecZ+ C0jAQfOFR0Z6/+NHX3Jse1HK8wa3+ny+s2fPjo2NzXzr2muvff/7379y5UpCSCKRiMfj4q9hGH6/ f+vWrXfeeac4lH0aPfvss3RGfUwhiBAyPDTEEKcmJo6fOCEuBoPBjosuamlr87JAM/0pAFAUpbu7 e2RkZOlDkRAyOLhvdPSYLKsTE21AJCBAyURF1WHNl1nkess9zLqZCCCWm6rsP3zk2fjEcN4n59GR EV3XLcM4fPSoMJGqql60fv1FHR2KprnZRJn3EW+aUVV1YGCgt7c3X0IUifLhkRFfIDDQ39/f3y+u V1VVdXR01NXXi4ZA4unTBCc+fvToUcMwlsgi8XM6u59OGzFk9uTkdkAACj7tVEXllCQHOc/Ihue4 mRl/CoEQCgD79v+S59WTIpQyxvbs+1eHWcxNWcYN2Td6NN+rklILAAwRsp7UOevAEQD8/siLLz7a 2300X5CEvTt69Bfdp5/X1FAy0Ya4WrxFpSd8/i5CVFE8iFkMHIAzwTCqaP7//M23+86cys8kRwgA HDj4w8l4PxJupN6dsWkkpvh+I6ulyImYUcREIj7FOCICRwwGogcOPbNv39OL0uQ3wK2q6ssvvzzz +h/90R+FQqGpqSnLsqaV6SKi67rpdDqRSOzatWvDhg0zP753795pLeryToRSU9eTySQh5FRXlxj8 iqKsX7u2oqpqampqVh8TsntJCSG2bYtTtJYEgxAA6B/Yw5Hr6THbXg0IgKy09GVZibrcFt7BdDcz Ow45R0LkeCLW3bNviUimoXIcJ55IKD5fb2+v152hfc2auoaGyclJr0osM0nnWE+PUb29vZzz/CyK KU3E45Zl6alUV3e3uBiNRNauXatpmoiuwgw30yNJkuLx+MDAwBLBEEqZ4wwO7pOpL5kgSEIAQDAR LRkEInPu4jQMkHEzPUiSpA2NdI+OnM6nW0dIbLSzf/CAImmmsVaMWcRRRTsENIDc4ZkyRuHTIQfg HJEDInCGlMppPfG73b/MGx5KmeOceP0XhMi2OcbZGnFdUn6uaCpDCYEzRGDAhQ6750wVICiSNjkx /PLuX0A+nF9CaTo50XPmBVnxW3oIIAwAAKasPi3JpcgdRGSImDVRGTA8A0as8V565ReQjRovhOa7 T1GUgewqKZd27drFGHvDEiJEnJyc3LJly8y3ent759lUnhcihBi67rpuOpmMxWLiYmNDQ9WKFYlE Yi6L6f0VdjMWizmOs6QpkRDkPJUakiXVskJAAAgo8hl/cAXnjohi5rqZ3iLL8/AIIYy7k1NDF45h NlSOZZmGYZvmULYWombFivpVq8R0AjnGMWc1eo4IIZOTk+l0Ol/+SzqdprI8MTGRTKUAgBDS1NQU CAQMw5gpmpmCc113dHR06TBsK5XWxwgltlUNAEAgFD6oaBGOrreLyBMWz5bL84wcgRBqmfrExCyj Zik0MnbcdnWH6cxpE1dk9UkqhRBd8Pwm8UIgyXpVYrVOqHS2/xgi5ktYwyOvj010S0QyjJ2ZS+SY rKoInAAX03+um8lY1ohz5AwVRTt05CVrySsDQeMTPanUKACz7Yx/RuXnFLlcVBcACock4+pmwCBA lkWSrA4MnkrF4wu34POB9vl8Bw8enHl95cqVhmEs8Bmmaa5fv37m9XQ6XeieN47jEFlOp9NeL7yK igoxCGeOOpgxIMVeeK/1y4WR2FZhOwZHbpvlAABoB4MnACgHzPgp52cVct1MkSMiSCwzDfkLS4nl MBKi63oqlRIXa2trvdrM+Ul8g23b+er2hoiObUuSFE8kxJVwKFRWXp5Op70b5kIC2e0rYhZfIotc 1+DM5cx1nAoAoJD2+Q3kHDm84ZoAARAIY67j5LmvWjwxBJwgs0W0DiAhyWXChRK2IJe8K5whMuQc gUqTE7FF2YX5KZUash2dcwewRlxRtYMAMmeMI3IRwRAmO+tmYtaIAwBQOREfNfRUXsAkk8OMM4IM MNP2QZZTQok5w0wEU8jK83kRAQFd5BwRaFpPxsYX4ZTM5+4xxpLJ5MzrnrIuhBhj4pyDaeQ4zjK0 e0JEl7FwKBQIBiPhsOrz5Vau5N4262hcupIhIpEkTQsz5oSj/WHop9RPaRnnbmZC9kZ+9n+50DK+ J8FgIAqL5PwbYwNwHScUDPp8vmAg4Pf5xDp9fnOZdxiCxBSFnJdEo36/v7KiglLKGJsHRi7UfMFQ lCClCkcsLX2ZyBqlPkqijLtZ4zjfmgARAFGSFE2bReGXQgQIB2TcRjhN6ZgknyKkjHMOmElSIwfG EN1MPJOzjH1HAGHCKKV59FFcZjLGEVMAPgAHyBCVopy7AJkEJvKMm5nNTWV9vYxbQFxmM56vFpmE AGGuDXBWkickqY9KAY6Z5CoiMp6ZSJgAw85lDgRzCJBFdZicz2jqun7NNdfYti32Soo8T3Nzszf/ L4REJnrmdU3TCt0ZRFFVxzTLSksvveQSxecjhCSTSe+hXln7tNGI2cgm59zn82mquqQCQERCaUmk kbHn/P5KJIQjcpdxPOdmZr6dZ9ZZAMAYCB8TETjjquyrrFq9NGZMA4WSLAPn/kDg0ksuoYoiaolE o4SZDPGskscuxlggEMhXFYToWWUZRkNDQ/3KlVog4LpuKpWax2rP9IhFlHwpBhQRVS0YidTFk0OB cC1jCIBc/G+GmylMAOSsCQCBMRb0R6oq8yksAIhGVwIyVa1UpGNIZMYrERnCOTczY8qz93NEkeTn HDkCc9ySkspgJJKv2UWRgpRICH7N/++UBhB8ADIiF24menjcTIAVPGXmyBAQUJZ9qpIf5YlG6wih RA6FwkeAypz7GHNR7ALK+raYdXUzERUv+CtEFoxWVNQs/IlvEFjUNC0QCIh8mZisFrtilSTp9OnT M68HAoF4PL5woIslRAwGg5Isu5ZFZNkyTSfboH5aM5G5fBnOeWVlpSTLSynERUQC0FC//cixx1xm EyJl0oi5biafxc3EzDAE17XLyupWr958wRhmhaX5fJqmGbpOZNm2bcMwvF4yueTZJo9p3j/LysqC wbzt8gyFw0QUlhMiWoLOBJOLZ9q7kiTV1CxC72cl5JzKcn3d9tNndwu/KbO+W0DoWQQtHMdsaL+8 rLIuX+ZJUF1Nh6pGHcsAIntsyKTIETNupqg0ykYPATIWEwCQ8JamLeIH5gVPRXmz3xcxrJSqRpBz l4sSI8y4mV5kKcsrJsII2euObdXWNPmD4bxwqaKsORSqnZjslamfcY7c5dnpFfGcz8t41iXPDrqM +8nsxlUb/MHQwpnzBh4751w03bAsyzCMdDotel8v5KsRMRKJ7NmzZ+Zba9asKXR/f+Rc9flKS0td 1+Wuy3IsAsxtKL2/jDG/3y+Ob146kqqa9Q31O20nDaIpDpzzCs4bh1k3E7xFDUfXtXdceqs/GMnj TkFElGS5rKyMcc5dd6445sxPeUQpbWlpyVeMDDkPRyLBUMixbT53XHUmDEGu65aVldXU1ORlELa2 vrOirMW2dc9JmSX0nONmInoW01EU/2Xbb4P8mSfxVSVlDY0N5amjBQAAIABJREFUl1l2GhGzwUHM jR4CQHaLkqjQxBw30y6JVl224/q84UEsq2ysrr7IttJAmChj5xw9NzMzx2Tz+MAz6i3wIEfXdbd0 vF1WlKVzCTn3BcNtLdc4tsmRi4eC8LVzCto9NxMyCwLMzHkuo0S58vJbYDFrlEKlYhAxFAoNDQ2d OnVq5rubNm1ahhNjELG2rs6nacLHnGYWZ9qF3HscxxGtRpbuSSEiIWTbto+URBosMw2ETF/uCdXn mPsR8cI0kuvXXbF167tntWJLQsV59YoV0UjEmfv0lbnMlmVZq1atWrVqVb5MgzDi9fX1CDBPq/lp QvQuEkI2btyoadrS8XDG/MGS7Zd+XJJUxh0gJDf0LJ6a+xeyawLOuW3rV+26c1XTxvxuhBdT1I5L /tgXKHNdC4FkvDaWqcoUJgkIQZ79JwfOMm6mbqTf+fYP1q5sypuwOAeArZvvlKmPuU7GiGeMY7Zc FM8BE8U9mCl0J4aZbli5bufOd+cHDCIAXLzltoqKNttOE0I4Q+QIWeaIkKXnZrrZ5KrLkABJ64kd 227ctPnKRQ2uQhnNcDg8Ojr63HPPzXzriiuu8DrWFJSQc38g0NzaSgjJ7WM6bcjlWgTxwrKsxsbG TZs25ctOccYi0dq37bqPUsUyk8yxGbOZa7nc5tx2ue26FmeW61ousxAtxizGLMOcqKtruvnmv1Ly YQ6mkbBTza2tqqq62UllHvI+Zdt2RUXF9u3bL6D/6TzEGSurqGhYtWp+MHD+tMc5t21748aNTU35 NAqrGi/bvu3jlpm0bYMxmzHbZbbr2shtl9nMtRi3mGu5zGLM4tzizNL12JbN11x11V1wvoLlC1JV zZp3XvU5xhljNhBERALIOUeCnHPCETkH5IiccE6Ac8IJYDo1sWPb9Tfd+PH8TrrIeePqbRdveb9p pQEAEAghSAgAASRecY/nZoqcOmfoMFtVtDtuvy8cLc1XYIczFgyV/cHVf6MqIcsxCBHTGCLnSJBx jshJJmTACXBkDIBTQF2fam7a+IH3/zUscmWQ/2JJQkg0Gj1+/Pj+/ftnvtvS0lJXVydqzvP+6JnE GauorFy9atW+/fspIa7rMkTmuoxzlrO9xNtqgoimaZaXl19++eWKouSxrQByXrty087L/uS3T/0d ITYAEfm8bLoTWSYkBJwj5+C6jt8XuuXd94cjefB2ZyXOWDgSaW1tfeWVV0SeWkxmrvjfDM4IC6Vp 2s6dOwvR6Ag5b1y9enJ8vKu7W5Zlx3EybY04Z7OBEb2p1q9ff/GWLXk0CmLEdWz8w5GRE/sP/EhR ggCZhV7GBIhYT2ZdipyDZRn1detvuOEvC9QdDhGB846NN42Mdj37X/9HU8MIwBhyBM6Qc3Q5AgPG MFP5hEgQTDu1unHdR/74i5rPl19UiEgArtr1qbHx3qPH/lNTo8gRERlHZICAjGXy+oiZmwlBAOZa qQ9+4MtbL3lHfp0Aztiq1Vvf+bbP/eTn91JJBaTIkWGGIWJAZcKsHJEAZ2gzMxotueej/7u0rGqx zMmn0URETdN8Pt/jjz/uVf/l0qpVq7Zt25ZIJJazyxFyvqqp6fTp08dPnKCShMJoInLGHMcRQ5Bz LnYNil2ot9x8c96NglCdizpuPX7sl52dzylqyIu/eIbyXJIR0TASl+24c2VDR0GPaUPOq2tqGhoa Xn31VUIpCIuJiJy7rissk3D9HNd1Hcd23dve+97q6upCoBLr0PXr1/eeOTMyMgKEICJnzGUMEYWw ENEVc57rmqZZUVV11a5dJN8tPpFzIknbt33sxIlfp/UJiSou83xtEInpc+UNnHNuv+2qjweC0cI1 YRP687arPtl7+pWTnc+oSlC4b5lwIUPg4DLkHAkQzpG5TsDv/8iHvlJSmv9+VADAGZNk+V3X/M3Q 4NGh0ROK7BfbkDxUjGcgiWUyR7TM5FVXffi66+7Kr9srCBE3bbmlu+d3L7/6iKqE0KucRWAMAYG5 mSgnICBnwO07b/8/jU3rL0CT82Y0CSHhcHhiYuKnP/3prDds2LCho6Mjka1eXjbCbNbi1ddeY5wT EUEX/gtjKFxO4cswlkqnL9qwobmlJe9CBQDOGJWkxsbLjx57EpGCiL9k8z+YDWsiAmdMU9QN666G Aqz1ckkMxZbm5pdffjmRSJzrWXk+czjnDNEwjNoVKzZv2lQ4VJwxLRBYWVd3/NgxWZI4QKZemjGe NeUiScT+P+7eOzzO6sofP/e+dYpGZVRsy5Zk2ZZtWW7Y4IoNGAwBO5gY25SwQEhI2RCW7C6QsD82 IQ1IWSCQLCXJQiCBQAg9tEAA09x7kSXZliWrl+nzlnvP9487Mx5V29IUP7/Pw2NG7/tq3qNzzz33 3HuabYfD4eXLl7tTV8EvGch5Tl7JhAlnb936Z033CO8BAEDcZReLpAGwLMObP7Gy8uyU09APnDFZ Uc8+65pdu19GhmKzIhbeRMwTchQ3TDMwfdqyqmnnpE9+OGOevOJzl3zz6T/fiIoNSIR7jNsxVR4L L8KYPzPP4117+e2QUi9ZAmKdW3DOdZ98/rtoNECJlHAbJJJExM4AEEwzPLZkxsJFX4IRSXJqlKaq qrquf/TRR6Lk8ECcf/75JSUlmdeYCZSMGSMpSktTk6gLKSL9GOcgNnoA4sdQKDR58mRIz7gKeAsq gUM0EiQQj6fFWIoCxN3otm3kuMfm549PEw3JQM49+flOl+tQXZ2qacK4A0SbMZE4lMycs+fPl0cZ uHoKKC0tjUSjhmEkii0lVjWIxa8wmzFAnFpVlSYaxHKSmzPBjIaBSwQJAnAAmvBsxB6DaMTvnTxe d3nSREk/TBg/1+Me4w+0SJIaU5RJdUOoCPIFdOp83pxLIZ2SLFA1ZbnbXeLrbZIkTdi8SREFJ1YX iqHq6jXe4tL00YOIRUWTxxRPb2z8FCVHjDlxkgCAQCwixemwZs28UBmpJI9WaVJK3W53e3v7UAYm AFx55ZWImLFzzEFBZTkajXZ1dqqqKixNiMuTUJ1ickYiEafTmVZKbNsywmGOQGlSq694YJ34bHOT WWHbTlXKxMmBnHd2dTl0PZk5wiksmEMp9QcCuqZlgBhd1wOBQMDvJ5IEfTuyJQaLc64oipZmeiwz Gg2HEWUSq74GAEmDhQAAthGxzCimqKDnSeF2F+laTih0jFkksTVJ2L8ktnFBTYdcT2EG6HHoHpej 0N/bwGxyIrAg4bFDIAgcUdcgL7cURmTZnSoQNYczx12kaxiJWIAQC9hMWuEAgQA4NfAWlIyYmFEp TYfDQQh57bXXhjIha2pqZs+eHQwGGWNZ1JgAAIjdnZ0dopRnQi/EJyTEvbGRSCR8OvlOIwBnLBr2 c5QkKiECIYAoFkGAuN4kxA6Fek7UZkk/unt6Ojo6RMJrrFpdXG9CXLaCweCgabUph2WaHZ2dAb9f UVVAZPExSh4s27ZlWU534JoRDTk0Hg6EKCEnRqnvYLl0bkRTk0Z9KkBklmlKAJZlA8Sz4AEEXSAa ThHQFLCsTHTlspltRCISAdOKV8biAOQEYQQBOKoK2KlOyR+cHtOQCPABzAFIrCigKmCPgjkjUZqI qCiKy+U6cODA1q1Dlixbs2aNpmlpTfs5dRBKw+EwIg5VTRkAGGO6rutprlk3rrTG6ShRlbZgkImi R7HFhMT+IQRcHsjLne/2FKX1QDMZjDFZlvsxhySJHCLm5ORIsgxpPmYFAF3Xu7u6LNvm4fCQKy0h oVBITnP5gspJi99/B9xOK2qIvIQTgyU+SBI4XDBp4qIRNLwdGRTNATZzamAbsQYX2HekAIAScGoA mAkzhQAY0bBEAO141erk2/FDA10BywxngB5mM12HcGBI5hAAzQG2NXKLZCRKMycnJxQKPfPMM0M9 MGfOnBkzZgSDwdPKUk8fhAfm2muv/dUDD3R1dQ3VUliW5WXnnjtv/vy0np3necff8p/v/Pxnt733 z38YBvBYmFHsP2F7fuffvv6Vb/5A1RwZaEUpjqCuWLOmtrZ2z969Q8W6y7JcXV19ycUXp1tjIud5 Xu+Xr732j888093dPWiBAkqpx+O57stfHl9WlsYzMs5r5qz66jf//v3v/Wt9XYNpxkZK/Cvo0jTt wYfuX3npzZnpl4ucy4qy7Pxb33zjbp/Pn8ybxLsJgKbBhPKV02ZckIHB0pyumhkXHzr0G24BRyBw YvlP/E9VwYjCjBkr00sMIiCeu+wbz/5pZyDQ3k+QMW5pahoUFs+Zd/a6ETPnNJSmMDCdTufWrVsP Hjw46DO6rq9atYpSeoYYmAlwxs5dvrywuHjJkiU9PT2DPnPTTTf95Kc/hTR3PeWMlY6fefGqf3/0 9x8PWpO0vLz8a9+8z5ObxviVfkDOp1VXP/Dgg4sXL94XbwrSD+eff/6vf/1reXSZ+KdEDCIB+Jcb bgBKb7zxxkGTICiljz766Fe/+lUR4J4+SoDzGbMvmb/ohlf+fvegz6xaddFla74DmWrqjYjI2EWX 3NrVXXjNl68batpfddVV3739T4SQzAzWl9bd++rLY+754d02A8b6WADi/ZWVpQ888Mi8cy5PtzGO nJ919pc4lp6/4sJBox4BYP78+Q/+5h85Hs+ImXOqGUGI6HA4JEn605/+NJTGXLZs2dq1a03TDIcz YYePANOnTz/33HMHvaWq6uWXXw6Zkv7S0tK8vLxBb40bN05V1YxtzAWQ89zc3EsvvXSoB1atWiXL cmZ2oOJvv+CCC4bK/R8zZswll1wC6XcNC0qmTZs21AMVFRXpiDo8KZaff0FFRcWgtxRFWbt2bQY0 pgAiOpw5X1r3PQurDtZB3WFoOApHjkFjMxw7Dsfb4HgbLFxy9bxzUp8KPBRmzp5zzjnnDHX3iiuu yPGMqpLDqVqaHo+nubn5ww8/HPTu2LFjly9fblnWmWZgJkNk+wxVVVBRlAxkdiYgDlgHvRWNRkOh UGZ6z/XDMM66zOsFxthQFVcVRUl3wZdkDBMqF4lETNNUVTVjxAgwxtxu96C3VFUVbRFSm+c6DETq QWVl5aCFJgCgvLwc0r/CxYjh3DCMQWv4Cox+Zp2S0szNzd26deuBAwcGvfuFL3whPz8/0cjlTIaq qkMpTdu2M1AUOQHRIHfQW4ioqiohJPPcHKZObeb1wvAaPN3tUpIx/LtkWc78YAk9NeitSCQijn0y OR9FObSh7p60NU4KQShVFGUYYhIdsUaMk0uex+P5+OOPB62JOX78+GXLlkWjUV/qKumnG0NVPh5+ 1FMO0zSDwSAhRJKkZNZZllVQUKDremaW5X4YxtbOpGWXwFD0iOaUGSNDBDZJktRvUbEsq6ioSJKk rAzWUOKa+eMCQsjwemqo48U0QUSkDXV39JIz3JkmIrpcrp07dw6qMS+88MILL7wwGo0Ky0g5HWTS TDgBRNM0Rey61BcAkJ+fP3v27AwRwnlFRcU111wjIqJpHMLV9vWvfz3zZ5oCIlZcqPJk5gDA2Wef DZk1XjBejF2W5QQxQnKmTp06aHfoNJGxaNGipUuXcsaSB8u27XHjxm3YsAEyfnYhXldQUAB97XHx 2ePxLF26dKjfTRM9hmEMY04OcyicDmIsy/J6vUM9cMEFF8Dohmw45aVpWldX1969ewfeWrx4sSzL 9fFuq6cLSZKGOpFJHxBR1/WHHnrINM3XX3/d4/EIwyEajUqS9PBDD1VUVGTM0TFu3LjHH3+cMfaH P/xBNHsQC/VDDz20fv36zFsuIlzjzjvvDAaDjz76qNvtFupSlKC+6667Fi9enEmqOGMTJkx48skn r7322oaGhpycHHFCFwwGJ02a9MD//A9NdZGOoYCcz5w588W//nXV6tWbNm0Sm3ExLZ977rk5c+Zk LMghmaTS0tKnn3563bp1u3btSpggIuD/1w8+OGHChIyKEKKmad/4xjf27dsn9k/xywgAs2fPXrFi RcbWFeTc4/E8/PDDgUDgjTfeSOzkhO353//93wsWLBglc4ZTmqqqvvvuu4Pe+uSTT0bzVgC4+OKL HQ7HMFZ0OoCcFxYWPvbYYzfddNPLL78sBrKkpOTee+9dt2FDJvc1InT0f//3f6uqqn7xi190dXVN mzbtnnvuWbduXWYi/gYCOXe5XD//+c9N03z88ceFEne5XLfffvsdd9wBmYorSCIIZ82a9dRTT33l K19JdEWdOXPmE088MWfu3EwSwxkrKi7+29/+dvfddz/55JOWZZ1//vn33nvvOeeck5WNOQAAYlVV 1TPPPLNhw4ZElJiu6/fdd99111+f4R262CHdeOONOTk569atEyVyxC542rRpr7zySlFRWiotDUkP 54WFhX/4wx+uvvrq9957L3H9tttu+8EPfgCjluQhlaau60OFFqUE2fIaccYKCgpeeOGF3/72t88+ ++y4cePuuOOOefPmZV5VccZUVb3zzjuvvPLKhoaG+fPnFxQUZCV+JZkkWZYfeeSRZcuWPf7445qm fec737n44ovTGg45PD1z58596623fvnLX37wwQcLFy68/fbbx40bl3njjjM2bty4J5544utf/3oo FDp36dJRNo9KCUk1NTUbN2689957n3/++erq6rvuumvRokVZWXSRcyDkyiuvfPPNN7/3ve9t374d ANavX/+zn/2srKwsK+NVXFz8zjvvPPjgg48//rjX67399ttXr16dEkkeUmkqiiL+8v//gTMmSdK3 v/3tf/3Wt0S7+mwZd+KYbPLkyaK0UnYnYYIkKkkbNmwQp3UgHAvZsqfi0n/fffcx2xZJnNniEmeM UCrOdrNIRjI4Y/n5+ffdd9/dd98tgmyyJckQzwW4+OKLlyxZ8vrrrxcVFYnTwyyOF5Wk22677Zvf /KamqoTSVEnykEoz3f11s+ttFwMpahJnUSNAPMcjiwQMRII5cMaoBkKIJMtZ1AgCiQomZw4Ec5Ir rWQRQpjdbnfCP5bdySWYIwIzU8icIZVmJBJZvnx5OBxOYY95AVHUS5bl0R9oCmcFPZ1G7/1ACCGj +PV+PebFkfxo6BktkpYiMXCjJGY0v96POaOnh1A6mpW2z+8SMvovHA1SzpxR/nryNBctu0dPz4gn lyzLfejJNnP6T/PkH0gc4seCgoKioqIRv2kYIOLAuL/kV58iLNNkjLEMxlcmQ1KUfva4aAqfFcuR UAp9M0Bs284ic4gk9QvcsywrW8wBAKlvxyeM98+AbJiuRJL6FbWzLCu7kpxswYi+L0BIdiRZkgzD SJ5ZtuhMkyXJGSjJZOLEieITIpaVleXk5GQybDgZlNLOzs7W1lZKqa7rkydPfvHFF/tFdIbD4RUr VnR3d1uWRQgpLCx0u93Z2rIRQnp6enw+XyLcsrS0VJKkbNFDKW1ubjZNU7gv3W631+vNInPC4XBb W1viytixY3VdzyI97e3tkUiEc04o1TVtzJgxWSTGNIyW1lYx1wgh3oKCHI8ni/T09vT4/H7OuYjS HT8+E10DBgWl1Las4y0toluV6KOTXUmORCKtra2JK3Lyvebm5iwfNXKeMMtPeiyAiEJnpZ+uISHG VRDDOW9pbc1uXpRlWYIexlgoFMpk+tpA9Ft9Ozs7sytdoncexNOTm5ubs0gMxithi8+9Pp8/IwWe hwJjTFQKR0TG2PHjx7NIDPSdWWeaJPex49Lt/DkVJOaVaII48IHkP0CMdIYoOxkQ0c7S9iqZBvFB dNfJ1qZhUGQ4JncgksUpw1mzJ8WZIMnJQelZZ06/wTpzJJkQko10xlPGULUUkz+P4CQ0VcB4D+7E FUmSCPTxxmSYIDu+PgOAyPbLInMw3nkpQU/WByshUQOz/jNMDPRdRc4E5iSvuNlJdE5Qk2RpCnrO HElGxD6sESli2SAshmSxFhnHQz0pYlC+efPN5513npEl011R1ef+8pdXX3vNMAxZlt0u14/uuae4 pCQrx/lEkigh3/v+95uam03TdDidy8499+avfjWLzPn4k09+/fDD4piMc37X9743c9YsK81dfYaC pus//8UvduzcGY1GdV2fPm3a97//fUtUY884FE2rr6v77x/+0LJt5FyW5Ruuu+6SL3whW4Ol6fof n3nmrbfeikQiiqqOKS6+//77IUsBQ5Is+/3+/7r7buG60DTtohUrrr/+eisbJWMAQFHVTZs2/eqB BxLrygmliYhjx471eDzZ2iZIkpRwBMEpFCOhhNTU1MydNy8j1A2OLVu3JmwERVWXLF6cN3SlgAzA 4/HQlhYAkGW5bMKE7DLH7/fHrCdCAOCsuXNnzZ2bRXqKi4tjMWGyXOj1zps/P4vEePPzJUmyGUMA Sum06dOzO1gfbdwYYw4hTqdzwcKFWSTGNk232y06LFBKJ0yYMO/stLeVHwamYQhJ7q80AUCWZUVR Uh6YeYpIrqlzihDHwyMLW41N5vhh8wi+gQ4IHAmHw3le7ynSM1Tg2MhCggmlycW6E8dSI2dOEj0j +AYqSf0O7yMjHSyStDUbcbw0lSQrcUqOaMfbqZ/WX0cG2ySOIOSeSlK/KtRCkEbCHEJIfMKOhjki 6EL8KEyqkdV+j/GHEBhpQjCVpGAg0Cfk6PQlOZktyRgBi6gk9SvB2UdpYhynThmlVNQZTGhizrlw U54uyzKQdp3MSs4Ys22xzadJF9NKgIBQl7Zp9PYe8/mbQqFu04zoWo7T4S3wlufmjctWNk5Cj/O4 X0KW5eSLWSEGAMxIxDSjiqppDifJOD1CbBDRiEbD4bBhGLZtAyGqqjocDrfLlfnxSmaOZRiWGaFU 1l3uBHMynD2VWE6Qc3EcKUkSzQYxiZeGAp1+f0s40m0YAUVxOh0FbndJbv5YMurBGslxLyFE0zRF URhjIhZPSJJI9RHhgW63W5Zlxlg0Gj1DPF9UkpBzf29vr8/X09trmqawxSilDocjPz+/sLBQVNtM n/SLEfX7Ww4efPNY06bu3mNGNIiInCECAU5UzeMtmDhl8nlTp17gdOVmTNpERmkwEPD7fN09PZFo VKx8lFJN0/Lz871er8fjgYyoBsGlaCTY1LTtyNFNbR114bDfMMKSpOmax1swsbLinIqJ8905eRmg h0oSs+3ujo7Orq5AMBgMBGzGxOG7UA1Op7OkpGTChAlOpzMD4yXUk21ZTU3bDx/d1Np+IBTsNYwQ IbKq5eR5xleUz5886Zy8/DEkI4Ml6DGiUb/P19PTEwiFRKC+MKdyc3O9Xq+3oEDMvrQyR6xttmUc bfz4UP373V31/mA750zYzYhE1/K8BRMnTzp3yuTzna7cERvmp6c0CSFOp5NzXl9fv23btpM+X1VV NX369JycnHA4nMWICjGu3Z2dLS0t4WjUsixBj7CLRbRHfX29w+EYN27c5MmTXS5XOqSNShJnbM/e F3bufi4Y6ObMkGSHIjs450AJ48gJGkao8di2w0e2bN324rlLbpo6/bx0i74QtYDP19zcHAiFxEIo 4j2FamCMHTlyRFXVkpKSKVOm5OXlpVX6qSRZZnTnrhd27H65o72OMZtzjkARCbOZadnIP/jgoye9 RZPOnrtm6ZJrHE53Whc5X09P49Gjhm0HfD7LsnSnk8WjiUXcUmdnZ1tb26FDh6ZOnTp58mSSzgbo YjnZu/f1bTufb27eY1sG5xwJRU6YzSybcc4//fxZj6d0Vs0l5y+7Ia+gJN2DZRpGy/Hjnd3dtm1H o1HTMHh8WnHOReh3fn5+ZWXlhAkT0ifMYo43N23Zsu33bR0HbdsgRJZlByESIYAAyCEa9TUc+byu /rPNW19YtOBfZsxYSSRpBPScqtJERFVVNU3bunXroUOHTvG3amtra2trnU7nypUrnU5nVrpUEkpt 2246erS9s5NKUnNTk9/vLysvF8W3Y88QwjmPRCL79+9vbGycM2eOKOOaQmmjkmSZ4Q8/vL+u4T1K VNsM9vYu19RDeYWMEOAcRaQSJbKiyLIEnZ1HXnzp7qUdN5y77CuE0jTNQ7GlampsPH78uKQo7W1t nR0d40tLdV034off4jHLsurr65uammbMmFFVVQXpmYpUkjo66t9976dHGzcDEMajALaql3Bmc44A qEmIDCzGOzsP/+3Vn+3Y9e66L91dMbEm5VNRrCWtx483NjZSWW5rbT1UV8dse1ZNjaLryWfZIuYk HA5v3ry5s7Pz7LPPTlOjYypJoWDne+///EDtWzZHbvkBc1QthzGOFClBKiFnwDgGAu1v/+O3O3f/ 44ov3jl79gXpGyxfT8+RI0csxkKBwNHGRo/HUzJmTKK5hZAfxlh7e3tra2t5efncuXM1TUv9YFFK CNm9+9nN235v2Ta3I73dVQC8sLgDgQIgiNlDZVWVkUNXd+Mrr97T3LxvxYpbpNPXm6fk80FEXddt 23722WdPXWMmEA6HX3rppdra2sxXayeUMts+XFfX0d1tm+buXbt27NzZcPhwU2OjaCmRDEqpqqrB YHDjxo11dXWDHiSPnAzL/Oij++sb3lMVZ093Xlf3KsZzwtGzQoFjiBKKWDkAAEAABJBlhyTJ7//z 8Y8+eDJNEXziO48eOdLU3IwA+/ft27pt2+GjRxsOH4Z4L8PkWDlVVU3T3LRp065duwZ1iYwSVJLa Wvb/9W//2tS8VZLQiEy1jastY4NtdSNSzoQPR8g/kanudOY1HN7y8G+/VntwS8qLpBBK21tajh07 pjkcDfX1mzZv7u3tDQSDdQ0Nwl2ZLDkAIFpxHDp06LPPPhOpNamlh0qS39/20qu37at9gxDCzFLL vN62vmQarQiUI3IEROAAHIES1eXK7+g68ujvbvn001fSNFjdHR2HamuRkNaWls1btjQcPnyottbX 3S2aBiYzR4QP1tXVffjhh5FIJLWDJWbHnt3Pf7b5f4FIkWCoreVC05hoGpN8vTYhkphQyBEQgAMC KIqDKtonn//5nXd+jYinO9NP/rTQmIFA4NVXXx3msZzSr2fSAAAgAElEQVScnLy8vGF6Fu7YsePT Tz/NpN6MKYXDh3v9fm5Z23fubDx2TNxq6+gIBoOiLU8yOOdiyD///PPjx4+nZHTFoO7b97e6hn8o irO91ROO1Iipr8h1suwmwFEMLAcEAA5CQRAiy7L+zw//0FC3JYUa/ARhlLY0N7e3tyuyvHfPnrr6 enH63NbR4e/tFUn0iU16Yl2RZXnHjh21tbWpJYlKUijQ+dqb3/MH2wBYyL8ceTUAEKJyu4RzzhE4 IsaZwwEYQ4ee6/O1P/77f+9sb07hVKSSFPT7m5qbFU2rPXBg3/79QpZURXHn5IhaMwmNkKwdFEU5 dOjQwYMHU8scsei+9c4Pmo7vUBUtFJxhW7G+3syei9xGJIiIHJCfYI4mu5Czp565q/ZAiuWHSlLA 5zt69Kii641Hjmzdti0YCgFAKBLp7u0VXV37TSsAUFX1+PHjn332GXKeQiVOKG05vnPz9icUxRHw +Xt7vgAgAQClfkXpAOTCGOEAgCBMAM6RgqQ5cj75/LmdO948XWJOvj0XNdzefvvtgbdUVV2xYkVu bq4kSYIvQg2ZpnngwIE9e/b0e/7o0aNer3fSpEmj76J5KiCUdrW3d/f0SJRu3bWrs6tLXB9TUlJe VpaoTZcs/eJfSqlhGFu3bi0oKNA0bZRbY0JpwNe6e98LiuIO+AIRYyFwAApO/fPcAgAoYKxPwmhs YUTgHChVItHABx89VVExh6S066GQ+9a2Ns3h2LljR2NTk7ju9Xorysqcbrc41kwQlpgAYg3Yvn17 SUmJx+NJCUlCaj/9/PGunnpFUn295wIUAgAAp8rfJKpyTgFObLPQjlHFGNcc7rb2w8+/+KtvfP0X KTnHEIeSrS0tRJI6Ojr27t8vrrtcrhnTpxcUFvp8vsQq0s+kEolGe/bsKSsrc7lcqRovQsj2nc8f PrpRUZwB3yTkk2PXpXdlJYRMRo7CzETswxxZ1oMB37PP3/ef3/0/3elM1WAx225uaiKy3NLcvH3n TvG3a6o6adKkAq83FAol80f8lvisqurRo0drDx2aOnVqSqoWEUqZZW3f9RTnNrMiPV0rxXVFbS4o PCRJZTazIG5mIgcEEKlGHAGQUip/sPGpqimLnO68U9+kn3z9cblcL7/88sDrixYt2rBhg6ZpwWDQ 5/MFAoFAIODz+fx+v2EYM2bMWL9+/cDf2rZtm/CsnSJ9I4Y4TOno6FB1vaWlJVFup7S0dPacOa6c HJHbPlApCMiy3N7e3tjYmJIlsfHYJ6FgB7MNX885gAAUdG13XiElQDmzBQk8oStZfEEUZr7iPNa0 r6lpf8p3WJ2dnUhIZ0fH4Xi3Ua/XO2PGjILCwkTQ2KCQJCkYDNbV1aWKJEJpV8fRg/VvK4orHHYD FgMAgC2rTymqByC+3ePAGSYWFQTgAJyhrru3bHvr6JEUsYiQaDgcCAaZbdfFD6N0Xa+pri4oLPT7 /YPyBOLJiJIkBQKBVEkOiIjXsH/PvhclSbcMP2dV4rqkvKyqDFHtI8YACDGTiotFRXcfPLR5564P UzhYvp6eYChkGcaB2tqYxtS0mhkzJlZWYlIhkhhJfbkEAAcOHDBNMyXGLyGks/Nge8c+SpWurtha IsvdBYX1VHIzFsvNSzYzIemzJGntHUdrD31+Wi89Cd2apg3av3f27NmVlZU9PT2DVmFAxFAoZNv2 FVdcMfDu9u3bRavY9IKQSCgUiUYtw6itqxPX8nNzp02bZpqmMHWHUgqJv+LYsWOIOBppE5LR1r6P UjkS9jPwAADBQG5eFwHCOMNYJ0gxsH2S+hABEZDScChwrGmQnqCjocqMRoPBoCRJ9Q0N4k/WdX1a VZWmaaFQCPtuPAeuLoSQpqYmy7JSte9rPPZZONzN7LAZjeWiUPl9SSllzGLI+AkOAdrIAThHYDEW AdJQ0Ldl2z9SQgkhJBAIIEAoGGyNr7UVFRXFY8YEAoFhpCWZaWKRTpWeOt6yu8fXSAlGwstjl+g2 VdORIIF4qSQOnGN/5gAgB8b51h3vpooeRPT5fIqmtbS19fb2iiuTJ00aN358b2+vCJIZZl2hlPb0 9KSw5FVr2y7LjhpmwIhWAgAA9+RvVBQ3chsAMKHA+QmlyREAARkSQhDw8NEdcDrMOYnEq6o6aOPJ WbNmnbQmm2maogp/Pxw+fHiYo89UQcSOMc5DoVAwXnSrvKJCVVXh+hxK+hO3KKWBQMA0zdEU4CCE cNuORLoolQyjGACAgO48rKg5jNuA0M/MFFfE3hziehMA/L5OSN0kJISYpmlaVjQcToxj2YQJeQUF iQiHhJQnfivZ9qSUhsPhUCg0epLEN3R11wNIth0ixAEAiD5VDYMoEsxFH4WYgZCwpFhMK8S0Q0dn I6SIRcIO8vn9saNMVS3yehMaE/omYgwUJEJIKBRKoY+4o6uO2YzZEcAxAADAVbUOkHLOOEOWvDeH 2CFGgjkAQInU3t5oW9boS8mIs4uoYQBAd/y8y1tQMK60VBSWhaFnVuIzY0xo29ETAwCRaDcA2EZM bqnU43CUMGZh3JxkHIHH1hbOY/7WxH6FgOT3tyPiqTNnOKUpptbA6zU1NadY3o5zPmjt98xkatqM yYoSCAQ4IgA4nU630zmMjZns8RCja1mWbdspmIcIjNuIRJZaHI7dbvdxzrg4YcG+ZmaiCY34jHG5 J6nuy8Bsm1AaCYdDoRAAyLKcl5trGAbGC94kcyOR39WPOSksIBaJ+gAIt4VSACrtR9A4sphfGABA OIKQx6cBIjCGnCNHIETy+bpFgeGU0IOIlmGIrIeK8nLN4Uic5/Rjy1A6IoWIRnoJJbYdm3RI6qnk Eotu7IowM3nczOQx+eEMbYaESMGgPxhfA0YJEbtrhMM+v19c8Xq9qqqKwOd+fBiUUYwxI3V1Wzhn BIAztyz7FPVYjudTBBp7+4Aj3HgaLSBDjC+3HE9veRvOEYSIhmFcfvnlhJBoNNrd3d3e3h6NRidM mHCKSpMQ0tnZOfB6ZnKEJEoNw1BVdWpVlaYoutMpqWrCvzGUoCdfFKESo5kGiEhl2ekstJlZ4JUB GoFKzC6ApHGK7TpjETUnzMzYNwAQQjw5hTDSNPBBQSUJbZtSOrWqSlEUh67rTmdiWPsxBAZbZkZQ K2AYKIoL0aZKm0Keo4QBOBF0jJuZkLCk4pxhcVUq9Dkid7tyaIoCWmVZNsLh4pKS4pISIklC/pMz g5M/DAqHw0EoTVUJJU3zcJsRoqiOv1IwgOgITozpScC+zEHBnGQFAdzlcjtTFLhCKSWU2oyVjh1b Onasoqouh2PQg4t+HEtMNEqp8LCPEohIABzOAsaZ06053HsIUQBKOGNxYyPuAhLBKcIkxxNmJgAg 5zlu72mlJJzcey5Ke2maNmHChIqKCkpp4szrJF8ty4MWEi4pKclMiVNV04AxT25uYXExIkaj0Ugk MpS6HHTIc3JyNE0bjegj50SSSkpq9tf+HWSKQJAxQGQ8tq9MRBolu4AQAWO6ABhnuu6eMKEmJTyJ UYWoqCoQomra1GnTENE0zXA4PIzzpx/HOOdOp9Plcp2KJJyUGAJQ6K3knClysURjEdHJKWTCkoJ4 MI0w0jlHZDE7lHFeXFQOqVhXENGdk0MlSSIE462WkuUkVv59MLYkmFNcXCwyJkZJjECRdzISoij5 lFPBHM4Y8vjBRfwlwi0WYw5DZCI9F2zbLiycoI46DgTEYFGqqSoiVlRWigyRcDgs6n0MnFYwxHKb n58/SkoSKPZWU6pSqiBQzhA54wmVmXABJRwGeGI2xxcVXj5hJpyO5JxSnKZIijIMIxwOB4PBk347 IcThcLjd7ueee27g3YULF6bQOB8KyLnL7dYdDss0I8Gg3+9PNqP6CfpQqqG0tJT07VY2MpRPWJTn KbVtAxAxsQEfME7JZmZiMbSMSHn5rHGlU0dPxokXca7pek5OjmVZMeZEIsNzI3kmICJjbOzYsaOP x0qgrPQcVctl3ARgzLY4CjPqhCUFScE0MfMhYUHYzKG7Z89cPuwbThmILrfb7XbblsUsa5hd56Da gTHmdrvLyspSQwwAAIwpqcn1TLBYFIBx2+LIY0fhiYMLhoI52Jc5TKg5JHNmng8p2qkQQjy5uYho hMNBvz8UDCZC95IfG0p+GGO5ubmFhYUpIQYRS0pmFBZMMc0wcg6AQOJzhw9iZkLiFgIA2LbpzRtX NXnRab00BQdAIuBZlmVVVXVd93g8LpfryJEjTz/99MCHzzrrLHH8Mfr3Dg9ElGS5pKSEc844J/GL ww9t4rpt216vd+LEiaMfWuTc5SmeWX2lbRnIkRDCeMLtG3d18LjVGUvFAQACnFi2pSmO85b9i+j6 PUpKkkEIKS4poYSIImmDWpgwgGMJveB0OqdOTZkeR8TisVVVky40orEMPJ7I30CMHdjFVAAgB5Zk SQGScDQwd86KyVWzUzUPCaWlpaUEgA1hVPZbQpKvWJZVXV2dm5ubqvFCzl2e/FkzrrDMqHgHckRE EeSPLO5FhNiuRTAHEDhDgiQaDU2qnHP22StSNlic5xcUuFwu27YZClpOcliR+F1hfk2dOjVVyy1y Lqv6nJprAAhDBgBCcwpuDDQzGY+f/yLhCNFoZNHCdbkFJadFzGiVptgsRCKRUCjU2dm5f//+P//5 z88+++zmzZsHPjxr1qyqqqqMZaAj50UlJV6v17LtZHkZqDr7gTEmSdL8+fN1XU/JjgYRZ8y8oqrq C5Goj6MYVc4ZQ+QInANH5PxE7RyGyBhjjFuMRS+66OaKyjkpzz3njOXl55eWllp9g8YSvgJhYsfq ffWdGIyxOXPm5Ofnp1AvAMCSBTcX5Fca0VDMWuDCkiKxqoPxAw2MKVNAACQkaoS9BePXf+k2KXXB /5yxvIKC8oqKoRpVxcgesMAYhjFp0qSampqTytipQ3zVvLM2lE1YFI0GBEPE344YW2KRx4814ztQ zhEJMZmpKY71V/6Hw+lO2WAhyopSXlFBKBVndyf1LyWvKOXl5SlcbgEAOZ846dxZM6+yjFBsWwAI iBx5rKgnQc558s5EzDvD8M2ds3LRoitPd7BG1QmEEKLr+vPPP38qD1988cW5ubnBYDAdadSDAhEp pVOmTg0EAt3d3VSWWVwxJVzDA3+0bds0zaVLl5aVlaUqagQ5p5J87pJbu7sPNx/fIcuu2KkliDA6 FD/ymAWKYj0MR/xLFl27eOlVKZyB/aiqqKzs9fmONzdTWeYDuCHY1Y9LkUhk1qxZNTU1qdXjnLF8 b+mqS+555i9fN4wAJSoT9pSNnAPjscAa4eIAREKAI7dsU1Wlb9x07/iyyaktA4Gcl1VU9HR319XX U0oZY8i5zbkdL47VjzOIGIlExowZs3jx4pQX7EDOVc256pIf/vHPX+npPSbLTsY4cmQcOQPGYuan ncQcoAiMMSt03bU/mzP33NTSwxkr8HorKyt37d5NCWGDzaOBP0aj0YKCgiVLlqSWP4hIABac/dXu rsMH697RNA9y5Aix825EHgstAOEFEmZmOBKcUFpz+WX/IcnK6RIzKqVJKT2VhEhd1y+88ML8/PzM 9+FEzjVNmz5t2j//+c9Qby+Kkt2MWYi2ZYnNAu87ByKRyLx582bOnJlypaA7cy5Yfudzz98UifoE 5zFRZEHspxA5Ew+jaUUqJsxdedEtEDfEUg5EpJI0ddq01tbWrs5OQgjjnFkWB7AtS2hMO649heKO RCKVlZULFyyAFB2Q9aGH8/KJ8y8877svvnq7ImkcCYuxBVjsjDPm6BCOGULQtkJXr/vRnLPOSzmL xFScXl19tLGxpbWVEBKrIchje4LET7Ztc0TTslRVXb9+vdPpTEeJI85YQeGEyy75wVN/viES6QaQ mNiec+AItohgE8zhSIAgYtQMnL/sxpWX/EuaVtzxZWXtbW179++nAFxMKIBYBXLbtuITSvxrWZaq qqtXr3a7U1/KjzMmSfJ55/57e/uBjs4GWdEhXqlAyA8yFKVMhLvV5rZTd33pi3edVvZkAqNSmpIk dXd3n/SxaDT62muvAUB1dfXs2bMjkYhlWRmzNzljeV5veXn5+x98IJY4cQpj27YYX3GF2Tbj3DCM /Pz85cuWpdD1mQByXjRmysSJ527e/KSqeiCRmYDAMcmzwZBxtMzw/Hlr9HQWiwQAzpjT5Zo2deor r70mtjKCOUIj2IwBom3bzLYZomWaVJLOX75cUdV0UCX01DkLrt299/Wdu17SdE8iHhM4xBzY/EQo ayTsr6m+aNXqf02TJc4ZU3V9YkXFnj17RDUQsXowITacI+cWY6JWeSgYXLJ0qagomHJKBJDzyVOW zJt99Xv//Lmm5yEi4/GYf6EjMBaJxRCMSHhM0aRrr/kBpGfRFYM1o6Zmz9697d3dlFLBk8RaIn6w 4wtMKBRaddll48ePT5M8c8bcnuJpUy9rbPyxrvNYACaPFTHBuIGCHDkh4VDvvCVfHFs6fWRiMyql KUyPE98ly4JXQz2/b9++ffv2rVmzRtM0Ua5xNG8/LZSVl1um6evtBRGdixjTnpyz+F7UZiwcDs+d M8eTm5s+pVA24ezPPvm9wUOE0pgPlIkjsRORRjazdM1TWZmJ5laIWDp+vCLLzS0tshD9ZOYIY4Ex znk4Gp0+bdr4srJ0aCgBzhiVpOlTV27d+qxEFey3oiRO6xA4R0LMubO/AGmzxAXGjx9vM+bv7ZUI 4QBMeIrjYiNUJ2PMiEYnT5oEaTDAExDyUz394vff/5VpBAFpPNIwHv/PYw40BCAkPGP6cqcrNRVV BqeHc83hGDt27P79+zVNE9s4MXHEBo5xjnHVSSmtmTEjTZQkUFmxRJY0IxrEOHPgRCQvQCwWCJHz iRULYKSSMyqlaVlWSUnJunXrNE0T6pIQIgod+f3+PXv2DJq3/tJLL11++eWKogyat54m5BcUSLIs yqAxAFFhhcflXjhJuW1HTTO1wSID4dTzbctG06JUAoi59njcVBL/WrbhdOQpiiOtlMSAqOq6y+Xq 7OgQPk0u6v3Gez3HPEWcBwKBcWPHnqAybRhbUqOrOaYZIkSOhYwkXBwABAEAKHAJ6NQpaV9XFEWJ RKOdnZ2yJPF4GKawDBL/ijXG4XSmmxgAGFM8LT9vfEfnQUo0jLuJMb5NIbF/0aFBzYzlkH4lnp+f 7wsEaDBIRKKtcPskzyzOo4ZRXl6eX1CQJkoSUFU3II2EgxJVME7kCWe6GD7GJCK7nSMnZrQt4Sml Imi833VJkhYuXLhgwYJBQzVffvnlq6666hSD5FMCocc7urpE2rtYYcS/ccHnHDESiaR8V94Phhk2 IyEgBDAeupBUjUJoCNs2DdVv25lr9BwIBjs6O526zodiDkAwEMhMVgKVZG5z4IwnQpHjEXYnatUg VySM14pLIyzL6urq6ujo0FRVNLqISUiCP4jCO5SZgoeyrBIkMgXLspO40Zc5HHUNADIxuUzT7Ors lGUZkwy3E5WO4s7DzMTMMGZFQ8FIKCTLKkkWGMQTEUjICKWWNfLBGq3SHErrMcZEEZ3rr7/+ySef HPjA7t27q6urMyNnAu0dHV1dXWIfMahmFA6+SJpHV9c8yCKcAUcJoE+VABY/rXPo3IyGKR3t6Jw6 uru7u7q7w7oOwkoY8IBgTqKTQVqBiMw2KQGb9cknTT7NoYCaA1j61xVJkrq6ukLxJP1kKgFi4yeO 7bT0l6EBAEKJbZoSAZP1kWGSNGYE0KEDs9KeQgIAAb+/pbVV13VKyKCSIyKxenp6WPqTpwlI4VBA AsOKMogrzFiMdvwZShhyUGR9xG9Jb+EMxpjP57vyyisH3tq7d29K8k9PBSgC3YuLczwewzBEC9Zk iNNr0fN9/PjxaaWkrGL+7LlftmwwTRaNskjkxH+mwS2D2xZn3HHJpXfm5p9ezO1oMGH8+By327Ks qGFYgzFHkiSPx1NeXg7p3PEJFBaWa1peQT44NHTqsf9cDnQ50OVEtxNznFhcBKblcLkHKQeTQiDn OXl5V6xZo6uqbdtGMkzTME3DMIT1vWTx4unV1enmDCJqDpfTVZyTBwnOOHV06SeY43ZiYQEYEXDn jE0rMQLjJ0xgtk0pHUpyENHr9Y4ZM8bldqeVP8h5QeGERYu/yhEYsy3LZhZjFrMtZtuM2YzZjDMm STBt+uVlFWeNmJjT7kZ5um+ybdvlcp3Y1CQhHA4Pej3lQM6B0ltvvfW3v/nN/z72WHL4YTw2GQFg 0qRJP/vpT2tmz07r2bmkqNff/MeD9eN+dv/9gz4jSdLzzz+z8rIr0tpH8ARJiIB47bXXMsZ++atf +QOBfomDYoAKCwt/9MMfrrzkknTrcc6Y21Nww1eefvJ3d23astmygPMTqW8ie4oQmD9/5rduuXfc +Kq0RheIY7svX3edx+O5fM2aoR677bbb7rv/fhGWlD5iAAA5J5Refe1v/+/3d2za/LZpJfvHTjBn 4sTx3/m3e2bMuiDdg4Wcz5g5896f/eyeH/+4oaHBsqzkOSU+U0q/+Y1v3PLtb6e1TyeIwaLSuqt/ ZZjTbvra15kNbLDZ870777z5X38kSSOPFT1JlSNZlnVdF+4dEeIrVtnTcnwzxsaNG9cUb6iQgChB NBKqTx/IeYHX+x+33/5/Tz1VF69JnAxCyFVXXXXhRReJ0U4rJUSSLl29+rePPTZoVcGpU6deeOGF kH6DLpkkVde/evPNf3nhhXfeeWfQZ6688soNV18NGWmlzRmrmXXRkvNDD/xm3aDeQkmSfvDjH809 69IMECP05rLly6dNm3bgwIGBD7jd7rVr12ZAY8bo4bx84pwvrf/Fz/9nUf8TgzjWXf3N8y64MU2R WH2IQQTOz12+fM2ePbfeeuug6dGVlZV33HlnTk5OJgaLcyJJl1z2pTFjf9LY2Djwgfz8/HXr149G Y8LwSlOW5Z6entra2q6uroQHIDc395JLLhlqtIbCoKKfmaqaCSCipmnz5s0bVGmqqlpTUwNpjl9J wOVyDVW+Pi8vL2MHFwkIE2bhwoVDKc3Zs2dDppgjUFZW5na7B11XnE5nuoMc+kHTtKKiokGVpqZp uj7yA7KRwev1lpWV7Y/3L+qHyZMnQ6YGSywqs2fPVhRlUKU5Y8YMpyMjcSBxqKpaVFQ0qNJ0Op2j bxsxnNpyOBy1tbWtra3JPlOfz3e6TX5kWW5tbR143el0ZmBvngzTNIcqsCRJUiYTloZJajYMIxqN ZszMTMYwHMhAYap+4JwPVa/T6XRmMshXeMbPKOYM0yVY13XBt0yyaJjdp2maoXA4k3EyoVBoKA+z 8GeO8hXD6T7DMKqqqgZe//zzz92nfKarKMpQjTEURcmwahCnmUPdykDtpQSEv3XQW+JgKGOUJGOY 92YyqFYAEYdSmoyxDNMzzOF75jUmCPtuCCWFiIM2XEgrhjGkkquRZgCEkGEO/YRLc5SvGG57bllW aWnpwOvHjh0LBoMOhyMSiQy/msmy7HK5Bq0Rt2LFikzGGwkkGgT12/+KQS1If/BtArIsu91u0zR1 XU+IlGjptWjRooKCgswckPWDmGwDDwcsy8okcwQMwxBl//vJmIi6z83NzRglojGv0+lUFCU3NzdZ BZimWVFRMWXKlIwRI8A5FxnMA5ljGEZeXh5k8Exc0BMKhWRZ7kePbds5OTnOjIT9JyC8T5Ik5eTk JE+uaDQ6fvz4ioqKUX7/SXbZpmkuXDhI0sUrr7xi27bH4xlKaVJK3W63LMuDakyn01lcXJyZSOkT QETElStXipLjeXl5ubm5ubm5Ho9HVdULLrhg3rx5mZEzzlhNTc1vf/Ob4uJiAHA6nU6n0+FwmKZ5 1lln3XnHHVnZmwPA0qVLi4uLHQ5Hgjm5ubmaps2cOfOiiy6CTPqmEMeMGSMcYrQvAOCyyy6bMmVK xojhjDkcjgcffLC6ujoQCCQoMU3T6XT+6J57ioqKMnnai4gul+vSSy8FgISTNsGcBQsWLF++PJMi hIhlZWVLly6VZdnj8SQkx+12u1yuq666SlGUjPGHM+bxeB555JHy8vLkfsvhcNjtdt/zwx/mjjpJ +iQhR4ZhTJw4cd++ff54E6UEXnrppSlTpsydO1eOl1wTCp4QIstyJBLZtGlTQ0PDoF+7evXq03Ul jR6IKFH63e9+V5blW2+9NflWVVXV4489lhkHn4Cqql+49NKfBAK33HJL4sR65syZjz76aMXEiZk3 M4UbdP369bquX3HFFcnDnZub+/jjj5eXl2eSKuR88uTJr7/22qrVq996663kW0uXLn34oYfSHeTQ DxKlc+fOfeKJJ6666qr6+npx0el03nPPPZevWZOZ4LAEkPOioqInnnhC1/VHHnkk+VZZWdlzf/5z miotDUNPdXX1Sy++uOKii3bu3Jl86yc/+cn69eszOVIAoMjysmXLHnvssWuuuaa9vV1cdDgc999/ /2WrVo2emJP7c4LB4GWXXTboQcChQ4f+8pe//OlPf/r000/3799fW1u7e/fuDz744JlnnnnxxReH 0pjr1q0TbapGSfoIINac73znO4899tjYsbHQ3yuuuOKNN94oTVv9lcEp4Rw537BhwwcffHDttdfO nj37P//zP997772ampqsbMwhnjL8xS9+8eWXX54Rr62wePHiv//97wsWLMiw3AMAZ0xWlKeffvqm m25KbGiuu+66F154ITd19Y9PEYjIGZs/f/5HH330rW99a/r06V/84hc/+OCDm2++OcMaU0AIya9+ 9av/+q//csR90xdffPGbb75Zno1FlzPmLSp65ZVX1q9fL64UFRU9/PDD3//+9zMQ+dQPYrBWrFjx 6aefXnfddVOmTFm9evXGjRtvvPHGlAzWyYPbETEYDG7YsGHjxo2DevEBYKjr/TBmzJjzzz8/HA5n 0uXSDyLQ/Wtf+9rKlSvffvvtMWPGrF69GjISfh9t4MAAACAASURBVNifEkTgfPr06U8//TTGe89m S2Mmk7Rq1arFixe/8sorqqquWbMmw2ZLMjhjhYWFTzzxxJe//OUPP/xw4cKFK1euhOxxiTM2duzY Rx55JBwOi3O6rGjMBDGqqv7oRz9au3bta6+9VlVVtXbtWkmSssicsrKy55577vrrr29ubl6xYkVl ZSVkNkytHz2VlZVPPfWUz+cTJ+CpGqxTyggS1S4WL148ffr0fnulU8fKlSu9Xu+p9GVLN5BzBCgv L//a174mrmTTuGOMEEIozeL0G0hSQUHBDTfcIK5kV49zxgil55133nnnnQdxczjL9BDidDqzTkmC mDlz5syZMydxJbv0UEkSh61ZJwbi/BG+uxQO1mmkUQaDQafTec0117S1tX3++eenWLuhsLBw3rx5 Xq83EokEAoGR0pl6ZH1EExB6KttU9MGZwxyIL3JnDs6o8TqjiIEzTHIgPfw5vdxzy7Isy/J4PKtX r+ac9/b2dnZ2tra29vT0iJbilFKXy+X1eseOHVtQUODxeBAxGo0O9COlBA5dBwA66sCrEaNfdoHL 5YKs0pN4NSFERA5lkZh+eTLi6C2L9EiSFDsbJUSWZQAglGYu/rsv+sXnC0HKInMURUnQI9y5WaTH 6XYnO1HkM0yS+yhNEdx00k2iKF5PCHG5XB6Pp6qqKhHuIA59WRzheCbAqWQQnZDpUwMi7tu/f8y4 cUbGWw8JqJp25MgRHu/yalnW55s2FZeUsIzHgQOA2OOHgkFBD7PtpubmvXv3RjPV+7MfVE3bt3+/ cAGIlsQ7d+6klGYlFBwANF3v6uyM9Su27e6enr1799qmmZUjEUXT6g4eTER9c8RDdXV7du/OliTr TuexY8cEc0T607YtWyDN9TWGApWkgN8fjhfb5Zwfb2nZvWuXmSXJUTVt7759yXJCJk6cmPhBhO9m 62RNRJ9Go1HR5HLy5MkvvviisAgSCIfDK1as6O7uFjGep6tnU45+7T36UZt5JGdfJFaybAHjtd8F sj5YycwR8epZJKYfc7I+WMmSnHXmwJktyX0meda9NCJSN/HjSYnJVrrhUMhiVIBAMsf6jXTWkfXB OpOZc0bRcyYQc8YOFiGk//Y8W6QMhGgVOfwzkiRll+bkjHVCiKwo2TSlACzLEtImErezay+I9raJ Hwfm2GUYibZfiCjLcuZLSSVDZIgnVMOZIMm2bYsBShyIZxEJSYb4sWEWiUmWZETsozQzH4baD4SQ xLySZXl4ThFC8vPz3W53tiI/CKU9PT0+n09UT6CUji0pkWQ5W/RQSpuPHxdTUZIk4ZHLInPCoVBb PB8DAAq9Xt3hyCI9HR0doi2VyEquqqrK4kmUYRh79+5NbEILCwsdWWVOb0+Pz+8XvRElSRo3NhNV 3wcFpdS27eMtLYI5wneSXUmORCLJddpOKE1EFHnHWZQkv9/f09NzKvaIWAy/f8cdqy6/nGU4hz0O SVEe+fWvH3388Wg0KstyXl7eH598ckxpaVZCQAilQMiVa9ceqquLRqNOl2vN5Zf/f3ffnS3mEEl6 +803b/v3f+ecAyGcsZ/ff//ZCxZkKz5GUpS77rrrtddeC4fDuq4vWrSoXwJihtHW1rZ69WpRaBEA fvTDHy4777wsMueXv/jF0888EwwGVVWdMH7866+/DoRkR5Ilyd/Tc+WGDS0tLaKizZVr195x553Z Yg6RpA/ee+9bt9ySOPbtY2m63e68vLxsHR9IkmTbdnd396lv4hRVze4mVOrr+dE0TVEUyN7WJpl1 wlTPInP6bfEURckuc5LddNk9KIABR2FnFHMopYqorpYlejRN6xNyJEnZZU4/Se4z50WRx9ErTURU FCW5qp1pmpZlnVRST9dXIEg93XhaEZ2TfAUR4fSPJqgk9eOVOPg4FXr6BZ0l0igTOO0/SsTWJf0J sa7cp88cSDokgdQxZwT0kHjAYD+MIMGDSlKyqZL15Kt+zMm6JCdPPXFMl7EGHgOJ6efPwBFJcgrp 6TdYqQ+RQUSHw9HV1dXQ0CAkHhHHjRtXXFycdReYUFW2ZUVDIdGTUsQ5Ox0O3eGglGYgN07QYISD re2729r2dXcfiUR9lmUoikvT8oqLpowZUz1uXA2VpAwn6gnCOGORcFgwhyPKsuzQdafTmbibSWIA IBLydXQejoR7DTOiKLrDkVvorXB7Ckhm6TmjkNCVtmVFgkHTNE3LopQqiuJ0ODRdz4wkD0pY8oqb 3czg9BGTYqWJiC6Xq7Oz8/3330++fvTo0auuuiozXbMHhbBZ/D5fR0eHz+8PBAKWZYmeE8KHk5OT U1xcXFpaqut6+gabSpJpRA4efPVg7Vvd3Y2WbQACAgEkDNG22L79b8qys6S4eu7sNdOqLyAZqb8g mBMOhdrb231+v8/nSzAnkeVVVFRUWloqKvandTYKjWBbVn3Dh3v3v93ati/gbzdMw7YtQIlQxeEo KCmZPrP64jmzL5IVNZMzMxKJBIWSMk2hpFwul7tv+kq6IVbT3p6ejs5Ov98fDAQs2044lISPq6Sk ZHxpqaJmiDnJBi9ybkajQEBRtUTCVSbHqB8xtmkgoqSoVJJSRUwqlSYiOp3O3t7e9957L4VfO3pQ SYpGIk2NjT1+fzQaNSMRWdOEOhAnEpZlBYPB5ubmgwcPVlVVTZ48GVKtGsRYdnYc/OTTXze37JKI HIn0yLKmaoWM28iAIEgUOQJn/GjjtiNHts449NEFF3zbneNNq96kkmSZZnNTU0dXl23boUBAVlWM d1PgnJumGQ6HW1tba2trKysrp02blr5SOkJ9Hz266aOPHznessc0w4QoQDRKZUWRmc1tzvy+1rb2 Izt3vvn+B7MuWXnLzJnLSZpNTsZYR0dHV1dXOBwOBAIiOkdMPEKIw+EoLi4WbeDSR4MAlaRwKNTU 2OgLBsPhsGUYiqaJwRLBjKZpBgKBpqam2traqVOnVlRUpFySB5IEAD1dx1o7drW3Hwj426JmgDNU tRy3q7ikeNr4cbPzvWXpHqNkYgK+482tO9va9wcDbeGIHzlqWo7LWVRcPLV07GxvUcUoiUmZ0hS7 8lAo9Pbbb6fqO1MCKkm+np4jR45YjAX9/rr6+l6fb9aMGQ63W/TbENpBlFIOhUKbN29ub28/++yz FUVJ4TATSluad773zx+GI72Es+6eiVFzmUw7vcX7KNE5cEQEBOAAhGqai9ls5643Ojub1q79cW5e SZoETkzC+rq6iGEY4XDD0aPt7e3Tqqq8RUWJTAcRgyKiZHbu3NnW1rZgwQKXy5VykoTG3LTpyY2f /cYyDQTDNucACWiODgSwLQaEUkpQkjRN4TY/cmzno7/7xsUXfGv1F2+hadPjvb29jY2Ntm339vZa luV2u6PRqKIowpfKGPP7/Z2dnfX19VOmTBEpxekgAwCoJPV0dh45epQh+nt76+rqwtFoTXW1ommG YfQbLJ/P99lnn3V0dJx11lmU0nToTTFe3V0Nu/f9tbHx02C41475LSjnIsWIcU6cjvzyskVnzV07 duxUSJvqFMT09BzZs+evRxo/CUZ7bcukhCA/QQzuJZqaW1mxaO7stWPHTR8xMalRmoio67phGG+8 8UZKvjBVEBrzcEMDkeWO48d37Nolcp8PNTTMmDFDRIQlosEhHkZbX19vWdaSJUskSUqJtFFJ6u0+ 9v6HP45E/bYVbW9diMQDADYvjIT8TrcTkQNA7E0InCMQquu5Rxt3vfLKT6/acJ+saimXeypJ0XC4 ob7e5jzk92/buVOUodp/4MAsWVZ0XWz6EhBhXs3NzR999NHy5csdDkcqFxVCCCGbNv3fBxv/h1Kd M25EvgSgAIJlvihJTohVrIF4zSOia27LMP/26i9Ni61d+2/C2koVPQItLS3Nzc2EkObm5traWsbY nDlznE5nol2oONtRVdU0ze3bt3d2di5YsCAdkeFUknq7uhoOH1Y0rfnw4Z179ohM4vr6+ukzZgx0 l4kTg/3799u2vWDBgpQzR9h0+/a/tGXrH6KGj3E7GgaX24FE4YxTBOSAHG2GhhnetfvV2kMfLV54 /TnnbEjH8iY05v79r2zZ8YdQuIfbthEF3aFJssaSiOEAlhnduev1/Qc/WrrohnPOuWpkxKRgVRQa kzH26quvjv7bUghCqWkYxxobkdKWpqat27cnqkVoqipSDvpB3FUUpaGhYc+ePSkJTBG1Mrdt/10w 2IHMam9dJDQmwYjH8zen24vIAECYmSg+iP8AHA7PwdrPNm36a3LYf0pACGGMHT1yxLAsX0/P5m3b EoX7HE4nTzr36cccVVVbWlq2bNmCQzdEHAk9lDbUf7rxs4clSTeiRkxjAnDsBR5EznncEBec4QCc I6GK7nC99vdfb9n8Dkm1idfW1tbU1KQoyv79+7dt2xYMBiORSF1dHcR3J8mSI444jxw58sknn6Tc 4UkojYbDR44elRSl8fDhrTt2JGovqKoqPg8qzKqqHjx48MCBA6lljvjzt2z53Uef/Mpi0Ug41Nm6 0Ndzoa9HAQACMangAJQQArLu8Fh29M13H3j33UcQMeXEEEK2b3ty46e/NM2wFQ12tS/w9VwY8LmQ nxBRYZUQIusOj83MN9994J23HxoYtXIqGC31iKhpGiK+9NJLo/yqlIMQ0tbSEjWMSDC4bedOEQ8k y/LM6uqZs2YJrdFPyJL15r59+7q7u0dfkIoQ0ta65+ixTzXN1d1dhCQHEADDBQXvuXPKAal4uzAj xR4dARCBc0AkiqJt3vpKOOBLsahR2tneHggGkbHtO3eGw2EAoJRWTZkyf/58zelMLCqJX0kwSlXV +vr6pqamVJFEKGWW+dnmRxnjzPaZ0TXxO0dV7V1JLYkp8Tgt3I594oiUykDgxZcfiISCKaweFggE jh8/rqrq3r17haIEAIfD4fV6RUDMUErqyJEj+/fvTxUZCbS0tDDOfT0923ftEu/SNW1GdXV1TY04 JRjKApAkaffu3X6/P2WDRQihdP++l7bufFJV3f4es6frMsbcABAKzTajQUKosOwgLsycIyGKrrk3 fvb0xx//KbUWAKF0/75Xt+z4vay4Ar3Rro5VjOUAQDg027aDABR5bKEVRgkiUKLoWs7Gz/+08eOn R0DMaPmoqiql9MUXXxzl96Qcwszs9fkUTatvaBDNaQkhNdOnl1dWiuP8gXKWmAyEkHA4fPjw4dGS QQgANB771GJGNNQdiVQDAhDIy31fd41lzORCvJPMTM5i2gERAFGS1M7u43X1W0bLkb5UMcZ6e3pk VT3W1JRoTD9l8uSp06aFw2GxwAxkS4I5jLFkm2v09Bxr2t7euU+icjg0L361XXVuo7IHuQ0ACMA4 cIbC3mQMkQMicIaK4mhsOrBr98ejpySBtrY2WZbb2tpqa2vFldzc3Dlz5lRWVg66R0lAluV9+/al MFCEUGpEIn6/n0pSXUODMGMlSaqePn1CWVkgEBhUgydAKQ0Gg42NjanSU4TSnq6jW3c+qSpOf2+v r3e5uK5pxwqLP1RUF+MM4nsCYQskkshlSf/w4z+2Hq9NlQankuTvbd6x+ylZdgR9Pb0954vritpc WPwPSXL/v/bePE7OqsobP/c+W+3VXb1v6SVLd6ezkxUSQgIBQlhkQGVzGETAeWUbQQUV8ecggzjq oL7qC8zPKCijggvoCygIYZdAgEBYsqeX9FK91Prs997fH7fq6Ur1kl5qyW/G88mn032rup5vn3vu ueeeexZKCQAQxoCm3F/cvcMAy5LnhVce7u78YLpgZgWdVz149NFHs8ZLS0tn87E5IYSQrqqmaaqJ RPfRo3ywrra2vrExEomMlTNIm5mZqqG/v58QMqsJRogxFol2ikjWdAEQBgQSPurxlTE2WgJgXDMT UhsksixjaGhKXZimjsrUdV3XiWU5/Z1CoVBTc3MsFhu7ncCY0x/GeHBwUFXV2Us/X8zdvW9Zlkns GKO8hzgT5acQ8lFqUcYIHcfMJFz6GTACpmns3b9zlkgcSiaTyWTSNM19+/bxEbfbvWjRomAwyDeY iTQU/3O4ksoVGB4NRgiJRSJ9vb18sLmxsa6hIRqNTqQxs0AeTS+B2YMBgI/2/9+kOkSJGR05lY/L SmdpeacshyhlY81MbhYwBoIgJxLDO3c9ATnabgFg/4Gn44l+Sq3hofV8RJK6QhWHZFcZc5ZWFjEA BgiJajL6xq4/TBfMzCVeFEVFUX79619njV9wwQUngtIEAMM0AeNkIuG4MmtragzDyHLYOd9kEUJI 07RZFs1FCDFCDCMOAIZRxQddnr1YkCijXJJSAAAARs1MAGDpIykGrOkxyJ2cIYRsy6KUapqmahof rK+rwxhPbkY5q5Ffpmvp3509xSI9AIJtO+frXlEqZ7addmQCo0BpilupkzoDShgljAIgLAwO9rIc +ctUVaWUxmKxcDjMR1paWsrKynjf6XF5Ailgqe8HMiqVzJ5M08SimFRVy7YBQBCEqqoqDjLz0Zlg siRZ13XLsnKww2FsGerR3jdkyR2NypS6AABQvLTsoCi6CBmn0AFHxHc9xpgkuw8cfENL5MBdgAXB MrQj3X8TJXc8ihnzAgBCamn5PlF0E2KlpIVrcDqqwZ0tWJRcB47sSsaGpwVmhrfngiC43e5HHnkk a3zDhg1lZWVqkaqFZxGjVBAEVdMwxh6Pp7S01OXxOMEZ427IMKaQH5e5Gd878mUsiW5CLbfnoKL0 irIlS0FCbZbysLBRvcCO+cpNTsaAUipLnixssyTepV7TdWLbHo/H6/UG0jFYk6hLOJZvOSyRSagF wCgpAVARCgvSqwhKGSZ8F2Gjxz3Gr4AYSfEHABgDBMi0DMYYxnj2POKx606PFkVRnJ6AYxUljOEY 9+3MGsUocT5rqsrXXSgUUtxu7nEaV3GPleccTlY83qdpI4wxXW/kI4HALlkJWqYBo87D0bM5AGQa B5gJ0dhQPDHo9gVmD0ZTI6o6AACqWsdHfP43ZaXEtszRowkHwIGkbV5GGABgJCST0aHhHm8gNPWH zkRp8hSRX/7yl1nja9asqaur47vxiUCCKOqqWlpaevLatZIoCrJsmiZJV1QcVylkqlFKqaIosizP SlUxhjAOBOvtzpcDwXrKEKOMEpJpZjpnc+6wAwBK01MLwCgTBKmsrH6W3MgiURSpbXvd7nVr1mCM RUWxbTuzwuNEW4jDHJfLldUiaTbk9ZQzarncSFL+AkwAKCGUMsqAAmEMCDDKGKTsBQCgNNVvjdsO hNhlococBiQyxmzbDgQCKSWlKDzMKGvzmGR3ySFJkqSramVFRWlpqYAxliTLssZ1yo8rz5RSWZZl WYZcYDPMOKEWoZapVwMAgO3yWJSSVMTHeGdzfhNDCWMMGEKMkkRiuBJaZg/GtOOUEmKbllkDAIzZ Lo/GmDvl5hoXzOiPwBiyTUPXp9fwcdpKE2Ps8/nGaszly5e3tLTE4/EC5EVMhRhjbo9HkiTKmE9R eEu44zqAMt9AKQ2FQpIkzWYdMsYQQEPdqj17fmfbJgCmhEHG4neugFJGU9rkTMMCm1glwYq5LSdN 9IiZoKJUcblkWTYMwxcM8qRJZzvhYduZ3BjLN0ppMBjMSTFTzqKa6sWUIRHJGCGGmE3S3RcYMAAC oxsMJYzS1JKghBHGVQOeU98BOTLGJUnSdb2mpqaqqkqWZYRQPB7PlJPjShFvsZcTYox5vF4EIMqy 5HLxyXI6U02OxKGKigqEUE6MTVFwYSQwykpKn8M4KYiKKASJbYPjM4Fjr4AyTE4+OQLGLldutIQs ergjOVjyMuCEJCqSFGSUZJuZx9xHHUOCIMqya5wXJqZpXhth7Pf7x2rMhQsXtre356nl5MyIUer2 eHw+n2WaFi8/MfEloyOCkCH3kiQ1NTXBrNchY6y2dkVNzTLTUoHnJgKk78dHr4Achx0XbJo+R5iW tmTJlkBpZQ6D2xljoiQFg0Hbtk1dzzRbnDdkvhnGO/Q1NTXxwhA5gTSnYVVZabNpaQwoJXw6uE7k DinGMiONMsxMYGBbZnlZ3Yrlm3OCBAD8fj8PDhcEwTAM52A+uapyfOWMscrKylyBYZR6vF5/IJCS 5In3/rHyzNIHpsbGxlzh8fuqZdmPsBgsLfUF6mVXWUqGAYCm3E1ZZiY4ZiYDwojbHQwGqnICxuUq 8bjLGEXB0pJAoN7lLgcGxDmUjHcfRbl/kzu+CHG7/SUltdN66DSUJkIoEAj813/9V9b43Llzly1b FovFil6jMIsQQjW1tRhjQogj6TBG6Pmbs0ZM02xubq6trc2BJUWpIMmrTvq0S/ZT23Sqr1AKAAgB AkCAEKOpqGCuQAGAAdL1ZF1N2/r1l0JOHZr806prajwej2XbY5kDE6sGADBNs6qqat68eTk7C1Pq 9YdOWn65aRncwuT2eEri6aiZmQ5fTZmZlAFlTNfVrWdeVV5Zkys8brfb5/PZtu2cTkahTswWTvxQ n0MlBQAI49raWgRgE8ImdS6NlWfTNOfPn19RUZET5jBKXd5gVeVi09AosQi1GOHRaak3jGPZZfgT KQPT0Joal3r8JTlZWbLbV1u93CIaoRalFrEtxyKBsd5MboukmAOUgWnpDQ0dJaHqaS2uqSpNrjF/ +9vfZmU71NXVrV279oSyMR2ihASCwZaWFkIpO7aXhkPjjpimWVFRsXLlylwlnzFKq2oWnbLuRsPU bUu3iWUTi1GLUosSi1KLWCallk1MaluMWYxZhFqGHvP5Axf/w1d8/lDOM8/4Cb25pQUhRBmbCnP4 e2zb9ng869aty2HjUr68ly29aGnHx3icACCgLGVmpgEzAKCEp+kzhFK7iKpG164+9+yzrsxSXrOk +vp6URQzjcexGmrsn8AYI4QsXrzY4/HkCgkAUEJKQqGGxkbeZRdlEGQIdtYkIoQsy6qpqVm+fHmu mMM/pH3BeYrip8yGDLU4oQMxQ4dSYiuyd9WK83OysvgnLJi31aOUUmI5Ohq4m2tUclJPd24R0mam LUnK2pMuBIBpafAp+TS5xvzTn/6UdScYCoU2bdoUiUSm/rwCE6OUh7N9+OGHvCSHTQiho8TSpypn xLIsWZbXr1/v8/lypaoYY8BYa/vZ4YG9r+38T0HwcKGhDKjNWDr4ljEgLBVpRGwCwC7YdkttfWue qtRQQsorKlqam9966y3e24BQak/AFk7cy7Fx48aKiorc6nFGKRaEs7Z8uW9gX2f3G7LspzZlAMRm JMWQlLKi3ONLATDoaqylefE1V39TVpTc4vH7/U1NTR9++OG456csTeoM6rre1tbW1taWQySpD6e0 sakpwgspYMwYy5TkrJniPxqG4fP5NmzYkNsqAYzSyur2ZYs/8erO/1RkP2DEHLcJpMxMrpW4+kyb xgiAmaZ6+qlXNbUszeEZpbxy/pJFl7y28/9IkggYjYbx8jWVcXSjaeUOgACYric3rr+8Zd5J0wUz JaUZCASeeeaZLOXo8Xi2bt3qJJOcmMS11YLW1s7Ozq7ubgEhrhSIbduEsLQWIPwbxnjVr4svvriy sjLnSgEJwtp11x049GJ3z25ZdJP0cks5NJkTYMQoBU2LrV1zeceSLXmtRcgondPU1NPd/d6ePYIg UMaIbVMAalmEUr7HUEIs22aMEUp1Xd+yZcvcuXPzoccpIS6P//xtdz3w04tVdQhjiRJmc84QSO0x hFEGhDCgYNtmwB+4+sp7giXl+aidU1tbG4lEPvjgA+7h4bVdMvfcrK1F07SGhoa1a9fmw0/FGMMY L+zo6Orq6uvrEzAmjNm2TdOAuK8zNWWUEkoZY2eeeWZpaWmOJZkxYGzFsn8cHun84KMnZdlPafrA yx2XdFSkKQVKGQVgFJLJ6NLFZ23a/Okcngk4mOXLLhseOfLBR09Ikp8bvCzDi5qK8E07dghjjIKa jC3qOG3LGdfB9B1fx1eawWDwhRde6O/vzxxECF144YWxWCx/6zlXxCgVJWn+vHm7d+8GhBilLG1P HUOEEEKSmjZ/7tzly5bl4++ihIiy0tS0Yf/+l5jCayCmw4xYytvCbzYopQJGSxadDbl2ZWYRX4qt ra1vvPmmqmkCQoQQypidVg3AeykTQhkzDCMQCKxdsyZ/qBilNbVtSzou+Muz33K5SlKcoQy4Dc6A 2enrMsYMPXLymo/PX7Ayf4UaW1tbDx061NnZKYoiD/vnN2Y82IDrK/5V13Wv17tp06b8Nb+lhMiK Mnfu3Pfee08SRQZAbJty1ckVN2OUK3dKVU3raG9vb2/Px0wxSrEobjj55oHw3v6BDwTBzQAYYQyA EJa+bGGUpqIdGAPT0GprFpy/7QuiJOfjjLJx/c3h8N7e/ncnB8NP6LqmVVW3XLDtS7LimgGY4yjN YDD46quvdnV1ZY1feumlThDG/y+orq4OYTwwMCAKAmEs1QqJ9x5hjFDKKCWEaJo2b948hHH+1mF1 5UJgSFcTGAmpa0ea0puMAWUMGFBieX2V1dWtecKQSYyx0vJyj8dzpLNTliSSNp84f7gdxa3OpKp2 dHT4/P78FbXlp7jmxpMxEmxTRQjzNOaU1QBpvz4DSogooOVLt+YJCSdBEFpaWt5++21eJdNRkc4+ 63yTTCaXLl1aUVGRVzwAUFNdTSkdGBwUMObmPy/XAZQSZ74ISarqwo4OmKa3bupECXF7Szasu/HX j15DrAQCTCCdcZBp5QEQvsCotfXMm32BvFTUpoTILt/G9f/yi19dSewEAkzYaO2wUdUJXHtSSqyz Tr8hWDrDMrWTKc1AIPDGG28cPHgwa/yyyy5LJBK0SG2IZ0aK201se2hwkPcAsHlMRkYcIt+rdV0v KSnJMxZkaBplDKN0yiADBoAYOPcetmW4FCM17fkmxjDGGOOhwUHF5eLhKpQH9aQ9d1w1JJJJf0GC cEOhOZLoNvQYxhJwt316X4H0V0SJiFFFn/wVaQAAIABJREFU+Zx8g6mrq7NtOxaL8Tr/md5DgNS2 wu/ZW1pyEK19XAqWlNiUhsNheTxJBgB+WaRpWiCQg5Sbyam+/qTS0ubunrcFwZV2X6YD6VLndMYY WJZWW7ukqSmXscZZxBirrllUWd566PCrkuhJI0mH92eAMS29unLBvJZ1M37W+EqTMeb1et97772P Pvoo66VrrrlGVdVJLgf9fr/b7R53PPNHy7J0XS9YlBKldHhkJBwOyy4XcCHLeImPUMZUVc13Dqht G2oihpCAsQAMwGEAA0Dp4zmx1OQIIXZekWTSSCQyEA6709Pq8MdhDiAUi8UKk+5FiWWbJkbMtmyA jGvQjIONgKgogGXNqjLAVIiHag4ODjrV2iGtKyHdRZIXhXK5phcjPTMilI4MDw+Ewy6XCxhLeZwA wOn3SSljTNM0XdfzioRRKkhSTfXifXufk5Ugj6JLxxbwd6SKqmhqpLpigax48neAY5QKolQemvf+ +09TBRBCqVwySB1NHDCGFqsonye7PTM+KI+vNBVF6e7u3r17d9Z4ZWXlY489Ztv2JMrO5XJlOUA5 Pf74484sEkJqa2vb29sL158SoaGhoXgyiVQ1k1lodEkCY4y3CsgrkLLyuYzgQMDSNNuJm0EopT1F AQDAHwKEq9yefNu8o6Qmk4ZpaumC5JxSjaj4V8ZkReHaId8kSx7bMFwuoFk1ajJmRhBAdgEv/JVX Mk1zcHBwYGCA54xm3pU7Soqkjbt8gwEALAjhwcFEMqkmkxlThdCx2Lj7tQB4KGWammQgp2N9Rq83 +eJijNmmxuv75Zssy9JVFYE0GjfKE/AywFhG0mmSMDMaX2nyWqpjx6dSu2Wi+/QsTbp3796lS5fq x67SPBGv3HHWmWfe/+CDTvp5VkQbAEiSVFtdvWTJkrwiqa5t/eyNj/34B7d++ME+XlWA0WO+YgHO 3rr56uu+4/YGCtCLirsRN27c+PKrr2qaxtXiWOaIouj3+U455RTI/91UZc3cjo5tnUeeMNN2JDrm P0AAHg+UlJ1aXdOab/mRJCkSidi2PYlO5M7NcQ9YuSUuyWecfvpDDz/sZL5mTxZCkig2NzV1LFqU bzwAYKhJt8xMTQPKGHLyMgAYT38DxsDrYppaiFBuXUvIIjFUFTFgCMCpnpkBxu1ilj6raqcTHs9F Mfct0YtFPNzgE5dcUhYKfeyiiyYqELt169Yf/fjHgWAwj4cIxoDSxUvPP/UM9f7tV4xrC1RXV3/6 s9vrGxoK1tSbEnLqaadVVFaedfbZPT0943qrFy1a9IuHHqqtr883Kn7OuvZ//fprX73xkd88YBi8 9jAQCiQD13XXfOrr3/yxy537/m5Z5PP5Lr300gcffDASiYw7Xwghl8t13nnntbe35xUJpOXnqk9/ 2ut2X3HllbzRxVi65JJLvv/973tzF2g8ERgEUFI6x+0FGtMYIAaMH5WyzgRuL5SVNecPiUOVFfN9 HlCTOqVptSkcAwZj8AShomI+/wNm9pTxNSMvzT2zT5w6FTLtkk/w6WeeuXLlyueff37sGyRJuuKK K/KqMTORzJ8/v7y8fFw/Rl1dXSAQKHBkAmOsfeHCrVu33n///eO+4eKLL66try8MKkqIJLvOv/Cq H/74kaQ2zg4XCAQ+c+2NBdCYnC688MKSkpKzzz6bV2MbS3feeedtt91WACSQlp+zzjln2bJlO3eO U3dZUZQrr7wy3xrTAbN+43Xx2Mj27f8RjyVtkr5+oalcIADw+z1Xf+ZzZ237Yl47CQMAo/TUzZ9T tcTPfvq9oZEosZ3A59Fge4/Hdd11nzvj7FtnEys6vtI0TbOmpqanp2cWf8JxyO12T7RP5om4l6e8 vHzcVwVBKGTtZB7uN+5L+eiqeHxiDBCaiDkAkHqpgMBcLpfb7R73WCBJUoFPQqtWrero6HjrrbfG vuTz+c4555xCggEAQRAmmixRFIPBYGFgMEpdLt+FH7/rl7/+6Ln/m93BgdPHPnbmJZffC/nve84Y kyTXeR+78ze/PfDY4w+N+56tWzd98op/nyWY8SXPMIy6uroFCxbM4BP9fv8zzzxz4MCBrPHrrrvO 6XfI87tVVS2ksYkQEiZtvFVIVTVJd2xKqSRJs6l8PGOahAOFjzCzbXuisvm8PFohwZimKcvyuC+5 XK7Cl6qZpB2Yc7NfGOINHVetWjW27Q2nVatWQd7CRbOIEoIFYfXq1Q89NL7SXLFiBcx6pU92PJ9Z GQ5K6biBKdFoNMtqKLCoMUp1w5hoHU4EO09kmuZEFwu8EEZhhCyLJunt4Wx4BSOE0ERFjguvpzwe z0S2LaV0ki0wH8QYMyaWZMZY4QuBT7KnFn67neSJOdlO/vvc9hyfEMIYc3vT4zkmSosQ4vP5Fi5c WBggjLHq6uqNGzc++eSTmRHIjDFVVS+99NIc1gqZLvHWIJkjfIkuXboUCmuM27bNY2ZFUXSey8ss lZaWtrYWIl3KIcuyJnJo8sj2QoJxzExRFN1ud+ak2LZdVlZWgCupTDSQjlcdl/IdLnosFgTpsNmJ wPCg49k85X+S0mRMluWvf/3rkUjko48+8vl8DosNw/j85z/f2pqvekLZQChtaWn55cMPX/6pTz33 3HOBQABjzNNObr755htvvLHwZibPerv++uu7u7uff/55v9/PmcMN8KuuumrTpk0FPvQtXLjwW9/6 1i233GJZlmNymqYpSdIXvvCFnBSNnzpZlsWLsWdFsOu63tjY2NHRUTAkAMAo9fv9d91114033tjV 1eX0SuBei6997Wt1dXWFYw5jgBDfUcZa3JTSUCgEBd9uJwITDAYZAMrH8fy/JaUKoixf/pOf/OTj H//4nj17JEmybVsUxVtuueXWW2+F/PuqHaKE+IPBn/zkJ7feeivvT+fz+W655ZY77rgjV20JpkuM 0ubm5h/+8IeXXXbZM888w+07Sukll1xy77335ra82PHBMBYIBD73uc8xxm666aZMV8Y999xz9dVX 57X401gKhUL/+Z//efXVV7/99tuBQIDvKKqq1tTU3HfffVnZbvkmxpiA8dq1a3/0ox9deuml+/fv l2XZNE2Xy/W1r33t2muvzWEZoSnS6tWrFyxYkEgkMuuVmKZZUlJy7rnnFgwGDy1Yvnx5W1tbNBrN dENbluXz+S644AI868oSBfXFnAhECWlvb3/qqaeuueYar9e7aNGi7du3/9u//RsUUGM6SGpra3/5 y18+8cQTd9999/PPP/+Nb3xDkqRiHcw5pIqKit/97nd33HFHeXl5Q0PDd77zne3btxdYYzpgGKXX X3/9U089tWbNGp/Pt2LFij/96U+33nprgTUmp5aWlgcffHDhwoWdnZ1Hjhw5cuSI1+v9/ve/v2nT pgIjAZ7zQ+nKlSuffPLJyy+/XFGUFStWPPLII7fffnuBHeKMMUrItm3bfvKTn9i23dfXF4vFYrFY X18fIeS+++5bsGBBIYWHErJly5YHH3wQIcTBxOPx/v5+VVW/+93vLl26dPZgcm9pThTjeeI0w6CE 1NfX33///XfddZfP5+MuvKKoKkoIwvjcc8/lu3FRdMFYSD6f7xvf+MZNN93kBK8US4/zWO4tW7Zs 3LhxcHAwFAq5XK7Cm1EOzZ0796mnnvrud7/7+OOPL168+LbbbstHveEpEs+UnDdv3sMPP9zf319S UqIoSrGuEBmlmzZt+vnPf/7FL36Rp18vWrTo3nvv3bJlSxF8TZSecsopDz300Be+8IVdu3YBQGtr 67e+9a1t27blBEzulSZvIBMOhzMHq6urJ/KjF4W4tuLdr4po2cGxpUNOEKKEIITKysqg2MyBtGqQ Zbm2tvZEwOP3+++8886vfe1rJ4gRwCW5qqoKisocvr2dddZZa9aseeyxxyilF198cWlpaVHsAA5m 8+bNO3bs+M1vfmOa5kUXXVReXp4rMMcoTYyxIAiz/FzLsubPn9/R0eFIFWOMd9CdPDJjBsUyUq1R ZhrwkSqWMYt4kSzA/A+czQfmCgn892LO6O35bHibOzU3e405tv8SnEiTNTM8jLGSkpKrr756FNXE 8aSTULaimCkYn8931VVXzRIMjGHOMUpTVdVU78bZ0djI26kcqXgNrmk9iIfOFXHPFzOi5REA94IX EQ/OxJNutlUsMFmBjTyzoJjMyVh1k6c5FIDcbncmK4ouyccwJA1jlnhm/Os8ucP5MbXdFgkMjJFk 1NxciET66ZLL5WptbX3sscey9hxVVU8//fTh4WFuty5cuLC2pqZw9eWOJUEQDhw8ePjwYUIIxliS pFUrV7rc7qI4lRDGwNjrO3cmk0lCiCiKvPieXdgQQocEUew7evTdPXv4j4yxk046qaysjBQ2k2cU jyDs2bOnr7/fYc5pp51W4LQihzDGiUTi6aefNgyDGxNLliypqqoqFnNESfroo4+6u7tt28YYu1yu k9etg8LGCTnEm2i+vnOnYRiUUkEQ6uvqWtvaiiY5otjf27v7vffAseizlGZxLyKc3UBRlPr6+sce eyyr+nSm0gQAWZaLazLYtm2apmPTKYpSXFcXlzNI5eFK+etXMxUihGQ6shVFKXDmTBZxHxFP7RdF kd8pFQUJjyrLrItYdEl2mAMAGOOJcrEKQwzASDPnBJRkMbM8BI/LK9ayZ4whhPi6IoSEw+FIJDK2 ZH9mDOOJcLmU6botZPLD5MQzZ4plSY1L0/W95IOc7Y0QoqpqsQwENMY6OaEkmXfWLC4Yh05ASRbn zJnT3d3Ni+4oilLcMpqEEL60eI3CcbeXTGul6Pvz3y3NSehEszRN0+RNB3iJ/okKcBSGeHKq82PR JdmybSstyUW3NIHnO544lialZsZkiY5DmlJaXl5eWVlZLBchxjgajR46dMiZuUnWGLdJN23a1FY8 Z4coiq+99tqbu3ZxB6tLUT75yU8Gg8Gi7Io8r/6/fvWroaEh27YVRVnY3r5p82arSCaMKIr79u59 8umnHZPq3G3bGhoaimUyiKL4xz/+sbOryzRNRVGaGhuvuuqqYsXoCILQ3d39k/vv502HBEE45ZRT lixZUixJliTphRdffPfdd03TFAQhEAhcccUVGOOi4BEEQVXV3zz6aDweJ4TIsryoo2Pjxo1FlJwD +/f/6cknndtsMfO0y9Kd9ib6fcaYLMs8hnbGIHhdOMMwxhpl0/pYQRAuuvDCM848c8ZIZk8uRdn9 7ru2bQuC4A8EbrrhhkABi3KOpR07dkSjUdu2FZdr9erVN9xwQxHBPP/ss0//5S+UUkCIEnLlP/7j ony2EjkuHTx4sK+/3zRNSZYbGxs/ecklRQRz+MCB/3f7dsM0EWOiKJ57zjkXXnRREfFQSvfu3Wua piiKVRUV//Iv/1JEMLZl/fW551RVJYRIknTy2rU33nRTEfG89vLLTz79tFNzb3qHcUmSenp6Dhw4 MJujBCFkzpw5jY2Ns986uOdlxvYC19oz3gCwIOjp208AoJQmEolAaekU8SCExg09m1kILsIYIeQ8 mjHGj8ZFZI52rIeX1yubDZ7ZbNVYECzbdk58XPaKlYKFBUE9tsEfP6oXrbSVIFiW5eAhlPILhqII DxaERCxGcifJsyQ+WZkj01CaCCFZll9//fXZ4xgaGuro6IhEIrP/qOkSVy7HjKS/KdgScqIpdS2m JYc1PWpZmiL7Xe6gx1Mmu9wonVxcADCZNFaPjzKnKHiOnazMaSuKvuNtyyBDgxclvCyLMllUxOiX E2FljT56AosEcqF8p6E0McaFL26aQ+KqytD1eDwei8U0Xed3OKIoer3ekpKSYCCABSGvE8zn0jKN rq7XDh1+KTy4LxbtsxlhlCGGEZZKgnUVFe1tCzbXz1mKBKFguyuXeNs0E4lEJBrVNM0wTR6a43a7 S0pKgsFgIasjY0FgjGmqmojHo7GYbhg8hFAUxUAgEAwG/X4/xrjA+xyj1DQM3nsSYSxLkpS+TSqw HTSRUiiKnuLCYxpGMpGIRqOqphmmyQvXOitLEMXCCI9jkSQTg9Foj6oO6XocY9njLQ34qktK6rEo Qj7aXYxLsizv379/xk/KogI3ukAY66rae/ToSCxmmmYykbBsm6aJH0aCwWBjY2NDQ4OQH23Fp7Pz yGtvvv3zcP9ey9YxlhESEUO8cZ5lG739H3V2vrv73T81N67ZsP4z5ZXNBZB+LAiGrg/094eHhmzb jsfj/LDm8Ach5PV6GxoampqaZFnOq4LgKzAWiRw9ejSpabquJxIJDobHePC777KyspaWlqqqKpRn hcVnLRaNRkZGIpFIUlVNy+K38LyadSgUqqqq8vl8hdxRAEBNDvb3f9DX/1480W8YCUJAlr1+X3Vt zeLq6navryzfnAFnZWla79GjI9GoZVmJeNy2bZoxXwghv9/PV1Zei3hxMMSyOrtf3Xfg2YHBfWpi wKI2JQwBIgQU2RcINLQ0r1vYdmYgWA0z5c/0lOaedILHLEkUxYIFpvEj1UBfX1dnJwjC4MBAUlXL KyoAIW4ycOKRoX19fYcOHVq2bFnplF2TU4WBMQDsemP7W+/8glBiW2osukCWD/mDHsJsxIAywIBE LAhul22RPR8829m5e8uWmxd2nA5505tczkaGhg4fPkwBoiMjw8PDobIyRVHs9KbCuRSJRAYHBw8d OrR06dLq6uo8qXLuXOvp7OwfHMQY9x89ygDKKiqSySSPpuB4bNvu7u7u6elpbGxcvHixy+XK01LE gqAmEl2dnbFkkkcsWZaVKTMjIyOdnZ0ul6uhoaG1tVVRlPzuKAghjKPRnvc//MOhQy8mEmGLmJQx RoESAOCSgoL+2nnzTlu+9GPBkpr8bbp8ZYX7+7s6OxnGw0NDsWi0vLKSrywe30IIIYQMDw8PDAzw lVVWVpYPFnHO9Pftef3N+/v691i2gQAJolcEgab7npum3tu3p6v7nTff+t3qky45acXFeEbm0VSV Js9tGjt+1llnlZSUTKvcP7caCnPS5/Zs56FDff39gPHhffv2HzhgWdbiRYuqqquTyaRzM8DP6Qih 3t7ekZGRk08+ubq6Olezy5Pxd+588K1dP5cUbyxqRqNbAAmG0SzJf1Jc1QTs0RQDACwIHk8wqUb/ 8Pg3GYWOxfnSmwjj/qNHOzs7sSR1d3bu3bcvqarz581ram7mxqbzUH71Nzw8vGPHjtWrVzc3N7Nc iz7C2DCMQ/v3x5JJyzD2799/pKtLkqTlS5e6vV6ecciJTxYhZO/evcPDwxs2bPB4PDne5BBCGIf7 +48cOQIYR0ZGDh46FPD5WubNi8VifEKdnGhd1/fs2XP06NGVK1eWl5fnSW9yG3zv3qd37nowmQzb tm0aqttTDkhglFERGAVGGSEsGh94+W8/2/P+M6ed+tmOji2QBxOYa8yerq6enh4kCJ0HD+4/cEDX 9Q5Ka+vr+epOJR2mGxoODAw899xz69atq6ury8dkffjhH1/d+SPT0omtR4daKA1WVH0EIANQQKl1 JYpuAYOqjjz1l+91db+3bettimvajaCnGmyMMR63z1pJSYmu6/Z0iFsu00I5Y0IYH+3u7h8YwKL4 /nvvffDhh1y/Hzx0iFcn4Ro8M9ZKkiRVVV966aXh4WGco3hjhPHBfX99e/fDkuKNDBnR2CYAAQAw jqX1AABv0AwAFChllDBZdtu2/eTT3wv3HcpH5SQsCIP9/V1dXbLbfWDv3rfeeSepqgBw8ODBkaEh Xrnd4U8q2EIUCSGvvvpqT09PrpjDCSHEKD188GBCVS3D2PXWW4c7O/nNaWdXF191DgxHdUqS1N/f /9JLL1mWlVsWIYz7e3sPHz4syvLhQ4f+9vrrvb29+w8c6O3pSZWtzACDMZZleWhoaMeOHQMDA7nl TAoPQgiht9/+xY6X79H0qKlHhgZWRIbPT8QNAMy3NsYY5UoKy24lGIuH//DHb7z62iNjC+jkAA/G /b29vUePSory4QcfvLdnD0+HO3j4cCwS4StrrPAYhvHyyy+Hw+EcCw/G+/Y9/fJr3wNgpjYS7t1k GPMsq2J4sBQYFy1glAEDoMAABEFxufzvvPv075/4pmXq05Wcqb5bUZSxXXkBQBCEzEPuFKlgzvvo yEhff7+kKB/s2XOkq4uPBwOBec3NTj2nTDB8gkVRTCQSb775JnddzR6GocXe2v1zAclqsi8aPxUo AAJZ2l9RudvlqaH0mB7oDAAYb2/PJMkViYR3vLAdcl1xjjt5u3t6JJdr396973/0ER/3uN2tCxbI LlempckySBAE27Z37typaVoOISGM+44ejcfjxLbf2LVreGSEj1dWVtZWV/NMJzaGAECW5Z6envfe ey+HeoFLTk9Pj6Qoez/66L09e3iIEqFUTecXOkrB+Z5vt6+88oqqqjnXmwjjD95/YueuB0TRnYhp g+GPERICgHh0nW0mATCjAAyA8S/AGBNFF0LSn5/93++8/X9zLjyxaPTo0aOSy/XR++8fPHSIj/t8 vnlz54qy7Hif4VjhEUVRVdU33njDyXOfPWFBGB46+LedP0JYTMT6hsLnMyYBAMaq7DpMGCWMmyIp 5gAApQwYcruD7+155pVXpr2pTJWVoiju27cva3DJkiUnQkLxRMQY6+/vx6I40Nd38PBhPlgWCi1a tKi6rm6ieXUWAPea5UTaOrteGxk5AgAjQ2sBADDIQleofACLbpoOVqUpzEApS08tAIAkefbuf32g 92BujQWEUHhgwCYkHo1+mNaYPq93yaJFTS0tkG6fPS6Jojg0NHTgwIFcQUIYW4YRHhxU3O4jR46M pDVmY0PDihUrgqGQo8GzTDxHj3/00UfxeDwnqgohRGy7p6dHkKSe7u73P/iAj3u93uVLl9bV16uq mpUSksmZkZGRd999F3J61YkFITLcueudn4qiKx4ZjgyfzsdFqa+s8nlRclOg4IgQ5aj43yICw888 /8DQYHdu9Xh4YAAwHgqH96ZtqdJgcMmiRXX19Y5hNC5JktTb23vkyJGcrCz+Ibvfe0TTo8Q2hgfP 4REEohQur3rN668GAKC8P5iznaR+lwGSJM9rOx8dHJgemCm9dSKHZhGz4o5LCGMtmdQ0jdr2/oMH +aDP621rbfV4vbFYbNwZhQzDkxBy5MiR2cJACAB6+95mgHQtbNMqYICYEQx9IAgKJXZqFtMHh/TE AqQVKMZCIhk5eOitWSLJQmWbZjwel2R5/4EDfBJFUWxvaystL49EIo5SyGKOM4IQOnLkCPf35wRP LBYjhMSj0QPpyaqqqFi4aJGmaVqGcef8SiYwHgzXlT5JzBYMxrFIRFNVQ9P27d3LBz0ez6KFC6tr azNzosclQRAOHToUj8dzWPMYAD7c+0RCHaTUioxs5COy0lVeud/lqiSUpfQCAONnUH6WYwAAkuQa HOrZ9dYfc4UEYWxoWiKRAMYOHDjAn+tSlPa2Nl8gEI1GJ1pZAA5IduTIkZzUBkIIRYe7eo6+IUnu yEgZtzEFIRkqf1eSgpSktVbKDAFIM4f3SxAEKRod3PPBjmk9dEpKUxCEcQPRg8EgXzaiKCqK4vF4 vF6vz+fjjXd4+Y9iFbBACGmaxntnDw8P88E5c+aUhEKOl3oijenohUgkYprmrApiY0wJSSQGREHS tTIAAASKclhRQja10sqROWamsxk6pgxCiNgkHg+P/4CZojIMQzcMQ1WHhob4YENDQ1VNjeO5zpT1 zBFHT8Xj8WQymatzn6ZpgiQNDQ0Z6WawjY2NhBAnU2USVQUA/Io2J0gAIBaLYUnq6+uLpLkxb+7c iqqqaDTKf5xEeBBCiUSir68vh8dPPRk92vumLLkjwyKlbgDAWA2VHRBEt01SUSiUn80zzEzCUud0 SVL27vuboSZyZYlrmkYp1VR1MM3zxsbGUEXF2JUF400cxnhkZMQ0zZzsKwOD7+tG3LZ1NZHq1+QP 7JDkEptrTJr+wiDjdACMQcorhsTDR96B6bi/pnR7rijKO++8kzVYUlIiSZLf7yeERCKRoaGhcDgc j8d1XZdlORgMVlRUhEKhUCiEMdZ1fVo37DkhYttYFBOJBPddCoJQVlrKM6Im2gYzjxUIIcMwLMuS ZXlWLljGKLUIJbbtQ0gVcNLj/ZBBHTiHhQwzkxKWaWYyxqMlkG2bMOtUwkwito0w1jQtkQ5jKC8t NU0ziwmcskb4+y3LypVzhjFmmSbGOBaP85GSYLAkFNI0bRJd6SChlHIZ47M2Gxbx3EHDMCRJclRk MBisTm8nk2BwfuQJtTPGMJZULZxQwwxA11r4iM//N1EO2pbpKEqAUZ8d/94RJAFLkUj/SKS/2uPL CR5i2xQgqapO4GCotJQnhmbOF6QLOY5ll2EYtm27XK7ZS3NSDVNGLTOZdmVqLk+AEnv0PE6ZwyXH BneeKwhCPDlMLEuQpCmCmZLSxBgfSvt6HVq3bt3hw4dffvnlsSd0TdOi0WhnZyf/UZZlHmeg63oh 6wbyqx6EUE11tdvt9vv9giyP9Y6xY+/4MmdXEIRZVjNjjGFRdLtLKbVKQiNBthMLCkANoTakjILJ zEyWnl2fLwQ5TZJDGHPfU3VVlcvl8no8bo9HO/aWI5MVY5k2eRmq6RLGWFNVRVHq6uo8Lhc/xDg3 dRORc6nIawWhnLSMZ4xSauh6LJEAAEkUq6uquCxNjsGBOpE7a8ZkWqptG4SYphXitpniJozRtGIE QhmkxYYQxo+fDIAS/jrWTdWyclYiE2PMTYza6mqX2+31ehW3m++4x5Uczi6+snIiz3wBEdvAwjAW El7PPlEM2PZoFFHmFRDXmCRtZlIKjAGhhFI6dSP8+EoTITSu4/LJJ5+c4jNM09yxYwcAbN68uaqq iid4TBnhzEmUJGJZwWBw+YoV/M43Ho87Ip45rzDeyiSEeL1eRZZnE+PGKEWCUF62YO/+Z1xykHL7 kXegZGPMTDqOmUkplWVPTU3r7BkUKnQRAAAZm0lEQVQyiooxQRSBUrfbzZlDKeU315NoqMxlQCnl Dpmc4OHBQ7Zp1tfXNzY1CYKgadq4Z4JMDM7fwr/3+XJjRiGMMcamYTQ3Ns6pr1cURZJlHtI7LpKx IDlzcgKGkyjICIvMNgL+NwQpKopUkkKMEshcRsd+P3rdwfhNuixKOasfKsoyJSQQCCxbsYJnHGSu rLFLLItdlFKfz6fkqJ6p11MBjHm8lS73h1iQGA2mrgoAnEij1DobL2yHMur1lIiyPM5rE/35x32H IAiDg4PT/UvGpb/+9a8VFRVnnHFGMpnMd6gmo9Tr80mSxJ+lEWJn1E3JZNAkq7G6unpmOQNZ1FC/ zvPOfxmGigWJcRc0TfmbRmHAMbIO6QOWaej19e1NTTktqsaY2+12u92apiFKtXTUGExq1qV/NaUX Kioq3G53rqKU/YEAFgTCc27SkbyTa8zMQd72Z/YwGGNYEBSXixBSWV0NAIZhOAFPmQ913j+WJEkq zWmFQLcr5HYFbcssq5ApVFLCqG1RvufS9DE8Qy9wEWOE8X3Xsq2yUIXPE8oJGEap1+tVFMXQdUqp TYidEXk9EWcyByml1dXVgijmRHgqyttF2WubpiBIqZBrGN1CUmam4+pN2+D8R8qAEqulcSkPE57i E49/vFIUZWyw0YwpHA4/8sgjbrc730W8GWOSLJeXlzuhoZChLo+7Gm3b9vv9Oek6xygNlTcvmL/V sFLeQwKjZiYPaGcUnGBNLkiMATB+2GQbTrlUlHOZn8cYQxhXVFYCACFkovAQyFLraaKUiqK4YMGC nOGh1Of3B4NB27ImiVbJguGQZVk1NTVVVVW5ynspLS3FGGvJpJpImMdqzFHME2CzbTsYDFZVVbEp Wy6TE6PUG6isKGu3LZ1SQonFmA1o1LIkjMGxV0DM+ceAMrBto6Guw19SnhP+MMYEUawoLyc8xXbS /QPG7HCEEI/HM3fu3Nkj4R9bUjqnrmqFZakpyUmbk8yJKMiywhl/CRgDYlseT0lH+2lw7OROTlM6 nnd3d0/06qpVqxoaGjwej5Oczy8NE4nE/v3733///XF/61e/+tWll14aT3v980SMsdq6unA4HIlG nXvDyVnjTDCldOnSpYFAYPaqijEGjC1ffnl/+P3urrdk2QeQNjMRAADLWJIcXdpeYIYeP3ndJxct 2ZyrFTiKitLyiorBcLint1eYoMdJprhnjpumuWTJkpqamlwpKcYYFoSGhoahoSFr4iC2cZnAi3sv X75czJHlwij1BQJlodDRo0eRIEyuFDLVpZNatnDhwhwmoTPGEED7gnMPHX6RUBtAYJRl3pUDHCs2 FICNmpmU2IrsWbXiPMidT5xRWlVTMxAODw4N8XpUk4DP+tG27RUrVuSqtgOjFAvC8iWXdfXsJLYF WKIZ9zyU+74oAANCGaNAaKqrHWOIMmaa6vp1n6yqmTstST6OuTeJS/vUU0+94ooreC3hSCQSj8cT iQSvusaTcxctWnTFFVe0to7vjNu5c2euPGITEaNUlKTWtjZJFHlFL16EIjOhM5OcVzVNW7hwYXt7 e86UAqUud2DTqV/y+ys1PUJtgxKd2Lpt6batU2oQohNmUGrYVKdUJ0RnzEgmB9pa15xzzg3TOjtM FRJjgNDc+fP9Pp+h62TKpKrqnDlzVq5cOVaZzoYoIb5AYN78+SR1QJ8SWZZl2/aaNWtyWCiA7/1z mprcHo99vEDUY8p9ImRZ1ty5c9taW3M7X4zS2voVrfO3GWaSP4n/QwhxXcDoaCQGYwAIUQYAiALo RnLNygubWpblEBLf5OYvWMAP6cedJmetaZq2YMGCJUuW5BIMpRVVbatPutYiJrF5gBrjt3mI36Qi lsqwAwbACCGMUQBqaNG2+Ws3nvqPMM3t5DiWJmPMNM3W1taBgYFYRjnlCy+8UBTFSaoI89Wlqiov YfDyyy9nvWH//v1LlizhXuSpw50uUUJ8fv+C+fNfevllQgi3BfiatNPHUieBgX/VNK25uXn16tWQ u52ZIwmW1m9cf8vvHr9Zt2IIBMrSdkGGi5oQxi89TdMoL2s4/7zbBDFfpdgYpbKitLa27tixg8fr MEq5dHMvFa/gTdK3xpRSwzDKysrWr1+fjxpfjNLqmprhoaHdu3fzBjU2TRc1ovz+bHSa+Kxpmnby ySe3tbXlXEm5PZ62trbXX39dNwyGUFamcJbYOGBqampOOeUUHpybSzyMIYA1q6+LRLsOHnlZkv2Q OmOmTqNcZpxYC2rx2kZIVaOL2jedeeZ1ud3hAIAS4vF6W+fPf/GllyzL4pLDpcW2bXsMi/jKqq+v X7d2Lc4pf7hFvXjxhSMjh1/f9XOXK8AoEMIPSamVRRy7m/KbWNANLVRWf+EFt7vc0y7YcfzjOWNs 8eLFkiThdJAKY8wwDFVVpxK+G41Gm5ub9+/f39/fn/XS7t27ly9fnu9moYzS6rq6+rq6v73+uizL vNgfSefL27btaApu4ygu1+mbNuVFKTDWNPeUxvp1773/B1n2U8aAjsZDpM7mFChlhDFDj69ZeVNp WY7rwWQRJaQkFJo/f/5fn3sOc9WQVpcp5jDGzQRGqWVZNqUfO/98v9+fD1Rcrlvb2vbv33/48GFR FEm6MB0Hw79xrBdV05qbmjasX59zjQBpzrQ0N7/8yisIIZJ+bgqJ831aKViW5fV6N2zYkKc6dZQQ WXFvXH9rePBAJNolCC7GgJ/TGYW0WzoVQ8MoYxQMS6+pbr7g3C9KUl4K1jFKK6qr58yZ88qrr0qi yDdaPmHEtknGZDFKTcvCGG/etEnJA394jMrJa//5aO/uzq6dguhOxadQIIwhhrjrlduclDFqEUHA F5335ZJQTb5Kw+m67nT0doKHp57wEIvFTjnllN/+9rdZ4/v371+zZk3elSZjCKCpqen5F16IxmII Ib4lUkJSlnp6dikhmqatWrOmsro6H9Vk+dQ2Nq17+51Hgaks7cznt1Q8PCJ1tW7bLsUzf8GpOccw LrU0NT3LWHhoCGM8ypy06uT7JCVE1/WmxsYFra0511AOMUoFUayvr9/55puyJHEThWZMFldevMJt Mpns6OgQ81bXljE2d/78t3fvPnzwIBZFZzvhEpMyxrl5ZduJeHzd+edXVVXlb5OjhARKak5Z+79+ 98TNGNmAMKOMQdqJyeM2CVDgBeIoomTrGTcFS/MFia+suS0tzz3/fCQahczJ4msqfT6ghCSSyRXL ltU3NOSpTjMlRJRdSxd/Yv/+HYJNGRv1V/BgVZ6cTymjAIaeWNSxtWX+2plJ8rS7nM/gMXTisDWn D/V0P3O6VF5ZKUpSd3e3JMuEEO7ycA6fAMD3RN0wmpuaIKcH8ywKBmqpTXUzgZHghBnRdCwZpQxj ZFpG0B30uAvR2JJR6vL5/D7fBx9+yIueUUqBMZsQlL5bp4QwxpLJZP0pp/COIHmFVFNTY1tWNBJx 4r0cxc0XIWbMsG2M0NyWlvzB4JcMdTU1b7z5pigIjl+An0Kpc/yk1LQsSZbbFy7MHxiHmpvXl/gb BgY+FARXKswofRQl6XQyQpllaXW1S+bOOznfeIKlpS6X68iRI6IkAQBNO8EoIQyAzxqhVFNVHhOW 18VeW7NUcZUmYv0ISc5zuNVJKUMIUcooZaaZnNtyMsAMWzxNW2nOjDDG4yrHgilNjLGaTA4NDSmy TNPMIukIcpqy5pmm62IeiiFmkmXphpqkDLAg8Mc6xA9WAEBs09TjlBYu8dQwjKGhIbeipCvlUIc5 kGZUPB4vTCUBSRQj0Wg8FnM68zAnZDpdjc0mRBSEAuApKy+PRiK85i5XBJA2owCAb7uGaVZXVZWX l+cbDKNUVjxloZbDh1+X5fR1AEslCzrhh8DANBLVVa2SrOR7h0MYG7o+ODjoUpSJVhYlRDcMmv9l LoluCbnUZEyS3Jm5kk50AQBQQhmxXcrMUyGmFHLEi1Q7X03TnMHtzbiaMVepVFN5eri/PxwOuz0e Bzw3qSAdxsWP59qx7TpzThiJlpmwLQRIOKa9IgBAqoKBgG01Gc0rjCziDQl4Ug3nTxZzGKVJVc1t SvVEZNn2wMBAIh6XJcmRM47HkRXLNIWCNE0xTXNoeBgY43rT0UGO0uR7rdfrJYWq+GVbRNdUoLww MwBK7bUsrR0QA8tQESrQyhocHOzv7/f5/ZOsLJUXRso3GCBqMq6rKlNG9xKEEUtbJ5QCMEqIbtsz 9woe//ZcFEVKqaqqvEiXrusNDQ28rPfUHzORkpVlOd8+TUhHSIii6PZ4xgaHonSPZoyx4nKVlJTk FUnDnOVVtSfFht5MJm3mtA9EgNLfIwxuN7QvuihQkrMA6eOS2+Px+Xw8VswZRAAs/TNjrLS0NFhS Ank+YQGA1+PRdR1hHEskHDy8YYHzo6wohq7nO2oNAGzL6unpUWRZEATnz6aMZZ6PLMsaGhoqgCXF N1VNjQI1dU3NDNrOmhRFtJOJkXzD4atGVhR/IDC2s8Po3CHk9XrLy8ryjUcQFdM0PC6iqVpKY4/2 5wRIHdKp3wd4FofsyX6TN/f4/e9/nzUeDoc3bdo09X0DYzyuRRAMBmdgsc6AGKUI4+v++Z/vu+++ HS++6GRYQ0b8NkIoGAz+83XXrVyzJn8nGkapxx+68fN/vvMrN//6dw/pOo+BAEKAEiDpOrIP/OTf L7vyBiyIBehuyG2lSy+5ZGho6NHHHnMCRCCDOYCQJIpnn3XWtnPOybfGZJQGSku/+IUv3HfffV1d XWNLwwEAxrilpeW2L32pbs6cfLOofs6cqsrKpKpqmpapBZw3YIx9fn9He7vX78/7JscYIFRW2lwS gviQRlPmLwBkHkYBY/CVQGV5brJuJoNDKWD86U9/+oc/+MGTTz9tT7CyAoHA1Z/+9OlbtuSVP4xS l9u/fv11f3nqq4RoxM7QmGlCCGQZKis3Llx05ozBHEfdulyusYP9/f28oswUn+rxeHbt2jV2fOXK lQUwMzkxStva2795993Lli2bqFrtl7/85c9cey3kufEpJcTrC533D1ff/9Pfx9VxcqLa2tqu+Kfr RSm/nXIziSd4/Otdd/31uedeeeWVcd/ziU984rbbb4f8d4VljDFCNp52mmlZ559/vhO2kUmyLN93 331nb92av1aLnCgh5RUVP/jBD26++eadb7zBUyqzAjYRQv/PnXd+4YtfFPJ/RcZ3uM1n3qIb8Yd+ /n9Mk5DU1Xm6PgUAACiSeM21n9t8xo35CMbKhkRpU3Pzv37zm3944omJWnzfeOONn7v+esiz8HDJ OeOsz4viwi1nnzdRffRrrrnmxlt+KM4i/HmyjCAuEOMeV99+++2pFJVhjCmKYhjG3nQF7EyqrKws ZOF3fsDkUetjSVGUk08+GfKvFDiVlJRMxMDS0tLCGOCZxFf7xo0bJ3oDZ04BLF+H2tvbJ8r9r6qq Wrx4MeTfUQAAlJC6+vor/+mfkolEMpnUNI1XWeXBRgDQ1NT0uRtucLndhWEOo9QfqPjk5f+b4C1/ eR7++gL89UV47iV4/iXY8Qq88Aq88AoEyi/4+GX/4fGVFggSY4qirF+/ftxXMcbr1q2DQq0sAFi9 7tSTTjpp3JdkWf74xz8+G40Jx02j1DRtw4YNY8f37NkzMDAQCAQmub5ECPn9fsuyfve73419devW reMaEXkkxiaphSwIAvchFOaC2OmaMJZM01RVtZDqKfPRM3gpT8Q7jE/0aoGbU1VWVgYCgXFfamho kKdTWGz2xGWDa6Jxac2aNVDYHY43hR/3Jd7iuGBI+BMrKirGfUkQBK/XO8vPP47StG3b4/HMmzdv 7EvPPvvsG2+84fP5/H6/LMs4g2RZDgQCXq/3rbfeevzxx8f+7rJlywKBQIHXIcJYlmVhgogi27ZF UYSCGC+Q7uI57kuUUkmS8tGz97g0EXMAQJygqEf+aJIK0Px+spBgJjnnEkKEggQ/ZdEk20bhdzhJ kiYSHkKIJEkFQ8IY03V9IuYIgjB7DX4cyUMIJZPJVatW9fb2JtN9ERzau3fv3r17KyoqWltbeVsL ACCEHD16dO/evRP1bGltbW1vby9Y0J9DXOgnsjS5qioYGN4rQhRFWZYz+ZBMJufMmePxeIpiaU6k xwGgkMxxaKLJYozJOSphO0VyDuNjSVXVRCIxrvc/rzTJjEyy+eWPJilWX8jJ4gWtJzqj6Lo+e7Uz pe06kUhccMEFzz777Nj8cQAIh8Ph8FTbfq1atWrevHn5Lgo3PjFmmmZTU9O4LzY1NU3kB8k9EEoX Llz4la985Stf+Yppmo70G4ZRVVV166235qrK2XSptrZ23Ps9t9vNvTQFO4TyWJbGxsasuwUOb/Xq 1bW1tYU8EZumqeu6KIqZkcW8rFF1dbXf74cCguE0ySVqgXcUYMyyrIlWVmVl5dq1awsJByHEz75Z 9zGWZYVCoba2tll+/pSUJmMsFott3ry5q6vrpZdemvHDzj//fJfLlRUMWDBijLlcru9///uKovzH f/yHz+fj2ioWi9XV1T3yi19UVFQURlUxxoLB4Be/+EXTNO+44w7HGeTz+R544IH169cXXmPyYg+f //znZVn+0pe+JAgCz3xVVdXlcj1w//1Lly4tpPHLKK2vr//1r3996aWX/vnPf+bnGEppJBI59dRT f/yjHzHGCoaHUdra2vrZz3724Ycfdrvdjh1nmiZC6IYbbshTkY7Jqa2tzefzJRKJTE+FbdslJSVn nHEGFHaHUxTlm9/8piRJd999t8fj4SsrkUiUlZU9/POfNzQ0FIw/lBBFUb797W/39/fv2rXL8URz 6+Sbd901+zqw03CcxePxqqqqSy65ZNmyZdN9zKZNmy677DJ+2C9WU1/gAZsI3XPPPZ///OdN0xwc HBwcHOzo6Ni+ffvK1asLqRR4NvdXv/rV3//+98uXLw+FQtu2bXvxxRfPO++8otiYkF5j119//d13 3y1JEmdOeXn5D37wg3+46KICBK9kESUkFApt3779oosuGh4eHhwcHB4e3rZt20MPPVSVn4oqExFj rKam5t///d8/8YlP9Pb2DgwMRCKR3t7eeDx+zz33bN26tcBTxjO7r7rqqp/+9KdlZWVut5u3fXW7 3ZWVlQ899NCSJUsKDYlSALjzzju//OUvE0K48DQ3Nz/wwAOnbd5cYF+TgHFHR8fPfvaztra2WJoI IV//+tcvv+KK2Uvy9LzphmGYpjlv3ryFCxcmEokjR44cPHhworN2ZWVlS0tLXV2doiiapvGEgSJq TE6UEFEU77333nPOOec3v/lNXV3dtddeW15eXgTjjlLA+IILLtiyZUtvby9vAFAUV6ZDlBCE8U03 3bRp06af/exniqJ85jOfaWlpyXc45CR4ampqHn300V/84hc7duxYt27dP115Zc6rVU4RCRaEe++9 t66u7tvf/vbw8PDixYv/9V//9YILLigKZwCAMXbxxRebpnn77bfzzq8tLS333HPPueeeW6zJwoLw 9a9//cwzz3zkkUfKysquu+66mpqZ1F6bJfGAzUWLFr3wwgt33333n//85/r6+q9+9asbNmzIyQFl JlWOeKU4jPH8+fM7Ojoyc0g48Sx1xphpmqZpFjg65LhECUEInXbaaaeddpozUhQkvBSF0zKlWDCy IAFCS5Ys+c53vsNHiouKL8XLL7/88ssvLy4eSojb7b7tttsuueSSw4cPr1ixIhAIFGs7gfRMXXbZ ZevXr3/44Ycxxp/61Kfq6uqKCImvrJNPPplH9UJRhYcSUlFR8b3vfS+ZTPIwo1xxZuZxG5RSp87m WPuxWNM2ReJ7UWEKLB2XTgRdmUkOc+DEmEfOnxNhsjiSpqYmfulR9InjMzVnzpwvf/nLfOQEgXSC CA9X4lxj5pAzxyhNjHFRghWcp0+3RSX3N+NZYJ6lsyCTXQgh3sp5NnhmSZmP5vcDswQzG/5kxcQU f7IypAsjBAAI49l85mz+lqwKszmZrNl8wjFxr+n2iMUSHllRMu0wcdaSM8tfz5LkUU5hjEdGRjRN K9b+wIvOTcvpOTIyEg6HoVi7qyDEYjGnMIFt2719fUwQWAFzQx1iCGFBMAzDwRNPJIrIHCQIQ0ND mSPhcHgwHGbFmyw1LduMMc0wBsNhSkhRXOxIEPr7+52FxhgbiUSKK8nxeDxTkgfDYQZQFDxIFKPD w05ICQ/dKaLkIEEYOjbkHJ166ql9fX08MJXXICjiXQ13hgKAJEkej+fJJ5+srq7OfIOqqps3bx4Z GbEsixvebperiFo+mUxq6YRIjHEwEMCCUCz2MYBoNErSvZRdLpfP6y0aczDWji2hGAgEFCXvNXEn xINQLB43TZMzR5KkYDBYNDAYW5YVjUZZunOMx+PxuN1FlOREMslTe3n93FBpIboGjEsMgFEaiUb5 NTdCSFEUv99fRMkxTNMpfIcQEjds2PD444/zlSYIQhGP55nkcrkWL148bravaZqCIPCKYbx6QrEc J+jYRBFKaTyRQIUp/ToeGMjAwxgzDMO27SIyJysrg1e7KCIeO4M5lmXxXqrFmqzMwBd+uWqa5okg yfxrNBaDYjPHwWOaZiQSOREkmTswkW3bt99++5NPPkmLd+mWRZIkrVix4jvf+U4oFMp6iVK6ffv2 e++9l3e5Kwq8v9Pf6e/0P5C4TXnrrbembiSff/75RCIx3XuYfBCl1OVybdiwYaJebADw+OOP33HH HclksvAl1P5Of6e/0/9A4nWI7rzzzk9+8pP/H7buq7QLDa6vAAAAAElFTkSuQmCC "
       style="image-rendering:optimizeSpeed"
       preserveAspectRatio="none"
       height="227"
       width="444" />
  </g>
</svg>
