<?xml version="1.0" encoding="UTF-8" standalone="no"?>
<!-- Created with Inkscape (http://www.inkscape.org/) -->

<svg
   xmlns:dc="http://purl.org/dc/elements/1.1/"
   xmlns:cc="http://creativecommons.org/ns#"
   xmlns:rdf="http://www.w3.org/1999/02/22-rdf-syntax-ns#"
   xmlns:svg="http://www.w3.org/2000/svg"
   xmlns="http://www.w3.org/2000/svg"
   xmlns:sodipodi="http://sodipodi.sourceforge.net/DTD/sodipodi-0.dtd"
   xmlns:inkscape="http://www.inkscape.org/namespaces/inkscape"
   width="67.669319mm"
   height="67.669327mm"
   viewBox="0 0 67.669319 67.669327"
   version="1.1"
   id="svg4453"
   inkscape:version="0.92.4 (5da689c313, 2019-01-14)"
   sodipodi:docname="j12_SK-04_fig2.svg">
  <defs
     id="defs4447" />
  <sodipodi:namedview
     id="base"
     pagecolor="#ffffff"
     bordercolor="#666666"
     borderopacity="1.0"
     inkscape:pageopacity="0.0"
     inkscape:pageshadow="2"
     inkscape:zoom="0.71446409"
     inkscape:cx="283.58197"
     inkscape:cy="-263.38613"
     inkscape:document-units="mm"
     inkscape:current-layer="layer1"
     showgrid="false"
     inkscape:window-width="1218"
     inkscape:window-height="1001"
     inkscape:window-x="-8"
     inkscape:window-y="-8"
     inkscape:window-maximized="1"
     inkscape:snap-global="false" />
  <metadata
     id="metadata4450">
    <rdf:RDF>
      <cc:Work
         rdf:about="">
        <dc:format>image/svg+xml</dc:format>
        <dc:type
           rdf:resource="http://purl.org/dc/dcmitype/StillImage" />
        <dc:title />
      </cc:Work>
    </rdf:RDF>
  </metadata>
  <g
     inkscape:label="Vrstva 1"
     inkscape:groupmode="layer"
     id="layer1"
     transform="translate(-29.968938,-11.143093)">
    <g
       id="g5517"
       transform="translate(29.934187,11.22532)">
      <g
         id="g5323">
        <rect
           id="rect4455"
           width="9.6115532"
           height="9.6115541"
           x="0.22897367"
           y="0.11199632"
           style="fill:none;stroke:#b4b4b4;stroke-width:0.3884463;stroke-opacity:1" />
        <rect
           id="rect4455-7"
           width="9.6115532"
           height="9.6115541"
           x="9.8405266"
           y="0.11199632"
           style="fill:none;stroke:#b4b4b4;stroke-width:0.3884463;stroke-opacity:1" />
        <rect
           id="rect4455-7-8"
           width="9.6115532"
           height="9.6115541"
           x="19.45208"
           y="0.11199632"
           style="fill:none;stroke:#b4b4b4;stroke-width:0.3884463;stroke-opacity:1" />
        <rect
           id="rect4455-7-1"
           width="9.6115532"
           height="9.6115541"
           x="29.063633"
           y="0.11199632"
           style="fill:none;stroke:#b4b4b4;stroke-width:0.3884463;stroke-opacity:1" />
        <rect
           id="rect4455-7-3"
           width="9.6115532"
           height="9.6115541"
           x="38.675186"
           y="0.11199677"
           style="fill:none;stroke:#b4b4b4;stroke-width:0.3884463;stroke-opacity:1" />
        <rect
           id="rect4455-7-5"
           width="9.6115532"
           height="9.6115541"
           x="48.286739"
           y="0.11199677"
           style="fill:none;stroke:#b4b4b4;stroke-width:0.3884463;stroke-opacity:1" />
        <rect
           id="rect4455-7-80"
           width="9.6115532"
           height="9.6115541"
           x="57.898293"
           y="0.11199665"
           style="fill:none;stroke:#b4b4b4;stroke-width:0.3884463;stroke-opacity:1" />
      </g>
      <g
         id="g5323-1"
         transform="translate(0,9.6115545)">
        <rect
           id="rect4455-0"
           width="9.6115532"
           height="9.6115541"
           x="0.22897367"
           y="0.11199632"
           style="fill:none;stroke:#b4b4b4;stroke-width:0.3884463;stroke-opacity:1" />
        <rect
           id="rect4455-7-4"
           width="9.6115532"
           height="9.6115541"
           x="9.8405266"
           y="0.11199632"
           style="fill:none;stroke:#b4b4b4;stroke-width:0.3884463;stroke-opacity:1" />
        <rect
           id="rect4455-7-8-1"
           width="9.6115532"
           height="9.6115541"
           x="19.45208"
           y="0.11199632"
           style="fill:none;stroke:#b4b4b4;stroke-width:0.3884463;stroke-opacity:1" />
        <rect
           id="rect4455-7-1-5"
           width="9.6115532"
           height="9.6115541"
           x="29.063633"
           y="0.11199632"
           style="fill:none;stroke:#b4b4b4;stroke-width:0.3884463;stroke-opacity:1" />
        <rect
           id="rect4455-7-3-4"
           width="9.6115532"
           height="9.6115541"
           x="38.675186"
           y="0.11199677"
           style="fill:none;stroke:#b4b4b4;stroke-width:0.3884463;stroke-opacity:1" />
        <rect
           id="rect4455-7-5-1"
           width="9.6115532"
           height="9.6115541"
           x="48.286739"
           y="0.11199677"
           style="fill:none;stroke:#b4b4b4;stroke-width:0.3884463;stroke-opacity:1" />
        <rect
           id="rect4455-7-80-4"
           width="9.6115532"
           height="9.6115541"
           x="57.898293"
           y="0.11199665"
           style="fill:none;stroke:#b4b4b4;stroke-width:0.3884463;stroke-opacity:1" />
      </g>
      <g
         id="g5323-7"
         transform="translate(0,19.223109)">
        <rect
           id="rect4455-75"
           width="9.6115532"
           height="9.6115541"
           x="0.22897367"
           y="0.11199632"
           style="fill:none;stroke:#b4b4b4;stroke-width:0.3884463;stroke-opacity:1" />
        <rect
           id="rect4455-7-6"
           width="9.6115532"
           height="9.6115541"
           x="9.8405266"
           y="0.11199632"
           style="fill:none;stroke:#b4b4b4;stroke-width:0.3884463;stroke-opacity:1" />
        <rect
           id="rect4455-7-8-6"
           width="9.6115532"
           height="9.6115541"
           x="19.45208"
           y="0.11199632"
           style="fill:none;stroke:#b4b4b4;stroke-width:0.3884463;stroke-opacity:1" />
        <rect
           id="rect4455-7-1-1"
           width="9.6115532"
           height="9.6115541"
           x="29.063633"
           y="0.11199632"
           style="fill:none;stroke:#b4b4b4;stroke-width:0.3884463;stroke-opacity:1" />
        <rect
           id="rect4455-7-3-40"
           width="9.6115532"
           height="9.6115541"
           x="38.675186"
           y="0.11199677"
           style="fill:none;stroke:#b4b4b4;stroke-width:0.3884463;stroke-opacity:1" />
        <rect
           id="rect4455-7-5-6"
           width="9.6115532"
           height="9.6115541"
           x="48.286739"
           y="0.11199677"
           style="fill:none;stroke:#b4b4b4;stroke-width:0.3884463;stroke-opacity:1" />
        <rect
           id="rect4455-7-80-0"
           width="9.6115532"
           height="9.6115541"
           x="57.898293"
           y="0.11199665"
           style="fill:none;stroke:#b4b4b4;stroke-width:0.3884463;stroke-opacity:1" />
      </g>
      <g
         id="g5323-11"
         transform="translate(0,28.834663)">
        <rect
           id="rect4455-09"
           width="9.6115532"
           height="9.6115541"
           x="0.22897367"
           y="0.11199632"
           style="fill:none;stroke:#b4b4b4;stroke-width:0.3884463;stroke-opacity:1" />
        <rect
           id="rect4455-7-9"
           width="9.6115532"
           height="9.6115541"
           x="9.8405266"
           y="0.11199632"
           style="fill:none;stroke:#b4b4b4;stroke-width:0.3884463;stroke-opacity:1" />
        <rect
           id="rect4455-7-8-9"
           width="9.6115532"
           height="9.6115541"
           x="19.45208"
           y="0.11199632"
           style="fill:none;stroke:#b4b4b4;stroke-width:0.3884463;stroke-opacity:1" />
        <rect
           id="rect4455-7-1-0"
           width="9.6115532"
           height="9.6115541"
           x="29.063633"
           y="0.11199632"
           style="fill:none;stroke:#b4b4b4;stroke-width:0.3884463;stroke-opacity:1" />
        <rect
           id="rect4455-7-3-3"
           width="9.6115532"
           height="9.6115541"
           x="38.675186"
           y="0.11199677"
           style="fill:none;stroke:#b4b4b4;stroke-width:0.3884463;stroke-opacity:1" />
        <rect
           id="rect4455-7-5-0"
           width="9.6115532"
           height="9.6115541"
           x="48.286739"
           y="0.11199677"
           style="fill:none;stroke:#b4b4b4;stroke-width:0.3884463;stroke-opacity:1" />
        <rect
           id="rect4455-7-80-04"
           width="9.6115532"
           height="9.6115541"
           x="57.898293"
           y="0.11199665"
           style="fill:none;stroke:#b4b4b4;stroke-width:0.3884463;stroke-opacity:1" />
      </g>
      <g
         id="g5323-4"
         transform="translate(0,38.446217)">
        <rect
           id="rect4455-5"
           width="9.6115532"
           height="9.6115541"
           x="0.22897367"
           y="0.11199632"
           style="fill:none;stroke:#b4b4b4;stroke-width:0.3884463;stroke-opacity:1" />
        <rect
           id="rect4455-7-0"
           width="9.6115532"
           height="9.6115541"
           x="9.8405266"
           y="0.11199632"
           style="fill:none;stroke:#b4b4b4;stroke-width:0.3884463;stroke-opacity:1" />
        <rect
           id="rect4455-7-8-2"
           width="9.6115532"
           height="9.6115541"
           x="19.45208"
           y="0.11199632"
           style="fill:none;stroke:#b4b4b4;stroke-width:0.3884463;stroke-opacity:1" />
        <rect
           id="rect4455-7-1-15"
           width="9.6115532"
           height="9.6115541"
           x="29.063633"
           y="0.11199632"
           style="fill:none;stroke:#b4b4b4;stroke-width:0.3884463;stroke-opacity:1" />
        <rect
           id="rect4455-7-3-2"
           width="9.6115532"
           height="9.6115541"
           x="38.675186"
           y="0.11199677"
           style="fill:none;stroke:#b4b4b4;stroke-width:0.3884463;stroke-opacity:1" />
        <rect
           id="rect4455-7-5-04"
           width="9.6115532"
           height="9.6115541"
           x="48.286739"
           y="0.11199677"
           style="fill:none;stroke:#b4b4b4;stroke-width:0.3884463;stroke-opacity:1" />
        <rect
           id="rect4455-7-80-3"
           width="9.6115532"
           height="9.6115541"
           x="57.898293"
           y="0.11199665"
           style="fill:none;stroke:#b4b4b4;stroke-width:0.3884463;stroke-opacity:1" />
      </g>
      <g
         id="g5323-2"
         transform="translate(0,48.057771)">
        <rect
           id="rect4455-4"
           width="9.6115532"
           height="9.6115541"
           x="0.22897367"
           y="0.11199632"
           style="fill:none;stroke:#b4b4b4;stroke-width:0.3884463;stroke-opacity:1" />
        <rect
           id="rect4455-7-40"
           width="9.6115532"
           height="9.6115541"
           x="9.8405266"
           y="0.11199632"
           style="fill:none;stroke:#b4b4b4;stroke-width:0.3884463;stroke-opacity:1" />
        <rect
           id="rect4455-7-8-67"
           width="9.6115532"
           height="9.6115541"
           x="19.45208"
           y="0.11199632"
           style="fill:none;stroke:#b4b4b4;stroke-width:0.3884463;stroke-opacity:1" />
        <rect
           id="rect4455-7-1-03"
           width="9.6115532"
           height="9.6115541"
           x="29.063633"
           y="0.11199632"
           style="fill:none;stroke:#b4b4b4;stroke-width:0.3884463;stroke-opacity:1" />
        <rect
           id="rect4455-7-3-0"
           width="9.6115532"
           height="9.6115541"
           x="38.675186"
           y="0.11199677"
           style="fill:none;stroke:#b4b4b4;stroke-width:0.3884463;stroke-opacity:1" />
        <rect
           id="rect4455-7-5-63"
           width="9.6115532"
           height="9.6115541"
           x="48.286739"
           y="0.11199677"
           style="fill:none;stroke:#b4b4b4;stroke-width:0.3884463;stroke-opacity:1" />
        <rect
           id="rect4455-7-80-06"
           width="9.6115532"
           height="9.6115541"
           x="57.898293"
           y="0.11199665"
           style="fill:none;stroke:#b4b4b4;stroke-width:0.3884463;stroke-opacity:1" />
      </g>
      <g
         id="g5323-0"
         transform="translate(0,57.669325)">
        <rect
           id="rect4455-2"
           width="9.6115532"
           height="9.6115541"
           x="0.22897367"
           y="0.11199632"
           style="fill:none;stroke:#b4b4b4;stroke-width:0.3884463;stroke-opacity:1" />
        <rect
           id="rect4455-7-7"
           width="9.6115532"
           height="9.6115541"
           x="9.8405266"
           y="0.11199632"
           style="fill:none;stroke:#b4b4b4;stroke-width:0.3884463;stroke-opacity:1" />
        <rect
           id="rect4455-7-8-3"
           width="9.6115532"
           height="9.6115541"
           x="19.45208"
           y="0.11199632"
           style="fill:none;stroke:#b4b4b4;stroke-width:0.3884463;stroke-opacity:1" />
        <rect
           id="rect4455-7-1-55"
           width="9.6115532"
           height="9.6115541"
           x="29.063633"
           y="0.11199632"
           style="fill:none;stroke:#b4b4b4;stroke-width:0.3884463;stroke-opacity:1" />
        <rect
           id="rect4455-7-3-42"
           width="9.6115532"
           height="9.6115541"
           x="38.675186"
           y="0.11199677"
           style="fill:none;stroke:#b4b4b4;stroke-width:0.3884463;stroke-opacity:1" />
        <rect
           id="rect4455-7-5-12"
           width="9.6115532"
           height="9.6115541"
           x="48.286739"
           y="0.11199677"
           style="fill:none;stroke:#b4b4b4;stroke-width:0.3884463;stroke-opacity:1" />
        <rect
           id="rect4455-7-80-1"
           width="9.6115532"
           height="9.6115541"
           x="57.898293"
           y="0.11199665"
           style="fill:none;stroke:#b4b4b4;stroke-width:0.3884463;stroke-opacity:1" />
      </g>
    </g>
    <rect
       style="fill:#000000;fill-opacity:1;stroke:#000000;stroke-width:0.27917713;stroke-opacity:1"
       id="rect5642"
       width="0.42082289"
       height="29.077694"
       x="49.305161"
       y="11.229346" />
    <rect
       style="fill:#000000;fill-opacity:1;stroke:#000000;stroke-width:0.17877813;stroke-opacity:1"
       id="rect5642-7"
       width="0.52122188"
       height="9.627327"
       x="11.148529"
       y="-58.929054"
       transform="rotate(90)" />
    <g
       transform="matrix(-0.6838511,0,0,-0.6288564,88.985259,69.788509)"
       id="g5559-9">
      <rect
         y="88.511368"
         x="43.594067"
         height="4.9497762"
         width="0.94977617"
         id="rect5519-1"
         style="fill:#ff0000;fill-opacity:1;stroke:#b4b4b4;stroke-width:0.0502238;stroke-opacity:1" />
      <g
         transform="translate(14.317804,-0.55392343)"
         id="g5553-6">
        <rect
           style="fill:#ff0000;fill-opacity:1;stroke:#b4b4b4;stroke-width:0.03570728;stroke-opacity:1"
           id="rect5519-4-59"
           width="0.96429271"
           height="2.4642928"
           x="-42.020012"
           y="83.056686"
           transform="rotate(-45)" />
        <rect
           style="fill:#ff0000;fill-opacity:1;stroke:#b4b4b4;stroke-width:0.03570728;stroke-opacity:1"
           id="rect5519-4-5-8"
           width="0.96429271"
           height="2.4642928"
           x="83.056686"
           y="41.055717"
           transform="rotate(45)" />
      </g>
    </g>
  </g>
</svg>
