<?xml version="1.0" encoding="UTF-8" standalone="no"?>
<!-- Created with Inkscape (http://www.inkscape.org/) -->

<svg
   xmlns:dc="http://purl.org/dc/elements/1.1/"
   xmlns:cc="http://creativecommons.org/ns#"
   xmlns:rdf="http://www.w3.org/1999/02/22-rdf-syntax-ns#"
   xmlns:svg="http://www.w3.org/2000/svg"
   xmlns="http://www.w3.org/2000/svg"
   xmlns:xlink="http://www.w3.org/1999/xlink"
   xmlns:sodipodi="http://sodipodi.sourceforge.net/DTD/sodipodi-0.dtd"
   xmlns:inkscape="http://www.inkscape.org/namespaces/inkscape"
   width="135.3154mm"
   height="135.31548mm"
   viewBox="0 0 135.3154 135.31548"
   version="1.1"
   id="svg8"
   inkscape:version="0.91 r13725"
   sodipodi:docname="s12-3.svg"
   inkscape:export-filename="E:\ol\kbr\2017-2018\git\2voor_sen_est\s12-3.png"
   inkscape:export-xdpi="40.04158"
   inkscape:export-ydpi="40.04158">
  <sodipodi:namedview
     id="base"
     pagecolor="#ffffff"
     bordercolor="#666666"
     borderopacity="1.0"
     inkscape:pageopacity="0.0"
     inkscape:pageshadow="2"
     inkscape:zoom="1"
     inkscape:cx="589.14114"
     inkscape:cy="94.285736"
     inkscape:document-units="mm"
     inkscape:current-layer="layer2"
     showgrid="false"
     inkscape:window-width="1920"
     inkscape:window-height="1018"
     inkscape:window-x="-8"
     inkscape:window-y="-8"
     inkscape:window-maximized="1"
     fit-margin-top="0"
     fit-margin-left="0"
     fit-margin-right="0"
     fit-margin-bottom="0" />
  <defs
     id="defs2" />
  <metadata
     id="metadata5">
    <rdf:RDF>
      <cc:Work
         rdf:about="">
        <dc:format>image/svg+xml</dc:format>
        <dc:type
           rdf:resource="http://purl.org/dc/dcmitype/StillImage" />
        <dc:title />
      </cc:Work>
    </rdf:RDF>
  </metadata>
  <g
     inkscape:groupmode="layer"
     id="layer2"
     inkscape:label="Ebene 2">
    <rect
       style="opacity:1;fill:#ffffff;fill-opacity:1;stroke-width:2;stroke-miterlimit:4;stroke-dasharray:12, 4;stroke-dashoffset:0"
       id="rect3373"
       width="135.74889"
       height="135.46667"
       x="-3.5527137e-015"
       y="0.27214268" />
    <image
       y="0.27214268"
       x="29.693811"
       id="image5634"
       xlink:href="data:image/png;base64,iVBORw0KGgoAAAANSUhEUgAAAQUAAAHhCAYAAABnQ6sFAAAABHNCSVQICAgIfAhkiAAAIABJREFU eJzsnXd4FNXXx7+zm0aA0DsGkN57B0GQ3hFEBEVEBVFQEQQEBUREERARRQRBqiIoIKD0Kr33JkRC 6IGEFNJ27nn/OG9+KSS7M7szO7ObfJ7nPkDI7pyZO3Pm3nPv+R6JiAjZeB1JicB//xJCrgB3woCb oYR7t4CH4cCjCOBRBOFxLCBkQBAgBCDbAMnCnw8IBHLmlpAnH1C4KFCmPFCqrIQSwcDTFSSUKAVI krHnmI0u7JWynYLnE/8YOHeKcPYYcOYY4eJpwoP7QHBZCWUrAsWDgWIlJRQtARQoBOTJJyFPfiAw Z+bfuW4N8N0cYO8ugo8E+FqAnAGEoEDA3wLIiYRCxSTUrA80aSGhWl2gXGUJVqv7zjsbXch2Cp6I EMCpw4T9O4CDuwnXLhGq1JJQvS5QrY6EKjUlFC2p3fGIgHnzgPHjgQcP+GcS2FEEWAgFchHyBAKS jVCltoQ2XSS0aCehdDntbMjGbWQ7BU9BloFj+wmb1xB2bCSUKiuhaWsJDVsAVWu79w29Zg3wzjvA rVtpf24BkMNKyBdIKJgTCAoCerwkoUsfCWUruc++bFwi2ymYGSGAw3sJW9YQdvxFKFNBQvseEp7r KqFAIaOtYxYvBt5+G4iNffL//CxAPn9C0SBC7tyEbn0ldHtRQvkq2cEIE5PtFMxIVCSwciFh9SKB EqUldOjJjiBfAaMtyxwhgLFjgWnTMv5/PwuQP4AdRPESwNDREtp1l+Dj6147s3FItlMwEyFXgJ9m CezeRGjVScIrQy0eOey+dQt46SVg9+6M/z/AQihVgJDLh9DzZQmvDbegaAn32phNpmQ7BTOw8y/C 7CmE2GjCwOEWdOsr2V0Z8CTWrQMGDgQiIp78Px8JKJpLoEAAoeEzEkZMlFCxWvbUwmCynYKRHNxN mDyS4OcHjJ4ioWELyWvX/omATz8FJk3iv6dGApDHlxCcV6BxCwkffWlB8NOGmJlNtlMwhtNHCV98 RIiOBEZMlPBsRy/1BJkQGwu8/z4wf37an0sA8vsTSgQJNGstYexUC0qWNsLCLE22U3An/14gTB1D uHsTeO8TCa27eO/IQClRUcDo0cAPP6T8TAJQMIBQPLdAt74S3vvEYuogq5eR7RTcQfxjYPZnAlv/ JLzzkQWd+2Tv/MsIIXiT1JQpwM2bgEUCiuYUKJabMGaqBc+/ku1E3cBei9EWeDt7NhO6NpQRGwOs OWBFt5eyHUJmWCzAW28BYWEcd4iIBN6fYEFsTismjCJ0byJw9aLRVno/2SMFnQi/C3w1XuDyOWDS bAk16mW/4lxl51+Ez0YKtOsh4d2PLfAPMNoiryR7pKA1RMDKnwi9n5FRtbaE1XstbnMIsgxs2MA7 DKtX5zevJNlvRYsCXbsC06cDp0+7xUynebajhDX7rXgcA/RsIuPY/uz3mR5kjxQ0JPIhMH6oQNxj YMpc/TfkJCUBM2bwA52cqKQVBQsCb7zBOQ7Fi2v73Vpw/CDho8ECnV6QMHS0BVYfoy3yGrJHClpx 5B9Cr+YyKtUA5q/VzyHYbMB77/Fb3s+PtxZr7RAAIDwcmDoVKFGCj1W4MDBnDgcDzUCdRhJ+32dF WAjw0nMCN0KMtsiLoGxcwmYj+naKTG2q2ej4AaHbcbZtIwoKIuIJirFNkohGjCCKj9ftdFWxdrmg FuVttOE3/a5/FmJP9vTBBW7fAEa9JlC0JDBxtgW5cmt/jNmzgXffVfeZfPmAZs2AOnWAChV4+B8U BPj4APHxPLIICwMuXgROnAAOHOCfO4MkAR99xLsVLQaOO0OuAB+8KlC9LjD2CwsCAo2zxcPZmz1S cJKj+wQ9W8lGvy/R5+30zTfK3toWC9EbbxCdPq3NcUNCiCZOJCpeXP0IIjCQ6OeftbHDGRLiiaaM lKlnU5luhxlnh4ezJ9spOMH6lYLaVLPRqSPaO4StWx0/fAEBRN99p/mhMyQqimjcOCI/P3UOonp1 onPn3GNjejb8Jui5qvr0TxYg2ymowWYjmv6xTN0by3QrVNvvDgkhypXL/oP24otECQnaHlctS5YQ FSyozkG88Yb77T5+gEdy637JdgwqyXYKSomNIRr6gkzv9pMpLla77w0LIypc2P5DNW2adsfTkkWL HDuy1M3fn2j+fPfZdzuMqGdTmaZ/LJMsu++4Hs6e7CVJBYT9B7z4rEDlmsDXS7UJYh09CuTNC5Qs Cdy7l/HvfPUVP06jRrl+PD149VUgOpqXKcePd/z7CQm890GSgPLlgf379bWvaAlg8d8WXDkPjHhF ID5O3+N5DUa7JbPz70Wi1lVstHGVNsPQqVMdv1FffVWTQxnC/ftEHTqom140a0Z09qx+NtlsRJ99 INMr7WWKidbvOF5C9vTBHudOCGpZwUbb1rvmEDZtInrqKccPR8WK5ln714JNmxxPjdK3OnWItmzR x575MwT1ai7Tw3B9vt9LyHYKmXHqiKCWFW20f4d6h5CQQDRrlvKAXLFiRHfv6nASJmLKFN70pMZB +PgQDR1KdOGCdnYsnSuocz2Z7t7S7ju9jOzNSxlxaA9hzJsCs5ZYULOB/WSmyEhg1y5ORFq9Gnj0 SPlxKlYE/vmH8wyyCrGxwLBhwKJFzn2+Vi1O4GrTBmjUiDdkKeXsWWDLFmDVIoI1VuCX7VY8VcY5 O7yYbJGV9OzYSPhgkMCF+xYkCH2yGwcNAn780dgdgGbg/n3erfnLL+4/dl4/QuViAiu2WbMrWaUl OyEqNdv+JIx4TeD8favmDqFaNeDwYR4YL1iQ7RAAoFAhYMUKviaxscCYMYCvm+pARCZKOHvTgj6t ZISGuOeYnkL2rfn/HNhFGPmGwIVwKxI1ygTs0gU4doxv+jNngPr1tflebyQwkLMyExP5eu3bB/Tu rW9l62ibhIu3LXixlYxbofodx9PInj6Ai7UO6i5w7q4F8U6OEMqUAbp1A/r2BRo00NjAbBARwTGb 9euBbduAOCf3HFgswLPPAr16Af36AblzA3/+QvhhmsDSzVYUKKyt3R5Idkzh0lnCkOcFpv9sQd3G aR3Co0fA3bv8Z2IiYLUCuXKxtkChQvq+xVxBCOD4cR6lXLoE3LjBD1VCAgfm8uRhxaWyZVmhqX59 oIAHqyULAdy5wxoQsbH8b39/zhYtWhTIqaCwzoofCasWERb/bUFQXv1tNjFZ2ylcvwoM7Czj028t aPacSZ9wBaxbxwIo27a5/l2+vjzieeUVoHNn8zo+PZj7JWH3ZsLC9RavqdDlBFnXKdwKBQZ0lDHu KwtadvCsOz8pCRg3jqXY3KGE1KgRayZ06aL/sYxm+niBi2eAuass8PUz2hpDyJpOIToKeKm1wOBR Ejq/4DkOYckSzh1ITDTOBl9fznMYNw5eKVVPBHwyTMCWBEydlyXj8FnPKcgy8M6LAtXrSBg61vwO gQh47TXg55+d+7yfH1CsGMcRrFaOKzx4wElYrva8xQJ8/DHwySfetcRqSwLe7CnQqIWEN0ea/x7R mKznFCaPEHh4H5i5xGLq+bIQPKf/+29lv1+3Lld3fuEFDoKq5eZNjuyvXMk7NNUSEAB8+y3w+uvq P2tGYqJ5NDnkQwkde5n4RtGerCXHtnQuJ8RoqYegB6+8okyb4IsviJKS9LPj+HEWdlGTrwAQlS9P dPSofna5ixshRM9WstGpw1lKqCXrJETt3SqobTUbhZs48ejbbx0/cO++y6nA7kYI1o1UI6oCEPXv TxRrcidsj6P7BbWuYqPbN4y2xG1kDafw70WilhVtdPGMOT3+b7/Zf7D8/Ig2bzbayrTMn0+UM6e6 jMdvvzXaaudYs0xQjyYyxcYYbYlb8H6nEBVJ1L6mjXZvNp9DWLTI/oMUEEB08qTRVtpHCKJJk9Sl RZcpQ7R3r9GWKycujqhRZZle754lNN28W46NCBj3lkDXFy14pq05gkVEnDosSRwYzAhJStnKW7Om e+1TiyTx6oMQnEbes6fjz4SEAM2b82dbtwb+/Vd/O53h7FmWy8uRAzh4wYL9+4BF33p/XN6rncL8 mYSdO4DEHJLLy2+usm0bF2WxWHj3YWaMH88PWOvW7rNNK/LkAX7/nR3fnj38QDlixw7Wa5Qk1kg4 c0Z/O+1hswEjRrA91avzqkwyl8ItmD1F4MRBL3cMRo9V9OLkIUG1itjImm5Y+/LL7qtHsHYtUaVK yobUL7zgHpuMYPp0LlqjJkBZvDjRnDn6rq4kExVFNHKkMhtz+ghqXdnmzZJu3hlTeHCfqGGwjXJY hd0OliSi7t050BcX59oxk5KIfv+dqEsXdTd/nz48L88KxMYSDRyofokTICpZkuijj4hOnHDdjqtX iT79lCg4WF2gdNMm/vyCmYLe7Om1svHeJ8cmBNCvrcDOgxLuxjoXR7BYgHLluBUvztl2fn68GzIq ijMnr14Fzp93fsvxpEk8F8+q3LoFDB3KyVyuEBQEVK4MlCoFFCnCWawWC8djHj7kmpnJmaLOULIk sHUrUKlSys+IgOH9eFesF+549L7NS3OmCBr+kkxCcHS/SBHn3kx6tKpVic6cMfoKmY87d1jW3uj+ Sd1GjbI/gnsUQdS2uo0O7fG6YZ53TR9OHBTUtrqNoh49+X9nzxL166deUdjVVqNGyrAzG8cIQbRg AVGFCu7tJ0kievttji8o5fRRrlkZFanf9TAA73EKj2OIOtSy0eG9yjz3hQtEY8YQlS6t7c1VuTIH 1qKzi45ogiwTrVpF1K0bkdWqXT9ZrUS9exNt2+aafd99LujDQV4VXPCemMKk9wRy5gJGfub8KqsQ wIkT3C5c4PX0O3c4jpCsWpQrFycclSrF88w6dYCGDTnmYFZiY9MqLwUFcck6MyeEOSI8nIVwT58G rlzh2EF65aW8eTkmlKww1aAB/11LZBvwUhuBV4dJ6NDTgy9oCt6RJbl/B2HqaMLqvRb4BxhtjTGE hQGLFwOrVgGnTqn/fGAg8NxzrLrUqxc7jmyUERoCDOwk49cdVhQqarQ1LuP5TiH6EdCzqYyvl1hQ rY5XeGpFyDIXoJ0yBYiJ0ecYPj7AgAHAyJFpo+/ZPMmyHwi7/ibMX2vulHwFeH7dh4nvCvQakHUc wjffsPqRjw8wdqx+DgHg3X0//cRLfpLElay+/16/43ky/QZLsFi4+pSn49Ejhb9WE5Z8T1i+1eKV 0mDJREUB7dsDBw4YbUkKPj7AxIms3ejhb0bNuHMT6NVcxortVgR7bjk6zx0pRDwAvhov8MWP3usQ QkNZojxPHmUOwWoFOnXi3IpTp/hNby8GHxPDtSynTeO8AzXX0WbjPA2LhROG5s1z/jy9gSlTgGIl gfM3LRgxQMBzX7WAxy5Jjh0s09wvvW7jCBERPXhAVLSo42U1i4VFV27f1vb4iYlEP/3EeyzULvWV KuVZadGu8vXXGSxLF5Tp9yUee2965j6Fw3sFdaxto4R4oy3RFiGImjRx/OCNHUtu3XcfG8t5Bz4+ 6hzE888TPcpgI5k3sHcvUe7cGZ+3n4WoXnEbPbhvtJVO4XlOISGe6JnyNgq0CnrmGaIbXiKT9dpr 9h+w4GCiy5eNtpKZPZsoRw7lzsFiIZo2zWirteHq1RRnkJny1IgRRN9/IeijIR65qcnznML0T2Qq m19+oiNGjjRGu9BVhgyx/0DVrUv0+LHRVmaMEESTJ6tLiy5ZkmjnTqMtV8+VK0T586c9l/SO8fvv U34/MYGocz2ZDuzyuGmEZzmFkCuUoUZC+o6aN89oS+0TF0fUvr39h6dcOc8SPI2OJnrpJXXTi1at iEJCjLbcPhs2sHJ2RvYHBPCfM2Zk/Nmj+wV1qGWjeBfT8t2M5zgFIYhebCVTXj/7GgmpW4ECREuW GG15Chs2EOXJY99mX19+K3kyR46wU1PjIHr0IAoNNdpyJjGR6M03HdusRBjn43dkmjPFo0YLnuMU 1iwTNKgrz9GuXSNq1EjdTefvT/TJJ+5/+x44QFS/vjIbV6xwr23uYM4c9QHKBg3cn1kqy0Sff67M 1goVlE/pHkVw7Yj//tXXfg3xDKcQG0PUqrKNQjJ4g/7xB1G+fOpuuuTh+cyZRA8famvr/fus6qPG Jk+VPldDXBzRoEHq+0mSOJtx61btbdq+nbMvldoSHMz9q5bViwUNfcFjgo6ekSX5zacCj2OBsV/a 32s1axYwerTzakhlygAtW3LWY/XqrLxUsGDaOolEvOnn6lVW+z10CNi5Ezh3Tt2xrFZg+XKgTx/n bPVkbtwABg9WXhIvPT4+QNOmQLNmnKVapQoQHMxJXamRZeD2beDyZeD4cWDfPhbQVbs1vEkTYPNm zpB1BiGAPi0F3psgoWlr02//NL/y0u0wohblbRTxQPlnhODgT2Cg+jeT3q1ePe9ZRtWCf/8l6tzZ +H7JaIQyebJ253nsgKDO9WSyuUGI1kXMX/fhq3ECb3xgQd78yj8jSSzTHRvLXbx+PVCvnn42OqJE CeCPP9iWI0eUSZ9nFcqW5f4hAqKjOckrwMD09379uCq3ELyNWyvqNJJQpjzw+xLTD8xh6pHCyUOC OtWxUVKidt9psxEtXKg+UKn2LdO3r/mrO5mdS5d4G3dQkH599dRTHFtK1PAey4zQa1y+MCO5QBNh 3pgCEdC/jcDgURKeaafvPOzRI2DTJi5McuAAxweEUPbZp5/muW2bNkCXLpy8lI1+nDwJbNnCxWYO Hwbu31f2uYAAoH59oEULoGNHoHFjfe3MjOnjBSABIyebdpBuXpGV9SsJfywhLNpo2otnSk6e5ADe nj3AsWP2H5qAAKBq1ZSHpU0boEAB99maFYmNAbrUl7FogxWlNJaG0whzBhrj44ieq2qjy+c8atOH ISxb5lw2o6NWqxZv2433sqQzo7hzh2jYMK4gXsBf0KBupl2iNGegceVPhAbNJZSvYvrlG0OYPp2F YiUJ6N+fxUu15uRJLtYSEMDHqVkTWLtW++N4M6GhPPqSJNbF+PZbXi5/kCDh2EHChVOmHKSbL9D4 OIaoZQUbhV4z2hJzceGC9nL0zrYcOVhHIJuMmTzZ8TXM4yvopbamHC2YL9D43VTCzK8INVpY8OOP LKeelfnjD6B3b+WBT4DfTLVrc6tQgWXOg4J40098PJdTu3EDuHiR5eyvXHHevhw5gJkzgSFDnP8O b0CWgR49eHlVKbWKCixaK6FWQ1ONiM0VU4h6RFSnqI180mVBvv++Z6ZFu8Lq1crf3B06EP31lzaF av/5h+j11zPPDLTXSpRwvbiKpyHLRK1bK7s+QUFE48cThYXxZ7esE/RqJ9ONFsyV+/DVxzKVyvOk VkJyy5mTaPlyo63Ul7NnHSflSBJXt0pI0N+ey5eJXnlFvYPo0MG5PAFPYtgwx9ehXLnMHaUQRC+0 kOngblMF1M3jFCIeENV2oJWQutWvz1tkvYWICKLixe2fc7Nmxj5oskw0dSqnd6txEJMmGWezHnz3 XcpLKjOnPWuWsu/avUlQ31amGi2YxylM+0imbz6V6eBBomrV1N10w4YRJZl/T3mGREcTVani+PzM hhCcDapGdalwYc8utrtsWdrzSZ9bkzMna0mopX9bmXZvNs1owRxO4d5tomfKPVm9d9Uqx6IkqZu/ v/lVl5K5ccPxasK77xptpTIeP1ZfSr5lS6L//jPacmXMmJHxOSQrL+XIQXT+vPPff3C3oOebyZrE hDTAHE5h2kcyffd55ldECJ5Dq7npihQh+v13N56EQpYudTz8bt3aaCud5+xZ9SO9vn2JwsONtjwt sbGsBuXoJfT339oc7+V2phktGO8Uoh7xKOGhwpvi5k1+y6i56QoUMHYEcfYsUcOGju0sVIhrPngL CxaoX8Xo2tW1t66rzJypLGYyapS2x929WdDL7UwRWzDeKXz/haAvxjh3MdavJypYUN1NB3A9gn/+ 0fhE0rF6tfLtx4GBROfO6WuPkSQkOFatzqgVLMiBTT1rR4SH8wOuVDKub1/9bOnZVKbjBwwfLRjr FOLjOJX0lgaCnTNmqI+KJ7cKFXh6smuX+hRaIYgOHyaaMIGocmX1N/3Fi66fuycRGkrUpo1z/WS1 siDLjz+yTqdaHj4kWrmSH2y1I5g339T+WqRn4ypBb/cxfLRgrFNY9oOgcUO1vQg2G9HEiXwDOXPj uaO1a0cUE6PpaXskp08TNW9ufH/Yc0ILFrjvethsRO1rGp4IaJxTsCVxJuS/F/Q9zg8/8FKY0TdY wYLmDHyahevXifr1M76fAKJevXjfiBH8Ml/Q6DcMHS0Y5xTWrRA0/CX3nvy1a0Rvv+3cFl5nWu3a RH/+6dZT9BpWriRq3Ng9/WSxEL31ljl2YCbEsyT8zeuGmWBMQhQR0K2hwOQ5Emo2MC4Z5PFj4Pff OSV40yb+t7MEBHAZ+L59OTHGYsqkdM/lzBlg1SpOODp50rXvqlgReP554OWXgUqVtLFPS+bPINy/ Q/joK0NuImOUl3ZvIvw8h7Bog3mfnNhY4Pp14M4dlmtLTGRZ9ly5gMKFWVK8YEGjrcycO3dYeenS Jc6IjIgAEhI4UzIoCChWjEVTq1Vj9SVPdWJEfK43bgDh4dxvQgD+/kC+fHyepUuz/oQZEQI4dYqd 3rVrfC6REcDVf2RsPWNVJVisEcZkSb7WRabdmwxfevEajh0jGjgwZYedK614cc5KPXHC6LPyPpKS eOWkXj3H/RAcJNP3XxjyjLg/pvDfv0Q1C9soOJjlvmTDV2A8k2++IcqVy32Bt+PHjT5jzyQ0lKh7 d/XX3FciahhsM6JOhPvl2OZNF7gdbUFoKMt9Wa0sCjJgAHDvnrut8Sx27mTRGUkC3n1XfaUjZ1m9 misxSRJPnRYtcs9xPRUhgGHD+HoFBzsnY5dEQHS8hJ1/uX12D7eOFGKiiWoVdpwe3auXOSLBZmHc ONfe9L6+RPnz8zbqoCB1mY32Ws6cPBzOhrl5U3217dRNknj0V6gQb83PGyCoexO3D6XdO1JY9TMh OkmC7MD5rV6d8kYcPhxISnKPfWbjzTf5GkyZ4vh3ixbl6krHjz95uyUmctWje/c4aCrLaf9fCODg QWDcOK6fqZTY2BQbixXjFZysyLVrHNQsUQL491/Hv9+mDbB4MQd/0/dDdDT3U3g48PCxhKR4wqWz bh4tuMv9CEHUsbaN9mwX9P776rck+/u7d3eZkSgdGbz9tvZVs1Ozbh1R06bq33gtW/Jb09uJjCQq WtTx9QgO5n0XzrDsB0EThrt1tOC+QOOeLRnr0W3YQFSpkrqbrlo1zjz0NtascXzuzz9PFBXlftti YzlxSO3UY8wYbbQjzYQQ7PjsBXr9/YkWL3b9WDHRRM2etlGkjs4/He5zCm/2lGnbevt3x5496pOK Xn/d8wuWHDhgf+QkSeYaJdlsRJ98os5B5M1LtHat0Za7TmoxmYyqmlevrn08bMpImRbNdptndY9T CL1G1KaaTZUi8x9/cHBM6U3n58faeZ7E1q32nYHFQrRxo9FW2ufxY6I33lDnyJs1cy7L0SiEyDgv I0eOlL83aaJfkdqQK0Rtq9vctXzvHqfw9USZ5n7pnKcTgoU/JYWCrgBvwFm/XuOT0JAvv3R8Dj// bLSV6rlyhQV11TiIV17hubkZuXuXqE4d+1OE0qV5aqU3AzrIdGCXW0YL+jsFWSZqVdlGt2+4/l3h 4UQdO6q76UqV4lGH0Zw/zwlSjux99VWjLdWGFSsyVzu2d+737hltOWtzOJoaWa1Ep065z6Y/fxU0 cqBbhgr6O4XdmwS92UP7k9myRVnkN71n/+gj96XFHjtG9Nxzymxr3Ng7C97YbCxAq6afAKIGDXj1 wx3IMu8QzZ1bmW3LlrnHrtTExxE1L2ujR/rfu/o7heEvybRpjb7DnpkzlctppW65cxO98w7Rvn3a 2HHoEKfgqslBaNrU8wOlSgkLc151qWFD3havRRAvNpZo4UKOA6ixwehg76R3ZVrxo+5TCH1TpyMf At0ayth61go/f72OkoLNBowfD0ybxt3oLAULAjVq8Eae4sWBvHk5606Wgago4O5d4OpVzmy7ft25 Y7zxBjBvHm/8yYocOwYMHsx/OovFwqnPlSsDpUoBRYpwFqvFAsTFcc3MsDDOFD11yrnU+Fy5gHXr gFatnLdTK84eJ0wYTvj9H133HOqbJblotqCpo43JeEpK4mIlfn7OvZn0aAULaicJ7k2cOKG8HqO7 Wt++7gkgqqV7Y5kunNJ1tKDvNue1ywnd+xnzKvTxAT7+mDUEiHgLbosW7rejUCFgwQK24f59oH17 99tgdmrVArZt42sUEwNMnMiaD+6mWzfeskwErFgBBAa63wZH9HxZwu9LdBvcM3q5m1OHBb3Qwrx5 0Vu28NqzFhoEqVuePBxY86Y6l0YSEcExI3tLg862Ro2IFi3yrPT9yIcccIyP0+0Q+sUUJgwXqFJT Qp9BnjNpvncPOHAAOHECuHABCAlhJZyoqLTKS4UK8Ry2UiVOKW7WDHjqKaOtt4/NxjERSTKvCpFS iDhGcPgwcPo0cOUKxw7SKy/lzcsxobJlgerVgQYNgCZNAF9fo88gc4g4AZCIR7tW65O/M+IVgee6 SujYS5dnSx85tsQEoFEpGZeirGjREujcmTXxihTR+kjZJJOQAPz6K2eYbt3K/1ZDuXJAu3ZA166c xZdVA6Du4Nw5YPly1lm4cEHdZ/38gPrVCeWKEH7eqMvsX59A49Z1gqoUljMdtnXpQrR9ux5Hzlos XUpUpox+wbYCBbjIjVFy595CeDgXk1GzK9dek0BUs5CNwvXZ6KXPPoXXusqU20coOkGrlbPvsouj KOP33zm5yJ2R+ORWrVq2ZL1S4uNZN1Ovvng6r0zL5+myCqG9U4iJZi8mOXmy/ft7V5FVLUhKIurd 2xhHkFnLl88z8zP0Ztcu5TsjXWmBVkFdGuoSIdV+SXL7BkK9ZhK+nAbhMaHyAAAgAElEQVR07Kg+ qLVsGVCgAM9p33mHA3xZlagolmD39eWaB0qoWRMYMwbYuBG4fTvz28pmAy5fBlauZHWrypXV2RYR Abz6aorq0saNqk/Pq1i8mK9Fy5asnuQIf3+uD/Ldd7yBKy4u876KjAT27QNmzQK6d+el0seyhBv/ Ee7c1OFktHYzb/aUac+WJ4c1QrCIiNJcgNTN15dozhytLTUv8fGcl6/k2vTsSXTkiLbHv3WL63EW KKC+rxo39qy0aFdZvVrZdcmTh2jaNKI4DZcSp30k08JvNJ9CaDt9iHxI9Ew5GyUpyCsXgkU/ixRR d9OVLav9Q2AmlEwTXn7ZvepL169zirNaB/Huu96Z5EVEdPmyY72P3LmJfvlFPxvOnRDUq7nmUwht ncIv8wVNetc5IzdvVq+E26+fObeiOsOECY5vsB07jLaSKCGBA8NqIuk5c+r7cLiThw+JSpZMOa+M zrd3b/0EV9LTqY6NQq5o+pXaOoX+bWU6us/14cyaNZwnoPSm8/Eh+vprDU7AAD77zP65PfUU0e3b RluZMY8fEw0erM6R16/Pb1lP48EDovLl055LauUlgNPy3c3sz2T6fqqmUwjtnMKdm1wtV+sto198 oU4LsHhxor/+0tYGrRHCsYRZ/vzmdQYZ8d9/RM2bq3MQAwYQRUcbbbl9Tp3K/AWVvEX+vfeMs+/q JaJOdTWdo2nnFJb9IOjzD/XbRP7oESsZq7npKlc2x5A7mZMniZ5+2rHdWuk7GMWaNer3UgwbZq6p 4KRJjm1u1swcStVd6st09ZJmX6edUxjYWaZDe9xzhfbu5WG1mpuuWDGi+fPd34k3bvAKgRIbv/zS vbbpjRBEo0er6yeAnf+5c+63d+lSZWLBBQqwfqNZ+OZTmX6crtmNrY1TiHrE2vQGFMOk2bPVF5YB WLd/5Urto+NJSazqo0aqfvRobW0wI7dvE7Vvr76fAgO5CvaFC9rbdOkSF9SxWpXZEhTEnzEbZ44J 6vOsZqN0bbIk168k7N9BmDrP7fVq/0dSEpdNmzHDuc9bLEDTprz5pGFDzqp76qnME4PCw4GzZ4FD h7jw6/btvCFIDTNmACNGOGevJ3PoECtPnTnj3OcLF+akrWbNOEu1cmUgd+6Mf9dmY42E48d5A9CW LbxpSw1lygB79gAlSzpnr94QAc9VlfHrDisKFXX567RJiHqvv0xb15lgcvX/PH7MwR+tElC0bCVK EB0+bPQVMg+7dhHVrGl8v2TU3nzTc/ZZTB4h068LNHkGXd/mnJgAHNlHaNraPLm2OXIAX3/NefVC AHPn8lZcI+2ZPZtvtbAwoH5942wxGy1aACdP8rW5dg14+WXj7bl4ke2ZNy9jPQMz0rqzhB0bXR70 AwBcdgoHdxFqNZCQI6cW5miPJAFDhgC3bnFH378PTJrEFYL1pHlzYP16Pubjx8CwYfoezxsoUwZY siTlXb1tG9Czp77aDgEBwPvvsxgvEbBrF1Cxon7H04v6zSScP0WIUZB34QiXYwoThgvUrC+h58vm GSmo5fx54O+/gR07WHkpIkL5Z3PkABo35jlut27qE4uyUU5iIscEtm7lOf7p0zwSVEqZMjwS6NgR 6NKFHYI38eEggWc7SejQ06Vn0TXlJSGAhk/JOHHbCvn/vyV//hSZsiZNgNatOTCUjXsID2eR2j17 OPvu4sWMpc19fFhSrnp1ns488wz3l8W4WHGW4/BhHg0dOMBB1xs3MnZyefLw6KV2bX4BtWqVsfzf pjWE7esJXy10qRNdCzSePCSoZrHMFZbSt9KliSZP1r4qb1Zm1y6iDh20DbBJElHnzu6r0JQViI/n fShqEwAdtaJFicaOJQoNZS2TpmWUJSTawbV9CjMmyFQkhzKFpYxaoUJcrsuT1HTNwK+/OpfW7Err 1Mm7s1P1ICZGX/WljFqtEjId3uvSKoRrTqFtTZn8Lc47hfTtrbfcmxLsSdy/r77MmV6tZEmiVauM viLmZeFC58oYatEK+guaOsalt6zzm5eiIoF2NWW8+pEVQrBK0J07XE7t7FmWR3eFd94Bpk9nhZqs zKFDHJeJjVX3ucKFeQ5aoQLLnAcFcRwhPp7Lqd24wfGGU6fUf3dqihfnpbvOnZ3/Dm9h6FBe/laD xcLqWtWqAaVLc/mAwECOLURH86rItWv8TF254vj7/C2EppUJ2886HVdwPqbw12pBo99Q5pFOnCAa OVLZvvL0zWrlYiBZjYMHlW/frlaNaN483rTlCvHxrHvQrp1zb6l69YguXtTm/D2JAQOUXR+LhX/3 wAHXj3nhAtHHH3NW8BNTiCIuKT07P334aIhM61c6N3eJjCQaN45Lw6sdtu7e7azFnsHt27zH3tG1 ePll9wRsd+wgatVKvYN44w0WZPFmvvjC8XXIk8c9ArdxcURTp7IYT/kCMv35q9NxBeedwrOVtNOd /+23FDUbpa1HD3Yu3kJiouPtvmXKGJM9mMyjR0RDh6rrJ39/nmN7E3/+yeeWmfISQPTBB8alVf/1 u6ARrzodV3DOKVw+J+j5ZvosGfz+O69KKL3pLBbPTjm22RyL2fboYb49+LGxnBugxkFUr0509qzR ljvPrl1pA4iBgWnPz2plLQmjeRTBWqlOOiXnnMLCbwTNmqT/OuLMmcrTWgFeAza76lIy0dFc4NTe +Tz/vNFWKuPmTfWl5Pv3N7/qUjIrV2as/pWsvGSxEG3bZrSVaenzrNMl651zCq910UaLUSmPH/NN pOamq1WLg3VmY+dOLqRiz/aqVVmXwRPZvFndSA9gIVh3CZ0qRQhWg3I0NZo/32hLM+bbKTLNn+Em pxD3mKhpaZd3TTnN0aPqVZ+rVTN2BBEeTtSrl2M7AwK8q4S9I4XqjNrbb7NislGsWqVslezFF42z UQknDgoa0MGp0bx6p7Bvu6ChL5hjC+LcuUR+fupuOl9frkcQEqKvbQcPEnXsqMwmMw4/tSQ8nLdN q3UQNWqwRJqeO16TknhXrdLl8meeMV98JyNsNn55x6nXvVTvFGZNkmnRbPMIqhDx0PP999XfdADv 82/ViitQOfuWvnWLh5Ft2qg7tr+/uYRl3cGhQ+qk6lK3AgWIhgzhUZ8zlZaEYFHcUaNY7EbNsTt2 9Lwp3eDnZTq4W/Wzqt4p9Gsj05lj5nIKqXn0iGjQIOduusze4kFBPE/Ol885Pcj0rWpVFnTN6mzc yMusWvWVvz+/8QsWJMqVSxvlrQkTjL5KzrNgpqBvp6geZqlzCvFxRE1KGSPQ6gzx8UTjx6ufYujR fH15mJpNxuzfT9SihfH9BHA9zCvaVl0yhFOHBb3SXr1TULVB+tQRQrU6Eqw+zm6rdi/+/sDkyUBC Anf37t1A167uO37hwlxVWAgWCBk+3H3H9jQaN2bVIyLOz5g+PWPNAL3o3JlFW4iA/fuBcuXcd2y9 qFpbwr8XCAnx6j6nyikc/Qeo19RzFZaeeQZYty7lnXDtGvD550CDBtpIfjVsyOXCIyL4++/e5SQZ PeXEvBF/f+CDD4DQUL6OQgB//QUMHAgULOj69+fODbzyCgucJN8L69ez4Iw3YfUBKteUcPY4qfqc qizJgZ0F+r0lAf4Srl3jmz42li9qYCB3WHAwKy+VK+e5D4Msc7ZnSAhnfj56xG96q5VvqEKFUs4z Rw6jrc0YWQbOneNMyLAwdlQJCZwpGRTEQrZly3J2Xt68RlvrPBERnD144warTsXGshPx9wfy5Us5 z1KlzHs/hoez8tK1a3y/RUfzMxUQwM9UyZJ8r1WsqF4Z64dp/HgP+VDxySvPkkxKJKpZ0EaSE3O0 /Pk5QWbXLrXTm2yUcOcOZ8yprZqVUWvQgGjGDKJ7GuW1ZJOWv/4i6t5dXX3UjFquXLyh7++/7R/v 6H5Br3VRFVdQHmg8fkBQDRXSa45a06ZE69ersTWb1Pzxh7aR+8yavz/X0DBTmTRPIjaWd0a6owZJ rVqc+p6axASixsE2SlSesarcKcz9UlCxQO1UllI3Hx8u4x0fr9jwLMnFi0RVquh/c9lrNWoQbdli 9JUwP198YWwxIkliZxQVRTSgg0wnDyneRqDcKfRuKVOgVR+nkL6995735+KrYe5cc1a7Cg72nAQ0 dxATQ9S8ufH9kr4VCxQ07yvlTkFR2IIIuBlCeBClPKIgBHD0KPDpp0DNmuqCI7NmcaDIxwf46it1 n/UmJk/m4Nhbb/E1tYevL9C/P6+uxMWpu20iI4FVqzgin1NFUZ/QUK6hIElA3bosGZYViYjgYGau XMDevY5/v1Il4LPPOLio9hE/cwaYNg1o1Ei5fVEJwJ5tDm6g1ChxHdcuE/Vsqs0G9IMHiXr3Vu/t Chcm2rRJExNMz9y5yq5Jt276ia4kJBB99x1RqVLq+6p/f9el4TyBhATeneroeuTMycFbvXImTp8m evXVzEeTFomobjHFB1c2fVi7XNDEd7XPShGCHwBHqcTpW/v23lk74sgRx/oRDRoQXbvmftv++48z A9X0k48POxZv5OWXeQUgs3OXJKIpU4yxbenSJ7Ubaxe10W1lW+uVOYVJ78n0x1L98x1WrFBXz0CS eG+6UbJXWnHtGmv52TvXiRONtjKFyEii115T5yDKleO0d09n/PiUc0qvvARwcZYLF4y2MoWNGzn2 U7GQTJvWKHpQlDmF55vJ9K+bVXq/+UZd8lGBAqyd50mcP0+UN6/985o3z2gr7XPrFo/c1DiIvn05 cc2TGDPmyfPIkSPl708/bawOhCNW/CjoC2X1IBw7heQkKKOqOCUk8MYnNTddnTosK29Wli93PE34 7DOjrVTP7t3qBHgliZeizapPEBdH1LVr5vYHBLBTv33baEsdc+aYoP5tNXIKxw8IGtjZHKIq586x +KcaB9GsmTnKnT14QNSli2N7W7c22lJt+PJLdcuoVivvyjSDLNtvv9mPFyS3zZuNtlQ5SYlEjZ5S lOHs2CksnuMekVa1LFqUdvimpBUrRvT99+57M92+zVFhJbaVLcvr3N5GZCQL0KrpJ4CoZ0+iY8fc Z+fvvyvfIfrFF+6zS0tebCXTxTMO4wqOncKIATJt32DeSF5SEtGIEepvOoCoQgXu4OvXtbElLIwj zmpUfcqWZbmyrMCRI87tyLRY2LH8+ac2Dl0I3pX5wgvqRjNmCvY6w+ejZPptoWOn4DBLsm11GSu2 WVGwiPK9D0YREQEMGwYsX+78d1itQI0a3MqV41qJefPyZiqbjTPYUtfMPHqU8//V0r49sGYNZ8Jl Rdau5bTy27ed/46CBYE6dYAqVTgLskgR3kAkSSk1M8PCgEuXgBMnlNViTI/FAixaxBu7PJ2NqwgH dxMmz7G7Z9F+luSD+0StKps0CuSAhw/VFyvRu/n5mVcS3EjWryeqWNH4/kndmjfnehbexPVrRN0a OgwF2N/mfPE0oUotkyahOyBfPq6GTMRbrufPB55+2v12+PoCEyfyKCMhAXj9dffbYHY6d2bdByLW sBg0SL1ugBbUqQPs2cN27NnDo0Rv4qnSwP07jpWY7DuFM0Clap7pFFIjSfwwXr3KHZ6QACxcCLRo of2xLBbg+edTpMUSE4EJE3hako1jSpcGFixgkRgi4Px5YMQInhpoTcmSnF8SGcnHOnYMaN5c++OY BUkCylSQcO2S3YiBfeWl0a8LtO0moXUXz3cMjiDieef+/fznhQvAf/8B9+/zWz4ZSQLy5OE5bOXK QO3aQLNmnKBixNstKxIZyYlHhw+zruKVKxw7iI5O+3t+fuxMypZlqbUGDYCWLdkZZFU++0Cgam0J Pfpn+kzvtesUujUUmPCtBbv+4ey7ffvYgyulbFmgVSseHnbsyFmP2ejH9u3A6tXA338D168r/5yv L9C0KdC2LdCtGwfustGPiAjgl1842LprF5CUpPyzTz3Fz1THjixCrDZQvfpnwpULhLFfZvoGyzzQ mJhAVKOATfMAjr8/lzO/fFm7AEpWZdcurlikV7CtZk2iBQv0rdCUFUhMJJo8WdmGKGea1cr7YU6e dGzL6aMOy8llvk/hwmlBtTSUX8us5ctHNGuW5yc1uYtDh4jKlzcmIt++PdHx40ZfAc9ACN6haYQ4 TmAgb5PPaHdoci1YO2TuFNYuF/R0Pv2dQupmsXDiiRm2upoNZ8vi6dUqVfLu+pfOcvmycxoUerah Q1krMpmOtW10OyzTU8h889Kk9wVmzZEQaZMgSUCTJkDr1lzboGpVDtakj6jHxHCE/8wZDgLt2sV/ dwarFZgyBRg92rnPewM2G9CpE7Bli/LPFCjAG6OaN+cltvLlOTCaWt5cCN6AdfEiB1X37eN4RFSU c3bWrg38/DNv+Mqq7NjB111NfKBePeC55zhIXa0aB6/Tx90eP+Zl2rNngSNH+Jk6dsw5GyUJGDMG iAsT6P6ShBbtMww2Zh5T6NNKpj1btRvTx8QQffstv2HUerr8+YnWrtXMFNMjBFHbtsquTYMG2l+b I0eIXn+dRVLU9lXv3p6XFu0KBw44zngF+HeGD9e2hmhCAtFPPxHVrauujwoHCPpuaqbPdubTh2ZP 2yhWxwSd2Fiec6mt89iiBecYeCtK8jiefda96kv//MOVudX0k8VC9NVX7rPR3YSHs3iJI0cwbZr7 bEpM5OM5Cmjmsgoa2DXTYGPGTuHebaJ2Ndy7vfmnnxyrD6Vvo0d7T2R8/nzHN9iSJUZbyUVi+vZV 109PPUW0d6/RlmtDQgJR7dp8XjlzZny+jRtzqrzRrFrFSlDp7fORiJo+nenznbFTOLBT0Dt9jXva Zs9WN4LIk4do9WrDzHWJxYvtn1vu3CzMaUZu3iTq2FGdg+jZkygiwmjL1ZOQ8OTyb/rU/ZdfNu8q 2uLFaUcQNQpkWiAmY6ew4kdBMz4x/hWclMQFLdTcdHXqEJ06ZbTljpk0yf55+PsTnTljtJXKOXCA 08DV9NW4ceYf6d2+nXkcLCCA/+zVy2grlSME60zWLi7T1UsZ/krGTmHKSPcItarh6lUOqqm56dq2 JbpyxWjLU7hzR1mxkJUrjbbUNb79Vl2Q0teX58JmessuXOhYI7RiRc8tWvTh6zJt+zPDC56xUxjU VVWZKbfzyy/qd4fVreu4GKceJNcSVGLjsGHut09PYmOJ+vVT108WC9G77xozJ9+5U9nqmL+/uRSb nWHul4Lmz1DhFJ6tZKNIEyvTJiPLRB9+qO6mS77x+vcn2rdPH7s2byZq00a5Pf366WOHmThxgqha NfV9VaoU0fTpLOumNY8eEX3+ufK6Iz4+LE7rDWxeK+ijIRnO3Z50CnGxvBzpaTx4wPJaam+65JY/ P9FLLxH9+CPHJJIcCFwKwVOT5ct5TT+jKK+j9t577rk2ZmPVKqJChZzvq7p1eefrhg0sMe+ImBhe Vv3iCxbGVVsGPk8e76hZkZrL5wS92EqhU7hwSlC/NiaP/jjg5k0O/jh70+nZAgO5jHw2zLJlXBLQ 6H7JqHXsSBQdbfQV0oeEeC7dkAFPKi9duww8XdG5bZRmoXhxLphKBMTGAh99xBqLRiFJwKhRvAU2 Nhbo0cM4W8xGv37A3bvcV3v2sN6BkZQtC2zdyvZs3Miaj96Inz+QMzfwMPzJ/3vCKYRcBsqU9x5R lcBAzqGIj+eOPnUKeOMN/Z1EmTLA3LmsPyEEVwrO1pOwT/PmwM6d3E+yzPkUDRrof9zevYGTJ/m4 //7L+QhZgTLlJYRcoSd+/kRC1MiBAp1fkNCyg/c4BnvIMrBtGwuT7NjBiSf05HWyS/nyKQIlzz2X NvkoG+0ICwPWr+c3+Z49wIMH6j7v78+Op0MHoFcvIDhYHzs9hS/GCJSrJKHXq2lu2CeVl3o2FZi1 1ILgdCKnISGcSXfwID84165xpwjB/58sUxYcDFSqxBl6TZpwy9YndB9CALt380Nz7BjLm4eFAXFx Kc7OxwcoVoyFbKtXB+rXB555hvURs3Eft26xgzt4kLOJr14F7t1L+0zlzs1qSxUrcjZq48bs2Pz8 XD/+yp8IodcIo6akmTA8mSXZsKSNkhI5Cu9M4Q57rXlzruzkKLKfjXKuXmUpezXFeB213LmJ3nor W1BFa1asIKpXT9tnql49rnoWF6fenoO7Bb3d54lFhbSrDxEPiGoV0V6CLbNWs6bn5iwYyT//EFWt 6r4ovMVCNHiwsuW/bFKQZc4EVrsE6korV47zHJRwI4SoeyMHTuHscUG1irtXbSm5+flxyTWz74U3 ivh41/ZhaNkaNOBch2wyZssW9Rm/ejnz0aMz34ptS+KZQTrSKi9tWUcY/gbh0v3MtcoLF2a139Kl uWxXQAAH66KiUsqpXbjAtRWcxceHVww+/ND57/AWrl9npeWbN9V9zmJhCfry5XmJNk8eju0kl1O7 cYPjDaGhrtlXrx7XaahZ07Xv8QamTuXlb7Xky8fKS6VLA4UK8YqZECxZf/cux+/On2cVJmeRJGDs WK5zkboUQesqMtbstyIo7/9+lDam8NMsQUVziP95mq5diTZudC1RxWbjsmAvvqhMoSZ9y5OHS4Nn NUJClL9t8ucn+uQT/owrhIayMIoz25EBou7dzaEj4G7GjVN+jZ57jnd0ujIiFoJo61aigQPVixQB nLuRXL7w5XYynT+Z5gFPO30YO0SmoQOE7tlqFy4QvfKKc8PWq1f1tc1oYmNZlMTRtWjZUn+dBSF4 fqpWPVqSiD79VF/bzMDSpY6vhdXK8u5aVMu2R2goC7SqjV/Ue1qmrevsOIW3est0eK97syOFIJo5 k7f/qjmZYcO8axVDCKIOHRyPmjZvNs7GK1d49KimnwoX5jm2N3HsGCdHZaa8BBD16UP0+LFxNi5Y oCzRq2igTItm23EKXRvIdPO6e41Pz6xZ6oZEOXNyUpInM3Cg/XOsX58oKspoK9MSGurYiaVvHToQ 3b9vtOXOc+kSUVBQyvlk9CKbPdtoK59k0aLMpQby+Aga/3aauUxap9CwpI1sJnn72mzKRExTt5o1 zStdlh5Zdpy01bChZ9TAOHpUvUr3mDGes9K0b1/GDiC1HNvPPxttpWOEYMWv1AVqAq2CXmqbiVOI fEj0XFVzpkyHhbGKs5qbrnNnc6o+X7nCa8l2h3RFPVcmfcECdSO9gABzvl2JWA3Knu3+/hzg9UQi Ijgw7CsRtayUiVM4d8JhjTlTsHYtUd686hxEu3bGjiASE1k7wZGdFot+wi/uJiGBdSbU9FNAANHU qcbGig4cYJk1R7Y2b24u+ThnsSURNSiRZjCQ4hS2rhM0drD5nUIyQqhbCkpuhQrxGyB1GS09uHGD tx8rrSWodBeaJ3L+PFGtWur7qmNHoh079Ldv9WrlW/rLl/c+jYXWVWz0KEVhO8UpLJ0r6JvJnuMU UvPgAVcmUnvTATxXHDCARyDORouTkog2bSJ67bUnZb/tNUkyRy0Hd7J6Ne+rcKavatbkXa+ujPpC Q3m60qiR+mN76pTOEf2ek+nyuf8Ne1J2NH49UaBoCQl93/DsvN9r14ChQ4HNm13/LosFKFKEd5z5 +aXs3Lx7l3cGOkuhQpyqXbeu6zZ6Mj/+CIwcyTv3XCVXLt5tmysX91vyzs1791z73kGD2E5L5pt8 PZ73+gu88JqEJq0kIPWOxrGDn9jE4PHcusWjAGfeSnq0kSM9J+LublauVF83Qq8WHMzKzlmFzz6Q ae3ylJHC//zf/TtAoaLGeSs9KFaM1XuSu3vFCtZ5cBd+frzf/PFjPv5XX3n3G8cVXniBVY+IOM/j vfc4r8Zd1KoF/PUXH//6deNl4dxJwSIS7t9J+Xc6p+DZUwdH9O3LwiPJTmL3bp5qFCumzfcXLw58 8AEnrxBxUtjnnwM5cmjz/VmF4sWBr79OEYZ59AiYN49VrbRwqpIEPPsssGgRkJjIxzhxghWZsiKF igL379L//v2/mEKzMjK2X7DC34F3FoKz60JCeG4dG8sXNTCQsyaDg1klJjBQ1/PQldu3OdMzJIQz Px894pvHamUlnEKFgFKlWGGqXDmjrc2chw+BixdZeSkigp2Ujw8QFJSivFSmjNFWOo/Nxv105Qpn fT54wPejLPMoI29ePs+yZYEaNfi8zQgRj5KuXuVnKjqafxYQABQokKK8pJf9e7cS1iwjzFxsAYC9 PgBgS+KHPb1DOHwYmD8fWLnStWBQjRqsidevH9+IZqdYMe1GD+4gKYmnST//DOzf7/z3BAQAnToB ffoAPXuaX0bPx4fl5KpXN9oS5Zw9y4HLFSvUa0ympmJF7qN+/YCqVV2zqVARpJk+gIjodhhR53oy JSby2r+W0l6ZLcX16ZMt9+UKhw8TNWumf9CtWDGu0OSpNRONRgiiL79Un/DnTOvcmWjvXvU2ht8l alfjfxuYeJ/C6aOCahqkuARwNtf332vXEd7KgwdcNNeofgJ4Q9G5c0ZfCfOzbJm6PStat8BAdkZK VrtkOc2uRnYK2zcIqlzYOKeQuvn5Ec2YoV9neSIbNjgnpqF3a9KE6MwZo6+OeZBlLj1odL+kbxYL 0YQJ9h3EM+VsFBtDRMlLkvfvALGZbMYpXJiXh3bs4MCOUlMiI4G1a4E33+QApFISEzmCnywZv2KF C5MlD2fRIr4OnTvzdXFEy5bAd99xgFTNbXP2LDBrFtCqlTr79u/n+bwkAV27AvfvO3WaHk9SEkvm Wa3K7tegIGDIEGDTppQiRUpabCxvehs+HChZUrl9QgCTJrF9AQFcpCg9BYtICL/7//8gIvrmU0EF /FiGzdeXFWj1yA0QgqWo1G4xBYhq1Mg6w9YNG5Rdkzp1eHu1Hty6xenNzsyFx471jmQhRwihbDon SZwQp5dU3caNXDhXbT+VLp2SgDf4eZmO7hNEydOHsUNk6tdduH233ePHHNj08VF3Mq+/7p2Br//+ s6/mA7BU2z//uN+2ffvUBzbz5eOcEm9k7NjMhUuS21tvuV8PI5ROfCAAACAASURBVCmJq2urjWe0 qiXTtj9TOYVRr8m0Y6Oxrl0Izl5Us/Lh78/5+55ORARRqVL2z3XQIPO8fa9cIWrTRt1N17IlVwP3 dObNSzmnzIRXtm0z2soUfvjB8YsGICqdV6bVi1M5hTd7ynTsgEnuOGLVpVGj1N10lSt73hLnvXtE Tz9t/7w+/thoK+1z7Jh69eeRI/UXMtWaOXMydgCpR0VmFxWeMiVzYdciAYJ+mpXKKfR5VqZ/Lxhr cGbcu0fUvr26m65bN6I7d4y2PHP27OHSbPbOYfBgo61Uz7Jl6mIQAQFEc+cabXXmCEH09tv27ff1 9bwVmOhoLrmQ+lzy+QqaNk4mSnYKHWrZ6L6JH6JkNm9mdWA1DqJPH3MMWxMTeY7pyN6qVT3vLZoe m43VttX0U1AQD83NwP79nCnpyOaFC4221HUOHeLRapCPoFGDUjmFJqVslBBvrHFqmTxZuapRcqtb l+jPP91nY3w80fjxyorg5MvnnbUar15lAVo1/WSxEA0f7t7R3qFDygOp77zjPrvcxe7Ngob2SeUU 6hf33FdTZKTzqkutW/OQN14jh5iQwLJqah6CvHmJLl/W5vhm548/iAoUUN9PQUG8pHfihHa2XLhA 9MEH6qY7gwZpd3yzceqwoEFd2SlIMdFEnevK2HnJ5NkvCrh8mTdL7d7t/HcULgw0bMhJXGXLAiVK cLadvz9v3oqOTqmZefYscOgQbxZSS/XqwPbtnHGZFZkzBxg1ynkFK0ni+pV16nBt01KlWCUrZ860 ykthYZzVe+IEcOCAc8ebMsW5GpGexPWrwMiBAqv2WPbi5nWibg29Tw7o/Hn1xUrc0TxVElxPvv9e vUK33q1MGV5ZySo8DCdqW81GRLTHEhVJqSvOeg2VK6co6cTGAhMmsH6fEbz+Om/7JuLtptmk5a23 WO+BCNi7F2jXzhg7ihblbcpErPXpTpUuownKC0Q94r9bIiOAPPmNNUhvAgOBiRNTxCtu3+aHUy9t hwYNgKVLec85EWtS5Mmjz7G8jWbNOCcg+Z29eTPQuzdrJ2iNvz9PNy9cSLkv+vbV/jiegNXK96vN Bknauk7Qzr8JU+ZmbfHAqChg1y6edx4/zjdKWBjfLBlRoACPRmrX5hu5TRtWfc5Gf86dA/bsYRGg M2dYeSkqKuPftVpZXap6dY4VtWgBNGrkXns9hTbVZPy6w3rAJzYGyGlnWJ2UxNmO69ZxYOzOncx/ NzX+/nzxW7fmLL/atbUxXC+CgjjTr2tXoy1xnsuXgdWrOZPu4EEOjCqhVCngmWeAtm35/M0qW5ZM 1arc3nrLaEucQwhg40Z+rrZtA0JDlX3Ox4dHoa1aAR07Ao0ba2tXYE4JsVGwYsV8QTM+SQk0CkH0 7bdcz1CPAE7JkkSff+69hTXcyZUr+ubvd+qkXxZmVmPRIsdb2p1tBQvyfph791yz8YWWMp07SUex 8BtB308V9OWXyjbZaN0qV+aqQdkoIzSUk4vc3U+SxNmpt28bfQU8h3nzeCu0u/sqONi5KtivdpTp yD/iOGZPFpTfV7jd8IxarlxE332nfed4AzNnGt8/qdtzzxFdvGj0VTEfDx86pxeiV/Pz46K9SjJs h/SSafcmcUqa8qFMX82UEGmzX/OhVCmODzRsyPO5UqVYUSkggCW1M9rUs2sXLzU5Q1AQ8P33rFab lRk0CFi4UPnvWyxA8+bc6tQBKlTgOgpBQRx0S0hgFeGwMJZ/P3EC2LcPOHLEeRu7dAEWLOCNX1mV ixd5jh8ZqfwzRYtyLYtGjYBq1TggWrAgr5YJAcTE8DMVEsLP1JEj/EzdvevwqzPE3x+YOZNrnWTE iAECbbpJZzFmsEx5fJ4cKbz8MtGpU9p50MuXiUaPJsqTR723q1Qpa20kIeIttUquTfHiHAPSaqu2 LPN25HbtnHszjRjh+Qldarh2zXHGa3Lr0YOTrbTixg2iiROJihRR308lShBt3572+8a9JdPvS8R5 DOsnU24fQZLEufvu6tDr17lKs9qT6ddP/zLyRqJkmlC+vHNS3s7y669EFSqo66dcuYh++cV9Nrqb uDiWCHR0HYYP185hO+L+fT5eZpoJmbVOnYjCw4kmj5Bp6ffiIl7vIdPaX40VWElKYo+nJtDp48Nv SG/h778dZ31+/rnRVhKdPKlelq1hQ36jegNCcH0FIHNFo9KljY+3CMEvGDWBzqeCZPpxuriCt3r/ T7DRFNhsPM1Qc9OVLUt08KDRljvH9u32naHVat5lwWPHlL0tU7dhw/gl4In07Zv2XNJnWLZqZU7t UCHsqy4ltyIBgmZNElfxakeZzp0wj1NIzYMHRN27q7vpunVzfb3WHSxcaH9kIEksKuMp/PYbpzgr 7Sd/f9YPNDuPH2eulJz8Fm7UyHPiKLGxRAMGZHw++X0FTRkl/sMLLWW6esloUx2zdy8rGatxEK+9 xnoLZiEu7sm3TUZt5kyjLXUeWVY/0itYkGjFCqMtT8uWLSx8Y8/uokV5CdJTOXOGqEqVlPPJ6yto zGA5DN0aynQr1Gjz1PHVV+qDKd26GaOll1xLUImMfY8e7rdPT8LCiFq0UNdPuXJx/xoxxbhyhfdf OLJRkoh27XK/fXoyfz5RgQBBb78o30aHWjYKv2u0Sc4RFaXszZu+5c7Nuv2hOjnD8+d5lKJULu6Z Zzx3nq2U9et5RKC2r5o1I1q5UllNRLUIQbR0adq3paO2bJn2dpiFjasEjRgg30Lb6jZ6GG60Oa5z 8SLXNlR70yW36tWJPvyQq+0oreQTF0e0ezevnNSrp/6YvXrpc7ObnVmznK+N6efHo745c3glROn1 ++8/fqBfeUW9oIuPD9G6dfpeEzOwaY2g4f3l22hdxUZRJpp3a8Hhw+rFQt3VJInom2+MvkLmQAje gmvG4rkAr6xcv270VXIfW9cJGtZXvmORZcDi+fKMaahfn1OHiYDr14FXXjHaIhbviIjg7avDhxtt jTmQJGDMGN56TcSqR+XKGWtTUBAX9iUCTp0CgoONtcedWH1YZMUi23hPvLcSHAwsXpzi/zduBNq3 1/+4gYEs9pms9rRiBQvAZpM5ffuyYAoRO9DJkzlvQ28aNQLWr+fjPnoEvPqq/sc0I1YrIGRAalra RjsvWeHrZ7RJxvDgAYtd/P03sHMnKwCrJWdOTmzp1o2lw4zSgvR2Dh4ENmwAtmwBjh7lh1gtlSoB HToAvXoBTZpob6Mns2874efZdF9q9JSN/gmxOhwtxMdzhtahQ5yxde0acO8eZ3IR8ZuxYEF+M1eq xBl6TZoApUu743T0JT6eFagsFj5PyX5CqeH8+y/LlR07xvLmYWHs7BIT+W2QJw9n6JUtyzJl9esD TZsCfh7+YhACiIvjP/38OCvQzNhs3E8HDvAzdfUqZ0XGxPA55MjBsn9PPQVUrAjUqsXPVIUK+thz cBdh/gwKR2aFYP76S31lYUdR4759ibZudXP0xMuJjib69FPnMuUyaxUqEH32GdFdD12qNit79vAO XbWVzTJrVit/359/alOR/PBeQQM6yGmdwldf8fZTd0V3O3Xy3JwFI7l2jahtW/f1U1AQl+mLizP6 zD2PefOUp1Zr0Vq0INq2zTlbjx0Q1K+t/AB1i9o0fcs424oUIVqyRNP+8Do++MD4fgKInn9ev41f 3sD585ykZ3Q/BQXxfg6lnDwk6KXn5IdS9fw2OvNQ+fKDJPFctHTpJ5WXbt/mWMP9+67NbfLmBb77 DnjpJde+xxuIigJatmSFJLXkyQOUL88R/Dx5OJ6QXE7txg2O9CtVfM6M7t2BH37gkm1ZnaVLgQED +JFUS5ky/EwVKpSivBQdzSpLISH8bLlCjhzAjBn2FbDPHidM/oAiUT2/LVNPU7s2Z7K5orx85w6X BWva1DlvV64c0YEDzh/fU4mI4NJlSq6R1Uo0cCDPWV1h3z4W6XCUCJRZ8+S0aFf44Qfl16hiRaKv v3YtkzcigrNsleRpZNSKFMk4Hf/8SUG9mssRaZyCJBGNGsXponqybRvnnqs9mZ49zZX1qAc2G1Gd Oo6vRfnyHAzWk9hYzsNXK6EXEMA3rbezY4ey6zFkCD/IenLgAFHXruqfqVatiG7d4u+4cFrQ881k Hil06mRcHYaYGNb1UxORtViIpk0zxl49efNN++ft40O0YIFx9u3cyaNHNTddjRo8x/YmQkM5eJiZ 8hLAeThGyeEnJhJNmKAsMzd1G/q6oN4t5IhMlySNIDGRaORIdSdSsiQnJXkyH39s/xyDg80X2Dt0 iJPI1PTVG2+YU5lIKeHhaTU90isvAZxUZyaE4JUjJVIDOSyC2teRo03lFFITGUnUu7e6m65zZ89Q XUrm/fftn0/p0voPO7VgzRqi/PmV95Ofn2fV97h2jahYsQweohwpf5882WgrHRMXxwV97DmFTg3k KNM6hdQcPcpzaDUOYsgQc6o+P3zoWHgkZ07PzM4TgtPI1UwFixZlSXkzsnw5ka9v5rb7+7Nuhidy +fKT6f6BVkFdG8uP0KCETZPdUO5izhz1c6VBg4wfQUyfrkytetUqY+3Uinv3iNq3V9dPRYuy6ImR XL+uLAheoYJnT4VSs2wZT4UCrYJ6NJcj0aSUjZISjTZLPY8fZy5Aaa/VrMn1CPR2hHFxPKRUukP0 s8/0tcdINm9WX7DYYuHA65Ur+tt36JDyHaIFCrDMnDeyZ4ugl9rID9DsaRvFe/j21YsXiRo3Vu8g AN4LMG4cT1Fc4exZok8+4aCgmuOboZaDO5k1y/6QPLMmSbwt/uefXRNLTUjg6UqvXuqmOcWKeeaU Tg17tgh6o4d8T2pR3kZ/nbAiMKdrO6bMwp49XCvv3DnXvkeSgBIleDdgvnycdSfLvMPw7l3gv/84 c9IZ/P2BX3/l3YBZFVkGJk4EPv+cd++5QmAg1zYtXJjT1i2WtDs3791z/rvbtgX++IPT472dXX8T fltI99Cqso2iDNqjoDfHjmWu2W9Ee/FFzmrMJi2yTDRjhnsTh+y1XLmMj20YwbY/Bb3dR75jSVZb 8Ubq1AG2beOujosDvvzS/Xv0+/dnPQMi4JdfsgVYMsJiAUaM4FEYEXD4MPD88+61oXBhYN48Pn50 NPdbVkMWgMUHZLFaXU+K8QQCAoAPP2QRCyIe+q9YAXTtCvj4aHMMX1+gTx9WBkp+7yxdytOQbJRT vz6wenXKNbx0Cfj4Yxbv0Yry5Vnu7e5dPsbdu8Cbb2r3/Z6IbAN8rCCpU10b/fSnFUVUaOHFxHDm 1t27/HeA53UFCrDyUqFC+hjtDhISWLDzwgU+xzt3WLcvMZGdR65cfH6lSvFNWru2ebUXiXiUEhbG mocJCXwOQUFAsWKcmefra7SVzhMWBpw+zdmeN26wtF5sLMcrAgK4X4oVYzHY6tWBKlXMq5oVH8/K S3fv8kglvfJS0aL627DhN8Kuv+m2T0AOCQnxGf/SzZvAggX8Rr182bkD+foCbdrwcLBPH/MHbPz9 gQYNuHkSf/8N/PwzsG4dP/zOULo060z26QM0bqyldfpQsiQ3T+Lhw5Rn6tQp577DauV0+p49Wew2 Xz5tbIuLBXIEQkb/tjJdPJOyaD93Lq/F6hnIyZGDBUPu3DEwquLhhIVx4FLvoFu9ekS//mr02Xo2 y5err4Oqtvn68i7ea9ect3Pxd4KmjJKv480eMs3+SqhOj9WyVanCZcWysU9iIm+rNaqfJIlo8GDl FbSyMrt3ExUvblxfBQerL9r7wzRBMz4W1yxx8cDYMTxvNorz54EuXXi+V7gw8NtvxtliRk6eZJUr Pz9g4ULj7CDiCH2BAtxXL7wAhIcbZ48ZGT2ar02LFsCtW8bZERrKymWSBOTODcyf7/gz8XGEwFwQ lpy5AXuxFx8fjgcsWcIxBiV+SgiWrP72W9bYV1Ns5v59ntNKEgeI9u5V/llvY9s2jsnUrs1BNEeU LQuMHcsbuBITlfXVo0ccj/jgA47Iq2HVKg66ShLw9tt8zKzKiy/ydZg2zfHvShLQqRM/qCEhyt// ly4BP/4I9OihTo4/JoZXViSJA5YbNmT8e49jgYAckPHBazIF+Yg0hx84kAtyak1MDEtROTO/6tiR 6P597W0yI8ePK9sKXKwY0U8/6ZPHceQIUf/+6uXIfX09Ky3aVQYOVHZdevcmOndO++MnJLBidMWK 6p+pJk2IQkJSvuuTYTL9ulBcwMT3ZMrrI6h/f35o3cmNG1wFWO28dtIk99rpLiIjHScO5czJCV3u 5tdfWd9BTV9VqMC7Sr2R77/nnY/2zr9zZ/e/yB48IHr7bfXO/P33iUYOlOnPX8RZzPpUpiXfG587 HRfHoqFqTqRQoYwFKD2NxESi+vXtn2u7dvprZypl1y6iypXV9VX//uax3xU2bkx54DKSY5MkTtoy AzYb0fjxylSXAKJqxWTatkGcxvwZgn6cbrxTSM2jR+qX29q2NU4Tz1ni43kIZ++8Xn3VaCvts3Yt O2el/eTjQ/TNN0ZbrZ516558uFIrL/n6Ev3zj9FWZk58PC9Z2uubmsVl2r9TnMDSuYK++VQ22uZM OXNGvRbg22/zRTAr//5LVKqU/XPo1MloK9XzxRfK30oAT5XMvhQ9dWrm9gcE8MhgyxajrVTH9etE zZo9eT61i8v0f+2dd3gUZdfG79kNJLTQexOC9I4SQLpIkSYgKgKKIMUCiq+oKGJFFCvFggiCCEqR pgJKJyJIkar0DtIJSYCQZGfu94/jmhCS3Z0tM7PJ/q7rub7vVbNzpp15nvOcc5+dW7RtmD9D47sv WdcppGXqVH1t7RRFkqSsMm0dM8b9Wq9ECeNjO/7myhWyWzd9jjwqSqbmVuDYMTI62r3NwaDL6I4f fkiV8K9XSuWhvdyMpfM1jh4aHE7BSVKSezn0jMZ995Hbtxtr6+TJnvVNyJmT3LnTWNuMYP16/btN kZHS19RIubNTp6QBsif2de1qnF1GoarkXRUdPHOSGxGzQuPwvsHlFNJy6JB3qkt2u8i5rV3rX3tW rZJei57akSNH8EvUe8qECd6pLlWuLBqX/tTZjIsjP/pI345K+/by8mRVmpR3MPE6f1N2btE4/k1i 6hKb59kQFmXVKmDwYKk28wZFEQ2G6Gigdm1JBipdWqrtwsOlxNypvHT4sCRo/fEH8Pvv+svPixcH Vq+Wyr3shsMBjBoliT6kd79RqBBw111yv6pXz1x56dQpSfrZvh347TfpdaqXIUOAzz/3zs5gomFp FZtP22Nw/DDZo2nWc38rVugPUBox+veXLcgQQlIS+fLLnildGzkiI2XHIbuQEE+2rOIgyfW2yAJA /BUv3bWFadNGau1J0VPs39+8Wvp27aTmnwSmTg1uDQN/kzMnMGaMzB5IUaeqUcMcW8LDRZ1L0yT9 u0sXc+wwg/hYIH8BeUFs+fID8VdMtijAlC8vL6OmyYO3ZQswcKAIwwSC0qWBsWNF8IMEli+XOo4Q 7nnoIVmWkVJLMXUq0KRJ4I53772pkn03bog6l1WFWAJJXCyR/19dBoUkG5VVseGYXVfhUlbj77+B NWuAjRuBP/+UL7urOIGiiMpUvXpA06YiJFO7tnH2ZleSkyUWs369aDnu3u1erTkiAqhZU2JFLVoA 7dtL5WCIVDatJWZ/SUyYbYsJA4B8+YGr8fjPU6Rn40ZR9Fm1SgI2qgdCrxUqiIe/+26pCCtWzJ+n 4H+qV5fx1FNmW+I9CQnAwoVS9bh+vWeluxERQIMGQPPmImfeooW1v5Q5c8pL3b692Zb4xvbtwKJF MkvZssWzdgFlysg71aqVvFNly/rPniuxQKTz/Scl0Hj8cGrQYeFCskGDwARwGjUiv/kma2/tGEVc HDlihGTW+fs+RUSIoMqePWafZdZgxQqyefPAvFO1a4timi8B7DlTNb7/ikqS60GSj3VS+f4YjQUK GB/lbdtW2naF8IyrV8m+fY2/T7lySXWqldPHrcbSpRl3qw70aNJE8mX08OUHGie/r5FOp9Cvk8o8 ds1w49OP8uWz1zaQHubOlaxHs++Rc/Tr51v7tqxKcrK0pDP7/jhHkSKeNbZ5f5TK778Sp6CQ5P/6 a/hqpoJ4R+aLyfBwWXdGR8uWUfnyIhEWESFR/fh4kUNPm9SzbZuY5g1RUSI91ry5d3+fVXj9deCN N/T9TcWKQLNmkthTubK0vouMFBWtGzdExenUKWDfPlnbbtgg985bnngC+PhjeUayKxcuiAK2nsS5 sDBJwGrcWN6pChVEySpXLnmnrl6VRLkjR+Sd2rJF3itPYnoZUby4qD117nzrv3v1aQ1NWivo0F2J AUmOfUllwRw3zxRatfJvgcrq1WTv3vqq6Jzj7rvJ06f9Z0sw8Nprnl2biAjyxRf91wk5NlbSkWvU 0H+f7HZJHc5OxMaSZcp4dn0aNpQZn7+UsjZuJAcO9G4Geccd0pjZybCHVW5YlWb5MGOSxpJ5VPbr J8ErI9iwgbznHv0n89JLgW8jbybz5rm/BgUK6Ffq9ZbkZClO0qv2Xa6ctfUFfEXTPOtT2q2bcTof O3bor04FJKDcq7XK/XvSOIWl8zW++rR52wGxseTjj+s7kQIFZJckq7Bzp3uP/+ST5u/a/PQTWaGC vnvVo4dxHxsjcIqVZKS8BEiK9OrV5tp4/Tr53HOe36O6xR28fJGk0yls+U3jkPutsUcYG0s+/LC+ h65FC9F7DEb27nXfbXnKFLOtzJhFi8hixTy/TzYbOW6c2VZ7zwsv3Hw+uXPf/L+rVLFmT4zERPeq S7UKOpwfHHEKxw5Zsyhq3z5Z++hxEFZXXXLy66/uBWOmTjXbSs/56CN9RU3Fismsw+qoqpTYZ3QO zvyQihXJ+HizLfWM06fJNm3SOWuFvKO0w/mfiFO4dpVsXsmR+S9ZgO++y3y6ltlXafRoEa+0Cpom yUbubH/uObMt9Z5r1ySgrMeRV68uYixW4q+/yEqVXNsdGelbmzazWbZMtixz2sh7av83KRCnQJJ3 lnKYvl71BIdDv+qzosgM4uJFc2yePZssWNC9nQ0bWsuJ+crmzSKzpudeVahgXu/KuDjJv/DETk/2 /oOFTes0PtY5A6fQrraDF/2obGMEx46RzZrpe+gA+QJ8+qmstQJBbKzMUtKq/boalSsHz/TTWz7/ 3Luts4cekp2qQLFmjWTVemrPu+8Gzhaz+HmexteGZeAU+rRVuXdX8O71rVjhXiE5s2G3SweqiRPJ Xbv0bXkeOSJr/27d9EuNRUcHv0irXlJSREzXm/sEyFbn009L5quemV9SksjevfKKdzkYkyYF7pqY zfSJGieN+e+hT3UKwx9Ruf7X4HUKaVmwIPCtv30ZI0aYfYWswdWrsqwz+35kNooXzx51Oe+PUjln aqpT+E+YsWgJ4IIPqa5Wols36bpLSgpvq1ZmWySaCwcOiE2eNCHNDuTJA0yaJNfE4RDVI7N1Dux2 4M03Jc347FmgYUNz7TGCC2eBIsVT//d/TqFYCSXLOIW0NGkiohzOB2/yZBHcCDSKAjz6aGpX4ZgY /V2dsxN2u6gexcfL9dq7V0R49XRX9pYyZUSYVdPkGXn1VWtrSvibC2dlUuBEIUkAWPI9sWsLMerD 4Fd11sPOnanCJFu2yAPpDfXrA127Ar16hV7+QJCcDCxZAvz4I/Drr94XcOXNKwIt998P9OghRUnZ nS4NNXy5wIYSZQAAMf85ha0biGnjic/mZu4UnNWPe/ZI5db581LJRYreYZEiIlFWtaq8JA0bShVl sKJpIhMeFycPpd0uD1XhwtauCLx+XeTMt20TefNTp+Q8nOeQPz9QooRUotaqBdx5Z/A7ssREqf68 dk3uW3i4SPMXLGjtr/6BA6Jstnu3vFNnz8o7pWlSLVm4sCgsVakC1K0LNGokz6A/SSfHGPNfoPH0 cbJLw9REhV27yMce818Nf6lSEmDbu9fACEo2QFXJadPI+vX9c58UhWzdWjonh6To/cvhwxJYTZ8e 7e0oXFh2Yv7803ubLl8k29a8KTkmdffB4SDvKOlg8eLGRHbtdsnH9lfJb3YiPp4cMMC4KHzlytZp rx5sLF2qP4HLF4fepw+5f7/n9u3eprFfx5uyFlOdAklGl3PQ7qYBaqBG3br6JaSyGx9/7L5BrREP 3jPPSDpziIy5cMG7pDp/j6goKVpzxfKFGl958man8F9MAQC6NNKwYouCG5rrRVhExM3KS6oqSsJn z4qCcOovekeVKqIQ06yZb7+TFXA4JCC2ZIn+v1UUUdEuVUriCHY7kJQka++TJ2Xt6itDhwLvv2/t GItRrF0rfSQSE/X/bc6cEo8rWlTic5om79S5c8Dp0/K/faFUKdl569Tp5n8+bTyRlAg88dJ/73xq TIEkn35YZb6wVAWm4sXJUaN8iwNs2yZtwbzNNmzRgjx+3PvjByvJyaJ87el1uuceqbHwNnX76lVy zhyye3fvWrjZ7eR77/n3GgQLP/3k+Qwuf37J6PSl+/mePeSbb5JVq3o/K9+9W37rzeEqF8++KWnx 5uXDJ29ovLuhxhMnvDfYHapKfv01efvt+k/mmWeyVsFQZnTu7NnDNXlyYFWojhwhn3hCv4Re8eKS dp7V+ftvz1LbO3YMfIB97lyyXj3979TddVRu3eDCKSz8VuOY540tlTx+nHzgAX0nkiePcXJkRvLG G+7P/Y03zLNv5kyyRAl99+ree82rTg0UcXGiy5g3b+bnXaGCb7MBX7hwwfNAdL2SKs/cLFB0s1PY HKPxyQfMq5++eJF88EF9D13DhrLVE8x8+aXrc8yXz3o5+PPnk0WLen6fFEWmvMHMjRs3N0nKaGux Vy/zJfPScvUqOWhQ5velViFH+tn3zU7h9HGya7Q1zujgQbJxY30OYvDg4FBdcvLhh67Pp0CB4BDx mDhRX4VokSLB1d/jyhXpwpT+PNKWxg8ebLaV7jlzhuzQZ0QYVAAAIABJREFUIdVmu0I2KnfLevxm p+BIIRuWtt6ifdEi6upeZbeTb79tTdXn5GT3GpR2uwRog40bN/QL8NatK2IsVmTdOtfPXXg42a6d 2VZ6x5o1ZNniGrs0vmUScLNTICW7yapiK5omPQ70PHRhYeTrr5ufnTdnjsh3ubM3q/RN2LNHv25B /frk2rXm2n31auaajOlnO8HeIevneRmquN/qFAZ1vyUaaUn++ccz3f30o2NHMibGGBu//trzwNyQ IcbYZAbTpulvgpsvn8QgEhICb9+pU2T//p7ZFR4u/RWyAhPHqJw2/pZ3/VanMPZFlfO+tr5TSMuK FaLIo9dBANIJ+IsvyHPnfLMhNlak2O+6S9/xn3jCP9cgGPBFdSlfPnGcq1b5vizcsoUcPlxfg5vc ua0X7PWV5x5VuXbZrU7hpoxGAJgzlThxhBgxJjhLqGfPBoYNk6w9XyhSBKhUSTLBChaUjDNVlXr/ c+ekZ+CJE979tqIAEyYATz/tm43BTHw88OyzwNdf+/Y7drv0zrztNsnezJsXsNlu7pl54ID32Zs1 akipdqlSvtlpRbrfpeGTmTaUq3jTP745o5GUbUmrNIbxlUWLpJjHmy9TIMZddzGgiWHBSkIC+eyz 3vUZDcSw2ch33jH7qgQWTSOjyzjoSLnlX62/ZTpQ4XYFRw8w/T8OSrp2FT0BUvLHhw4FcuQw1oaW LYHNm8WG336T2vgQN5M3r3StVlW5TgsWiG6AkeTMKYpLyclix8iRxh7faM6dFgk2ewYiM7c4hSLF gfgrQHKSEaYZR6lSMmVPTpYH78wZ0QSsV8+/x2nSBJg6FUhJkeOsWSMiJiE8p1s3ER5xfrtXrgT6 9fOvfmOePMCgQSJEQ0qh2JtvGv/RMIujB4mKlTMufLwlpgAAD7bS8M4XNkRVyfxHY2Nlbe1cq+XO LSoxxYpZW+nGHUePAtu3i0bg0aNS+elUXgoLk69a0aJSJepUmKpRw2yrM8fhEAcYGysPflgYEBkp ykt58phtnfckJwN//gns2gUcPChVn07lJVWV6t0CBYCSJSU2VKuWKIEVLGi25ZkTFyfvVELCzcpL xYtLnMSfzJpMnD9DDH/9lh+OyVChrsLtwNH9RJnbFHz7rQTv1q71rnyzdGmgY0cp/73nHus7jAoV ZAQbu3cD06cD8+bJC6IXm01mOV27Ag88IGW8ViZnTlliGL3M8BVVBebMAWbNkgCmw6H/N4oUkRLt Hj3k3fpXRk0XRw8QNetn8jJmFIT47F2NxSI0vwVu0o/y5clPPjE/oSiYuX5d5O3CwgIbdOvWLbAd mrID69frT9nXO4oVI8eM8by5UP/OKnduznBv99Y8BZL8dbHGqsVUw6K9bduaV1EWbIwebWwkPu2I iCDfekvyDUK45uBB/+lmejMaN3bdtLdVVQfjYjP8Vxk7hUP7yLqljHMKaUedOuTvv/vlvmQZ/vnH e0GNQA1Fke7YSUlmXx1rMWGC+fcm/ahQQTpMO7l2lWwWlWmNU8ZOwZFC1i7s+O9Ho6Nl3/aPPzz7 Sly+TC5fLnUKtWp5fzLNmgV/WbQv7NkjmXyeXq88eci+fUVr4uRJ97+vaSIU8tVXUrLuSh/A1XDu 61uxAM0onntO/8fvtdck5d6Tyt74eMnmHD2avPNO79+p2rXJuTM1DuiSaS5Sxk6BJLtEqzx60Kvr kymHD8vF87Qbc9oxeHD2+SqdPOlZCm5EhBR7+bs+QNOkH2eLFvrvU+HC5JIl/rXHyni6nGvUSD6U /uaff0QyUU/KdoEwjW8+54VTeHmIymULAuv6N22SHgN6HrrwcOnynBVJTnZfWWizke+/b6xdDgf5 wQf6ZxKtWpGnTxtrq1EsXuz+etStS/71l7F2/fUX2bWra7sqFVa5+LtM3+3MncKMTzV+8oZx6c6n T0ukW89DV6uW8Rc9ULg79xo1RCTDCsycSRYqpO9ejRyZNZYXO3akNkjKkyfjc33rLbOtFGJjMy4D r1tK5f49XjiFP9abVwNx6JB+3fz+/b1XMjYLTXOvT9mmjbWj/Z9+qq+LWIEC5A8/mG21frZuvVV+ Le0yWFHI778328rMOXuW7NRJbK1d2MHkzJfimTuFK5dl28Jsli2TPVhPHzq7nRw71tpfpdhYCd66 Oo969aztDNKTnCwtzPQ48rp1rb8VPXNm5oVaTo2Ir78220rPOX6Y7HSny4995k6BJFtWcTD2kn+N 8oU33tDXISlXLkmSsoqD+OYbiYm4sjl3bussE7zl0CH9EfIWLaR/qRVISCDvv9+9zcGgy5ieXxZp fGmQD05hcA+Vm2Ms8kal4cIFkQ7X89ApinzJfBVT0cvPP3veSzAQ0WmzmT0787V3ZqNSJeMl/BMT yeef9+yjc8cdwdt/ZPxbKqdPdPlOu3YKH7+u8pvPrOcU0rJ2rXeqS0WKyFaOv/MgDhwQbQB3M4K0 Y9Ys/9pgRVRV0rL13idAZPfmzPHvi6hp5Lx5+mJXNWt6nkZsVZ58QOXGta6dQoZVkk6WLSA2rCTe /iw4VJhmzACeeUaqzbyhQAGgRQsgOhqoXRuIipKS6zx5pOiElEpDp/LSnj3AH39IefSZM/qOlSsX sHixFIllN2JjRdti1izvf6NWLaBpU6lSrV5dqlaLFpXSZ0WRQqOEBFFe2r9fKl9/+w3YsEGKkvTQ qZNoPGSFsuo2NVTMW29HwcKZ/ie3Ki+l5cgBsvtdwanCNG2azAa8+TIFctxzT/CrAPuT8+clC9Ps +5J+2O3kpElmXx3/En+FbHG72+nWrcpLabmtEnD2FHHDiy66ZvPYY8CFC3KLN2wA2rY1z5YaNaT0 nJRyWSvX9BtN0aLAN9/ItUlJkQ7WhQqZZ8/QodI12uEAnnrKPDsCwa6tRM0G7rULXDoFRQGq1FKw d2emK4ygoEkT4JdfUr8DCxcCHToE7njh4cCTTwLHj8vx9uyRZUkI14SFAc8/L2IppCzTXn89sBJ2 tWqJeKymyTEnTBCBlqzIrq1AbQ+cgsuYAgCMf1NDgUIKHn3a4uooPpCSIl/y1atFBmz7dlEbdkfO nBJ7aNpUYgNt28qDHSJwnDghs63160X78uBBz8R/SpSQWFGLFiJQUsWFqlhW5ckHNDzylIJGLVy+ yzFuncLqn4kfZhLVmtqwahWwaZNIlLkib17RPmzSBLj7bqBVq9DLYgSkBD2XLZOXZscOkS3LDEUR afSGDYHmzcWpVapkmLnZmvPnJdC8cqV8iNypZeXKBdSpAzRuDLRuLR+h8HB9x2xeScXS7Xbkda11 6TrQSJIXz5N1izt8DtwAkhnWs6f0sQvhO6oq9ftlyvg/0FaunPTjDAVF/cO+fWTv3vqS7zwZiiJd z376yfXxTx0jOzbwaE/XdZ6Ck4ZlHQzz88k4R//+0rYrhGeoqhQX+fvhcjfKls261amBYtcuc9SX HnhAnFBalv6g8eUhHu0kut59cFKjroIIG/XNVTxk2jSgTBmZyjZtKuv5ELeycaNE6u12YOxYuf1G cvIkMGCA3KewMGD0aO9ER7MDzz0n16l2bVGcNpq5c0Vp3GnDunXA7q1ELQ+CjIAHgUYAmDaeeHUU kb+sDdHRssVWvryoyubKldpO7ezZm5N63MUeXNGihfRPiIry/jeyAl99BQwcqO9vcuWSeE79+kDl ypKAFRkpL3Padmr79okT3rbN+xfcbpd+CSNHWl+pO5DcuAG0aSPb33qoVEkUqWvUEBXxokXl/pGS fHXuHHDkiLxTW7Z436qwbkkNs5YqqF7X7U1yH1MgyW0bXco3uSUxkZwxQ5q5ejMd6tdP1IuzE1Om eH59Hn6Y3LjRP8f96y9JRy5YUP99yp9fUoezE8nJZIMGnl2fUqXIDz8UaTVfSUmRa92+vfvjKpBy 6RTP1NM9iykkXieblHdQ9WNy45w5ZLVq+h66sDBy4kT/2WBFNmxwHy8ICyPHjTOm+vP8eanlsNv1 3avoaPLIkcDbZyZ9+ri/Dg0bkn/+aYw9P/2UcXVqhE1jh/oev7yeOQVS0p0P7XP/33nDvn1ku3b6 Hrrbbxfhi6zCP/+4/zp37mx+Qc4XX+gTkwXEqQRrVWFGjBkj55VZ9afdLjNjMzl1Snb6ALJgDo2j hwXAKbwzQuWcqYH/NB04oH+Z0bu3+S+Lt5w/L5F9V+f32mtmW5kxkybpqwbNm9f4kmh/kl6+Pb0S U5Ei8vxajad7qVy5xON313On8OtijSP6G1sctWoVWbq05w+dzWZ91SUne/a4L9h64w2zrfQMh0O/ xHnt2tZXXXLyyisZn4NTealgQc8k9c2iVVUHL1/0+D/33ClcvihKTGYxblzmsliZfZWmTDHN3EyZ MMF9zKBnT7Ot9J6TJ/XP9Nq1s1784eJF9xL3ERGiSG5ljh8muzTU9TH33CmQkhF18qgum/xOXBzZ vbu+hy4iQmYQZmkerl9PVq7s3s7bbiOvXTPHxkCwYIG+fgQA2bQp+dtv5tjrcIjwjieJYWPHmmOj XuZP1/jm8AA6hTeeUblgpnXm5hs2kBUr6nvoAOlHEMiGJaoqsxR3sQLnKFyYPHEicPaYjaaRL7+s /z7lyiXbo4G8NocOkQMGeG7TU08FzpZA8OJA3f1b9DmFn+d5nCppOF9/7X3bs6JFyUGDyIUL9ef6 JyaKtuLQoWSJEvqOW7581m2WkhmxsdKizpv7BJBNmpDvvis7T3q3yA8fJj//XJYretPEX3opMNcj 0Nxd3cGL+nRJ9TmF82fItjWtv7c0fvytkWErjYcekqSX7M7x42SXLubfj8xGRAQ5f77ZV8l7zpwk 762n+331rPbBSdESgGIDzp7yLtXSKIYNA65dk1s7d66k+ppNhQpS1kwC332XNfT+fKVcOSkfJlN1 G20WkAMdNEjSlhMTgR49zLbGe/5YT9zZTH/uue5bcEdTBVt/p+4DmUXPniLcSUrO/6hRxsmhtW4t ugak5K+3bGnMcYORAgVE9UhV5Xr9+quIoRhBRATw8supH5LJk/VrFViRLRuIO5vqdwoeFUSlZcl3 xJ+biNfHW8Cl+4imiSDJwoXyf//5x/vfKlYM6NoV6NVLRGVC+JdTp4D584EffxRH620Bl6KIAtP9 9wN9+gDFi/vXTivRrraKGUvtKFFG15+5V15Kz9nTQM8WKmq3s+PcuVTvmju3VE2WKydlm/XqBXeF IykVamfPimR8crJUBObNKw6gdGlrLwH+/luqH/fvl7Ln2FiRpw8LA/LnF3myqCjRKGzQQGTsg5Ub N8RpXLwoz6OmyZe+YEGgZEl5Lq3K1atSUbx7t8wmz56V6khSqiULFxaNyipVgLp15d3yhDMngf6d VSzbYddrkmdVkulpWsnBHDoSiQApkJkwQfIMQviXFSuk/bg/hFfy5JFOxatWmX1WWY+EBNk58WYb PaNRuzb53nuSKp+eudM0vv0/r3YK9e0+OBk9TGWhnJpPJ1SggMh9BVunaCugqlIPERZmTBS+dWty 5Uqzzzo42bXLe8kAvSNXLtk6vXKFHPawyrXLvMop8s4pxKzQWLOE6tcT6tTJmsUkVmL+fPO3WnPn Jj/4IDjqS8wiKUk0Lsy8T3WKOnjNuyJB123jMiPpBtConIrYXHZE/Ku8lJAgazq9LbkyonVrYMoU oGJF338rK/Dkk8Dnn3v3tzabrKkjIyUmkpQkuzAJCb7bFRYGjBkDjBiRvVWXnOzfL4ph58559/e5 csm9yp1b4iIJCXKvUlJ0/o6daNuQWPS7V5sB3sUUSHJAF/cdqa9fJxctkrZgzooyvaNPH1mLZUc8 aYfuHFWrStHY0aPeHWv/fpkB6G0h7xyRkcFdFu0L27fL1N2T62SzibDqkiXeJbAlJ5PLlkkGbmRk xscomUflF+O8nsp5t3wgya8naPzoNf2BjPh48q23Mj8hVxfz/fe9tTa4eOIJ99fDbidffZW8cSNw dsTEiLCL7qlrHfLvvwNnl1U4e9azgq86dSQYHCgSE8mPPiKLF5fj1S2pcu8uE5zCwb81vzSf3bCB bNxY30NXtqw8sFmNadPcn/vjj8ua1WgcDvKdd/SJqgDk4MFZL6U7JYWsV891rU1kZGCL7jIjLpZs FuXwJebjvVMgydbVHLyYwXaIt+zZQ951l76Hrnt3ibYGMz//7Ho70W6XMmQr8cknZM6cnt+niAhx esGMpt1cq5FR0Ld5c3NVwJbO1/jiQJ8+1r45hVeeULnk+8CEodeulSpCTx86RZFlSTBFxefMce0M cuTwn0pzoHA4yBdf1OfIq1cnt20z23LPSU4mO3S49TzSxhE6drTGs/fyEJU/zvHJEN+cwrIFGp9/ LPCl1BMn6tuTj4w0XzjTFZ68RGZMPX3l3Dn9ArydOlm3Q9ihQ2RUVOa2h4eTtWpZZ3mkaWTLyg5e uuDTz/jmFK5dJe+q4GCyQWvca9c8k9VOOwoVIr/6yhj7XLFhgygrubP3uefMttQ/LF8uOhV67lWX LvIimomqZq7JmH45ZDUJuZ2bNfZu4/NH2jenQJKDuqn8fbXx86atWz2TOEs7bDZyyBDy2DFjbFyx wvNGIVaZfgaCN97Qn4JdqZII5xhxTRITJUM0Rw73dikKuXRp4G3yho9eUzn1E58vmO9O4fuvNL71 nLlqTNOne6e6FBYmmWc//eS7fqOqyv7xgw/qE5jt3Fm/glCwcuWK96pLt98uafH79/tuxz//SE5G 1ar6PihWC/amp2N9B48e9PlnvMtoTMul88D9zVWs3ms3PauNBMaNA159VX8WWFrCw4Hq1aXPX6lS UusfHp7aM/PcudSemXFx3h3jhReA997z3sZg5/BhYMgQYOVK336nZEmgWjXpbVq8uFSx2mwikHL5 slRP7t8PHDggWYJ6KVoU+OUXqfq1MscPA0N7aViy2WdJA+8zGtPyYCuVe/603tx30iQpvPLmyxSI UaEC+ccfZl8V63HsWGo3I6uMp54Krq5WUz7U+Mkbfply6pNjy4y7OypY9bNPE46A8NRToiNASs36 ffcZb0NUFPDDD2LDkSNAw4bG22B1ypcX2TxSZnjjx4tehdH06wdcuCB2TJoktSLBwqqfidYd/TRV 94drObxfd8MJ09m6VRSY9UbI3Y1y5SSwdtHzjjwhXJCUJDGjNm38oxfhHIpC3nsvuXix2WfoOxfP SaMmPwVlfY8pOOlQV8Xn8+24rZI/fs0ckpKAzZuB7duBvXuBo0dFCSc+PlW1KG9eWWeWLy8qOPXr A02aAPnymW195qSkyDkkJ8s55MsnuoTBzIkTcq927QIOHsxYealAAYkJORWmGjYEata0dkXntWui xqRpUjUZGelezHbuNGL/HuLVj/wy8dcvx5YZ77yo4ZMJCi7cSL3iTj28jh1FFbdaNX8cKURGXL4M zJghOoYbN8r3UA+FCgHt2gFdugDdumUN4VKrEhMDzJolStZnz+r7W0URWbZ775V3ql49YHAPDY8+ paBJa794O/8EGklyxx8a63govHLXXeS8ef46cvZE06S/RaFCgQu2RUTIEuv4cbPPNrg5fFhfGbye YVPIusX8mkDoe56CE00jo8s5mMOLdd+AAZIiG8I9U6bor1T01yhdWtb3IdwTGyu6mYG+JwVyaHym r1/jef7ZfQBkWtPlIQUFI/SvRqZOlT1mRZGlxvHj/rIqa3D9OtCmjVyfgQMlvmEGp09LhF5RZL37 8cfm2GFlFi5MVZJevDjwxytbmHign3+DJH5t3tC9j4ImdYmdO0VOrXdvWavqYelS4Lbb5MHr3VsC ZNmVc+ckoJknD7Bqlfv/XlGk4cx77wG//y7OxNV35sIFScx57TUJluoJwN24ATz3nPxNZCTw7bde n2aW4JNP5Fp07y4BXXcULgz07w/Mni1b1ZqW+X1yOESyf8YM4LHHRJ4fAOwKkFMhopv7OXLqz3kH SXa6Q+WhvRn/u3XrRIpK7xTJWRadXYiP97xs/PHHZc3qT65eFTl+VxWCmY2qVck///SvPVbmyy89 uy5ly0phnj9T2md/qfGNZ/2eCuC/mIKTz8ZqnDjGM0PnzZOcdj0PXbFi5K+/+ttq69CmjftrMGyY seW6ly+TzzyjP0/gkUdEpzMrsnWre0nBEiWkWjRQ9G6jcttGv2cS+98pHD9Ctq2lPz90yxb9oqEd OpAXfKsdtwxDh7o+1+LFyR07zLZSAspjx3pWUegcOXKQn35qtuX+4dSp1B2fPHkyPt/BgwNf3Xnm pCifBeA4/ncKJNmjqcq/tntv7bp1+rroKIqImAZj6fFzz7k+txo1rNtVy+EgR47U58grVQrO+o8T J+TLn/Zc0is4f/CBcfZM/UTj+6MCkkUcGKcwbbzGcS/7x+Avv9S3BRcZSX77rV8OHTBSUsgePVyf R5kywaU9eemS/i24zp1FEdnKrFmT+YzA2bbgzTeNt6v7XSr37gzIVzAwTuHcPzK18WdQJSmJHDhQ 30NXqpR0VbIKq1e7r7Ww2UTANphZt06cmp571bt3xj0RzUBVJYbizuZOncyx7/hhskPdgJVwBsYp kOQj7VVuWheY+fyePaKNp+ehy5dPmnEarae3axfZsqVnNk6ZYqxtRvDee/pEZwCyVSvjJfydGaKe NHUpV052iMxi/FsqP30nYGvlwDmFRbM0vjAg8JWT337rnepS7drk55/7X447Pl7WlunXn67Ge+/5 1wYrEh/vXX9Fu126YG/Y4H+bNm4ke/Xy3JYSJcjTp/1vhx5Ulby7uoOnA5d67r8qyfTcSATa1lLx 8zY78uUPxBFuhgTeeUcScbztZ1mzpiT/REdLVV1UlFRFpiclBTh2TJSX/vgDWLMG2LJFbPAURQG+ +koSWLIbBw5IZub69d79fa5cQKtWQNOmUqVavbpUQ2akfxAbK8f7809gwwbg118laUsPdesCq1dL lqLZxKwgvvmUmLLIr3mHNx0iYDMFknxtmMrvphi/JeBwSPBHz7aZUaN69VB37bTs2iXLBbPvS0bj pZfMvjq38mwflUt/COg7FbjlA0nu2qrx/mbmi698/z1ZrZp5D1fhwuTMmWZfBetz8aIkZtnt5t2r ++4TYVcrEnuJbF7JwaQA9g+lPwuiMqJWAwWOFGDfbgbyMG558EHJHSdF0HPiRFkeBJIuXWS6Sor4 R58+gT1eVqBwYZFiczjkuv35J/D444EVhClcGHjrLRE3IaWgqWTJwB3PF5Z8R7TvpiBngLUuAhZT cPLNp8Tp48TIcQH1Pz5x9iywbJmsGzduFKVhTylRQta299wDdO0q1Z4hAgMp92fFCmDdOmDrViAh wbO/tdslNtCihQiUtG5tbQWmjOjWWMPYLxVUrRVQw/2nvJQZVy4DXaNVrNhjD7iHCyFBteXLJYi3 bZuUoWd2hwsWlBnTnXcCzZtLeXbu3Mbam11RVXFuK1eKo9u9O3MHZ7MBFcsQVYoRP20J+Mc1sIFG JwO6qswXprFAAXL4cPKg7w0rQvzLggVkdLT/19ZNmoigSjDJnFuZ2FjpIZpRp2pPRlQhlbMmGxK0 D2yg0UnMCo01i98q1ZY7t7TrSkw0woqsw2efeZZk48/RuDH5yy9mn3lwce6cf9SXbBDJtXhjamCM cQqaRt5V0cGcbjLbHnyQPHPGCIuCj6NHzd1BSTvy5ycnTzb7iliXDz/0rxx9oXCNzxnQ3f1fApe8 lJ5p44m3XyeOXvFsTdS7N/Dpp0B+AxKfrMwvvwCdO+tvg1eliij9Vq4siT2RkSLvfuOGKD+fPAns 2ydy9v/84719+fPLbk7fvt7/RlaABB5+GPj+e31/lytXqvT8bbdJ+4BcueT3EhJEfWvZ1xqmLlJQ paYhkVFjYgokmRBPNijpoM0LDzpqVHCWRfvCsmWef22aNxfBGl8L0DRNlgi9enmXKxAVJanD2Y3O nT27PuHhElPT0yR34xqNfdoamutjzPLByevPqJz5ucakJKkP0NvnsUABctEiIy02nkOHPCsVHzqU vHYt8PZs3+6+zDujcf/95hYNGcFLL7m/DqVL+9aF6qkHVS5faOgX0VincGgv2a72rSXVK1eSNWvq e+hatjS/OMWfXL3qXlimXj3y5EnzbExKklmbnqpHm81Y8REjmD5dzi0znQWAHDPG9+OcPk62qupg irGVvcY6BZLsd6/KmBWZe77Vq/ULhr74on8FMY0kMZFs0MD1+Q0YYL3lk8MhX0o9AbWyZcn16822 3HsWLLj5fNNvL0ZEiJaEv3j/FZVfjDP8xhvvFFYu0Ti4h2dv8PTp+vZ18+a1vuqSk/PnRfnY1fk8 /rjZVnrGlSv6W8nfe6/1VZecfPFFxufgVF7KkYPcts2/x0y8LnUOF41vkmS8U3A4yHtqOnhURwKT wyGFMnoeuvLlJVhnNX74IfVhymw0aWK9mYGnbN6sf6Y3YID14g9JSaIG5cru8HC5n4Fg3tcaXxpk yvTXeKdAkl99pPGdEd6d8OHD+lWfS5c2dwZx5AjZurV7O/Pnz1p5GuPHk2Fh+u5Vr17ksWPm2Tx5 smeJYU8+GTgbNI3sGq1y11ZTvgzmOIX4OJkaXb7o2+/MmeNeez/9UBSyb1//T/fSs3Qp2aiRZzaF hwfeHjO5dk16QOi5T4DEIMaPD2zviIQEyap1N3tzjq5dAz+LW/eLxkfamxYkM8cpkBJEmTTGP1dX 00RURa8WoHPUqycdqLZs8e6G//UXOW4ceccd+o4bGZm9uimRskffpIl39ykiQrJeZ83yriFxYiL5 008Sq8mXT9+xe/c2bknXp63K9b+atn40zylcOCuzhWt+1khMSiJHjPBvmqmiSDKPv36zaVPpupTd 2biRrF/ff/fJea9sNv/cK0WRmYqR7Nys8b5GqpkxpcCKrLiiSHGgRXsF82fQr7+bMycwbpw07FRV 4MMPJcXXF0j5Lfpgar58wDffyG/ExFhD789sGjVSfC/4AAAXeUlEQVSS8m4S2LsXuO8+33+TTG3W 6i333isaG5oGDBvmu016mPwBMfB/irlaD6b5I0qLuburO5icZMzxdu8m+/UzTu6rcmXyu++MObes hKqS06aJ4rYR90lRJOZx4oS5531oH9m2poOOFFPNMK4gKjOG99XQor2C+3ob7xpjY4G5c4FFi6TV u96io7TY7UDbtkCvXiL/ljOn/+wMIarZ8+YBP/4oQjK+ULYs0KOHFHHVr+8f+/zBS4M01G2o4KHH TZWECrzykjv27SKef0zDki122Cyk2HbxInD0qEwj4+KA5GR58fPmBYoVA8qVk2FVSa/4eNE43L9f KiJjY4GkJKmUjIwUHcKoKKnOq1jRbGu9R1XlPp08Kffs2jWZ9oeHyxLNeZ6+LiEDyYEDwG9rgWnv qlj5lx0RuUw1JybM1MMDqFpbQfHSCtYsJe7uZJ03rEgRGcHAvn3ApEkSs/BUszAzKlWSmc4jj0jZ tdWx28XmSpXMtsQ9JDB7NvDll7f2vLgtv4YXRtrMdgiCqauXf9m0TqTggzWLzwy++kqk441Ybz/6 KLlvn9lnHJycP+8+MzJMIeuXMExZyR3m7T6kJbq5AnsY8OMcU1cylmfTJqBMGVmyPP44cOlS4I9J AjNmAFWrynHLlwfmzAn8cYMZEnjxRblexYoBs2a5/u/LRGro+4QN+ayyxDHbLTn5c6PG2sVEx/HR R8k4a3hNS/DOO75/8SMipLjMn12zChWSRKIQwsWL+hsfhynkHaUcvJpgtvX/YY2ZAgDUa6SgRh0g fw5ixgyR+VIUYORICRxlR4YPl2vw8svu/9v8+WVPPSYmdZ8+7UhMlCBccvKt/87hkN2XZ58V6TZP uXxZZPMURYKVMTHen2swc/q09PsoUkSk2t3RpAnw2Wfydy8/reGJF2zIk0HPUtMw2y2l5a/tGusU c1DJwKPmzZt99vw9nRn06xc4oRlNI2fPJuvW1T+D6NhRvppZnatXpRrX3fUoWlTyLtJz6piIqCQa oKClA/PSnDOjfxeVBXNqLi9ydLRUS2Y1fv3V/QPWvr05L9zly1IZqCd9WFGkpiQr0rGjfKgyXRaE kZ9/7vo3Xhyo8tsvLBddt55TOPh35rOFjMawYWSKuRlgPrNjh/sqvQkTzLYylaQk8vnn9c0eihUT pxfsPPlk6jllJABUqZJns7ejB0VXJMDNYr3Bek6BJF8YoHL4IM2lJ04/cucWpaZgYsMG985g7lyz rXRNXBz58MP6HES7dtbt7JwZgwbdeh5pdRfq1tVX4j28r8r50y03SyCt6hSOHyFbV5O1lqaJBqOe h65CBXLVKrPPInMmTnR/Dp99ZraV+tm1i6xRQ9+9GjIksHoJvhAbKxWtmdkeHk6WLKl/p2zvTo3t 65he45AZ1nQKJPn2/27VWzh1imzRQt9DV726NdqdHTvm+gFzjp49zbbUP0yZQubMqe9ePfWUNbai v/jC/datopB//OHd7z/WSeUviyw5SyCt7BTiYsmWlR38J5PKtUWLZJ9cz0OXLx/59tvG9Esgyb17 yS5dPLOtXj0y2Vgpb0O4cYMcOFDffQJEwn/FCmNs1DRxYp5miH75pffHWrFYY6/Wls7eta5TIMkZ kzS+8LhrWSpNkwi3N6pLxYrJ0mTHDv/Yu2ePBOD0SMTVqydbW9mBgwe9V11q3ZqcMUPk03wlOVmk /O65R58NvgquJCeRHeo6uHubdT0CrVA67QpHCtA1WsXYL22ofYf7YqmkJOD556U4yBfKlwdq15Yi m1KlgAIFpOrO4ZCCo7NngcOHgT17RBzEmyv48MNSwGS3+2ZrsLJ+PTB4sBRzeUuOHECdOkD16nLP iheXKlZFSe2ZeeqUVIpu3+5dWnh4ODB/PtCpk/d2Opn6CXH0APH2Z5bJGcwI43pJesvqnzU+5MV0 KzFRZgFGCap4unyZPz8w1ymY+e03z0VujRpdukg/C39x6QLZ4nYHz1tfrds6ac6Z0epeBXnyAssX 6PscR0QA774rX3cS+OEH4I47AmSkCyIjgQkTxIb4eBH3CHEzd90FbNwo1+jSJWDECLl/RtOmjaQp k8Dixf7teD7hLQ0PPW5D0RL++82AYbZb8oRDe8k2NfyXDqppEqjs1k1/XwJ3I1cuCazt2uUfW7M7 Z85IcNhdNy1vRu3a5KefSjJWIPH38xtgrB1TSMtrwzSUKK3giRcDJ8Ry7Bjw+++y/ty7VxR9zp2T OEJKCmCzAblzA0WLyhq2alWR82raVP7/EMbgcIg82+bNwK5dwMGDEju4eFFiCZomcniRkRITiooC atUCGjYEmjeXuIORPNZJQ89+Cu693zoiQi4wX47NU+Jigfsaq5j2ox0VbjfbGuuhqsCCBRIUW75c lip6qF0baNcO6NJFnFwI/7DkO2L+DGLGMptlpfvSETxOAQAWzSIWfktMXxo0FzigLFwIjB4tuyCB oGxZYOhQ4OmngVxWkAkLMpwfsqlL7KgYBNJ2/xJj+UBjWu7rrcBmB36aGzR+zO8sXw6UKCHbbt27 B84hACKG+sILsmRSFCA6WnQXQrjH4QAeaq+hy0O2YHIIAICgmikAwPHDQL97VSz43Y6Chc22xhg0 DRgwAJg+3WxLUilZUnZV7r/fbEusxdatQPv2QOIVokEFDSv32JEz3GyrdBFcMwUAKB8F3P+oDR+9 lvXlmBITgTvvlAQnTx1CpUoy5Z87Fzh0KLWzVfpx/boEVKdNE4dTrpw+286cAXr2lBlEhQrA2rV6 zy5rMX++BKLvvBO4fAmoVFjDuK9sweYQBPN2PrwnOYns2MDBTessnS7qNSkpZMOGnm2rtWtHrl3r 3+MfOiT9OPWUrjtHmzayjZhdWLbsVuGZ0nk1PvuoaV2jfcXatQ+u2PKbxo4NjGs5ZxT9+rl/8bp3 N1Z96e+/yR499DuIkSON69RsNMePS+1M+nPOaSMblHLwSvA2EA5ep0CSLw5S+f6ooPXIN/Hee65f sIgIaaNuNlevSomzHudQsCC5eLHZlvuHhAQyKkrOK0+eW8+1ZlGVS74Pak8Y3E7h+lWySQUH80do PpWzmsnHH7t+oYoVEy0GKxIXR/bpo89BtGxJnjxptuX6iY+/Vb49rfISQN7XWuPTvYL+IxXcToEk t20UTUfbv+u6ihX9v8YOBM884/rlyZdPpqjBwr59ZIMG+hzEE0+I3oKV2b+fLFUq89kbIFJte3dp bF3NwdhLZlvsM8HvFEjy7edVRhVSb7lpd9zhvTpOIDhwgKxZ0/3LYpS4SKCYNStjUdPMhqKQL70U +BoEPXzwgXvl6gYNSFUlk26Q9zVSuXZZUC8bnGQNp5B0g2xdXWW+sMyl4StUMKeb0fnznk+xX3vN ePsCSUoKOXSovtkDQPbtSx49ary9P/wgmovu7IuMvHkJNO5lla8/E/TLBidZwymQIoZZt7iDdg/7 EnTsKIE7f0fHNY38/nuZpXj6Ejz9tH9tsCJHj5LNmul3EAULkq+8Epil1KlTsvUaHu6ZLblz36rS tW2jxna1LdX2zVeyjlMgyUnvaKxS+NZlhCcjRw5ptPLuu+SaNe63/K5dIzdvFmXm7t31TZed4803 DbkslmPVqtQIvjejQgVZx3/zjUjguev7ceoUuWQJ+cILIn+n93glS0ruRnquXyXb13Fwy29ZYtng JHhKpz1BVYFH2mno0FPB+m0Kpkwx26JbKVxYst9atjTbEmuwdKn0sDx40GxLbqV3b+Drr0X2LSNe GKChdHngmdFBlxjsCuvLsenlzCmyZRUH/94h3tvhkKBRwYLef5l8HTlykGPHZt1EHn+xZ4/Musy6 T4As+7Ztc2/rd1M09m2nWrV3gy9kreWDk41rNXao62B8Bj0ETp4U7Ua98vB6R4MGohgcwnuWLJEl XSDvU1gYOXiwvpiFc/vxXJB1ufKQrLV8SMvEMRr27wYmfudee2HLFmDZMmD1alH0uXHD8+PY7aL9 2LatCJSYoQOZXbh6Ffj5Z2DFClGD1rvkKFZMlm0dOkjZeWSkfhsS4oCezVWM/tiGJq2zpKhHcIms 6EHTgEHdNDRvp+CRJ7PkzcuQa9dEcyEmRsp49+8XmbL05MkDVKwoMmV33ikyZfXrG29vMEECz/TW UK1OYGUBTSbrOgUAuHQBeLClinFTbajfKGvexK1bgffeE7Vqf91Ju110EgYOBO6+2z+/mRWYNp6I WUF8tdiWlft1ZL1AY3q2btB4T00HLxtYVRholiwhS5c2NgDXsyf5119mn7l5bP096z1HmWD9vg++ 0qCJgj5DbBjaS0NyktnWeE98vMQtFEViF6dPG3v8efOAGjXk+FWqSAwmu3DqGDCiv4YPptmyhdpX ll4+pOXNZzVciQU+nB5coq+7d8t6/8oVfX+XJw9Qrx5QubLInOfPL8sCZzu1kycl3rB7t+R3eEtU FDBlCtCqlfe/YWWuXQV6t9EwYLiCzg8G0YPjPVk7ppAW1QEM7KYhurmCwSOsf3N375Y+BZ7shFSo IBJsjz0mfS+9JT5eZgQzZkigUi8tWgAzZ4oKdFZAVYGnH9JQq76CJ0da/5nxE1k/ppCWhHiyS0OV P821bhbRpUuetUTv3p08cSLw9vz4IxkdrT8G8eyzkjgWzLw5XOXwvpZuGx8IsmbykitOHiVbVXVw 52Zr3WmHw32T1VKlyC1bzLPx/HnP5OLSjrx5pUAs2PjmM429Wqu8kWi2JYaT/ZwCKTsSras5eMYC CkCaRnbt6vrFatvWWloDJBkbS/burc9BREeThw+bbbl71i3X2LaWgxfPm22JKWRPp0CSi2eL8KtZ W0w3bpCtW7t+iTp0CI56icOHycaN9TmIQYOsqbq0fZPGllUcPPh3EFz4wJB9nQJJfvuFxvsaqYyL Ne6YmzeTxYu7fmGioqz5wnjCggVk/vyeOwebjXz9dVEwMpv9ezS2rOzg1t+zrUMgs7tTIMnPxmp8 qLXK61cDd4z4ePKRR9y/IDlySKVgVkBVRcBEz+zBZpO/uRrAe5EZxw9LrClmRbZ2CGTIKQjvj1L5 WCeVSX78Ou/eLVmAnrwMipJ1JNAz4tQpslUr/TsYjRuLRFog0TTyo/fJ+iUcXLYg2zsEMuQUBE0j Rz2lcmB37+rj4+LI2bPJ++6Tr52nD73dLlt+2YnVq8ny5fU7CIAsW5b83/9Erdvb5caOHbJcqVz5 33ugkHWKOThvesgh/EvWLZ3Wi6YBTz2kYdVq4OCl1OzvXLkkISg8XDoJx8fL8IWKFYFffpG+j9mZ efOAYcOAs2d9/y1FkfuUN6/0dLxxA4iNBZKTM/8buwJUL6JhxBsK+j6RbZKT3JF9Mho9wZECDOmp IeY3cQz+vDA2G/D228DIkX780SzEypVybbZuNeZ4YQpQrYiGoS8pGPhcyCGkIeQU0qOqwIgBGpYv BfZd8M0x5M8PjBoFDB+OrFxq63cSEoBPPpFW9xlpQfhKDgWoVkTFi2/b8PCgkENIR8gpZAQJjB6m YcH3wL5LNmgeXqGaNYFevYD+/YESJQJrY3bC4QAWLZLlxs8/i5CMt+S0iUMY/YEN3fuGHEIGhJyC Kya/T8yfSTTtZoNil699vnxA0aJAuXJAtWpAoUJmW5k5hw4B+/YBp07J+jopCQgLExmykiWlwrFG DYmXBCunT4ss28mTMqu4dk3iQ+HhQMGCqedZtSpwZD8x5H4NL421oU2XkEPIhJBTcMeUD4mlP4ja TuGiZluTMXFxwBdfANOnixPwFkURDcMHHwQeflgcYFZhxx/E8Ec1jJ1sQ6MWIYfgguxVJekts6dI FyArpb4uX07WqOHd1p6ekTcv+fLL5JUrZp+x9yxbIKnLO/6wzv2zMKE8BU+JWSEpsKt+Mu/BOn6c vPPOwDsCdwlFGzaYdgl0oWnklA9F7v/IAbOtCRpCeQp6OHYIePpBFff1tuFxA7exZs4E+vWTtbKV qFoVmDxZlKGsRnIS8OpTGi5dAD7+xoZ8+c22KGiIyfIajf7ktkrArJV2/LaSGPWkhhQXiTH+4KOP ZJ3/yCPuHYKiAN26AbNnS1BRz/f/9GlRW+rRI/MWaRmxb5+oLSkK0KwZcOSIb+frLy6cBfq20xCR G5j8Q8gh6MbsuUowkpxEvvKkyj5t1YDU3H/zjWevc5s2UnUZCBISyHHjyGLF9C8xBg8mk5MDY5c7 9vypsU0NB7//KhQ/8JJQTMEXvvlMxFp+X+2fB3D3bqmUdPXC1axpjtT63r1kly76nENEBDltmjH2 aRo5Y5LGVlUd3LQu5BB8IOQUfOWv7RLIGvO8ymQv1ZFOnyaLFHH9go0Y4V+7feH8efLBB/U5iNq1 yb//Dow9ly6QQ+6XStfzZwJzjGxE1u/7EGiq11Ww4HfJYX64jYYTOtbVR48CxYsDpUtnns778cfy Wo0b5wdj/UTRosD334tdR454FmjctQuoXl3iD48/rq9fpys2rSN6NldRox7w1WIbioYySX3HbLeU lVi+UKavS753PX1dtIjMmdP1l3XkSIOM9iNLl7qf8aQdNhs5Zox3knOOFHLiGJUd6zv41/bQcsGP hJYP/ub4EfKBliqHPazy7OnUf56Q4NmUu0mT4NBldIWmka+9JuIxnjqInDnJsWM900nY8YfI6L3y hMprJqg0ZXFCeQqBQNOA+dOJiWM0FC5vw+I17nMaSpcG9uzxrZmLFblwQbZUly/X93d9+wKvvCIt 6pwkxAMT39Kw/ldi1Ic2NG0TSlcOAKHah0By4Szw2rMaflsDHLyo4IZ260NcujSwZYsU7mR11q2T JKxjx/T9XVgYcG8rIu64hrZdFAx/3YZceQJhYQiEnIIxrFlKjHpaw+nLCk7GSyl2s2bA0qWiFJQd mTVLWt3Fxrr+73LagEqFNURVBD6ebkNUVWPsy8aEnIJRXL8GfDhaw7IfiMeHi7hHRC6zrbIGc+YA I0ZI+bOTMAUoX1BDodzE82/Y0PMxJagaAwcxIadgNGdPA9M+0bBiCdF7sA2PPKUgZxDrGfibzZuA V4ZpuHyS6DNEwaD/2ZAnm86mTCLkFMzixBFg4tsadm8jnhxpQ6cHFNiycdbItavAjInE3K81dO+r 4LFnbMgXabZV2ZKQUzCbA38RE94iDv5N9BpoQ49HlGxVwHPiKDB7soal84kOPRQMHmFDoSJmW5Wt CTkFq3DiKDDvaw2LZxONWyno/4yCKjX1LaI3bQLmzweWLQP+/tvzv4uMlMBn27ZA165A+fI6jfeC bRuJbz8jdm4luvdV0GeIDQUsLG2XjQg5Batx7Sqw5Dti1hcaipZQ8MAABa3aK4jIfet/u2ULMHq0 /hwAT2ncWHYIHnoIfgnyXTwHLFtAfD9FQ7FSCvoMVtDyXiWkdG0tQk7BqpDAxjXEgpnEpnVEg8YK 2nVTULScgoGDgJ07jbepRw9gzJibE4rcce4fYMUS4peFxOkTxD2dFfR8TEGlaqGtBIsScgrBQNIN 4LeVxIJviY1rCdWu4MQFBVcdChwm3b369YFPPwUaNbr13x07BKz/RRzBuTNEm84K2t2noE7D7B1M DRJCTiHYSE4Cfl9NLJglM4gUh4IricClawpuqApy5JLYQLNm8uLefrtkS6Z9GRMTRfZ93z5g+3Zg wwZg7VrXLdZc0agB0fcB4PhBYnMMUaCggrvuBtp2VVDrjlB+QZARcgrBzokjwKa1xI7NxK6tRPwV oEpNBZWqAVFVFFSoApQup6BoCc+7VK1bJ9qLzvJoAFAA5LABORQi3A4UjiRy5wCYTJQoq+DOJkDT NgoaNlNCuwfBTcgpZDWuXQX27yEO7wUO7yeOHgT+OQGcP0PkyQcUKaYgf0EgsgCQ9988gHyRgGID UpKBxOviCOIuA3GxQNwV4Nw/RHISkL+wgtLlgJr1gOp1FERVAW6vriBMh65jCMsTo5AcbLYVIYzh xDHkOrof+c6d0vKcP4881xIQThVKfBxyAYDdBi1vAdwAgEKFcb1IcVwrVdZ2tVJ1JBQuihRzrQ9h EGf+D9JnPtDow5COAAAAAElFTkSuQmCC "
       preserveAspectRatio="none"
       height="135.74889"
       width="73.660004" />
  </g>
  <g
     transform="translate(-2.4950999,-68.702385)"
     id="layer1"
     inkscape:groupmode="layer"
     inkscape:label="Ebene 1">
    <path
       style="fill:#ffff00;fill-opacity:1;stroke-width:0.26458332"
       d="M 347.51367 125.09375 A 129.91071 239.73214 0 0 1 363.48047 239.73242 A 129.91071 239.73214 0 0 1 346.74805 357.16602 A 129.91071 239.73214 89.926003 0 0 479.46484 240.76367 A 129.91071 239.73214 89.926003 0 0 347.51367 125.09375 z M 118.37695 129.32812 A 129.91071 239.73214 89.926003 0 0 0 241.38281 A 129.91071 239.73214 89.926003 0 0 119.3125 353.36523 A 129.91071 239.73214 0 0 1 103.6582 239.73242 A 129.91071 239.73214 0 0 1 118.37695 129.32812 z "
       transform="matrix(0.28222222,0,0,0.28222222,2.4950999,68.702385)"
       id="path4487-6" />
  </g>
</svg>
