<?xml version="1.0" encoding="UTF-8" standalone="no"?>
<!-- Created with Inkscape (http://www.inkscape.org/) -->

<svg
   xmlns:dc="http://purl.org/dc/elements/1.1/"
   xmlns:cc="http://creativecommons.org/ns#"
   xmlns:rdf="http://www.w3.org/1999/02/22-rdf-syntax-ns#"
   xmlns:svg="http://www.w3.org/2000/svg"
   xmlns="http://www.w3.org/2000/svg"
   xmlns:sodipodi="http://sodipodi.sourceforge.net/DTD/sodipodi-0.dtd"
   xmlns:inkscape="http://www.inkscape.org/namespaces/inkscape"
   width="112.1082mm"
   height="136mm"
   viewBox="0 0 112.1082 136"
   version="1.1"
   id="svg8"
   inkscape:version="0.91 r13725"
   sodipodi:docname="s12-a.svg"
   inkscape:export-filename="E:\ol\kbr\2017-2018\git\2voor_sen_est\s12-a.png"
   inkscape:export-xdpi="40"
   inkscape:export-ydpi="40">
  <sodipodi:namedview
     id="base"
     pagecolor="#ffffff"
     bordercolor="#666666"
     borderopacity="1.0"
     inkscape:pageopacity="0.0"
     inkscape:pageshadow="2"
     inkscape:zoom="1"
     inkscape:cx="407.76151"
     inkscape:cy="109.61469"
     inkscape:document-units="mm"
     inkscape:current-layer="layer1"
     showgrid="false"
     inkscape:window-width="1920"
     inkscape:window-height="1018"
     inkscape:window-x="-8"
     inkscape:window-y="-8"
     inkscape:window-maximized="1"
     fit-margin-top="0"
     fit-margin-left="0"
     fit-margin-right="0"
     fit-margin-bottom="0" />
  <defs
     id="defs2">
    <pattern
       inkscape:collect="always"
       patternUnits="userSpaceOnUse"
       width="30.066020"
       height="5.1805778"
       id="Wavy-505"
       inkscape:stockid="Wavy">
      <path
         style="fill:#ff00ff;stroke:none;"
         d="M 7.597,0.061 C 5.079,-0.187 2.656,0.302 -0.01,1.788 L -0.01,3.061 C 2.773,1.431 5.173,1.052 7.472,1.280 C 9.770,1.508 11.969,2.361 14.253,3.218 C 18.820,4.931 23.804,6.676 30.066,3.061 L 30.062,1.788 C 23.622,5.497 19.246,3.770 14.691,2.061 C 12.413,1.207 10.115,0.311 7.597,0.061 z "
         id="path5576" />
    </pattern>
  </defs>
  <metadata
     id="metadata5">
    <rdf:RDF>
      <cc:Work
         rdf:about="">
        <dc:format>image/svg+xml</dc:format>
        <dc:type
           rdf:resource="http://purl.org/dc/dcmitype/StillImage" />
        <dc:title />
      </cc:Work>
    </rdf:RDF>
  </metadata>
  <g
     transform="translate(-31.750008,-68.396324)"
     id="layer1"
     inkscape:groupmode="layer"
     inkscape:label="Ebene 1">
    <rect
       style="opacity:1;fill:#ffffff;fill-opacity:1;stroke-width:2;stroke-miterlimit:4;stroke-dasharray:12, 4;stroke-dashoffset:0"
       id="rect3389"
       width="112.32444"
       height="135.46667"
       x="31.750008"
       y="68.702385" />
    <path
       inkscape:connector-curvature="0"
       id="path4487"
       transform="matrix(0.26458333,0,0,0.26458333,31.750008,68.702385)"
       d="M 138.57227,0 A 138.57142,255.71428 0 0 0 0,255.71484 138.57142,255.71428 0 0 0 138.57227,511.42773 138.57142,255.71428 0 0 0 211.29297,473.16406 138.57142,255.71428 0 0 1 146.57227,257.14453 138.57142,255.71428 0 0 1 212.42188,39.695312 138.57142,255.71428 0 0 0 138.57227,0 Z"
       style="fill:#00ff00;fill-opacity:1;stroke-width:0.99999994" />
    <path
       id="path4487-4"
       d="M 107.49269,68.702385 A 36.663688,67.657737 0 0 1 144.15661,136.36026 36.663688,67.657737 0 0 1 107.49269,204.01763 36.663688,67.657737 0 0 1 88.251987,193.8937 36.663688,67.657737 0 0 0 105.37603,136.73853 36.663688,67.657737 0 0 0 87.953296,79.205103 36.663688,67.657737 0 0 1 107.49269,68.702385 Z"
       style="fill:url(#Wavy-505);fill-opacity:1;stroke-width:0.26458332;stroke:#ff00ff;stroke-opacity:1"
       inkscape:connector-curvature="0" />
  </g>
</svg>
