<?xml version="1.0" encoding="UTF-8" standalone="no"?>
<!-- Created with Inkscape (http://www.inkscape.org/) -->

<svg
   xmlns:dc="http://purl.org/dc/elements/1.1/"
   xmlns:cc="http://creativecommons.org/ns#"
   xmlns:rdf="http://www.w3.org/1999/02/22-rdf-syntax-ns#"
   xmlns:svg="http://www.w3.org/2000/svg"
   xmlns="http://www.w3.org/2000/svg"
   xmlns:sodipodi="http://sodipodi.sourceforge.net/DTD/sodipodi-0.dtd"
   xmlns:inkscape="http://www.inkscape.org/namespaces/inkscape"
   width="68.753769mm"
   height="68.657639mm"
   viewBox="0 0 243.61571 243.27509"
   id="svg3411"
   version="1.1"
   inkscape:version="0.92.1 r15371"
   sodipodi:docname="question.svg">
  <defs
     id="defs3413" />
  <sodipodi:namedview
     id="base"
     pagecolor="#ffffff"
     bordercolor="#666666"
     borderopacity="1.0"
     inkscape:pageopacity="0.0"
     inkscape:pageshadow="2"
     inkscape:zoom="1.140795"
     inkscape:cx="192.18026"
     inkscape:cy="66.116637"
     inkscape:document-units="px"
     inkscape:current-layer="layer1"
     showgrid="false"
     inkscape:window-width="1680"
     inkscape:window-height="987"
     inkscape:window-x="-8"
     inkscape:window-y="222"
     inkscape:window-maximized="1"
     fit-margin-top="0"
     fit-margin-left="0"
     fit-margin-right="0"
     fit-margin-bottom="0" />
  <metadata
     id="metadata3416">
    <rdf:RDF>
      <cc:Work
         rdf:about="">
        <dc:format>image/svg+xml</dc:format>
        <dc:type
           rdf:resource="http://purl.org/dc/dcmitype/StillImage" />
        <dc:title></dc:title>
      </cc:Work>
    </rdf:RDF>
  </metadata>
  <g
     inkscape:label="Ebene 1"
     inkscape:groupmode="layer"
     id="layer1"
     transform="translate(-97.390526,-349.57657)">
    <text
       xml:space="preserve"
       style="font-style:normal;font-variant:normal;font-weight:normal;font-stretch:normal;line-height:1.29999995;font-family:Courier;-inkscape-font-specification:'Courier, Normal';text-align:start;letter-spacing:4.6875px;word-spacing:0px;writing-mode:lr-tb;text-anchor:start;fill:#000000;fill-opacity:1;stroke:none;stroke-width:1px;stroke-linecap:butt;stroke-linejoin:miter;stroke-opacity:1"
       x="94.643944"
       y="367.80167"
       id="text3419"><tspan
         sodipodi:role="line"
         id="tspan3421"
         x="94.643944"
         y="367.80167"
         style="font-size:25px;line-height:1.28600001;letter-spacing:4.6875px">1 1 1 1 1 1 1 1</tspan><tspan
         sodipodi:role="line"
         x="94.643944"
         y="399.95166"
         id="tspan3423"
         style="font-size:25px;line-height:1.28600001;letter-spacing:4.6875px">1 1 1 1 1 1 1 1</tspan><tspan
         sodipodi:role="line"
         x="94.643944"
         y="432.10165"
         id="tspan3425"
         style="font-size:25px;line-height:1.28600001;letter-spacing:4.6875px">1 1 1 1 1 1 1 1</tspan><tspan
         sodipodi:role="line"
         x="94.643944"
         y="464.25168"
         id="tspan3427"
         style="font-size:25px;line-height:1.28600001;letter-spacing:4.6875px">1 1 1 1 1 1 1 1</tspan><tspan
         sodipodi:role="line"
         x="94.643944"
         y="496.40167"
         id="tspan3429"
         style="font-size:25px;line-height:1.28600001;letter-spacing:4.6875px">1 1 1 0 1 1 1 1</tspan><tspan
         sodipodi:role="line"
         x="94.643944"
         y="528.5517"
         id="tspan3431"
         style="font-size:25px;line-height:1.28600001;letter-spacing:4.6875px">1 1 1 1 1 1 1 1</tspan><tspan
         sodipodi:role="line"
         x="94.643944"
         y="560.70166"
         id="tspan3433"
         style="font-size:25px;line-height:1.28600001;letter-spacing:4.6875px">1 1 1 1 1 1 1 1</tspan><tspan
         sodipodi:role="line"
         x="94.643944"
         y="592.85168"
         id="tspan3435"
         style="font-size:25px;line-height:1.28600001;letter-spacing:4.6875px">1 1 1 1 1 1 1 1</tspan></text>
  </g>
</svg>
