<?xml version="1.0" encoding="UTF-8" standalone="no"?>
<!-- Created with Inkscape (http://www.inkscape.org/) -->

<svg
   xmlns:dc="http://purl.org/dc/elements/1.1/"
   xmlns:cc="http://creativecommons.org/ns#"
   xmlns:rdf="http://www.w3.org/1999/02/22-rdf-syntax-ns#"
   xmlns:svg="http://www.w3.org/2000/svg"
   xmlns="http://www.w3.org/2000/svg"
   xmlns:sodipodi="http://sodipodi.sourceforge.net/DTD/sodipodi-0.dtd"
   xmlns:inkscape="http://www.inkscape.org/namespaces/inkscape"
   width="70.780342mm"
   height="28.34325mm"
   viewBox="0 0 250.79649 100.42884"
   id="svg2"
   version="1.1"
   inkscape:version="0.91 r13725"
   sodipodi:docname="C2.svg">
  <defs
     id="defs4" />
  <sodipodi:namedview
     id="base"
     pagecolor="#ffffff"
     bordercolor="#666666"
     borderopacity="1.0"
     inkscape:pageopacity="0.0"
     inkscape:pageshadow="2"
     inkscape:zoom="1"
     inkscape:cx="-83.019517"
     inkscape:cy="54.956412"
     inkscape:document-units="px"
     inkscape:current-layer="layer1"
     showgrid="false"
     inkscape:window-width="1440"
     inkscape:window-height="855"
     inkscape:window-x="0"
     inkscape:window-y="1"
     inkscape:window-maximized="1"
     fit-margin-top="0"
     fit-margin-left="0"
     fit-margin-right="0"
     fit-margin-bottom="0" />
  <metadata
     id="metadata7">
    <rdf:RDF>
      <cc:Work
         rdf:about="">
        <dc:format>image/svg+xml</dc:format>
        <dc:type
           rdf:resource="http://purl.org/dc/dcmitype/StillImage" />
        <dc:title></dc:title>
      </cc:Work>
    </rdf:RDF>
  </metadata>
  <g
     inkscape:label="1. réteg"
     inkscape:groupmode="layer"
     id="layer1"
     transform="translate(-330.20352,-586.14779)">
    <path
       style="fill:#ff0000;fill-rule:evenodd;stroke:#000000;stroke-width:1px;stroke-linecap:butt;stroke-linejoin:miter;stroke-opacity:1"
       id="path4170"
       ry="45"
       rx="45.5"
       cy="545.36218"
       cx="249.5"
       d=""
       inkscape:connector-curvature="0" />
    <g
       id="g10639">
      <path
         sodipodi:nodetypes="ccsssscccc"
         inkscape:connector-curvature="0"
         id="rect10399-3-1"
         d="m 436.71524,588.00507 2.1875,16.19922 -106.4082,5 c -0.71445,0.0336 -1.29102,10.704 -1.29102,24 l 0,13 c 0,13.296 1.5774,16.95194 2.29102,17 l 103.94726,7 0.12891,14.63476 83.76953,-49.17187 z"
         style="color:#000000;clip-rule:nonzero;display:inline;overflow:visible;visibility:visible;opacity:1;isolation:auto;mix-blend-mode:normal;color-interpolation:sRGB;color-interpolation-filters:linearRGB;solid-color:#000000;solid-opacity:1;fill:none;fill-opacity:1;fill-rule:nonzero;stroke:#000000;stroke-width:2;stroke-linecap:butt;stroke-linejoin:miter;stroke-miterlimit:4;stroke-dasharray:none;stroke-dashoffset:0;stroke-opacity:1;color-rendering:auto;image-rendering:auto;shape-rendering:auto;text-rendering:auto;enable-background:accumulate" />
      <text
         sodipodi:linespacing="125%"
         id="text4208-9-90"
         y="646.98279"
         x="377.25385"
         style="font-style:normal;font-weight:normal;font-size:27.5px;line-height:125%;font-family:sans-serif;letter-spacing:0px;word-spacing:0px;fill:#000000;fill-opacity:1;stroke:none;stroke-width:1px;stroke-linecap:butt;stroke-linejoin:miter;stroke-opacity:1"
         xml:space="preserve"><tspan
           y="646.98279"
           x="377.25385"
           id="tspan4210-1-4"
           sodipodi:role="line">+</tspan></text>
      <circle
         r="23.5"
         cy="634.36218"
         cx="557"
         id="path4177-2"
         style="fill:#000000;fill-opacity:1;fill-rule:evenodd;stroke:#000000;stroke-width:0.99999994px;stroke-linecap:butt;stroke-linejoin:miter;stroke-opacity:1" />
      <path
         inkscape:connector-curvature="0"
         id="path4203-0"
         d="m 405.80968,623.8622 c -0.31699,0 -0.57217,6.021 -0.57217,13.5 0,7.479 0.25518,13.5 0.57217,13.5 l 31.19186,0 0.44318,0 0.50032,0 18.7532,-13.57141 -18.23471,-13.42859 -0.9132,0 -0.44319,0 -31.29746,0 z"
         style="color:#000000;clip-rule:nonzero;display:inline;overflow:visible;visibility:visible;opacity:1;isolation:auto;mix-blend-mode:normal;color-interpolation:sRGB;color-interpolation-filters:linearRGB;solid-color:#000000;solid-opacity:1;fill:#51917c;fill-opacity:1;fill-rule:nonzero;stroke:#000000;stroke-width:0.99999994;stroke-linecap:butt;stroke-linejoin:miter;stroke-miterlimit:4;stroke-dasharray:none;stroke-dashoffset:0;stroke-opacity:1;color-rendering:auto;image-rendering:auto;shape-rendering:auto;text-rendering:auto;enable-background:accumulate" />
      <path
         transform="matrix(0.73595782,-0.67702739,0.67723471,0.73576705,0,0)"
         d="m -158.04952,720.31118 a 13.579884,13.42868 0 0 1 -14.60392,3.83546 13.579884,13.42868 0 0 1 -9.14967,-11.89117 13.579884,13.42868 0 0 1 7.63262,-12.89557 13.579884,13.42868 0 0 1 14.9651,2.06579 l -9.04264,10.01852 z"
         sodipodi:end="5.4410687"
         sodipodi:start="0.72121892"
         sodipodi:ry="13.42868"
         sodipodi:rx="13.579884"
         sodipodi:cy="711.44421"
         sodipodi:cx="-168.24803"
         sodipodi:type="arc"
         id="path4175-4"
         style="fill:#7fdc00;fill-opacity:1;fill-rule:evenodd;stroke:#000000;stroke-width:1px;stroke-linecap:butt;stroke-linejoin:miter;stroke-opacity:1" />
    </g>
  </g>
</svg>
