<?xml version="1.0" encoding="UTF-8" standalone="no"?>
<!-- Created with Inkscape (http://www.inkscape.org/) -->

<svg
   xmlns:dc="http://purl.org/dc/elements/1.1/"
   xmlns:cc="http://creativecommons.org/ns#"
   xmlns:rdf="http://www.w3.org/1999/02/22-rdf-syntax-ns#"
   xmlns:svg="http://www.w3.org/2000/svg"
   xmlns="http://www.w3.org/2000/svg"
   xmlns:sodipodi="http://sodipodi.sourceforge.net/DTD/sodipodi-0.dtd"
   xmlns:inkscape="http://www.inkscape.org/namespaces/inkscape"
   width="67.379997mm"
   height="62.380001mm"
   viewBox="0 0 67.379997 62.380001"
   version="1.1"
   id="svg7847"
   inkscape:version="0.92.3 (2405546, 2018-03-11)"
   sodipodi:docname="2019-VN-04-C.svg">
  <defs
     id="defs7841">
    <clipPath
       id="presentation_clip_path"
       clipPathUnits="userSpaceOnUse">
      <rect
         x="0"
         y="0"
         width="21000"
         height="29700"
         id="rect5312" />
    </clipPath>
    <clipPath
       clipPathUnits="userSpaceOnUse"
       id="clipPath8796">
      <rect
         style="fill:#ffffff;stroke:#280b0b;stroke-width:26.45833206"
         id="rect8798"
         width="8058.1768"
         height="6307.5605"
         x="2420.5112"
         y="9495.4336" />
    </clipPath>
    <clipPath
       id="presentation_clip_path-1"
       clipPathUnits="userSpaceOnUse">
      <rect
         x="0"
         y="0"
         width="21000"
         height="29700"
         id="rect5312-9" />
    </clipPath>
    <clipPath
       clipPathUnits="userSpaceOnUse"
       id="clipPath9428">
      <rect
         style="fill:#ffffff;stroke:#280b0b;stroke-width:26.45833206"
         id="rect9430"
         width="8995.833"
         height="6425.5947"
         x="1350.7025"
         y="9560.6729" />
    </clipPath>
  </defs>
  <sodipodi:namedview
     id="base"
     pagecolor="#ffffff"
     bordercolor="#666666"
     borderopacity="1.0"
     inkscape:pageopacity="0.0"
     inkscape:pageshadow="2"
     inkscape:zoom="7.9195959"
     inkscape:cx="17.231838"
     inkscape:cy="80.180991"
     inkscape:document-units="mm"
     inkscape:current-layer="id1"
     showgrid="false"
     inkscape:window-width="1920"
     inkscape:window-height="1028"
     inkscape:window-x="-8"
     inkscape:window-y="-8"
     inkscape:window-maximized="1"
     fit-margin-top="0.5"
     fit-margin-right="0.5"
     fit-margin-bottom="0.5"
     fit-margin-left="0.5"
     inkscape:snap-nodes="false" />
  <metadata
     id="metadata7844">
    <rdf:RDF>
      <cc:Work
         rdf:about="">
        <dc:format>image/svg+xml</dc:format>
        <dc:type
           rdf:resource="http://purl.org/dc/dcmitype/StillImage" />
        <dc:title></dc:title>
      </cc:Work>
    </rdf:RDF>
  </metadata>
  <g
     inkscape:label="Layer 1"
     inkscape:groupmode="layer"
     id="layer1"
     transform="translate(-1.827856,-234.3472)">
    <g
       class="SlideGroup"
       id="g5905"
       transform="matrix(0.01,0,0,0.01,-27.492144,139.0272)"
       clip-path="url(#clipPath9428)">
      <g
         id="g5903">
        <g
           clip-path="url(#presentation_clip_path-1)"
           class="Slide"
           id="id1">
          <g
             class="com.sun.star.drawing.CustomShape"
             id="g5629">
            <g
               id="id38">
              <rect
                 class="BoundingBox"
                 x="2982"
                 y="10982"
                 width="938"
                 height="938"
                 id="rect5624"
                 style="fill:none;stroke:none" />
              <path
                 d="m 3450,11000 c 255,0 450,195 450,450 0,255 -195,450 -450,450 -255,0 -450,-195 -450,-450 0,-255 195,-450 450,-450 z"
                 id="path5626"
                 inkscape:connector-curvature="0"
                 style="fill:none;stroke:#000000;stroke-width:35;stroke-linejoin:round" />
            </g>
          </g>
          <g
             class="com.sun.star.drawing.CustomShape"
             id="g5636">
            <g
               id="id39">
              <rect
                 class="BoundingBox"
                 x="5282"
                 y="9582"
                 width="938"
                 height="938"
                 id="rect5631"
                 style="fill:none;stroke:none" />
              <path
                 d="m 5750,9600 c 255,0 450,195 450,450 0,255 -195,450 -450,450 -255,0 -450,-195 -450,-450 0,-255 195,-450 450,-450 z"
                 id="path5633"
                 inkscape:connector-curvature="0"
                 style="fill:none;stroke:#000000;stroke-width:35;stroke-linejoin:round" />
            </g>
          </g>
          <g
             class="com.sun.star.drawing.CustomShape"
             id="g5643">
            <g
               id="id40">
              <rect
                 class="BoundingBox"
                 x="8682"
                 y="10182"
                 width="938"
                 height="938"
                 id="rect5638"
                 style="fill:none;stroke:none" />
              <path
                 d="m 9150,10200 c 255,0 450,195 450,450 0,255 -195,450 -450,450 -255,0 -450,-195 -450,-450 0,-255 195,-450 450,-450 z"
                 id="path5640"
                 inkscape:connector-curvature="0"
                 style="fill:none;stroke:#000000;stroke-width:35;stroke-linejoin:round" />
            </g>
          </g>
          <g
             class="com.sun.star.drawing.ConnectorShape"
             id="g5650">
            <g
               id="id41">
              <rect
                 class="BoundingBox"
                 x="3432"
                 y="10032"
                 width="1887"
                 height="987"
                 id="rect5645"
                 style="fill:none;stroke:none" />
              <path
                 d="m 3450,11000 1850,-950"
                 id="path5647"
                 inkscape:connector-curvature="0"
                 style="fill:none;stroke:#000000;stroke-width:35;stroke-linejoin:round" />
            </g>
          </g>
          <g
             class="com.sun.star.drawing.ConnectorShape"
             id="g5657">
            <g
               id="id42">
              <rect
                 class="BoundingBox"
                 x="6182"
                 y="10032"
                 width="2537"
                 height="637"
                 id="rect5652"
                 style="fill:none;stroke:none" />
              <path
                 d="m 6200,10050 2500,600"
                 id="path5654"
                 inkscape:connector-curvature="0"
                 style="fill:none;stroke:#000000;stroke-width:35;stroke-linejoin:round" />
            </g>
          </g>
          <g
             class="com.sun.star.drawing.ConnectorShape"
             id="g5664">
            <g
               id="id43">
              <rect
                 class="BoundingBox"
                 x="9132"
                 y="11082"
                 width="37"
                 height="2037"
                 id="rect5659"
                 style="fill:none;stroke:none" />
              <path
                 d="m 9150,11100 v 2000"
                 id="path5661"
                 inkscape:connector-curvature="0"
                 style="fill:none;stroke:#000000;stroke-width:35;stroke-linejoin:round" />
            </g>
          </g>
          <g
             class="com.sun.star.drawing.CustomShape"
             id="g5671">
            <g
               id="id44">
              <rect
                 class="BoundingBox"
                 x="5482"
                 y="11682"
                 width="938"
                 height="938"
                 id="rect5666"
                 style="fill:none;stroke:none" />
              <path
                 d="m 5950,11700 c 255,0 450,195 450,450 0,255 -195,450 -450,450 -255,0 -450,-195 -450,-450 0,-255 195,-450 450,-450 z"
                 id="path5668"
                 inkscape:connector-curvature="0"
                 style="fill:none;stroke:#000000;stroke-width:35;stroke-linejoin:round" />
            </g>
          </g>
          <g
             class="com.sun.star.drawing.CustomShape"
             id="g5678">
            <g
               id="id45">
              <rect
                 class="BoundingBox"
                 x="3182"
                 y="13282"
                 width="938"
                 height="938"
                 id="rect5673"
                 style="fill:none;stroke:none" />
              <path
                 d="m 3650,13300 c 255,0 450,195 450,450 0,255 -195,450 -450,450 -255,0 -450,-195 -450,-450 0,-255 195,-450 450,-450 z"
                 id="path5675"
                 inkscape:connector-curvature="0"
                 style="fill:none;stroke:#000000;stroke-width:35;stroke-linejoin:round" />
            </g>
          </g>
          <g
             class="com.sun.star.drawing.CustomShape"
             id="g5685">
            <g
               id="id46">
              <rect
                 class="BoundingBox"
                 x="8682"
                 y="13082"
                 width="938"
                 height="938"
                 id="rect5680"
                 style="fill:none;stroke:none" />
              <path
                 d="m 9150,13100 c 255,0 450,195 450,450 0,255 -195,450 -450,450 -255,0 -450,-195 -450,-450 0,-255 195,-450 450,-450 z"
                 id="path5682"
                 inkscape:connector-curvature="0"
                 style="fill:none;stroke:#000000;stroke-width:35;stroke-linejoin:round" />
            </g>
          </g>
          <g
             class="com.sun.star.drawing.ConnectorShape"
             id="g5692">
            <g
               id="id47">
              <rect
                 class="BoundingBox"
                 x="3882"
                 y="11432"
                 width="1637"
                 height="737"
                 id="rect5687"
                 style="fill:none;stroke:none" />
              <path
                 d="m 3900,11450 1600,700"
                 id="path5689"
                 inkscape:connector-curvature="0"
                 style="fill:none;stroke:#000000;stroke-width:35;stroke-linejoin:round" />
            </g>
          </g>
          <g
             class="com.sun.star.drawing.ConnectorShape"
             id="g5699">
            <g
               id="id48">
              <rect
                 class="BoundingBox"
                 x="6251"
                 y="12451"
                 width="2468"
                 height="1118"
                 id="rect5694"
                 style="fill:none;stroke:none" />
              <path
                 d="m 6269,12469 2431,1081"
                 id="path5696"
                 inkscape:connector-curvature="0"
                 style="fill:none;stroke:#000000;stroke-width:35;stroke-linejoin:round" />
            </g>
          </g>
          <g
             class="com.sun.star.drawing.ConnectorShape"
             id="g5706">
            <g
               id="id49">
              <rect
                 class="BoundingBox"
                 x="3432"
                 y="11882"
                 width="237"
                 height="1437"
                 id="rect5701"
                 style="fill:none;stroke:none" />
              <path
                 d="m 3450,11900 200,1400"
                 id="path5703"
                 inkscape:connector-curvature="0"
                 style="fill:none;stroke:#000000;stroke-width:35;stroke-linejoin:round" />
            </g>
          </g>
          <g
             class="com.sun.star.drawing.ConnectorShape"
             id="g5713"
             transform="matrix(0.8477886,0,0,1.1472979,859.99437,-1834.0064)">
            <g
               id="id50">
              <rect
                 class="BoundingBox"
                 x="3632"
                 y="12451"
                 width="2018"
                 height="868"
                 id="rect5708"
                 style="fill:none;stroke:none" />
              <path
                 d="m 3650,13300 1981,-831"
                 id="path5710"
                 inkscape:connector-curvature="0"
                 style="fill:none;stroke:#000000;stroke-width:35;stroke-linejoin:round" />
            </g>
          </g>
          <g
             class="com.sun.star.drawing.ConnectorShape"
             id="g5720">
            <g
               id="id51">
              <rect
                 class="BoundingBox"
                 x="5732"
                 y="10482"
                 width="237"
                 height="1237"
                 id="rect5715"
                 style="fill:none;stroke:none" />
              <path
                 d="M 5950,11700 5750,10500"
                 id="path5717"
                 inkscape:connector-curvature="0"
                 style="fill:none;stroke:#000000;stroke-width:35;stroke-linejoin:round" />
            </g>
          </g>
          <g
             class="com.sun.star.drawing.ConnectorShape"
             id="g5735">
            <g
               id="id52">
              <rect
                 class="BoundingBox"
                 x="4082"
                 y="13732"
                 width="4768"
                 height="156"
                 id="rect5730"
                 style="fill:none;stroke:none" />
              <path
                 d="m 4100,13750 4731,119"
                 id="path5732"
                 inkscape:connector-curvature="0"
                 style="fill:none;stroke:#000000;stroke-width:35;stroke-linejoin:round" />
            </g>
          </g>
          <g
             class="com.sun.star.drawing.CustomShape"
             id="g5742">
            <g
               id="id53">
              <rect
                 class="BoundingBox"
                 x="5882"
                 y="14782"
                 width="938"
                 height="938"
                 id="rect5737"
                 style="fill:none;stroke:none" />
              <path
                 d="m 6350,14800 c 255,0 450,195 450,450 0,255 -195,450 -450,450 -255,0 -450,-195 -450,-450 0,-255 195,-450 450,-450 z"
                 id="path5739"
                 inkscape:connector-curvature="0"
                 style="fill:none;stroke:#000000;stroke-width:35;stroke-linejoin:round" />
            </g>
          </g>
          <g
             class="com.sun.star.drawing.ConnectorShape"
             id="g5749">
            <g
               id="id54">
              <rect
                 class="BoundingBox"
                 x="6651"
                 y="13982"
                 width="2518"
                 height="968"
                 id="rect5744"
                 style="fill:none;stroke:none" />
              <path
                 d="m 6669,14931 2481,-931"
                 id="path5746"
                 inkscape:connector-curvature="0"
                 style="fill:none;stroke:#000000;stroke-width:35;stroke-linejoin:round" />
            </g>
          </g>
          <g
             class="com.sun.star.drawing.ConnectorShape"
             id="g5756">
            <g
               id="id55">
              <rect
                 class="BoundingBox"
                 x="3951"
                 y="14051"
                 width="2099"
                 height="899"
                 id="rect5751"
                 style="fill:none;stroke:none" />
              <path
                 d="m 3969,14069 2062,862"
                 id="path5753"
                 inkscape:connector-curvature="0"
                 style="fill:none;stroke:#000000;stroke-width:35;stroke-linejoin:round" />
            </g>
          </g>
          <g
             transform="matrix(0.64872341,0,0,0.63990855,3298.614,13439.741)"
             id="g1142">
            <path
               inkscape:connector-curvature="0"
               style="fill:#db5600;fill-opacity:1;stroke:#2e2e2d;stroke-width:14.62870026;stroke-linecap:round;stroke-linejoin:round"
               id="path3"
               d="M 343,330 42,507 C -4,533 9,542 10,553 l 32,327 c 2,29 10,15 37,23 l 588,180 c 22,6 45,4 66,-15 l 275,-249 c 19,-17 21,-22 21,-43 l -9,-376 C 1066,350 1133,-4 809,16 L 187,7 c -24,16 -14,12 -9,32 z" />
            <polygon
               style="fill:#db5600;fill-opacity:1"
               id="polygon5"
               points="21,556 670,686 691,1081 54,888 " />
            <path
               style="fill:#778086"
               inkscape:connector-curvature="0"
               id="path7"
               d="M 373,354 C 448,353 452,248 409,185 347,96 309,37 193,37 Z" />
            <path
               style="fill:#2e2e2d"
               inkscape:connector-curvature="0"
               id="path9"
               d="M 830,42 180,29 c 120,0 167,78 210,183 8,20 18,76 12,94 l -2,-6 478,108 h 137 z" />
            <polygon
               style="fill:#2e2e2d"
               id="polygon11"
               points="1012,411 666,671 29,539 378,346 " />
            <polyline
               style="fill:none;stroke:#2e2e2d;stroke-width:14.62870026;stroke-linecap:round;stroke-linejoin:round"
               id="polyline13"
               points="821,22 1017,411 348,333 " />
            <g
               id="g29">
              <path
                 style="fill:#b09243;stroke:#2e2e2d;stroke-width:14.62870026;stroke-linecap:round;stroke-linejoin:round"
                 inkscape:connector-curvature="0"
                 id="path15"
                 d="m 303,407 c -4,43 27,89 115,91 66,3 139,-25 140,-103 0,-5 -1,-9 -2,-12 1,-3 1,-6 1,-9 0,-70 -129,-93 -206,-57 -35,17 -55,55 -48,90 z" />
              <path
                 style="fill:#cdb370;stroke:#2e2e2d;stroke-width:4.3886199;stroke-linecap:round;stroke-linejoin:round"
                 inkscape:connector-curvature="0"
                 id="path17"
                 d="m 351,317 c -71,33 -80,156 66,160 66,2 140,-25 140,-103 0,-70 -129,-93 -206,-57 z" />
              <path
                 style="fill:#cdb370;stroke:#2e2e2d;stroke-width:4.3886199;stroke-linecap:round;stroke-linejoin:round"
                 inkscape:connector-curvature="0"
                 id="path19"
                 d="m 367,331 c -56,26 -64,122 52,125 53,2 112,-19 112,-81 0,-55 -103,-73 -164,-44 z" />
              <path
                 style="fill:#fffbdc"
                 inkscape:connector-curvature="0"
                 id="path21"
                 d="m 391,377 c 1,-1 75,-32 14,-19 8,-7 51,-34 2,-17 -4,1 -20,22 -25,-2 -12,-1 -30,19 -16,30 -12,1 -38,-8 -18,25 21,33 22,-7 -2,13 -1,0 11,44 56,31 4,-1 44,17 80,-12 -2,-6 -42,5 -5,-7 5,-2 61,-28 20,-32 -4,-4 47,-40 0,-28 -5,1 -19,-33 -30,8 -9,30 5,3 -14,16 -17,11 13,37 -8,23 -25,-18 -21,25 -36,15 -15,-10 -37,8 3,-22 -8,-4 -56,-1 -14,-13 24,-7 -7,-9 -7,-9 z" />
              <path
                 style="fill:none;stroke:#2e2e2d;stroke-width:4.3886199;stroke-linecap:round;stroke-linejoin:round"
                 inkscape:connector-curvature="0"
                 id="path23"
                 d="m 338,460 c 3,10 2,13 3,21" />
              <path
                 style="fill:none;stroke:#2e2e2d;stroke-width:4.3886199;stroke-linecap:round;stroke-linejoin:round"
                 inkscape:connector-curvature="0"
                 id="path25"
                 d="m 424,481 c 0,0 -1,32 -1,18" />
              <path
                 style="fill:none;stroke:#2e2e2d;stroke-width:4.3886199;stroke-linecap:round;stroke-linejoin:round"
                 inkscape:connector-curvature="0"
                 id="path27"
                 d="m 525,457 c 0,6 0,13 1,18" />
            </g>
            <polyline
               style="fill:none;stroke:#2e2e2d;stroke-width:4.3886199;stroke-linecap:round;stroke-linejoin:round"
               id="polyline31"
               points="1005,417 670,672 27,544 " />
            <line
               style="fill:none;stroke:#2e2e2d;stroke-width:4.42438889;stroke-linecap:round;stroke-linejoin:round"
               id="line33"
               y2="1080"
               x2="690"
               y1="676.50226"
               x1="667" />
            <g
               id="g49">
              <path
                 style="fill:#b09243;stroke:#2e2e2d;stroke-width:14.62870026;stroke-linecap:round;stroke-linejoin:round"
                 inkscape:connector-curvature="0"
                 id="path35"
                 d="m 138,453 c -6,43 23,89 111,96 65,5 140,-19 144,-97 0,-4 0,-8 -1,-12 0,-3 1,-6 1,-9 3,-70 -125,-99 -203,-66 -36,15 -57,53 -52,88 z" />
              <path
                 style="fill:#cdb370;stroke:#2e2e2d;stroke-width:4.3886199;stroke-linecap:round;stroke-linejoin:round"
                 inkscape:connector-curvature="0"
                 id="path37"
                 d="m 190,365 c -72,30 -87,152 59,163 65,5 140,-19 144,-97 3,-70 -125,-99 -203,-66 z" />
              <path
                 style="fill:#cdb370;stroke:#2e2e2d;stroke-width:4.3886199;stroke-linecap:round;stroke-linejoin:round"
                 inkscape:connector-curvature="0"
                 id="path39"
                 d="m 205,380 c -57,23 -69,119 47,127 52,4 112,-14 115,-76 2,-55 -99,-77 -162,-51 z" />
              <path
                 style="fill:#fffbdc"
                 inkscape:connector-curvature="0"
                 id="path41"
                 d="m 228,427 c 0,-1 76,-29 14,-19 8,-6 53,-32 3,-17 -4,2 -22,22 -25,-3 -12,-1 -31,18 -18,30 -12,0 -37,-10 -18,24 19,34 22,-6 -3,12 -1,1 9,45 54,34 5,-1 43,19 81,-9 -2,-6 -42,4 -5,-7 6,-1 63,-24 22,-30 -4,-5 49,-38 1,-28 -5,1 -18,-35 -31,6 -10,30 6,3 -15,16 -17,10 12,37 -8,22 -25,-18 -22,24 -37,13 -14,-10 -37,7 4,-21 -8,-4 -56,-4 -13,-14 25,-6 -7,-9 -6,-9 z" />
              <path
                 style="fill:none;stroke:#2e2e2d;stroke-width:4.3886199;stroke-linecap:round;stroke-linejoin:round"
                 inkscape:connector-curvature="0"
                 id="path43"
                 d="m 171,508 c 2,10 1,12 1,21" />
              <path
                 style="fill:none;stroke:#2e2e2d;stroke-width:4.3886199;stroke-linecap:round;stroke-linejoin:round"
                 inkscape:connector-curvature="0"
                 id="path45"
                 d="m 255,532 c 0,0 -2,32 -2,18" />
              <path
                 style="fill:none;stroke:#2e2e2d;stroke-width:4.3886199;stroke-linecap:round;stroke-linejoin:round"
                 inkscape:connector-curvature="0"
                 id="path47"
                 d="m 357,513 c 0,6 0,12 0,17" />
            </g>
            <g
               id="g65">
              <path
                 style="fill:#b09243;stroke:#2e2e2d;stroke-width:14.62870026;stroke-linecap:round;stroke-linejoin:round"
                 inkscape:connector-curvature="0"
                 id="path51"
                 d="m 310,528 c 11,42 57,73 140,44 62,-22 121,-74 93,-147 -1,-4 -3,-8 -5,-11 -1,-3 -2,-5 -3,-8 -25,-66 -154,-41 -213,21 -26,28 -31,71 -12,101 z" />
              <path
                 style="fill:#cdb370;stroke:#2e2e2d;stroke-width:4.3886199;stroke-linecap:round;stroke-linejoin:round"
                 inkscape:connector-curvature="0"
                 id="path53"
                 d="m 322,427 c -54,56 -18,173 120,126 62,-22 121,-74 93,-147 -25,-66 -154,-41 -213,21 z" />
              <path
                 style="fill:#cdb370;stroke:#2e2e2d;stroke-width:4.3886199;stroke-linecap:round;stroke-linejoin:round"
                 inkscape:connector-curvature="0"
                 id="path55"
                 d="m 342,434 c -43,45 -15,136 94,98 50,-17 97,-58 75,-116 -19,-51 -122,-31 -169,18 z" />
              <path
                 style="fill:#fffbdc"
                 inkscape:connector-curvature="0"
                 id="path57"
                 d="m 382,468 c 0,-1 58,-57 5,-23 5,-8 36,-50 -4,-16 -3,3 -11,28 -24,7 -11,3 -21,29 -4,34 -11,5 -39,6 -7,30 31,23 18,-15 2,12 -1,1 26,37 64,9 3,-2 46,1 69,-40 -3,-5 -37,20 -7,-4 5,-4 48,-48 8,-37 -5,-3 30,-54 -10,-26 -4,2 -30,-25 -26,18 3,31 7,0 -7,20 -12,16 25,29 1,24 -30,-7 -10,30 -28,26 -17,-3 -32,22 -5,-21 -9,0 -53,19 -18,-7 20,-16 -10,-5 -9,-6 z" />
              <path
                 style="fill:none;stroke:#2e2e2d;stroke-width:4.3886199;stroke-linecap:round;stroke-linejoin:round"
                 inkscape:connector-curvature="0"
                 id="path59"
                 d="m 362,565 c 6,8 7,11 10,19" />
              <path
                 style="fill:none;stroke:#2e2e2d;stroke-width:4.3886199;stroke-linecap:round;stroke-linejoin:round"
                 inkscape:connector-curvature="0"
                 id="path61"
                 d="m 449,554 c 0,0 11,30 6,17" />
              <path
                 style="fill:none;stroke:#2e2e2d;stroke-width:4.3886199;stroke-linecap:round;stroke-linejoin:round"
                 inkscape:connector-curvature="0"
                 id="path63"
                 d="m 535,495 c 2,6 5,11 7,16" />
            </g>
            <g
               id="g81">
              <path
                 style="fill:#b09243;stroke:#2e2e2d;stroke-width:14.62870026;stroke-linecap:round;stroke-linejoin:round"
                 inkscape:connector-curvature="0"
                 id="path67"
                 d="m 478,316 c -29,32 -32,87 36,143 50,42 126,65 174,3 2,-3 4,-7 6,-10 2,-3 4,-5 6,-7 43,-56 -45,-153 -128,-171 -38,-8 -78,10 -94,42 z" />
              <path
                 style="fill:#cdb370;stroke:#2e2e2d;stroke-width:4.3886199;stroke-linecap:round;stroke-linejoin:round"
                 inkscape:connector-curvature="0"
                 id="path69"
                 d="m 572,274 c -77,-16 -159,75 -46,168 50,41 126,65 174,3 43,-56 -45,-153 -128,-171 z" />
              <path
                 style="fill:#cdb370;stroke:#2e2e2d;stroke-width:4.3886199;stroke-linecap:round;stroke-linejoin:round"
                 inkscape:connector-curvature="0"
                 id="path71"
                 d="m 576,295 c -61,-14 -125,58 -36,131 41,34 101,53 138,4 34,-43 -37,-120 -102,-135 z" />
              <path
                 style="fill:#fffbdc"
                 inkscape:connector-curvature="0"
                 id="path73"
                 d="m 567,346 c 1,0 79,21 22,-6 10,-1 62,4 12,-13 -4,-1 -29,5 -19,-16 -8,-9 -35,-3 -31,14 -10,-7 -25,-30 -29,9 -3,39 22,8 -9,8 -1,0 -19,42 25,59 4,2 24,40 71,39 2,-6 -37,-21 0,-8 5,2 65,16 35,-13 0,-6 62,-3 17,-22 -4,-2 6,-38 -28,-13 -25,19 2,6 -21,5 -21,-2 -12,37 -20,13 -10,-29 -32,7 -38,-10 -5,-17 -34,-16 16,-16 -5,-8 -44,-35 -3,-18 23,9 -1,-11 0,-12 z" />
              <path
                 style="fill:none;stroke:#2e2e2d;stroke-width:4.3886199;stroke-linecap:round;stroke-linejoin:round"
                 inkscape:connector-curvature="0"
                 id="path75"
                 d="m 474,380 c -4,10 -6,11 -11,18" />
              <path
                 style="fill:none;stroke:#2e2e2d;stroke-width:4.3886199;stroke-linecap:round;stroke-linejoin:round"
                 inkscape:connector-curvature="0"
                 id="path77"
                 d="m 529,448 c 0,0 -20,26 -12,14" />
              <path
                 style="fill:none;stroke:#2e2e2d;stroke-width:4.3886199;stroke-linecap:round;stroke-linejoin:round"
                 inkscape:connector-curvature="0"
                 id="path79"
                 d="m 624,491 c -4,5 -8,10 -11,15" />
            </g>
            <g
               id="g97">
              <path
                 style="fill:#b09243;stroke:#2e2e2d;stroke-width:14.62870026;stroke-linecap:round;stroke-linejoin:round"
                 inkscape:connector-curvature="0"
                 id="path83"
                 d="m 672,357 c -30,31 -33,86 35,142 51,42 126,65 174,3 3,-3 5,-6 6,-10 2,-2 4,-5 6,-7 43,-55 -45,-152 -128,-170 -38,-9 -77,10 -93,42 z" />
              <path
                 style="fill:#cdb370;stroke:#2e2e2d;stroke-width:4.3886199;stroke-linecap:round;stroke-linejoin:round"
                 inkscape:connector-curvature="0"
                 id="path85"
                 d="m 765,315 c -76,-17 -158,74 -46,167 51,42 126,65 174,3 43,-55 -45,-152 -128,-170 z" />
              <path
                 style="fill:#cdb370;stroke:#2e2e2d;stroke-width:4.3886199;stroke-linecap:round;stroke-linejoin:round"
                 inkscape:connector-curvature="0"
                 id="path87"
                 d="m 769,335 c -61,-13 -125,58 -35,132 40,33 100,52 138,3 33,-43 -37,-120 -103,-135 z" />
              <path
                 style="fill:#fffbdc"
                 inkscape:connector-curvature="0"
                 id="path89"
                 d="m 760,387 c 2,-1 79,20 23,-7 10,-1 61,4 12,-12 -4,-2 -30,5 -19,-17 -8,-8 -35,-3 -31,14 -10,-7 -26,-30 -29,9 -4,39 21,8 -10,8 0,0 -18,42 25,60 5,1 25,40 71,38 2,-5 -36,-21 0,-8 6,2 66,16 35,-13 1,-6 62,-2 17,-22 -4,-2 6,-38 -28,-13 -25,19 3,6 -21,5 -20,-1 -12,37 -20,14 -9,-30 -32,6 -37,-11 -6,-17 -35,-16 15,-15 -4,-8 -44,-35 -3,-19 24,9 0,-11 0,-11 z" />
              <path
                 style="fill:none;stroke:#2e2e2d;stroke-width:4.3886199;stroke-linecap:round;stroke-linejoin:round"
                 inkscape:connector-curvature="0"
                 id="path91"
                 d="m 667,420 c -4,10 -6,12 -11,19" />
              <path
                 style="fill:none;stroke:#2e2e2d;stroke-width:4.3886199;stroke-linecap:round;stroke-linejoin:round"
                 inkscape:connector-curvature="0"
                 id="path93"
                 d="m 722,489 c 0,0 -19,25 -11,13" />
              <path
                 style="fill:none;stroke:#2e2e2d;stroke-width:4.3886199;stroke-linecap:round;stroke-linejoin:round"
                 inkscape:connector-curvature="0"
                 id="path95"
                 d="m 817,531 c -4,6 -7,11 -10,15" />
            </g>
            <g
               id="g113">
              <path
                 style="fill:#b09243;stroke:#2e2e2d;stroke-width:14.62870026;stroke-linecap:round;stroke-linejoin:round"
                 inkscape:connector-curvature="0"
                 id="path99"
                 d="m 488,539 c -4,43 28,88 115,91 66,2 140,-25 140,-104 0,-4 -1,-8 -1,-12 0,-3 0,-6 0,-9 0,-70 -129,-93 -206,-57 -35,17 -55,56 -48,91 z" />
              <path
                 style="fill:#cdb370;stroke:#2e2e2d;stroke-width:4.3886199;stroke-linecap:round;stroke-linejoin:round"
                 inkscape:connector-curvature="0"
                 id="path101"
                 d="m 536,448 c -70,34 -79,156 66,161 66,2 140,-25 140,-104 0,-70 -129,-93 -206,-57 z" />
              <path
                 style="fill:#cdb370;stroke:#2e2e2d;stroke-width:4.3886199;stroke-linecap:round;stroke-linejoin:round"
                 inkscape:connector-curvature="0"
                 id="path103"
                 d="m 552,462 c -56,27 -63,122 53,126 52,2 111,-20 111,-81 0,-55 -103,-73 -164,-45 z" />
              <path
                 style="fill:#fffbdc"
                 inkscape:connector-curvature="0"
                 id="path105"
                 d="m 577,508 c 0,-1 75,-32 13,-19 8,-6 52,-34 2,-17 -4,2 -20,22 -25,-2 -12,-1 -30,20 -16,31 -12,0 -38,-8 -17,25 21,33 22,-7 -3,12 0,0 11,44 56,32 5,-2 44,17 80,-13 -2,-6 -42,6 -5,-7 6,-2 61,-27 20,-31 -3,-5 48,-40 0,-28 -5,1 -19,-34 -30,7 -8,30 6,3 -14,17 -17,11 13,36 -7,22 -26,-17 -21,25 -36,15 -15,-10 -38,9 2,-22 -8,-3 -56,-1 -13,-13 24,-7 -8,-8 -7,-9 z" />
              <path
                 style="fill:none;stroke:#2e2e2d;stroke-width:4.3886199;stroke-linecap:round;stroke-linejoin:round"
                 inkscape:connector-curvature="0"
                 id="path107"
                 d="m 524,592 c 2,10 2,13 2,21" />
              <path
                 style="fill:none;stroke:#2e2e2d;stroke-width:4.3886199;stroke-linecap:round;stroke-linejoin:round"
                 inkscape:connector-curvature="0"
                 id="path109"
                 d="m 609,612 c 0,0 0,32 -1,18" />
              <path
                 style="fill:none;stroke:#2e2e2d;stroke-width:4.3886199;stroke-linecap:round;stroke-linejoin:round"
                 inkscape:connector-curvature="0"
                 id="path111"
                 d="m 710,588 c 0,7 1,13 1,18" />
            </g>
            <g
               id="g137">
              <g
                 id="g123">
                <path
                   style="fill:#b09243;stroke:#2e2e2d;stroke-width:14.62870026;stroke-linecap:round;stroke-linejoin:round"
                   inkscape:connector-curvature="0"
                   id="path115"
                   d="m 411,606 c 2,-9 4,-19 4,-30 0,-4 0,-8 -1,-11 0,-3 0,-6 0,-10 1,-70 -128,-94 -205,-58 -25,12 -43,35 -48,61 z" />
                <path
                   style="fill:#cdb370;stroke:#2e2e2d;stroke-width:4.3886199;stroke-linecap:round;stroke-linejoin:round"
                   inkscape:connector-curvature="0"
                   id="path117"
                   d="m 209,497 c -25,12 -43,35 -49,61 l 241,46 c 8,-13 13,-29 13,-49 1,-70 -128,-94 -205,-58 z" />
                <path
                   style="fill:#cdb370;stroke:#2e2e2d;stroke-width:4.3886199;stroke-linecap:round;stroke-linejoin:round"
                   inkscape:connector-curvature="0"
                   id="path119"
                   d="m 225,511 c -22,10 -36,30 -40,51 l 190,37 c 8,-11 13,-25 13,-42 1,-55 -102,-74 -163,-46 z" />
                <path
                   style="fill:#fffbdc"
                   inkscape:connector-curvature="0"
                   id="path121"
                   d="m 249,557 c 1,-1 75,-31 14,-19 7,-6 52,-34 2,-17 -4,1 -21,22 -25,-2 -12,-1 -30,19 -17,30 -11,1 -33,-7 -22,16 l 38,8 c 1,-2 5,-4 17,-7 24,-7 -7,-8 -7,-9 z m 98,37 c 16,-8 37,-22 7,-25 -3,-5 48,-40 0,-29 -4,2 -18,-33 -30,8 -8,30 6,3 -14,16 -9,6 -4,16 -2,22 z m -48,-10 c -4,-2 -7,-2 -10,-1 z" />
              </g>
              <g
                 id="g135">
                <path
                   style="fill:#b09243;stroke:#2e2e2d;stroke-width:14.62870026;stroke-linecap:round;stroke-linejoin:round"
                   inkscape:connector-curvature="0"
                   id="path125"
                   d="m 557,635 c 16,-25 22,-56 7,-91 -1,-3 -3,-7 -6,-10 -1,-3 -2,-6 -3,-9 -27,-64 -155,-35 -211,29 -10,10 -16,22 -19,35 z" />
                <path
                   style="fill:#cdb370;stroke:#2e2e2d;stroke-width:4.3886199;stroke-linecap:round;stroke-linejoin:round"
                   inkscape:connector-curvature="0"
                   id="path127"
                   d="m 344,554 c -10,10 -16,22 -19,35 l 211,41 c 25,-27 37,-63 19,-105 -27,-64 -155,-35 -211,29 z" />
                <path
                   style="fill:#cdb370;stroke:#2e2e2d;stroke-width:4.3886199;stroke-linecap:round;stroke-linejoin:round"
                   inkscape:connector-curvature="0"
                   id="path129"
                   d="m 364,560 c -9,10 -15,22 -17,34 l 163,31 c 24,-22 37,-52 22,-88 -21,-51 -123,-27 -168,23 z" />
                <path
                   style="fill:#fffbdc"
                   inkscape:connector-curvature="0"
                   id="path131"
                   d="m 404,593 c 1,-1 57,-59 5,-23 5,-9 34,-52 -5,-16 -3,3 -10,28 -23,8 -12,3 -20,29 -3,34 -2,1 -4,2 -7,3 l 35,6 c 2,-2 5,-4 8,-7 20,-16 -10,-4 -10,-5 z m 88,29 c 5,-5 10,-12 14,-19 -3,-5 -36,21 -7,-5 5,-4 46,-49 7,-37 -6,-3 27,-55 -12,-25 -3,2 -30,-24 -25,18 5,31 7,1 -6,21 -11,17 26,28 2,24 -16,-4 -18,6 -18,14 z m -63,-12 3,-5 c -3,0 -7,1 -12,3 z" />
                <path
                   style="fill:none;stroke:#2e2e2d;stroke-width:4.3886199;stroke-linecap:round;stroke-linejoin:round"
                   inkscape:connector-curvature="0"
                   id="path133"
                   d="m 558,615 c 3,5 6,11 8,16" />
              </g>
            </g>
            <path
               style="fill:#9aa6af;stroke:#2e2e2d;stroke-width:4.3886199;stroke-linecap:round;stroke-linejoin:round"
               inkscape:connector-curvature="0"
               id="path139"
               d="m 220,591 150,26 c 0,20 15,111 -2,111 -78,0 -115,-11 -134,-25 -16,-12 -2,-62 -14,-112 z" />
            <path
               style="fill:none;stroke:#2e2e2d;stroke-width:4.3886199;stroke-linecap:round;stroke-linejoin:round"
               inkscape:connector-curvature="0"
               id="path141"
               d="m 185,29 c 155,13 237,168 215,266 -3,1 20,-8 20,-11" />
            <path
               style="fill:#bbcad6;stroke:#2e2e2d;stroke-width:4.3886199;stroke-linecap:round;stroke-linejoin:round"
               inkscape:connector-curvature="0"
               id="path149"
               d="m 251,656 c 17,-2 144,-11 103,37 -15,18 -113,-5 -113,-14 0,-18 3,-22 10,-23 z" />
            <line
               style="fill:none;stroke:#2e2e2d;stroke-width:4.56993818;stroke-linecap:round;stroke-linejoin:round"
               id="line151"
               y2="952.29901"
               x2="682.63287"
               y1="776.12555"
               x1="28.731512" />
            <polyline
               style="fill:none;stroke:#2e2e2d;stroke-width:4.3886199;stroke-linecap:round;stroke-linejoin:round"
               id="polyline153"
               points="1023,542 671,805 26,671 " />
            <line
               style="fill:none;stroke:#2e2e2d;stroke-width:4.2842164;stroke-linecap:round;stroke-linejoin:round"
               id="line155"
               y2="952.99866"
               x2="682.78833"
               y1="702.98926"
               x1="1026.0109" />
            <line
               style="fill:none;stroke:#2e2e2d;stroke-width:4.3886199;stroke-linecap:round;stroke-linejoin:round"
               id="line157"
               y2="338"
               x2="1039"
               y1="32"
               x1="905" />
            <line
               style="fill:none;stroke:#2e2e2d;stroke-width:4.3886199;stroke-linecap:round;stroke-linejoin:round"
               id="line159"
               y2="236"
               x2="1064"
               y1="77"
               x1="988" />
            <path
               style="fill:#bbcad6;stroke:#2e2e2d;stroke-width:4.3886199;stroke-linecap:round;stroke-linejoin:round"
               inkscape:connector-curvature="0"
               id="path143"
               d="m 834,680 c -48,-44 -36,125 1,65 7,-12 5,-60 -1,-65 z" />
            <path
               style="fill:#bbcad6;stroke:#2e2e2d;stroke-width:4.3886199;stroke-linecap:round;stroke-linejoin:round"
               inkscape:connector-curvature="0"
               id="path145"
               d="m 949,572 c -5,-72 -69,96 -1,66 29,-12 1,-63 1,-66 z" />
            <path
               style="fill:#9aa6af;stroke:#2e2e2d;stroke-width:4.3886199;stroke-linecap:round;stroke-linejoin:round"
               inkscape:connector-curvature="0"
               id="path147"
               d="m 950,595 c -75,-6 50,42 -1,87 -146,128 -85,46 -123,38 -16,-3 7,114 68,56 77,-72 129,-108 67,-163 -5,-4 -8,-17 -11,-18 z" />
          </g>
        </g>
      </g>
    </g>
  </g>
</svg>
