<?xml version="1.0" encoding="UTF-8" standalone="no"?>
<svg
   xmlns:dc="http://purl.org/dc/elements/1.1/"
   xmlns:cc="http://creativecommons.org/ns#"
   xmlns:rdf="http://www.w3.org/1999/02/22-rdf-syntax-ns#"
   xmlns:svg="http://www.w3.org/2000/svg"
   xmlns="http://www.w3.org/2000/svg"
   xmlns:sodipodi="http://sodipodi.sourceforge.net/DTD/sodipodi-0.dtd"
   xmlns:inkscape="http://www.inkscape.org/namespaces/inkscape"
   width="123.46429mm"
   height="55.428574mm"
   viewBox="0 0 123.46429 55.428574"
   version="1.1"
   id="svg1197"
   inkscape:version="1.0.2-2 (e86c870879, 2021-01-15)"
   sodipodi:docname="s07-settings.svg">
  <defs
     id="defs1191" />
  <sodipodi:namedview
     id="base"
     pagecolor="#ffffff"
     bordercolor="#666666"
     borderopacity="1.0"
     inkscape:pageopacity="0.0"
     inkscape:pageshadow="2"
     inkscape:zoom="0.35"
     inkscape:cx="681.88977"
     inkscape:cy="599.03262"
     inkscape:document-units="mm"
     inkscape:current-layer="layer1"
     inkscape:document-rotation="0"
     showgrid="false"
     fit-margin-top="0"
     fit-margin-left="0"
     fit-margin-right="0"
     fit-margin-bottom="0"
     inkscape:window-width="1340"
     inkscape:window-height="728"
     inkscape:window-x="10"
     inkscape:window-y="0"
     inkscape:window-maximized="0" />
  <metadata
     id="metadata1194">
    <rdf:RDF>
      <cc:Work
         rdf:about="">
        <dc:format>image/svg+xml</dc:format>
        <dc:type
           rdf:resource="http://purl.org/dc/dcmitype/StillImage" />
        <dc:title></dc:title>
      </cc:Work>
    </rdf:RDF>
  </metadata>
  <g
     inkscape:label="Kiht 1"
     inkscape:groupmode="layer"
     id="layer1"
     transform="translate(74.583336,10.327381)">
    <rect
       y="-9.8273811"
       x="-74.083336"
       height="27.214285"
       width="13.607142"
       id="rect833"
       style="fill:none;stroke:#800000;stroke-width:1;stroke-miterlimit:4;stroke-dasharray:none" />
    <text
       transform="scale(0.90779474,1.1015706)"
       id="text837"
       y="11.462829"
       x="-80.899879"
       style="font-size:25.2474px;line-height:1.25;font-family:Calibri;-inkscape-font-specification:'Calibri, Normal';letter-spacing:0px;word-spacing:0px;fill:#800080;stroke-width:0.631187"
       xml:space="preserve"><tspan
         style="fill:#800080;stroke-width:0.631187"
         y="11.462829"
         x="-80.899879"
         id="tspan835">1</tspan></text>
    <rect
       style="fill:none;stroke:#800000;stroke-width:1;stroke-miterlimit:4;stroke-dasharray:none"
       id="rect833-5"
       width="13.607142"
       height="27.214285"
       x="-60.476196"
       y="-9.8273811" />
    <text
       xml:space="preserve"
       style="font-size:25.2474px;line-height:1.25;font-family:Calibri;-inkscape-font-specification:'Calibri, Normal';letter-spacing:0px;word-spacing:0px;fill:#800080;stroke-width:0.631187"
       x="-65.910652"
       y="11.462829"
       id="text837-4"
       transform="scale(0.90779474,1.1015706)"><tspan
         id="tspan835-5"
         x="-65.910652"
         y="11.462829"
         style="fill:#800080;stroke-width:0.631187">2</tspan></text>
    <rect
       style="fill:none;stroke:#800000;stroke-width:1;stroke-miterlimit:4;stroke-dasharray:none"
       id="rect833-4"
       width="13.607142"
       height="27.214285"
       x="-46.869053"
       y="-9.8273811" />
    <text
       xml:space="preserve"
       style="font-size:25.2474px;line-height:1.25;font-family:Calibri;-inkscape-font-specification:'Calibri, Normal';letter-spacing:0px;word-spacing:0px;fill:#800080;stroke-width:0.631187"
       x="-50.921429"
       y="11.462829"
       id="text837-41"
       transform="scale(0.90779474,1.1015706)"><tspan
         id="tspan835-2"
         x="-50.921429"
         y="11.462829"
         style="fill:#800080;stroke-width:0.631187">3</tspan></text>
    <rect
       style="fill:none;stroke:#800000;stroke-width:1;stroke-miterlimit:4;stroke-dasharray:none"
       id="rect833-55"
       width="13.607142"
       height="27.214285"
       x="-33.261913"
       y="-9.8273811" />
    <text
       xml:space="preserve"
       style="font-size:25.2474px;line-height:1.25;font-family:Calibri;-inkscape-font-specification:'Calibri, Normal';letter-spacing:0px;word-spacing:0px;fill:#800080;stroke-width:0.631187"
       x="-35.932198"
       y="11.462829"
       id="text837-2"
       transform="scale(0.90779474,1.1015706)"><tspan
         id="tspan835-8"
         x="-35.932198"
         y="11.462829"
         style="fill:#800080;stroke-width:0.631187">4</tspan></text>
    <rect
       style="fill:none;stroke:#800000;stroke-width:1;stroke-miterlimit:4;stroke-dasharray:none"
       id="rect833-45"
       width="13.607142"
       height="27.214285"
       x="-19.654764"
       y="-9.8273811" />
    <text
       xml:space="preserve"
       style="font-size:25.2474px;line-height:1.25;font-family:Calibri;-inkscape-font-specification:'Calibri, Normal';letter-spacing:0px;word-spacing:0px;fill:#800080;stroke-width:0.631187"
       x="-20.94297"
       y="11.462829"
       id="text837-5"
       transform="scale(0.90779474,1.1015706)"><tspan
         id="tspan835-7"
         x="-20.94297"
         y="11.462829"
         style="fill:#800080;stroke-width:0.631187">5</tspan></text>
    <rect
       style="fill:none;stroke:#800000;stroke-width:1;stroke-miterlimit:4;stroke-dasharray:none"
       id="rect833-3"
       width="13.607142"
       height="27.214285"
       x="-6.0476251"
       y="-9.8273811" />
    <text
       xml:space="preserve"
       style="font-size:25.2474px;line-height:1.25;font-family:Calibri;-inkscape-font-specification:'Calibri, Normal';letter-spacing:0px;word-spacing:0px;fill:#800080;stroke-width:0.631187"
       x="-5.9537425"
       y="11.462829"
       id="text837-23"
       transform="scale(0.90779474,1.1015706)"><tspan
         id="tspan835-4"
         x="-5.9537425"
         y="11.462829"
         style="fill:#800080;stroke-width:0.631187">6</tspan></text>
    <rect
       style="fill:none;stroke:#800000;stroke-width:1;stroke-miterlimit:4;stroke-dasharray:none"
       id="rect833-2"
       width="13.607142"
       height="27.214285"
       x="7.5595069"
       y="-9.8273811" />
    <text
       xml:space="preserve"
       style="font-size:25.2474px;line-height:1.25;font-family:Calibri;-inkscape-font-specification:'Calibri, Normal';letter-spacing:0px;word-spacing:0px;fill:#800080;stroke-width:0.631187"
       x="9.0354843"
       y="11.462829"
       id="text837-3"
       transform="scale(0.90779474,1.1015706)"><tspan
         id="tspan835-29"
         x="9.0354843"
         y="11.462829"
         style="fill:#800080;stroke-width:0.631187">7</tspan></text>
    <rect
       style="fill:none;stroke:#800000;stroke-width:1;stroke-miterlimit:4;stroke-dasharray:none"
       id="rect833-0"
       width="13.607142"
       height="27.214285"
       x="-74.083336"
       y="17.386906" />
    <text
       xml:space="preserve"
       style="font-size:25.2474px;line-height:1.25;font-family:Calibri;-inkscape-font-specification:'Calibri, Normal';letter-spacing:0px;word-spacing:0px;fill:#ff6600;stroke-width:0.631187"
       x="-80.899879"
       y="36.167816"
       id="text837-7"
       transform="scale(0.90779474,1.1015706)"><tspan
         id="tspan835-1"
         x="-80.899879"
         y="36.167816"
         style="fill:#ff6600;stroke-width:0.631187">7</tspan></text>
    <rect
       y="17.386906"
       x="-60.476196"
       height="27.214285"
       width="13.607142"
       id="rect833-5-0"
       style="fill:none;stroke:#800000;stroke-width:1;stroke-miterlimit:4;stroke-dasharray:none" />
    <text
       transform="scale(0.90779474,1.1015706)"
       id="text837-4-7"
       y="36.167816"
       x="-65.910652"
       style="font-size:25.2474px;line-height:1.25;font-family:Calibri;-inkscape-font-specification:'Calibri, Normal';letter-spacing:0px;word-spacing:0px;fill:#ff6600;stroke-width:0.631187"
       xml:space="preserve"><tspan
         style="fill:#ff6600;stroke-width:0.631187"
         y="36.167816"
         x="-65.910652"
         id="tspan835-5-7">8</tspan></text>
    <rect
       y="17.386906"
       x="-46.869053"
       height="27.214285"
       width="13.607142"
       id="rect833-4-5"
       style="fill:none;stroke:#800000;stroke-width:1;stroke-miterlimit:4;stroke-dasharray:none" />
    <text
       transform="scale(0.90779474,1.1015706)"
       id="text837-41-0"
       y="36.167816"
       x="-50.921429"
       style="font-size:25.2474px;line-height:1.25;font-family:Calibri;-inkscape-font-specification:'Calibri, Normal';letter-spacing:0px;word-spacing:0px;fill:#ff6600;stroke-width:0.631187"
       xml:space="preserve"><tspan
         style="fill:#ff6600;stroke-width:0.631187"
         y="36.167816"
         x="-50.921429"
         id="tspan835-2-6">5</tspan></text>
    <rect
       y="17.386906"
       x="-33.261913"
       height="27.214285"
       width="13.607142"
       id="rect833-55-8"
       style="fill:none;stroke:#800000;stroke-width:1;stroke-miterlimit:4;stroke-dasharray:none" />
    <text
       transform="scale(0.90779474,1.1015706)"
       id="text837-2-1"
       y="36.167816"
       x="-35.932198"
       style="font-size:25.2474px;line-height:1.25;font-family:Calibri;-inkscape-font-specification:'Calibri, Normal';letter-spacing:0px;word-spacing:0px;fill:#ff6600;stroke-width:0.631187"
       xml:space="preserve"><tspan
         style="fill:#ff6600;stroke-width:0.631187"
         y="36.167816"
         x="-35.932198"
         id="tspan835-8-6">6</tspan></text>
    <rect
       y="17.386906"
       x="-19.654764"
       height="27.214285"
       width="13.607142"
       id="rect833-45-8"
       style="fill:none;stroke:#800000;stroke-width:1;stroke-miterlimit:4;stroke-dasharray:none" />
    <text
       transform="scale(0.90779474,1.1015706)"
       id="text837-5-9"
       y="36.167816"
       x="-20.94297"
       style="font-size:25.2474px;line-height:1.25;font-family:Calibri;-inkscape-font-specification:'Calibri, Normal';letter-spacing:0px;word-spacing:0px;fill:#ff6600;stroke-width:0.631187"
       xml:space="preserve"><tspan
         style="fill:#ff6600;stroke-width:0.631187"
         y="36.167816"
         x="-20.94297"
         id="tspan835-7-5">9</tspan></text>
    <rect
       y="17.386906"
       x="-6.0476251"
       height="27.214285"
       width="13.607142"
       id="rect833-3-6"
       style="fill:none;stroke:#800000;stroke-width:1;stroke-miterlimit:4;stroke-dasharray:none" />
    <rect
       y="17.386906"
       x="7.5595069"
       height="27.214285"
       width="13.607142"
       id="rect833-2-9"
       style="fill:none;stroke:#800000;stroke-width:1;stroke-miterlimit:4;stroke-dasharray:none" />
    <text
       transform="scale(0.90779474,1.1015706)"
       id="text837-3-7"
       y="36.167816"
       x="9.0354843"
       style="font-size:25.2474px;line-height:1.25;font-family:Calibri;-inkscape-font-specification:'Calibri, Normal';letter-spacing:0px;word-spacing:0px;fill:#ff6600;stroke-width:0.631187"
       xml:space="preserve"><tspan
         style="fill:#ff6600;stroke-width:0.631187"
         y="36.167816"
         x="9.0354843"
         id="tspan835-29-4">3</tspan></text>
    <rect
       y="-9.8273811"
       x="21.166647"
       height="27.214285"
       width="13.607142"
       id="rect833-2-1"
       style="fill:none;stroke:#800000;stroke-width:1;stroke-miterlimit:4;stroke-dasharray:none" />
    <text
       transform="scale(0.90779474,1.1015706)"
       id="text837-3-78"
       y="11.462829"
       x="24.024712"
       style="font-size:25.2474px;line-height:1.25;font-family:Calibri;-inkscape-font-specification:'Calibri, Normal';letter-spacing:0px;word-spacing:0px;fill:#800080;stroke-width:0.631187"
       xml:space="preserve"><tspan
         style="fill:#800080;stroke-width:0.631187"
         y="11.462829"
         x="24.024712"
         id="tspan835-29-5">8</tspan></text>
    <rect
       style="fill:none;stroke:#800000;stroke-width:1;stroke-miterlimit:4;stroke-dasharray:none"
       id="rect833-2-9-6"
       width="13.607142"
       height="27.214285"
       x="21.166647"
       y="17.386906" />
    <text
       xml:space="preserve"
       style="font-size:25.2474px;line-height:1.25;font-family:Calibri;-inkscape-font-specification:'Calibri, Normal';letter-spacing:0px;word-spacing:0px;fill:#ff6600;stroke-width:0.631187"
       x="24.024712"
       y="36.167816"
       id="text837-3-7-4"
       transform="scale(0.90779474,1.1015706)"><tspan
         id="tspan835-29-4-3"
         x="24.024712"
         y="36.167816"
         style="fill:#ff6600;stroke-width:0.631187">4</tspan></text>
    <rect
       y="-9.8273811"
       x="34.773808"
       height="27.214285"
       width="13.607142"
       id="rect833-2-15"
       style="fill:none;stroke:#800000;stroke-width:1;stroke-miterlimit:4;stroke-dasharray:none" />
    <text
       transform="scale(0.90779474,1.1015706)"
       id="text837-3-6"
       y="11.462829"
       x="39.013924"
       style="font-size:25.2474px;line-height:1.25;font-family:Calibri;-inkscape-font-specification:'Calibri, Normal';letter-spacing:0px;word-spacing:0px;fill:#800080;stroke-width:0.631187"
       xml:space="preserve"><tspan
         style="fill:#800080;stroke-width:0.631187"
         y="11.462829"
         x="39.013924"
         id="tspan835-29-6">9</tspan></text>
    <rect
       style="fill:none;stroke:#800000;stroke-width:1;stroke-miterlimit:4;stroke-dasharray:none"
       id="rect833-2-9-7"
       width="13.607142"
       height="27.214285"
       x="34.773808"
       y="17.386906" />
    <text
       xml:space="preserve"
       style="font-size:25.2474px;line-height:1.25;font-family:Calibri;-inkscape-font-specification:'Calibri, Normal';letter-spacing:0px;word-spacing:0px;fill:#ff6600;stroke-width:0.631187"
       x="39.013924"
       y="36.167816"
       id="text837-3-7-7"
       transform="scale(0.90779474,1.1015706)"><tspan
         id="tspan835-29-4-0"
         x="39.013924"
         y="36.167816"
         style="fill:#ff6600;stroke-width:0.631187">2</tspan></text>
  </g>
</svg>
