<?xml version="1.0" encoding="UTF-8" standalone="no"?>
<svg
   xmlns:dc="http://purl.org/dc/elements/1.1/"
   xmlns:cc="http://creativecommons.org/ns#"
   xmlns:rdf="http://www.w3.org/1999/02/22-rdf-syntax-ns#"
   xmlns:svg="http://www.w3.org/2000/svg"
   xmlns="http://www.w3.org/2000/svg"
   xmlns:sodipodi="http://sodipodi.sourceforge.net/DTD/sodipodi-0.dtd"
   xmlns:inkscape="http://www.inkscape.org/namespaces/inkscape"
   version="1.1"
   id="圖層_1"
   x="0px"
   y="0px"
   viewBox="0 0 540.9 212.3"
   style="enable-background:new 0 0 540.9 212.3;"
   xml:space="preserve"
   sodipodi:docname="b04-expl-0.svg"
   inkscape:version="1.0.1 (3bc2e813f5, 2020-09-07)"
   inkscape:export-xdpi="96"
   inkscape:export-ydpi="96"><metadata
   id="metadata45"><rdf:RDF><cc:Work
       rdf:about=""><dc:format>image/svg+xml</dc:format><dc:type
         rdf:resource="http://purl.org/dc/dcmitype/StillImage" /></cc:Work></rdf:RDF></metadata><defs
   id="defs43" /><sodipodi:namedview
   pagecolor="#ffffff"
   bordercolor="#666666"
   borderopacity="1"
   objecttolerance="10"
   gridtolerance="10"
   guidetolerance="10"
   inkscape:pageopacity="0"
   inkscape:pageshadow="2"
   inkscape:window-width="1920"
   inkscape:window-height="1017"
   id="namedview41"
   showgrid="false"
   inkscape:zoom="1.9942836"
   inkscape:cx="259.41848"
   inkscape:cy="106.15"
   inkscape:window-x="-8"
   inkscape:window-y="-8"
   inkscape:window-maximized="1"
   inkscape:current-layer="圖層_1" />
<style
   type="text/css"
   id="style2">
	.st0{fill:none;stroke:#C6BA45;stroke-width:5;stroke-miterlimit:10;}
	.st1{fill:none;stroke:#4B7744;stroke-width:5;stroke-miterlimit:10;}
	.st2{fill:#5E5E5E;}
	.st3{fill:#FFFFFF;}
</style>
<line
   class="st0"
   x1="343.2"
   y1="38.6"
   x2="514.2"
   y2="38.6"
   id="line4"
   style="stroke:#4b7744;stroke-opacity:1" />




<circle
   class="st2"
   cx="355.5"
   cy="38.6"
   r="32"
   id="circle14" />
<circle
   class="st2"
   cx="500.2"
   cy="38.6"
   r="32"
   id="circle16" />

<g
   id="g22">
	<path
   class="st3"
   d="M352.2,20.8h5.1l12.5,30.8h-6.7l-2.5-6h-11.8l-2.4,6h-6.6L352.2,20.8z M354.8,30.9l-3.6,9.1h7.3L354.8,30.9z"
   id="path20" />
</g>
<g
   id="g26">
	<path
   class="st3"
   d="M490.9,159.8h9c3.7,0,6.3,0.8,7.7,2.3c1.4,1.6,2.1,3.4,2.1,5.5c0,1.3-0.3,2.4-0.8,3.4   c-0.5,0.9-1.3,1.8-2.4,2.8c2.1,0.7,3.6,1.8,4.5,3.2s1.3,3,1.3,4.6c0,2.8-1,5-2.9,6.6s-4.7,2.4-8.2,2.4h-10.3V159.8z M497.5,165v6.8   h1.5c1.1,0,2.1-0.4,2.8-1.1s1.1-1.6,1.1-2.6c0-0.8-0.4-1.6-1.1-2.2c-0.7-0.6-1.7-0.9-2.8-0.9H497.5z M497.5,176.9v8.5h2.4   c3.6,0,5.5-1.3,5.5-4c0-1.4-0.4-2.5-1.3-3.3c-0.9-0.8-2.2-1.2-3.8-1.2H497.5z"
   id="path24" />
</g>
<g
   id="g30">
	<path
   class="st3"
   d="M509.5,25.1v7.5c-3.3-2-6.2-3-8.7-3s-4.5,0.9-6,2.6c-1.5,1.7-2.3,4-2.3,6.9c0,2.8,0.8,4.9,2.4,6.6   s3.7,2.5,6.3,2.5c2.3,0,5.1-0.9,8.3-2.8v7.5c-3.6,1.2-6.6,1.8-9,1.8c-4.1,0-7.7-1.5-10.5-4.6s-4.3-6.7-4.3-11.1   c0-4.5,1.5-8.2,4.4-11.3s6.5-4.6,10.7-4.6C503.4,23,506.3,23.7,509.5,25.1z"
   id="path28" />
</g>


</svg>
