<?xml version="1.0" encoding="utf-8"?>
<!-- Generator: Adobe Illustrator 24.0.0, SVG Export Plug-In . SVG Version: 6.00 Build 0)  -->
<svg version="1.1" id="圖層_1" xmlns="http://www.w3.org/2000/svg" xmlns:xlink="http://www.w3.org/1999/xlink" x="0px" y="0px"
	 viewBox="0 0 127.8 75.4" style="enable-background:new 0 0 127.8 75.4;" xml:space="preserve">
<style type="text/css">
	.st0{display:none;}
	.st1{fill:#717078;}
	.st2{fill:none;stroke:#000000;stroke-width:0.25;stroke-linecap:round;stroke-linejoin:round;stroke-miterlimit:10;}
	.st3{fill:none;stroke:#000000;stroke-width:0.75;stroke-linecap:round;stroke-linejoin:round;stroke-miterlimit:10;}
	.st4{fill:#B6B4B0;}
	.st5{fill:none;stroke:#000000;stroke-width:0.75;stroke-miterlimit:10;}
	.st6{fill:#E6E9EB;}
	.st7{fill:none;stroke:#000000;stroke-width:0.15;stroke-linecap:round;stroke-linejoin:round;stroke-miterlimit:10;}
	.st8{fill:none;stroke:#000000;stroke-width:0.5;stroke-linecap:round;stroke-linejoin:round;stroke-miterlimit:10;}
	.st9{fill:#CD221C;}
	.st10{display:inline;fill:#24993A;}
	.st11{display:inline;fill:none;stroke:#24993A;stroke-miterlimit:10;}
	.st12{fill:#24993A;}
	.st13{fill:#75D835;}
	.st14{fill:none;}
	.st15{fill:#C8B800;}
	.st16{fill:#223F0F;}
	.st17{display:inline;}
	.st18{display:inline;fill:#515556;}
	.st19{display:inline;fill:#D7D7D7;}
	.st20{display:inline;fill:#616060;}
	.st21{display:inline;fill:#F6F6F6;}
	
		.st22{display:inline;fill:none;stroke:#000000;stroke-width:0.25;stroke-linecap:round;stroke-linejoin:round;stroke-miterlimit:10;}
	.st23{display:inline;fill:#BC3F25;}
	.st24{display:inline;fill:#9E775D;}
	
		.st25{display:inline;fill:none;stroke:#9E5E3A;stroke-width:0.25;stroke-linecap:round;stroke-linejoin:round;stroke-miterlimit:10;}
	
		.st26{display:inline;fill:none;stroke:#9E5E3A;stroke-width:0.25;stroke-linecap:round;stroke-linejoin:round;stroke-miterlimit:9.9999;}
	.st27{display:inline;fill:#CFA286;}
	.st28{fill:#847A00;}
</style>
<g id="圖層_2_1_" class="st0">
	
		<image style="display:inline;overflow:visible;enable-background:new    ;" width="506" height="898" xlink:href="762D2FE0.jpeg"  transform="matrix(7.816205e-02 0 0 7.816205e-02 94.1533 -6.0367)">
	</image>
	
		<image style="display:inline;overflow:visible;enable-background:new    ;" width="649" height="649" xlink:href="762D2FE0.jpeg"  transform="matrix(4.157257e-02 0 0 4.157257e-02 142.3555 21.7145)">
	</image>
</g>
<g id="圖層_4">
	<path class="st1" d="M14.6,42.1c0,0,1.2,9.5,3.2,13.5c2,4,4.6,9,4,13.4s3.6,4.9,4.8-4.3s1.2-18.8-2.2-24L14.6,42.1z"/>
	<path class="st2" d="M14.6,42.1c0,0,1.2,9.5,3.2,13.5c2,4,4.6,9,4,13.4s3.6,4.9,4.8-4.3s1.2-18.8-2.2-24L14.6,42.1z"/>
	<path class="st3" d="M9.8,30.1c0,0-0.3,9.7,1.2,18.7c1.2,7.1,2.4,9.9,2.4,9.9s0.5,0.7,0.7-0.5s0.5,0.3,0.9,0.7s0.5-0.2,0.5-1
		s0.4-0.3,0.6,0.2c0.2,0.5,0.7,0.6,0.6-0.9c0-1.5-0.9-4.2,1.1-6.8s7.8-1.4,8.7-0.2c1,1.2,1.8,4.7,1.8,6.5c0,0-0.1,0.3,0.2,0.3
		c0.5-0.1,0.5-1.1,0.8-1.3c0.3-0.2-0.1,1.4,0,1.4c0.5,0.2,0.5-0.3,0.8-1s0.4,0.2,0.3,0.8c-0.1,0.5,0.1,1,0.7,0.1s1-10.6,0.9-17.5
		c-0.1-7-1.2-13.9-3.2-18.6S15,18.1,12.7,21.2S10.4,25.2,9.8,30.1z"/>
	<path class="st1" d="M9.8,30.1c0,0-0.3,9.7,1.2,18.7c1.2,7.1,2.4,9.9,2.4,9.9s0.5,0.7,0.7-0.5s0.5,0.3,0.9,0.7s0.5-0.2,0.5-1
		s0.4-0.3,0.6,0.2c0.2,0.5,0.7,0.6,0.6-0.9c0-1.5-0.9-4.2,1.1-6.8s7.8-1.4,8.7-0.2c1,1.2,1.8,4.7,1.8,6.5c0,0-0.1,0.3,0.2,0.3
		c0.5-0.1,0.5-1.1,0.8-1.3c0.3-0.2-0.1,1.4,0,1.4c0.5,0.2,0.5-0.3,0.8-1s0.4,0.2,0.3,0.8c-0.1,0.5,0.1,1,0.7,0.1s1-10.6,0.9-17.5
		c-0.1-7-1.2-13.9-3.2-18.6S15,18.1,12.7,21.2S10.4,25.2,9.8,30.1z"/>
	<path class="st4" d="M19.1,44.6c10.5,1.7,12-11.3,10.7-21c-0.3-0.9-0.6-1.8-0.9-2.7c-2-4.8-13.9-2.8-16.2,0.3s-2.3,4-2.9,8.9
		c0,0-0.1,1.7,0,4.4C11.1,39,13.6,43.8,19.1,44.6z"/>
	<path class="st3" d="M9.6,21.2c0,0-1.8,2.8-2.6,7.3c-0.8,4.5,0.3,7.8,3.5,9s5.7,1.5,5.7,1.5s0.9-0.3,0-0.8s-0.9-0.5-0.9-0.5
		s0.9,0.4,1.5,0.2s-0.8-0.7-1.1-0.8c0,0,1.2,0.4,1.5,0.1s-1-0.8-1-0.8s0.8,0.3,1.3,0.2s-0.3-0.6-0.9-0.9s-3.1-0.7-4-3.2
		s-0.5-6.8,1.7-9.5S9.6,21.2,9.6,21.2z"/>
	<path class="st3" d="M29.8,19.7c0,0,2.8,3.5,3.4,7.1s0,6.7-1.8,9c-1.8,2.4-5.8,2.7-5.8,2.7s-1,0,0.7-1c0,0-1.1,0.7-1.5,0.5
		s1-1.1,1-1.1s-1.2,0.8-1.4,0.5s0.7-1.2,0.7-1.2s-1,0.5-1.3,0.4s0.9-1.2,0.9-1.2s2.9-2.9,3-6.3s-3.5-7.9-3.5-7.9L29.8,19.7z"/>
	<path class="st1" d="M9.6,21.2c0,0-1.8,2.8-2.6,7.3c-0.8,4.5,0.3,7.8,3.5,9s5.7,1.5,5.7,1.5s0.9-0.3,0-0.8s-0.9-0.5-0.9-0.5
		s0.9,0.4,1.5,0.2s-0.8-0.7-1.1-0.8c0,0,1.2,0.4,1.5,0.1s-1-0.8-1-0.8s0.8,0.3,1.3,0.2s-0.3-0.6-0.9-0.9s-3.1-0.7-4-3.2
		s0.4-6.9,2.6-9.6S9.6,21.2,9.6,21.2z"/>
	<path class="st1" d="M29.8,19.7c0,0,2.8,3.5,3.4,7.1s0,6.7-1.8,9c-1.8,2.4-5.8,2.7-5.8,2.7s-1,0,0.7-1c0,0-1.1,0.7-1.5,0.5
		s1-1.1,1-1.1s-1.2,0.8-1.4,0.5s0.7-1.2,0.7-1.2s-1,0.5-1.3,0.4s0.9-1.2,0.9-1.2s2.9-2.9,3-6.3s-4.2-7.9-4.2-7.9L29.8,19.7z"/>
	<g>
		<path class="st5" d="M10.6,8.7c0,0-1.8-1.2-2.5,0s0.8,2,1.7,2c0,0-0.6,2.4-1.1,3.3s-3.3,4.8,0.1,7.6c3.4,2.8,9.9,2.8,14.9,1.5
			s5.6-2,6.6-2.9s1.7-5.1-0.4-7.3c-1.1-1.1-0.5-2.6-0.5-2.6s2.3-3.1,0-3.2c-1.1-0.1-1.9,1.2-1.9,1.2S24.1,5,18.4,5.5
			S10.6,8.7,10.6,8.7z"/>
		<path class="st4" d="M10.6,8.7c0,0-1.8-1.2-2.5,0s0.8,2,1.7,2c0,0-0.6,2.4-1.1,3.3s-3.3,4.8,0.1,7.6c3.4,2.8,9.9,3.4,14.8,2.1
			s5.6-2.6,6.6-3.5s1.7-5.1-0.4-7.3c-1.1-1.1-0.5-2.6-0.5-2.6s2.3-3.1,0-3.2c-1.1-0.1-1.9,1.2-1.9,1.2S24.1,5,18.4,5.5
			S10.6,8.7,10.6,8.7z"/>
		<path class="st6" d="M7.6,16c0,0,2.2-2.5,4.6-2c2.4,0.4,3.4,1.5,5.7,2s3.1-0.1,4.6-1s4.1-2.3,6.6-1.7s2,3.2,1.9,4.8
			c-0.1,1.2-1.2,4-5.3,5.3s-12.3,1.2-15.4-0.6C7.4,21.1,6,19.2,7.6,16z"/>
		<path d="M14.6,15.1c-0.7,0.4-1.4-0.4-0.9-1.2c0.9-1.2,1.5-0.4,1.4,0.1C15.1,14.6,14.8,14.9,14.6,15.1z"/>
		<path d="M22.7,14.2c-0.4-0.6-0.5-1.2,0.2-1.4c1.1-0.4,1.5,1.7,0.8,1.9C23.1,14.9,22.7,14.2,22.7,14.2z"/>
		<path d="M18.3,17.7c-0.8,0-1.7,0.2-1.7-0.6c0-0.5,0.8-1.1,1.4-1.3c1.4-0.4,2.3,0.2,2.6,0.7c0.4,0.5,0.8,1.2-0.8,1.1
			C18.8,17.7,18.3,17.7,18.3,17.7z"/>
		<path class="st7" d="M16.8,15.5c0,0,1.9-0.9,3.2-0.3"/>
		<path class="st7" d="M17.4,14.9c0,0,1.1-0.7,2.2-0.2"/>
		<g>
			<path class="st2" d="M14.1,17.3c0,0-0.9,0.5-0.4,1.6c0.3,0.8,1.7,1.5,3.2,0.8s2.8-0.7,3.8-0.4c1,0.4,2.6,0.5,3.6,0
				s1.1-2.1,0.4-2.4"/>
			<path class="st2" d="M14,16.7c0,0-1.1-0.5-1.8-0.5"/>
			<path class="st2" d="M11.6,17.5c0,0,0.7-0.3,1.7-0.2"/>
			<path class="st2" d="M25.1,16.3c0,0,0.3-0.3,1.7-0.6"/>
			<path class="st2" d="M25.5,17.1c0,0,0.9-0.3,2,0"/>
		</g>
		<path class="st2" d="M18,20.7c0,0,0.7,0.4,2,0"/>
	</g>
	<path class="st1" d="M56.4,42.1c0,0,1.2,9.5,3.2,13.5c2,4,4.6,9,4,13.4s3.6,4.9,4.8-4.3s1.2-18.8-2.2-24L56.4,42.1z"/>
	<path class="st2" d="M56.4,42.1c0,0,1.2,9.5,3.2,13.5c2,4,4.6,9,4,13.4s3.6,4.9,4.8-4.3s1.2-18.8-2.2-24L56.4,42.1z"/>
	<path class="st3" d="M51.6,30.1c0,0-0.3,9.7,1.2,18.7c1.2,7.1,2.4,9.9,2.4,9.9s0.5,0.7,0.7-0.5c0.2-1.1,0.5,0.3,0.9,0.7
		c0.3,0.3,0.5-0.2,0.5-1s0.4-0.3,0.6,0.2c0.2,0.5,0.7,0.6,0.6-0.9c0-1.5-0.9-4.2,1.1-6.8s7.8-1.4,8.7-0.2c1,1.2,1.8,4.7,1.8,6.5
		c0,0-0.1,0.3,0.2,0.3c0.5-0.1,0.5-1.1,0.8-1.3c0.3-0.2-0.1,1.4,0,1.4c0.5,0.2,0.5-0.3,0.8-1s0.4,0.2,0.3,0.8
		c-0.1,0.5,0.1,1,0.7,0.1s1.1-10.6,0.9-17.5s-1.2-13.9-3.2-18.6s-13.9-2.8-16.2,0.3S52.2,25.2,51.6,30.1z"/>
	<path class="st1" d="M51.6,30.1c0,0-0.3,9.7,1.2,18.7c1.2,7.1,2.4,9.9,2.4,9.9s0.5,0.7,0.7-0.5c0.2-1.1,0.5,0.3,0.9,0.7
		c0.3,0.3,0.5-0.2,0.5-1s0.4-0.3,0.6,0.2c0.2,0.5,0.7,0.6,0.6-0.9c0-1.5-0.9-4.2,1.1-6.8s7.8-1.4,8.7-0.2c1,1.2,1.8,4.7,1.8,6.5
		c0,0-0.1,0.3,0.2,0.3c0.5-0.1,0.5-1.1,0.8-1.3c0.3-0.2-0.1,1.4,0,1.4c0.5,0.2,0.5-0.3,0.8-1s0.4,0.2,0.3,0.8
		c-0.1,0.5,0.1,1,0.7,0.1s1.1-10.6,0.9-17.5s-1.2-13.9-3.2-18.6s-13.9-2.8-16.2,0.3S52.2,25.2,51.6,30.1z"/>
	<path class="st4" d="M61,44.6c10.5,1.7,12-11.3,10.7-21c-0.3-0.9-0.6-1.8-0.9-2.7c-2-4.8-13.9-2.8-16.2,0.3s-2.3,4-2.9,8.9
		c0,0-0.1,1.7,0,4.4C52.9,39,55.4,43.8,61,44.6z"/>
	<path class="st3" d="M51.4,21.2c0,0-1.8,2.8-2.6,7.3c-0.8,4.5,0.3,7.8,3.5,9s5.7,1.5,5.7,1.5s0.9-0.3,0-0.8s-0.9-0.5-0.9-0.5
		s0.9,0.4,1.5,0.2s-0.8-0.7-1.1-0.8c0,0,1.2,0.4,1.5,0.1s-1-0.8-1-0.8s0.8,0.3,1.3,0.2s-0.3-0.6-0.9-0.9s-3.1-0.7-4-3.2
		s-0.5-6.8,1.7-9.5S51.4,21.2,51.4,21.2z"/>
	<path class="st3" d="M71.7,19.7c0,0,2.8,3.5,3.4,7.1s0,6.7-1.8,9c-1.8,2.4-5.8,2.7-5.8,2.7s-1,0,0.7-1c0,0-1.1,0.7-1.5,0.5
		s1-1.1,1-1.1s-1.2,0.8-1.4,0.5s0.7-1.2,0.7-1.2s-1,0.5-1.3,0.4c-0.3-0.1,0.8-1.2,0.8-1.2s2.9-2.9,3-6.3c0-3.4-3.5-7.9-3.5-7.9
		L71.7,19.7z"/>
	<path class="st1" d="M51.4,21.2c0,0-1.8,2.8-2.6,7.3c-0.8,4.5,0.3,7.8,3.5,9s5.7,1.5,5.7,1.5s0.9-0.3,0-0.8s-0.9-0.5-0.9-0.5
		s0.9,0.4,1.5,0.2s-0.8-0.7-1.1-0.8c0,0,1.2,0.4,1.5,0.1s-1-0.8-1-0.8s0.8,0.3,1.3,0.2s-0.3-0.6-0.9-0.9s-3.1-0.7-4-3.2
		s0.4-6.9,2.6-9.6C59.2,20.4,51.4,21.2,51.4,21.2z"/>
	<path class="st1" d="M71.7,19.7c0,0,2.8,3.5,3.4,7.1s0,6.7-1.8,9c-1.8,2.4-5.8,2.7-5.8,2.7s-1,0,0.7-1c0,0-1.1,0.7-1.5,0.5
		s1-1.1,1-1.1s-1.2,0.8-1.4,0.5s0.7-1.2,0.7-1.2s-1,0.5-1.3,0.4c-0.3-0.1,0.8-1.2,0.8-1.2s2.9-2.9,3-6.3c0-3.4-4.2-7.9-4.2-7.9
		L71.7,19.7z"/>
	<g>
		<path class="st5" d="M52.4,8.7c0,0-1.8-1.2-2.5,0s0.8,2,1.7,2c0,0-0.6,2.4-1.1,3.3s-3.3,4.8,0.1,7.6s9.9,2.8,14.8,1.5
			c4.9-1.3,5.6-2,6.6-2.9s1.7-5.1-0.4-7.3c-1.1-1.1-0.5-2.6-0.5-2.6s2.3-3.1,0-3.2c-1.1-0.1-1.9,1.2-1.9,1.2S65.9,5,60.3,5.5
			C54.6,6,52.4,8.7,52.4,8.7z"/>
		<path class="st4" d="M52.4,8.7c0,0-1.8-1.2-2.5,0s0.8,2,1.7,2c0,0-0.6,2.4-1.1,3.3s-3.3,4.8,0.1,7.6s9.9,3.4,14.8,2.1
			c4.9-1.3,5.6-2.6,6.6-3.5s1.7-5.1-0.4-7.3c-1.1-1.1-0.5-2.6-0.5-2.6s2.3-3.1,0-3.2c-1.1-0.1-1.9,1.2-1.9,1.2S65.9,5,60.3,5.5
			C54.6,6,52.4,8.7,52.4,8.7z"/>
		<path class="st6" d="M49.4,16c0,0,2.2-2.5,4.6-2c2.4,0.4,3.4,1.5,5.8,2c2.3,0.5,3.1-0.1,4.6-1s4.1-2.3,6.6-1.7
			c2.5,0.6,2,3.2,1.9,4.8c-0.1,1.2-1.2,4-5.3,5.3s-12.3,1.2-15.4-0.6C49.3,21.1,47.8,19.2,49.4,16z"/>
		<path d="M60.1,17.7c-0.8,0-1.7,0.2-1.7-0.6c0-0.5,0.8-1.1,1.4-1.3c1.4-0.4,2.3,0.2,2.6,0.7s0.8,1.2-0.8,1.1
			C60.7,17.7,60.1,17.7,60.1,17.7z"/>
		<path class="st7" d="M58.6,15.5c0,0,1.9-0.9,3.2-0.3"/>
		<path class="st7" d="M59.2,14.9c0,0,1.1-0.7,2.2-0.2"/>
		<path class="st2" d="M59.8,20.7c0,0,0.7,0.4,2,0"/>
		<line class="st8" x1="57.4" y1="14.4" x2="55.7" y2="14.7"/>
		<line class="st8" x1="63.8" y1="14.4" x2="65.4" y2="14.7"/>
		<path class="st9" d="M58.9,19.5c0,0,0.6,0.6,2.5,0.4c1.9-0.2,1.7-0.5,1.7-0.5s-1.2-0.3-2.1-0.4C60.2,18.9,58.9,19.5,58.9,19.5z"/>
		<g>
			<path class="st2" d="M55.9,17.3c0,0-0.8,0.5-0.4,1.6c0.3,0.8,1.7,1.5,3.2,0.8s2.8-0.7,3.8-0.4c1,0.4,2.3,0.4,3.3-0.1
				s1.1-2.1,0.4-2.4"/>
			<path class="st2" d="M55.9,16.7c0,0-1.1-0.5-1.8-0.5"/>
			<path class="st2" d="M53.4,17.5c0,0,0.7-0.3,1.7-0.2"/>
			<path class="st2" d="M67,16.3c0,0,0.3-0.3,1.8-0.6"/>
			<path class="st2" d="M67.3,17.1c0,0,0.9-0.3,2,0"/>
		</g>
		<path class="st2" d="M59,19.5c0,0,0.9,1,4.2,0"/>
	</g>
	<path class="st1" d="M102,42.1c0,0,1.2,9.5,3.2,13.5c2,4,4.6,9,4,13.4s3.6,4.9,4.8-4.3s1.2-18.8-2.2-24L102,42.1z"/>
	<path class="st2" d="M102,42.1c0,0,1.2,9.5,3.2,13.5c2,4,4.6,9,4,13.4s3.6,4.9,4.8-4.3s1.2-18.8-2.2-24L102,42.1z"/>
	<path class="st3" d="M97.2,30.1c0,0-0.3,9.7,1.2,18.7c1.2,7.1,2.4,9.9,2.4,9.9s0.5,0.7,0.7-0.5c0.2-1.1,0.5,0.3,0.9,0.7
		c0.3,0.3,0.5-0.2,0.5-1s0.4-0.3,0.6,0.2s0.7,0.6,0.6-0.9c0-1.5-0.9-4.2,1.1-6.8s7.8-1.4,8.7-0.2c1,1.2,1.8,4.7,1.8,6.5
		c0,0-0.1,0.3,0.2,0.3c0.5-0.1,0.5-1.1,0.8-1.3c0.3-0.2-0.1,1.4,0,1.4c0.5,0.2,0.5-0.3,0.8-1s0.4,0.2,0.3,0.8
		c-0.1,0.5,0.1,1,0.7,0.1s1.1-10.6,0.9-17.5s-1.2-13.9-3.2-18.6s-13.9-2.8-16.2,0.3C97.8,24.3,97.8,25.2,97.2,30.1z"/>
	<path class="st1" d="M97.2,30.1c0,0-0.3,9.7,1.2,18.7c1.2,7.1,2.4,9.9,2.4,9.9s0.5,0.7,0.7-0.5c0.2-1.1,0.5,0.3,0.9,0.7
		c0.3,0.3,0.5-0.2,0.5-1s0.4-0.3,0.6,0.2s0.7,0.6,0.6-0.9c0-1.5-0.9-4.2,1.1-6.8s7.8-1.4,8.7-0.2c1,1.2,1.8,4.7,1.8,6.5
		c0,0-0.1,0.3,0.2,0.3c0.5-0.1,0.5-1.1,0.8-1.3c0.3-0.2-0.1,1.4,0,1.4c0.5,0.2,0.5-0.3,0.8-1s0.4,0.2,0.3,0.8
		c-0.1,0.5,0.1,1,0.7,0.1s1.1-10.6,0.9-17.5s-1.2-13.9-3.2-18.6s-13.9-2.8-16.2,0.3C97.8,24.3,97.8,25.2,97.2,30.1z"/>
	<path class="st4" d="M106.6,44.6c10.5,1.7,12-11.3,10.7-21c-0.3-0.9-0.6-1.8-0.9-2.7c-2-4.8-13.9-2.8-16.2,0.3s-2.3,4-2.9,8.9
		c0,0-0.1,1.7,0,4.4C98.5,39,101,43.8,106.6,44.6z"/>
	<path class="st3" d="M97,21.2c0,0-1.8,2.8-2.6,7.3s0.3,7.8,3.5,9s5.7,1.5,5.7,1.5s0.9-0.3,0-0.8s-0.9-0.5-0.9-0.5s0.9,0.4,1.5,0.2
		s-0.8-0.7-1.1-0.8c0,0,1.2,0.4,1.5,0.1s-1-0.8-1-0.8s0.8,0.3,1.3,0.2s-0.3-0.6-0.9-0.9s-3.1-0.7-4-3.2s-0.5-6.8,1.7-9.5
		C103.9,20.4,97,21.2,97,21.2z"/>
	<path class="st3" d="M117.3,19.7c0,0,2.8,3.5,3.4,7.1s0,6.7-1.8,9c-1.8,2.4-5.8,2.7-5.8,2.7s-1,0,0.7-1c0,0-1.1,0.7-1.5,0.5
		c-0.4-0.2,1-1.1,1-1.1s-1.2,0.8-1.4,0.5s0.7-1.2,0.7-1.2s-1,0.5-1.3,0.4s0.8-1.2,0.8-1.2s2.9-2.9,3-6.3s-3.5-7.9-3.5-7.9
		L117.3,19.7z"/>
	<path class="st1" d="M97,21.2c0,0-1.8,2.8-2.6,7.3s0.3,7.8,3.5,9s5.7,1.5,5.7,1.5s0.9-0.3,0-0.8s-0.9-0.5-0.9-0.5s0.9,0.4,1.5,0.2
		s-0.8-0.7-1.1-0.8c0,0,1.2,0.4,1.5,0.1s-1-0.8-1-0.8s0.8,0.3,1.3,0.2s-0.3-0.6-0.9-0.9s-3.1-0.7-4-3.2s0.4-6.9,2.6-9.6
		C104.8,20.4,97,21.2,97,21.2z"/>
	<path class="st1" d="M117.3,19.7c0,0,2.8,3.5,3.4,7.1s0,6.7-1.8,9c-1.8,2.4-5.8,2.7-5.8,2.7s-1,0,0.7-1c0,0-1.1,0.7-1.5,0.5
		c-0.4-0.2,1-1.1,1-1.1s-1.2,0.8-1.4,0.5s0.7-1.2,0.7-1.2s-1,0.5-1.3,0.4s0.8-1.2,0.8-1.2s2.9-2.9,3-6.3s-4.2-7.9-4.2-7.9
		L117.3,19.7z"/>
	<g>
		<path class="st5" d="M98,8.7c0,0-1.8-1.2-2.5,0s0.8,2,1.7,2c0,0-0.6,2.4-1.1,3.3s-3.3,4.8,0.1,7.6c3.4,2.8,9.9,2.8,14.8,1.5
			c4.9-1.3,5.6-2,6.6-2.9s1.7-5.1-0.4-7.3c-1.1-1.1-0.5-2.6-0.5-2.6s2.3-3.1,0-3.2c-1.1-0.1-1.9,1.2-1.9,1.2s-3.3-3.1-8.9-2.6
			C100.2,6,98,8.7,98,8.7z"/>
		<path class="st4" d="M98,8.7c0,0-1.8-1.2-2.5,0s0.8,2,1.7,2c0,0-0.6,2.4-1.1,3.3s-3.3,4.8,0.1,7.6c3.4,2.8,9.9,3.4,14.8,2.1
			c4.9-1.3,5.6-2.6,6.6-3.5s1.7-5.1-0.4-7.3c-1.1-1.1-0.5-2.6-0.5-2.6s2.3-3.1,0-3.2c-1.1-0.1-1.9,1.2-1.9,1.2s-3.3-3.1-8.9-2.6
			C100.2,6,98,8.7,98,8.7z"/>
		<path class="st6" d="M95,16c0,0,2.2-2.5,4.6-2c2.4,0.4,3.4,1.5,5.7,2s3.1-0.1,4.6-1s4.1-2.3,6.6-1.7s2,3.2,1.9,4.8
			c-0.1,1.2-1.2,4-5.3,5.3c-4.1,1.3-12.3,1.2-15.4-0.6C94.9,21.1,93.4,19.2,95,16z"/>
		<path d="M105.7,17.7c-0.8,0-1.7,0.2-1.7-0.6c0-0.5,0.8-1.1,1.4-1.3c1.4-0.4,2.3,0.2,2.6,0.7s0.8,1.2-0.8,1.1
			C106.3,17.7,105.7,17.7,105.7,17.7z"/>
		<path class="st7" d="M104.3,15.5c0,0,1.9-0.9,3.2-0.3"/>
		<path class="st7" d="M104.8,14.9c0,0,1.1-0.7,2.2-0.2"/>
		<g>
			<path class="st2" d="M101.6,17.3c0,0-0.8,0.4-0.4,1.5c0.3,0.8,1.6,1.4,3,0.8c1.4-0.7,2.7-0.7,3.6-0.3s2.5,0.5,3.4,0
				c0.9-0.5,1-2,0.3-2.3"/>
			<path class="st2" d="M101.5,16.8c0,0-1.1-0.5-1.8-0.5"/>
			<path class="st2" d="M99.2,17.5c0,0,0.7-0.3,1.6-0.1"/>
			<path class="st2" d="M112.1,16.4c0,0,0.3-0.3,1.7-0.6"/>
			<path class="st2" d="M112.4,17.1c0,0,0.9-0.2,1.9,0"/>
		</g>
		<path class="st2" d="M105.5,20.1c0,0,0.7,0.4,2,0"/>
		<path class="st8" d="M101.1,13.3c0,0,1.4,0.2,2.1,0.7"/>
		<path class="st8" d="M111.6,13.3c0,0-1.4,0.2-2.1,0.7"/>
	</g>
</g>
<g id="圖層_5" class="st0">
	<path class="st10" d="M17.4,70.4c0,0,6.3-7.1,12.5-2.3s1,7.5,8,6.2s13.7-7.4,20.5-6.5c6.9,0.9,10.4,8.4,10.4,8.4S75.6,85.4,82,77
		c6.4-8.4,11.1-10.9,20-11.9s20.1,2.3,24.6,11s9.3,14.6,13.8,9.9c0,0-1.5,4.8-5.3,4.3s-9.8-5.1-13.9-11.4S112,69,106.5,68.4
		s-11.4,1.2-16.1,5.9s-4.3,10-11.5,11s-13.1-4-15.9-9.8s-8.4-3.5-14.3-0.1s-17,6.7-20.3-0.1C25.1,68.4,25.2,68.7,17.4,70.4z"/>
	<path class="st11" d="M4.5,25.7c0,0,6-1.9,7.9,1.6"/>
	<path class="st11" d="M8.2,36.4c0,0-1.6,7.3,7.6,4.3c5.2-1.7,4.5-3.5,10.2-10.7c5.8-7.3,7.6-4.9,7.6-4.9"/>
	<path class="st11" d="M29.1,38.4c0,0,2.9,8.1,9,2.4c6.1-5.7,13.5-14,15.9-10.7"/>
	<path class="st11" d="M53.4,38.4c0,0,1.6,3.9,6.8,4c5.3,0.1,8.8-1.5,10.6-4.5"/>
	<path class="st11" d="M67.3,34c0,0,1-4.6,5.7-3.9c7.1,1.1,1.2,8.7,10.3,12.8c9.1,4.1,11.1-8.8,13.9-10.6c2.8-1.8,4.8,1.8,4.8,1.8"
		/>
	<path class="st11" d="M101.5,39.5c0,0,2.5,3.9,11.4-2.4s18.3-5.2,23.6-3.5"/>
	<path class="st11" d="M26.5,31.4c0,0,5.4-4.4,7.1-0.6"/>
	<path class="st11" d="M48.5,34.1c0,0,7.3-3.4,8.4,1"/>
	<path class="st11" d="M68.7,29.3c0,0-0.2-6.2,5.2-6.1"/>
	<path class="st11" d="M94.4,27.6c0,0,0-2.9,2.1-3.3s4.6,2.1,3.6,8.5"/>
	<path class="st11" d="M118.5,18.1c0,0,6.1,5.6,2.4,8.3c-3.7,2.7-8,3.8-8,7.8"/>
	<path class="st11" d="M80.8,41.5c0,0-1.4,3,0,4.2s2.9-0.1,3.8,2.5"/>
	<path class="st11" d="M120.9,33.3c0,0,3.8-0.5,5,1.8"/>
	<path class="st11" d="M6.7,24.8c0,0-0.9-1.5-2.8-1.6"/>
	<path class="st11" d="M7.8,37.9c0,0,0.4,0.7-0.4,3c-0.7,2.2,1,2.8,1,2.8"/>
	<path class="st11" d="M30.3,25.2c0,0,0.1-2.2,3.3-2"/>
	<path class="st11" d="M36.2,42.2c0,0,1.5-1.2,2,0.6c0.5,1.8,1.9-0.8,2.6,0s1.8,0.9,1.8,0.9"/>
</g>
<g id="圖層_6" class="st0">
	<path class="st10" d="M4.2,25.9c0,0,0.6-1,2.7-1.6c2.1-0.6,3.5,0.1,4.3,0.6s1.9,1.4,1.9,2c0.1,0.6,0.1,1.3-0.3,1.1s-1.8-2-2.8-2.3
		C8.9,25.3,6.8,25.1,4.2,25.9z"/>
	<path class="st10" d="M7.8,25c0,0-0.8-1.4-2.3-1.9s-2-0.3-2-0.3s3,0.7,3.1,2.1H7.8z"/>
	<path class="st10" d="M8.7,36.6c0,0-0.5,2,0.4,3.3s3.4,1.2,4.5,1c1.1-0.2,4.3-1.4,8.3-6.2c3.9-4.8,7.6-5.7,9-5.8s2.2,0.4,2.5,0.8
		c0.4,0.4,0.6,1.2,0.4,1.8c0,0-0.1,0.1-0.5-0.3c-0.4-0.4-1.9-1.5-3.3-1c-2,0.6-3.8,1.7-5,3.1c-1.3,1.4-6.1,6.6-8.3,7.6
		c-2.2,1-4.9,2-7.5,0.3s-1.4-5.3-1.4-5.3L8.7,36.6z"/>
	<path class="st10" d="M7.4,37.9c0,0,0.4,1.4-0.1,2.4c-0.5,1-1.1,2.7,1.4,3.8c0,0-1.2-1.1-0.9-2.3s0.9-1.3,0.7-2.3
		C8.2,38.4,7.6,36.9,7.4,37.9z"/>
	<path class="st10" d="M31.7,22.8c0,0-1.7,0.6-3.3,2.9c-1.6,2.2-1.3,3.4-1.1,4.4c0,0,2.9-5.8,5.5-6.3C32.8,23.8,32.8,22.3,31.7,22.8
		z"/>
</g>
<g>
	<path class="st12" d="M5.6,32.3c-0.2,0-0.3,0-0.6-1.2c-0.1-0.3-0.2-0.7-0.2-0.8C4.7,29.1,4.6,27.5,6,27c0.3-0.1,0.7-0.1,1-0.2
		c0.4,0,0.8-0.1,1.1-0.2c0.2-0.1,0.3-0.3,0.4-0.5c0.1-0.1,0.1-0.2,0.2-0.3C9,25.4,9.3,25.2,9.6,25c0.3-0.2,0.7-0.3,1.1-0.3
		c0.6,0,1.3,0.2,1.9,0.7c0.2,0.2,1,0.8,1,1.4c0,0.1,0,0.3-0.1,0.4c0,0.1-0.1,0.1-0.3,0.1c-0.2,0-0.5-0.1-0.7-0.3
		c-0.1-0.1-0.1-0.1-0.2-0.1c-0.2-0.1-0.5-0.2-0.8-0.2c0,0-0.1,0-0.1,0c-0.5,0-0.8,0.3-1.2,0.6c-0.2,0.1-0.3,0.3-0.5,0.4
		c-0.5,0.3-1.1,0.4-1.6,0.4c-0.2,0-0.5,0-0.7,0.1c-0.5,0.1-0.6,0.8-0.8,1.4c0,0.1-0.1,0.3-0.1,0.4c0,0.1,0,0.2,0,0.4
		C6.2,31.6,6.1,32.3,5.6,32.3L5.6,32.3z"/>
	<path class="st13" d="M10.6,24.9c0.6,0,1.2,0.3,1.7,0.6c0.3,0.2,0.9,0.7,0.9,1.1c0,0.2-0.1,0.2-0.1,0.2c-0.2,0-0.7-0.4-0.8-0.4
		c-0.3-0.1-0.6-0.2-0.9-0.2c-0.1,0-0.1,0-0.2,0c-0.7,0.1-1.2,0.6-1.8,1c-0.7,0.4-1.5,0.3-2.2,0.4c-0.8,0.1-0.9,1.2-1.1,1.9
		C6.1,29.9,6,32,5.6,32c0,0,0,0,0,0c-0.1,0-0.2-0.5-0.4-1c-0.1-0.4-0.2-0.7-0.2-0.8c-0.1-1.1-0.2-2.6,1-3c0.7-0.2,1.6-0.1,2.2-0.4
		c0.4-0.2,0.5-0.6,0.7-0.9c0.2-0.3,0.5-0.5,0.8-0.7C10,25,10.3,24.9,10.6,24.9 M10.6,24.4L10.6,24.4c-0.4,0-0.8,0.1-1.2,0.3
		c-0.4,0.2-0.7,0.5-0.9,0.8c-0.1,0.1-0.2,0.2-0.2,0.4c-0.1,0.2-0.2,0.4-0.4,0.5c-0.2,0.1-0.6,0.2-1,0.2c-0.4,0-0.8,0.1-1.1,0.2
		c-1.5,0.5-1.4,2.3-1.3,3.5l0,0l0,0c0,0,0,0.1,0.2,0.8c0.3,1.1,0.5,1.4,0.9,1.4c0.7,0,0.8-0.9,1-2.3c0-0.2,0-0.3,0-0.4
		c0-0.1,0.1-0.2,0.1-0.4c0.1-0.5,0.3-1.1,0.6-1.2c0.2,0,0.4-0.1,0.6-0.1c0.5,0,1.2-0.1,1.7-0.4c0.2-0.1,0.4-0.2,0.5-0.4
		c0.4-0.3,0.7-0.5,1.1-0.6c0,0,0.1,0,0.1,0c0.3,0,0.5,0.1,0.7,0.2c0,0,0.1,0,0.1,0.1c0.3,0.2,0.6,0.4,0.9,0.4c0.2,0,0.3-0.1,0.5-0.2
		c0.1-0.1,0.2-0.3,0.2-0.5c0-0.7-0.8-1.3-1.1-1.5C12,24.7,11.3,24.4,10.6,24.4L10.6,24.4z"/>
</g>
<g>
	<path class="st12" d="M28.9,29.5c-0.4,0-1.2-0.1-1.5-0.5c-0.2-0.2-0.1-0.4-0.1-0.5c0.1-0.3,0.5-0.3,0.9-0.3c0.1,0,0.2,0,0.2,0
		c0.3-0.1,0.6-0.2,0.8-0.4c0.3-0.3,0.5-0.7,0.6-1.2c0.1-0.2,0.1-0.4,0.2-0.6c0.2-0.6,0.6-0.9,1-1.3c0.2-0.1,0.3-0.3,0.5-0.5
		c0.3-0.3,0-1-0.2-1.6c-0.1-0.1-0.1-0.2-0.2-0.4c0-0.1-0.1-0.2-0.2-0.4c-0.8-1.3-1.1-1.9-0.7-2.1l0.1,0l0.1,0c0.1,0,0.2,0,1,0.6
		c0.3,0.2,0.6,0.4,0.7,0.5c0.8,0.9,1.8,2.1,1.1,3.3c-0.2,0.3-0.5,0.5-0.7,0.8c-0.3,0.3-0.6,0.5-0.7,0.8c-0.1,0.2-0.1,0.4,0,0.7
		c0,0.1,0,0.3,0,0.4c0,0.4-0.1,0.8-0.2,1.1C31.2,29.1,29.9,29.5,28.9,29.5L28.9,29.5z"/>
	<path class="st13" d="M30.4,20c0.1,0,0.5,0.3,0.9,0.6c0.3,0.2,0.6,0.4,0.6,0.5c0.7,0.9,1.7,2,1,3c-0.4,0.6-1.2,1-1.5,1.6
		c-0.2,0.4,0,0.8,0,1.2c0,0.4-0.1,0.7-0.2,1c-0.3,0.9-1.4,1.3-2.3,1.3c0,0,0,0-0.1,0c-0.4,0-1.1-0.1-1.3-0.4
		c-0.4-0.4,0.7-0.4,0.9-0.4c0.3-0.1,0.7-0.2,0.9-0.5c0.5-0.5,0.6-1.3,0.8-1.9c0.3-0.7,1-1.1,1.5-1.7c0.5-0.6-0.1-1.5-0.3-2.2
		C31.4,22,30.1,20.2,30.4,20C30.4,20,30.4,20,30.4,20 M30.4,19.5h-0.2l-0.1,0.1c-0.6,0.4,0,1.4,0.7,2.4c0.1,0.2,0.2,0.3,0.2,0.3
		c0,0.1,0.1,0.2,0.1,0.3c0.2,0.4,0.5,1.1,0.3,1.3c-0.1,0.2-0.3,0.3-0.5,0.4c-0.4,0.4-0.9,0.8-1.1,1.4c-0.1,0.2-0.1,0.4-0.2,0.6
		c-0.1,0.4-0.2,0.8-0.5,1.1c-0.2,0.2-0.5,0.3-0.7,0.4c0,0-0.1,0-0.2,0c-0.4,0-0.9,0.1-1.1,0.5c-0.1,0.1-0.1,0.4,0.1,0.7
		c0.3,0.5,1.1,0.6,1.7,0.6l0.1,0c1,0,2.3-0.5,2.8-1.6c0.2-0.4,0.2-0.8,0.2-1.2c0-0.1,0-0.3,0-0.4c0-0.2-0.1-0.4,0-0.6
		c0.1-0.2,0.4-0.5,0.7-0.7c0.3-0.2,0.6-0.5,0.8-0.8c0.9-1.3-0.3-2.7-1.1-3.6l0,0l0,0c0,0-0.1-0.1-0.7-0.5
		C30.7,19.5,30.6,19.5,30.4,19.5L30.4,19.5z"/>
</g>
<g>
	<path class="st12" d="M49.7,33.2c-0.5,0-1.1-0.1-1.5-0.4c-0.3-0.1-1.1-0.6-1.2-1.2c0-0.2,0-0.3,0.1-0.4c0.1-0.1,0.2-0.1,0.3-0.1
		c0.2,0,0.5,0.1,0.7,0.2c0.1,0,0.2,0.1,0.2,0.1c0.2,0,0.4,0.1,0.5,0.1c0.1,0,0.3,0,0.4,0c0.4-0.1,0.8-0.4,1.1-0.8
		c0.1-0.2,0.3-0.3,0.5-0.5c0.4-0.4,1-0.5,1.5-0.7c0.2-0.1,0.4-0.1,0.6-0.2c0.4-0.2,0.5-0.9,0.5-1.5c0-0.1,0-0.3,0-0.4
		c0-0.1,0-0.2,0-0.4c-0.1-1.5-0.1-2.2,0.4-2.2c0,0,0,0,0,0c0.2,0,0.3,0,0.8,1.1c0.1,0.3,0.3,0.7,0.3,0.8c0.3,1.2,0.6,2.7-0.6,3.4
		c-0.3,0.2-0.7,0.3-1,0.3c-0.4,0.1-0.8,0.2-1,0.4c-0.2,0.1-0.3,0.4-0.4,0.6c0,0.1-0.1,0.2-0.2,0.4c-0.2,0.3-0.4,0.6-0.7,0.9
		C50.7,33,50.2,33.2,49.7,33.2z"/>
	<path class="st13" d="M53.8,25.1c0.1,0,0.3,0.5,0.5,0.9c0.2,0.3,0.3,0.7,0.3,0.7c0.3,1.1,0.6,2.5-0.5,3.1c-0.6,0.3-1.5,0.3-2.1,0.8
		c-0.3,0.3-0.4,0.7-0.6,1.1c-0.2,0.3-0.4,0.6-0.7,0.8c-0.3,0.3-0.8,0.4-1.2,0.4c-0.5,0-1-0.1-1.4-0.4c-0.3-0.2-1-0.6-1.1-1
		c0-0.2,0-0.2,0.2-0.2c0.2,0,0.7,0.3,0.8,0.3c0.2,0,0.4,0.1,0.6,0.1c0.2,0,0.3,0,0.5-0.1c0.7-0.2,1.1-0.8,1.6-1.3
		c0.6-0.5,1.4-0.5,2.1-0.8c0.7-0.3,0.7-1.4,0.7-2.1C53.7,27.2,53.4,25.1,53.8,25.1C53.8,25.1,53.8,25.1,53.8,25.1 M53.8,24.6
		L53.8,24.6L53.8,24.6c-0.8,0.1-0.7,1.2-0.6,2.5c0,0.2,0,0.3,0,0.4c0,0.1,0,0.2,0,0.4c0,0.5-0.1,1.2-0.4,1.3
		c-0.2,0.1-0.4,0.1-0.6,0.2c-0.5,0.1-1.1,0.3-1.6,0.7c-0.2,0.1-0.3,0.3-0.5,0.5c-0.3,0.3-0.6,0.6-1,0.7c-0.1,0-0.2,0-0.3,0
		c-0.1,0-0.3,0-0.5-0.1c0,0-0.1,0-0.1-0.1c-0.3-0.1-0.6-0.2-0.8-0.2c-0.2,0-0.4,0.1-0.5,0.2c-0.1,0.1-0.2,0.3-0.1,0.6
		c0.1,0.7,1,1.2,1.3,1.3c0.5,0.3,1.1,0.4,1.7,0.4c0.6,0,1.2-0.2,1.6-0.6c0.3-0.3,0.6-0.6,0.8-1c0.1-0.1,0.1-0.3,0.2-0.4
		c0.1-0.2,0.2-0.4,0.3-0.5c0.2-0.2,0.6-0.3,0.9-0.3c0.4-0.1,0.7-0.2,1.1-0.4c1.4-0.8,1-2.5,0.7-3.6l0,0l0,0c0,0,0-0.1-0.4-0.8
		C54.3,24.7,54.1,24.6,53.8,24.6L53.8,24.6z"/>
</g>
<g>
	<path class="st12" d="M12.1,37.9c-2.1,0-4.5-0.8-5.4-2.7c-0.6-1.3-0.3-2.8,0.1-4.2l0.6-2.7v2.3c0,1.7,0.2,3.3,1.5,4.1
		c0.7,0.4,1.5,0.7,2.4,0.7l0,0c1.5,0,3-0.6,4.1-1.5c1.1-1,1.8-2.2,2.5-3.5c0.5-1,1.1-2,1.9-2.9c1.5-1.7,3.3-2,5.2-2.4l0.7-0.1
		c0.8-0.2,1.4-0.5,2-1l0.4-0.3c0.6-0.4,1.4-0.7,2.2-0.7c0.8,0,1.5,0.3,1.9,0.7c0.4,0.5,0.6,1.1,0.6,1.8l-0.1,0.9l-0.4-0.8
		c-0.4-0.8-1-1.2-1.8-1.2c-0.1,0-0.1,0-0.2,0c-0.8,0.1-1.5,0.7-2.1,1.3c-0.4,0.4-0.8,0.8-1.2,1c-0.8,0.5-1.7,0.6-2.6,0.6
		c-0.5,0-1.1,0.1-1.6,0.2c-1.4,0.4-2.4,1.5-3.3,2.7c-0.6,0.7-1,1.6-1.5,2.5c-1,1.8-2,3.7-3.7,4.5C13.8,37.8,13,37.9,12.1,37.9z"/>
	<path class="st13" d="M30.3,23.3c1.3,0,2.4,0.7,2.3,2.3c-0.4-0.8-1.1-1.3-2-1.3c-0.1,0-0.1,0-0.2,0c-1.5,0.1-2.3,1.7-3.4,2.4
		c-1.3,0.8-2.7,0.5-4.1,0.8c-1.5,0.4-2.5,1.6-3.5,2.8c-1.6,2.1-2.7,5.7-5.1,7c-0.6,0.3-1.4,0.4-2.2,0.4c-2,0-4.3-0.8-5.1-2.6
		c-0.6-1.4-0.1-3.1,0.2-4.4c0,0,0,0,0,0c0,1.6,0.1,3.3,1.6,4.3c0.7,0.5,1.6,0.7,2.6,0.7c1.6,0,3.2-0.6,4.3-1.5
		c2-1.8,2.7-4.5,4.4-6.5c1.6-1.8,3.5-2,5.8-2.5c1-0.2,1.7-0.8,2.5-1.3C28.8,23.5,29.5,23.3,30.3,23.3 M30.3,22.8
		c-0.8,0-1.7,0.3-2.3,0.7c-0.1,0.1-0.3,0.2-0.4,0.3c-0.6,0.4-1.2,0.8-1.9,1c-0.2,0-0.5,0.1-0.7,0.1c-2,0.4-3.8,0.8-5.3,2.5
		c-0.8,0.9-1.4,2-1.9,3c-0.7,1.3-1.4,2.5-2.4,3.5c-1,0.9-2.5,1.4-3.9,1.4c-0.9,0-1.7-0.2-2.3-0.6c-1.2-0.8-1.4-2.3-1.4-3.9l-0.1-4.4
		l-0.9,4.3L6.5,31c-0.3,1.3-0.7,3,0,4.4c0.9,2,3.5,2.9,5.6,2.9c1,0,1.8-0.2,2.4-0.5c1.7-0.9,2.8-2.8,3.8-4.6c0.5-0.9,1-1.8,1.5-2.5
		c0.9-1.2,1.9-2.3,3.2-2.7c0.5-0.1,1-0.2,1.5-0.2c0.9-0.1,1.8-0.1,2.7-0.7c0.5-0.3,0.9-0.7,1.3-1.1c0.6-0.6,1.2-1.2,1.9-1.2
		c0.1,0,0.1,0,0.1,0c0.6,0,1.2,0.4,1.5,1.1l0.8,1.6l0.1-1.8c0-0.8-0.2-1.5-0.7-2C31.9,23.1,31.1,22.8,30.3,22.8L30.3,22.8z"/>
</g>
<g>
	<path class="st12" d="M33.5,37.2c-2.1,0-4.5-0.8-5.4-2.7c-0.6-1.3-0.3-2.8,0.1-4.2l0.6-2.7v2.3c0,1.7,0.2,3.3,1.5,4.1
		c0.7,0.4,1.5,0.7,2.4,0.7c1.5,0,3-0.6,4.1-1.5c1.1-1,1.8-2.2,2.5-3.5c0.5-1,1.1-2,1.9-2.9c1.5-1.7,3.3-2,5.2-2.4l0.7-0.1
		c0.8-0.2,1.4-0.5,2-1l0.4-0.3c0.6-0.4,1.4-0.7,2.2-0.7c0.8,0,1.5,0.3,1.9,0.7c0.4,0.5,0.6,1.1,0.6,1.8l-0.1,0.9L53.8,25
		c-0.4-0.8-1-1.2-1.8-1.2c-0.1,0-0.1,0-0.2,0c-0.8,0.1-1.5,0.7-2.1,1.3c-0.4,0.4-0.8,0.8-1.2,1c-0.8,0.5-1.7,0.6-2.6,0.6
		c-0.5,0-1.1,0.1-1.6,0.2c-1.4,0.4-2.4,1.5-3.3,2.7c-0.6,0.7-1,1.6-1.5,2.5c-1,1.8-2,3.7-3.7,4.5C35.3,37,34.4,37.2,33.5,37.2z"/>
	<path class="st13" d="M51.7,22.5c1.3,0,2.4,0.7,2.3,2.3c-0.4-0.8-1.1-1.3-2-1.3c-0.1,0-0.1,0-0.2,0c-1.5,0.1-2.3,1.7-3.4,2.4
		c-1.3,0.8-2.7,0.5-4.1,0.8c-1.5,0.4-2.5,1.6-3.5,2.8c-1.6,2.1-2.7,5.7-5.1,7c-0.6,0.3-1.4,0.4-2.2,0.4c-2,0-4.3-0.8-5.1-2.6
		c-0.6-1.4-0.1-3.1,0.2-4.4c0,0,0,0,0,0c0,1.6,0.1,3.3,1.6,4.3c0.7,0.5,1.6,0.7,2.6,0.7c1.6,0,3.2-0.6,4.3-1.5
		c2-1.8,2.7-4.5,4.4-6.5c1.6-1.8,3.5-2,5.8-2.5c1-0.2,1.7-0.8,2.5-1.3C50.3,22.8,51,22.5,51.7,22.5 M51.7,22c-0.8,0-1.7,0.3-2.3,0.7
		c-0.1,0.1-0.3,0.2-0.4,0.3c-0.6,0.4-1.2,0.8-1.9,1c-0.2,0-0.5,0.1-0.7,0.1c-2,0.4-3.8,0.8-5.3,2.5c-0.8,0.9-1.4,2-1.9,3
		c-0.7,1.3-1.4,2.5-2.4,3.5c-1,0.9-2.5,1.4-3.9,1.4c-0.9,0-1.7-0.2-2.3-0.6c-1.2-0.8-1.4-2.3-1.4-3.9L29,25.6l-0.9,4.3L28,30.2
		c-0.3,1.3-0.7,3,0,4.4c0.9,2,3.5,2.9,5.6,2.9c1,0,1.8-0.2,2.4-0.5c1.7-0.9,2.8-2.8,3.8-4.6c0.5-0.9,1-1.8,1.5-2.5
		c0.9-1.2,1.9-2.3,3.2-2.7c0.5-0.1,1-0.2,1.5-0.2c0.9-0.1,1.8-0.1,2.7-0.7c0.5-0.3,0.9-0.7,1.3-1.1c0.6-0.6,1.2-1.2,1.9-1.2
		c0.1,0,0.1,0,0.1,0c0.6,0,1.2,0.4,1.5,1.1l0.8,1.6l0.1-1.8c0-0.8-0.2-1.5-0.7-2C53.4,22.3,52.6,22,51.7,22L51.7,22z"/>
</g>
<g>
	<path class="st12" d="M30.9,36c0.2-0.7,0.2-1.6-0.5-2.2c-0.6-0.5-1.5-0.6-2.4-0.6c-0.5,0-1.1,0-1.6-0.1c-0.9-0.2-1.6-0.8-2.3-1.4
		c-0.4-0.3-0.8-0.7-1.2-1c-0.7-0.4-1.5-0.6-2.6-0.6c-0.6,0-1.2,0.1-1.7,0.1c-0.9,0.1-1.9,0.4-2.9,0.7c-1.4,0.4-2.8,0.8-4.1,0.8
		c-0.6,0-1.2-0.1-1.7-0.3c-1.3-0.4-2.7-1.9-3.4-3.5c-0.6-1.3-0.7-2.6-0.3-3.6c0.5-1.3,1.9-2.2,3-2.9l2.2-1.4l-1.6,1.6
		C8.7,22.8,7.7,24,8,25.6c0.5,2.2,3,3.9,5.1,4.1c0.2,0,0.4,0,0.5,0c0,0,0,0,0,0c1.3,0,2.5-0.4,3.7-0.7c1.1-0.3,2.2-0.6,3.4-0.7
		c0.1,0,0.3,0,0.4,0c2,0,3.5,1,5,2l0.6,0.4c0.7,0.4,1.3,0.6,2.1,0.7l0.5,0.1c1.3,0.3,2.5,1.3,2.8,2.4c0.2,0.8-0.1,1.7-0.8,2.3
		l-0.7,0.6L30.9,36z"/>
	<path class="st13" d="M9.7,21.4C9.7,21.4,9.7,21.5,9.7,21.4c-1.2,1.2-2.3,2.4-2,4.2c0.5,2.3,3.1,4.1,5.4,4.3c0.2,0,0.4,0,0.6,0
		c2.5,0,4.7-1.3,7.2-1.4c0.1,0,0.2,0,0.4,0c2.2,0,3.7,1.2,5.4,2.4c0.8,0.6,1.7,0.7,2.7,0.9c2,0.4,3.7,2.6,1.8,4.3
		c0.3-0.9,0.2-1.9-0.6-2.5c-1.1-1-2.8-0.4-4.1-0.8c-1.4-0.4-2.2-1.6-3.4-2.3c-0.8-0.5-1.8-0.6-2.7-0.6c-0.6,0-1.2,0.1-1.8,0.1
		c-2.1,0.2-4.7,1.4-7,1.4c-0.6,0-1.1-0.1-1.6-0.2c-2-0.7-4.6-4.2-3.6-6.8C7,23,8.5,22.2,9.7,21.4 M13.2,18.7L9.5,21l-0.3,0.2
		c-1.2,0.7-2.6,1.6-3.1,3c-0.4,1.1-0.3,2.4,0.3,3.8c0.8,1.7,2.3,3.1,3.6,3.6c0.5,0.2,1.1,0.3,1.8,0.3c1.4,0,2.8-0.4,4.2-0.8
		c1-0.3,2-0.6,2.8-0.7c0.6-0.1,1.1-0.1,1.7-0.1c1,0,1.8,0.2,2.4,0.6c0.4,0.3,0.8,0.6,1.2,0.9c0.7,0.6,1.4,1.2,2.4,1.5
		c0.5,0.1,1.1,0.1,1.6,0.2c0.9,0,1.7,0,2.2,0.5c0.5,0.4,0.7,1.2,0.4,1.9l-0.6,1.7l1.4-1.2c0.8-0.7,1.2-1.6,0.9-2.6
		c-0.3-1.2-1.6-2.3-3-2.6c-0.2,0-0.3-0.1-0.5-0.1c-0.8-0.2-1.4-0.3-2-0.7c-0.2-0.1-0.4-0.3-0.6-0.4c-1.6-1.1-3-2.1-5.1-2.1
		c-0.1,0-0.3,0-0.4,0c-1.2,0.1-2.4,0.4-3.5,0.7c-1.3,0.4-2.4,0.7-3.7,0.7c-0.2,0-0.3,0-0.5,0c-2-0.2-4.5-1.8-4.9-3.9
		c-0.3-1.4,0.7-2.6,1.8-3.7L13.2,18.7L13.2,18.7z"/>
</g>
<g>
	<path class="st12" d="M50.7,34.9c0.8-1.5,1.4-2.9,0.7-4.3c-0.9-1.7-3.2-2.5-5-2.5c-0.4,0-0.8,0-1.1,0.1c-1.4,0.3-2.6,1.1-3.9,1.9
		c-1,0.6-2,1.3-3.1,1.7c-0.7,0.3-1.4,0.4-2.1,0.4c-1.2,0-2.4-0.4-3.6-0.8l-0.7-0.2c-0.4-0.1-0.7-0.2-1.2-0.2c-0.3,0-0.7,0-1.1,0.1
		l-0.5,0c-0.1,0-0.2,0-0.3,0c-1.3,0-2.6-0.7-3.1-1.6c-0.3-0.5-0.5-1.3,0.2-2.4l0.5-0.8l0,0.9c0,0.7,0.3,1.6,1.1,2
		c0.3,0.1,0.5,0.2,0.8,0.2c0.5,0,1.1-0.2,1.6-0.3c0.5-0.1,1-0.3,1.6-0.3l0.2,0c0.9,0,1.7,0.3,2.4,0.7c0.5,0.2,1,0.4,1.5,0.6
		c0.3,0.1,0.6,0.1,0.9,0.1c1.1,0,2.3-0.4,3.3-0.9c0.8-0.4,1.7-0.9,2.6-1.5c1.7-1.1,3.4-2.2,5.2-2.2l0.1,0c1.3,0,3.1,1,4.3,2.3
		c1,1.1,1.4,2.3,1.4,3.4c-0.1,1.4-1.1,2.6-2.1,3.7L49.5,37L50.7,34.9z"/>
	<path class="st13" d="M47.6,25.8c0,0,0.1,0,0.1,0c2.2,0.1,5.6,2.7,5.4,5.4c-0.1,1.5-1.4,2.7-2.3,3.8c0,0,0,0,0,0
		c0.8-1.4,1.5-3,0.7-4.5c-0.9-1.7-3.2-2.7-5.2-2.7c-0.4,0-0.8,0-1.2,0.1c-2.6,0.6-4.5,2.7-7,3.6c-0.7,0.3-1.4,0.4-2,0.4
		c-1.4,0-2.8-0.5-4.2-1c-0.4-0.1-0.9-0.2-1.3-0.2c-0.5,0-1,0.1-1.6,0.1c-0.1,0-0.2,0-0.3,0c-1.9,0-4-1.5-2.7-3.6
		c0,0.9,0.4,1.8,1.3,2.2c0.3,0.1,0.6,0.2,0.9,0.2c1.1,0,2.1-0.6,3.2-0.6c0.1,0,0.1,0,0.2,0c1.4,0,2.5,0.9,3.8,1.2
		c0.3,0.1,0.7,0.1,1,0.1c1.2,0,2.3-0.4,3.4-0.9C42.3,28.4,44.9,25.8,47.6,25.8 M47.6,25.3c-1.9,0-3.7,1.1-5.4,2.2
		c-0.9,0.6-1.7,1.1-2.5,1.4c-1,0.4-2.1,0.9-3.2,0.9c-0.3,0-0.6,0-0.9-0.1c-0.5-0.1-0.9-0.3-1.4-0.5c-0.8-0.3-1.6-0.7-2.5-0.7
		c-0.1,0-0.1,0-0.2,0c-0.5,0-1.1,0.2-1.6,0.3c-0.5,0.2-1.1,0.3-1.6,0.3c-0.3,0-0.5,0-0.7-0.1c-0.6-0.3-1-0.9-1-1.7l0.1-1.8l-1,1.6
		c-0.6,0.9-0.6,1.8-0.2,2.6c0.6,1,1.9,1.7,3.3,1.7c0.1,0,0.2,0,0.3,0c0.2,0,0.3,0,0.5,0c0.4,0,0.7-0.1,1-0.1c0.4,0,0.8,0,1.1,0.2
		c0.2,0.1,0.4,0.1,0.7,0.2c1.3,0.4,2.4,0.8,3.7,0.8c0.7,0,1.5-0.1,2.2-0.4c1.1-0.4,2.1-1.1,3.1-1.7c1.2-0.8,2.4-1.6,3.8-1.9
		c0.3-0.1,0.7-0.1,1.1-0.1c1.7,0,3.8,0.8,4.7,2.4c0.7,1.3,0.1,2.7-0.7,4.1l-2.1,3.9l2.9-3.3l0.3-0.3c0.9-1,2-2.3,2.1-3.8
		c0.1-1.2-0.4-2.4-1.4-3.5c-1.2-1.4-3.1-2.4-4.5-2.4C47.7,25.3,47.7,25.3,47.6,25.3L47.6,25.3z"/>
</g>
<g>
	<path class="st12" d="M70.5,35.9l0.1,0.1L70.5,35.9c0.7-0.8,1.2-1.6,0.9-2.6c-0.5-1.4-2.3-2.4-3.7-2.4c0,0,0,0,0,0
		c-1,0-1.8,0.3-2.7,0.6c-0.7,0.3-1.4,0.5-2.1,0.6c-0.2,0-0.4,0-0.5,0c-1.2,0-2.1-0.5-3.1-1.1l-0.4-0.2c-0.5-0.3-0.9-0.3-1.4-0.4
		l-0.3,0c-0.9-0.1-1.8-0.8-2-1.5c-0.1-0.4-0.2-0.9,0.4-1.5l0.4-0.4l-0.1,0.5c-0.1,0.4,0,1,0.5,1.4c0.3,0.2,0.6,0.3,1.1,0.3
		c0.2,0,0.3,0,0.5,0c0.2,0,0.3,0,0.5,0c0.2,0,0.4,0,0.5,0c0.6,0.1,1.1,0.5,1.6,0.8c0.3,0.2,0.6,0.4,0.9,0.6c0.4,0.2,0.9,0.3,1.4,0.3
		c0.5,0,1-0.1,1.5-0.2c0.6-0.1,1.2-0.3,1.8-0.6c0.9-0.3,1.9-0.7,2.9-0.7c0.3,0,0.6,0,0.8,0.1c1.5,0.4,3.5,2.6,3.1,4.4
		c-0.2,0.9-1,1.5-1.7,2l-1.2,0.9L70.5,35.9z"/>
	<path class="st13" d="M55.5,27.6c-0.1,0.6,0.1,1.2,0.6,1.6c0.4,0.3,0.8,0.3,1.2,0.3c0.3,0,0.7,0,1,0c0.2,0,0.3,0,0.5,0
		c1,0.2,1.6,0.9,2.4,1.3c0.5,0.2,1,0.3,1.4,0.3c0.5,0,1-0.1,1.5-0.2c1.4-0.3,3.1-1.2,4.6-1.2c0.3,0,0.5,0,0.8,0.1
		c1.4,0.4,3.3,2.5,2.9,4.2c-0.2,0.9-1.2,1.5-1.9,2.1c0,0,0,0,0,0c0.6-0.8,1.3-1.7,0.9-2.8c-0.5-1.5-2.4-2.5-3.8-2.5c0,0,0,0,0,0
		c-1.7,0-3.1,1-4.8,1.2c-0.2,0-0.3,0-0.5,0c-1.3,0-2.3-0.7-3.5-1.3c-0.6-0.3-1.2-0.4-1.8-0.4C55.7,30.1,54.4,28.7,55.5,27.6
		 M56,26.5l-0.8,0.8c-0.5,0.5-0.6,1.1-0.4,1.6c0.3,0.8,1.2,1.4,2.2,1.6l0.3,0c0.5,0.1,0.9,0.1,1.4,0.4l0.4,0.2c1,0.6,2,1.1,3.2,1.1
		c0.2,0,0.4,0,0.5,0c0.8-0.1,1.5-0.4,2.2-0.6c0.9-0.3,1.7-0.6,2.6-0.6c1.4,0,3.1,0.9,3.6,2.3c0.3,0.9-0.2,1.6-0.8,2.4l-1.7,2.1
		l2.1-1.6l0.2-0.2c0.7-0.5,1.5-1.1,1.8-2.1c0.5-1.9-1.7-4.2-3.2-4.6c-0.3-0.1-0.6-0.1-0.9-0.1c-1,0-2,0.4-2.9,0.7
		c-0.6,0.2-1.2,0.4-1.8,0.5c-0.4,0.1-0.9,0.2-1.4,0.2c-0.5,0-0.9-0.1-1.3-0.3c-0.3-0.1-0.6-0.3-0.9-0.5c-0.5-0.3-1-0.7-1.6-0.8
		c-0.2,0-0.3,0-0.5,0c-0.2,0-0.3,0-0.5,0c-0.2,0-0.3,0-0.5,0c-0.5,0-0.8-0.1-1-0.3c-0.4-0.3-0.6-0.7-0.5-1.2L56,26.5L56,26.5z"/>
</g>
<g>
	<path class="st12" d="M55.4,36.3c-0.7,0-1.4-0.3-1.7-0.7c-0.3-0.4-0.3-0.8-0.2-1.3l0.2-0.5l0.2,0.5c0.1,0.4,0.5,0.9,1.1,1
		c0.1,0,0.1,0,0.2,0c0.5,0,0.9-0.3,1.4-0.5c0.3-0.2,0.6-0.4,0.9-0.5c0.2-0.1,0.5-0.1,0.8-0.1c0.3,0,0.6,0,1,0.1
		c0.3,0,0.6,0.1,0.9,0.1l0.1,0c1,0,1.8-0.6,2.6-1.2c0.5-0.4,0.9-0.8,1.3-1.3c0.9-1,1.8-2,3-2.2c0.2,0,0.4-0.1,0.6-0.1
		c1.4,0,3.7,0.9,4.1,2.5c0.2,0.9-0.2,1.8-0.6,2.6l-0.6,1.2l0.2-1.1c0.2-1,0.3-2-0.4-2.7c-0.6-0.5-1.5-0.8-2.5-0.8
		c-0.7,0-1.4,0.1-1.9,0.4c-0.9,0.4-1.5,1.1-2.1,1.8c-0.5,0.5-1,1.1-1.6,1.5c-1,0.7-2,0.8-2.9,0.8c-0.3,0-0.5,0-0.8,0
		c0,0-0.5,0-0.5,0c-0.6,0-1,0.2-1.5,0.3l-0.3,0.1C56,36.3,55.7,36.3,55.4,36.3z"/>
	<path class="st13" d="M67.7,29.7c1.5,0,3.6,0.9,3.9,2.4c0.2,0.9-0.3,1.9-0.7,2.7c0,0,0,0,0,0c0.2-1,0.4-2.1-0.5-2.9
		c-0.6-0.6-1.6-0.9-2.6-0.9c-0.7,0-1.4,0.2-2,0.4c-1.6,0.8-2.3,2.4-3.7,3.4c-0.9,0.6-1.8,0.7-2.8,0.7c-0.4,0-0.8,0-1.3,0
		c0,0,0,0,0,0c-0.7,0-1.2,0.2-1.8,0.4c-0.3,0.1-0.6,0.1-0.9,0.1c-1.1,0-2.1-0.6-1.7-1.8c0.2,0.6,0.6,1,1.2,1.1c0.1,0,0.1,0,0.2,0
		c0.9,0,1.6-0.7,2.3-1c0.3-0.1,0.5-0.1,0.8-0.1c0.6,0,1.3,0.2,1.9,0.2c0,0,0.1,0,0.1,0c1.1,0,1.9-0.6,2.6-1.2
		c1.4-1.1,2.5-3.1,4.3-3.5C67.3,29.8,67.5,29.7,67.7,29.7 M67.7,29.4c-0.2,0-0.5,0-0.7,0.1c-1.3,0.3-2.2,1.3-3.1,2.3
		c-0.4,0.5-0.9,1-1.3,1.3c-0.8,0.6-1.5,1.1-2.5,1.2l-0.1,0c-0.3,0-0.6,0-0.9-0.1c-0.3,0-0.6-0.1-1-0.1c-0.3,0-0.6,0-0.9,0.1
		c-0.3,0.1-0.7,0.3-1,0.5c-0.4,0.3-0.8,0.5-1.3,0.5c-0.1,0-0.1,0-0.2,0c-0.5-0.1-0.8-0.4-1-0.9l-0.3-1.1l-0.3,1.1
		c-0.2,0.7,0,1.2,0.2,1.4c0.4,0.5,1.1,0.8,1.8,0.8c0.3,0,0.7-0.1,1-0.2l0.3-0.1c0.5-0.2,0.9-0.3,1.4-0.3l0.5,0c0.3,0,0.5,0,0.8,0
		c1,0,2-0.1,3-0.8c0.6-0.4,1.2-1,1.6-1.6c0.6-0.7,1.2-1.3,2.1-1.8c0.5-0.3,1.2-0.4,1.8-0.4c1,0,1.8,0.3,2.4,0.8
		c0.7,0.7,0.6,1.5,0.4,2.6l-0.5,2.6l1.1-2.4l0.1-0.2c0.4-0.8,0.8-1.7,0.6-2.7C71.6,30.4,69.2,29.4,67.7,29.4L67.7,29.4z"/>
</g>
<g>
	<path class="st14" d="M34.7,69.7"/>
</g>
<g>
	<path class="st15" d="M121.5,27.7c0,0-0.3-0.2-0.7-0.5c-0.1-0.1-0.2-0.1-0.2-0.2c-0.1-0.1-0.2-0.2-0.3-0.3
		c-0.2-0.2-0.4-0.3-0.6-0.5c-0.1-0.1-0.2-0.2-0.3-0.3c-0.1-0.1-0.2-0.2-0.3-0.3c-0.1-0.1-0.2-0.2-0.3-0.4l-0.1-0.2
		c-0.3-0.4-0.5-0.6-0.5-0.6l-0.2-0.4c0,0,0.4,0,0.4,0c0.2,0,0.5,0,0.8,0.1c0.5,0.1,1.1,0.5,1.5,0.9l0.2,0.2c0.2,0.2,0.3,0.3,0.5,0.6
		c0.2,0.3,0.3,0.5,0.4,0.7c0.2,0.5,0.2,0.8,0.2,0.8l0,0.4L121.5,27.7z"/>
	<path class="st16" d="M118.3,24.4c0.1,0,0.4,0,0.7,0.1c0.4,0.1,1,0.4,1.4,0.8c0.2,0.2,0.4,0.4,0.6,0.7c0.2,0.2,0.3,0.5,0.4,0.7
		c0.2,0.4,0.2,0.8,0.2,0.8s-0.3-0.2-0.6-0.4c-0.2-0.1-0.4-0.3-0.6-0.4c-0.2-0.2-0.4-0.3-0.6-0.5c-0.2-0.2-0.4-0.4-0.6-0.6
		c-0.2-0.2-0.4-0.4-0.5-0.5C118.4,24.7,118.2,24.4,118.3,24.4C118.2,24.4,118.2,24.4,118.3,24.4 M118.3,23.9L118.3,23.9L118.3,23.9
		l-0.9,0.1l0.5,0.7c0,0,0.2,0.3,0.5,0.7l0.1,0.2c0.1,0.1,0.2,0.3,0.4,0.4c0.1,0.1,0.2,0.2,0.3,0.3c0.1,0.1,0.2,0.1,0.2,0.2l0,0l0,0
		c0.2,0.2,0.4,0.4,0.6,0.5c0.1,0.1,0.2,0.2,0.4,0.3c0.1,0.1,0.2,0.1,0.2,0.2c0.4,0.3,0.7,0.5,0.8,0.5l0.8,0.4l-0.1-0.9
		c0,0,0-0.4-0.2-0.9c-0.1-0.3-0.3-0.5-0.4-0.8c-0.2-0.3-0.3-0.4-0.5-0.6l-0.1-0.1c-0.5-0.5-1.1-0.8-1.7-1
		C118.7,23.9,118.4,23.9,118.3,23.9L118.3,23.9z"/>
</g>
<g>
	<path class="st15" d="M100.7,35c-0.8,0-1.6-0.1-2.3-0.4c-0.7-0.2-1.3-0.6-1.8-1.1c-0.4-0.4-0.7-0.9-0.9-1.3c-0.2-0.4-0.2-0.7-0.2-1
		c0-0.3,0-0.4,0-0.4l0-0.1l0.5-0.2l0.1,0.2c0,0,0.1,0.4,0.5,0.9c0.3,0.4,1,1,2.2,1.3c0.5,0.1,1,0.2,1.6,0.2c0,0,0.2,0,0.2,0
		c0.2,0,0.3,0,0.5,0c0.2,0,0.3,0,0.5,0l0.4,0c0.2,0,0.4,0,0.6,0l0.4,0c0.9,0,1.5-0.1,2.2-0.2c0.7-0.1,1.3-0.4,2-0.6l0.4-0.1
		c0.7-0.2,1.5-0.5,2.3-0.5c0.2,0,0.4,0,0.6,0c0.6,0,1.2,0.3,1.7,0.5c0.3,0.1,0.6,0.2,0.7,0.3c0.4,0.1,0.7,0.1,1.1,0.1
		c0.3,0,0.5,0,0.8-0.1c0.6-0.1,1.2-0.3,1.7-0.5c1-0.4,1.7-1,2.1-1.6c0.3-0.4,0.3-0.7,0.3-0.9l0-0.2l0.2-0.1l0.3,0l0.1,0.2
		c0,0,0,0.1,0.1,0.3c0,0.2,0.1,0.6,0,1.1c-0.2,1-1.1,2.1-2.3,2.8c-0.7,0.4-1.5,0.7-2.2,0.9c-0.4,0.1-0.8,0.1-1.2,0.1
		c-0.6,0-1.1-0.1-1.6-0.3c-0.2-0.1-0.5-0.2-0.7-0.3l-0.5-0.3c-0.3-0.2-0.6-0.3-0.9-0.4c-0.4-0.1-0.8-0.2-1.4-0.2c-0.3,0-0.6,0-0.9,0
		c-0.7,0.1-1.5,0.2-2.5,0.4c-0.5,0.1-1,0.2-1.4,0.4c-0.3,0.1-0.7,0.2-1,0.3c-0.4,0.1-0.8,0.2-1.2,0.3C101.6,35,101.2,35,100.7,35
		L100.7,35z"/>
	<path class="st16" d="M119.6,29.7c0,0,0,0.1,0.1,0.3c0,0.2,0.1,0.5,0,1c-0.2,0.8-1,1.9-2.2,2.6c-0.6,0.4-1.3,0.7-2.2,0.8
		c-0.4,0.1-0.7,0.1-1.1,0.1c-0.5,0-1-0.1-1.5-0.2c-0.2-0.1-0.5-0.2-0.7-0.3l-0.5-0.3c-0.3-0.2-0.6-0.3-1-0.4
		c-0.4-0.1-0.9-0.2-1.4-0.2c-0.3,0-0.6,0-0.9,0c-0.8,0.1-1.7,0.3-2.5,0.5c-0.8,0.2-1.6,0.5-2.5,0.7c-0.4,0.1-0.8,0.2-1.2,0.3
		c-0.4,0.1-0.8,0.1-1.2,0.1c-0.8,0-1.6-0.1-2.2-0.3s-1.3-0.6-1.7-1c-0.4-0.4-0.7-0.9-0.8-1.3c-0.2-0.4-0.2-0.7-0.2-0.9
		c0-0.2,0-0.3,0-0.3l0.1-0.1c0,0,0.2,0.4,0.6,1c0.4,0.5,1.2,1.1,2.4,1.4c0.6,0.2,1.2,0.2,1.9,0.2c0.4,0,0.7,0,1.1,0c0.3,0,0.7,0,1,0
		c0.1,0,0.1,0,0.2,0c0.1,0,0.1,0,0.2,0c0.7,0,1.5,0,2.2-0.2c0.8-0.2,1.6-0.5,2.5-0.8c0.7-0.2,1.4-0.4,2.2-0.4c0.2,0,0.4,0,0.6,0
		c1,0.1,1.9,0.7,2.4,0.8c0.4,0.1,0.7,0.1,1.1,0.1c0.3,0,0.6,0,0.8-0.1c0.6-0.1,1.3-0.3,1.8-0.5c1.1-0.4,1.9-1.1,2.2-1.6
		c0.4-0.6,0.4-1,0.4-1c0,0,0,0,0,0L119.6,29.7 M119.9,29.2l-0.4,0l-0.2,0l0,0c-0.1,0-0.4,0.1-0.4,0.5c0,0.1,0,0.4-0.3,0.8
		c-0.3,0.4-0.9,1-2,1.5c-0.5,0.2-1.1,0.4-1.7,0.5c-0.3,0-0.5,0-0.8,0c-0.4,0-0.7,0-1-0.1c-0.2,0-0.4-0.1-0.7-0.3
		c-0.5-0.2-1.1-0.5-1.8-0.6c-0.2,0-0.4,0-0.6,0c-0.8,0-1.6,0.2-2.3,0.5l-0.4,0.1c-0.7,0.2-1.4,0.5-2,0.6c-0.6,0.2-1.3,0.2-2.1,0.2
		l-0.2,0l-0.2,0c-0.2,0-0.4,0-0.6,0c-0.1,0-0.3,0-0.4,0c-0.2,0-0.4,0-0.5,0c-0.2,0-0.4,0-0.5,0l-0.2,0c-0.6,0-1.1-0.1-1.6-0.2
		c-1.2-0.3-1.8-0.9-2.1-1.2c-0.4-0.5-0.5-0.8-0.5-0.8l-0.2-0.5l-0.5,0.2l-0.1,0.1l-0.3,0.1l0,0.3c0,0,0,0.2,0,0.4
		c0,0.3,0.1,0.6,0.2,1.1c0.2,0.5,0.5,1,1,1.4c0.5,0.5,1.1,0.9,1.9,1.1c0.7,0.2,1.5,0.4,2.4,0.4l0.1,0c0.4,0,0.8,0,1.2-0.1
		c0.4-0.1,0.8-0.2,1.2-0.3c0.3-0.1,0.7-0.2,1-0.3c0.5-0.1,0.9-0.3,1.4-0.4c1-0.2,1.7-0.4,2.5-0.4c0.3,0,0.6,0,0.9,0
		c0.5,0,0.9,0.1,1.3,0.1c0.3,0.1,0.6,0.2,0.9,0.3l0.5,0.3c0.3,0.2,0.6,0.3,0.8,0.3c0.5,0.2,1.1,0.3,1.7,0.3c0.4,0,0.8,0,1.2-0.1
		c0.8-0.2,1.6-0.5,2.3-0.9c1.2-0.8,2.2-1.9,2.4-2.9c0.1-0.5,0.1-0.9,0-1.2c-0.1-0.3-0.1-0.4-0.1-0.4L119.9,29.2L119.9,29.2z"/>
</g>
<g>
	<path class="st15" d="M83.7,41.5c-0.8,0-1.6-0.2-2.3-0.5c-0.9-0.4-1.7-0.9-2.3-1.6c-0.2-0.2-0.3-0.4-0.4-0.6l-0.3-0.6
		c-0.1-0.3-0.4-0.6-0.6-0.8c-0.4-0.5-1-0.9-1.8-1.3c-0.7-0.3-1.4-0.6-2.3-1c-0.5-0.2-0.9-0.3-1.4-0.5c-0.3-0.1-0.7-0.2-1-0.3
		c-0.4-0.1-0.8-0.3-1.2-0.4c-0.3-0.1-0.7-0.3-1-0.5c-0.8-0.5-1.3-1-1.8-1.6c-0.5-0.6-0.8-1.2-0.9-1.9c-0.1-0.6-0.1-1.1,0-1.6
		c0.1-0.4,0.2-0.7,0.3-0.9c0.1-0.2,0.2-0.3,0.2-0.3l0.1-0.1l0.5,0.1l-0.1,0.3c0,0-0.1,0.4,0,1.1c0.1,0.5,0.3,1.4,1.2,2.3
		c0.3,0.4,0.8,0.7,1.3,1l0.2,0.1c0.1,0.1,0.3,0.2,0.4,0.3c0.1,0.1,0.3,0.2,0.4,0.3l0.3,0.2c0.2,0.1,0.4,0.3,0.6,0.4
		c0.8,0.5,1.5,0.9,2.1,1.1c0.7,0.2,1.3,0.4,2.1,0.6l0.4,0.1c1,0.3,1.9,0.5,2.6,1.2c0.5,0.4,0.8,0.9,1.1,1.4c0.2,0.3,0.3,0.5,0.5,0.6
		c0.4,0.4,0.9,0.8,1.6,1.1c0.6,0.3,1.2,0.4,1.7,0.5c0.4,0.1,0.8,0.1,1.1,0.1c0.6,0,1.1-0.1,1.5-0.3c0.4-0.2,0.7-0.5,0.7-0.6l0.1-0.1
		l0.2,0h0.1l0.4,0.2l0,0.2c0,0,0,0.1-0.1,0.3c-0.1,0.2-0.3,0.5-0.6,0.9c-0.7,0.7-1.9,1.1-3.3,1.1L83.7,41.5z"/>
	<path class="st16" d="M66.9,27.2l0.2,0c0,0-0.1,0.4,0,1.1c0.1,0.7,0.4,1.6,1.3,2.4c0.4,0.4,0.9,0.8,1.5,1.2
		c0.3,0.2,0.5,0.4,0.9,0.6c0.3,0.2,0.6,0.5,1,0.7c0.7,0.4,1.4,0.9,2.2,1.1c0.8,0.3,1.6,0.5,2.5,0.7c0.8,0.2,1.8,0.5,2.5,1.2
		c0.8,0.6,1.2,1.7,1.6,2c0.5,0.5,1,0.8,1.6,1.1c0.6,0.3,1.2,0.5,1.8,0.6C84.2,40,84.6,40,85,40c0.6,0,1.2-0.1,1.6-0.3
		c0.6-0.3,0.8-0.7,0.9-0.7c0,0,0,0,0,0l0.1,0.1c0,0,0,0.1-0.1,0.3c-0.1,0.2-0.3,0.5-0.6,0.8c-0.6,0.6-1.7,1-3.1,1
		c-0.1,0-0.1,0-0.2,0c-0.7,0-1.5-0.1-2.3-0.5c-0.8-0.3-1.6-0.8-2.2-1.6c-0.1-0.2-0.3-0.4-0.4-0.6l-0.3-0.5c-0.2-0.3-0.4-0.6-0.6-0.9
		c-0.5-0.5-1.2-1-1.9-1.4c-0.8-0.4-1.6-0.7-2.4-1c-0.8-0.3-1.6-0.5-2.4-0.8c-0.4-0.1-0.8-0.3-1.1-0.4c-0.4-0.1-0.7-0.4-1.1-0.5
		c-0.7-0.4-1.2-0.9-1.7-1.5c-0.4-0.6-0.8-1.2-0.9-1.8c-0.1-0.6-0.1-1.1,0-1.5c0.1-0.4,0.2-0.7,0.3-0.9
		C66.8,27.3,66.9,27.2,66.9,27.2 M66.7,26.7l-0.2,0.2c0,0-0.1,0.1-0.3,0.4c-0.1,0.3-0.3,0.6-0.4,1c-0.1,0.5-0.1,1.1,0,1.7
		c0.1,0.6,0.5,1.3,1,2c0.5,0.6,1.1,1.2,1.8,1.6l0.1,0c0.3,0.2,0.7,0.4,1.1,0.6c0.4,0.2,0.8,0.3,1.2,0.4c0.3,0.1,0.7,0.2,1,0.3
		c0.5,0.1,0.9,0.3,1.4,0.4c0.9,0.3,1.7,0.6,2.3,1c0.8,0.4,1.4,0.8,1.8,1.3c0.2,0.2,0.4,0.5,0.5,0.8l0.3,0.6c0.2,0.3,0.3,0.5,0.5,0.7
		c0.6,0.7,1.4,1.3,2.4,1.7c0.8,0.3,1.6,0.5,2.4,0.5l0.2,0c1.4,0,2.7-0.4,3.4-1.2c0.4-0.4,0.6-0.7,0.7-1c0.1-0.3,0.1-0.4,0.1-0.4
		l0.1-0.4l-0.4-0.2l-0.1-0.1l-0.3,0c-0.2,0-0.4,0.2-0.4,0.2c-0.1,0.1-0.3,0.3-0.6,0.5c-0.4,0.2-0.8,0.3-1.4,0.3
		c-0.3,0-0.7,0-1.1-0.1c-0.5-0.1-1.1-0.3-1.7-0.5c-0.6-0.3-1.1-0.6-1.5-1c-0.1-0.1-0.3-0.4-0.4-0.6c-0.3-0.5-0.7-1-1.2-1.4
		c-0.8-0.7-1.7-1-2.7-1.2L76,34.5c-0.7-0.2-1.4-0.3-2-0.6c-0.8-0.3-1.6-0.8-2.1-1.1c-0.2-0.1-0.4-0.3-0.6-0.4
		c-0.1-0.1-0.2-0.2-0.3-0.2c-0.2-0.1-0.3-0.2-0.4-0.3c-0.1-0.1-0.3-0.2-0.4-0.3l-0.2-0.1c-0.5-0.3-0.9-0.7-1.2-1
		c-0.9-0.9-1.1-1.7-1.1-2.2c-0.1-0.6,0-1,0-1l0.1-0.5l-0.5-0.1l-0.2,0L66.7,26.7L66.7,26.7z"/>
</g>
<g>
	<path class="st15" d="M87.5,38.1c-0.4,0-0.7-0.1-1-0.2c-0.3-0.1-0.5-0.3-0.6-0.5c-0.1-0.2-0.2-0.3-0.3-0.4c0-0.1-0.1-0.2-0.1-0.2
		l0-0.1l0.2-0.1l0.1,0.1c0,0,0.1,0.2,0.4,0.3c0.2,0.1,0.5,0.3,1,0.3c0.1,0,0.2,0,0.2,0c0.3,0,0.5-0.1,0.8-0.2l0.1,0
		c0.1,0,0.2,0,0.3-0.1c0.1,0,0.2,0,0.3-0.1l0.2-0.1c0.1,0,0.2-0.1,0.4-0.1c0.5-0.1,0.8-0.3,1.1-0.5c0.3-0.2,0.6-0.4,0.9-0.6l0.2-0.1
		c0.4-0.3,0.8-0.6,1.3-0.6c0.1,0,0.2,0,0.4,0c0.2,0,0.4,0,0.5,0c0.1,0,0.2,0,0.3,0c0.4,0,0.7-0.1,1-0.3c0.3-0.1,0.5-0.3,0.8-0.5
		c0.4-0.3,0.7-0.7,0.8-1.1c0.1-0.2,0-0.4,0-0.5l0-0.1l0-0.1l0,0l0.2-0.1l0.1,0.1c0,0,0,0.1,0.1,0.2c0.1,0.1,0.1,0.3,0.1,0.5
		c0,0.5-0.2,1.2-0.7,1.7c-0.3,0.3-0.6,0.6-0.9,0.8c-0.4,0.2-0.9,0.4-1.3,0.4c-0.2,0-0.3,0-0.4,0l-0.3-0.1c-0.1,0-0.3,0-0.4,0l-0.1,0
		c-0.3,0-0.7,0.1-1.1,0.3c-0.3,0.1-0.7,0.3-1.1,0.6c-0.2,0.1-0.4,0.3-0.6,0.4c-0.1,0.1-0.3,0.2-0.4,0.3c-0.2,0.1-0.4,0.2-0.5,0.3
		c-0.2,0.1-0.4,0.2-0.5,0.2C88.3,38.1,87.9,38.1,87.5,38.1L87.5,38.1z"/>
	<path class="st16" d="M97,32.5c0,0,0,0,0.1,0.1c0.1,0.1,0.1,0.3,0.1,0.5c0,0.4-0.2,1.1-0.6,1.6c-0.2,0.3-0.5,0.5-0.9,0.7
		c-0.4,0.2-0.8,0.3-1.3,0.3c0,0,0,0,0,0c-0.1,0-0.3,0-0.4,0l-0.3-0.1c-0.1,0-0.3,0-0.4,0c0,0-0.1,0-0.1,0c-0.4,0-0.8,0.1-1.2,0.3
		c-0.4,0.2-0.8,0.4-1.2,0.6c-0.4,0.2-0.7,0.5-1.1,0.7c-0.2,0.1-0.4,0.2-0.5,0.3c-0.2,0.1-0.4,0.2-0.6,0.2C88.3,38,87.9,38,87.6,38
		c0,0,0,0-0.1,0c-0.4,0-0.7-0.1-1-0.2c-0.3-0.1-0.5-0.3-0.6-0.5c-0.1-0.2-0.2-0.3-0.2-0.4c0-0.1,0-0.2,0-0.2l0.1-0.1
		c0,0,0.1,0.2,0.4,0.4c0.3,0.2,0.6,0.3,1.1,0.3c0.1,0,0.2,0,0.2,0c0.3,0,0.6-0.1,0.9-0.2c0.2-0.1,0.3-0.1,0.5-0.1
		c0.2-0.1,0.4-0.1,0.6-0.2c0.4-0.1,0.8-0.3,1.1-0.5c0.4-0.2,0.7-0.5,1.1-0.7c0.4-0.3,0.8-0.5,1.3-0.6c0.1,0,0.2,0,0.4,0
		c0.3,0,0.6,0.1,0.8,0.1c0,0,0.1,0,0.1,0c0.3,0,0.7-0.1,1-0.3c0.3-0.1,0.6-0.3,0.8-0.5c0.5-0.4,0.7-0.8,0.8-1.1
		C97,32.8,96.9,32.6,97,32.5C96.9,32.6,96.9,32.6,97,32.5L97,32.5 M97,32.2l-0.2,0.1l-0.1,0l-0.1,0l0,0l-0.1,0.1l0,0.1
		c0,0.1,0,0.2,0,0.4c-0.1,0.2-0.3,0.6-0.7,1c-0.2,0.2-0.5,0.3-0.7,0.5c-0.3,0.1-0.6,0.2-0.9,0.2c0,0-0.1,0-0.1,0c-0.1,0-0.2,0-0.3,0
		c-0.2,0-0.3,0-0.5,0c-0.2,0-0.3,0-0.4,0c-0.5,0.1-0.9,0.4-1.4,0.7l-0.2,0.1c-0.3,0.2-0.6,0.4-0.9,0.6c-0.4,0.2-0.8,0.4-1.1,0.5
		c-0.1,0-0.2,0.1-0.4,0.1l-0.2,0.1c-0.1,0-0.2,0.1-0.3,0.1c-0.1,0-0.2,0-0.3,0.1l-0.1,0c-0.3,0.1-0.5,0.1-0.8,0.1
		c-0.1,0-0.2,0-0.2,0c-0.5,0-0.8-0.2-1-0.3c-0.2-0.2-0.4-0.3-0.4-0.3l-0.2-0.2l-0.2,0.2l-0.1,0.1l-0.1,0.1l0,0.1c0,0,0,0.1,0.1,0.2
		c0.1,0.1,0.1,0.3,0.3,0.5c0.2,0.2,0.4,0.4,0.7,0.5c0.3,0.2,0.7,0.2,1.1,0.2l0.1,0c0.4,0,0.8-0.1,1.1-0.2c0.2-0.1,0.4-0.2,0.6-0.3
		c0.2-0.1,0.4-0.2,0.5-0.3c0.1-0.1,0.3-0.2,0.4-0.3c0.2-0.1,0.4-0.3,0.6-0.4c0.4-0.3,0.8-0.4,1.1-0.6c0.4-0.2,0.8-0.3,1.1-0.3l0.1,0
		c0.1,0,0.2,0,0.4,0l0.3,0.1c0.2,0,0.3,0,0.4,0c0,0,0,0,0,0c0.5,0,1-0.1,1.4-0.4c0.4-0.2,0.7-0.5,1-0.8c0.5-0.6,0.8-1.2,0.7-1.8
		c0-0.3-0.1-0.5-0.2-0.6c-0.1-0.1-0.1-0.2-0.1-0.2L97,32.2L97,32.2z"/>
</g>
<g>
	<path class="st15" d="M117.2,34.3c-0.6,0-1.2-0.1-1.8-0.2c-1.1-0.2-2.2-0.7-3-1.3c-0.2-0.2-0.5-0.4-0.7-0.6l-0.5-0.5
		c-0.3-0.3-0.6-0.5-0.9-0.7c-0.6-0.4-1.4-0.7-2.5-1.1c-0.8-0.2-1.8-0.5-2.9-0.6c-0.6-0.1-1.1-0.2-1.7-0.3c-0.4-0.1-0.8-0.1-1.2-0.2
		c-0.5-0.1-1-0.2-1.4-0.3c-0.4-0.1-0.9-0.2-1.3-0.4c-1-0.4-1.8-0.8-2.5-1.3c-0.7-0.5-1.3-1.1-1.6-1.7c-0.3-0.5-0.5-1.1-0.5-1.6
		c0-0.4,0-0.8,0.1-1c0.1-0.2,0.1-0.4,0.2-0.4l0.1-0.1l0.6,0l0,0.2c0,0,0,0.4,0.3,1c0.2,0.5,0.8,1.3,2,2.1c0.5,0.3,1.1,0.6,1.7,0.9
		l0.2,0.1c0.2,0.1,0.4,0.2,0.6,0.2s0.4,0.2,0.6,0.2l0.4,0.2c0.3,0.1,0.6,0.2,0.8,0.3c0.7,0.3,1.7,0.6,2.7,0.8
		c0.8,0.2,1.6,0.2,2.5,0.3l0.5,0c1.1,0.1,2.2,0.3,3.3,0.8c0.6,0.3,1.2,0.8,1.7,1.2c0.3,0.2,0.5,0.5,0.7,0.5c0.6,0.4,1.3,0.6,2.1,0.9
		c0.7,0.2,1.4,0.3,2.1,0.3c0.1,0,0.3,0,0.4,0c1,0,2-0.2,2.5-0.5c0.4-0.3,0.6-0.5,0.6-0.6l0.1-0.1l0.2,0l0.2,0.1l0.2,0l0,0.2
		c0,0,0,0.1,0,0.4c0,0.2-0.1,0.6-0.4,1c-0.6,0.8-1.9,1.4-3.5,1.6C117.9,34.3,117.6,34.3,117.2,34.3z"/>
	<path class="st16" d="M95.2,22.4l0.2,0c0,0,0,0.4,0.3,1.1c0.3,0.7,1,1.5,2.1,2.2c0.6,0.4,1.3,0.7,2,1c0.4,0.2,0.7,0.3,1.2,0.5
		c0.4,0.2,0.9,0.4,1.3,0.5c0.9,0.3,1.8,0.7,2.8,0.8c1,0.2,2,0.2,3,0.3c1,0.1,2.1,0.2,3.2,0.8c1,0.5,1.9,1.5,2.4,1.7
		c0.7,0.4,1.4,0.7,2.1,0.9c0.7,0.2,1.5,0.3,2.1,0.3c0.1,0,0.3,0,0.4,0c1.2,0,2.1-0.2,2.6-0.6c0.6-0.4,0.7-0.8,0.8-0.8c0,0,0,0,0,0
		l0.2,0c0,0,0,0.1,0,0.3c0,0.2-0.1,0.5-0.4,0.9c-0.5,0.7-1.7,1.3-3.3,1.5c-0.3,0-0.6,0-0.9,0c-0.6,0-1.2-0.1-1.8-0.2
		c-0.9-0.2-2-0.6-2.9-1.2c-0.2-0.2-0.5-0.4-0.7-0.6l-0.5-0.5c-0.3-0.3-0.6-0.5-1-0.8c-0.7-0.5-1.6-0.8-2.5-1.1c-1-0.3-2-0.5-2.9-0.7
		c-1-0.2-2-0.3-2.9-0.4c-0.5-0.1-1-0.1-1.4-0.3c-0.4-0.1-0.9-0.3-1.4-0.4c-0.9-0.3-1.7-0.8-2.3-1.3c-0.7-0.5-1.2-1.1-1.5-1.6
		c-0.3-0.6-0.5-1.1-0.5-1.5c0-0.4,0-0.7,0.1-0.9C95.1,22.5,95.2,22.4,95.2,22.4 M94.9,21.8l-0.2,0.3c0,0-0.1,0.2-0.2,0.4
		c-0.1,0.3-0.1,0.6-0.1,1.1c0,0.5,0.2,1.1,0.6,1.7c0.3,0.6,0.9,1.2,1.7,1.8c0.7,0.5,1.5,1,2.5,1.3l0.1,0c0.4,0.1,0.9,0.3,1.4,0.4
		c0.4,0.1,1,0.2,1.4,0.3c0.4,0.1,0.8,0.1,1.2,0.2c0.6,0.1,1.1,0.1,1.7,0.2c1.1,0.2,2.1,0.4,2.9,0.6c1,0.3,1.8,0.6,2.4,1
		c0.3,0.2,0.6,0.4,0.9,0.7l0.5,0.5c0.3,0.3,0.5,0.5,0.7,0.6c0.9,0.6,1.9,1.1,3.1,1.3c0.6,0.1,1.3,0.2,1.9,0.2c0.3,0,0.6,0,0.9,0
		c1.6-0.2,3-0.8,3.7-1.7c0.3-0.5,0.4-0.9,0.5-1.1c0-0.3,0-0.4,0-0.4l0-0.4l-0.4-0.1l0,0l-0.1-0.1l-0.2,0c-0.1,0-0.4,0.1-0.5,0.3
		c0,0.1-0.2,0.3-0.5,0.5c-0.5,0.3-1.4,0.5-2.4,0.5c-0.1,0-0.2,0-0.4,0c-0.6,0-1.3-0.1-2-0.3c-0.8-0.2-1.4-0.5-2-0.8
		c-0.2-0.1-0.4-0.3-0.7-0.5c-0.5-0.4-1.1-0.9-1.7-1.2c-1.1-0.6-2.2-0.7-3.3-0.8l-0.5,0c-0.9-0.1-1.7-0.1-2.5-0.3
		c-1-0.2-2-0.5-2.7-0.8c-0.3-0.1-0.6-0.2-0.8-0.3c-0.1-0.1-0.3-0.1-0.4-0.2c-0.2-0.1-0.4-0.2-0.6-0.2c-0.2-0.1-0.4-0.2-0.6-0.2
		l-0.2-0.1c-0.6-0.3-1.2-0.5-1.7-0.8c-1.2-0.7-1.8-1.6-2-2c-0.2-0.6-0.3-0.9-0.3-0.9l0-0.5l-0.5,0l-0.2,0L94.9,21.8L94.9,21.8z"/>
</g>
<g>
	<path class="st15" d="M98.8,42.5c-0.2,0-0.5,0-0.7-0.1c-0.3-0.1-0.6-0.3-0.8-0.4c-0.3-0.2-0.5-0.4-0.6-0.5
		c-0.1-0.1-0.2-0.3-0.3-0.4L96.3,41C96,40.7,96,40.5,96,40.5l0-0.2l0.2-0.2l0.2,0c0,0,0.2,0.1,0.4,0.2c0.1,0,0.2,0.1,0.3,0.2
		l0.1,0.1c0.1,0,0.2,0.1,0.3,0.1c0.1,0.1,0.2,0.1,0.3,0.1c0.2,0.1,0.4,0.2,0.6,0.3l0.1,0c0.2,0.1,0.4,0.2,0.6,0.3l0.1,0.1
		c0.1,0.1,0.3,0.1,0.5,0.1c0.1,0,0.2,0,0.2,0c0.2-0.1,0.6-0.2,0.7-0.4c0.2-0.1,0.3-0.2,0.4-0.4c0.1-0.1,0.2-0.2,0.3-0.3
		c0.1-0.1,0.2-0.2,0.3-0.2c0.2-0.1,0.3-0.3,0.5-0.4l0.1-0.1c0.2-0.2,0.5-0.4,0.8-0.5c0.3-0.1,0.6-0.3,0.9-0.3l0.1,0
		c0.2,0,0.4-0.1,0.6-0.1c0.3,0,0.5,0,0.6,0.1c0.3,0,0.5,0.1,0.5,0.1l0.2,0.1l0,0.3l-0.1,0.2c0,0-0.2,0.1-0.5,0.2
		c-0.2,0.1-0.3,0.1-0.5,0.2l-0.5,0.3c-0.1,0.1-0.3,0.1-0.4,0.2c-0.1,0.1-0.2,0.1-0.2,0.2c-0.1,0.1-0.2,0.1-0.3,0.2
		c-0.1,0.1-0.3,0.2-0.4,0.3l-0.3,0.2c-0.2,0.1-0.4,0.2-0.6,0.4c-0.3,0.2-0.7,0.3-1.1,0.4c-0.2,0.1-0.4,0.1-0.6,0.1
		c-0.1,0-0.3,0-0.4,0.1c-0.3,0-0.5,0.1-0.6,0.1c-0.1,0-0.3,0-0.4,0.1L98.8,42.5z"/>
	<path class="st16" d="M104.9,39.2c0.2,0,0.4,0,0.6,0c0.3,0,0.5,0.1,0.5,0.1v0.1c0,0-0.2,0.1-0.4,0.2c-0.1,0.1-0.3,0.1-0.5,0.2
		c-0.2,0.1-0.4,0.2-0.6,0.3c-0.2,0.1-0.4,0.3-0.6,0.4c-0.2,0.1-0.5,0.3-0.7,0.4c-0.3,0.2-0.5,0.3-0.8,0.5c-0.3,0.2-0.6,0.3-1,0.4
		c-0.4,0.1-0.7,0.1-1,0.2c-0.4,0-0.7,0.1-1,0.1c-0.1,0-0.3,0-0.4,0c-0.2,0-0.4,0-0.6-0.1c-0.3-0.1-0.6-0.2-0.8-0.4
		c-0.2-0.2-0.4-0.3-0.6-0.5c-0.2-0.2-0.3-0.3-0.3-0.4c-0.2-0.3-0.2-0.5-0.2-0.5l0.1-0.1c0,0,0.2,0.1,0.4,0.2
		c0.1,0.1,0.3,0.1,0.5,0.2c0.2,0.1,0.4,0.2,0.6,0.3c0.2,0.1,0.4,0.2,0.7,0.3c0.2,0.1,0.5,0.2,0.8,0.4c0.2,0.1,0.4,0.1,0.6,0.1
		c0.1,0,0.2,0,0.3,0c0.3-0.1,0.7-0.2,0.9-0.4c0.2-0.2,0.5-0.4,0.7-0.6c0.3-0.2,0.5-0.4,0.7-0.6c0.3-0.2,0.5-0.4,0.8-0.5
		c0.3-0.1,0.6-0.3,0.8-0.3C104.4,39.3,104.6,39.2,104.9,39.2 M104.9,38.7L104.9,38.7c-0.2,0-0.5,0.1-0.7,0.1l-0.1,0
		c-0.3,0-0.7,0.2-1,0.3c-0.3,0.1-0.5,0.3-0.8,0.5l-0.1,0.1c-0.2,0.1-0.3,0.3-0.5,0.4c-0.1,0.1-0.2,0.2-0.3,0.2
		c-0.1,0.1-0.2,0.2-0.3,0.3c-0.1,0.1-0.2,0.2-0.3,0.3l0,0l0,0c-0.1,0.1-0.5,0.2-0.6,0.3c-0.1,0-0.1,0-0.2,0c-0.2,0-0.3,0-0.4-0.1
		l-0.1-0.1c-0.2-0.1-0.4-0.2-0.6-0.3l0,0l0,0l-0.1-0.1c-0.2-0.1-0.4-0.1-0.5-0.2l0,0l0,0c-0.1,0-0.2-0.1-0.3-0.1
		c-0.1-0.1-0.2-0.1-0.3-0.1l-0.1,0c-0.1-0.1-0.3-0.1-0.4-0.2c-0.3-0.1-0.4-0.2-0.4-0.2l-0.3-0.1L96,40l-0.1,0.1l-0.2,0.2l0.1,0.3
		c0,0,0.1,0.3,0.3,0.6l0.1,0.1c0.1,0.1,0.2,0.3,0.3,0.4c0.2,0.2,0.4,0.4,0.6,0.5c0.3,0.2,0.6,0.3,0.9,0.4c0.3,0.1,0.5,0.1,0.7,0.1
		c0.1,0,0.1,0,0.2,0l0.2,0h0l0,0c0.2,0,0.3,0,0.5-0.1c0.2,0,0.4-0.1,0.6-0.1l0.1,0l0.1,0c0.1,0,0.2,0,0.3-0.1c0.2,0,0.4-0.1,0.7-0.1
		c0.4-0.1,0.8-0.3,1.1-0.5c0.2-0.1,0.4-0.2,0.6-0.4l0.2-0.2c0.1-0.1,0.3-0.2,0.4-0.3c0.1-0.1,0.2-0.1,0.3-0.2c0.1,0,0.2-0.1,0.2-0.2
		c0.1-0.1,0.2-0.2,0.3-0.2l0,0l0,0l0.5-0.3c0.2-0.1,0.3-0.1,0.4-0.2c0.3-0.1,0.5-0.2,0.5-0.2l0.3-0.1l0-0.3v-0.1V39l-0.4-0.1
		c0,0-0.2-0.1-0.6-0.1C105.3,38.8,105.1,38.7,104.9,38.7L104.9,38.7L104.9,38.7z"/>
</g>
<g>
	<path class="st15" d="M71.3,24.5c-0.2,0-0.4,0-0.6-0.1c-0.3,0-0.6-0.1-0.8-0.2c-0.2-0.1-0.3-0.1-0.4-0.2l-0.1-0.1
		c-0.3-0.2-0.5-0.4-0.5-0.4l-0.1-0.1l0.1-0.3l0.2-0.1c0,0,0.5,0,0.5,0c0.1,0,0.2,0,0.4,0c0,0,0.6,0,0.7,0l0.1,0c0.1,0,0.2,0,0.2,0
		c0.1,0,0.3,0,0.4,0l0.1,0c0.2,0,0.5,0,0.7,0l0.2,0c0.2,0,0.5-0.1,0.7-0.2c0.2-0.2,0.4-0.4,0.5-0.6c0.1-0.2,0.2-0.3,0.2-0.5
		c0.1-0.1,0.1-0.3,0.2-0.4c0.1-0.1,0.1-0.2,0.2-0.4c0.1-0.2,0.2-0.4,0.3-0.5l0.1-0.1c0.1-0.3,0.3-0.5,0.5-0.7
		c0.2-0.2,0.4-0.5,0.7-0.7l0.1-0.1c0.2-0.1,0.4-0.3,0.5-0.3c0.2-0.1,0.4-0.2,0.6-0.2c0.3-0.1,0.5-0.1,0.5-0.1l0.2,0l0.2,0.4
		l-0.1,0.1c0,0-0.1,0.2-0.3,0.4c-0.1,0.1-0.2,0.3-0.4,0.4l-0.4,0.5c-0.1,0.1-0.2,0.2-0.3,0.4c0,0.1-0.1,0.2-0.1,0.2
		c-0.1,0.1-0.1,0.2-0.2,0.3c-0.1,0.1-0.2,0.3-0.3,0.4l-0.2,0.2c-0.1,0.2-0.2,0.4-0.4,0.6c-0.2,0.3-0.5,0.6-0.8,0.8
		c-0.2,0.2-0.3,0.3-0.5,0.4c-0.1,0.1-0.2,0.1-0.3,0.2c-0.2,0.1-0.4,0.2-0.5,0.3c-0.1,0.1-0.2,0.2-0.4,0.2l-0.2,0.1
		c-0.3,0.1-0.5,0.3-0.9,0.3C71.5,24.5,71.4,24.5,71.3,24.5z"/>
	<path class="st16" d="M77.5,18.4L77.5,18.4c0,0.1-0.1,0.2-0.3,0.5c-0.1,0.1-0.2,0.2-0.4,0.4c-0.1,0.2-0.2,0.3-0.4,0.5
		c-0.2,0.2-0.3,0.4-0.4,0.6c-0.1,0.2-0.3,0.5-0.5,0.7c-0.2,0.3-0.3,0.5-0.5,0.8c-0.2,0.3-0.4,0.6-0.7,0.8c-0.3,0.3-0.6,0.4-0.8,0.6
		c-0.3,0.2-0.6,0.4-0.9,0.6c-0.3,0.1-0.6,0.3-0.9,0.3c-0.1,0-0.2,0-0.3,0c-0.2,0-0.4,0-0.6-0.1c-0.3,0-0.5-0.1-0.7-0.2
		c-0.2-0.1-0.4-0.2-0.5-0.3c-0.3-0.2-0.4-0.3-0.4-0.3l0-0.1c0,0,0.1,0,0.3,0c0.1,0,0.1,0,0.2,0c0,0,0,0,0.1,0c0.1,0,0.3,0,0.5,0
		c0,0,0,0,0.1,0c0.1,0,0.3,0,0.4,0c0,0,0.1,0,0.1,0c0.1,0,0.1,0,0.2,0c0.2,0,0.3,0,0.5,0c0.3,0,0.5,0,0.8,0c0.3,0,0.6-0.1,0.9-0.3
		c0.2-0.2,0.5-0.5,0.6-0.8c0.1-0.3,0.2-0.6,0.4-0.9c0.1-0.3,0.3-0.6,0.4-0.9c0.2-0.3,0.3-0.6,0.5-0.8c0.2-0.2,0.4-0.5,0.6-0.6
		c0.2-0.2,0.4-0.3,0.6-0.4c0.2-0.1,0.4-0.1,0.5-0.2C77.3,18.4,77.5,18.4,77.5,18.4 M77.8,17.9l-0.4,0.1c0,0-0.2,0-0.6,0.1
		c-0.2,0-0.4,0.1-0.6,0.2c-0.2,0.1-0.4,0.2-0.6,0.4l-0.1,0.1c-0.3,0.2-0.5,0.5-0.7,0.7c-0.2,0.2-0.4,0.5-0.5,0.8l-0.1,0.1
		c-0.1,0.2-0.2,0.4-0.3,0.6c0,0.1-0.1,0.2-0.2,0.3c-0.1,0.1-0.1,0.3-0.2,0.4c-0.1,0.1-0.1,0.3-0.2,0.4l0,0l0,0
		c-0.1,0.2-0.3,0.4-0.4,0.5c-0.2,0.1-0.4,0.2-0.6,0.2l-0.2,0c-0.2,0-0.4,0-0.6,0l0,0l0,0l-0.1,0c-0.1,0-0.3,0-0.4,0
		c-0.1,0-0.1,0-0.2,0l0,0l0,0c0,0-0.1,0-0.1,0c-0.1,0-0.1,0-0.2,0c-0.1,0-0.2,0-0.2,0c0,0-0.1,0-0.1,0l-0.1,0c-0.1,0-0.2,0-0.3,0
		l-0.1,0l-0.2,0l-0.3,0l-0.3,0l-0.1,0.3l0,0.1l-0.1,0.3l0.2,0.2c0,0,0.2,0.2,0.5,0.4l0.1,0.1c0.1,0.1,0.3,0.2,0.5,0.2
		c0.3,0.1,0.5,0.2,0.8,0.2c0.2,0,0.4,0.1,0.6,0.1c0.1,0,0.3,0,0.4,0c0.3,0,0.6-0.2,0.9-0.3l0.2-0.1l0,0l0,0c0.1-0.1,0.3-0.2,0.4-0.2
		c0.2-0.1,0.3-0.2,0.5-0.3l0,0l0,0c0.1-0.1,0.2-0.1,0.3-0.2c0.2-0.1,0.4-0.2,0.5-0.4c0.3-0.3,0.6-0.6,0.8-0.9
		c0.1-0.2,0.3-0.4,0.4-0.6l0.2-0.2c0.1-0.1,0.2-0.3,0.3-0.4c0.1-0.1,0.1-0.2,0.2-0.3c0.1-0.1,0.1-0.2,0.2-0.2
		c0.1-0.1,0.1-0.2,0.2-0.3l0,0l0,0l0.4-0.5c0.1-0.1,0.2-0.2,0.3-0.3c0.2-0.3,0.4-0.4,0.4-0.4l0.2-0.2L78,18.3l0-0.1L77.8,17.9
		L77.8,17.9z"/>
</g>
<g>
	<path class="st15" d="M115.9,24.9L115.9,24.9c0-0.1,0-0.3,0-0.5c0-0.3,0.2-0.6,0.3-1c0.1-0.2,0.2-0.4,0.4-0.6
		c0.2-0.2,0.4-0.4,0.6-0.5c0.4-0.2,0.7-0.5,1-1c0.3-0.5,0.8-0.9,1.2-1.2c0.3-0.1,0.5-0.3,0.8-0.3c0.3-0.1,0.5-0.1,0.7-0.1
		c0.3,0,0.5,0,0.6,0.1c0.2,0,0.3,0.1,0.4,0.1c0.3,0.1,0.4,0.2,0.4,0.2l0.1,0.1l0,0.4l-0.1,0.1c0,0-0.1,0.1-0.4,0.1c0,0-0.1,0-0.1,0
		c-0.1,0-0.1,0-0.2,0.1c-0.1,0.1-0.3,0.1-0.5,0.2c-0.1,0-0.1,0-0.2,0.1c-0.1,0-0.2,0.1-0.3,0.1c-0.2,0.1-0.4,0.2-0.6,0.2
		c-0.2,0.1-0.4,0.2-0.6,0.3c-0.1,0.1-0.2,0.1-0.4,0.2c-0.1,0-0.2,0.1-0.3,0.1c-0.2,0.1-0.4,0.2-0.6,0.4c-0.2,0.1-0.3,0.3-0.4,0.5
		c0,0.1-0.1,0.2-0.1,0.2c-0.1,0.2-0.1,0.3-0.2,0.4c-0.1,0.2-0.2,0.3-0.4,0.5c-0.5,0.6-1,0.9-1,0.9l-0.2,0.1L115.9,24.9z"/>
	<path class="st16" d="M121,20c0.2,0,0.4,0,0.6,0c0.2,0,0.3,0.1,0.4,0.1c0.2,0.1,0.3,0.2,0.3,0.2l0,0.1c0,0-0.1,0.1-0.3,0.1
		c-0.1,0-0.2,0.1-0.4,0.1c-0.1,0.1-0.3,0.1-0.4,0.2c-0.2,0.1-0.3,0.2-0.5,0.2c-0.2,0.1-0.4,0.2-0.6,0.2c-0.2,0.1-0.4,0.2-0.6,0.3
		c-0.2,0.1-0.4,0.2-0.7,0.3c-0.2,0.1-0.5,0.2-0.6,0.4c-0.2,0.2-0.3,0.4-0.4,0.6c-0.1,0.2-0.2,0.5-0.3,0.6c-0.1,0.2-0.2,0.3-0.4,0.5
		c-0.5,0.5-1,0.8-1,0.8l0,0c0,0,0-0.1,0-0.4c0-0.2,0.1-0.6,0.3-0.9c0.1-0.2,0.2-0.3,0.4-0.5c0.2-0.2,0.4-0.3,0.6-0.4
		c0.4-0.3,0.8-0.6,1.1-1.1c0.3-0.5,0.7-0.8,1.2-1.1c0.2-0.1,0.5-0.2,0.7-0.3C120.6,20,120.8,20,121,20 M121,19.5L121,19.5
		c-0.3,0-0.5,0.1-0.8,0.1c-0.3,0.1-0.6,0.2-0.8,0.3c-0.5,0.3-1,0.7-1.4,1.3c-0.3,0.4-0.6,0.7-0.9,0.9c-0.2,0.2-0.5,0.3-0.7,0.5
		c-0.2,0.2-0.3,0.4-0.4,0.6c-0.2,0.4-0.3,0.7-0.4,1.1c0,0.3,0,0.5,0,0.5l0,0.2l0.1,0.1l0.1,0l0.3,0.3l0.3-0.2c0,0,0.6-0.3,1.1-0.9
		c0.1-0.2,0.3-0.3,0.4-0.5c0.1-0.1,0.2-0.3,0.2-0.5c0-0.1,0.1-0.1,0.1-0.2c0.1-0.2,0.2-0.3,0.3-0.5c0.1-0.1,0.3-0.2,0.5-0.3
		c0.1-0.1,0.2-0.1,0.3-0.1c0.1,0,0.3-0.1,0.4-0.2c0.2-0.1,0.4-0.2,0.6-0.2c0.2-0.1,0.4-0.2,0.6-0.2c0.1,0,0.2-0.1,0.3-0.1
		c0.1,0,0.1-0.1,0.2-0.1c0.2,0,0.3-0.1,0.5-0.2c0.1,0,0.1,0,0.2-0.1c0.1,0,0.1,0,0.2-0.1c0.2-0.1,0.4-0.1,0.4-0.1l0.3-0.1l0-0.3
		l0-0.1l0-0.3l-0.3-0.2c0,0-0.2-0.1-0.4-0.2c-0.1-0.1-0.3-0.2-0.6-0.2C121.5,19.5,121.3,19.5,121,19.5L121,19.5L121,19.5z"/>
</g>
<g>
	<path class="st15" d="M92.4,30.7l-0.1-0.1c0,0-0.1-0.2-0.1-0.5c0-0.3-0.1-0.7,0.1-1.3c0.1-0.3,0.3-0.6,0.5-0.8
		c0.2-0.2,0.5-0.5,1-0.6c0.1,0,0.3-0.1,0.5-0.1c0.2,0,0.4,0,0.7,0.1c0.4,0.1,0.8,0.4,1,0.5c0.1,0.1,0.2,0.2,0.3,0.2
		c0.1,0.1,0.2,0.2,0.4,0.3c0.2,0.1,0.4,0.2,0.7,0.3c0.1,0,0.2,0.1,0.3,0.1c0.1,0,0.3,0.1,0.4,0.1c0.2,0.1,0.4,0.2,0.6,0.3
		c0.1,0.1,0.2,0.1,0.3,0.1c0.1,0,0.2,0.1,0.2,0.1l0.3,0.1c0.1,0,0.1,0,0.2,0l0.1-0.1l0.2,0.3L100,30c0.1,0.3-0.4,0.5-0.6,0.6
		c-0.1,0-0.3,0.1-0.5,0.1l-0.1,0c-0.2,0-0.4,0-0.6-0.1L98,30.5c-0.2-0.1-0.4-0.1-0.6-0.3c-0.2-0.1-0.4-0.3-0.7-0.6
		c-0.2-0.2-0.4-0.4-0.6-0.5c-0.2-0.1-0.5-0.2-0.7-0.3c-0.2,0-0.4-0.1-0.6-0.1l-0.1,0c-0.1,0-0.3,0-0.4,0.1c-0.1,0.1-0.2,0.1-0.3,0.2
		c-0.2,0.1-0.3,0.3-0.4,0.4c-0.4,0.6-0.7,1.1-0.7,1.1l-0.1,0.2h-0.2H92.4z"/>
	<path class="st16" d="M94.3,27.5c0.2,0,0.4,0,0.6,0.1c0.3,0.1,0.6,0.3,0.9,0.5c0.3,0.2,0.4,0.4,0.7,0.6c0.2,0.2,0.5,0.3,0.8,0.3
		c0.3,0.1,0.5,0.1,0.7,0.2c0.2,0.1,0.4,0.2,0.6,0.3c0.2,0.1,0.3,0.2,0.5,0.2c0.2,0.1,0.3,0.1,0.4,0.2c0.2,0.1,0.3,0.1,0.3,0.1
		c0,0,0,0,0,0l0.1,0.1c0,0,0,0,0,0c0,0-0.1,0.2-0.4,0.3c-0.1,0-0.3,0.1-0.5,0.1c0,0,0,0-0.1,0c-0.2,0-0.4,0-0.7-0.1
		c-0.2-0.1-0.5-0.1-0.7-0.3c-0.2-0.1-0.4-0.3-0.6-0.5c-0.2-0.2-0.4-0.4-0.6-0.6c-0.2-0.1-0.5-0.3-0.8-0.3c-0.3-0.1-0.5-0.1-0.8-0.1
		c-0.2,0-0.4,0-0.6,0.1c-0.2,0.1-0.3,0.2-0.4,0.3c-0.1,0.1-0.3,0.3-0.4,0.4c-0.5,0.6-0.7,1.2-0.7,1.2h-0.1c0,0-0.1-0.2-0.1-0.4
		s0-0.7,0.1-1.2c0.1-0.2,0.2-0.5,0.4-0.7c0.2-0.2,0.5-0.5,0.9-0.5C94,27.6,94.1,27.5,94.3,27.5 M94.3,27c-0.2,0-0.4,0-0.6,0.1
		c-0.4,0.1-0.8,0.3-1.1,0.7c-0.2,0.3-0.4,0.6-0.5,0.9c-0.2,0.5-0.2,0.9-0.1,1.4c0,0.3,0.1,0.5,0.2,0.6l0.1,0.3h0.3h0.1H93l0.1-0.3
		c0,0,0.2-0.5,0.6-1.1c0.1-0.1,0.2-0.2,0.3-0.3l0.1,0c0.1-0.1,0.2-0.1,0.2-0.2l0,0l0,0c0,0,0.1,0,0.3,0l0.1,0c0.2,0,0.4,0,0.5,0.1
		c0.2,0.1,0.4,0.2,0.6,0.3c0.2,0.1,0.4,0.3,0.5,0.5c0.3,0.3,0.5,0.5,0.7,0.6c0.2,0.1,0.4,0.2,0.6,0.3c0.1,0,0.1,0,0.2,0.1
		c0.3,0.1,0.5,0.1,0.7,0.1l0.1,0l0.1,0c0.3,0,0.5-0.1,0.6-0.1c0.3-0.1,0.8-0.4,0.7-0.8l0-0.1l-0.1-0.1l-0.1-0.1l-0.3-0.5l-0.3,0.3
		c0,0,0,0,0,0l-0.1-0.1l-0.2-0.1c-0.1,0-0.1-0.1-0.2-0.1c-0.1,0-0.1-0.1-0.2-0.1c-0.2-0.1-0.4-0.2-0.7-0.3c-0.2-0.1-0.3-0.1-0.5-0.1
		c-0.1,0-0.2,0-0.3-0.1c-0.3-0.1-0.5-0.2-0.6-0.3c-0.1-0.1-0.2-0.2-0.3-0.3c-0.1-0.1-0.2-0.2-0.3-0.3c-0.2-0.2-0.6-0.4-1-0.6
		C94.8,27.1,94.5,27,94.3,27L94.3,27z"/>
</g>
<g>
	<path class="st15" d="M70.5,27l-0.1-0.1c0,0-0.1-0.2-0.1-0.5c0-0.3-0.1-0.7,0.1-1.3c0.1-0.3,0.3-0.6,0.5-0.8c0.2-0.2,0.5-0.5,1-0.6
		c0.1,0,0.3-0.1,0.5-0.1c0.2,0,0.4,0,0.7,0.1c0.4,0.1,0.8,0.4,1,0.5c0.1,0.1,0.2,0.2,0.3,0.2c0.1,0.1,0.2,0.2,0.4,0.3
		c0.2,0.1,0.4,0.2,0.7,0.3c0.1,0,0.2,0.1,0.3,0.1c0.1,0,0.3,0.1,0.4,0.1c0.2,0.1,0.4,0.2,0.6,0.3c0.1,0.1,0.2,0.1,0.3,0.1
		c0.1,0,0.2,0.1,0.2,0.1l0.3,0.1c0.1,0,0.1,0,0.2,0l0.1-0.1l0.2,0.3l0.1,0.1c0.1,0.3-0.4,0.5-0.6,0.6c-0.1,0-0.3,0.1-0.5,0.1l-0.1,0
		c-0.2,0-0.4,0-0.6-0.1l-0.2-0.1c-0.2-0.1-0.4-0.1-0.6-0.3c-0.2-0.1-0.4-0.3-0.7-0.6c-0.2-0.2-0.4-0.4-0.6-0.5
		c-0.2-0.1-0.5-0.2-0.7-0.3c-0.2,0-0.4-0.1-0.6-0.1l-0.1,0c-0.1,0-0.3,0-0.4,0.1c-0.1,0.1-0.2,0.1-0.3,0.2c-0.2,0.1-0.3,0.3-0.4,0.4
		c-0.4,0.6-0.7,1.1-0.7,1.1L70.9,27h-0.2H70.5z"/>
	<path class="st16" d="M72.4,23.8c0.2,0,0.4,0,0.6,0.1c0.3,0.1,0.6,0.3,0.9,0.5c0.3,0.2,0.4,0.4,0.7,0.6c0.2,0.2,0.5,0.3,0.8,0.3
		c0.3,0.1,0.5,0.1,0.7,0.2c0.2,0.1,0.4,0.2,0.6,0.3c0.2,0.1,0.3,0.2,0.5,0.2c0.2,0.1,0.3,0.1,0.4,0.2c0.2,0.1,0.3,0.1,0.3,0.1
		c0,0,0,0,0,0l0.1,0.1c0,0,0,0,0,0c0,0-0.1,0.2-0.4,0.3c-0.1,0-0.3,0.1-0.5,0.1c0,0,0,0-0.1,0c-0.2,0-0.4,0-0.7-0.1
		c-0.2-0.1-0.5-0.1-0.7-0.3c-0.2-0.1-0.4-0.3-0.6-0.5c-0.2-0.2-0.4-0.4-0.6-0.6c-0.2-0.1-0.5-0.3-0.8-0.3c-0.3-0.1-0.5-0.1-0.8-0.1
		c-0.2,0-0.4,0-0.6,0.1c-0.2,0.1-0.3,0.2-0.4,0.3c-0.1,0.1-0.3,0.3-0.4,0.4c-0.5,0.6-0.7,1.2-0.7,1.2h-0.1c0,0-0.1-0.2-0.1-0.4
		s0-0.7,0.1-1.2c0.1-0.2,0.2-0.5,0.4-0.7c0.2-0.2,0.5-0.5,0.9-0.5C72.1,23.8,72.3,23.8,72.4,23.8 M72.4,23.3c-0.2,0-0.4,0-0.6,0.1
		c-0.4,0.1-0.8,0.3-1.1,0.7c-0.2,0.3-0.4,0.6-0.5,0.9c-0.2,0.5-0.2,0.9-0.1,1.4c0,0.3,0.1,0.5,0.2,0.6l0.1,0.3h0.3h0.1h0.3l0.1-0.3
		c0,0,0.2-0.5,0.6-1.1c0.1-0.1,0.2-0.2,0.3-0.3l0.1,0c0.1-0.1,0.2-0.1,0.2-0.2l0,0l0,0c0,0,0.1,0,0.3,0l0.1,0c0.2,0,0.4,0,0.5,0.1
		c0.2,0.1,0.4,0.2,0.6,0.3c0.2,0.1,0.4,0.3,0.5,0.5c0.3,0.3,0.5,0.5,0.7,0.6c0.2,0.1,0.4,0.2,0.6,0.3c0.1,0,0.1,0,0.2,0.1
		c0.3,0.1,0.5,0.1,0.7,0.1l0.1,0l0.1,0c0.3,0,0.5-0.1,0.6-0.1c0.3-0.1,0.8-0.4,0.7-0.8l0-0.1L78.3,26L78.3,26L78,25.4l-0.3,0.3
		c0,0,0,0,0,0l-0.1-0.1l-0.2-0.1c-0.1,0-0.1-0.1-0.2-0.1c-0.1,0-0.1-0.1-0.2-0.1c-0.2-0.1-0.4-0.2-0.7-0.3c-0.2-0.1-0.3-0.1-0.5-0.1
		c-0.1,0-0.2,0-0.3-0.1c-0.3-0.1-0.5-0.2-0.6-0.3c-0.1-0.1-0.2-0.2-0.3-0.3c-0.1-0.1-0.2-0.2-0.3-0.3c-0.2-0.2-0.6-0.4-1-0.6
		C72.9,23.3,72.7,23.3,72.4,23.3L72.4,23.3z"/>
</g>
<g id="圖層_8" class="st0">
	<g class="st17">
		<path class="st12" d="M4,25.6c0,0,0.1-0.2,0.3-0.5c0.1-0.1,0.2-0.3,0.4-0.5s0.3-0.4,0.6-0.5c0.3-0.1,0.6-0.4,0.9-0.4
			c0.3-0.1,0.8-0.1,1.2,0c0.4,0.2,0.7,0.4,1,0.7c0.1,0.1,0.3,0.3,0.4,0.4c0.1,0.1,0.3,0.2,0.4,0.3c0.2,0.1,0.5,0,0.8-0.1
			c0.3-0.1,0.8-0.1,1.2-0.1c0.2,0,0.4,0.1,0.6,0.2c0.1,0,0.1,0,0.2,0.1l0.1,0.1l0.2,0.1c0.1,0.1,0.3,0.3,0.4,0.4
			c0.1,0.1,0.2,0.3,0.3,0.5c0.1,0.3,0.2,0.6,0.2,0.9c0,0.3-0.1,0.5-0.1,0.6c-0.1,0.3-0.2,0.5-0.2,0.5l-0.1,0c0,0,0-0.2-0.1-0.5
			c-0.1-0.3-0.2-0.7-0.4-1c-0.1-0.1-0.1-0.2-0.2-0.2c-0.1,0-0.1-0.1-0.3-0.2l-0.2-0.1l-0.1-0.1c0.1,0,0,0,0,0
			c-0.1,0-0.2-0.1-0.4-0.1c-0.3-0.1-0.5-0.1-0.9-0.1c-0.4,0-0.9,0-1.3-0.4c-0.2-0.1-0.2-0.3-0.4-0.4c-0.1-0.2-0.2-0.3-0.3-0.4
			c-0.2-0.2-0.6-0.4-0.8-0.4c-0.3,0-0.5,0.2-0.8,0.3c-0.3,0.1-0.5,0.3-0.7,0.3C5.4,25,5.2,25.1,5,25.2c-0.2,0.1-0.4,0.2-0.5,0.3
			C4.2,25.6,4,25.7,4,25.6L4,25.6z"/>
	</g>
	<g class="st17">
		<path class="st12" d="M8.4,36.4c0,0-0.1,0.6,0,1.5c0,0.5,0.1,1,0.3,1.6C8.8,39.8,9,40,9.2,40.2l0.2,0.1l0.2,0.1
			c0.2,0.1,0.4,0.2,0.5,0.3c0.6,0.3,1.4,0.5,2.3,0.5c0.9,0.1,1.8-0.1,2.7-0.4c0.4-0.2,0.9-0.4,1.4-0.7c0.5-0.3,0.8-0.7,1.2-1.1
			c0.7-0.8,1.3-1.8,1.8-2.8c0.5-1,1-2,1.8-2.9c0.4-0.5,0.8-0.9,1.3-1.2c0.3-0.2,0.5-0.3,0.9-0.5c0.3-0.1,0.5-0.2,0.7-0.3
			c1.1-0.4,2.3-0.4,3.1-0.5c0.2,0,0.4-0.1,0.5-0.1c0.2-0.1,0.3-0.2,0.4-0.2c0.1-0.1,0.3-0.2,0.4-0.4c0.2-0.1,0.3-0.3,0.5-0.5
			c0.8-0.7,1.7-0.9,2.5-0.9c0.8,0,1.5,0.4,1.8,0.9c0.3,0.5,0.4,0.9,0.4,1.2c0,0.3,0,0.4,0,0.4l-0.2,0c0,0,0-0.1-0.1-0.4
			c-0.1-0.2-0.2-0.6-0.6-0.8c-0.3-0.3-0.8-0.4-1.4-0.4c-0.5,0.1-1.2,0.4-1.6,0.9c-0.1,0.1-0.3,0.3-0.4,0.5c-0.2,0.2-0.4,0.4-0.6,0.6
			c-0.2,0.2-0.5,0.3-0.8,0.5c-0.3,0.1-0.6,0.2-0.8,0.2c-0.5,0.1-1,0.1-1.5,0.2c-0.2,0-0.5,0-0.7,0.1c-0.2,0.1-0.4,0-0.7,0.1
			c-0.3,0.1-0.5,0.2-0.8,0.2c-0.1,0.1-0.4,0.1-0.6,0.3c-0.4,0.2-0.8,0.6-1.1,0.9c-0.7,0.7-1.4,1.6-2.1,2.5c-0.7,0.9-1.4,1.8-2.1,2.6
			c-0.4,0.4-0.8,0.8-1.2,1.2c-0.4,0.4-0.9,0.7-1.3,1c-0.2,0.1-0.5,0.3-0.7,0.4c-0.3,0.1-0.5,0.3-0.8,0.3c-0.3,0.1-0.5,0.2-0.8,0.2
			c-0.3,0-0.5,0-0.8,0.1c-1.1,0-2.1-0.3-2.9-0.8c-0.2-0.1-0.4-0.2-0.5-0.4l-0.3-0.2L8.3,41c-0.3-0.4-0.5-0.8-0.6-1.2
			c-0.2-0.8-0.1-1.4,0-1.9S8,37,8.1,36.7c0.1-0.3,0.2-0.4,0.2-0.4L8.4,36.4z"/>
	</g>
	<g class="st17">
		<path class="st12" d="M27.2,30.1c0,0-0.5-0.7-0.6-1.9c0-0.3,0-0.6,0.1-1s0.3-0.7,0.6-1c0.3-0.3,0.6-0.5,1-0.7
			c0.4-0.2,0.8-0.3,1.2-0.4c0.4-0.1,0.9,0,1.3,0.1c0.4,0.1,0.8,0.3,1.1,0.5c0.3,0.2,0.6,0.5,0.6,0.5c0,0,0,0,0.2,0
			c0,0,0.1-0.1,0.2-0.1c0,0,0,0,0.1,0c0.2-0.1,0.2-0.7,0.1-1c-0.1-0.3-0.2-0.5-0.2-0.5l0.1-0.1c0,0,0.2,0.1,0.4,0.4
			c0.1,0.1,0.3,0.3,0.3,0.6c0.1,0.3,0.1,0.7-0.1,1.1c-0.1,0.1-0.2,0.2-0.2,0.3c-0.1,0.1-0.1,0.1-0.2,0.2c-0.2,0.1-0.5,0.2-0.8,0.2
			c-0.6-0.1-0.9-0.5-1.1-0.6c-0.5-0.4-1-0.6-1.8-0.8c-0.4,0-0.7-0.1-1.1,0c-0.3,0.1-0.6,0.3-0.7,0.6c-0.1,0.3-0.1,0.6-0.2,0.9
			c0,0.3-0.1,0.6-0.1,0.8c0,0.5-0.1,1-0.1,1.3C27.3,29.9,27.3,30.1,27.2,30.1L27.2,30.1z"/>
	</g>
	<g class="st17">
		<path class="st12" d="M31.8,21.4c0,0-0.1-0.2-0.1-0.6c0-0.4,0.1-0.9,0.6-1.4c0.3-0.2,0.6-0.4,1-0.4c0.4,0,0.7-0.1,1-0.2
			c0.2,0,0.3-0.1,0.6-0.1c0.2,0,0.4,0,0.6,0c0.4,0,0.7,0,1.1,0c0.3,0,0.6,0,0.8-0.1c0.2-0.1,0.2-0.1,0.4-0.5c0.2-0.5,0.2-1.1,0-1.6
			c-0.1-0.5-0.3-0.9-0.4-1.2c-0.1-0.3-0.2-0.4-0.2-0.4l0.1-0.1c0,0,0.2,0.1,0.4,0.4c0.2,0.2,0.5,0.6,0.8,1.2
			c0.3,0.5,0.4,1.2,0.3,2.1l-0.1,0.3c0,0.1,0,0,0,0.2c0,0.1,0,0.1-0.1,0.2c-0.1,0.2-0.3,0.5-0.6,0.6c-0.5,0.3-1,0.2-1.4,0.1
			c-0.4-0.1-0.8-0.2-1.1-0.3c-0.3-0.1-0.6-0.2-1-0.2c-0.3,0-0.7,0.1-0.9,0.3c-0.2,0.2-0.4,0.4-0.5,0.6c-0.3,0.3-0.6,0.6-0.8,0.9
			c-0.2,0.3-0.3,0.4-0.3,0.4L31.8,21.4z"/>
	</g>
	<g class="st17">
		<path class="st15" d="M4.7,23.2c0,0,0.1-0.2,0.3-0.5c0.2-0.3,0.5-0.7,1.1-1.1c0.3-0.2,0.7-0.3,1.1-0.3c0.5,0,0.9,0.3,1.2,0.6
			c0.2,0.3,0.5,0.6,0.7,1c0.2,0.3,0.5,0.6,0.8,0.9c0.3,0.3,0.6,0.3,0.8,0.3c0.1,0,0.3,0,0.4-0.1c0.1,0,0.1,0,0.3-0.1l0.3-0.1
			c0.3-0.1,0.6-0.1,0.9,0c0.2,0.1,0.3,0.2,0.4,0.3c0.1,0.1,0.2,0.2,0.2,0.3c0.2,0.4,0.2,0.8,0.2,1.1c0,0.6,0,1.1,0,1.5
			c0,0.4,0,0.6,0,0.6l-0.1,0c0,0-0.1-0.2-0.3-0.5c-0.2-0.3-0.3-0.8-0.5-1.4c-0.1-0.3-0.2-0.6-0.3-0.8c-0.1-0.1-0.1-0.1-0.1-0.1
			c0,0-0.1,0-0.2,0c-0.2,0.1-0.4,0.1-0.6,0.2c-0.2,0.1-0.5,0.1-0.8,0.1c-0.6-0.1-1-0.5-1.2-0.9c-0.2-0.4-0.4-0.7-0.6-1
			c-0.2-0.3-0.5-0.6-0.8-0.8c-0.3-0.2-0.5-0.2-0.8-0.1c-0.2,0-0.5,0.1-0.7,0.2C6,22.5,5.6,22.8,5.3,23C5,23.1,4.8,23.2,4.7,23.2
			L4.7,23.2z"/>
	</g>
	<g class="st17">
		<path class="st15" d="M10,24.3c0,0-0.1,0.1-0.2,0.1c-0.1,0.1-0.3,0.2-0.6,0.2c-0.1,0-0.2,0-0.4,0c-0.1,0-0.3-0.1-0.4-0.1
			c-0.1,0-0.3-0.1-0.5,0c-0.2,0-0.3,0.1-0.4,0.3c-0.1,0.1-0.2,0.3-0.3,0.3S7,25.3,6.9,25.4c-0.2,0.2-0.3,0.3-0.4,0.4
			c-0.1,0.1-0.3,0.3-0.4,0.4c-0.1,0.1-0.2,0.2-0.2,0.2l-0.1,0c0,0-0.1-0.1-0.1-0.3c-0.1-0.2-0.1-0.4,0-0.7c0-0.1,0.1-0.3,0.2-0.5
			c0.1-0.1,0.2-0.3,0.4-0.4c0.2-0.1,0.3-0.2,0.5-0.2c0.2-0.1,0.4-0.1,0.6-0.1c0.2,0,0.4,0,0.5,0c0.2,0,0.3-0.1,0.5-0.2
			c0.1-0.1,0.3-0.2,0.4-0.2c0.1,0,0.3,0,0.4,0c0.3,0,0.5,0.1,0.6,0.2S10,24.2,10,24.3L10,24.3z"/>
	</g>
	<g class="st17">
		<path class="st15" d="M7.8,35.9c0,0,0,0.1,0,0.3s0,0.5-0.1,0.7c0,0.1,0,0.3,0,0.4c0,0.1-0.1,0.3-0.1,0.5c0,0.2,0.1,0.4,0.2,0.5
			c0.2,0.1,0.4,0.2,0.6,0.3c0.4,0.1,0.8,0.3,1.2,0.5c0.4,0.2,0.7,0.5,0.9,0.8c0.1,0.1,0.2,0.3,0.3,0.4c0.1,0.1,0.1,0.3,0.1,0.4
			c0.1,0.2,0.1,0.3,0.1,0.3l-0.1,0c0,0-0.1-0.1-0.3-0.2c-0.1,0-0.2-0.1-0.3-0.2c-0.1-0.1-0.2-0.1-0.4-0.2c-0.1-0.1-0.3-0.2-0.4-0.3
			C9.3,40.3,9.1,40.2,9,40c-0.1-0.1-0.3-0.3-0.5-0.4c-0.2-0.1-0.3-0.3-0.4-0.5c-0.2-0.2-0.3-0.4-0.4-0.5c-0.2-0.2-0.4-0.3-0.5-0.5
			c-0.2-0.2-0.3-0.4-0.3-0.7c0-0.2,0-0.5,0.1-0.6c0.3-0.7,0.8-0.9,0.8-0.9L7.8,35.9z"/>
	</g>
	<g class="st17">
		<path class="st15" d="M11.6,42.6c0,0,0.2,0,0.5,0c0.3,0,0.8,0,1.3-0.1c0.3,0,0.5-0.1,0.8-0.1c0.3,0,0.6-0.1,0.9-0.2
			c0.3-0.1,0.6-0.3,0.8-0.6c0.2-0.3,0.3-0.6,0.4-1c0.2-0.7,0.6-1.4,0.9-2c0.3-0.6,0.7-1.1,1.1-1.6c0.4-0.4,0.7-0.8,1-1
			c0.3-0.2,0.4-0.3,0.4-0.3l0.1,0.1c0,0-0.1,0.2-0.2,0.5c-0.1,0.3-0.3,0.7-0.5,1.2c-0.2,0.5-0.5,1-0.9,1.6c-0.4,0.6-0.7,1.2-1.2,1.8
			l-0.4,0.5c-0.1,0.1-0.3,0.3-0.4,0.4c-0.3,0.3-0.5,0.5-0.8,0.8c-0.3,0.2-0.6,0.5-0.9,0.6c-0.3,0.1-0.7,0.2-1,0.2
			c-0.6,0-1.1-0.2-1.4-0.4S11.5,42.7,11.6,42.6L11.6,42.6z"/>
	</g>
	<g class="st17">
		<path class="st15" d="M22,34.4c0,0,0.2,0,0.4-0.1c0.3,0,0.6-0.1,1-0.1c0.2,0,0.4,0,0.7,0s0.5,0,0.8,0c0.3,0,0.5-0.1,0.8-0.3
			c0.1-0.1,0.2-0.2,0.3-0.3c0.1-0.1,0.1-0.3,0.1-0.4l0-0.4c0-0.2,0-0.3,0.1-0.5l0.1-0.4c0.1-0.1,0.1-0.3,0.2-0.5
			c0.1-0.3,0.3-0.6,0.5-0.8c0.2-0.2,0.4-0.4,0.6-0.6c0.4-0.3,0.9-0.4,1.1-0.4c0.3,0,0.5,0,0.5,0l0,0.1c0,0-0.1,0.1-0.3,0.3
			c-0.2,0.2-0.5,0.4-0.7,0.7c-0.1,0.2-0.2,0.3-0.4,0.5c-0.1,0.2-0.3,0.4-0.4,0.6l-0.2,0.3L27,32.6c0,0.1-0.1,0.3-0.2,0.4
			c-0.1,0.2-0.2,0.3-0.3,0.5c-0.2,0.3-0.5,0.5-0.7,0.7c-0.3,0.2-0.5,0.4-0.8,0.5c-0.3,0.2-0.5,0.3-0.8,0.3c-0.3,0.1-0.5,0-0.8,0
			c-1-0.1-1.5-0.5-1.5-0.5L22,34.4z"/>
	</g>
	<g class="st17">
		<path class="st12" d="M29.1,37.6c0,0,0.4,0.2,1.2,0.4c0.4,0.1,0.8,0.2,1.3,0.3c0.5,0.1,1.1,0.2,1.7,0.2c0.6,0,1.3,0,2,0
			c0.7,0,1.5-0.1,2.3-0.2c0.8-0.1,1.7-0.4,2.4-0.8c0.8-0.3,1.5-0.9,2.2-1.5l1-0.9c0.3-0.3,0.7-0.6,1-0.9c0.6-0.6,1.3-1.2,1.8-1.8
			c0.6-0.6,1.1-1.2,1.7-1.7c0.5-0.6,1.1-1.1,1.7-1.5c0.6-0.5,1.4-0.7,2.1-0.7c0.7,0,1.1,0.2,1.5,0.4c0.4,0.2,0.7,0.4,0.8,0.5
			c0.2,0.1,0.3,0.2,0.3,0.2l-0.1,0.1c0,0-0.1,0-0.3,0c-0.2,0-0.5-0.1-0.9-0.1c-0.4,0-0.8-0.1-1.3,0c-0.5,0.1-0.9,0.3-1.3,0.7
			c-0.4,0.4-0.9,1-1.4,1.6c-0.5,0.6-1.1,1.2-1.7,1.8c-0.7,0.6-1.3,1.2-2.1,1.7c-0.4,0.3-0.8,0.5-1.2,0.8l-1.2,0.6
			c-0.4,0.2-0.8,0.4-1.3,0.6c-0.4,0.2-0.8,0.4-1.2,0.6c-0.8,0.4-1.6,0.8-2.4,1.1c-0.8,0.3-1.6,0.6-2.4,0.8c-0.8,0.1-1.6,0.1-2.3,0
			c-0.7-0.1-1.4-0.3-1.9-0.5c-0.5-0.2-1-0.5-1.3-0.7c-0.7-0.5-1-0.8-1-0.8L29.1,37.6z"/>
	</g>
	<g class="st17">
		<path class="st12" d="M44.2,35.3c0,0,0.2,0.1,0.6,0.3c0.3,0.2,0.8,0.5,1.3,0.8c0.3,0.2,0.5,0.3,0.8,0.5c0.3,0.2,0.6,0.4,0.9,0.7
			c0.3,0.2,0.8,0.4,1.2,0.3c0.4,0,0.7-0.3,0.9-0.7c0.2-0.3,0.4-0.8,0.6-1.1c0.2-0.4,0.4-0.8,0.6-1.1c0.4-0.8,0.9-1.4,1.5-2
			c0.3-0.3,0.6-0.5,1-0.6c0.4-0.1,0.8,0,1,0.1c0.2,0.1,0.3,0.3,0.4,0.4c0.1,0.1,0.1,0.2,0.1,0.2L55,33.1c0,0-0.1,0-0.2,0
			c-0.1,0-0.3,0-0.4,0c-0.3,0-0.5,0.3-0.8,0.8c-0.3,0.5-0.6,1.2-1.1,1.9c-0.3,0.3-0.5,0.7-0.8,1.1c-0.3,0.4-0.7,0.7-1.1,1
			c-0.4,0.3-0.9,0.5-1.4,0.6c-0.3,0-0.5,0-0.7,0c-0.2,0-0.5,0-0.7,0c-0.5,0-0.9-0.1-1.3-0.3c-0.4-0.2-0.7-0.4-1-0.7
			c-0.5-0.5-0.9-1-1.1-1.4s-0.2-0.7-0.2-0.7L44.2,35.3z"/>
	</g>
	<g class="st17">
		<path class="st12" d="M51.2,38.4c0,0,0.1,0.1,0.2,0.3c0.1,0.2,0.3,0.4,0.4,0.6c0.1,0.1,0.1,0.3,0.2,0.5c0.1,0.1,0.1,0.2,0.2,0.2
			c0.1,0,0.2,0.1,0.3,0.1c0.4,0.1,0.9,0,1.4-0.1c0.5-0.1,0.9-0.2,1.3-0.3c0.4-0.1,0.8-0.1,1.2-0.2c0.7-0.1,1.3,0,1.3,0l0,0.1
			c0,0-0.4,0.4-1,0.8c-0.3,0.2-0.8,0.3-1.2,0.4c-0.2,0-0.5,0.1-0.7,0.1c-0.3,0-0.5,0-0.8,0c-0.3,0-0.5-0.1-0.8-0.2
			c-0.2-0.1-0.5-0.1-0.7-0.2c-0.1,0-0.2-0.1-0.3-0.1c-0.1,0-0.3-0.1-0.3-0.1c-0.3-0.1-0.5-0.2-0.6-0.4c-0.2-0.4-0.2-0.8-0.2-1
			c0.1-0.3,0.2-0.4,0.2-0.4L51.2,38.4z"/>
	</g>
	<g class="st17">
		<path class="st14" d="M37.9,13.6"/>
	</g>
	<g class="st17">
		<path class="st12" d="M59.4,37c0,0,0-0.2,0.2-0.5c0.2-0.3,0.4-0.7,0.8-1.2c0.2-0.2,0.4-0.4,0.7-0.6c0.3-0.2,0.6-0.3,0.9-0.5
			c0.7-0.3,1.3-0.7,1.7-1.4c0.4-0.7,1.1-1.1,1.6-1.6c0.6-0.4,1.2-0.7,1.8-0.9c1.2-0.3,2-0.3,2-0.3l0.1,0.1c0,0-0.1,0.2-0.4,0.4
			s-0.6,0.5-1,0.9c-0.4,0.4-0.9,0.8-1.5,1c-0.3,0.2-0.6,0.3-0.9,0.5c-0.3,0.2-0.7,0.3-1,0.4c-0.3,0.1-0.7,0.3-1,0.5
			c-0.3,0.2-0.5,0.5-0.7,0.8c-0.2,0.3-0.4,0.6-0.6,0.8c-0.2,0.2-0.5,0.4-0.7,0.6c-0.5,0.3-0.9,0.5-1.2,0.7S59.5,37.1,59.4,37
			L59.4,37z"/>
	</g>
	<g class="st17">
		<path class="st12" d="M69,27.3c0,0-0.1-0.2,0-0.4c0-0.3,0.1-0.6,0.4-0.9c0.1-0.2,0.3-0.3,0.5-0.4c0.2-0.1,0.5-0.1,0.8-0.1
			c0.3,0,0.5,0,0.7-0.1c0.2-0.1,0.5-0.2,0.7-0.4c0.2-0.1,0.5-0.3,0.8-0.3c0.3,0,0.5-0.1,0.8-0.1s0.5,0.1,0.7,0.1
			c0.2,0.1,0.4,0.2,0.6,0.3c0.3,0.2,0.6,0.5,0.7,0.7c0.1,0.2,0.2,0.3,0.2,0.3l-0.1,0.1c0,0-0.2,0-0.4,0.1c-0.2,0-0.5,0-0.9,0
			c-0.2,0-0.3,0-0.5,0c-0.2,0-0.4,0-0.5-0.1c-0.4-0.1-0.8-0.2-1.2-0.4c-0.2,0-0.5-0.1-0.7,0c-0.2,0-0.4,0.2-0.5,0.4
			c-0.1,0.2-0.2,0.4-0.3,0.5c-0.1,0.1-0.3,0.2-0.4,0.3c-0.3,0.2-0.5,0.3-0.7,0.4s-0.4,0.1-0.4,0.1L69,27.3z"/>
	</g>
	<g class="st17">
		<path class="st12" d="M68.9,32.1c0,0,0.1-0.1,0.2-0.3s0.4-0.4,0.7-0.5c0.2,0,0.3-0.1,0.6-0.1c0.2,0,0.4,0.1,0.6,0.3
			c0.2,0.1,0.4,0.2,0.6,0.3c0.2,0,0.4,0,0.7,0c0.3,0,0.5,0,0.7,0c0.2,0,0.4,0.2,0.7,0.3c0.2,0.1,0.4,0.2,0.5,0.4
			c0.2,0.2,0.2,0.3,0.3,0.5c0.1,0.2,0.2,0.3,0.2,0.5c0,0.2,0,0.3,0,0.4c0,0.2,0,0.4,0,0.4l-0.1,0.1c0,0-0.1,0-0.3-0.1
			s-0.4-0.2-0.7-0.3c-0.1-0.1-0.3-0.2-0.4-0.2c-0.1-0.1-0.2-0.2-0.3-0.3c-0.1-0.1-0.2-0.3-0.4-0.3c-0.1-0.1-0.3-0.3-0.4-0.4
			c-0.1-0.2-0.3-0.3-0.5-0.3c-0.2,0-0.4,0-0.6,0.1c-0.2,0.1-0.3,0.2-0.5,0.3c-0.2,0-0.3,0-0.4,0c-0.3,0-0.5-0.1-0.7-0.2
			s-0.3-0.2-0.3-0.2L68.9,32.1z"/>
	</g>
	<g class="st17">
		<path class="st15" d="M55.8,34.5c0,0,0.1-0.2,0.4-0.6c0.3-0.3,0.7-0.7,1.4-1c0.3-0.2,0.7-0.3,1.1-0.4s0.9,0,1.3,0
			c0.9,0.1,1.8-0.1,2.7-0.3c0.9-0.2,1.8-0.2,2.6-0.4c0.8-0.1,1.4-0.2,2-0.4c0.3-0.1,0.5-0.2,0.7-0.3c0.2-0.1,0.4-0.3,0.6-0.4
			c0.2-0.1,0.3-0.2,0.4-0.3c0.1-0.1,0.1-0.1,0.1-0.1l0.1,0.1c0,0,0,0.2-0.2,0.7c-0.1,0.4-0.5,1-1.1,1.5c-0.3,0.2-0.7,0.4-1.1,0.6
			c-0.4,0.2-0.9,0.2-1.3,0.3c-0.9,0-1.8,0-2.8-0.2c-0.5-0.1-0.9-0.2-1.3-0.2c-0.4,0-0.9,0.1-1.3,0.2c-0.4,0.2-0.7,0.4-1.1,0.6
			s-0.7,0.3-1,0.4c-0.6,0.2-1.2,0.3-1.5,0.4s-0.7,0.1-0.7,0.1L55.8,34.5z"/>
	</g>
	<g class="st17">
		<path class="st15" d="M69.1,28.5c0,0,0.4-0.5,1.3-0.9c0.5-0.2,1-0.5,1.8-0.6c0.7-0.1,1.5-0.1,2.4,0c0.9,0.1,1.8,0.5,2.7,1
			c0.9,0.5,1.6,1.2,2.4,2c0.7,0.8,1.4,1.6,2.3,2.2c0.8,0.7,1.8,1.2,2.8,1.6c1,0.4,2,0.7,3,1c0.5,0.1,1,0.3,1.5,0.4
			c0.5,0.1,1,0.2,1.5,0.2c0.5,0.1,1,0.1,1.4,0.1c0.5,0,0.9,0.1,1.4,0.1c0.4,0,0.9,0,1.3,0c0.4,0,0.8,0,1.2-0.1
			c0.4,0,0.8-0.1,1.1-0.2c0.3-0.1,0.7-0.1,1-0.2c0.3-0.1,0.6-0.2,0.9-0.2c0.3-0.1,0.5-0.2,0.7-0.3c0.5-0.1,0.8-0.3,1-0.5
			c0.2-0.1,0.4-0.2,0.4-0.2l0.1,0.1c0,0-0.1,0.1-0.3,0.3c-0.2,0.2-0.5,0.5-0.9,0.8c-0.2,0.2-0.4,0.3-0.7,0.5
			c-0.3,0.1-0.6,0.3-0.9,0.4c-0.6,0.3-1.4,0.6-2.2,0.8c-0.4,0.1-0.9,0.2-1.3,0.2c-0.5,0.1-0.9,0.1-1.4,0.1c-0.3,0-0.5,0-0.8,0
			c-0.3,0-0.5,0-0.8-0.1c-0.3,0-0.5,0-0.8-0.1c-0.3,0-0.5-0.1-0.8-0.1c-0.5-0.1-1.1-0.2-1.6-0.4c-0.5-0.1-1.1-0.3-1.6-0.5
			c-1.1-0.4-2.1-0.9-3-1.5c-0.9-0.6-1.8-1.3-2.7-2c-0.8-0.7-1.7-1.4-2.5-2c-0.4-0.3-0.8-0.5-1.2-0.8c-0.4-0.2-0.8-0.4-1.2-0.6
			c-0.8-0.4-1.6-0.7-2.3-0.9c-0.7-0.2-1.4-0.3-2.1-0.3c-0.6,0-1.2,0.1-1.6,0.2c-0.9,0.2-1.4,0.4-1.4,0.4L69.1,28.5z"/>
	</g>
	<g class="st17">
		<path class="st15" d="M90.4,36.4c0,0,0.1,0,0.4,0c0.2,0,0.6,0,0.9,0.2c0.2,0.1,0.3,0.2,0.5,0.3c0.2,0.1,0.3,0.4,0.4,0.6
			c0.1,0.2,0.2,0.4,0.4,0.6c0.1,0.2,0.3,0.3,0.5,0.5c0.2,0.2,0.4,0.1,0.5,0.3c0.2,0,0.3,0.1,0.5,0.1c0.2,0,0.3,0,0.5,0
			c0.2,0,0.3,0,0.5,0c0.7,0,1.2,0.2,1.2,0.2l0,0.1c0,0-0.4,0.3-1.1,0.6c-0.2,0-0.4,0.1-0.6,0.1c-0.2,0-0.5,0-0.7-0.1
			c-0.3,0-0.5-0.2-0.8-0.3c-0.2-0.2-0.4-0.4-0.5-0.7c-0.1-0.2-0.2-0.5-0.3-0.6c-0.1-0.2-0.3-0.3-0.5-0.4c-0.2-0.1-0.4-0.2-0.6-0.3
			c-0.2-0.1-0.3-0.2-0.4-0.3c-0.3-0.2-0.5-0.4-0.6-0.5c-0.1-0.1-0.2-0.3-0.2-0.3L90.4,36.4z"/>
	</g>
	<g class="st17">
		<path class="st12" d="M94.1,27.5c0,0,0.1-0.2,0.4-0.3s0.7-0.4,1.3-0.4c0.3,0,0.6,0,1,0.2c0.3,0.2,0.6,0.5,0.8,0.8
			c0.2,0.3,0.3,0.6,0.5,0.9c0.2,0.3,0.4,0.5,0.6,0.8c0.5,0.5,0.9,1,1.3,1.5c0.4,0.5,0.8,1,1,1.5c0.3,0.5,0.4,0.9,0.4,1.2
			c0.1,0.3,0.1,0.5,0.1,0.5l-0.1,0c0,0-0.1-0.1-0.3-0.4c-0.2-0.2-0.5-0.5-0.8-0.9c-0.3-0.4-0.7-0.8-1.1-1.3c-0.4-0.5-0.8-1.1-1-1.8
			c-0.1-0.3-0.3-0.7-0.4-1s-0.3-0.6-0.6-0.8c-0.3-0.2-0.5-0.3-0.8-0.3c-0.2,0-0.4-0.1-0.7-0.1c-0.4,0-0.8,0-1.2,0
			c-0.3,0-0.5,0-0.5,0L94.1,27.5z"/>
	</g>
	<g class="st17">
		<path class="st12" d="M76.5,28c0,0,0.3-0.3,1.1-0.2c0.3,0.1,0.8,0.2,1.2,0.6c0.2,0.1,0.4,0.3,0.6,0.5s0.4,0.4,0.5,0.7
			c0.3,0.5,0.6,1.1,0.8,1.7c0.2,0.6,0.4,1.2,0.8,1.8c0.3,0.6,0.7,1.3,1.1,1.8c0.5,0.6,1.1,1,1.7,1.3c0.6,0.3,1.3,0.5,2,0.5
			c0.7,0,1.2-0.2,1.9-0.4c1.3-0.5,2.5-1,3.6-1.3c1.1-0.3,2.2-0.4,2.8-0.1c0.2,0.1,0.3,0.1,0.4,0.2c0.1,0.1,0.2,0.1,0.3,0.2
			c0.1,0.1,0.2,0.2,0.2,0.2l-0.1,0.1c0,0-0.1,0-0.2-0.1c-0.1,0-0.2-0.1-0.3-0.1c-0.1,0-0.2-0.1-0.4-0.1c-0.3,0-0.7,0-1.1,0.1
			c-0.4,0.1-0.9,0.3-1.4,0.5c-1,0.4-2.2,1-3.6,1.4c-0.6,0.2-1.5,0.4-2.3,0.3c-0.8-0.1-1.6-0.5-2.2-0.9c-0.6-0.5-1.1-1-1.6-1.6
			c-0.5-0.6-0.9-1.2-1.3-1.7c-0.4-0.6-0.8-1.2-1.1-1.7c-0.3-0.6-0.5-1.1-0.8-1.6c-0.1-0.3-0.3-0.4-0.4-0.6c-0.1-0.1-0.1-0.2-0.2-0.3
			c-0.1-0.1-0.1-0.2-0.2-0.2c-0.3-0.3-0.6-0.5-0.8-0.7C77.3,28.1,77,28,76.8,28C76.7,28,76.6,28.1,76.5,28L76.5,28z"/>
	</g>
	<g class="st17">
		<path class="st12" d="M99.9,30.4c0,0,0.2-0.2,0.5-0.4c0.4-0.2,0.9-0.5,1.6-0.6c0.3-0.1,0.7-0.1,1.1-0.1c0.4,0,0.8,0.2,1.3,0.3
			s0.8,0.3,1.3,0.3c0.4,0,0.9,0,1.4,0c0.5,0,1,0,1.4,0.2c0.4,0.1,0.9,0.3,1.3,0.4c0.8,0.3,1.5,0.8,2,1.1c0.5,0.4,0.9,0.6,1.3,0.8
			c0.3,0.2,0.6,0.2,0.6,0.2l0,0.2c0,0-0.2,0.2-0.7,0.3c-0.2,0-0.5,0.1-0.8,0c-0.3,0-0.7-0.1-1-0.2c-0.7-0.2-1.4-0.5-2.1-0.9
			c-0.3-0.2-0.7-0.4-1.1-0.6c-0.4-0.2-0.8-0.4-1.1-0.6c-0.8-0.4-1.7-0.5-2.5-0.3c-0.4,0.1-0.8,0.2-1.2,0.3c-0.4,0-0.7,0-1,0
			c-0.6,0-1.2,0-1.6,0c-0.4,0-0.6-0.1-0.6-0.1L99.9,30.4z"/>
	</g>
	<g class="st17">
		<path class="st15" d="M115.2,40.3c0,0,0.3,0,0.8,0.1c0.4,0.1,1,0.4,1.4,0.8c0.2,0.2,0.4,0.4,0.6,0.7c0.2,0.2,0.3,0.5,0.4,0.7
			c0.2,0.4,0.2,0.8,0.2,0.8s-0.3-0.2-0.6-0.4c-0.2-0.1-0.4-0.3-0.6-0.4s-0.4-0.3-0.6-0.5c-0.2-0.2-0.4-0.4-0.6-0.6
			c-0.2-0.2-0.3-0.4-0.5-0.5C115.4,40.5,115.2,40.3,115.2,40.3z"/>
	</g>
	<g class="st17">
		<path class="st12" d="M95.9,37c0,0,0.2,0.4,0.6,1c0.4,0.5,1.2,1.1,2.4,1.4c0.6,0.2,1.2,0.2,1.9,0.2c0.4,0,0.7,0,1.1,0
			c0.4,0,0.8,0,1.2,0c0.8,0,1.6,0,2.4-0.2c0.8-0.2,1.6-0.5,2.5-0.8c0.8-0.3,1.8-0.5,2.8-0.4c1,0.1,1.9,0.7,2.4,0.8
			c0.7,0.1,1.3,0.1,2,0.1c0.6-0.1,1.3-0.3,1.8-0.5c1.1-0.4,1.9-1.1,2.2-1.7c0.4-0.6,0.3-1,0.4-1l0.2,0c0,0,0,0.1,0.1,0.3
			c0,0.2,0.1,0.5,0,1c-0.2,0.8-0.9,1.9-2.2,2.6c-0.6,0.4-1.3,0.7-2.2,0.8c-0.8,0.2-1.7,0.2-2.7-0.1c-0.2-0.1-0.5-0.2-0.7-0.3
			l-0.5-0.3c-0.3-0.2-0.7-0.3-1-0.4c-0.7-0.2-1.5-0.2-2.3-0.1c-0.8,0.1-1.7,0.3-2.5,0.5c-0.8,0.2-1.6,0.5-2.4,0.7
			c-0.4,0.1-0.8,0.2-1.2,0.3c-0.4,0.1-0.8,0.1-1.2,0.1c-0.8,0-1.6-0.1-2.2-0.3s-1.3-0.6-1.7-1c-0.4-0.4-0.7-0.9-0.8-1.3
			c-0.2-0.4-0.2-0.7-0.2-0.9c0-0.2,0-0.3,0-0.3L95.9,37z"/>
	</g>
	<g class="st17">
		<path class="st15" d="M99.3,39.4c0,0,0.2,0.1,0.4,0.2c0.1,0.1,0.3,0.1,0.5,0.2c0.2,0.1,0.4,0.2,0.6,0.3c0.2,0.1,0.4,0.2,0.7,0.3
			c0.2,0.1,0.5,0.2,0.8,0.4c0.3,0.1,0.6,0.1,0.9,0.1c0.3-0.1,0.7-0.2,0.9-0.4c0.2-0.2,0.5-0.4,0.7-0.6c0.3-0.2,0.5-0.4,0.7-0.6
			c0.3-0.2,0.5-0.4,0.8-0.5c0.3-0.1,0.6-0.3,0.8-0.3c0.3,0,0.5-0.1,0.7-0.1c0.2,0,0.4,0,0.6,0c0.3,0,0.5,0.1,0.5,0.1v0.1
			c0,0-0.2,0.1-0.4,0.2c-0.1,0.1-0.3,0.1-0.5,0.2c-0.2,0.1-0.4,0.2-0.6,0.3c-0.2,0.1-0.4,0.3-0.6,0.4s-0.5,0.3-0.7,0.5
			c-0.3,0.2-0.5,0.3-0.8,0.5c-0.3,0.2-0.6,0.3-1,0.4c-0.4,0.1-0.7,0.1-1,0.2c-0.4,0-0.7,0.1-1,0.1c-0.3,0-0.7,0-1-0.1
			c-0.3-0.1-0.6-0.2-0.8-0.4c-0.2-0.2-0.4-0.3-0.6-0.5c-0.2-0.2-0.3-0.3-0.3-0.4C99.3,39.6,99.3,39.5,99.3,39.4L99.3,39.4z"/>
	</g>
	<g class="st17">
		<path class="st12" d="M114.7,30.4c0,0,0-0.2,0.1-0.4c0.1-0.2,0.2-0.5,0.5-0.8c0.1-0.1,0.3-0.3,0.5-0.4c0.2-0.1,0.4-0.1,0.7-0.2
			c0.3,0,0.5-0.1,0.7-0.2c0.2-0.1,0.4-0.3,0.6-0.5c0.2-0.2,0.4-0.4,0.6-0.5c0.2-0.1,0.5-0.2,0.7-0.3c0.3-0.1,0.5-0.1,0.8-0.1
			c0.3,0,0.5,0.1,0.7,0.2c0.2,0.1,0.4,0.3,0.5,0.4c0.1,0.1,0.2,0.3,0.3,0.4c0.1,0.3,0.1,0.4,0.1,0.4l-0.1,0.1c0,0-0.2,0-0.4,0
			c-0.1,0-0.2,0-0.4,0s-0.3,0-0.4,0s-0.3,0-0.4,0.1c-0.2,0-0.3,0-0.5,0c-0.2,0-0.4,0-0.6,0c-0.2,0-0.4,0-0.7,0
			c-0.5,0-0.9,0.2-1.2,0.6c-0.1,0.2-0.2,0.4-0.4,0.6s-0.3,0.2-0.4,0.3c-0.3,0.2-0.6,0.2-0.8,0.3c-0.2,0-0.4,0-0.4,0L114.7,30.4z"/>
	</g>
	<g class="st17">
		<path class="st15" d="M114.3,28.2c0,0,0-0.1,0-0.4c0-0.2,0.1-0.6,0.3-0.9c0.1-0.2,0.2-0.4,0.4-0.5c0.2-0.2,0.4-0.3,0.6-0.4
			c0.4-0.3,0.8-0.6,1.1-1.1c0.3-0.5,0.7-0.8,1.2-1.1c0.2-0.1,0.5-0.2,0.7-0.3c0.2,0,0.5-0.1,0.7-0.1c0.2,0,0.4,0,0.6,0
			c0.2,0,0.3,0.1,0.4,0.1c0.2,0.1,0.3,0.2,0.3,0.2l0,0.1c0,0-0.1,0.1-0.3,0.1c-0.1,0-0.2,0.1-0.4,0.1c-0.1,0.1-0.3,0.1-0.4,0.2
			c-0.2,0.1-0.3,0.1-0.5,0.2c-0.2,0.1-0.4,0.2-0.6,0.2c-0.2,0.1-0.4,0.2-0.6,0.3c-0.2,0.1-0.4,0.2-0.7,0.3c-0.2,0.1-0.5,0.2-0.6,0.4
			c-0.2,0.2-0.3,0.4-0.4,0.6c-0.1,0.2-0.2,0.5-0.3,0.6c-0.1,0.2-0.2,0.3-0.4,0.5C114.8,28,114.3,28.3,114.3,28.2L114.3,28.2z"/>
	</g>
	<g class="st17">
		<path class="st15" d="M32.1,34.1c0,0,0.4,0.2,0.9,0.4c0.5,0.2,1.2,0.5,1.8,0.8c0.2,0.1,0.3,0.1,0.5,0.2c0.2,0,0.3,0.1,0.5,0.2
			c0.2,0,0.3,0.1,0.5,0.1c0.2,0,0.3,0.1,0.4,0.1c0.3,0,0.5,0.1,0.7,0.1c0.2,0,0.3,0,0.3,0c0,0-0.3,0.3-0.9,0.5
			c-0.2,0-0.3,0.1-0.5,0.1c-0.2,0-0.4,0-0.6,0c-0.4,0-0.8-0.1-1.2-0.3c-0.4-0.2-0.7-0.3-1-0.6c-0.3-0.2-0.6-0.5-0.8-0.7
			C32.2,34.5,32.1,34.1,32.1,34.1z"/>
	</g>
	<g class="st17">
		<path class="st12" d="M48.9,25.3c0,0-0.1-0.1-0.3-0.1c-0.1-0.1-0.3-0.2-0.4-0.3c0-0.1-0.1-0.1-0.1-0.2c0-0.1,0-0.2,0.1-0.4
			c0-0.1,0-0.3-0.1-0.4c-0.1-0.1-0.2-0.1-0.4-0.1c-0.2,0-0.3,0-0.4,0c-0.1,0-0.2,0-0.3,0c-0.1,0-0.2,0-0.2-0.1
			c-0.1-0.1-0.2-0.1-0.2-0.2c-0.3-0.2-0.5-0.7-0.5-0.7v-0.1c0,0,0.3-0.4,0.8-0.5c0.1,0,0.3-0.1,0.4,0c0.1,0,0.3,0.1,0.4,0.2
			c0.1,0.1,0.3,0.2,0.4,0.3c0.1,0.1,0.2,0.3,0.2,0.5s0.1,0.3,0.2,0.4c0.1,0.1,0.2,0.2,0.4,0.2c0.2,0.1,0.3,0.1,0.4,0.3
			c0.1,0.1,0.1,0.2,0.1,0.4c0,0.2-0.1,0.5-0.2,0.6c-0.1,0.1-0.2,0.2-0.2,0.2H48.9z"/>
	</g>
	<g class="st17">
		<path class="st12" d="M48.9,28.3c0,0-0.5-0.1-1-0.4c-0.1-0.1-0.3-0.2-0.4-0.3c-0.1-0.1-0.2-0.3-0.3-0.5s-0.2-0.3-0.4-0.4
			c-0.2-0.1-0.4-0.2-0.6-0.2c-0.2,0-0.4-0.1-0.6-0.1s-0.4-0.1-0.5-0.2c-0.2-0.1-0.3-0.1-0.5-0.2c-0.2-0.1-0.3-0.1-0.4-0.2
			c-0.1-0.1-0.3-0.1-0.4-0.2s-0.2-0.1-0.3-0.1c-0.2-0.1-0.3-0.1-0.3-0.1l0-0.1c0,0,0.1-0.1,0.3-0.2c0.2-0.1,0.5-0.2,0.8-0.2
			c0.3,0,0.8,0.1,1.1,0.3c0.4,0.2,0.7,0.5,1,0.8c0.2,0.2,0.3,0.3,0.5,0.5s0.3,0.2,0.6,0.3c0.2,0.1,0.4,0.1,0.5,0.2
			c0.2,0.1,0.3,0.2,0.4,0.3c0.2,0.2,0.3,0.5,0.4,0.7C49,28.1,49,28.2,48.9,28.3L48.9,28.3z"/>
	</g>
	<g class="st17">
		<path class="st15" d="M74.2,24c0,0-0.1-0.1-0.2-0.2c-0.1-0.1-0.2-0.4-0.2-0.7c0-0.1,0-0.3,0-0.4c0-0.1,0.1-0.3,0.2-0.5
			c0.1-0.1,0.2-0.3,0.2-0.5c0.1-0.2,0-0.4,0-0.5c0-0.4,0.1-0.8,0.2-1.1c0.2-0.3,0.4-0.6,0.6-0.8c0.5-0.3,0.9-0.4,0.9-0.4l0.1,0.1
			c0,0-0.1,0.5-0.3,0.9c-0.1,0.2-0.2,0.5-0.4,0.7c-0.1,0.1-0.2,0.2-0.3,0.4c-0.1,0.1-0.2,0.3-0.3,0.4c-0.3,0.3-0.3,0.6-0.2,0.9
			c0.1,0.2,0.1,0.3,0.1,0.5s0,0.3,0,0.4c-0.1,0.2-0.1,0.4-0.2,0.6S74.3,24,74.3,24L74.2,24z"/>
	</g>
	<g class="st17">
		<path class="st15" d="M31.6,21.6c0,0,0.1-0.1,0.4-0.2c0.3-0.1,0.6-0.3,1-0.6c0.2-0.1,0.4-0.2,0.6-0.4c0.2-0.1,0.4-0.3,0.6-0.5
			s0.3-0.5,0.2-0.8c0-0.3-0.2-0.5-0.4-0.9c-0.2-0.3-0.4-0.5-0.5-0.9c-0.1-0.4-0.2-0.8-0.2-1.1c0-0.4,0-0.7,0.2-1
			c0.1-0.1,0.1-0.3,0.2-0.4c0.1-0.1,0.2-0.2,0.3-0.4c0.2-0.2,0.4-0.4,0.6-0.5c0.2-0.1,0.4-0.2,0.5-0.3c0.1-0.1,0.3,0,0.4-0.1
			c0.1,0,0.1,0,0.1,0l0,0.1c0,0,0,0-0.1,0.1c-0.1,0.1-0.2,0.1-0.2,0.2c-0.1,0.1-0.2,0.2-0.3,0.4c-0.1,0.2-0.2,0.3-0.3,0.5
			c0,0.1-0.1,0.2-0.1,0.3c0,0.1-0.1,0.2-0.1,0.3c-0.1,0.2-0.1,0.5-0.2,0.7c-0.1,0.3,0,0.5,0,0.8c0,0.3,0.1,0.6,0.2,1
			c0,0.3,0.2,0.7,0.2,1c0.1,0.4,0,0.7,0,1.1c-0.1,0.4-0.3,0.7-0.5,0.9s-0.5,0.4-0.8,0.5c-1,0.4-1.8,0.1-1.8,0.1L31.6,21.6z"/>
	</g>
	<g class="st17">
		<path class="st12" d="M121.4,18.6c0,0,0.1,0.1,0.2,0.2s0.1,0.4,0.1,0.6c0,0.1,0,0.3-0.1,0.4c-0.1,0.1-0.2,0.3-0.3,0.4
			c-0.1,0.1-0.2,0.3-0.2,0.4c-0.1,0.1-0.1,0.3-0.1,0.5c0,0.4-0.1,0.7-0.3,1c-0.1,0.1-0.2,0.3-0.3,0.4c-0.1,0.1-0.2,0.2-0.4,0.2
			c-0.3,0.1-0.5,0.2-0.7,0.1c-0.2,0-0.3,0-0.3,0l0-0.1c0,0,0.2-0.4,0.4-0.7c0.1-0.2,0.2-0.4,0.4-0.5c0.1-0.1,0.2-0.2,0.3-0.3
			c0.1-0.1,0.2-0.2,0.3-0.3c0.1-0.1,0.2-0.2,0.3-0.4c0.1-0.1,0.1-0.3,0-0.4c0-0.1-0.1-0.3-0.1-0.4c0-0.1,0-0.2,0.1-0.3
			c0.1-0.2,0.2-0.4,0.3-0.5C121.3,18.7,121.3,18.6,121.4,18.6L121.4,18.6z"/>
	</g>
	<g class="st17">
		<path class="st12" d="M92,19.9c0,0,0.1,0,0.3,0c0.2,0,0.4,0.1,0.7,0.2c0.1,0.1,0.3,0.2,0.4,0.3c0.1,0.1,0.2,0.3,0.2,0.5
			c0.1,0.4,0.3,0.6,0.7,0.9c0.2,0.1,0.3,0.2,0.4,0.4c0.1,0.2,0.2,0.3,0.3,0.5c0.1,0.2,0.2,0.3,0.2,0.5c0,0.2,0.1,0.3,0.1,0.5
			c0,0.6-0.1,1-0.1,1l-0.1,0c0,0-0.4-0.3-0.6-0.7c-0.1-0.1-0.1-0.2-0.2-0.4c-0.1-0.1-0.1-0.3-0.2-0.4c-0.1-0.3-0.2-0.6-0.3-1
			c0-0.2-0.1-0.4-0.2-0.5s-0.3-0.2-0.4-0.3c-0.2-0.1-0.3-0.1-0.4-0.2c-0.1-0.1-0.2-0.2-0.3-0.3c-0.2-0.2-0.3-0.4-0.4-0.5
			C92.1,20.1,92,20,92,19.9L92,19.9z"/>
	</g>
	<g class="st17">
		<path class="st12" d="M90.1,24.2c0,0,0.1-0.1,0.2-0.2c0.2-0.1,0.4-0.2,0.7-0.3c0.2,0,0.3,0,0.5,0c0.2,0,0.3,0.1,0.5,0.2
			c0.2,0.1,0.3,0.2,0.5,0.2s0.4,0,0.6,0.1c0.4,0,0.8,0.2,1.2,0.4c0.2,0.1,0.3,0.2,0.4,0.4c0.1,0.1,0.2,0.3,0.3,0.4
			c0.2,0.3,0.2,0.5,0.2,0.7c0,0.2,0,0.3,0,0.3l-0.1,0c0,0-0.1,0-0.3-0.1c-0.2-0.1-0.3-0.2-0.6-0.4c-0.1-0.1-0.2-0.2-0.3-0.2
			s-0.2-0.2-0.3-0.3s-0.2-0.2-0.3-0.3c-0.1-0.1-0.2-0.3-0.4-0.4c-0.1-0.1-0.3-0.2-0.5-0.3c-0.2,0-0.3,0-0.5,0
			c-0.2,0.1-0.3,0.1-0.5,0.1c-0.2,0-0.3,0-0.4,0c-0.3,0-0.5-0.1-0.7-0.1c-0.2,0-0.3-0.1-0.3-0.1L90.1,24.2z"/>
	</g>
	<g class="st17">
		<path class="st15" d="M100.8,31.4c0,0-0.1,0.2-0.4,0.3c-0.1,0-0.3,0.1-0.5,0.1c-0.2,0-0.4,0-0.7-0.1c-0.2-0.1-0.5-0.1-0.7-0.3
			c-0.2-0.1-0.4-0.3-0.6-0.5c-0.2-0.2-0.4-0.4-0.6-0.6c-0.2-0.1-0.5-0.3-0.8-0.3c-0.3-0.1-0.5-0.1-0.8-0.1c-0.2,0-0.4,0-0.6,0.1
			c-0.2,0.1-0.3,0.2-0.4,0.3c-0.1,0.1-0.3,0.3-0.4,0.4c-0.5,0.6-0.7,1.2-0.7,1.2h-0.1c0,0-0.1-0.1-0.1-0.4s0-0.7,0.1-1.2
			c0.1-0.2,0.2-0.5,0.4-0.7c0.2-0.2,0.5-0.5,0.9-0.5c0.3-0.1,0.7-0.1,1.1,0c0.3,0.1,0.6,0.3,0.9,0.5c0.3,0.2,0.4,0.4,0.7,0.6
			c0.2,0.2,0.5,0.3,0.8,0.4c0.3,0.1,0.5,0.1,0.7,0.2c0.2,0.1,0.4,0.2,0.6,0.3c0.2,0.1,0.3,0.1,0.5,0.2c0.2,0.1,0.3,0.1,0.4,0.1
			C100.6,31.3,100.7,31.4,100.8,31.4L100.8,31.4z"/>
	</g>
</g>
<g id="圖層_3" class="st0">
	<path class="st18" d="M-15.5,16.4c-0.8-2.8-3.6-3.8-3.4-1.8c0.2,2-0.6,5-1.1,5.9c-1.2,1.9-3.9,4.6-4.8,5.6c0.3-1.8,0.5-3.8,0.6-5.9
		c0-0.1,0-0.3,0-0.5c0.9-0.8,1.4-2,1.2-4.1c-0.4-3.1-2.5-4.5-2.5-4.5v0c-0.9-3-1.8-5.2-1.8-5.2l0,0c-0.1-0.2-0.2-0.5-0.3-0.7
		c0.3-0.1,0.5-0.3,0.8-0.6c0.9-0.9,1.1-2.2,0.4-2.9c-0.7-0.7-2-0.5-2.9,0.4c-0.1,0.1-0.2,0.2-0.3,0.3c-1.2-1.1-2.8-1.7-4.4-1.7
		c-1.8,0-3.3,0.7-4.5,1.9c-0.3-0.6-1-1.1-1.8-1.1c-1.1,0-2,0.8-2,1.8s0.9,1.7,2,1.7c0.1,0,0.2,0,0.3,0c-0.4,1-0.6,2.2-0.6,3.5
		c0,0.4,0,0.7,0.1,1.1c-0.4,0-1.4-0.3-2.1-2.5c-0.9-2.9-1.9-3.7-2.7-4.7c-0.8-1-0.9-1.1-1.1-0.9c-0.1,0.1,0,0.4,0.1,0.6
		c-0.1-0.2-0.4-0.5-0.6-0.3c-0.4,0.2,0.1,0.8,0.2,0.9c0,0-0.6-0.7-0.8-0.4c-0.2,0.3,0.3,0.8,0.3,0.8S-48,2.6-48,3s0.1,0.5,0.8,1.1
		S-45.5,6-45,7.9c0.4,1.8,1.5,6.4,5.1,8.2c-0.1,2.9-0.8,5.1-2.4,8.7c-2.4,5.5-2.8,12.1-3,16.2s0.7,4.9,1,3.8s2.8-7.8,4.6-9.4
		s4.3-1.6,4.5,0.7s-1.8,6.8-1.7,9.4s0.7,2.1,1.2,0.7s1.9-3.9,5.9-9c1.2-1.5,2.2-3,2.9-4.6c2.6-2.8,4.1-4.1,5.9-4.9
		C-18,26.4-14,21.8-15.5,16.4z"/>
	<path class="st19" d="M-25.5,10.8C-26.3,8-27.2,6-27.2,6l0,0c-1-3-3.6-5.1-6.7-5.1c-4,0-6.6,3.5-6.6,7.8c0,0.7,0.1,1.4,0.2,2l0,0
		c0.2,1.2,0.3,2.2,0.4,3.1C-35.3,15.8-29.5,14.4-25.5,10.8z"/>
	<path class="st20" d="M-38.4,13.9c0,0,0.8,2.9-1,7.8s-5.4,10.7,2.1,12.4s10-2.8,11.3-13.3s-3.2-10.2-3.2-10.2S-37.9,7.5-38.4,13.9z
		"/>
	<path class="st21" d="M-40.6,8c0,0,1.8-1.3,4.2-0.6s1.7,1.6,4.6-0.2c3-1.8,4.5-1,4.5-1s1,2.8,1,2.8c0.2,0.6,0.5,1.2,0.6,1.8
		c0,0.7-0.7,1.1-1.2,1.3c-1.4,0.7-3,1.4-4.5,1.9c-0.8,0.3-1.5,0.4-2.3,0.5c-3.2,0.2-5.2-0.4-6.2-1.8S-40.6,8-40.6,8z"/>
	<path class="st22" d="M-37.9,4.9c0,0,0.5-0.8,1.2-0.3"/>
	<path class="st22" d="M-31.4,4.5c0,0-0.5-0.8-1.2-0.3"/>
	<path class="st17" d="M-36.1,6.9c0,0.3-0.2,0.6-0.5,0.6c-0.3,0-0.5-0.3-0.5-0.6s0.2-0.6,0.5-0.6S-36.1,6.6-36.1,6.9z"/>
	<path class="st17" d="M-31.3,6.7c0,0.3-0.2,0.6-0.5,0.6s-0.5-0.3-0.5-0.6s0.2-0.6,0.5-0.6C-31.5,6.2-31.3,6.4-31.3,6.7z"/>
	<path class="st17" d="M-33,8.3c0,0.2-0.4,0.4-0.9,0.4s-0.9-0.2-0.9-0.4c0-0.2,0.4-0.4,0.9-0.4C-33.4,8-33,8.1-33,8.3z"/>
	<path class="st23" d="M-35.6,9.9c0,0,0.9,1.5,1.8,1.5c1,0,1.9-1.3,1.9-1.7c0,0-1-0.2-1.9-0.6C-33.7,9.1-35,9.4-35.6,9.9z"/>
	<g class="st17">
		<path class="st2" d="M-15.6,15.9c-0.6-2.5-3.5-3.4-3.3-1.4s0.1,2.8-1.1,5.9c-0.8,2.1-3.9,4.6-4.8,5.6c-0.4,2.3-1.2,4.3-2.1,6.6
			c2.3-3.1,5.5-4.4,7.9-6.3C-14.4,22.7-14.9,18.7-15.6,15.9z"/>
		<path class="st2" d="M-24.7,26c0.3-1.8,0.5-3.8,0.6-5.9c0-0.1,0-0.3,0-0.5c0.9-0.8,1.4-2,1.2-4.1c-0.4-3.1-2.5-4.5-2.5-4.5v0
			c-0.9-3-1.8-5.2-1.8-5.2l0,0c-0.1-0.2-0.2-0.5-0.3-0.7c0.3-0.1,0.5-0.3,0.8-0.6c0.9-0.9,1.1-2.2,0.4-2.9c-0.7-0.7-2-0.5-2.9,0.4
			c-0.1,0.1-0.2,0.2-0.3,0.3c-1.2-1.1-2.8-1.7-4.4-1.7c-1.8,0-3.3,0.7-4.5,1.9c-0.3-0.6-1-1.1-1.8-1.1c-1.1,0-2,0.8-2,1.8
			s0.9,1.7,2,1.7c0.1,0,0.2,0,0.3,0c-0.4,1-0.6,2.2-0.6,3.5c0,0.4,0,0.7,0.1,1.1c-0.4,0-1.4-0.3-2.1-2.5c-0.9-2.9-1.9-3.7-2.7-4.7
			c-0.8-1-0.9-1.1-1.1-0.9c-0.1,0.1,0,0.4,0.1,0.6c-0.1-0.2-0.4-0.5-0.6-0.3c-0.4,0.2,0.1,0.8,0.2,0.9c0,0-0.6-0.7-0.8-0.4
			c-0.2,0.3,0.3,0.8,0.3,0.8S-48,2.6-48,3s0.1,0.5,0.8,1.1S-45.4,6-45,7.9c0.4,1.8,1.5,6.4,5.1,8.2c-0.1,2.9-0.8,5.1-2.4,8.7
			c-2.4,5.5-2.8,12.1-3,16.2s0.7,4.9,1,3.8s2.8-7.8,4.6-9.4s4.3-1.6,4.5,0.7s-1.8,6.8-1.7,9.4s0.7,2.1,1.2,0.7s1.9-3.9,5.9-9
			c1.2-1.5,2.9-4.6,2.9-4.6S-24.7,27-24.7,26z"/>
		<path class="st2" d="M-24.7,26"/>
	</g>
	<path class="st18" d="M-25.5,11.1c0,0,2,1.4,2.5,4.5c0.4,3.1-1.1,4.4-2.7,4.9s-3.7-0.2-4.6-1.2s-1.2-1.9-1-2.1s0.8,0.6,0.8,0.6
		s-0.5-0.8-0.1-1s0.7,0.6,0.7,0.6s-0.3-0.7,0-0.9s0.5,0.6,0.5,0.6s-0.3-0.7,0-0.8c0.3-0.2,0.4,0.5,0.6,0.9c0.1,0.3,1,1,2.3,0.5
		c1.3-0.6,1.3-1.9,1.2-3.4C-25.6,12.7-25.5,11.1-25.5,11.1z"/>
	<path class="st22" d="M-47,3.8c0,0-0.2-1.2,1.3-1.1"/>
	<path class="st22" d="M-41.5,9c0,0,2.5-0.3,4.3,0.1"/>
	<path class="st22" d="M-41.5,10.3c0,0,1.9-0.5,4.3-0.6"/>
	<path class="st22" d="M-30.4,8.7c0,0,2.3-1,5.3-1.4"/>
	<path class="st22" d="M-30.4,9.4c0,0,1.9-0.6,4.4-0.5"/>
	<path class="st22" d="M-34.4,11.8c0,0,0.7,0.4,1.4,0"/>
	<path class="st24" d="M-72.3,27.1c0,0,2-3.1,5.3-4.6s3.7-4.8,3.5-6.7s1.1-1.6,1.1,0.9c0.1,2.5,0.5,6.4-2.6,8
		c-3,1.6-7.4,5.7-9.6,9.2L-72.3,27.1z"/>
	<path class="st25" d="M-72.3,27.1c0,0,2-3.1,5.3-4.6s3.7-4.8,3.5-6.7s1.1-1.6,1.1,0.9c0.1,2.5,0.5,6.4-2.6,8
		c-3,1.6-7.4,5.7-9.6,9.2L-72.3,27.1z"/>
	<path class="st25" d="M-87.1,9.7c0,0-1.4,0.5-2.3-2.4s-1.9-3.7-2.7-4.7c-0.8-1-0.9-1.1-1.1-0.9c-0.2,0.2,0.3,0.9,0.3,0.9
		s-0.4-0.8-0.8-0.6s0.1,0.8,0.2,0.9c0,0-0.6-0.7-0.8-0.4C-94.5,2.7-94,3.3-94,3.3s-0.8-0.7-0.8-0.3s0.1,0.5,0.8,1.1s1.8,1.9,2.2,3.8
		c0.4,1.9,1.5,6.8,5.5,8.4c0,0,1-3.2,0.2-4.5C-87,10.4-87.1,9.7-87.1,9.7z"/>
	<ellipse class="st25" cx="-87.1" cy="3.5" rx="2" ry="1.8"/>
	
		<ellipse transform="matrix(0.7071 -0.7071 0.7071 0.7071 -24.3738 -51.8803)" class="st26" cx="-74.8" cy="3.5" rx="2.4" ry="1.7"/>
	<ellipse class="st24" cx="-87.1" cy="3.5" rx="2" ry="1.8"/>
	
		<ellipse transform="matrix(0.7071 -0.7071 0.7071 0.7071 -24.3738 -51.8803)" class="st24" cx="-74.8" cy="3.5" rx="2.4" ry="1.7"/>
	<path class="st24" d="M-87.1,9.7c0,0-1.4,0.5-2.3-2.4s-1.9-3.7-2.7-4.7c-0.8-1-0.9-1.1-1.1-0.9c-0.2,0.2,0.3,0.9,0.3,0.9
		s-0.4-0.8-0.8-0.6s0.1,0.8,0.2,0.9c0,0-0.6-0.7-0.8-0.4C-94.5,2.7-94,3.3-94,3.3s-0.8-0.7-0.8-0.3s0.1,0.5,0.8,1.1s1.8,1.9,2.2,3.8
		c0.4,1.9,1.5,6.8,5.5,8.4c0,0,1-3.2,0.2-4.5C-87,10.4-87.1,9.7-87.1,9.7z"/>
	<path class="st24" d="M-74,6L-74,6c-1-3-3.6-5.1-6.7-5.1c-4,0-6.6,3.5-6.6,7.8c0,0.7,0.1,1.4,0.2,2l0,0c1,6.2,0.5,8.6-1.9,14.1
		s-2.8,12.1-3,16.2s0.7,4.9,1,3.8s2.8-7.8,4.6-9.4s4.3-1.6,4.5,0.7s-1.8,6.8-1.7,9.4s0.7,2.1,1.2,0.7s1.9-3.9,5.9-9s5.4-10.2,5.6-17
		S-74,6-74,6z"/>
	<path class="st27" d="M-85.8,27.2c0.3-2.2,0.8-10.3,3.9-11.8s6.2-0.6,6.9,1.8s0.8,8.5-1.3,12.5S-87.1,35.3-85.8,27.2z"/>
	<path class="st27" d="M-87.3,8c0,0,1.8-1.3,4.2-0.6s1.7,1.6,4.6-0.2c3-1.8,4.6-1,4.6-1S-72.9,9-72.9,9c0.2,0.6,0.3,1.2,0.2,1.9
		c-0.3,1.2-2.1,1.8-3.1,2.3c-1.4,0.8-2.9,1.3-4.5,1.4c-3.2,0.2-5.5-0.4-6.5-1.8S-87.3,8-87.3,8z"/>
	<path class="st22" d="M-84.6,4.9c0,0,0.5-0.8,1.2-0.3"/>
	<path class="st22" d="M-78.2,4.5c0,0-0.5-0.8-1.2-0.3"/>
	<path class="st25" d="M-87.3,8c0,0,1.8-1.3,3.8-0.7c2,0.5,2.4,1.4,3.7,0.7c1.4-0.8,3.7-2.5,5.9-1.8"/>
	<path class="st17" d="M-82.9,6.9c0,0.3-0.2,0.6-0.5,0.6s-0.5-0.3-0.5-0.6s0.2-0.6,0.5-0.6C-83.1,6.4-82.9,6.6-82.9,6.9z"/>
	<path class="st17" d="M-78.1,6.7c0,0.3-0.2,0.6-0.5,0.6S-79,7-79,6.7s0.2-0.6,0.5-0.6C-78.3,6.2-78.1,6.4-78.1,6.7z"/>
	<path class="st17" d="M-79.8,8.3c0,0.2-0.4,0.4-0.9,0.4s-0.9-0.2-0.9-0.4c0-0.2,0.4-0.4,0.9-0.4C-80.2,8-79.8,8.1-79.8,8.3z"/>
	<path class="st24" d="M-72.3,11.1c0,0,2,1.4,2.5,4.5c0.4,3.1-1.1,4.4-2.7,4.9s-3.7-0.2-4.6-1.2s-1.2-1.9-1-2.1s0.8,0.6,0.8,0.6
		s-0.5-0.8-0.1-1c0.3-0.1,0.7,0.6,0.7,0.6s-0.3-0.7,0-0.9s0.5,0.6,0.5,0.6s-0.3-0.7,0-0.8c0.3-0.2,0.4,0.5,0.6,0.9
		c0.1,0.3,1,1,2.3,0.5c1.3-0.6,1.3-1.9,1.2-3.4C-72.3,12.7-72.3,11.1-72.3,11.1z"/>
	<path class="st25" d="M-72.3,11.1c0,0,2,1.4,2.5,4.5c0.4,3.1-1.1,4.4-2.7,4.9s-3.7-0.2-4.6-1.2s-1.2-1.9-1-2.1s0.8,0.6,0.8,0.6
		s-0.5-0.8-0.1-1c0.3-0.1,0.7,0.6,0.7,0.6s-0.3-0.7,0-0.9s0.5,0.6,0.5,0.6s-0.3-0.7,0-0.8c0.3-0.2,0.4,0.5,0.6,0.9
		c0.1,0.3,1,1,2.3,0.5c1.3-0.6,1.3-1.9,1.2-3.4C-72.3,12.7-72.3,11.1-72.3,11.1z"/>
	<path class="st23" d="M-81.4,10c0,0,0,1.4,0.9,1.4c1.1,0,1-0.9,1.1-1.4c0,0-0.7-0.1-1.2-1.1C-80.6,9-80.9,9.5-81.4,10z"/>
	<path class="st22" d="M-82.5,9.7c0,0,0.2,0.8,1,0.4c0.8-0.5,0.9-1.8,0.9-1.8"/>
	<path class="st22" d="M-78.2,9.5c0,0-1.1,1-1.9,0.3c-0.7-0.7-0.6-1.1-0.6-1.1"/>
	<path class="st25" d="M-74,6L-74,6c-1-3-3.6-5.1-6.7-5.1c-4,0-6.6,3.5-6.6,7.8c0,0.7,0.1,1.4,0.2,2l0,0c1,6.2,0.5,8.6-1.9,14.1
		s-2.8,12.1-3,16.2s0.7,4.9,1,3.8s2.8-7.8,4.6-9.4s4.3-1.6,4.5,0.7s-1.8,6.8-1.7,9.4s0.7,2.1,1.2,0.7s1.9-3.9,5.9-9s5.4-10.2,5.6-17
		S-74,6-74,6z"/>
	<path class="st25" d="M-93.8,3.8c0,0-0.2-1.2,1.3-1.1"/>
	<path class="st22" d="M-88.3,9c0,0,2.5-0.3,4.3,0.1"/>
	<path class="st22" d="M-88.3,10.3c0,0,1.9-0.5,4.3-0.6"/>
	<path class="st22" d="M-77.2,8.7c0,0,2.3-1,5.3-1.4"/>
	<path class="st22" d="M-77.2,9.4c0,0,1.9-0.6,4.4-0.5"/>
	<path class="st22" d="M-80.9,11.8c0,0,0.4,0.4,1.1,0"/>
	<path class="st22" d="M-39.7,14.9c0,0-0.4-1.4-0.8-5.6"/>
	<path class="st22" d="M-35.6,9.9c0,0,0.3,1.3,1.4,1.4c0.5,0.1,1.8,0.1,2.4-1.4"/>
	<path class="st22" d="M-36.8,8.9c0,0-0.6,0.3-0.2,0.9s1.8-0.1,2.5-0.5s0.8-0.1,1.1,0c0.3,0.1,1.4,0.8,2.5,0.6s0.8-1.1,0.2-1.2"/>
	<path class="st22" d="M-25.5,13.9c0,0,0.1,1.6,0,2c-0.1,0.4-0.3,1.3-0.9,1.6c-0.6,0.3-1.4,0.5-2,0.2c-0.6-0.3-0.7-0.9-0.8-1.2
		c-0.1-0.2-0.4-0.4-0.4-0.1c-0.1,0.3,0.1,0.7,0.1,0.7s-0.2-0.7-0.5-0.6s0,0.7,0,0.8c0,0-0.4-0.6-0.6-0.5c-0.2,0.1-0.1,0.7,0.1,1
		c0,0-0.5-0.8-0.8-0.6s0,0.8,0.4,1.4c0.4,0.5,1.4,2.1,3.6,2.1c2.2,0,4.1-1.1,4.3-3.7c0.1-2.6-1.1-4.9-2.5-5.9"/>
	
		<image style="display:inline;overflow:visible;enable-background:new    ;" width="1131" height="1495" xlink:href="762D2FE0.jpeg"  transform="matrix(7.533616e-02 0 0 7.533616e-02 8.9111 -18.2912)">
	</image>
</g>
<g>
	<path class="st15" d="M93.3,40.3c-0.4,0-0.9,0-1.3,0l-0.9-0.1c-0.3,0-0.6-0.1-0.9-0.1c-0.7-0.1-1.3-0.2-1.9-0.4
		c-0.5-0.1-1.1-0.3-1.8-0.5c-1.1-0.3-2.2-0.8-3.5-1.6c-1-0.6-1.9-1.2-2.8-1.8c-0.5-0.4-1.1-0.8-1.6-1.1c-1.4-0.9-3-1.9-4.8-2.9
		c-0.3-0.2-0.6-0.3-0.9-0.5c-0.9-0.5-1.8-1-2.8-1.1c-0.2,0-0.3,0-0.5,0c-0.7,0-1.3,0.1-2,0.3c-0.4,0.1-0.9,0.2-1.3,0.3
		c-0.1,0-0.2,0-0.2,0c-0.2,0-0.4-0.1-0.5-0.2l-0.3-0.3l0.4-0.3c1.3-1,3.2-1.6,5.1-1.6l0.1,0c1.8,0,3.7,0.6,5.1,1.5
		c0.8,0.5,1.5,1.2,2.2,1.8c0.2,0.2,0.5,0.5,0.8,0.7c1.2,1,2.3,1.8,3.5,2.4c1.3,0.6,2.8,1,4.2,1.4l0.5,0.1c0.5,0.1,1,0.2,1.4,0.3
		c0.7,0.1,1.2,0.2,1.7,0.2c0.6,0.1,1.1,0.1,1.6,0.1c0.5,0,1.1,0.1,1.6,0.1c0.2,0,0.4,0,0.5,0c0.3,0,0.6,0,0.9,0c0.5,0,0.9,0,1.4-0.1
		l0.2,0c0.4,0,0.7-0.1,1-0.1c0.2,0,0.3-0.1,0.5-0.1c0.2,0,0.4-0.1,0.6-0.1c0.4-0.1,0.7-0.2,1-0.2l0.3-0.1c0.2-0.1,0.3-0.1,0.5-0.2
		c0.3-0.1,0.6-0.2,0.8-0.3c0.1-0.1,0.2-0.1,0.3-0.1l0.7-0.3l0.4,0.4l0,0.2c0,0.2-0.1,0.2-0.4,0.5c-0.1,0.1-0.1,0.2-0.2,0.3l0,0.1
		c-0.3,0.9-1.2,1.4-1.8,1.6c-0.4,0.2-0.8,0.4-1.2,0.6c-0.4,0.2-0.8,0.4-1.2,0.5c-0.8,0.3-1.7,0.5-2.6,0.6
		C94.7,40.3,94,40.3,93.3,40.3z"/>
	<path class="st16" d="M70.9,28.8c0,0,0.1,0,0.1,0c1.8,0,3.5,0.5,4.9,1.5c1.1,0.7,2,1.6,2.9,2.5c1.1,1,2.3,1.8,3.6,2.5
		c1.4,0.7,3,1.1,4.6,1.5c0.6,0.1,1.1,0.3,1.7,0.4c0.6,0.1,1.1,0.2,1.7,0.2c0.6,0.1,1.1,0.1,1.6,0.1c0.5,0,1.1,0.1,1.6,0.1
		c0.2,0,0.4,0,0.5,0c0.3,0,0.6,0,1,0c0.5,0,0.9,0,1.4-0.1c0.4,0,0.9-0.1,1.3-0.2c0.4-0.1,0.8-0.1,1.1-0.2c0.4-0.1,0.7-0.2,1-0.2
		c0.3-0.1,0.6-0.2,0.8-0.3c0.5-0.1,0.9-0.3,1.1-0.5c0.3-0.1,0.4-0.2,0.4-0.2s0.1,0.1,0.1,0.1c0,0-0.3,0.3-0.3,0.3
		c-0.2,0.2-0.2,0.3-0.3,0.5c-0.2,0.6-0.9,1.1-1.5,1.3c-0.8,0.3-1.6,0.8-2.4,1.1c-0.8,0.3-1.7,0.5-2.5,0.6c-0.7,0.1-1.4,0.1-2.1,0.1
		c-0.4,0-0.8,0-1.2,0c-0.3,0-0.6,0-0.9-0.1c-0.3,0-0.6-0.1-0.9-0.1c-0.6-0.1-1.2-0.2-1.8-0.4c-0.6-0.1-1.2-0.3-1.8-0.5
		c-1.2-0.4-2.3-0.9-3.4-1.5c-1.5-0.9-2.9-2-4.4-2.9c-1.5-1-3.1-2-4.8-2.9c-0.3-0.2-0.6-0.3-0.9-0.5c-0.9-0.5-1.9-1-2.9-1.1
		c-0.2,0-0.3,0-0.5,0c-0.7,0-1.4,0.1-2.1,0.3c-0.4,0.1-0.9,0.2-1.3,0.3c0,0-0.1,0-0.2,0c-0.1,0-0.1,0-0.2-0.1
		C67.4,29.3,69.2,28.8,70.9,28.8 M70.9,28c-2,0-4,0.6-5.3,1.7l-0.7,0.6l0.7,0.6c0.1,0.1,0.4,0.3,0.7,0.3c0.1,0,0.2,0,0.3,0
		c0.4-0.1,0.9-0.2,1.3-0.3c0.7-0.1,1.3-0.3,1.9-0.3c0.1,0,0.3,0,0.4,0c0.9,0.1,1.7,0.5,2.6,1c0.3,0.2,0.6,0.3,0.9,0.5
		c1.8,1,3.3,1.9,4.7,2.9c0.5,0.4,1.1,0.7,1.6,1.1c0.9,0.6,1.8,1.3,2.8,1.9c1.3,0.8,2.4,1.3,3.5,1.6c0.7,0.2,1.3,0.4,1.9,0.5
		c0.5,0.1,1.2,0.3,1.9,0.4c0.3,0,0.6,0.1,0.9,0.1l0,0l0,0l0.9,0.1c0.4,0,0.9,0,1.3,0c0.7,0,1.4,0,2.2-0.1c1-0.1,1.9-0.3,2.8-0.7
		c0.4-0.2,0.8-0.4,1.2-0.5c0.4-0.2,0.8-0.4,1.2-0.5c1-0.4,1.7-1,2-1.8l0-0.1c0,0,0-0.1,0-0.1l0,0c0.3-0.3,0.5-0.4,0.5-0.8l0-0.3
		l-0.2-0.2c0,0-0.2-0.2-0.2-0.2l-0.4-0.4l-0.5,0.2c0,0-0.2,0.1-0.4,0.2c-0.1,0-0.2,0.1-0.3,0.1c-0.2,0.1-0.4,0.2-0.7,0.3
		c-0.2,0.1-0.4,0.1-0.5,0.2L99.7,36c-0.3,0.1-0.6,0.1-1,0.2c-0.2,0.1-0.4,0.1-0.6,0.1c-0.2,0-0.3,0-0.5,0.1c-0.3,0.1-0.7,0.1-1,0.1
		l-0.2,0c-0.4,0.1-0.9,0.1-1.3,0.1h0l0,0c-0.3,0-0.6,0-0.9,0c-0.2,0-0.3,0-0.5,0c-0.6,0-1.1,0-1.6-0.1c-0.5,0-1-0.1-1.6-0.1l-0.1,0
		c-0.5,0-1-0.1-1.6-0.2c-0.5-0.1-1-0.2-1.4-0.3l-0.2-0.1L87,35.8c-1.4-0.4-2.9-0.7-4.2-1.4c-1.2-0.6-2.3-1.3-3.5-2.4
		c-0.3-0.2-0.5-0.4-0.7-0.7c-0.7-0.6-1.4-1.3-2.3-1.9c-1.5-1-3.4-1.6-5.3-1.6L70.9,28L70.9,28z"/>
</g>
<g>
	<path class="st28" d="M83.8,36.8c1.4,0.5,2.7,0.9,4.1,1.2c1.4,0.3,2.8,0.6,4.2,0.7c1.4,0.1,2.8,0.1,4.2-0.2c1.4-0.3,2.7-0.8,4-1.5
		c-1.1,0.9-2.5,1.5-3.9,1.8c-1.4,0.3-2.9,0.4-4.4,0.3c-1.5-0.1-2.9-0.4-4.3-0.8C86.4,38,85,37.5,83.8,36.8z"/>
</g>
<g>
	<path class="st28" d="M68.2,29.8c1-0.5,2.1-0.7,3.2-0.6c1.1,0,2.2,0.4,3.2,0.8c1,0.4,1.9,1.1,2.7,1.8c0.4,0.4,0.8,0.8,1.2,1.1
		c0.3,0.4,0.7,0.8,1,1.3c-0.4-0.4-0.8-0.7-1.2-1.1c-0.4-0.3-0.8-0.7-1.2-1c-0.9-0.6-1.7-1.2-2.7-1.7c-0.9-0.4-1.9-0.8-3-0.9
		C70.3,29.5,69.2,29.5,68.2,29.8z"/>
</g>
</svg>
