<?xml version="1.0" encoding="UTF-8" standalone="no"?>
<svg
   xmlns:dc="http://purl.org/dc/elements/1.1/"
   xmlns:cc="http://creativecommons.org/ns#"
   xmlns:rdf="http://www.w3.org/1999/02/22-rdf-syntax-ns#"
   xmlns:svg="http://www.w3.org/2000/svg"
   xmlns="http://www.w3.org/2000/svg"
   xmlns:sodipodi="http://sodipodi.sourceforge.net/DTD/sodipodi-0.dtd"
   xmlns:inkscape="http://www.inkscape.org/namespaces/inkscape"
   version="1.1"
   id="圖層_1"
   x="0px"
   y="0px"
   viewBox="0 0 549.4 271.3"
   style="enable-background:new 0 0 549.4 271.3;"
   xml:space="preserve"
   sodipodi:docname="b04-expl-9.svg"
   inkscape:export-xdpi="96"
   inkscape:export-ydpi="96"
   inkscape:version="1.0.1 (3bc2e813f5, 2020-09-07)"><metadata
   id="metadata249"><rdf:RDF><cc:Work
       rdf:about=""><dc:format>image/svg+xml</dc:format><dc:type
         rdf:resource="http://purl.org/dc/dcmitype/StillImage" /></cc:Work></rdf:RDF></metadata><defs
   id="defs247" /><sodipodi:namedview
   pagecolor="#ffffff"
   bordercolor="#666666"
   borderopacity="1"
   objecttolerance="10"
   gridtolerance="10"
   guidetolerance="10"
   inkscape:pageopacity="0"
   inkscape:pageshadow="2"
   inkscape:window-width="1920"
   inkscape:window-height="1017"
   id="namedview245"
   showgrid="false"
   inkscape:zoom="1.9634292"
   inkscape:cx="263.49513"
   inkscape:cy="135.64999"
   inkscape:window-x="-8"
   inkscape:window-y="-8"
   inkscape:window-maximized="1"
   inkscape:current-layer="圖層_1" />
<style
   type="text/css"
   id="style2">
	.st0{fill:none;stroke:#C6BA45;stroke-width:5;stroke-miterlimit:10;}
	.st1{fill:none;}
	.st2{fill-rule:evenodd;clip-rule:evenodd;fill:#D5D5D5;}
	.st3{fill:none;stroke:#4B7744;stroke-width:5;stroke-miterlimit:10;}
	.st4{fill:#5E5E5E;}
	.st5{fill:#929292;}
	.st6{fill:#FFFFFF;}
	.st7{fill-rule:evenodd;clip-rule:evenodd;fill:#211815;}
</style>
<line
   class="st0"
   x1="356.4"
   y1="226.3"
   x2="356.4"
   y2="87.8"
   id="line4"
   style="stroke:#4b7744;stroke-opacity:1" />
<line
   class="st0"
   x1="344.7"
   y1="92.6"
   x2="515.7"
   y2="92.6"
   id="line6"
   style="stroke:#4b7744;stroke-opacity:1" />
<g
   id="g104">
	<g
   id="g18">
		<g
   id="g10">
			<path
   class="st1"
   d="M69.9,110.5c14.6-11.7,30.5-21.7,47.2-29.6L85.1,13.1c-5.6,2.6-11,5.4-16.4,8.4c-5.4,3-10.6,6.1-15.8,9.3     C42.5,37.3,32.6,44.4,23.1,52L69.9,110.5z"
   id="path8" />
		</g>
		<path
   class="st2"
   d="M84.9,52.3l3.6,6.6c1.7-1,3.5-1.9,5.2-2.8l5.2-2.7l-3.3-6.7l-5.4,2.7C88.5,50.4,86.7,51.3,84.9,52.3z"
   id="path12" />
		<path
   class="st2"
   d="M66.3,63.5l4.1,6.3c3.3-2.2,6.6-4.2,10-6.3l-3.9-6.4C73.1,59.2,69.7,61.3,66.3,63.5z"
   id="path14" />
		<path
   class="st2"
   d="M48.7,76.1l4.6,5.9c3.1-2.4,6.3-4.7,9.5-7l-4.3-6.1C55.2,71.3,51.9,73.6,48.7,76.1z"
   id="path16" />
	</g>
	<g
   id="g30">
		<g
   id="g22">
			<path
   class="st1"
   d="M117.2,80.9c16.7-7.9,34.1-13.6,51.6-16.6L156.1-9.6c-24.9,4.3-48.8,12.2-71,22.7L117.2,80.9z"
   id="path20" />
		</g>
		<path
   class="st2"
   d="M145.4,28.2l1.8,7.3c1.9-0.5,3.8-0.9,5.7-1.3l2.9-0.6c1-0.2,1.9-0.4,2.9-0.6l-1.4-7.4c-1,0.2-2,0.4-3,0.6    l-3,0.7C149.3,27.3,147.4,27.7,145.4,28.2z"
   id="path24" />
		<path
   class="st2"
   d="M124.6,34.5l2.5,7.1c3.7-1.3,7.4-2.5,11.2-3.6l-2.1-7.2C132.3,31.9,128.4,33.1,124.6,34.5z"
   id="path26" />
		<path
   class="st2"
   d="M104.5,42.5l3.1,6.8c3.6-1.6,7.2-3.1,10.8-4.6l-2.8-7C111.9,39.3,108.2,40.9,104.5,42.5z"
   id="path28" />
	</g>
	<g
   id="g42">
		<g
   id="g34">
			<path
   class="st1"
   d="M168.8,64.3c8.8-1.5,17.6-2.3,26.4-2.5c2.2-0.1,4.4,0,6.6,0c2.2,0,4.4,0.2,6.6,0.3l1.7,0.1l1.6,0.2l3.3,0.3     c2.2,0.2,4.4,0.4,6.5,0.8L232-10.8c-25.3-3.6-51-3-75.9,1.2L168.8,64.3z"
   id="path32" />
		</g>
		<path
   class="st2"
   d="M210.3,22l-0.4,7.5c1,0.1,2,0.1,2.9,0.2l2.9,0.3l5.8,0.6l0.9-7.4l-6-0.6l-3-0.3    C212.3,22.1,211.3,22.1,210.3,22z"
   id="path36" />
		<path
   class="st2"
   d="M188.5,21.9l0.3,7.5c1.9-0.1,3.9-0.1,5.9-0.2l2.9-0.1l2.9,0l0.1-7.5l-3,0l-3,0.1    C192.5,21.7,190.5,21.7,188.5,21.9z"
   id="path38" />
		<path
   class="st2"
   d="M166.9,24l1.1,7.4c1.9-0.3,3.9-0.5,5.8-0.8c1.9-0.3,3.9-0.4,5.8-0.6l-0.7-7.5c-2,0.2-4,0.4-6,0.6    C170.9,23.4,168.9,23.6,166.9,24z"
   id="path40" />
	</g>
	<g
   id="g54">
		<g
   id="g46">
			<path
   class="st1"
   d="M221.6,63.4l6.5,1l6.4,1.4c2.1,0.4,4.2,1,6.4,1.6l3.2,0.8c1.1,0.3,2.1,0.7,3.1,1c8.4,2.5,16.7,5.9,24.9,9.9     l32.4-67.6C282.3,0.6,257.4-7.3,232-10.8L221.6,63.4z"
   id="path44" />
		</g>
		<path
   class="st2"
   d="M273.9,36.1l-2.7,7l1.4,0.5l1.3,0.6l2.7,1.2c1.8,0.8,3.6,1.5,5.4,2.3l3.1-6.8c-1.8-0.8-3.7-1.6-5.6-2.4    l-2.8-1.2l-1.4-0.6L273.9,36.1z"
   id="path48" />
		<path
   class="st2"
   d="M253.3,29.1l-2,7.2c0.9,0.3,1.9,0.5,2.8,0.8l2.8,0.9l5.6,1.8l2.4-7.1l-5.8-1.9l-2.9-0.9    C255.2,29.7,254.2,29.4,253.3,29.1z"
   id="path50" />
		<path
   class="st2"
   d="M232.1,24.4l-1.2,7.4l2.9,0.4c1,0.2,1.9,0.4,2.9,0.6l5.7,1.2l1.7-7.3l-5.9-1.3c-1-0.2-2-0.4-3-0.6L232.1,24.4    z"
   id="path52" />
	</g>
	<g
   id="g66">
		<g
   id="g58">
			<path
   class="st1"
   d="M272.1,79.1c8.3,4,16.5,8.5,24.8,13.7c8.3,5.1,16.6,10.8,25.2,16.7L364.9,48c-9.1-6.4-18.6-12.8-28.7-19     c-10-6.2-20.6-12.1-31.8-17.5L272.1,79.1z"
   id="path56" />
		</g>
		<path
   class="st2"
   d="M331.1,67.1l-4.2,6.2c3.3,2.2,6.6,4.4,9.9,6.7l4.3-6.2C337.7,71.5,334.4,69.3,331.1,67.1z"
   id="path60" />
		<path
   class="st2"
   d="M312.8,55.5l-3.8,6.4c3.4,2,6.8,4.1,10.1,6.2l4-6.3C319.7,59.6,316.3,57.6,312.8,55.5z"
   id="path62" />
		<polygon
   class="st2"
   points="293.9,45 290.5,51.7 295.7,54.5 298.3,55.8 300.9,57.3 304.6,50.7 301.9,49.2 299.2,47.8   "
   id="polygon64" />
	</g>
	<g
   id="g78">
		<g
   id="g70">
			<path
   class="st1"
   d="M322,109.5l13,9.1l6,4.4c2,1.5,4,2.9,5.9,4.4l5.8,4.6c1,0.8,2,1.5,2.9,2.3l2.8,2.4l5.7,4.7l5.6,4.9     l49.7-56.1l-6.6-5.8l-6.7-5.6l-3.4-2.8c-1.1-0.9-2.3-1.8-3.4-2.7l-6.9-5.4c-2.3-1.8-4.7-3.5-7-5.2l-7-5.2L364.9,48L322,109.5z"
   id="path68" />
		</g>
		<polygon
   class="st2"
   points="383.5,105.2 378.7,111 383.3,114.8 385.6,116.7 387.8,118.7 392.7,113 390.5,111 388.1,109.1   "
   id="polygon72" />
		<path
   class="st2"
   d="M366.5,91.9l-4.5,6c3.2,2.3,6.3,4.8,9.4,7.2l4.6-5.9C372.9,96.8,369.7,94.3,366.5,91.9z"
   id="path74" />
		<polygon
   class="st2"
   points="349,79.4 344.7,85.5 354.4,92.4 358.8,86.3   "
   id="polygon76" />
	</g>
	<g
   id="g90">
		<g
   id="g82">
			<path
   class="st1"
   d="M369.7,146.2c14.8,13,28.6,27.3,41.4,42.3l57.2-48.5c-15.1-17.7-31.4-34.5-48.9-49.9L369.7,146.2z"
   id="path80" />
		</g>
		<path
   class="st2"
   d="M430.6,149.9l-5.5,5.1c2.7,2.9,5.3,5.9,7.9,8.9l5.7-4.9C436,155.9,433.3,152.9,430.6,149.9z"
   id="path84" />
		<path
   class="st2"
   d="M415.6,134.3l-5.3,5.3c2.9,2.7,5.5,5.7,8.3,8.5l5.4-5.2C421.3,140.1,418.5,137.1,415.6,134.3z"
   id="path86" />
		<polygon
   class="st2"
   points="400,119.4 395,125 403.7,133.1 408.9,127.7   "
   id="polygon88" />
	</g>
	<g
   id="g102">
		<g
   id="g94">
			<path
   class="st1"
   d="M411.1,188.6c12.8,15.1,24.6,31.1,35.2,47.8l63.3-40.2c-12.4-19.6-26.3-38.4-41.3-56.1L411.1,188.6z"
   id="path92" />
		</g>
		<path
   class="st2"
   d="M471,200.8l-6.2,4.2c2.2,3.3,4.5,6.5,6.6,9.9l6.3-4.1C475.5,207.4,473.2,204.1,471,200.8z"
   id="path96" />
		<path
   class="st2"
   d="M458.3,183.3l-6,4.5c2.4,3.1,4.7,6.4,7,9.6l6.1-4.4C463.1,189.7,460.8,186.4,458.3,183.3z"
   id="path98" />
		<path
   class="st2"
   d="M444.9,166.4l-5.8,4.8c2.6,3,5,6.1,7.5,9.2l5.9-4.6C450,172.6,447.5,169.4,444.9,166.4z"
   id="path100" />
	</g>
</g>
<g
   id="g142">
	<g
   id="g116">
		<g
   id="g108">
			
				<rect
   x="281.1"
   y="86.2"
   transform="matrix(0.7768 -0.6298 0.6298 0.7768 -8.4446 223.5749)"
   class="st1"
   width="60.1"
   height="75"
   id="rect106" />
		</g>
		
			<rect
   x="289.4"
   y="131.7"
   transform="matrix(0.7768 -0.6298 0.6298 0.7768 -19.4753 215.969)"
   class="st2"
   width="11.2"
   height="7.5"
   id="rect110" />
		
			<rect
   x="304.9"
   y="119.1"
   transform="matrix(0.7768 -0.6298 0.6298 0.7768 -8.0759 222.9407)"
   class="st2"
   width="11.2"
   height="7.5"
   id="rect112" />
		
			<rect
   x="320.4"
   y="106.6"
   transform="matrix(0.7768 -0.6298 0.6298 0.7768 3.2864 229.8904)"
   class="st2"
   width="11.2"
   height="7.5"
   id="rect114" />
	</g>
	<g
   id="g128">
		<g
   id="g120">
			
				<rect
   x="234.5"
   y="124"
   transform="matrix(0.7768 -0.6298 0.6298 0.7768 -42.6868 202.6309)"
   class="st1"
   width="60.1"
   height="75"
   id="rect118" />
		</g>
		
			<rect
   x="242.7"
   y="169.5"
   transform="matrix(0.7768 -0.6298 0.6298 0.7768 -53.7175 195.0243)"
   class="st2"
   width="11.2"
   height="7.5"
   id="rect122" />
		
			<rect
   x="258.2"
   y="156.9"
   transform="matrix(0.7768 -0.6298 0.6298 0.7768 -42.3178 201.9976)"
   class="st2"
   width="11.2"
   height="7.5"
   id="rect124" />
		
			<rect
   x="273.7"
   y="144.4"
   transform="matrix(0.7768 -0.6298 0.6298 0.7768 -30.9555 208.9472)"
   class="st2"
   width="11.2"
   height="7.5"
   id="rect126" />
	</g>
	<g
   id="g140">
		<g
   id="g132">
			
				<rect
   x="187.8"
   y="161.9"
   transform="matrix(0.7768 -0.6298 0.6298 0.7768 -76.9289 181.6869)"
   class="st1"
   width="60.1"
   height="75"
   id="rect130" />
		</g>
		
			<rect
   x="196"
   y="207.4"
   transform="matrix(0.7768 -0.6298 0.6298 0.7768 -87.9597 174.0807)"
   class="st2"
   width="11.2"
   height="7.5"
   id="rect134" />
		
			<rect
   x="211.6"
   y="194.8"
   transform="matrix(0.7768 -0.6298 0.6298 0.7768 -76.56 181.0532)"
   class="st2"
   width="11.2"
   height="7.5"
   id="rect136" />
		
			<rect
   x="227"
   y="182.2"
   transform="matrix(0.7768 -0.6298 0.6298 0.7768 -65.1978 188.0029)"
   class="st2"
   width="11.2"
   height="7.5"
   id="rect138" />
	</g>
</g>
<g
   id="g168">
	<g
   id="g154">
		<g
   id="g146">
			
				<rect
   x="276.8"
   y="53.3"
   transform="matrix(9.433542e-03 -1 1 9.433542e-03 218.2932 406.37)"
   class="st1"
   width="75"
   height="79.5"
   id="rect144" />
		</g>
		
			<rect
   x="284"
   y="84.3"
   transform="matrix(9.431968e-03 -1 1 9.431968e-03 193.4029 378.5491)"
   class="st2"
   width="7.5"
   height="14.8"
   id="rect148" />
		
			<rect
   x="310.5"
   y="84.5"
   transform="matrix(9.431968e-03 -1 1 9.431968e-03 219.3701 405.2618)"
   class="st2"
   width="7.5"
   height="14.8"
   id="rect150" />
		
			<rect
   x="336.9"
   y="84.8"
   transform="matrix(9.436037e-03 -1 1 9.436037e-03 245.2509 431.8865)"
   class="st2"
   width="7.5"
   height="14.8"
   id="rect152" />
	</g>
	<g
   id="g166">
		<g
   id="g158">
			
				<rect
   x="197.3"
   y="52.5"
   transform="matrix(9.433542e-03 -1 1 9.433542e-03 140.2932 326.1306)"
   class="st1"
   width="75"
   height="79.5"
   id="rect156" />
		</g>
		
			<rect
   x="204.5"
   y="83.5"
   transform="matrix(9.431968e-03 -1 1 9.431968e-03 115.4027 298.3097)"
   class="st2"
   width="7.5"
   height="14.8"
   id="rect160" />
		
			<rect
   x="231"
   y="83.8"
   transform="matrix(9.431968e-03 -1 1 9.431968e-03 141.3699 325.0224)"
   class="st2"
   width="7.5"
   height="14.8"
   id="rect162" />
		
			<rect
   x="257.4"
   y="84"
   transform="matrix(9.436037e-03 -1 1 9.436037e-03 167.251 351.6472)"
   class="st2"
   width="7.5"
   height="14.8"
   id="rect164" />
	</g>
</g>
<line
   class="st3"
   x1="37.5"
   y1="92.6"
   x2="188.5"
   y2="92.6"
   id="line170" />
<line
   class="st3"
   x1="185.3"
   y1="231.8"
   x2="185.3"
   y2="93.3"
   id="line172" />
<line
   class="st3"
   x1="501.7"
   y1="229.3"
   x2="501.7"
   y2="90.8"
   id="line174" />
<line
   class="st3"
   x1="186"
   y1="230.3"
   x2="357"
   y2="230.3"
   id="line176" />
<circle
   class="st4"
   cx="38.3"
   cy="92.6"
   r="32"
   id="circle178" />
<circle
   class="st4"
   cx="185.3"
   cy="92.6"
   r="32"
   id="circle180" />
<circle
   class="st4"
   cx="185.3"
   cy="230.3"
   r="32"
   id="circle182" />
<circle
   class="st4"
   cx="356.4"
   cy="230.3"
   r="32"
   id="circle184" />
<circle
   class="st4"
   cx="357"
   cy="92.6"
   r="32"
   id="circle186" />
<circle
   class="st4"
   cx="501.7"
   cy="92.6"
   r="32"
   id="circle188" />
<circle
   class="st4"
   cx="501.7"
   cy="230.3"
   r="32"
   id="circle190" />
<g
   id="g196">
	<path
   class="st5"
   d="M230.3,16.1c0.2-0.5,0.6-1.5,1.2-1.1c0.2,0.1,0.3,0.2,0.4,0.4c0.4,0.5,0.6,1,0.9,1.6c1.3,2.6,3.3,5.1,4.9,7.5   c1.8,2.8,3.7,5.4,6.1,7.6c0.7,0.6,1.9,1.6,2,2.6c0,0.9-1,1.7-1.4,2.5c-0.1,0.1-0.2,0.4-0.5,0.7c-0.9,1-1.2,0.1-2.2,0.3   c-0.5,0.1-0.8,0.6-1.3,0.7c-1,0.3-1.9-0.8-2.4-1.8c-1.8-3.5-3.6-7-5.4-10.5c-1.2-2.4-4.8-7-4.4-9.7c0.1-0.5,0.3-0.9,0.4-1.2"
   id="path192" />
	<path
   class="st5"
   d="M244.9,13c0.4-0.1,1,0.2,1.2,0.7c0.3,0.6-0.3,1.2,0,1.5c0.3,0.4,1.2-0.2,1.7,0.2c0.4,0.4,0.2,1.1,0.2,1.3   c-0.2,0.9-0.8,1.4-1,1.5c-1.3,1.2-2.6,2.4-3.9,3.6c-1,0.9-1.2,1.3-3.3,4.2c-4.2,5.7-4.1,4.8-6.1,7.8c-2.4,3.6-4.4,7.6-5.5,7.3   c-0.5-0.2-0.6-1.1-1.6-1.3c-0.4-0.1-0.5,0.1-0.9-0.1c-0.5-0.2-1-0.6-1.3-1.2c-0.1-0.3-0.1-0.5-0.1-1.1c0-0.5,0-1.1,0.2-1.7   c0.3-1,0.9-1.7,1.2-2c1.5-1.6,2.8-3.4,4.3-4.9c3.4-3.3,2.5-3.5,6.4-7.4c1.2-1.2,3.3-3.2,4.5-4.3c2.7-2.5,2.8-2.5,3.1-3.1   C244.1,13.7,244.4,13,244.9,13z"
   id="path194" />
</g>
<g
   id="g202">
	<path
   class="st5"
   d="M258.3,81.5c0.2-0.5,0.6-1.5,1.2-1.1c0.2,0.1,0.3,0.2,0.4,0.4c0.4,0.5,0.6,1,0.9,1.6c1.3,2.6,3.3,5.1,4.9,7.5   c1.8,2.8,3.7,5.4,6.1,7.6c0.7,0.6,1.9,1.6,2,2.6c0,0.9-1,1.7-1.4,2.5c-0.1,0.1-0.2,0.4-0.5,0.7c-0.9,1-1.2,0.1-2.2,0.3   c-0.5,0.1-0.8,0.6-1.3,0.7c-1,0.3-1.9-0.8-2.4-1.8c-1.8-3.5-3.6-7-5.4-10.5c-1.2-2.4-4.8-7-4.4-9.7c0.1-0.5,0.3-0.9,0.4-1.2"
   id="path198" />
	<path
   class="st5"
   d="M272.9,78.3c0.4-0.1,1,0.2,1.2,0.7c0.3,0.6-0.3,1.2,0,1.5c0.3,0.4,1.2-0.2,1.7,0.2c0.4,0.4,0.2,1.1,0.2,1.3   c-0.2,0.9-0.8,1.4-1,1.5c-1.3,1.2-2.6,2.4-3.9,3.6c-1,0.9-1.2,1.3-3.3,4.2c-4.2,5.7-4.1,4.8-6.1,7.8c-2.4,3.6-4.4,7.6-5.5,7.3   c-0.5-0.2-0.6-1.1-1.6-1.3c-0.4-0.1-0.5,0.1-0.9-0.1c-0.5-0.2-1-0.6-1.3-1.2c-0.1-0.3-0.1-0.5-0.1-1.1c0-0.5,0-1.1,0.2-1.7   c0.3-1,0.9-1.7,1.2-2c1.5-1.6,2.8-3.4,4.3-4.9c3.4-3.3,2.5-3.5,6.4-7.4c1.2-1.2,3.3-3.2,4.5-4.3c2.7-2.5,2.8-2.5,3.1-3.1   C272.1,79,272.4,78.4,272.9,78.3z"
   id="path200" />
</g>
<g
   id="g208">
	<path
   class="st5"
   d="M269.6,143.5c0.2-0.5,0.6-1.5,1.2-1.1c0.2,0.1,0.3,0.2,0.4,0.4c0.4,0.5,0.6,1,0.9,1.6c1.3,2.6,3.3,5.1,4.9,7.5   c1.8,2.8,3.7,5.4,6.1,7.6c0.7,0.6,1.9,1.6,2,2.6c0,0.9-1,1.7-1.4,2.5c-0.1,0.1-0.2,0.4-0.5,0.7c-0.9,1-1.2,0.1-2.2,0.3   c-0.5,0.1-0.8,0.6-1.3,0.7c-1,0.3-1.9-0.8-2.4-1.8c-1.8-3.5-3.6-7-5.4-10.5c-1.2-2.4-4.8-7-4.4-9.7c0.1-0.5,0.3-0.9,0.4-1.2"
   id="path204" />
	<path
   class="st5"
   d="M284.3,140.3c0.4-0.1,1,0.2,1.2,0.7c0.3,0.6-0.3,1.2,0,1.5c0.3,0.4,1.2-0.2,1.7,0.2c0.4,0.4,0.2,1.1,0.2,1.3   c-0.2,0.9-0.8,1.4-1,1.5c-1.3,1.2-2.6,2.4-3.9,3.6c-1,0.9-1.2,1.3-3.3,4.2c-4.2,5.7-4.1,4.8-6.1,7.8c-2.4,3.6-4.4,7.6-5.5,7.3   c-0.5-0.2-0.6-1.1-1.6-1.3c-0.4-0.1-0.5,0.1-0.9-0.1c-0.5-0.2-1-0.6-1.3-1.2c-0.1-0.3-0.1-0.5-0.1-1.1c0-0.5,0-1.1,0.2-1.7   c0.3-1,0.9-1.7,1.2-2c1.5-1.6,2.8-3.4,4.3-4.9c3.4-3.3,2.5-3.5,6.4-7.4c1.2-1.2,3.3-3.2,4.5-4.3c2.7-2.5,2.8-2.5,3.1-3.1   C283.5,141,283.7,140.4,284.3,140.3z"
   id="path206" />
</g>
<g
   id="g214">
	<path
   class="st5"
   d="M430.3,146.8c0.2-0.5,0.6-1.5,1.2-1.1c0.2,0.1,0.3,0.2,0.4,0.4c0.4,0.5,0.6,1,0.9,1.6c1.3,2.6,3.3,5.1,4.9,7.5   c1.8,2.8,3.7,5.4,6.1,7.6c0.7,0.6,1.9,1.6,2,2.6c0,0.9-1,1.7-1.4,2.5c-0.1,0.1-0.2,0.4-0.5,0.7c-0.9,1-1.2,0.1-2.2,0.3   c-0.5,0.1-0.8,0.6-1.3,0.7c-1,0.3-1.9-0.8-2.4-1.8c-1.8-3.5-3.6-7-5.4-10.5c-1.2-2.4-4.8-7-4.4-9.7c0.1-0.5,0.3-0.9,0.4-1.2"
   id="path210" />
	<path
   class="st5"
   d="M444.9,143.6c0.4-0.1,1,0.2,1.2,0.7c0.3,0.6-0.3,1.2,0,1.5c0.3,0.4,1.2-0.2,1.7,0.2c0.4,0.4,0.2,1.1,0.2,1.3   c-0.2,0.9-0.8,1.4-1,1.5c-1.3,1.2-2.6,2.4-3.9,3.6c-1,0.9-1.2,1.3-3.3,4.2c-4.2,5.7-4.1,4.8-6.1,7.8c-2.4,3.6-4.4,7.6-5.5,7.3   c-0.5-0.2-0.6-1.1-1.6-1.3c-0.4-0.1-0.5,0.1-0.9-0.1c-0.5-0.2-1-0.6-1.3-1.2c-0.1-0.3-0.1-0.5-0.1-1.1c0-0.5,0-1.1,0.2-1.7   c0.3-1,0.9-1.7,1.2-2c1.5-1.6,2.8-3.4,4.3-4.9c3.4-3.3,2.5-3.5,6.4-7.4c1.2-1.2,3.3-3.2,4.5-4.3c2.7-2.5,2.8-2.5,3.1-3.1   C444.1,144.3,444.4,143.7,444.9,143.6z"
   id="path212" />
</g>
<g
   id="g218">
	<path
   class="st6"
   d="M353.7,74.8h5.1l12.5,30.8h-6.7l-2.5-6h-11.8l-2.4,6h-6.6L353.7,74.8z M356.3,84.9l-3.6,9.1h7.3L356.3,84.9z"
   id="path216" />
</g>
<g
   id="g222">
	<path
   class="st6"
   d="M492.4,213.8h9c3.7,0,6.3,0.8,7.7,2.3c1.4,1.6,2.1,3.4,2.1,5.5c0,1.3-0.3,2.4-0.8,3.4   c-0.5,0.9-1.3,1.8-2.4,2.8c2.1,0.7,3.6,1.8,4.5,3.2s1.3,3,1.3,4.6c0,2.8-1,5-2.9,6.6s-4.7,2.4-8.2,2.4h-10.3V213.8z M499,219v6.8   h1.5c1.1,0,2.1-0.4,2.8-1.1s1.1-1.6,1.1-2.6c0-0.8-0.4-1.6-1.1-2.2c-0.7-0.6-1.7-0.9-2.8-0.9H499z M499,231v8.5h2.4   c3.6,0,5.5-1.3,5.5-4c0-1.4-0.4-2.5-1.3-3.3c-0.9-0.8-2.2-1.2-3.8-1.2H499z"
   id="path220" />
</g>
<g
   id="g226">
	<path
   class="st6"
   d="M511,79.2v7.5c-3.3-2-6.2-3-8.7-3s-4.5,0.9-6,2.6s-2.3,4-2.3,6.9c0,2.8,0.8,4.9,2.4,6.6s3.7,2.5,6.3,2.5   c2.3,0,5.1-0.9,8.3-2.8v7.5c-3.6,1.2-6.6,1.8-9,1.8c-4.1,0-7.7-1.5-10.5-4.6S487,97.4,487,93c0-4.5,1.5-8.2,4.4-11.3   s6.5-4.6,10.7-4.6C504.9,77.1,507.8,77.8,511,79.2z"
   id="path224" />
</g>
<g
   id="g230">
	<path
   class="st6"
   d="M369.9,223.5l-4.4,4.1c-0.9-1.6-2.1-2.8-3.4-3.6s-2.8-1.2-4.3-1.2c-2.4,0-4.5,0.9-6.3,2.7s-2.7,4-2.7,6.5   c0,2.6,0.9,4.9,2.7,6.7s3.9,2.8,6.4,2.8c1.4,0,2.7-0.3,3.9-1s2.3-2,3-3.9h-7.3v-6h14.2v4c0,2-0.7,4.2-2.1,6.6s-3.3,4.1-5.6,5.2   s-4.6,1.6-7,1.6c-4.3,0-7.8-1.5-10.8-4.6s-4.4-6.9-4.4-11.4c0-4.3,1.5-8,4.5-11s6.6-4.6,10.9-4.6   C362.9,216.4,367,218.8,369.9,223.5z"
   id="path228" />
</g>
<g
   id="g234">
	<path
   class="st6"
   d="M177.5,217.7h17.3v6h-10.7v6.3h10.7v6h-10.7v12.5h-6.6V217.7z"
   id="path232" />
</g>
<g
   id="g238">
	<path
   class="st6"
   d="M176.2,76h17.3v6.1h-10.7v6.2h10.7v6h-10.7v6.4h10.7v6.1h-17.3V76z"
   id="path236" />
</g>
<g
   id="g242">
	<path
   class="st6"
   d="M27.8,76h10.5c4.5,0,8.1,1.4,10.8,4.2s4.1,6.6,4.1,11.2c0,4.6-1.4,8.4-4.2,11.2s-6.6,4.2-11.3,4.2h-9.9V76z    M34.5,81.8v19h2.6c2.7,0,5-0.7,6.7-2.2s2.6-4,2.6-7.4c0-2-0.4-3.8-1.3-5.4s-2.1-2.6-3.7-3.2s-3.1-0.8-4.6-0.8H34.5z"
   id="path240" />
</g>
</svg>
