<?xml version="1.0" encoding="utf-8"?>
<!-- Generator: Adobe Illustrator 24.2.0, SVG Export Plug-In . SVG Version: 6.00 Build 0)  -->
<svg version="1.1" id="Layer_1" xmlns="http://www.w3.org/2000/svg" xmlns:xlink="http://www.w3.org/1999/xlink" x="0px" y="0px"
	 viewBox="0 0 509.8 565.7" style="enable-background:new 0 0 509.8 565.7;" xml:space="preserve">
<style type="text/css">
	.st0{fill:none;stroke:#000000;stroke-width:2.1368;stroke-linecap:round;stroke-linejoin:round;stroke-miterlimit:2.849;}
	.st1{fill:#FFFFFF;stroke:#000000;stroke-width:2.849;stroke-linecap:round;stroke-linejoin:round;stroke-miterlimit:2.849;}
	.st2{fill:#FEFDFE;stroke:#000000;stroke-width:2.8;stroke-miterlimit:10;}
	.st3{fill:#FEFD41;stroke:#000000;stroke-width:2.593;stroke-linecap:round;stroke-linejoin:round;}
	.st4{stroke:#000000;stroke-width:2.593;stroke-linecap:round;stroke-linejoin:round;}
	.st5{fill:none;stroke:#000000;stroke-width:1.746;stroke-linecap:round;stroke-linejoin:round;stroke-miterlimit:2.849;}
	.st6{fill:none;stroke:#000000;stroke-width:2.0337;stroke-linecap:round;stroke-linejoin:round;stroke-miterlimit:2.849;}
	.st7{fill:none;stroke:#000000;stroke-width:1.8071;stroke-linecap:round;stroke-linejoin:round;stroke-miterlimit:2.849;}
	.st8{fill:none;stroke:#000000;stroke-width:2.0643;stroke-linecap:round;stroke-linejoin:round;stroke-miterlimit:2.849;}
	.st9{fill:#FFFFFF;stroke:#000000;stroke-width:2.3;stroke-linecap:round;stroke-linejoin:round;}
	.st10{font-family:'ArialRoundedMTBold';}
	.st11{font-size:24px;}
</style>
<path class="st0" d="M40.8,368.7c39.5-25,59.8-70.8,77.7-114c8.2-20,16.4-39.9,24.5-59.9c8.3-20.5,16.7-41,23.2-62.2
	c9.4-30.9,14.8-63.1,15.8-95.5"/>
<path class="st0" d="M39.2,149.5c67.7,11.9,138.3-10.5,194.6-49.9c22.6-15.8,44.3-35.9,51.3-62.5c-16.2,17.3-43.3,28.2-66.6,32.8
	S171.3,74,147.6,73c-12.6-0.5-25.5-1.3-36.8-6.6c4.7,34.6,0.7,69.9-10.7,103s-32.7,63.1-61.7,82.5"/>
<path class="st0" d="M39.2,249.1c118.1,9.4,239.4-39,318.5-127.2c21.5-24,40.7-52.7,41.8-84.9"/>
<path class="st0" d="M282.5,37c-1.2,29.9-13,58.2-25,85.5c-8.8,20.1-17.8,40.2-28.3,59.5c-25.9,47.6-60.8,90.3-102.3,125.1
	c-27.7,23.2-58.1,42.9-88.5,62.5"/>
<path class="st0" d="M40,148.9c26.1,27.7,32.2,68.2,36,106c2.1,21.7,3.9,43.8-0.8,65c-4.5,20.5-15.9,40.6-34.6,50.1"/>
<path class="st0" d="M110.2,69.3c62.8,35.3,140.4,48.4,208,23.6c30.9-11.3,58.9-30.2,81-54.6"/>
<g>
	<path class="st0" d="M268.5,394.3l-17.3-1.8l10.9,13.6"/>
	<path class="st0" d="M278.1,384.1l-15.4-8.1l5,16.7"/>
	<path class="st0" d="M292.3,374l-15.4-8.1l5,16.7"/>
	<path class="st0" d="M264.8,408.8l-18.1,6.6l7.3,14.7c0,0-9.1-4-8.3,2.7s6.7,8.7,1.3,8.1c-5.4-0.6,6.2,5,6.2,5s4.8,0.8,4.2-5.2
		s-4.2-11.1-4.2-11.1"/>
	<path class="st0" d="M332.5,428.6l16.7,9.7l-9.8,13.2c0,0,9.7-2.4,7.7,4.1s-8.1,7.4-2.7,7.8c5.4,0.4-7,3.8-7,3.8s-4.9-0.1-3.2-5.9
		c1.7-5.8,6.1-10.2,6.1-10.2"/>
	<path class="st0" d="M343.5,415.6l18,7.1l-7.7,14.5c0,0,9.2-3.8,8.2,2.9s-6.9,8.5-1.5,8.1s-6.3,4.8-6.3,4.8s-4.8,0.7-4.1-5.3
		c0.8-6,4.5-11,4.5-11"/>
	<path class="st0" d="M351,396.9l18.7-5l2.4,16.3c0,0,5.2-8.6,8.3-2.6s-0.5,11,3.6,7.4s-2.2,7.6-2.2,7.6s-3.5,3.4-6.4-1.9
		s-2.9-11.5-2.9-11.5"/>
	<path class="st0" d="M347.7,412.8l16.3-3.4l2,16.3c0,0,4.6-8,7.3-1.9c2.7,6.2-0.6,10.8,3.1,7.6c3.7-3.2-2,7.4-2,7.4
		s-3.1,3.1-5.6-2.4s-2.4-11.6-2.4-11.6"/>
	<path class="st1" d="M339.3,435.3c18.7-13.8,20.1-37.3,3.2-52.5c-16.9-15.2-45.9-16.4-64.5-2.6c-18.3,13.5-20.1,36.1-4.3,51.5
		l32.7-5.8L339.3,435.3L339.3,435.3z"/>
	<path class="st2" d="M267,437.3c0.9,11.9,17.5,20.3,37.2,18.7c19.6-1.6,34.8-12.5,33.9-24.4c0-0.1,0-0.2,0-0.3
		c-0.9-11.9-17.5-20.3-37.2-18.7c-19.6,1.6-34.8,12.5-33.9,24.4C267,437.1,267,437.1,267,437.3z"/>
	<path class="st3" d="M304.5,420.4c3.5,7.1,11.7,10.3,18.3,7.1c6.7-3.2,9.3-11.6,5.8-18.8l0,0c-3.5-7.1-11.7-10.3-18.3-7.1
		C303.6,404.9,301,413.3,304.5,420.4C304.3,420.4,304.5,420.4,304.5,420.4z"/>
	<path class="st3" d="M276.3,422.6c4.8,6.3,13.4,7.8,19.4,3.4c5.9-4.5,6.8-13.2,2.1-19.5l0,0c-4.8-6.3-13.4-7.8-19.4-3.4
		C272.5,407.6,271.6,416.3,276.3,422.6L276.3,422.6z"/>
	<path class="st4" d="M311.6,408.6c0,1.6,0.9,2.9,2.1,2.9c1.1,0,2.1-1.3,2.1-2.9s-0.9-2.9-2.1-2.9
		C312.5,405.6,311.6,406.9,311.6,408.6z"/>
	<path class="st4" d="M280.6,406.9c0,1.6,0.9,2.9,2.1,2.9c1.1,0,2.1-1.3,2.1-2.9c0-1.6-0.9-2.9-2.1-2.9
		C281.6,404.1,280.6,405.3,280.6,406.9z"/>
	<path class="st0" d="M325.2,442.6c-9.6,4.4-43.4-4.5-51.3-11.3"/>
	<path class="st5" d="M315.6,444.1l-2.5,5.2l-2.2-5.5"/>
	<path class="st6" d="M309,443.9l-2.5,7.1l-2.2-7.5"/>
	<path class="st7" d="M284.6,436.6l-2.5,5.6l-2.2-5.9"/>
	<path class="st7" d="M291.8,439.6l-2.5,5.6l-2.2-5.9"/>
	<path class="st6" d="M297.8,440.9l-2.5,7.1l-2.2-7.5"/>
	<path class="st7" d="M303,442.1l-2.5,5.6l-2.2-5.9"/>
	<path class="st8" d="M326.9,438.1c-0.4,1.2-1.8,4.8,0.7,5.5"/>
	<path class="st0" d="M310.8,369.9l-3.7-200"/>
</g>
<path class="st9" d="M508.6,1.1v35.8H136.4l-97,113.6v414H1.1V1.2L508.6,1.1L508.6,1.1z M103.4,37H39.5v74.9L103.4,37z"/>
<text transform="matrix(1 0 0 1 14.3065 370.8498)" class="st10 st11">1</text>
<text transform="matrix(1 0 0 1 174.0184 28.1499)" class="st10 st11">5</text>
<text transform="matrix(1 0 0 1 95.8456 63.1499)" class="st10 st11">4</text>
<text transform="matrix(1 0 0 1 20.3934 145.4679)" class="st10 st11">3</text>
<text transform="matrix(1 0 0 1 14.3066 250.7492)" class="st10 st11">2</text>
<text transform="matrix(1 0 0 1 394.337 28.1499)" class="st10 st11">7</text>
<text transform="matrix(1 0 0 1 270.337 28.1499)" class="st10 st11">6</text>
</svg>
