<?xml version="1.0" encoding="UTF-8" standalone="no"?>
<svg
   inkscape:version="1.2.2 (732a01da63, 2022-12-09)"
   height="527.39594"
   width="2548.1829"
   sodipodi:docname="j01-solution-d.svg"
   xml:space="preserve"
   enable-background="new 332.062 564.729 1163.815 1796.541"
   viewBox="332.062 564.729 2548.183 527.39591"
   y="0px"
   x="0px"
   id="Layer_1"
   version="1.1"
   xmlns:inkscape="http://www.inkscape.org/namespaces/inkscape"
   xmlns:sodipodi="http://sodipodi.sourceforge.net/DTD/sodipodi-0.dtd"
   xmlns="http://www.w3.org/2000/svg"
   xmlns:svg="http://www.w3.org/2000/svg"
   xmlns:rdf="http://www.w3.org/1999/02/22-rdf-syntax-ns#"
   xmlns:cc="http://creativecommons.org/ns#"
   xmlns:dc="http://purl.org/dc/elements/1.1/"><metadata
   id="metadata89"><rdf:RDF><cc:Work
       rdf:about=""><dc:format>image/svg+xml</dc:format><dc:type
         rdf:resource="http://purl.org/dc/dcmitype/StillImage" /><dc:title /></cc:Work></rdf:RDF></metadata><defs
   id="defs87"><marker
   inkscape:stockid="Arrow1Mstart"
   orient="auto"
   refY="0"
   refX="0"
   id="marker2110"
   style="overflow:visible"
   inkscape:isstock="true"><path
     id="path2108"
     d="M 0,0 5,-5 -12.5,0 5,5 Z"
     style="fill:#800000;fill-opacity:1;fill-rule:evenodd;stroke:#800000;stroke-width:1pt;stroke-opacity:1"
     transform="matrix(0.4,0,0,0.4,4,0)" /></marker><marker
   inkscape:isstock="true"
   style="overflow:visible"
   id="Arrow1Lstart"
   refX="0"
   refY="0"
   orient="auto"
   inkscape:stockid="Arrow1Lstart"><path
     transform="matrix(0.8,0,0,0.8,10,0)"
     style="fill:#800000;fill-opacity:1;fill-rule:evenodd;stroke:#800000;stroke-width:1pt;stroke-opacity:1"
     d="M 0,0 5,-5 -12.5,0 5,5 Z"
     id="path1558" /></marker><marker
   inkscape:collect="always"
   inkscape:isstock="true"
   style="overflow:visible"
   id="Arrow1Mstart"
   refX="0"
   refY="0"
   orient="auto"
   inkscape:stockid="Arrow1Mstart"><path
     transform="matrix(0.4,0,0,0.4,4,0)"
     style="fill:#800000;fill-opacity:1;fill-rule:evenodd;stroke:#800000;stroke-width:1pt;stroke-opacity:1"
     d="M 0,0 5,-5 -12.5,0 5,5 Z"
     id="path1564" /></marker>
	
	
	
	
	
	
	
	
	
	
	
	
	
	
	
	
	
	
	
	
	
	
	
	
	
	
	
	
	
	
	
	
	
	
	
	
	
	
	
	
<marker
   inkscape:stockid="Arrow1Lstart"
   orient="auto"
   refY="0"
   refX="0"
   id="Arrow1Lstart-8"
   style="overflow:visible"
   inkscape:isstock="true"><path
     id="path1558-1"
     d="M 0,0 5,-5 -12.5,0 5,5 Z"
     style="fill:#800000;fill-opacity:1;fill-rule:evenodd;stroke:#800000;stroke-width:1pt;stroke-opacity:1"
     transform="matrix(0.8,0,0,0.8,10,0)" /></marker><marker
   inkscape:stockid="Arrow1Lstart"
   orient="auto"
   refY="0"
   refX="0"
   id="Arrow1Lstart-5"
   style="overflow:visible"
   inkscape:isstock="true"><path
     id="path1558-2"
     d="M 0,0 5,-5 -12.5,0 5,5 Z"
     style="fill:#800000;fill-opacity:1;fill-rule:evenodd;stroke:#800000;stroke-width:1pt;stroke-opacity:1"
     transform="matrix(0.8,0,0,0.8,10,0)" /></marker><marker
   inkscape:isstock="true"
   style="overflow:visible"
   id="marker2110-7"
   refX="0"
   refY="0"
   orient="auto"
   inkscape:stockid="Arrow1Mstart"><path
     transform="matrix(0.4,0,0,0.4,4,0)"
     style="fill:#800000;fill-opacity:1;fill-rule:evenodd;stroke:#800000;stroke-width:1pt;stroke-opacity:1"
     d="M 0,0 5,-5 -12.5,0 5,5 Z"
     id="path2108-9" /></marker><marker
   inkscape:stockid="Arrow1Mstart"
   orient="auto"
   refY="0"
   refX="0"
   id="Arrow1Mstart-4"
   style="overflow:visible"
   inkscape:isstock="true"
   inkscape:collect="always"><path
     id="path1564-8"
     d="M 0,0 5,-5 -12.5,0 5,5 Z"
     style="fill:#800000;fill-opacity:1;fill-rule:evenodd;stroke:#800000;stroke-width:1pt;stroke-opacity:1"
     transform="matrix(0.4,0,0,0.4,4,0)" /></marker><marker
   inkscape:collect="always"
   inkscape:isstock="true"
   style="overflow:visible"
   id="Arrow1Mstart-4-9"
   refX="0"
   refY="0"
   orient="auto"
   inkscape:stockid="Arrow1Mstart"><path
     transform="matrix(0.4,0,0,0.4,4,0)"
     style="fill:#800000;fill-opacity:1;fill-rule:evenodd;stroke:#800000;stroke-width:1pt;stroke-opacity:1"
     d="M 0,0 5,-5 -12.5,0 5,5 Z"
     id="path1564-8-4" /></marker><marker
   inkscape:isstock="true"
   style="overflow:visible"
   id="marker2110-5"
   refX="0"
   refY="0"
   orient="auto"
   inkscape:stockid="Arrow1Mstart"><path
     transform="matrix(0.4,0,0,0.4,4,0)"
     style="fill:#800000;fill-opacity:1;fill-rule:evenodd;stroke:#800000;stroke-width:1pt;stroke-opacity:1"
     d="M 0,0 5,-5 -12.5,0 5,5 Z"
     id="path2108-6" /></marker><marker
   inkscape:stockid="Arrow1Mstart"
   orient="auto"
   refY="0"
   refX="0"
   id="marker2110-5-2"
   style="overflow:visible"
   inkscape:isstock="true"><path
     id="path2108-6-4"
     d="M 0,0 5,-5 -12.5,0 5,5 Z"
     style="fill:#800000;fill-opacity:1;fill-rule:evenodd;stroke:#800000;stroke-width:1pt;stroke-opacity:1"
     transform="matrix(0.4,0,0,0.4,4,0)" /></marker><marker
   inkscape:stockid="Arrow1Mstart"
   orient="auto"
   refY="0"
   refX="0"
   id="Arrow1Mstart-2"
   style="overflow:visible"
   inkscape:isstock="true"
   inkscape:collect="always"><path
     id="path1564-5"
     d="M 0,0 5,-5 -12.5,0 5,5 Z"
     style="fill:#800000;fill-opacity:1;fill-rule:evenodd;stroke:#800000;stroke-width:1pt;stroke-opacity:1"
     transform="matrix(0.4,0,0,0.4,4,0)" /></marker><marker
   inkscape:isstock="true"
   style="overflow:visible"
   id="marker2110-0"
   refX="0"
   refY="0"
   orient="auto"
   inkscape:stockid="Arrow1Mstart"><path
     transform="matrix(0.4,0,0,0.4,4,0)"
     style="fill:#800000;fill-opacity:1;fill-rule:evenodd;stroke:#800000;stroke-width:1pt;stroke-opacity:1"
     d="M 0,0 5,-5 -12.5,0 5,5 Z"
     id="path2108-2" /></marker><marker
   inkscape:isstock="true"
   style="overflow:visible"
   id="marker2110-79"
   refX="0"
   refY="0"
   orient="auto"
   inkscape:stockid="Arrow1Mstart"><path
     transform="matrix(0.4,0,0,0.4,4,0)"
     style="fill:#800000;fill-opacity:1;fill-rule:evenodd;stroke:#800000;stroke-width:1pt;stroke-opacity:1"
     d="M 0,0 5,-5 -12.5,0 5,5 Z"
     id="path2108-4" /></marker><marker
   inkscape:isstock="true"
   style="overflow:visible"
   id="marker2110-1"
   refX="0"
   refY="0"
   orient="auto"
   inkscape:stockid="Arrow1Mstart"><path
     transform="matrix(0.4,0,0,0.4,4,0)"
     style="fill:#800000;fill-opacity:1;fill-rule:evenodd;stroke:#800000;stroke-width:1pt;stroke-opacity:1"
     d="M 0,0 5,-5 -12.5,0 5,5 Z"
     id="path2108-3" /></marker><marker
   inkscape:collect="always"
   inkscape:isstock="true"
   style="overflow:visible"
   id="Arrow1Mstart-2-6"
   refX="0"
   refY="0"
   orient="auto"
   inkscape:stockid="Arrow1Mstart"><path
     transform="matrix(0.4,0,0,0.4,4,0)"
     style="fill:#800000;fill-opacity:1;fill-rule:evenodd;stroke:#800000;stroke-width:1pt;stroke-opacity:1"
     d="M 0,0 5,-5 -12.5,0 5,5 Z"
     id="path1564-5-4" /></marker><marker
   inkscape:isstock="true"
   style="overflow:visible"
   id="marker2110-9"
   refX="0"
   refY="0"
   orient="auto"
   inkscape:stockid="Arrow1Mstart"><path
     transform="matrix(0.4,0,0,0.4,4,0)"
     style="fill:#800000;fill-opacity:1;fill-rule:evenodd;stroke:#800000;stroke-width:1pt;stroke-opacity:1"
     d="M 0,0 5,-5 -12.5,0 5,5 Z"
     id="path2108-1" /></marker><marker
   inkscape:collect="always"
   inkscape:isstock="true"
   style="overflow:visible"
   id="Arrow1Mstart-4-0"
   refX="0"
   refY="0"
   orient="auto"
   inkscape:stockid="Arrow1Mstart"><path
     transform="matrix(0.4,0,0,0.4,4,0)"
     style="fill:#800000;fill-opacity:1;fill-rule:evenodd;stroke:#800000;stroke-width:1pt;stroke-opacity:1"
     d="M 0,0 5,-5 -12.5,0 5,5 Z"
     id="path1564-8-0" /></marker><marker
   inkscape:stockid="Arrow1Mstart"
   orient="auto"
   refY="0"
   refX="0"
   id="Arrow1Mstart-4-9-5"
   style="overflow:visible"
   inkscape:isstock="true"
   inkscape:collect="always"><path
     id="path1564-8-4-4"
     d="M 0,0 5,-5 -12.5,0 5,5 Z"
     style="fill:#800000;fill-opacity:1;fill-rule:evenodd;stroke:#800000;stroke-width:1pt;stroke-opacity:1"
     transform="matrix(0.4,0,0,0.4,4,0)" /></marker><marker
   inkscape:stockid="Arrow1Mstart"
   orient="auto"
   refY="0"
   refX="0"
   id="marker2110-0-9"
   style="overflow:visible"
   inkscape:isstock="true"><path
     id="path2108-2-9"
     d="M 0,0 5,-5 -12.5,0 5,5 Z"
     style="fill:#800000;fill-opacity:1;fill-rule:evenodd;stroke:#800000;stroke-width:1pt;stroke-opacity:1"
     transform="matrix(0.4,0,0,0.4,4,0)" /></marker><marker
   inkscape:collect="always"
   inkscape:isstock="true"
   style="overflow:visible"
   id="Arrow1Mstart-2-9"
   refX="0"
   refY="0"
   orient="auto"
   inkscape:stockid="Arrow1Mstart"><path
     transform="matrix(0.4,0,0,0.4,4,0)"
     style="fill:#800000;fill-opacity:1;fill-rule:evenodd;stroke:#800000;stroke-width:1pt;stroke-opacity:1"
     d="M 0,0 5,-5 -12.5,0 5,5 Z"
     id="path1564-5-0" /></marker><marker
   inkscape:stockid="Arrow1Mstart"
   orient="auto"
   refY="0"
   refX="0"
   id="marker2110-79-3"
   style="overflow:visible"
   inkscape:isstock="true"><path
     id="path2108-4-5"
     d="M 0,0 5,-5 -12.5,0 5,5 Z"
     style="fill:#800000;fill-opacity:1;fill-rule:evenodd;stroke:#800000;stroke-width:1pt;stroke-opacity:1"
     transform="matrix(0.4,0,0,0.4,4,0)" /></marker><marker
   inkscape:stockid="Arrow1Mstart"
   orient="auto"
   refY="0"
   refX="0"
   id="marker2110-1-2"
   style="overflow:visible"
   inkscape:isstock="true"><path
     id="path2108-3-0"
     d="M 0,0 5,-5 -12.5,0 5,5 Z"
     style="fill:#800000;fill-opacity:1;fill-rule:evenodd;stroke:#800000;stroke-width:1pt;stroke-opacity:1"
     transform="matrix(0.4,0,0,0.4,4,0)" /></marker></defs><sodipodi:namedview
   inkscape:current-layer="Layer_1"
   inkscape:window-maximized="1"
   inkscape:window-y="-8"
   inkscape:window-x="-8"
   inkscape:cy="116.66667"
   inkscape:cx="1276.1905"
   inkscape:zoom="0.42"
   showgrid="false"
   id="namedview85"
   inkscape:window-height="1017"
   inkscape:window-width="1920"
   inkscape:pageshadow="2"
   inkscape:pageopacity="0"
   guidetolerance="10"
   gridtolerance="10"
   objecttolerance="10"
   borderopacity="1"
   bordercolor="#666666"
   pagecolor="#ffffff"
   inkscape:pagecheckerboard="0"
   inkscape:showpageshadow="2"
   inkscape:deskcolor="#d1d1d1" />

<rect
   style="fill:#ffeeaa;stroke:none;stroke-width:3.87055;stroke-miterlimit:4;stroke-dasharray:none"
   id="rect1126-5"
   width="2548.1829"
   height="527.39594"
   x="332.06201"
   y="564.729" /><rect
   style="fill:#f2f2f2;stroke:#d4aa00;stroke-width:4;stroke-miterlimit:4;stroke-dasharray:none"
   id="rect995-8"
   width="145.88631"
   height="145.88631"
   x="1552.9017"
   y="823.28857" /><rect
   y="823.28857"
   x="1698.7881"
   height="145.88631"
   width="145.88631"
   id="rect995-9-97"
   style="fill:#f2f2f2;stroke:#d4aa00;stroke-width:4;stroke-miterlimit:4;stroke-dasharray:none" /><rect
   y="823.28857"
   x="1844.6743"
   height="145.88631"
   width="145.88631"
   id="rect995-0-6"
   style="fill:#f2f2f2;stroke:#d4aa00;stroke-width:4;stroke-miterlimit:4;stroke-dasharray:none" /><rect
   style="fill:#f2f2f2;stroke:#d4aa00;stroke-width:4;stroke-miterlimit:4;stroke-dasharray:none"
   id="rect995-9-2-73"
   width="145.88631"
   height="145.88631"
   x="1990.5605"
   y="823.28857" /><rect
   y="823.28857"
   x="2136.4468"
   height="145.88631"
   width="145.88631"
   id="rect995-6-4"
   style="fill:#f2f2f2;stroke:#d4aa00;stroke-width:4;stroke-miterlimit:4;stroke-dasharray:none" /><rect
   style="fill:#f2f2f2;stroke:#d4aa00;stroke-width:4;stroke-miterlimit:4;stroke-dasharray:none"
   id="rect995-9-3-1"
   width="145.88631"
   height="145.88631"
   x="2282.333"
   y="823.28857" /><rect
   style="fill:#f2f2f2;stroke:#d4aa00;stroke-width:4;stroke-miterlimit:4;stroke-dasharray:none"
   id="rect995-0-5-9"
   width="145.88631"
   height="145.88631"
   x="2428.2195"
   y="823.28857" /><rect
   y="823.28857"
   x="2574.1057"
   height="145.88631"
   width="145.88631"
   id="rect995-9-2-7-4"
   style="fill:#f2f2f2;stroke:#d4aa00;stroke-width:4;stroke-miterlimit:4;stroke-dasharray:none" /><rect
   y="823.28857"
   x="385.81152"
   height="145.88631"
   width="145.88631"
   id="rect995-5-8"
   style="fill:#f2f2f2;stroke:#d4aa00;stroke-width:4;stroke-miterlimit:4;stroke-dasharray:none" /><rect
   style="fill:#f2f2f2;stroke:#d4aa00;stroke-width:4;stroke-miterlimit:4;stroke-dasharray:none"
   id="rect995-9-9-0"
   width="145.88631"
   height="145.88631"
   x="531.69781"
   y="823.28857" /><rect
   style="fill:#f2f2f2;stroke:#d4aa00;stroke-width:4;stroke-miterlimit:4;stroke-dasharray:none"
   id="rect995-0-7-9"
   width="145.88631"
   height="145.88631"
   x="677.58411"
   y="823.28857" /><rect
   y="823.28857"
   x="823.47046"
   height="145.88631"
   width="145.88631"
   id="rect995-9-2-6-5"
   style="fill:#f2f2f2;stroke:#d4aa00;stroke-width:4;stroke-miterlimit:4;stroke-dasharray:none" /><rect
   style="fill:#f2f2f2;stroke:#d4aa00;stroke-width:4;stroke-miterlimit:4;stroke-dasharray:none"
   id="rect995-6-5-2"
   width="145.88631"
   height="145.88631"
   x="969.35669"
   y="823.28857" /><rect
   y="823.28857"
   x="1115.2428"
   height="145.88631"
   width="145.88631"
   id="rect995-9-3-6-8"
   style="fill:#f2f2f2;stroke:#d4aa00;stroke-width:4;stroke-miterlimit:4;stroke-dasharray:none" /><rect
   y="823.28857"
   x="1261.1292"
   height="145.88631"
   width="145.88631"
   id="rect995-0-5-1-9"
   style="fill:#f2f2f2;stroke:#d4aa00;stroke-width:4;stroke-miterlimit:4;stroke-dasharray:none" /><rect
   style="fill:#f2f2f2;stroke:#d4aa00;stroke-width:4;stroke-miterlimit:4;stroke-dasharray:none"
   id="rect995-9-2-7-9-5"
   width="145.88631"
   height="145.88631"
   x="1407.0154"
   y="823.28857" /><rect
   style="fill:#f2f2f2;stroke:#d4aa00;stroke-width:4;stroke-miterlimit:4;stroke-dasharray:none"
   id="rect995-9-2-7-0-2"
   width="145.88631"
   height="145.88631"
   x="2719.9919"
   y="823.28857" /><text
   transform="scale(1.2243194,0.81678033)"
   id="text1336"
   y="1156.014"
   x="326.52454"
   style="font-size:185.935px;line-height:1.25;font-family:Calibri;-inkscape-font-specification:'Calibri, Normal';letter-spacing:0px;word-spacing:0px;stroke-width:4.64836"
   xml:space="preserve"><tspan
     style="stroke-width:4.64836"
     y="1156.014"
     x="326.52454"
     id="tspan1334"
     sodipodi:role="line">X</tspan></text><g
   id="g993-8"
   transform="matrix(0.28846533,0,0,0.28846533,202.84726,289.66303)"><path
     fill="#281506"
     stroke="#281506"
     stroke-width="0.2907"
     d="m 830.196,1009.141 c 35.606,-9.348 72.701,-12.475 109.412,-10.371 33.676,2.36 67.271,9.109 98.419,22.364 19.637,8.313 38.263,19.277 54.325,33.374 8.534,7.377 15.963,15.923 22.904,24.794 13.15,16.888 24.753,34.932 35.479,53.447 12.318,21.433 23.439,43.565 33.269,66.248 9.883,23.015 18.579,46.582 25.096,70.777 6.389,23.898 10.975,48.529 10.522,73.358 -0.39,13.661 -2.372,27.514 -7.9,40.118 -3.755,8.755 -9.633,16.417 -16.149,23.294 -13.748,14.306 -30.927,24.834 -48.803,33.182 -3.627,1.622 -7.22,3.36 -10.97,4.691 l -0.5,-0.407 c -6.29,-6.668 -13.15,-12.789 -20.166,-18.678 -9.638,-7.929 -19.934,-15.208 -31.305,-20.44 -9.731,-4.459 -20.631,-7.435 -31.374,-5.703 -3.029,0.401 -5.877,1.506 -8.72,2.558 -1.221,0.558 -2.523,0.029 -3.75,-0.198 -13.219,-3.348 -26.788,-4.988 -40.338,-6.296 -2.273,-0.308 -4.575,-0.343 -6.86,-0.436 -7.383,-0.512 -14.789,-0.703 -22.189,-0.715 -0.017,-0.68 -0.029,-1.349 -0.035,-2.011 17.045,-2.407 33.915,-6.47 49.977,-12.702 20.172,-7.621 39.251,-18.347 55.901,-32.083 16.475,-13.591 30.514,-30.369 39.908,-49.616 10.272,-20.87 14.609,-44.704 11.772,-67.829 5.575,0.349 11.266,-1.168 15.725,-4.593 8.453,-6.226 11.888,-18.05 8.673,-27.956 -1.599,-5.447 -5.244,-10.208 -9.941,-13.359 -5.761,-3.854 -13.347,-4.767 -19.876,-2.465 -3.098,1 -5.796,2.878 -8.284,4.924 -7.761,-14.684 -18.265,-27.817 -30.369,-39.158 -3.837,7.011 -9.598,13.115 -16.917,16.492 -19.788,-7.621 -39.571,-15.242 -59.359,-22.852 -0.017,7.4 0,14.801 -0.01,22.201 -14.539,1.599 -29.2,-0.262 -43.443,-3.221 -19.922,-4.267 -39.304,-10.882 -57.999,-18.951 0.017,7.389 0,14.777 0.012,22.166 -11.545,-1.366 -22.736,-6.511 -30.793,-14.975 -6.511,-6.435 -10.789,-14.76 -13.777,-23.282 -0.122,6.168 -0.006,12.347 -0.058,18.521 -7.092,-1.889 -13.731,-5.523 -18.934,-10.72 -4.29,-4.244 -7.505,-9.429 -10.039,-14.87 -4.906,2.529 -9.766,5.174 -14.429,8.133 -22.474,13.795 -42.234,32.514 -55.656,55.337 -6.11,10.51 -10.952,21.829 -13.795,33.671 -8.888,-0.692 -17.905,2.796 -24.09,9.197 -11.714,11.597 -14.562,30.432 -8.476,45.5 3.633,9.121 10.813,17.138 20.213,20.439 5.819,2.168 12.249,2.087 18.201,0.529 8.952,22.027 24.282,41.094 42.437,56.273 30.764,25.631 69.544,40.53 109.046,45.588 0,2.006 0,4.017 0,6.034 -0.872,0.099 -1.715,0.238 -2.569,0.372 -15.661,2.314 -31.223,5.412 -46.454,9.761 -3.058,0.82 -6.028,2.128 -9.226,2.29 -14.905,0.762 -29.787,2.139 -44.524,4.505 -10.505,1.744 -21.027,3.854 -31.002,7.644 -5.052,2.07 -10.319,4.418 -13.882,8.714 -3.965,5.406 -4.726,12.318 -5.517,18.783 -19.858,-5.889 -39.478,-12.749 -58.168,-21.73 -18.614,-9.022 -36.676,-19.934 -51.174,-34.868 -5.621,-5.755 -9.813,-12.76 -12.981,-20.12 -4.581,-10.859 -7.005,-22.509 -8.203,-34.194 -1.517,-15.074 -1.087,-30.281 0.378,-45.338 2.843,-28.253 9.313,-56.04 17.818,-83.095 9.848,-30.903 22.439,-60.993 38.344,-89.28 9.877,-17.231 20.87,-34.002 34.624,-48.413 16.545,-17.161 36.287,-31.026 57.412,-41.972 18.789,-9.645 38.705,-17.051 59.133,-22.382 z"
     id="path4-9" /><path
     fill="#fcc896"
     stroke="#fcc896"
     stroke-width="0.169"
     d="m 818.308,1125.895 c 4.662,-2.959 9.522,-5.604 14.429,-8.133 2.535,5.441 5.749,10.627 10.039,14.87 5.203,5.197 11.842,8.83 18.934,10.72 0.052,-6.174 -0.064,-12.353 0.058,-18.521 2.988,8.522 7.267,16.847 13.777,23.282 8.057,8.464 19.248,13.609 30.793,14.975 -0.012,-7.389 0.006,-14.777 -0.012,-22.166 18.696,8.069 38.077,14.684 57.999,18.951 14.243,2.959 28.904,4.819 43.443,3.221 0.01,-7.4 -0.012,-14.801 0.01,-22.201 19.788,7.609 39.571,15.231 59.359,22.852 7.319,-3.377 13.08,-9.481 16.917,-16.492 12.103,11.342 22.608,24.474 30.369,39.158 2.488,-2.046 5.186,-3.924 8.284,-4.924 6.528,-2.302 14.115,-1.389 19.876,2.465 4.697,3.151 8.342,7.912 9.941,13.359 3.215,9.906 -0.221,21.73 -8.673,27.956 -4.459,3.424 -10.15,4.941 -15.725,4.593 2.837,23.125 -1.5,46.96 -11.772,67.829 -9.394,19.248 -23.433,36.025 -39.908,49.616 -16.649,13.737 -35.728,24.462 -55.901,32.083 -3.267,-0.343 -6.203,1.453 -9.284,2.227 -4.331,1.558 -8.918,2.093 -13.307,3.424 -5.726,1.907 -11.83,1.959 -17.701,3.192 -39.147,5.796 -79.816,2.116 -117.021,-11.522 -9.33,-3.569 -18.463,-7.639 -27.352,-12.191 -9.627,-5.674 -19.416,-11.26 -27.886,-18.626 -6.929,-5.395 -13.557,-11.225 -19.323,-17.87 -4.732,-4.86 -8.685,-10.383 -12.685,-15.835 -11.051,-16.074 -19.114,-34.467 -21.771,-53.878 -1.331,-8.063 -1.221,-16.26 -1.07,-24.398 0.587,-12.313 3.284,-24.486 7.563,-36.031 7.493,-18.992 19.178,-36.292 33.787,-50.547 5.284,-5.563 11.609,-9.964 17.202,-15.184 2.255,-2.004 6.162,-2.766 6.615,-6.254 m 15.742,42.844 c -3.279,4.465 -4.453,10.074 -4.691,15.516 -3.901,-0.233 -7.836,0.314 -11.592,1.378 -2.139,0.692 -4.587,1.692 -5.54,3.895 -0.5,2.308 1.872,3.924 3.721,4.709 5.028,1.907 10.551,2.482 15.882,1.854 1.581,3.343 3.86,6.621 7.348,8.168 3.302,1.599 7.418,0.93 10.22,-1.378 4.145,-3.319 6.232,-8.546 7.069,-13.656 0.953,-6.761 0.052,-14.051 -3.767,-19.841 -2.133,-3.128 -5.476,-5.889 -9.447,-5.848 -3.744,-0.122 -7.087,2.279 -9.203,5.203 m 207.023,-3.314 c -4.203,3.023 -6.336,8.051 -7.4,12.964 -5.557,-0.163 -11.656,0.11 -16.382,3.378 -1.581,0.866 -1.116,2.814 -1.215,4.308 4.935,3.988 11.557,4.348 17.626,4.255 0.971,4.738 3.046,9.493 6.912,12.574 2.79,2.29 6.895,2.947 10.185,1.354 3.918,-1.779 6.4,-5.639 7.906,-9.522 2.285,-6.116 2.389,-12.981 0.547,-19.225 -1.384,-4.296 -3.773,-8.65 -7.889,-10.842 -3.209,-1.778 -7.372,-1.435 -10.29,0.756 m 87.228,22.149 c -3.261,0.395 -6.261,1.982 -8.772,4.046 -0.727,0.645 -1.738,1.546 -1.198,2.633 3.441,8.487 6.825,17.138 8.208,26.247 0.052,1.401 1.319,2.378 2.697,2.221 4.622,-0.209 9.487,-1.732 12.574,-5.36 2.482,-3.064 4.284,-6.79 4.534,-10.766 0.669,-5.383 -1.657,-10.795 -5.307,-14.673 -3.417,-3.057 -8.108,-4.987 -12.736,-4.348 m -162.51,7.65 c 3.052,0.372 6.185,0.587 9.075,1.744 4.982,1.878 9.807,5.052 12.289,9.912 2.244,3.494 2.389,7.859 1.86,11.859 -0.901,4.534 -4.313,7.889 -7.424,11.063 4.43,0.238 8.801,-1.104 12.801,-2.901 3.442,-2.267 6.958,-4.86 8.813,-8.662 3.017,-5.098 2.552,-11.685 -0.18,-16.789 -1.866,-2.715 -4.29,-5.046 -6.865,-7.081 -9.063,-5.801 -21.678,-5.592 -30.369,0.855 m 53.035,58.18 c -60.464,0 -120.934,0 -181.398,0 -0.744,-0.076 -1.343,0.174 -1.79,0.75 0.419,1.866 1.703,3.349 2.86,4.813 2.982,3.633 5.592,7.575 8.947,10.9 5.709,7.22 12.179,13.783 18.504,20.457 3.616,3.139 6.743,6.796 10.481,9.807 12.185,10.29 25.456,19.765 40.652,25.02 13.498,4.924 28.491,5.982 42.42,2.256 8.098,-2.447 16.01,-5.796 22.881,-10.784 9.016,-5.831 16.824,-13.382 23.654,-21.625 2.866,-3.936 6.203,-7.505 8.842,-11.597 4.389,-6.243 8.156,-12.888 11.685,-19.649 1.604,-3.465 3.93,-6.709 4.494,-10.557 -4.082,0.046 -8.157,0.337 -12.232,0.209 z"
     id="path6-1" /><path
     fill="#f0bb8f"
     stroke="#f0bb8f"
     stroke-width="0.2907"
     d="m 762.652,1181.232 c 13.423,-22.823 33.182,-41.542 55.656,-55.337 -0.453,3.488 -4.36,4.25 -6.616,6.255 -5.592,5.22 -11.917,9.621 -17.202,15.184 -14.609,14.254 -26.293,31.555 -33.787,50.547 -4.279,11.545 -6.976,23.718 -7.563,36.031 -0.151,8.139 -0.262,16.335 1.07,24.398 2.657,19.411 10.72,37.804 21.771,53.878 4,5.453 7.953,10.975 12.685,15.835 5.767,6.645 12.394,12.475 19.323,17.87 8.47,7.365 18.26,12.952 27.886,18.626 8.888,4.552 18.021,8.621 27.352,12.191 37.205,13.638 77.875,17.318 117.021,11.522 5.871,-1.232 11.975,-1.285 17.701,-3.192 4.389,-1.331 8.976,-1.866 13.307,-3.424 3.081,-0.773 6.017,-2.57 9.284,-2.227 -16.062,6.232 -32.932,10.295 -49.977,12.702 0.006,0.663 0.017,1.331 0.035,2.011 7.4,0.012 14.806,0.203 22.189,0.715 -0.884,0.041 -1.761,0.11 -2.628,0.198 1.029,5.226 2.354,10.458 2.139,15.835 0.192,16.37 -7.714,32.723 -20.899,42.495 -6.738,5.43 -15.213,8.313 -23.718,9.447 -9.371,-0.395 -18.213,-4.505 -25.613,-10.086 -7.65,-6.249 -13.702,-14.562 -16.684,-24.026 -1.744,-5.273 -2.599,-10.795 -3.034,-16.312 -0.25,-4.557 0.86,-9.022 1.267,-13.533 0.855,-0.134 1.698,-0.273 2.569,-0.372 0,-2.017 0,-4.029 0,-6.034 -39.501,-5.057 -78.282,-19.957 -109.046,-45.588 -18.155,-15.179 -33.484,-34.246 -42.437,-56.273 -0.826,-2.209 -1.68,-4.406 -2.529,-6.604 -4.005,0.401 -8.15,0.936 -12.051,-0.395 -5.406,-1.424 -9.79,-5.238 -13.15,-9.563 -3.035,-3.883 -4.691,-8.633 -5.796,-13.382 -1.825,-9.429 -0.233,-19.788 5.546,-27.613 2.564,-3.825 6.174,-6.895 10.353,-8.824 3.25,-1.575 6.912,-1.843 10.446,-2.25 0.395,-2.354 0.802,-4.709 1.331,-7.034 2.846,-11.842 7.689,-23.161 13.799,-33.671 z"
     id="path8-4" /><path
     fill="#1a1615"
     stroke="#1a1615"
     stroke-width="0.2907"
     d="m 834.05,1168.739 c 2.116,-2.924 5.459,-5.325 9.202,-5.203 3.971,-0.041 7.313,2.721 9.447,5.848 3.819,5.79 4.72,13.08 3.767,19.841 -0.837,5.11 -2.924,10.336 -7.069,13.656 -2.802,2.308 -6.918,2.976 -10.22,1.378 -3.488,-1.546 -5.767,-4.825 -7.348,-8.168 3.662,-0.575 7.755,-1.099 10.534,-3.808 1.273,-1.157 1.087,-3.255 -0.244,-4.279 -3.517,-2.959 -8.365,-3.378 -12.76,-3.75 0.238,-5.441 1.413,-11.05 4.691,-15.515 z"
     id="path10-4" /><path
     fill="#1a1615"
     stroke="#1a1615"
     stroke-width="0.2907"
     d="m 1041.073,1165.425 c 2.918,-2.192 7.081,-2.535 10.29,-0.756 4.116,2.192 6.505,6.546 7.889,10.842 1.843,6.244 1.738,13.109 -0.547,19.225 -1.506,3.883 -3.988,7.743 -7.906,9.522 -3.29,1.593 -7.395,0.936 -10.185,-1.354 -3.866,-3.081 -5.941,-7.836 -6.912,-12.574 4.093,-0.43 8.505,-0.924 11.882,-3.505 1.622,-1.099 1.721,-3.639 0.174,-4.843 -3.372,-2.715 -7.918,-3.25 -12.086,-3.593 1.065,-4.912 3.198,-9.941 7.401,-12.964 z"
     id="path12-9" /><path
     fill="#fefffd"
     stroke="#fefffd"
     stroke-width="0.2907"
     d="m 1017.291,1181.767 c 4.726,-3.267 10.824,-3.54 16.382,-3.378 4.168,0.343 8.714,0.878 12.086,3.593 1.546,1.203 1.448,3.744 -0.174,4.843 -3.378,2.581 -7.79,3.075 -11.882,3.505 -6.069,0.093 -12.69,-0.267 -17.626,-4.255 0.098,-1.495 -0.367,-3.442 1.214,-4.308 z"
     id="path14-2" /><path
     fill="#fefffd"
     stroke="#fefffd"
     stroke-width="0.2907"
     d="m 817.767,1185.632 c 3.755,-1.064 7.691,-1.61 11.592,-1.378 4.395,0.372 9.243,0.791 12.76,3.75 1.331,1.023 1.517,3.122 0.244,4.279 -2.779,2.709 -6.871,3.232 -10.534,3.808 -5.331,0.628 -10.853,0.052 -15.882,-1.854 -1.849,-0.785 -4.22,-2.401 -3.721,-4.709 0.955,-2.204 3.402,-3.204 5.541,-3.896 z"
     id="path16-1" /><path
     fill="#f0bb8f"
     stroke="#f0bb8f"
     stroke-width="0.2907"
     d="m 1128.301,1187.574 c 4.627,-0.64 9.319,1.291 12.737,4.348 3.651,3.877 5.976,9.29 5.307,14.673 -0.25,3.976 -2.052,7.703 -4.534,10.766 -3.087,3.627 -7.953,5.151 -12.574,5.36 -1.378,0.157 -2.645,-0.82 -2.697,-2.221 -1.384,-9.109 -4.767,-17.76 -8.208,-26.247 -0.541,-1.087 0.471,-1.988 1.198,-2.633 2.511,-2.064 5.51,-3.651 8.771,-4.046 z"
     id="path18-4" /><path
     fill="#f0bb8f"
     stroke="#f0bb8f"
     stroke-width="0.2907"
     d="m 965.791,1195.224 c 8.691,-6.447 21.306,-6.656 30.369,-0.855 2.575,2.035 4.999,4.366 6.865,7.081 2.732,5.104 3.197,11.691 0.18,16.789 -1.854,3.802 -5.371,6.395 -8.813,8.662 -4,1.796 -8.371,3.139 -12.801,2.901 3.11,-3.174 6.522,-6.528 7.424,-11.063 0.529,-4 0.384,-8.365 -1.86,-11.859 -2.482,-4.86 -7.307,-8.034 -12.289,-9.912 -2.89,-1.156 -6.023,-1.372 -9.075,-1.744 z"
     id="path20-2" /><path
     fill="#fcc897"
     stroke="#fcc897"
     stroke-width="0.2907"
     d="m 724.766,1224.099 c 6.185,-6.401 15.202,-9.888 24.09,-9.197 -0.529,2.325 -0.936,4.68 -1.331,7.034 -3.534,0.407 -7.197,0.674 -10.446,2.25 -4.18,1.93 -7.79,4.999 -10.353,8.824 -5.778,7.825 -7.371,18.184 -5.546,27.613 1.104,4.75 2.761,9.499 5.796,13.382 3.36,4.325 7.743,8.139 13.15,9.563 3.901,1.331 8.046,0.796 12.051,0.395 0.849,2.198 1.703,4.395 2.529,6.604 -5.953,1.558 -12.382,1.639 -18.201,-0.529 -9.4,-3.302 -16.579,-11.318 -20.213,-20.439 -6.088,-15.068 -3.239,-33.903 8.474,-45.5 z"
     id="path22-3" /><path
     fill="#f5a4aa"
     stroke="#f5a4aa"
     stroke-width="0.2907"
     d="m 1018.826,1253.404 c 4.075,0.128 8.15,-0.163 12.231,-0.209 -0.564,3.848 -2.889,7.092 -4.494,10.557 -3.529,6.761 -7.296,13.406 -11.685,19.649 -2.639,4.093 -5.976,7.662 -8.842,11.597 -6.831,8.243 -14.638,15.795 -23.654,21.625 -6.871,4.988 -14.783,8.336 -22.881,10.784 -13.929,3.726 -28.921,2.668 -42.42,-2.256 -15.196,-5.255 -28.468,-14.731 -40.652,-25.02 -3.738,-3.011 -6.865,-6.668 -10.481,-9.807 -6.325,-6.674 -12.795,-13.237 -18.504,-20.457 -3.354,-3.325 -5.964,-7.267 -8.947,-10.9 -1.157,-1.465 -2.442,-2.947 -2.86,-4.813 0.448,-0.575 1.046,-0.825 1.79,-0.75 60.465,0 120.935,0 181.399,0 z"
     id="path24-8" /><path
     fill="#e3af88"
     stroke="#e3af88"
     stroke-width="0.2907"
     d="m 990.16,1395.015 c 0.866,-0.087 1.744,-0.157 2.628,-0.198 2.285,0.093 4.587,0.128 6.86,0.436 0.727,4.529 1.808,9.022 1.953,13.626 -0.012,9.371 -1.61,18.917 -6.133,27.224 -2.837,5.081 -6.185,9.964 -10.574,13.836 -3.366,2.889 -6.738,5.889 -10.795,7.778 -8.104,4.063 -17.353,6.348 -26.416,5.075 8.505,-1.134 16.981,-4.017 23.718,-9.447 13.185,-9.772 21.091,-26.125 20.899,-42.495 0.215,-5.377 -1.111,-10.609 -2.14,-15.835 z"
     id="path26-4" /><path
     fill="#c3a0c1"
     stroke="#c3a0c1"
     stroke-width="0.2907"
     d="m 999.648,1395.254 c 13.551,1.308 27.119,2.947 40.338,6.296 1.227,0.227 2.529,0.756 3.75,0.198 2.843,-1.052 5.691,-2.157 8.72,-2.558 10.743,-1.732 21.643,1.244 31.374,5.703 11.371,5.232 21.666,12.51 31.305,20.44 7.017,5.889 13.876,12.01 20.166,18.678 1.907,3.68 5.488,5.947 8.011,9.139 3.005,3.598 6.447,6.912 8.883,10.935 -0.593,1.68 -2.442,2.511 -3.819,3.5 -2.854,1.628 -5.395,3.721 -7.743,6.005 -3.587,3.104 -7.615,5.639 -11.429,8.453 -7.551,5.511 -15.242,10.824 -22.8,16.324 -0.029,1.558 -0.047,3.116 -0.052,4.686 0.047,5.802 0.68,11.597 0.279,17.411 -0.669,8.906 -0.163,17.853 -0.988,26.753 -0.169,7.4 -1.628,14.702 -1.791,22.102 -0.081,4.523 -1.256,8.917 -1.727,13.4 -1.058,8.028 -1.837,16.097 -3.325,24.061 -1.459,13.231 -4.441,26.212 -6.662,39.315 -0.372,1.767 -0.872,3.505 -1.354,5.249 -12.016,-2.779 -24.387,-1.198 -36.525,-0.36 -10.406,0.645 -20.8,-0.378 -31.188,-0.837 -8.156,-0.889 -16.376,-0.901 -24.544,-1.593 0.628,-0.977 -1.279,-0.663 -1.75,-0.715 -5.906,0.576 -11.836,0.273 -17.748,0.052 0.314,-0.57 0.791,-0.866 1.418,-0.878 -7.429,0.221 -14.888,0.035 -22.294,-0.64 -7.65,-0.971 -15.388,-0.924 -23.061,-1.622 -6.412,-0.233 -12.778,-1.07 -19.184,-1.302 -29.776,-1.837 -59.557,-3.691 -89.333,-5.546 -4.476,-0.738 -8.801,0.82 -13.045,1.982 -3.918,1.099 -7.836,2.186 -11.749,3.314 -2.139,-5.238 -2.854,-10.877 -4.476,-16.26 -3.447,-12.516 -6.4,-25.166 -9.162,-37.844 -0.895,-6.063 -2.471,-11.999 -3.505,-18.033 -0.744,-3.883 -0.808,-7.859 -1.703,-11.714 -0.942,-4.058 -0.971,-8.243 -1.628,-12.342 -1.54,-9.435 -1.227,-19.062 -2.43,-28.526 -1.918,-0.634 -3.971,-0.465 -5.959,-0.465 -4.529,0.023 -9.08,0.215 -13.597,-0.285 -0.669,-5.127 -1.953,-10.144 -2.645,-15.266 -1.773,-11.4 -3.093,-22.875 -3.918,-34.38 -0.029,-5.848 -0.326,-11.72 0.256,-17.55 0.791,-6.464 1.552,-13.376 5.517,-18.783 3.564,-4.296 8.83,-6.645 13.882,-8.714 9.976,-3.79 20.498,-5.9 31.002,-7.644 14.737,-2.366 29.619,-3.744 44.524,-4.505 3.197,-0.163 6.168,-1.471 9.226,-2.29 15.231,-4.348 30.793,-7.447 46.454,-9.761 -0.407,4.511 -1.517,8.976 -1.267,13.533 0.436,5.517 1.291,11.039 3.034,16.312 2.982,9.464 9.034,17.777 16.684,24.026 7.4,5.581 16.242,9.691 25.613,10.086 9.063,1.273 18.312,-1.011 26.416,-5.075 4.058,-1.889 7.429,-4.889 10.795,-7.778 4.389,-3.872 7.737,-8.755 10.574,-13.836 4.523,-8.307 6.121,-17.853 6.133,-27.224 -0.145,-4.605 -1.227,-9.099 -1.953,-13.627 z"
     id="path28-9" /><path
     fill="#fcc896"
     stroke="#fcc896"
     stroke-width="0.2907"
     d="m 648.641,1537.505 c 34.694,-23.16 69.393,-46.303 104.116,-69.422 0.825,11.505 2.145,22.98 3.918,34.38 0.692,5.121 1.977,10.138 2.645,15.266 -3.994,2.168 -7.621,4.912 -11.417,7.406 -51.581,34.386 -103.192,68.736 -154.755,103.157 -9.359,6.22 -18.73,12.44 -28.037,18.748 -0.512,4.866 -1.215,9.877 -3.779,14.155 -2.418,4.476 -6.342,7.796 -10.185,11.005 0.715,1.796 1.506,3.651 1.407,5.633 -1.424,2.662 -2.918,5.993 -6.185,6.697 -9.79,2.128 -19.841,0.564 -29.741,1.25 -1.18,-0.093 -1.407,1.221 -2,1.965 -0.291,0.087 -0.86,0.262 -1.145,0.355 -14.394,-0.285 -27.619,-9.336 -35.048,-21.358 -3.308,-5.499 -5.79,-12.173 -3.988,-18.608 2.029,-7.127 6.784,-13.179 12.313,-17.975 6.36,-5.732 13.917,-10.051 21.968,-12.929 2.011,3.128 -0.529,6.883 0.919,10.109 3.436,0.535 6.924,0.134 10.383,0.209 6.598,0.058 13.196,-0.215 19.788,0.046 1.901,0.029 3.837,0.14 5.709,-0.267 0.895,-1.093 0.698,-2.628 0.808,-3.924 -0.081,-5.447 0.558,-11.22 -2.058,-16.225 10.551,-7.354 21.445,-14.202 32.008,-21.538 24.217,-15.895 48.196,-32.155 72.356,-48.135 z"
     id="path30-9" /><path
     fill="#fcc896"
     stroke="#fcc896"
     stroke-width="0.169"
     d="m 1129.202,1482.04 c 3.813,-2.814 7.842,-5.348 11.429,-8.453 50.081,44.326 100.262,88.531 150.378,132.816 2.93,2.546 5.668,5.348 8.97,7.441 3.994,-1.965 7.987,-3.936 12.109,-5.616 5.319,-1.139 10.481,-3.186 15.109,-6.057 3,-1.622 6.412,-2.168 9.638,-3.197 5.447,-1.657 11.249,-2.023 16.87,-1.099 1.546,2.302 4.023,4.203 4.36,7.139 0.401,3.54 -1.343,6.883 -1.244,10.435 5.156,-1.523 9.883,-4.901 15.458,-4.691 1.767,-0.093 3.773,0.558 4.418,2.389 1.918,4.773 1.43,10.272 -0.744,14.882 3.459,1.756 7.226,3.244 9.917,6.162 1.488,1.651 2.535,4.284 1.221,6.354 -1.389,2.075 -3.494,3.529 -5.435,5.046 -4.796,3.645 -10.313,6.139 -15.655,8.848 3.296,0.918 6.743,1.575 9.766,3.273 1.465,0.837 3.029,2.378 2.587,4.244 -0.604,2.401 -2.744,3.947 -4.656,5.302 -5.197,3.575 -11.627,5.058 -17.887,4.616 1.25,-5.279 1.57,-10.807 1.006,-16.19 -3.813,-0.296 -7.505,1.046 -11.278,1.279 -5.557,0.355 -11.243,0.773 -16.684,-0.622 -1.116,-0.244 -3.04,-0.703 -3.296,0.895 0.047,3.639 1.232,7.168 1.587,10.795 0.43,4.156 2.006,8.127 2.104,12.324 -1.663,-0.18 -3.29,-0.581 -4.866,-1.099 -13.126,-6.325 -25.846,-13.458 -38.513,-20.643 -3.308,-2.186 -7.098,-3.587 -10.191,-6.087 -56.441,-49.831 -112.877,-99.669 -169.329,-149.477 0.01,-1.57 0.023,-3.128 0.052,-4.686 7.557,-5.498 15.248,-10.812 22.799,-16.323 m 226.376,127.567 c -1.68,3.883 -5.261,6.435 -8.546,8.883 -8.046,4.889 -17.283,7.36 -26.462,9.069 -5.238,0.965 -10.377,2.849 -15.742,2.79 -2.337,0.047 -3.238,-2.302 -4.046,-4.058 -0.942,1.866 -0.134,4.337 1.721,5.307 2.622,1.511 5.79,1.099 8.679,0.855 3.674,-0.471 7.476,-0.395 10.987,-1.727 0.808,3.674 0.151,7.54 1.529,11.132 3.279,-2.168 5.709,-5.319 8.848,-7.662 3.407,-2.994 7.575,-5.139 10.394,-8.772 2.07,-0.825 3.628,-2.581 5.499,-3.773 1.924,-1.523 4.279,-2.61 5.831,-4.534 0.407,-1.506 0.762,-3.029 1.541,-4.395 1.076,-1.936 1.198,-4.174 1.267,-6.331 -0.524,1.059 -1.006,2.14 -1.5,3.216 m -31.241,37.391 c -0.517,1.599 0.035,3.261 0.343,4.854 2.5,-1.448 4.854,-3.128 7.063,-4.988 -2.226,-1.558 -5.081,-0.692 -7.406,0.134 z"
     id="path32-0" /><path
     fill="#debfad"
     stroke="#debfad"
     stroke-width="0.2907"
     d="m 1333.906,1588.109 c 2.302,-1.006 4.802,-1.477 7.313,-1.61 2.697,0.163 5.447,1 7.377,2.994 2.529,2.215 3.715,5.418 5.11,8.383 -5.621,-0.924 -11.423,-0.558 -16.87,1.099 -3.226,1.029 -6.639,1.575 -9.638,3.197 -4.627,2.872 -9.79,4.918 -15.109,6.057 3.924,-2.168 8.185,-3.587 12.266,-5.424 1.656,-5.668 4.04,-11.748 9.551,-14.696 z"
     id="path34-8" /><path
     fill="#debfad"
     stroke="#debfad"
     stroke-width="0.2907"
     d="m 524.696,1597.527 c 1.488,-0.128 2.982,-0.244 4.476,-0.378 2.79,0.506 5.61,1.215 8.075,2.674 2.976,1.727 5.308,4.395 7.028,7.354 2.616,5.005 1.977,10.778 2.058,16.225 -0.11,1.296 0.087,2.831 -0.808,3.924 -1.872,0.407 -3.808,0.297 -5.709,0.267 -6.592,-0.261 -13.19,0.012 -19.788,-0.046 -3.459,-0.076 -6.947,0.325 -10.383,-0.209 -1.448,-3.226 1.093,-6.982 -0.919,-10.109 0.076,-0.669 0.151,-1.349 0.238,-1.982 0.471,-3.372 1.151,-6.842 3.128,-9.685 2.937,-4.187 7.553,-7.169 12.604,-8.035 z"
     id="path36-9" /><path
     fill="#eebb8f"
     stroke="#eebb8f"
     stroke-width="0.2907"
     d="m 1355.578,1609.607 c 0.494,-1.076 0.977,-2.157 1.5,-3.215 -0.07,2.157 -0.192,4.395 -1.267,6.331 -0.779,1.366 -1.134,2.889 -1.541,4.395 -1.552,1.924 -3.906,3.011 -5.831,4.534 -1.872,1.192 -3.43,2.947 -5.499,3.773 -2.11,0.023 -4.313,-0.11 -6.243,0.895 -4.587,2.273 -9.778,2.622 -14.527,4.406 -3.511,1.331 -7.313,1.256 -10.987,1.727 -2.889,0.244 -6.057,0.657 -8.679,-0.855 -1.854,-0.971 -2.662,-3.441 -1.721,-5.307 0.808,1.756 1.709,4.104 4.046,4.058 5.366,0.058 10.505,-1.825 15.742,-2.79 9.179,-1.709 18.417,-4.18 26.462,-9.069 3.284,-2.448 6.865,-5 8.545,-8.883 z"
     id="path38-2" /><path
     fill="#e0bfa8"
     stroke="#e0bfa8"
     stroke-width="0.2907"
     d="m 1336.696,1626.32 c 1.93,-1.006 4.133,-0.872 6.243,-0.895 -2.819,3.633 -6.988,5.778 -10.394,8.772 -3.139,2.343 -5.569,5.494 -8.848,7.662 -1.378,-3.593 -0.721,-7.458 -1.529,-11.132 4.75,-1.785 9.941,-2.134 14.528,-4.407 z"
     id="path40-0" /><path
     fill="#d7715d"
     stroke="#d7715d"
     stroke-width="0.2907"
     d="m 813.529,1639.882 c 4.244,-1.163 8.569,-2.721 13.045,-1.982 29.776,1.854 59.557,3.709 89.333,5.546 6.406,0.233 12.772,1.07 19.184,1.302 7.674,0.698 15.411,0.651 23.061,1.622 -3.395,0.657 -6.842,0.297 -10.255,0.087 -7.191,-0.093 -14.33,-1.104 -21.515,-1.261 -6.4,-0.36 -12.772,-1.157 -19.19,-1.151 -5.819,-0.273 -11.597,-1.168 -17.434,-1.139 -20.178,-1.198 -40.333,-2.732 -60.51,-3.79 -2.872,-0.296 -5.796,-0.639 -8.65,-0.058 -13.144,3.279 -26.038,7.447 -38.972,11.47 -10.237,3.453 -20.48,6.9 -30.52,10.906 -11.685,4.761 -23.526,9.243 -34.705,15.132 -4.656,2.058 -9.261,4.267 -13.644,6.865 -3.755,2.273 -7.761,4.116 -11.464,6.493 -5.912,3.488 -11.58,7.389 -17.109,11.458 -3.75,3.453 -8.156,6.127 -11.667,9.842 -2.849,2.959 -6.04,5.616 -8.453,8.97 -2.715,3.773 -5.645,7.429 -7.72,11.621 -3.168,5.999 -5.087,12.696 -5.528,19.463 0.081,10.295 4.029,20.259 9.824,28.648 3.407,4.505 6.784,9.086 10.975,12.911 7.011,7.185 15.016,13.283 22.666,19.759 8.894,6.47 17.637,13.161 26.945,19.027 4.819,3.255 9.708,6.412 14.841,9.162 4.517,3.081 9.348,5.645 14.057,8.418 5.441,2.872 10.662,6.151 16.248,8.749 8.29,4.744 17.079,8.511 25.619,12.772 16.533,8.104 33.572,15.12 50.552,22.213 8.266,3.436 16.655,6.569 24.974,9.871 4.389,1.913 9.034,3.139 13.411,5.075 3.471,1.506 7.395,2.128 10.33,4.686 -0.331,-0.087 -1.006,-0.256 -1.337,-0.343 -2.232,-0.558 -4.424,-1.267 -6.575,-2.058 -4.575,-2.168 -9.452,-3.587 -14.091,-5.587 -10.464,-3.947 -20.817,-8.179 -31.177,-12.388 -19.969,-7.941 -39.466,-16.992 -58.825,-26.299 -16.713,-8.499 -33.217,-17.44 -49.169,-27.293 -20.376,-12.708 -39.961,-26.828 -57.499,-43.268 -6.802,-6.569 -13.161,-13.812 -17.306,-22.393 -5.499,-10.045 -6.958,-22.37 -3.366,-33.299 3.069,-9.987 9.383,-18.655 16.609,-26.061 7.104,-6.9 14.737,-13.272 23.015,-18.719 16.754,-11.33 35.054,-20.131 53.575,-28.142 21.713,-9.208 44.041,-16.911 66.667,-23.521 3.914,-1.13 7.832,-2.217 11.75,-3.316 z"
     id="path42-7" /><path
     fill="#f55b27"
     stroke="#f55b27"
     stroke-width="0.2907"
     d="m 781.626,1650.527 c 12.935,-4.023 25.828,-8.191 38.972,-11.47 2.854,-0.581 5.778,-0.238 8.65,0.058 20.178,1.058 40.333,2.593 60.51,3.79 5.837,-0.029 11.615,0.866 17.434,1.139 6.418,-0.01 12.789,0.791 19.19,1.151 7.185,0.157 14.324,1.168 21.515,1.261 3.412,0.209 6.86,0.57 10.255,-0.087 7.406,0.674 14.865,0.86 22.294,0.64 -0.628,0.012 -1.104,0.308 -1.418,0.878 5.912,0.221 11.842,0.523 17.748,-0.052 0.471,0.052 2.378,-0.262 1.75,0.715 -4.685,-0.483 -9.388,0.174 -14.08,0.07 10.865,0.895 21.777,1.145 32.636,2.168 13.074,0.459 26.148,2.261 39.24,1.099 8.784,-0.814 17.632,-1.389 26.445,-0.756 5.122,0.564 10.109,2.011 14.969,3.686 5.476,2.407 11.01,4.936 15.655,8.796 13.074,9.958 22.59,23.829 29.741,38.478 4.36,8.313 7.29,17.254 10.603,26.014 6.528,20.509 11.208,41.617 13.83,62.987 0.273,2.471 0.698,4.93 1.151,7.383 0.547,4.116 0.895,8.249 1.413,12.376 0.849,5.668 0.576,11.429 1.203,17.132 0.256,9.301 0.227,18.614 0.244,27.927 -0.151,8.336 0.279,16.731 -1.058,25.003 -1.11,9.918 -7.197,18.556 -14.609,24.927 -4.581,3.819 -9.673,7.005 -14.911,9.848 -4.685,2.418 -9.621,4.308 -14.44,6.429 -1.325,0.506 -2.622,1.058 -3.953,1.523 -18.544,6.424 -38.054,9.441 -57.482,11.714 -6.621,0.256 -13.19,1.43 -19.829,1.174 -4.575,-0.163 -9.109,0.622 -13.684,0.494 -10.784,-0.081 -21.602,0.424 -32.357,-0.517 -6.511,0.07 -12.993,-0.599 -19.48,-1.093 -6.97,-0.285 -13.859,-1.575 -20.829,-1.866 -7.807,-0.744 -15.545,-2.162 -23.247,-3.627 -10.348,-2.075 -20.637,-4.575 -30.572,-8.162 -5.645,-2.151 -11.272,-4.325 -16.899,-6.499 -2.331,-0.889 -4.668,-1.732 -6.964,-2.692 -2.936,-2.558 -6.86,-3.18 -10.33,-4.686 -4.377,-1.936 -9.022,-3.162 -13.411,-5.075 -8.319,-3.302 -16.707,-6.435 -24.974,-9.871 -16.981,-7.092 -34.019,-14.109 -50.552,-22.213 -8.54,-4.261 -17.329,-8.028 -25.619,-12.772 -5.587,-2.599 -10.807,-5.877 -16.248,-8.749 -4.709,-2.773 -9.54,-5.337 -14.057,-8.418 -5.133,-2.75 -10.022,-5.906 -14.841,-9.162 -9.307,-5.866 -18.05,-12.557 -26.945,-19.027 -7.65,-6.476 -15.655,-12.574 -22.666,-19.759 -4.191,-3.825 -7.569,-8.406 -10.975,-12.911 -5.796,-8.389 -9.743,-18.353 -9.824,-28.648 0.442,-6.767 2.36,-13.464 5.528,-19.463 2.075,-4.191 5.005,-7.848 7.72,-11.621 2.413,-3.354 5.604,-6.011 8.453,-8.97 3.511,-3.715 7.918,-6.389 11.667,-9.842 5.528,-4.069 11.196,-7.97 17.109,-11.458 3.703,-2.378 7.708,-4.22 11.464,-6.493 4.383,-2.599 8.987,-4.808 13.644,-6.865 11.179,-5.889 23.021,-10.371 34.705,-15.132 10.036,-4.004 20.279,-7.451 30.516,-10.904 z"
     id="path44-9" /><path
     fill="#e5bea1"
     stroke="#e5bea1"
     stroke-width="0.2907"
     d="m 1324.337,1646.998 c 2.325,-0.825 5.18,-1.692 7.406,-0.134 -2.209,1.86 -4.564,3.54 -7.063,4.988 -0.308,-1.593 -0.86,-3.255 -0.343,-4.854 z"
     id="path46-8" /><path
     fill="#da7a70"
     stroke="#da7a70"
     stroke-width="0.2907"
     d="m 984.446,1648.62 c 4.691,0.105 9.394,-0.552 14.08,-0.07 8.168,0.692 16.388,0.703 24.544,1.593 10.388,0.459 20.782,1.482 31.188,0.837 12.138,-0.837 24.509,-2.418 36.525,0.36 7.47,1.913 14.911,4.808 20.916,9.766 3.349,3.325 7.284,5.999 10.47,9.51 8.081,7.546 13.929,17.062 19.213,26.677 9.243,17.312 15.132,36.17 19.794,55.162 2.273,10.185 4.377,20.416 5.825,30.752 0.703,5.069 1.727,10.121 1.715,15.266 -0.453,-2.453 -0.878,-4.912 -1.151,-7.383 -2.622,-21.37 -7.302,-42.478 -13.83,-62.987 -3.314,-8.761 -6.244,-17.701 -10.603,-26.014 -7.15,-14.65 -16.667,-28.52 -29.741,-38.478 -4.645,-3.86 -10.179,-6.389 -15.655,-8.796 -4.86,-1.674 -9.848,-3.122 -14.969,-3.686 -8.813,-0.634 -17.661,-0.058 -26.445,0.756 -13.092,1.163 -26.166,-0.64 -39.24,-1.099 -10.86,-1.021 -21.771,-1.271 -32.636,-2.166 z"
     id="path48-9" /><path
     fill="#debfad"
     stroke="#debfad"
     stroke-width="0.169"
     d="m 1345.538,1656.962 c 3.773,-0.233 7.464,-1.575 11.278,-1.279 0.564,5.383 0.244,10.911 -1.006,16.19 -0.424,1.732 -0.965,3.843 0.483,5.29 2.558,3.081 5.697,5.802 7.389,9.522 0.616,1.418 1.128,3.412 -0.43,4.436 -2.779,1.994 -6.412,0.889 -9.522,0.546 -0.401,1.761 -0.779,3.529 -1.139,5.313 -6.488,0.058 -12.981,0.064 -19.469,-0.017 -1.238,-4.093 -1.889,-8.313 -2.79,-12.475 -0.372,-3.046 -3.779,-3.773 -5.947,-5.232 1.575,0.517 3.203,0.918 4.866,1.099 -0.099,-4.197 -1.674,-8.168 -2.104,-12.324 -0.355,-3.627 -1.541,-7.156 -1.587,-10.795 0.256,-1.599 2.18,-1.139 3.296,-0.895 5.439,1.394 11.124,0.976 16.682,0.621 m 9.162,29.031 c -0.174,1.477 -0.5,3.011 -0.07,4.488 2.192,0.942 4.831,0.994 7.139,0.384 1.802,-0.558 1.692,-2.988 0.785,-4.273 -1.86,-2.959 -3.924,-5.883 -6.697,-8.051 -1.058,2.354 -0.715,4.97 -1.157,7.452 z"
     id="path50-0" /><path
     fill="#c88c73"
     stroke="#c88c73"
     stroke-width="0.2907"
     d="m 1111.699,1661.107 c 0.913,0.512 1.854,0.988 2.773,1.535 2.349,1.448 4.156,3.575 6.174,5.435 7.203,6.087 12.597,13.993 17.475,21.992 10.807,17.73 17.556,37.594 22.637,57.627 1.947,7.191 3.325,14.51 4.79,21.806 2.221,12.452 4.25,24.951 5.354,37.56 0.169,2.104 0.413,4.197 0.657,6.302 0.477,4.244 0.634,8.522 0.814,12.795 0.122,4.686 0.901,9.342 0.767,14.039 -0.116,15.027 0.831,30.258 -2.349,45.053 -1.901,7.656 -6.569,14.376 -12.394,19.597 -5.133,5.371 -11.708,9.01 -18.225,12.429 -3.93,2.07 -8.185,3.418 -12.156,5.395 -0.366,-0.14 -1.099,-0.413 -1.459,-0.552 4.819,-2.122 9.755,-4.011 14.44,-6.429 5.238,-2.843 10.33,-6.028 14.911,-9.848 7.412,-6.371 13.498,-15.01 14.609,-24.927 1.337,-8.272 0.907,-16.667 1.058,-25.003 -0.017,-9.313 0.012,-18.626 -0.244,-27.927 -0.628,-5.703 -0.355,-11.464 -1.203,-17.132 -0.517,-4.127 -0.866,-8.261 -1.413,-12.376 0.012,-5.145 -1.011,-10.197 -1.715,-15.266 -1.447,-10.336 -3.552,-20.568 -5.825,-30.752 -4.662,-18.992 -10.551,-37.85 -19.794,-55.162 -5.284,-9.615 -11.132,-19.132 -19.213,-26.677 -3.185,-3.515 -7.121,-6.189 -10.469,-9.514 z"
     id="path52-0" /><path
     fill="#debfac"
     stroke="#debfac"
     stroke-width="0.2907"
     d="m 546.368,1684.529 c 3.267,-0.703 4.761,-4.034 6.185,-6.697 0.099,2.488 -0.942,4.994 -2.971,6.493 -2.232,1.814 -5.284,1.482 -7.906,2.209 -1.622,0.692 -2.849,2.035 -4.337,2.959 -4.424,2.837 -10.039,3.25 -15.051,1.953 -2.947,-1.104 -5.598,-3.058 -8.807,-3.348 0.285,-0.093 0.855,-0.267 1.145,-0.355 0.593,-0.744 0.82,-2.058 2,-1.965 9.902,-0.686 19.953,0.878 29.742,-1.249 z"
     id="path54-7" /><path
     fill="#fdc896"
     stroke="#fdc896"
     stroke-width="0.2907"
     d="m 1354.7,1685.993 c 0.442,-2.482 0.099,-5.098 1.157,-7.453 2.773,2.168 4.837,5.092 6.697,8.051 0.907,1.285 1.017,3.715 -0.785,4.273 -2.308,0.61 -4.947,0.558 -7.139,-0.384 -0.43,-1.475 -0.105,-3.01 0.07,-4.487 z"
     id="path56-5" /><path
     fill="#efbb8f"
     stroke="#efbb8f"
     stroke-width="0.2907"
     d="m 879.923,1912.223 c 0.331,0.087 1.006,0.256 1.337,0.343 2.296,0.959 4.633,1.802 6.964,2.692 -0.32,0.918 -0.541,1.878 -0.721,2.854 -0.11,32.02 0.099,64.057 -0.105,96.082 -4.842,-1.971 -9.168,-4.953 -13.9,-7.145 -4.034,-2.279 -8.203,-4.302 -12.423,-6.197 -8.028,-3.593 -15.841,-7.668 -24.073,-10.79 -21.573,-8.883 -44.175,-16.231 -67.608,-17.678 -4.459,-0.43 -8.912,0.198 -13.353,0.5 -8.987,0.767 -17.806,3.761 -25.183,8.987 -14.789,9.569 -26.95,22.933 -35.577,38.257 -0.517,0.616 -0.82,1.814 -1.82,1.761 -3.628,0.14 -7.394,-0.221 -10.842,1.168 -0.291,0.192 -0.866,0.581 -1.151,0.773 0.14,-0.43 0.43,-1.285 0.576,-1.715 2.738,-7.517 7.11,-14.266 11.295,-21.032 4.058,-5.127 8.098,-10.278 12.685,-14.952 6.79,-6.546 14.214,-12.475 22.37,-17.225 8.982,-4.802 19.283,-6.43 29.369,-6.435 17.783,0.087 35.211,4.529 51.977,10.133 18.039,6.133 35.508,13.859 52.494,22.463 6.005,2.843 11.679,6.336 17.719,9.115 0.279,-8.54 0.029,-17.091 0.116,-25.637 -0.059,-22.106 0.18,-44.22 -0.146,-66.322 z"
     id="path58-1" /><path
     fill="#fcc896"
     stroke="#fcc896"
     stroke-width="0.2907"
     d="m 887.503,1918.112 c 0.18,-0.977 0.401,-1.936 0.721,-2.854 5.627,2.174 11.255,4.348 16.899,6.499 9.935,3.587 20.224,6.086 30.572,8.162 7.703,1.465 15.44,2.883 23.247,3.627 0.087,1.215 0.174,2.459 0.291,3.703 1.174,8.307 1.854,16.684 2.465,25.055 1.343,11.365 1.046,22.84 1.11,34.269 0.099,8.889 -0.762,17.748 -1.744,26.578 -1.448,9.679 -3.529,19.393 -7.732,28.288 -3.157,6.633 -7.656,12.952 -14.091,16.736 -2.988,1.785 -6.61,1.75 -9.976,1.663 -12.237,-0.575 -24.166,-3.622 -36.025,-6.459 -3.412,-0.773 -6.162,-3.023 -9.115,-4.749 -25.276,-15.399 -51.622,-29.165 -79.171,-40.048 -10.952,-4.203 -22.073,-8.144 -33.578,-10.569 -5.668,-1.116 -11.522,-2.186 -17.3,-1.25 -3.645,0.576 -6.592,2.959 -9.464,5.098 -11.068,8.348 -19.341,20.201 -23.608,33.368 -0.715,2.383 -1.628,4.755 -1.849,7.255 0.139,2.604 1.32,5.011 1.883,7.54 2.349,9.051 3.325,18.405 3.459,27.741 l 0.076,1.209 c -12.504,-3.104 -25.468,-3.372 -38.251,-4.249 -3.075,-0.058 -6.191,0.064 -9.179,-0.791 -0.012,-10.313 1.959,-20.567 5.081,-30.375 2.325,-6.522 5.255,-12.905 9.47,-18.445 2.424,-3.378 5.528,-6.168 8.499,-9.046 -1.959,-1.25 -4,-2.517 -6.342,-2.848 -3.721,-0.599 -7.493,-0.14 -11.231,-0.163 3.447,-1.389 7.214,-1.029 10.842,-1.168 1,0.052 1.302,-1.145 1.82,-1.761 8.627,-15.324 20.788,-28.689 35.577,-38.257 7.377,-5.226 16.196,-8.22 25.183,-8.987 4.441,-0.302 8.894,-0.93 13.353,-0.5 23.433,1.448 46.035,8.795 67.608,17.678 8.232,3.122 16.045,7.197 24.073,10.79 4.22,1.895 8.389,3.918 12.423,6.197 4.732,2.192 9.057,5.174 13.9,7.145 0.203,-32.025 -0.006,-64.062 0.104,-96.082 z"
     id="path60-2" /><path
     fill="#fcc896"
     stroke="#fcc896"
     stroke-width="0.2907"
     d="m 1065.123,1935.354 c 19.428,-2.273 38.937,-5.29 57.482,-11.714 0.506,1.43 0.994,2.878 1.424,4.354 3.61,13.708 6.889,27.561 8.4,41.681 0.791,8.33 1.227,16.853 -0.558,25.096 -0.761,3.837 -4.29,6.063 -7.005,8.505 -4.156,3.157 -7.644,7.046 -11.47,10.568 -17.8,17.899 -35.06,36.356 -51.14,55.819 -13.533,16.33 -26.514,33.182 -37.751,51.192 -3.238,5.459 -6.755,10.807 -9.232,16.678 -2.506,5.313 -4.889,10.784 -5.807,16.632 -0.674,3.814 0.767,7.528 1.732,11.162 0.988,3.255 1.779,6.586 2.988,9.784 0.808,2.192 3.261,2.965 5.023,4.232 12.243,7.871 23.288,17.62 32.694,28.723 0.14,0.174 0.424,0.529 0.57,0.709 -6.511,1.302 -12.08,5.11 -17.672,8.476 -4.104,2.395 -8.028,5.081 -11.917,7.813 -3.54,2.622 -7.365,4.848 -10.731,7.714 -3.837,-1.93 -6.767,-5.139 -9.952,-7.929 -8.034,-7.336 -15.109,-15.702 -21.195,-24.707 -2.674,-3.889 -4.488,-8.266 -6.598,-12.458 -1.384,-3.029 -2.558,-6.313 -2.267,-9.685 0.337,-3.505 -0.134,-6.999 -0.174,-10.493 1.244,-0.802 2.622,-1.407 3.75,-2.366 0.523,-3.872 -0.651,-7.732 -0.413,-11.609 0.715,-13.83 3.447,-27.561 8.081,-40.606 3.331,-10.714 7.679,-21.073 12.371,-31.252 4.383,-10.034 9.732,-19.603 14.934,-29.223 11.47,-20.19 24.143,-39.746 38.49,-58.017 5.569,-6.993 11.132,-14.016 17.422,-20.381 1.238,-1.314 2.674,-2.535 3.401,-4.22 -0.587,-2.831 -2.07,-5.366 -3.046,-8.057 -3.25,-8.395 -7.424,-16.411 -10.4,-24.904 2.898,-0.209 5.769,-0.703 8.566,-1.517 z"
     id="path62-2" /><path
     fill="#c59179"
     stroke="#c59179"
     stroke-width="0.2907"
     d="m 958.943,1933.546 c 6.97,0.291 13.859,1.581 20.829,1.866 6.488,0.494 12.969,1.163 19.48,1.093 10.755,0.942 21.573,0.436 32.357,0.517 4.575,0.128 9.109,-0.657 13.684,-0.494 0.14,0.378 0.43,1.134 0.57,1.511 -3.976,-0.343 -7.953,0.186 -11.929,0.157 -10.667,0.041 -21.346,0.192 -32.008,-0.116 -5.61,-0.622 -11.26,-0.331 -16.87,-0.901 -5.569,-0.407 -11.132,-0.936 -16.69,-1.5 -2.872,-0.285 -5.767,-0.884 -8.65,-0.465 -0.174,0.657 -0.337,1.337 -0.482,2.035 -0.117,-1.244 -0.204,-2.488 -0.291,-3.703 z"
     id="path64-0" /><path
     fill="#f0bb8f"
     stroke="#f0bb8f"
     stroke-width="0.2907"
     d="m 1045.293,1936.529 c 6.639,0.256 13.208,-0.918 19.829,-1.174 -2.796,0.814 -5.668,1.308 -8.569,1.517 2.976,8.493 7.15,16.51 10.4,24.904 0.977,2.692 2.459,5.226 3.046,8.057 -0.727,1.686 -2.163,2.907 -3.401,4.22 -6.29,6.365 -11.853,13.388 -17.422,20.381 -14.347,18.271 -27.02,37.827 -38.49,58.017 -5.203,9.621 -10.551,19.19 -14.934,29.223 -4.691,10.179 -9.04,20.538 -12.371,31.252 -4.633,13.045 -7.365,26.776 -8.081,40.606 -0.238,3.877 0.936,7.738 0.413,11.609 -1.128,0.959 -2.506,1.564 -3.75,2.366 -0.012,0.075 -0.047,0.221 -0.064,0.296 -0.506,0 -1.511,0.01 -2.011,0.012 -1.186,1.43 -2.389,2.854 -3.418,4.412 -0.081,-0.343 -0.238,-1.029 -0.32,-1.366 -3.128,-12.964 -1.721,-26.485 1.012,-39.379 6.313,-28.061 18.835,-54.25 32.543,-79.369 0.663,-1.157 1.378,-2.273 2.07,-3.401 13.347,-23.201 28.491,-45.402 45.71,-65.905 3.755,-4.447 7.9,-8.534 11.749,-12.888 -4.354,-10.673 -9.051,-21.201 -13.371,-31.88 -0.139,-0.377 -0.43,-1.133 -0.57,-1.51 z"
     id="path66-5" /><path
     fill="#a69d68"
     stroke="#a69d68"
     stroke-width="0.2907"
     d="m 665.541,2037.47 c 3.872,-6.598 9.941,-11.586 16.504,-15.353 -0.145,0.43 -0.436,1.285 -0.576,1.715 -2.912,2.11 -6.226,3.715 -8.65,6.435 -5.406,5.174 -9.005,11.882 -11.842,18.73 -5.714,14.522 -7.522,30.334 -6.831,45.85 0.872,15.37 4.232,31.031 12.458,44.239 4.069,6.209 9.447,12.173 16.8,14.341 5.505,1.814 11.609,0.75 16.545,-2.139 5.778,-3.337 9.947,-8.778 13.272,-14.434 7.208,-12.679 10.26,-27.311 11.08,-41.751 1.506,-0.825 3.023,-1.634 4.546,-2.424 -0.39,-0.994 -0.808,-2.017 -1.767,-2.558 -0.831,-0.418 -1.668,-0.791 -2.505,-1.145 l -0.076,-1.209 c 1.389,0.61 2.831,1.168 4.075,2.075 1.215,0.709 1.198,2.523 0.43,3.569 -1.203,1.169 -2.825,1.831 -3.982,3.07 -0.907,2.424 -0.448,5.104 -0.808,7.644 -0.727,5.104 -1.436,10.243 -3.011,15.173 -0.913,3.581 -2.401,6.976 -3.627,10.458 -1.07,3.133 -3,5.86 -4.517,8.79 -1.808,3.407 -4.22,6.5 -7.174,9.005 -2.546,2.116 -4.831,4.715 -7.987,5.941 -4.389,1.732 -9.348,2.692 -13.958,1.273 -3.18,-0.994 -6.302,-2.36 -8.976,-4.36 -8.604,-7.249 -14.062,-17.545 -17.236,-28.2 -2.267,-7.743 -4.104,-15.672 -4.622,-23.741 -0.576,-5.214 0.058,-10.47 -0.512,-15.678 0.709,-4.313 0.68,-8.714 1.639,-12.981 0.448,-2.122 0.878,-4.244 1.279,-6.36 1.832,-9.145 5.175,-18.004 10.029,-25.975 z"
     id="path68-6" /><path
     fill="#f8ce20"
     stroke="#f8ce20"
     stroke-width="0.2907"
     d="m 672.819,2030.268 c 2.424,-2.721 5.738,-4.325 8.65,-6.435 0.285,-0.192 0.86,-0.581 1.151,-0.773 3.738,0.023 7.511,-0.436 11.231,0.163 2.343,0.331 4.383,1.599 6.342,2.848 -2.971,2.878 -6.075,5.668 -8.499,9.046 -4.215,5.54 -7.145,11.923 -9.47,18.445 -3.122,9.807 -5.092,20.062 -5.081,30.375 2.988,0.854 6.104,0.732 9.179,0.791 12.783,0.878 25.747,1.145 38.251,4.249 0.837,0.355 1.674,0.727 2.505,1.145 0.413,0.68 0.826,1.384 1.238,2.104 -2.581,1.884 -5.447,3.447 -8.633,4.011 -8.505,1.663 -17.138,2.645 -25.782,3.209 -5.034,0.518 -10.138,0.337 -15.132,1.209 -0.186,0.122 -0.558,0.366 -0.744,0.494 -0.535,2.395 0.07,4.854 0.436,7.249 2.488,13.556 7.092,27.258 16.527,37.629 1.227,1.343 2.657,2.5 4.11,3.61 0.279,0.529 0.558,1.082 0.849,1.651 -4.935,2.889 -11.039,3.953 -16.545,2.139 -7.354,-2.168 -12.731,-8.133 -16.8,-14.341 -8.226,-13.208 -11.586,-28.869 -12.458,-44.239 -0.692,-15.516 1.116,-31.328 6.831,-45.85 2.839,-6.847 6.438,-13.555 11.844,-18.729 z"
     id="path70-2" /><path
     fill="#fcc896"
     stroke="#fcc896"
     stroke-width="0.2907"
     d="m 727.08,2090.121 c 0.959,0.541 1.378,1.564 1.767,2.558 -1.523,0.791 -3.04,1.599 -4.546,2.424 -0.82,14.44 -3.872,29.072 -11.08,41.751 -3.325,5.656 -7.493,11.097 -13.272,14.434 -0.291,-0.57 -0.57,-1.122 -0.849,-1.651 -1.453,-1.11 -2.883,-2.267 -4.11,-3.61 -9.435,-10.371 -14.039,-24.073 -16.527,-37.629 -0.366,-2.395 -0.971,-4.854 -0.436,-7.249 0.186,-0.128 0.558,-0.372 0.744,-0.494 4.994,-0.872 10.098,-0.692 15.132,-1.209 8.644,-0.564 17.277,-1.546 25.782,-3.209 3.186,-0.564 6.052,-2.127 8.633,-4.011 -0.412,-0.721 -0.825,-1.424 -1.238,-2.105 z"
     id="path72-5" /><path
     fill="#f8ce20"
     stroke="#f8ce20"
     stroke-width="0.2907"
     d="m 971.901,2167.804 c 0.017,-0.075 0.052,-0.221 0.064,-0.296 0.041,3.494 0.512,6.988 0.174,10.493 -0.291,3.372 0.884,6.656 2.267,9.685 2.11,4.191 3.924,8.569 6.598,12.458 6.086,9.005 13.161,17.37 21.195,24.707 3.186,2.79 6.116,5.999 9.952,7.929 3.366,-2.866 7.191,-5.092 10.731,-7.714 3.889,-2.732 7.813,-5.418 11.917,-7.813 5.592,-3.366 11.161,-7.174 17.672,-8.476 -0.145,-0.18 -0.43,-0.535 -0.57,-0.709 2.476,-0.285 4.988,-0.256 7.429,0.32 0.134,2.279 -0.064,4.622 -1.378,6.581 l -0.273,-0.599 c -1.163,3.261 -3.965,5.418 -6.331,7.778 -2.436,2.197 -4.918,4.337 -7.383,6.493 -5.906,4.918 -12.603,8.807 -18.37,13.882 4.947,3.825 10.842,6.075 16.434,8.767 8.069,3.133 16.766,4.958 25.445,4.069 0.017,0.512 0.041,1.535 0.052,2.046 -1.366,1.256 -2.866,2.448 -4.645,3.07 -3.837,0.168 -7.674,1.023 -11.516,0.401 -10.923,-1.494 -21.102,-6.209 -30.502,-11.789 -17.783,-11.028 -33.647,-25.445 -45.28,-42.908 -5.151,-7.935 -9.4,-16.847 -9.772,-26.45 0.023,-3.872 1.25,-8.173 4.738,-10.307 -0.453,4.122 -0.122,8.272 1.029,12.266 0.34,-4.629 0.05,-9.268 0.323,-13.884 z"
     id="path74-8" /><path
     fill="#f7c647"
     stroke="#f7c647"
     stroke-width="0.2907"
     d="m 966.471,2172.228 c 1.029,-1.558 2.232,-2.982 3.418,-4.412 0.5,-0.01 1.506,-0.012 2.011,-0.012 -0.273,4.616 0.017,9.255 -0.32,13.882 -1.151,-3.994 -1.482,-8.144 -1.029,-12.266 -3.488,2.134 -4.715,6.435 -4.738,10.307 0.372,9.604 4.622,18.515 9.772,26.45 11.632,17.463 27.497,31.88 45.28,42.908 9.4,5.581 19.579,10.295 30.502,11.789 3.843,0.622 7.679,-0.233 11.516,-0.401 -5.406,2.32 -11.481,1.581 -17.062,0.366 -10.615,-2.488 -20.387,-7.662 -29.531,-13.475 -14.963,-9.854 -28.334,-22.248 -38.856,-36.775 -3.883,-5.435 -7.331,-11.219 -9.795,-17.44 -2.551,-6.55 -4.574,-14.294 -1.168,-20.921 z"
     id="path76-9" /><path
     fill="#988c5b"
     stroke="#988c5b"
     stroke-width="0.2907"
     d="m 966.151,2170.862 c 0.081,0.337 0.238,1.023 0.32,1.366 -3.407,6.627 -1.384,14.37 1.168,20.922 2.465,6.22 5.912,12.004 9.795,17.44 10.522,14.527 23.893,26.921 38.856,36.775 9.144,5.813 18.916,10.987 29.531,13.475 5.581,1.215 11.656,1.953 17.062,-0.366 1.779,-0.622 3.279,-1.814 4.645,-3.07 0.668,-0.668 1.32,-1.331 1.971,-1.988 -0.895,3.657 -4.534,5.627 -7.865,6.639 -6.825,2.087 -14.022,0.343 -20.649,-1.622 -4.709,-1.337 -9.133,-3.43 -13.475,-5.645 -8.546,-3.994 -16.236,-9.557 -23.677,-15.294 -9.342,-7.47 -17.806,-16.051 -25.084,-25.544 -6.249,-7.895 -11.365,-16.853 -14.016,-26.607 -1.081,-4.546 -0.907,-9.278 0.035,-13.824 0.43,-0.913 0.907,-1.802 1.383,-2.657 z"
     id="path78-0" /><path
     fill="#fcc896"
     stroke="#fcc896"
     stroke-width="0.2907"
     d="m 1051.351,2222.147 c 2.366,-2.36 5.168,-4.517 6.331,-7.778 l 0.273,0.599 c 1.227,2.866 3.319,5.238 4.877,7.929 3.145,5.313 5.918,10.923 7.464,16.928 1.302,5.116 1.349,10.685 -0.797,15.591 -0.651,0.657 -1.302,1.32 -1.971,1.988 -0.012,-0.511 -0.035,-1.534 -0.052,-2.046 -8.679,0.889 -17.376,-0.936 -25.445,-4.069 -5.592,-2.692 -11.487,-4.941 -16.434,-8.767 5.767,-5.075 12.464,-8.964 18.37,-13.882 2.466,-2.156 4.948,-4.296 7.384,-6.493 z"
     id="path80-5" /></g><text
   xml:space="preserve"
   style="font-size:170.1px;line-height:1.25;font-family:Calibri;-inkscape-font-specification:'Calibri, Normal';letter-spacing:0px;word-spacing:0px;stroke-width:4.25248"
   x="613.81287"
   y="1057.5618"
   id="text1336-7"
   transform="scale(1.1200498,0.89281745)"><tspan
     sodipodi:role="line"
     id="tspan1334-7"
     x="613.81287"
     y="1057.5618"
     style="stroke-width:4.25248">O</tspan></text><text
   xml:space="preserve"
   style="font-size:185.935px;line-height:1.25;font-family:Calibri;-inkscape-font-specification:'Calibri, Normal';letter-spacing:0px;word-spacing:0px;stroke-width:4.64836"
   x="445.68158"
   y="1156.014"
   id="text1336-6"
   transform="scale(1.2243194,0.81678033)"><tspan
     sodipodi:role="line"
     id="tspan1334-5"
     x="445.68158"
     y="1156.014"
     style="stroke-width:4.64836">X</tspan></text><text
   xml:space="preserve"
   style="font-size:185.935px;line-height:1.25;font-family:Calibri;-inkscape-font-specification:'Calibri, Normal';letter-spacing:0px;word-spacing:0px;stroke-width:4.64836"
   x="803.15271"
   y="1156.014"
   id="text1336-0"
   transform="scale(1.2243194,0.81678033)"><tspan
     sodipodi:role="line"
     id="tspan1334-6"
     x="803.15271"
     y="1156.014"
     style="stroke-width:4.64836">X</tspan></text><text
   xml:space="preserve"
   style="font-size:185.935px;line-height:1.25;font-family:Calibri;-inkscape-font-specification:'Calibri, Normal';letter-spacing:0px;word-spacing:0px;stroke-width:4.64836"
   x="922.30975"
   y="1156.014"
   id="text1336-8"
   transform="scale(1.2243194,0.81678033)"><tspan
     sodipodi:role="line"
     id="tspan1334-9"
     x="922.30975"
     y="1156.014"
     style="stroke-width:4.64836">X</tspan></text><text
   xml:space="preserve"
   style="font-size:185.935px;line-height:1.25;font-family:Calibri;-inkscape-font-specification:'Calibri, Normal';letter-spacing:0px;word-spacing:0px;stroke-width:4.64836"
   x="1279.7809"
   y="1156.014"
   id="text1336-4"
   transform="scale(1.2243194,0.81678033)"><tspan
     sodipodi:role="line"
     id="tspan1334-65"
     x="1279.7809"
     y="1156.014"
     style="stroke-width:4.64836">X</tspan></text><text
   xml:space="preserve"
   style="font-size:185.935px;line-height:1.25;font-family:Calibri;-inkscape-font-specification:'Calibri, Normal';letter-spacing:0px;word-spacing:0px;stroke-width:4.64836"
   x="1398.938"
   y="1156.014"
   id="text1336-3"
   transform="scale(1.2243194,0.81678033)"><tspan
     sodipodi:role="line"
     id="tspan1334-3"
     x="1398.938"
     y="1156.014"
     style="stroke-width:4.64836">X</tspan></text><text
   xml:space="preserve"
   style="font-size:185.935px;line-height:1.25;font-family:Calibri;-inkscape-font-specification:'Calibri, Normal';letter-spacing:0px;word-spacing:0px;stroke-width:4.64836"
   x="1875.5662"
   y="1156.014"
   id="text1336-08"
   transform="scale(1.2243194,0.81678033)"><tspan
     sodipodi:role="line"
     id="tspan1334-78"
     x="1875.5662"
     y="1156.014"
     style="stroke-width:4.64836">X</tspan></text><text
   xml:space="preserve"
   style="font-size:185.935px;line-height:1.25;font-family:Calibri;-inkscape-font-specification:'Calibri, Normal';letter-spacing:0px;word-spacing:0px;stroke-width:4.64836"
   x="1756.4091"
   y="1156.014"
   id="text1336-47"
   transform="scale(1.2243194,0.81678033)"><tspan
     sodipodi:role="line"
     id="tspan1334-655"
     x="1756.4091"
     y="1156.014"
     style="stroke-width:4.64836">X</tspan></text><text
   transform="scale(1.1200498,0.89281745)"
   id="text1336-7-2"
   y="1057.5618"
   x="744.06268"
   style="font-size:170.1px;line-height:1.25;font-family:Calibri;-inkscape-font-specification:'Calibri, Normal';letter-spacing:0px;word-spacing:0px;stroke-width:4.25248"
   xml:space="preserve"><tspan
     style="stroke-width:4.25248"
     y="1057.5618"
     x="744.06268"
     id="tspan1334-7-2"
     sodipodi:role="line">O</tspan></text><text
   transform="scale(1.1200498,0.89281745)"
   id="text1336-7-3"
   y="1057.5618"
   x="1134.8121"
   style="font-size:170.1px;line-height:1.25;font-family:Calibri;-inkscape-font-specification:'Calibri, Normal';letter-spacing:0px;word-spacing:0px;stroke-width:4.25248"
   xml:space="preserve"><tspan
     style="stroke-width:4.25248"
     y="1057.5618"
     x="1134.8121"
     id="tspan1334-7-7"
     sodipodi:role="line">O</tspan></text><text
   transform="scale(1.1200498,0.89281745)"
   id="text1336-7-6"
   y="1057.5618"
   x="1265.062"
   style="font-size:170.1px;line-height:1.25;font-family:Calibri;-inkscape-font-specification:'Calibri, Normal';letter-spacing:0px;word-spacing:0px;stroke-width:4.25248"
   xml:space="preserve"><tspan
     style="stroke-width:4.25248"
     y="1057.5618"
     x="1265.062"
     id="tspan1334-7-77"
     sodipodi:role="line">O</tspan></text><text
   transform="scale(1.1200498,0.89281745)"
   id="text1336-7-0"
   y="1057.5618"
   x="1655.8114"
   style="font-size:170.1px;line-height:1.25;font-family:Calibri;-inkscape-font-specification:'Calibri, Normal';letter-spacing:0px;word-spacing:0px;stroke-width:4.25248"
   xml:space="preserve"><tspan
     style="stroke-width:4.25248"
     y="1057.5618"
     x="1655.8114"
     id="tspan1334-7-3"
     sodipodi:role="line">O</tspan></text><text
   transform="scale(1.1200498,0.89281745)"
   id="text1336-7-5"
   y="1057.5618"
   x="1786.0613"
   style="font-size:170.1px;line-height:1.25;font-family:Calibri;-inkscape-font-specification:'Calibri, Normal';letter-spacing:0px;word-spacing:0px;stroke-width:4.25248"
   xml:space="preserve"><tspan
     style="stroke-width:4.25248"
     y="1057.5618"
     x="1786.0613"
     id="tspan1334-7-33"
     sodipodi:role="line">O</tspan></text><text
   transform="scale(1.1200498,0.89281745)"
   id="text1336-7-9"
   y="1057.5618"
   x="2307.0605"
   style="font-size:170.1px;line-height:1.25;font-family:Calibri;-inkscape-font-specification:'Calibri, Normal';letter-spacing:0px;word-spacing:0px;stroke-width:4.25248"
   xml:space="preserve"><tspan
     style="stroke-width:4.25248"
     y="1057.5618"
     x="2307.0605"
     id="tspan1334-7-334"
     sodipodi:role="line">O</tspan></text><ellipse
   style="fill:#ffff00;stroke:#d4aa00;stroke-width:3.33851;stroke-miterlimit:4;stroke-dasharray:none"
   id="path1496-5"
   cx="2792.9351"
   cy="928.20215"
   rx="61.750793"
   ry="21.303444" /><text
   xml:space="preserve"
   style="font-size:170.1px;line-height:1.25;font-family:Calibri;-inkscape-font-specification:'Calibri, Normal';letter-spacing:0px;word-spacing:0px;stroke-width:4.25248"
   x="2176.8108"
   y="1057.5618"
   id="text1336-7-9-9"
   transform="scale(1.1200498,0.89281745)"><tspan
     sodipodi:role="line"
     id="tspan1334-7-334-2"
     x="2176.8108"
     y="1057.5618"
     style="stroke-width:4.25248">O</tspan></text><path
   transform="matrix(0.28351586,0.95896755,-0.8337402,0.55215694,0,0)"
   d="m 1386.5719,-579.12531 a 608.724,520.58252 0 0 1 -244.5213,417.12627"
   sodipodi:arc-type="arc"
   sodipodi:open="true"
   sodipodi:end="0.92941203"
   sodipodi:start="0"
   sodipodi:ry="520.58252"
   sodipodi:rx="608.724"
   sodipodi:cy="-579.12531"
   sodipodi:cx="777.8479"
   sodipodi:type="arc"
   id="path1556"
   style="fill:none;stroke:#800000;stroke-width:7.15899;stroke-miterlimit:4;stroke-dasharray:none;marker-start:url(#Arrow1Mstart)" /><g
   transform="translate(-417.20693,-1386.4041)"
   id="g4086"><path
     transform="matrix(-0.26435275,-0.96442606,0.72830146,-0.68525687,0,0)"
     d="m -2738.651,644.60705 a 256.54321,204.0468 0 0 1 -101.1999,139.02144"
     sodipodi:arc-type="arc"
     sodipodi:open="true"
     sodipodi:end="0.92941203"
     sodipodi:start="0.12023641"
     sodipodi:ry="204.0468"
     sodipodi:rx="256.54321"
     sodipodi:cy="620.13226"
     sodipodi:cx="-2993.342"
     sodipodi:type="arc"
     id="path1556-7"
     style="fill:none;stroke:#800000;stroke-width:7.11004;stroke-miterlimit:4;stroke-dasharray:none;marker-start:url(#marker2110)" /><path
     transform="matrix(0.28351586,-0.95896755,-0.8337402,-0.55215694,0,0)"
     d="m -1056.7013,-2101.5107 a 608.724,520.58252 0 0 1 -244.5213,417.1262"
     sodipodi:arc-type="arc"
     sodipodi:open="true"
     sodipodi:end="0.92941203"
     sodipodi:start="0"
     sodipodi:ry="520.58252"
     sodipodi:rx="608.724"
     sodipodi:cy="-2101.5107"
     sodipodi:cx="-1665.4253"
     sodipodi:type="arc"
     id="path1556-3"
     style="fill:none;stroke:#800000;stroke-width:7.15899;stroke-miterlimit:4;stroke-dasharray:none;marker-start:url(#Arrow1Mstart-4)" /><path
     style="fill:none;stroke:#800000;stroke-width:7.15899;stroke-miterlimit:4;stroke-dasharray:none;marker-start:url(#Arrow1Mstart-4-9)"
     id="path1556-3-0"
     sodipodi:type="arc"
     sodipodi:cx="-1412.7985"
     sodipodi:cy="-2540.2644"
     sodipodi:rx="608.724"
     sodipodi:ry="520.58252"
     sodipodi:start="0"
     sodipodi:end="0.92941203"
     sodipodi:open="true"
     sodipodi:arc-type="arc"
     d="m -804.07446,-2540.2644 a 608.724,520.58252 0 0 1 -244.52124,417.1263"
     transform="matrix(0.28351586,-0.95896755,-0.8337402,-0.55215694,0,0)" /><path
     style="fill:none;stroke:#800000;stroke-width:7.11004;stroke-miterlimit:4;stroke-dasharray:none;marker-start:url(#marker2110-0)"
     id="path1556-7-9"
     sodipodi:type="arc"
     sodipodi:cx="-2879.7695"
     sodipodi:cy="460.29092"
     sodipodi:rx="256.54321"
     sodipodi:ry="204.0468"
     sodipodi:start="0.12023641"
     sodipodi:end="0.92941203"
     sodipodi:open="true"
     sodipodi:arc-type="arc"
     d="m -2625.0785,484.76571 a 256.54321,204.0468 0 0 1 -101.1999,139.02144"
     transform="matrix(-0.26435275,-0.96442606,0.72830146,-0.68525687,0,0)" /></g><g
   transform="translate(-417.20693,-1386.4041)"
   id="g4450"><path
     transform="matrix(0.28351586,0.95896755,-0.8337402,0.55215694,0,0)"
     d="M 3256.9823,-1316.7035 A 608.724,520.58252 0 0 1 3012.461,-899.57722"
     sodipodi:arc-type="arc"
     sodipodi:open="true"
     sodipodi:end="0.92941203"
     sodipodi:start="0"
     sodipodi:ry="520.58252"
     sodipodi:rx="608.724"
     sodipodi:cy="-1316.7035"
     sodipodi:cx="2648.2583"
     sodipodi:type="arc"
     id="path1556-0"
     style="fill:none;stroke:#800000;stroke-width:7.15899;stroke-miterlimit:4;stroke-dasharray:none;marker-start:url(#Arrow1Mstart-2)" /><path
     style="fill:none;stroke:#800000;stroke-width:7.11004;stroke-miterlimit:4;stroke-dasharray:none;marker-start:url(#marker2110-79)"
     id="path1556-7-7"
     sodipodi:type="arc"
     sodipodi:cx="449.33606"
     sodipodi:cy="2435.8889"
     sodipodi:rx="256.54321"
     sodipodi:ry="204.0468"
     sodipodi:start="0.12023641"
     sodipodi:end="0.92941203"
     sodipodi:open="true"
     sodipodi:arc-type="arc"
     d="M 704.02711,2460.3637 A 256.54321,204.0468 0 0 1 602.8272,2599.3851"
     transform="matrix(-0.26435275,0.96442606,0.72830146,0.68525687,0,0)" /><path
     style="fill:none;stroke:#800000;stroke-width:7.11004;stroke-miterlimit:4;stroke-dasharray:none;marker-start:url(#marker2110-1)"
     id="path1556-7-72"
     sodipodi:type="arc"
     sodipodi:cx="325.00531"
     sodipodi:cy="2610.8711"
     sodipodi:rx="256.54321"
     sodipodi:ry="204.0468"
     sodipodi:start="0.12023641"
     sodipodi:end="0.92941203"
     sodipodi:open="true"
     sodipodi:arc-type="arc"
     d="M 579.69636,2635.3459 A 256.54321,204.0468 0 0 1 478.49645,2774.3673"
     transform="matrix(-0.26435275,0.96442606,0.72830146,0.68525687,0,0)" /></g><path
   transform="matrix(0.28351586,0.95896755,-0.8337402,0.55215694,0,0)"
   d="m 2062.5897,-1753.2106 a 608.724,520.58252 0 0 1 -244.5212,417.1263"
   sodipodi:arc-type="arc"
   sodipodi:open="true"
   sodipodi:end="0.92941203"
   sodipodi:start="0"
   sodipodi:ry="520.58252"
   sodipodi:rx="608.724"
   sodipodi:cy="-1753.2106"
   sodipodi:cx="1453.8657"
   sodipodi:type="arc"
   id="path1556-0-1"
   style="fill:none;stroke:#800000;stroke-width:7.15899;stroke-miterlimit:4;stroke-dasharray:none;marker-start:url(#Arrow1Mstart-2-6)" /><g
   transform="translate(731.79717,-1386.4041)"
   id="g4086-5"><path
     style="fill:none;stroke:#800000;stroke-width:7.11004;stroke-miterlimit:4;stroke-dasharray:none;marker-start:url(#marker2110-9)"
     id="path1556-7-6"
     sodipodi:type="arc"
     sodipodi:cx="-2993.342"
     sodipodi:cy="620.13226"
     sodipodi:rx="256.54321"
     sodipodi:ry="204.0468"
     sodipodi:start="0.12023641"
     sodipodi:end="0.92941203"
     sodipodi:open="true"
     sodipodi:arc-type="arc"
     d="m -2738.651,644.60705 a 256.54321,204.0468 0 0 1 -101.1999,139.02144"
     transform="matrix(-0.26435275,-0.96442606,0.72830146,-0.68525687,0,0)" /><path
     style="fill:none;stroke:#800000;stroke-width:7.15899;stroke-miterlimit:4;stroke-dasharray:none;marker-start:url(#Arrow1Mstart-4-0)"
     id="path1556-3-5"
     sodipodi:type="arc"
     sodipodi:cx="-1665.4253"
     sodipodi:cy="-2101.5107"
     sodipodi:rx="608.724"
     sodipodi:ry="520.58252"
     sodipodi:start="0"
     sodipodi:end="0.92941203"
     sodipodi:open="true"
     sodipodi:arc-type="arc"
     d="m -1056.7013,-2101.5107 a 608.724,520.58252 0 0 1 -244.5213,417.1262"
     transform="matrix(0.28351586,-0.95896755,-0.8337402,-0.55215694,0,0)" /><path
     transform="matrix(0.28351586,-0.95896755,-0.8337402,-0.55215694,0,0)"
     d="m -804.07446,-2540.2644 a 608.724,520.58252 0 0 1 -244.52124,417.1263"
     sodipodi:arc-type="arc"
     sodipodi:open="true"
     sodipodi:end="0.92941203"
     sodipodi:start="0"
     sodipodi:ry="520.58252"
     sodipodi:rx="608.724"
     sodipodi:cy="-2540.2644"
     sodipodi:cx="-1412.7985"
     sodipodi:type="arc"
     id="path1556-3-0-0"
     style="fill:none;stroke:#800000;stroke-width:7.15899;stroke-miterlimit:4;stroke-dasharray:none;marker-start:url(#Arrow1Mstart-4-9-5)" /><path
     transform="matrix(-0.26435275,-0.96442606,0.72830146,-0.68525687,0,0)"
     d="m -2625.0785,484.76571 a 256.54321,204.0468 0 0 1 -101.1999,139.02144"
     sodipodi:arc-type="arc"
     sodipodi:open="true"
     sodipodi:end="0.92941203"
     sodipodi:start="0.12023641"
     sodipodi:ry="204.0468"
     sodipodi:rx="256.54321"
     sodipodi:cy="460.29092"
     sodipodi:cx="-2879.7695"
     sodipodi:type="arc"
     id="path1556-7-9-5"
     style="fill:none;stroke:#800000;stroke-width:7.11004;stroke-miterlimit:4;stroke-dasharray:none;marker-start:url(#marker2110-0-9)" /></g><g
   transform="translate(759.85017,-1386.4041)"
   id="g4450-8"><path
     style="fill:none;stroke:#800000;stroke-width:7.15899;stroke-miterlimit:4;stroke-dasharray:none;marker-start:url(#Arrow1Mstart-2-9)"
     id="path1556-0-6"
     sodipodi:type="arc"
     sodipodi:cx="2648.2583"
     sodipodi:cy="-1316.7035"
     sodipodi:rx="608.724"
     sodipodi:ry="520.58252"
     sodipodi:start="0"
     sodipodi:end="0.92941203"
     sodipodi:open="true"
     sodipodi:arc-type="arc"
     d="M 3256.9823,-1316.7035 A 608.724,520.58252 0 0 1 3012.461,-899.57722"
     transform="matrix(0.28351586,0.95896755,-0.8337402,0.55215694,0,0)" /><path
     transform="matrix(-0.26435275,0.96442606,0.72830146,0.68525687,0,0)"
     d="M 704.02711,2460.3637 A 256.54321,204.0468 0 0 1 602.8272,2599.3851"
     sodipodi:arc-type="arc"
     sodipodi:open="true"
     sodipodi:end="0.92941203"
     sodipodi:start="0.12023641"
     sodipodi:ry="204.0468"
     sodipodi:rx="256.54321"
     sodipodi:cy="2435.8889"
     sodipodi:cx="449.33606"
     sodipodi:type="arc"
     id="path1556-7-7-5"
     style="fill:none;stroke:#800000;stroke-width:7.11004;stroke-miterlimit:4;stroke-dasharray:none;marker-start:url(#marker2110-79-3)" /><path
     transform="matrix(-0.26435275,0.96442606,0.72830146,0.68525687,0,0)"
     d="M 579.69636,2635.3459 A 256.54321,204.0468 0 0 1 478.49645,2774.3673"
     sodipodi:arc-type="arc"
     sodipodi:open="true"
     sodipodi:end="0.92941203"
     sodipodi:start="0.12023641"
     sodipodi:ry="204.0468"
     sodipodi:rx="256.54321"
     sodipodi:cy="2610.8711"
     sodipodi:cx="325.00531"
     sodipodi:type="arc"
     id="path1556-7-72-1"
     style="fill:none;stroke:#800000;stroke-width:7.11004;stroke-miterlimit:4;stroke-dasharray:none;marker-start:url(#marker2110-1-2)" /></g></svg>
