<?xml version="1.0" encoding="utf-8"?>
<!-- Generator: Adobe Illustrator 22.0.1, SVG Export Plug-In . SVG Version: 6.00 Build 0)  -->
<svg version="1.1" id="Layer_1" xmlns="http://www.w3.org/2000/svg" xmlns:xlink="http://www.w3.org/1999/xlink" x="0px" y="0px"
	 viewBox="0 0 232 264" style="enable-background:new 0 0 232 264;" xml:space="preserve">
<style type="text/css">
	.st0{fill:#CCCCCC;}
	.st1{fill:#FFFFFF;stroke:#000000;stroke-width:2;stroke-miterlimit:10;}
</style>
<g>
	<g>
		<path class="st0" d="M63.5,129.5c-10.9,11.3-20.7,24-28.4,37.7c-7.2,12.7-11,26.9-6,41.1c4,11.5,11.8,21.4,22.7,26.9
			c10.4,5.2,21.9,8,32.2,13.4c3.4,1.8,6.4-3.4,3-5.2c-8.9-4.7-18.7-7.3-27.9-11.4c-11-4.9-19.1-12.3-23.6-23.8
			C30,194.4,34,181,41.1,168.7c7.4-12.7,16.5-24.4,26.6-35C70.4,130.9,66.2,126.7,63.5,129.5L63.5,129.5z"/>
	</g>
</g>
<circle class="st1" cx="69.5" cy="128.6" r="6.4"/>
<g>
	<g>
		<path d="M10,253.9c63.9,0,127.8,0,191.7,0c3.9,0,3.9-6,0-6c-63.9,0-127.8,0-191.7,0C6.1,247.9,6.1,253.9,10,253.9L10,253.9z"/>
	</g>
</g>
<circle class="st1" cx="84.8" cy="244.5" r="6.4"/>
<g>
</g>
<g>
</g>
<g>
</g>
<g>
</g>
<g>
</g>
</svg>
