<?xml version="1.0" encoding="UTF-8" standalone="no"?>
<!-- Generator: Adobe Illustrator 22.0.1, SVG Export Plug-In . SVG Version: 6.00 Build 0)  -->

<svg
   version="1.1"
   id="Layer_1"
   x="0px"
   y="0px"
   viewBox="0 0 545.3 127.2"
   style="enable-background:new 0 0 545.3 127.2;"
   xml:space="preserve"
   sodipodi:docname="j05-rat-hackenbush-ans-tree-6.svg"
   inkscape:version="1.1.1 (3bf5ae0d25, 2021-09-20)"
   xmlns:inkscape="http://www.inkscape.org/namespaces/inkscape"
   xmlns:sodipodi="http://sodipodi.sourceforge.net/DTD/sodipodi-0.dtd"
   xmlns="http://www.w3.org/2000/svg"
   xmlns:svg="http://www.w3.org/2000/svg"><defs
   id="defs199" /><sodipodi:namedview
   id="namedview197"
   pagecolor="#ffffff"
   bordercolor="#666666"
   borderopacity="1.0"
   inkscape:pageshadow="2"
   inkscape:pageopacity="0.0"
   inkscape:pagecheckerboard="0"
   showgrid="false"
   inkscape:zoom="1.9402164"
   inkscape:cx="272.64999"
   inkscape:cy="63.652692"
   inkscape:window-width="1920"
   inkscape:window-height="1017"
   inkscape:window-x="-8"
   inkscape:window-y="-8"
   inkscape:window-maximized="1"
   inkscape:current-layer="Layer_1" />
<style
   type="text/css"
   id="style2">
	.st0{fill:#FFBB8A;stroke:#000000;stroke-miterlimit:10;}
	.st1{fill:#E6E6E6;}
	.st2{fill:#FF0000;}
	.st3{fill:#FFFFFF;stroke:#000000;stroke-width:2;stroke-miterlimit:10;}
	.st4{fill:#0000FF;}
	.st5{fill:none;stroke:#000000;stroke-miterlimit:10;}
	.st6{stroke:#000000;stroke-miterlimit:10;}
</style>
<rect
   x="249.5"
   y="20.8"
   class="st0"
   width="280.5"
   height="98.7"
   id="rect4" />


















<g
   id="g223"><g
     id="g34">
	<g
   id="g32">
		<path
   class="st1"
   d="M34,23.6c-0.7,4.1-5.5,5.4-8.4,7.6c-2.4,1.9-4.1,4.5-4.6,7.5c-1.3,7.5,5.2,12.6,9.7,17.6    c1.1,1.3,3-0.6,1.9-1.9c-4.3-4.8-11.5-10.3-8.3-17.5c2.5-5.7,11.2-6,12.3-12.7C36.8,22.6,34.3,21.9,34,23.6L34,23.6z"
   id="path30" />
	</g>
</g><g
     id="g40">
	<g
   id="g38">
		<path
   class="st2"
   d="M30,57.1c-4.8,5-9.1,10.6-12.5,16.6c-3.2,5.6-4.8,11.9-2.6,18.1c1.8,5.1,5.2,9.4,10,11.9    c4.6,2.3,9.7,3.5,14.2,5.9c1.5,0.8,2.8-1.5,1.3-2.3c-3.9-2.1-8.2-3.2-12.3-5c-4.8-2.2-8.4-5.4-10.4-10.5c-2.4-6.1-0.7-12,2.5-17.4    c3.3-5.6,7.3-10.8,11.7-15.4C33,57.7,31.1,55.8,30,57.1L30,57.1z"
   id="path36" />
	</g>
</g><g
     id="g46">
	<g
   id="g44">
		<path
   class="st2"
   d="M56.1,78.9c6.7-10.3,17.5-17.6,29.2-21.1c3.2-1,6.8-2,10.2-1.1c3.7,1,5.8,4.8,3.4,8.1c-1.9,2.7-5.4,4-8.3,5.3    c-3.3,1.5-6.6,2.8-10,3.8C73,76.3,65,77.4,57,76.1c-1.7-0.3-2.4,2.3-0.7,2.6c8.2,1.3,16.4,0.4,24.2-2c4-1.2,7.9-2.7,11.7-4.5    c3.2-1.5,6.7-3,8.9-6c4.5-6.4-1.6-12.6-8.2-12.6c-3.9,0-7.8,1.3-11.5,2.6c-3.4,1.2-6.6,2.7-9.7,4.5c-7.1,4.1-13.3,9.8-17.8,16.7    C52.9,79,55.2,80.4,56.1,78.9L56.1,78.9z"
   id="path42" />
	</g>
</g><circle
     class="st3"
     cx="32.6"
     cy="56.7"
     r="2.8"
     id="circle48" /><g
     id="g54">
	<g
   id="g52">
		<path
   d="M6.3,111.9c28.2,0,56.3,0,84.5,0c1.7,0,1.7-2.6,0-2.6c-28.2,0-56.3,0-84.5,0C4.6,109.3,4.6,111.9,6.3,111.9L6.3,111.9z"
   id="path50" />
	</g>
</g><g
     id="g60">
	<g
   id="g58">
		<path
   class="st4"
   d="M33.7,22c3.6-8.6-8.1-20.3-16.1-13.6c-3.5,3-3,7.9-0.1,11.1c3.7,4.1,9.7,4,14.8,3.6c1.7-0.1,1.7-2.8,0-2.6    c-3.5,0.3-7.5,0.7-10.8-1.1c-3-1.6-5.4-5.9-2.5-8.7c6-5.8,14.7,4.4,12.1,10.6C30.4,22.9,33,23.6,33.7,22L33.7,22z"
   id="path56" />
	</g>
</g><circle
     class="st3"
     cx="34.8"
     cy="23.6"
     r="2.8"
     id="circle62" /><g
     id="g68">
	<g
   id="g66">
		<path
   class="st4"
   d="M54,79.8c2.6,2,5.5,4.4,6.2,7.7c0.7,3.1-1,6.7-3,9c-4.6,5.3-12.3,7.4-18.3,10.8c-1.5,0.8-0.1,3.1,1.3,2.3    c6.9-4,16.2-6.4,20.6-13.6c1.6-2.7,2.7-6.1,1.9-9.2c-0.9-3.7-4-6.6-6.9-8.8C54.6,76.9,52.7,78.7,54,79.8L54,79.8z"
   id="path64" />
	</g>
</g><circle
     class="st3"
     cx="54.9"
     cy="77.8"
     r="2.8"
     id="circle70" /><circle
     class="st3"
     cx="39.3"
     cy="107.8"
     r="2.8"
     id="circle72" /><g
     id="g78">
	<g
   id="g76">
		<path
   class="st2"
   d="M139,57.4c-4.8,5-9.1,10.6-12.5,16.6c-3.2,5.6-4.8,11.9-2.6,18.1c1.8,5.1,5.2,9.4,10,11.9    c4.6,2.3,9.7,3.5,14.2,5.9c1.5,0.8,2.8-1.5,1.3-2.3c-3.9-2.1-8.2-3.2-12.3-5c-4.8-2.2-8.4-5.4-10.4-10.5c-2.4-6.1-0.7-12,2.5-17.4    c3.3-5.6,7.3-10.8,11.7-15.4C142,58,140.1,56.2,139,57.4L139,57.4z"
   id="path74" />
	</g>
</g><g
     id="g84">
	<g
   id="g82">
		<path
   class="st2"
   d="M165.1,79.2c6.7-10.3,17.5-17.6,29.2-21.1c3.2-1,6.8-2,10.2-1.1c3.7,1,5.8,4.8,3.4,8.1    c-1.9,2.7-5.4,4-8.3,5.3c-3.3,1.5-6.6,2.8-10,3.8c-7.6,2.4-15.6,3.5-23.6,2.2c-1.7-0.3-2.4,2.3-0.7,2.6c8.2,1.3,16.4,0.4,24.2-2    c4-1.2,7.9-2.7,11.7-4.5c3.2-1.5,6.7-3,8.9-6c4.5-6.4-1.6-12.6-8.2-12.6c-3.9,0-7.8,1.3-11.5,2.6c-3.4,1.2-6.6,2.7-9.7,4.5    c-7.1,4.1-13.3,9.8-17.8,16.7C161.9,79.3,164.2,80.7,165.1,79.2L165.1,79.2z"
   id="path80" />
	</g>
</g><circle
     class="st3"
     cx="141.6"
     cy="57"
     r="2.8"
     id="circle86" /><g
     id="g92">
	<g
   id="g90">
		<path
   d="M115.4,112.2c28.2,0,56.3,0,84.5,0c1.7,0,1.7-2.6,0-2.6c-28.2,0-56.3,0-84.5,0C113.7,109.6,113.7,112.2,115.4,112.2    L115.4,112.2z"
   id="path88" />
	</g>
</g><g
     id="g98">
	<g
   id="g96">
		<path
   class="st4"
   d="M163.1,80.1c2.6,2,5.5,4.4,6.2,7.7c0.7,3.1-1,6.7-3,9c-4.6,5.3-12.3,7.4-18.3,10.8c-1.5,0.8-0.1,3.1,1.3,2.3    c6.9-4,16.2-6.4,20.6-13.6c1.6-2.7,2.7-6.1,1.9-9.2c-0.9-3.7-4-6.6-6.9-8.8C163.6,77.2,161.8,79,163.1,80.1L163.1,80.1z"
   id="path94" />
	</g>
</g><circle
     class="st3"
     cx="164"
     cy="78.2"
     r="2.8"
     id="circle100" /><circle
     class="st3"
     cx="148.4"
     cy="108.1"
     r="2.8"
     id="circle102" /></g>









<g
   id="g328"><g
     id="g108">
	<g
   id="g106">
		<path
   class="st2"
   d="M281.9,57.5c-4.8,5-9.1,10.6-12.5,16.6c-3.2,5.6-4.8,11.9-2.6,18.1c1.8,5.1,5.2,9.4,10,11.9    c4.6,2.3,9.7,3.5,14.2,5.9c1.5,0.8,2.8-1.5,1.3-2.3c-3.9-2.1-8.2-3.2-12.3-5c-4.8-2.2-8.4-5.4-10.4-10.5c-2.4-6.1-0.7-12,2.5-17.4    c3.3-5.6,7.3-10.8,11.7-15.4C284.9,58.2,283,56.3,281.9,57.5L281.9,57.5z"
   id="path104" />
	</g>
</g><g
     id="g114">
	<g
   id="g112">
		<path
   class="st2"
   d="M308,79.4c6.7-10.3,17.5-17.6,29.2-21.1c3.2-1,6.8-2,10.2-1.1c3.7,1,5.8,4.8,3.4,8.1c-1.9,2.7-5.4,4-8.3,5.3    c-3.3,1.5-6.6,2.8-10,3.8c-7.6,2.4-15.6,3.5-23.6,2.2c-1.7-0.3-2.4,2.3-0.7,2.6c8.2,1.3,16.4,0.4,24.2-2c4-1.2,7.9-2.7,11.7-4.5    c3.2-1.5,6.7-3,8.9-6c4.5-6.4-1.6-12.6-8.2-12.6c-3.9,0-7.8,1.3-11.5,2.6c-3.4,1.2-6.6,2.7-9.7,4.5c-7.1,4.1-13.3,9.8-17.8,16.7    C304.8,79.5,307.1,80.8,308,79.4L308,79.4z"
   id="path110" />
	</g>
</g><circle
     class="st3"
     cx="284.5"
     cy="57.1"
     r="2.8"
     id="circle116" /><g
     id="g122">
	<g
   id="g120">
		<path
   d="M258.2,112.4c28.2,0,56.3,0,84.5,0c1.7,0,1.7-2.6,0-2.6c-28.2,0-56.3,0-84.5,0C256.6,109.7,256.6,112.4,258.2,112.4    L258.2,112.4z"
   id="path118" />
	</g>
</g><g
     id="g128">
	<g
   id="g126">
		<path
   class="st1"
   d="M305.9,80.2c2.6,2,5.5,4.4,6.2,7.7c0.7,3.1-1,6.7-3,9c-4.6,5.3-12.3,7.4-18.3,10.8c-1.5,0.8-0.1,3.1,1.3,2.3    c6.9-4,16.2-6.4,20.6-13.6c1.6-2.7,2.7-6.1,1.9-9.2c-0.9-3.7-4-6.6-6.9-8.8C306.5,77.3,304.6,79.2,305.9,80.2L305.9,80.2z"
   id="path124" />
	</g>
</g><circle
     class="st3"
     cx="306.9"
     cy="78.3"
     r="2.8"
     id="circle130" /><circle
     class="st3"
     cx="291.2"
     cy="108.2"
     r="2.8"
     id="circle132" /><g
     id="g138">
	<g
   id="g136">
		<path
   class="st2"
   d="M390.9,57.9c-4.8,5-9.1,10.6-12.5,16.6c-3.2,5.6-4.8,11.9-2.6,18.1c1.8,5.1,5.2,9.4,10,11.9    c4.6,2.3,9.7,3.5,14.2,5.9c1.5,0.8,2.8-1.5,1.3-2.3c-3.9-2.1-8.2-3.2-12.3-5c-4.8-2.2-8.4-5.4-10.4-10.5c-2.4-6.1-0.7-12,2.5-17.4    c3.3-5.6,7.3-10.8,11.7-15.4C393.9,58.5,392.1,56.6,390.9,57.9L390.9,57.9z"
   id="path134" />
	</g>
</g><circle
     class="st3"
     cx="393.5"
     cy="57.5"
     r="2.8"
     id="circle140" /><g
     id="g146">
	<g
   id="g144">
		<path
   d="M367.3,112.7c28.2,0,56.3,0,84.5,0c1.7,0,1.7-2.6,0-2.6c-28.2,0-56.3,0-84.5,0C365.6,110.1,365.6,112.7,367.3,112.7    L367.3,112.7z"
   id="path142" />
	</g>
</g><circle
     class="st3"
     cx="400.3"
     cy="108.6"
     r="2.8"
     id="circle148" /></g>

<g
   id="g178">
	<g
   id="g176">
		<line
   class="st5"
   x1="212.9"
   y1="75.5"
   x2="242.2"
   y2="75.5"
   id="line170" />
		<g
   id="g174">
			<polygon
   points="239.4,79.2 240.9,75.5 239.4,71.8 248.2,75.5    "
   id="polygon172" />
		</g>
	</g>
</g>
<g
   id="g188">
	<g
   id="g186">
		<line
   class="st5"
   x1="455"
   y1="75.4"
   x2="484.3"
   y2="75.4"
   id="line180" />
		<g
   id="g184">
			<polygon
   points="481.5,79.1 483,75.4 481.5,71.7 490.3,75.4    "
   id="polygon182" />
		</g>
	</g>
</g>
<circle
   class="st6"
   cx="503.1"
   cy="75.4"
   r="2.7"
   id="circle190" />
<circle
   class="st6"
   cx="511.4"
   cy="75.4"
   r="2.7"
   id="circle192" />
<circle
   class="st6"
   cx="519.8"
   cy="75.4"
   r="2.7"
   id="circle194" />
<text
   xml:space="preserve"
   style="font-style:normal;font-variant:normal;font-weight:normal;font-stretch:normal;font-size:13.3333px;line-height:1.25;font-family:sans-serif;-inkscape-font-specification:'sans-serif, Normal';font-variant-ligatures:normal;font-variant-caps:normal;font-variant-numeric:normal;font-variant-east-asian:normal"
   x="71.308571"
   y="36.530182"
   id="text2829"><tspan
     sodipodi:role="line"
     id="tspan2827"
     x="71.308571"
     y="36.530182">Ralphi käik</tspan></text><text
   xml:space="preserve"
   style="font-style:normal;font-variant:normal;font-weight:normal;font-stretch:normal;font-size:13.3333px;line-height:1.25;font-family:sans-serif;-inkscape-font-specification:'sans-serif, Normal';font-variant-ligatures:normal;font-variant-caps:normal;font-variant-numeric:normal;font-variant-east-asian:normal"
   x="324.00568"
   y="36.530182"
   id="text5077"><tspan
     sodipodi:role="line"
     id="tspan5075"
     x="324.00568"
     y="36.530182">Bobi käik</tspan></text></svg>
