<?xml version="1.0" encoding="UTF-8" standalone="no"?>
<!-- Created with Inkscape (http://www.inkscape.org/) -->

<svg
   xmlns:dc="http://purl.org/dc/elements/1.1/"
   xmlns:cc="http://creativecommons.org/ns#"
   xmlns:rdf="http://www.w3.org/1999/02/22-rdf-syntax-ns#"
   xmlns:svg="http://www.w3.org/2000/svg"
   xmlns="http://www.w3.org/2000/svg"
   xmlns:sodipodi="http://sodipodi.sourceforge.net/DTD/sodipodi-0.dtd"
   xmlns:inkscape="http://www.inkscape.org/namespaces/inkscape"
   width="145.61032mm"
   height="146.39749mm"
   viewBox="0 0 145.61032 146.39749"
   version="1.1"
   id="svg1190"
   inkscape:version="0.92.5 (2060ec1f9f, 2020-04-08)"
   sodipodi:docname="tiles-graph-simplified.svg">
  <defs
     id="defs1184" />
  <sodipodi:namedview
     id="base"
     pagecolor="#ffffff"
     bordercolor="#666666"
     borderopacity="1.0"
     inkscape:pageopacity="0.0"
     inkscape:pageshadow="2"
     inkscape:zoom="1.4"
     inkscape:cx="216.32059"
     inkscape:cy="256.93452"
     inkscape:document-units="mm"
     inkscape:current-layer="layer1"
     showgrid="false"
     inkscape:window-width="1920"
     inkscape:window-height="1016"
     inkscape:window-x="0"
     inkscape:window-y="27"
     inkscape:window-maximized="1"
     fit-margin-top="0"
     fit-margin-left="0"
     fit-margin-right="0"
     fit-margin-bottom="0"
     inkscape:snap-nodes="false" />
  <metadata
     id="metadata1187">
    <rdf:RDF>
      <cc:Work
         rdf:about="">
        <dc:format>image/svg+xml</dc:format>
        <dc:type
           rdf:resource="http://purl.org/dc/dcmitype/StillImage" />
        <dc:title></dc:title>
      </cc:Work>
    </rdf:RDF>
  </metadata>
  <g
     inkscape:label="Laag 1"
     inkscape:groupmode="layer"
     id="layer1"
     transform="translate(-38.790899,-17.298005)">
    <circle
       style="opacity:1;fill:none;fill-opacity:1;stroke:#000000;stroke-width:0.60000002;stroke-linecap:square;stroke-linejoin:round;stroke-miterlimit:4;stroke-dasharray:none;stroke-dashoffset:0;stroke-opacity:1"
       id="path1797"
       cx="164.66852"
       cy="65.610039"
       r="4.9915557" />
    <path
       id="path1897"
       style="font-style:normal;font-variant:normal;font-weight:bold;font-stretch:normal;font-size:8.46666622px;line-height:100%;font-family:sans-serif;-inkscape-font-specification:'sans-serif Bold';text-align:start;text-anchor:start;fill:#000000;fill-opacity:1;stroke:none;stroke-width:1.5;stroke-linecap:square;stroke-linejoin:round;stroke-miterlimit:4;stroke-dasharray:none;stroke-dashoffset:0;stroke-opacity:1"
       d="m 165.7833,67.123749 h -2.48873 l -0.39274,1.12448 h -1.59991 l 2.28617,-6.17223 h 1.89756 l 2.28616,6.17223 h -1.5999 z m -2.09186,-1.14515 h 1.69086 l -0.84336,-2.45566 z"
       inkscape:connector-curvature="0" />
    <circle
       style="opacity:1;fill:none;fill-opacity:1;stroke:#000000;stroke-width:0.60000002;stroke-linecap:square;stroke-linejoin:round;stroke-miterlimit:4;stroke-dasharray:none;stroke-dashoffset:0;stroke-opacity:1"
       id="path1797-2"
       cx="103.96722"
       cy="37.336887"
       r="4.9915557" />
    <path
       inkscape:connector-curvature="0"
       id="path1894"
       style="font-style:normal;font-variant:normal;font-weight:bold;font-stretch:normal;font-size:8.46666622px;line-height:100%;font-family:sans-serif;-inkscape-font-specification:'sans-serif Bold';text-align:start;text-anchor:start;fill:#000000;fill-opacity:1;stroke:none;stroke-width:0.60000002;stroke-linecap:square;stroke-linejoin:round;stroke-miterlimit:4;stroke-dasharray:none;stroke-dashoffset:0;stroke-opacity:1"
       d="m 103.92781,36.721537 q 0.3762,0 0.5705,-0.16537 0.19431,-0.16536 0.19431,-0.48782 0,-0.31833 -0.19431,-0.48369 -0.1943,-0.1695 -0.5705,-0.1695 h -0.88057 v 1.30638 z m 0.0537,2.69958 q 0.47956,0 0.71933,-0.20258 0.24392,-0.20257 0.24392,-0.61185 0,-0.401 -0.23978,-0.59944 -0.23978,-0.20257 -0.72347,-0.20257 h -0.93431 v 1.61644 z m 1.48001,-2.22002 q 0.51263,0.14882 0.79375,0.54983 0.28112,0.40101 0.28112,0.98392 0,0.89297 -0.60358,1.33119 -0.60358,0.43821 -1.83555,0.43821 h -2.6417 v -6.17223 h 2.38952 q 1.28571,0 1.86035,0.38861 0.57878,0.3886 0.57878,1.24437 0,0.45061 -0.21084,0.76894 -0.21084,0.31419 -0.61185,0.46716 z" />
    <circle
       style="opacity:1;fill:none;fill-opacity:1;stroke:#000000;stroke-width:0.60000002;stroke-linecap:square;stroke-linejoin:round;stroke-miterlimit:4;stroke-dasharray:none;stroke-dashoffset:0;stroke-opacity:1"
       id="path1797-3"
       cx="58.790874"
       cy="85.805344"
       r="4.9915557" />
    <g
       aria-label="C"
       style="font-style:normal;font-variant:normal;font-weight:bold;font-stretch:normal;font-size:8.46666622px;line-height:100%;font-family:sans-serif;-inkscape-font-specification:'sans-serif Bold';text-align:start;text-anchor:start;opacity:1;fill:#000000;fill-opacity:1;stroke:none;stroke-width:0.60000002;stroke-linecap:square;stroke-linejoin:round;stroke-miterlimit:4;stroke-dasharray:none;stroke-dashoffset:0;stroke-opacity:1"
       id="text1875"
       transform="translate(-124.76575,-31.579814)">
      <path
         d="m 185.68089,120.20938 q -0.43822,0.22738 -0.91364,0.34313 -0.47543,0.11576 -0.99219,0.11576 -1.54203,0 -2.44326,-0.8599 -0.90124,-0.86403 -0.90124,-2.33991 0,-1.48001 0.90124,-2.33991 0.90123,-0.86403 2.44326,-0.86403 0.51676,0 0.99219,0.11576 0.47542,0.11575 0.91364,0.34313 v 1.27744 q -0.44235,-0.30179 -0.8723,-0.44235 -0.42995,-0.14056 -0.90537,-0.14056 -0.85163,0 -1.33946,0.54571 -0.48782,0.5457 -0.48782,1.50481 0,0.95498 0.48782,1.50069 0.48783,0.5457 1.33946,0.5457 0.47542,0 0.90537,-0.14056 0.42995,-0.14056 0.8723,-0.44235 z"
         style="stroke-width:0.60000002"
         id="path1891"
         inkscape:connector-curvature="0" />
    </g>
    <circle
       style="opacity:1;fill:none;fill-opacity:1;stroke:#000000;stroke-width:0.60000002;stroke-linecap:square;stroke-linejoin:round;stroke-miterlimit:4;stroke-dasharray:none;stroke-dashoffset:0;stroke-opacity:1"
       id="path1797-7"
       cx="155.91855"
       cy="131.52893"
       r="4.9915557" />
    <g
       aria-label="D"
       style="font-style:normal;font-variant:normal;font-weight:bold;font-stretch:normal;font-size:8.46666622px;line-height:100%;font-family:sans-serif;-inkscape-font-specification:'sans-serif Bold';text-align:start;text-anchor:start;opacity:1;fill:#000000;fill-opacity:1;stroke:none;stroke-width:0.60000002;stroke-linecap:square;stroke-linejoin:round;stroke-miterlimit:4;stroke-dasharray:none;stroke-dashoffset:0;stroke-opacity:1"
       id="text1879"
       transform="translate(-78.923746,14.143782)">
      <path
         d="m 233.78248,115.58331 v 3.76618 h 0.57051 q 0.97565,0 1.48828,-0.4837 0.51677,-0.48369 0.51677,-1.40559 0,-0.91778 -0.51263,-1.39734 -0.51263,-0.47955 -1.49242,-0.47955 z m -1.59163,-1.20303 h 1.67845 q 1.4056,0 2.09186,0.20257 0.6904,0.19844 1.18236,0.678 0.43408,0.41754 0.64492,0.96325 0.21084,0.5457 0.21084,1.2361 0,0.69866 -0.21084,1.2485 -0.21084,0.5457 -0.64492,0.96325 -0.4961,0.47955 -1.19063,0.68213 -0.69453,0.19843 -2.08359,0.19843 h -1.67845 z"
         style="stroke-width:0.60000002"
         id="path1888"
         inkscape:connector-curvature="0" />
    </g>
    <circle
       style="opacity:1;fill:none;fill-opacity:1;stroke:#000000;stroke-width:0.60000002;stroke-linecap:square;stroke-linejoin:round;stroke-miterlimit:4;stroke-dasharray:none;stroke-dashoffset:0;stroke-opacity:1"
       id="path1797-5"
       cx="90.537361"
       cy="143.6566"
       r="4.9915557" />
    <g
       aria-label="E"
       style="font-style:normal;font-variant:normal;font-weight:bold;font-stretch:normal;font-size:8.46666622px;line-height:100%;font-family:sans-serif;-inkscape-font-specification:'sans-serif Bold';text-align:start;text-anchor:start;opacity:1;fill:#000000;fill-opacity:1;stroke:none;stroke-width:0.60000002;stroke-linecap:square;stroke-linejoin:round;stroke-miterlimit:4;stroke-dasharray:none;stroke-dashoffset:0;stroke-opacity:1"
       id="text1883"
       transform="translate(-195.5906,26.271446)">
      <path
         d="m 283.97359,114.38028 h 4.29535 v 1.20303 h -2.70371 v 1.14928 h 2.54248 v 1.20303 h -2.54248 v 1.41387 h 2.79466 v 1.20302 h -4.3863 z"
         style="stroke-width:0.60000002"
         id="path1885"
         inkscape:connector-curvature="0" />
    </g>
    <path
       style="fill:none;stroke:#000000;stroke-width:1.5;stroke-linecap:butt;stroke-linejoin:miter;stroke-miterlimit:4;stroke-dasharray:none;stroke-opacity:1"
       d="M 62.623743,82.855962 C 67.434593,78.579649 100.59501,41.410191 100.59501,41.410191"
       id="path3740"
       inkscape:connector-curvature="0"
       sodipodi:nodetypes="cc" />
    <path
       style="fill:none;stroke:#000000;stroke-width:1.5;stroke-linecap:butt;stroke-linejoin:miter;stroke-miterlimit:4;stroke-dasharray:none;stroke-opacity:1"
       d="M 61.767074,89.920001 87.268385,139.74284"
       id="path3740-9"
       inkscape:connector-curvature="0"
       sodipodi:nodetypes="cc" />
    <path
       style="fill:none;stroke:#000000;stroke-width:1.5;stroke-linecap:butt;stroke-linejoin:miter;stroke-miterlimit:4;stroke-dasharray:none;stroke-opacity:1"
       d="m 108.02713,40.373537 51.86928,22.593772"
       id="path3757"
       inkscape:connector-curvature="0"
       sodipodi:nodetypes="cc" />
    <path
       style="fill:none;stroke:#000000;stroke-width:1.5;stroke-linecap:butt;stroke-linejoin:miter;stroke-miterlimit:4;stroke-dasharray:none;stroke-opacity:1"
       d="M 105.99969,42.101293 153.1364,127.67896"
       id="path3759"
       inkscape:connector-curvature="0"
       sodipodi:nodetypes="cc" />
    <path
       style="fill:none;stroke:#000000;stroke-width:1.5;stroke-linecap:butt;stroke-linejoin:miter;stroke-miterlimit:4;stroke-dasharray:none;stroke-opacity:1"
       d="M 160.61994,68.78239 93.84842,139.64124"
       id="path3761"
       inkscape:connector-curvature="0"
       sodipodi:nodetypes="cc" />
    <path
       style="fill:none;stroke:#000000;stroke-width:1.5;stroke-linecap:butt;stroke-linejoin:miter;stroke-miterlimit:4;stroke-dasharray:none;stroke-opacity:1"
       d="m 151.48692,132.94608 -56.334577,9.0223"
       id="path3763"
       inkscape:connector-curvature="0"
       sodipodi:nodetypes="cc" />
    <path
       style="fill:none;stroke:#000000;stroke-width:1.5;stroke-linecap:butt;stroke-linejoin:miter;stroke-miterlimit:4;stroke-dasharray:none;stroke-opacity:1"
       d="m 163.65163,70.197018 -6.27134,56.412862"
       id="path3767"
       inkscape:connector-curvature="0"
       sodipodi:nodetypes="cc" />
  </g>
</svg>
