<?xml version="1.0" encoding="UTF-8" standalone="no"?>
<!-- Created with Inkscape (http://www.inkscape.org/) -->

<svg
   width="135.52524mm"
   height="131.55649mm"
   viewBox="0 0 135.52524 131.55649"
   version="1.1"
   id="svg5"
   inkscape:version="1.2.2 (732a01da63, 2022-12-09)"
   sodipodi:docname="j14-option-c.svg"
   xmlns:inkscape="http://www.inkscape.org/namespaces/inkscape"
   xmlns:sodipodi="http://sodipodi.sourceforge.net/DTD/sodipodi-0.dtd"
   xmlns="http://www.w3.org/2000/svg"
   xmlns:svg="http://www.w3.org/2000/svg">
  <sodipodi:namedview
     id="namedview7"
     pagecolor="#ffffff"
     bordercolor="#000000"
     borderopacity="0.25"
     inkscape:pageshadow="2"
     inkscape:pageopacity="0.0"
     inkscape:pagecheckerboard="0"
     inkscape:document-units="mm"
     showgrid="true"
     inkscape:snap-global="true"
     inkscape:zoom="0.90509668"
     inkscape:cx="323.72232"
     inkscape:cy="327.03689"
     inkscape:window-width="1920"
     inkscape:window-height="1017"
     inkscape:window-x="-8"
     inkscape:window-y="-8"
     inkscape:window-maximized="1"
     inkscape:current-layer="layer1"
     showguides="true"
     inkscape:guide-bbox="true"
     width="211mm"
     inkscape:showpageshadow="2"
     inkscape:deskcolor="#d1d1d1">
    <inkscape:grid
       type="xygrid"
       id="grid509"
       spacingx="3.96875"
       spacingy="3.96875"
       empspacing="4"
       originx="-198.14363"
       originy="-249.73738" />
    <sodipodi:guide
       position="-87.018634,-626.45614"
       orientation="0,-1"
       id="guide5265"
       inkscape:locked="false" />
    <sodipodi:guide
       position="-261.64363,-626.45614"
       orientation="0,-1"
       id="guide5305"
       inkscape:locked="false" />
  </sodipodi:namedview>
  <defs
     id="defs2">
    <inkscape:path-effect
       effect="fillet_chamfer"
       id="path-effect1919"
       is_visible="true"
       lpeversion="1"
       satellites_param="F,0,0,1,0,3.96874,0,1 @ F,0,0,1,0,2.8063194,0,1 @ F,0,0,1,0,0.26458333,0,1 @ F,0,0,1,0,3.96875,0,1 @ F,0,0,1,0,3.96875,0,1 @ F,0,0,1,0,0.26458333,0,1 @ F,0,0,1,0,0.26458333,0,1 @ F,0,0,1,0,3.96874,0,1"
       unit="px"
       method="auto"
       mode="F"
       radius="1"
       chamfer_steps="1"
       flexible="false"
       use_knot_distance="true"
       apply_no_radius="true"
       apply_with_radius="true"
       only_selected="false"
       hide_knots="false"
       nodesatellites_param="F,0,0,1,0,3.96874,0,1 @ F,0,0,1,0,2.8063194,0,1 @ F,0,0,1,0,0.26458333,0,1 @ F,0,0,1,0,3.96875,0,1 @ F,0,0,1,0,3.96875,0,1 @ F,0,0,1,0,0.26458333,0,1 @ F,0,0,1,0,0.26458333,0,1 @ F,0,0,1,0,3.96874,0,1" />
    <inkscape:path-effect
       effect="fillet_chamfer"
       id="path-effect1864"
       is_visible="true"
       lpeversion="1"
       satellites_param="F,0,0,1,0,3.96874,0,1 @ F,0,0,1,0,2.8063194,0,1 @ F,0,0,1,0,0.26458333,0,1 @ F,0,0,1,0,3.96875,0,1 @ F,0,0,1,0,3.96875,0,1 @ F,0,0,1,0,0.26458333,0,1 @ F,0,0,1,0,0.26458333,0,1 @ F,0,0,1,0,3.96874,0,1"
       unit="px"
       method="auto"
       mode="F"
       radius="1"
       chamfer_steps="1"
       flexible="false"
       use_knot_distance="true"
       apply_no_radius="true"
       apply_with_radius="true"
       only_selected="false"
       hide_knots="false"
       nodesatellites_param="F,0,0,1,0,3.96874,0,1 @ F,0,0,1,0,2.8063194,0,1 @ F,0,0,1,0,0.26458333,0,1 @ F,0,0,1,0,3.96875,0,1 @ F,0,0,1,0,3.96875,0,1 @ F,0,0,1,0,0.26458333,0,1 @ F,0,0,1,0,0.26458333,0,1 @ F,0,0,1,0,3.96874,0,1" />
    <inkscape:path-effect
       effect="fillet_chamfer"
       id="path-effect1726"
       is_visible="true"
       lpeversion="1"
       satellites_param="F,0,0,1,0,3.96874,0,1 @ F,0,0,1,0,2.8063194,0,1 @ F,0,0,1,0,0.26458333,0,1 @ F,0,0,1,0,3.96875,0,1 @ F,0,0,1,0,3.96875,0,1 @ F,0,0,1,0,0.26458333,0,1 @ F,0,0,1,0,0.26458333,0,1 @ F,0,0,1,0,3.96874,0,1"
       unit="px"
       method="auto"
       mode="F"
       radius="1"
       chamfer_steps="1"
       flexible="false"
       use_knot_distance="true"
       apply_no_radius="true"
       apply_with_radius="true"
       only_selected="false"
       hide_knots="false"
       nodesatellites_param="F,0,0,1,0,3.96874,0,1 @ F,0,0,1,0,2.8063194,0,1 @ F,0,0,1,0,0.26458333,0,1 @ F,0,0,1,0,3.96875,0,1 @ F,0,0,1,0,3.96875,0,1 @ F,0,0,1,0,0.26458333,0,1 @ F,0,0,1,0,0.26458333,0,1 @ F,0,0,1,0,3.96874,0,1" />
    <inkscape:path-effect
       effect="fillet_chamfer"
       id="path-effect2687"
       is_visible="true"
       lpeversion="1"
       satellites_param="F,0,0,1,0,0.26458333,0,1 @ F,0,0,1,0,0.26458333,0,1 @ F,0,0,1,0,0.26458333,0,1 @ F,0,0,1,0,0.26458333,0,1 @ F,0,0,1,0,0.26458333,0,1 @ F,0,0,1,0,0.26458333,0,1 @ F,0,0,1,0,0.26458333,0,1 @ F,0,0,1,0,0.26458333,0,1"
       unit="px"
       method="auto"
       mode="F"
       radius="1"
       chamfer_steps="1"
       flexible="false"
       use_knot_distance="true"
       apply_no_radius="true"
       apply_with_radius="true"
       only_selected="false"
       hide_knots="false"
       nodesatellites_param="F,0,0,1,0,0.26458333,0,1 @ F,0,0,1,0,0.26458333,0,1 @ F,0,0,1,0,0.26458333,0,1 @ F,0,0,1,0,0.26458333,0,1 @ F,0,0,1,0,0.26458333,0,1 @ F,0,0,1,0,0.26458333,0,1 @ F,0,0,1,0,0.26458333,0,1 @ F,0,0,1,0,0.26458333,0,1" />
    <inkscape:path-effect
       effect="fillet_chamfer"
       id="path-effect2528"
       is_visible="true"
       lpeversion="1"
       satellites_param="F,0,0,1,0,0.26458333,0,1 @ F,0,0,1,0,0.26458333,0,1 @ F,0,0,1,0,0.26458333,0,1 @ F,0,0,1,0,0.26458333,0,1 @ F,0,0,1,0,0.26458333,0,1 @ F,0,0,1,0,0.26458333,0,1 @ F,0,0,1,0,0.26458333,0,1 @ F,0,0,1,0,0.26458333,0,1 @ F,0,0,1,0,0.26458333,0,1"
       unit="px"
       method="auto"
       mode="F"
       radius="1"
       chamfer_steps="1"
       flexible="false"
       use_knot_distance="true"
       apply_no_radius="true"
       apply_with_radius="true"
       only_selected="false"
       hide_knots="false"
       nodesatellites_param="F,0,0,1,0,0.26458333,0,1 @ F,0,0,1,0,0.26458333,0,1 @ F,0,0,1,0,0.26458333,0,1 @ F,0,0,1,0,0.26458333,0,1 @ F,0,0,1,0,0.26458333,0,1 @ F,0,0,1,0,0.26458333,0,1 @ F,0,0,1,0,0.26458333,0,1 @ F,0,0,1,0,0.26458333,0,1 @ F,0,0,1,0,0.26458333,0,1" />
    <inkscape:path-effect
       effect="fillet_chamfer"
       id="path-effect4277"
       is_visible="true"
       lpeversion="1"
       satellites_param="F,0,0,1,0,0,0,1 @ F,0,0,1,0,5.612624,0,1 @ F,0,0,1,0,5.6126954,0,1 @ F,0,0,1,0,0,0,1 @ F,0,0,1,0,12.550274,0,1 @ F,0,0,1,0,0,0,1 @ F,0,0,1,0,12.550242,0,1 @ F,0,0,1,0,0,0,1"
       unit="px"
       method="auto"
       mode="F"
       radius="0"
       chamfer_steps="1"
       flexible="false"
       use_knot_distance="true"
       apply_no_radius="true"
       apply_with_radius="true"
       only_selected="false"
       hide_knots="false"
       nodesatellites_param="F,0,0,1,0,0,0,1 @ F,0,0,1,0,5.612624,0,1 @ F,0,0,1,0,5.6126954,0,1 @ F,0,0,1,0,0,0,1 @ F,0,0,1,0,12.550274,0,1 @ F,0,0,1,0,0,0,1 @ F,0,0,1,0,12.550242,0,1 @ F,0,0,1,0,0,0,1" />
    <inkscape:path-effect
       effect="fillet_chamfer"
       id="path-effect4094"
       is_visible="true"
       lpeversion="1"
       satellites_param="F,0,0,1,0,0,0,1 @ F,0,0,1,0,5.612624,0,1 @ F,0,0,1,0,5.6126954,0,1 @ F,0,0,1,0,0,0,1 @ F,0,0,1,0,12.550274,0,1 @ F,0,0,1,0,0,0,1 @ F,0,0,1,0,12.550242,0,1 @ F,0,0,1,0,0,0,1"
       unit="px"
       method="auto"
       mode="F"
       radius="0"
       chamfer_steps="1"
       flexible="false"
       use_knot_distance="true"
       apply_no_radius="true"
       apply_with_radius="true"
       only_selected="false"
       hide_knots="false"
       nodesatellites_param="F,0,0,1,0,0,0,1 @ F,0,0,1,0,5.612624,0,1 @ F,0,0,1,0,5.6126954,0,1 @ F,0,0,1,0,0,0,1 @ F,0,0,1,0,12.550274,0,1 @ F,0,0,1,0,0,0,1 @ F,0,0,1,0,12.550242,0,1 @ F,0,0,1,0,0,0,1" />
    <inkscape:path-effect
       effect="fillet_chamfer"
       id="path-effect3592"
       is_visible="true"
       lpeversion="1"
       satellites_param="F,0,0,1,0,0,0,1 @ F,0,0,1,0,5.612624,0,1 @ F,0,0,1,0,5.6126954,0,1 @ F,0,0,1,0,0,0,1 @ F,0,0,1,0,12.550274,0,1 @ F,0,0,1,0,0,0,1 @ F,0,0,1,0,12.550242,0,1 @ F,0,0,1,0,0,0,1"
       unit="px"
       method="auto"
       mode="F"
       radius="0"
       chamfer_steps="1"
       flexible="false"
       use_knot_distance="true"
       apply_no_radius="true"
       apply_with_radius="true"
       only_selected="false"
       hide_knots="false"
       nodesatellites_param="F,0,0,1,0,0,0,1 @ F,0,0,1,0,5.612624,0,1 @ F,0,0,1,0,5.6126954,0,1 @ F,0,0,1,0,0,0,1 @ F,0,0,1,0,12.550274,0,1 @ F,0,0,1,0,0,0,1 @ F,0,0,1,0,12.550242,0,1 @ F,0,0,1,0,0,0,1" />
    <inkscape:path-effect
       effect="fillet_chamfer"
       id="path-effect3588"
       is_visible="true"
       lpeversion="1"
       satellites_param="F,0,0,1,0,0,0,1 @ F,0,0,1,0,5.612624,0,1 @ F,0,0,1,0,5.6126954,0,1 @ F,0,0,1,0,0,0,1 @ F,0,0,1,0,12.550274,0,1 @ F,0,0,1,0,0,0,1 @ F,0,0,1,0,12.550242,0,1 @ F,0,0,1,0,0,0,1"
       unit="px"
       method="auto"
       mode="F"
       radius="0"
       chamfer_steps="1"
       flexible="false"
       use_knot_distance="true"
       apply_no_radius="true"
       apply_with_radius="true"
       only_selected="false"
       hide_knots="false"
       nodesatellites_param="F,0,0,1,0,0,0,1 @ F,0,0,1,0,5.612624,0,1 @ F,0,0,1,0,5.6126954,0,1 @ F,0,0,1,0,0,0,1 @ F,0,0,1,0,12.550274,0,1 @ F,0,0,1,0,0,0,1 @ F,0,0,1,0,12.550242,0,1 @ F,0,0,1,0,0,0,1" />
    <inkscape:path-effect
       effect="fillet_chamfer"
       id="path-effect2236"
       is_visible="true"
       lpeversion="1"
       satellites_param="F,0,0,1,0,0,0,1 @ F,0,0,1,0,5.612624,0,1 @ F,0,0,1,0,5.6126954,0,1 @ F,0,0,1,0,0,0,1 @ F,0,0,1,0,12.550274,0,1 @ F,0,0,1,0,0,0,1 @ F,0,0,1,0,12.550242,0,1 @ F,0,0,1,0,0,0,1"
       unit="px"
       method="auto"
       mode="F"
       radius="0"
       chamfer_steps="1"
       flexible="false"
       use_knot_distance="true"
       apply_no_radius="true"
       apply_with_radius="true"
       only_selected="false"
       hide_knots="false"
       nodesatellites_param="F,0,0,1,0,0,0,1 @ F,0,0,1,0,5.612624,0,1 @ F,0,0,1,0,5.6126954,0,1 @ F,0,0,1,0,0,0,1 @ F,0,0,1,0,12.550274,0,1 @ F,0,0,1,0,0,0,1 @ F,0,0,1,0,12.550242,0,1 @ F,0,0,1,0,0,0,1" />
    <inkscape:path-effect
       effect="fillet_chamfer"
       id="path-effect2232"
       is_visible="true"
       lpeversion="1"
       satellites_param="F,0,0,1,0,0,0,1 @ F,0,0,1,0,5.612624,0,1 @ F,0,0,1,0,5.6126954,0,1 @ F,0,0,1,0,0,0,1 @ F,0,0,1,0,12.550274,0,1 @ F,0,0,1,0,0,0,1 @ F,0,0,1,0,12.550242,0,1 @ F,0,0,1,0,0,0,1"
       unit="px"
       method="auto"
       mode="F"
       radius="0"
       chamfer_steps="1"
       flexible="false"
       use_knot_distance="true"
       apply_no_radius="true"
       apply_with_radius="true"
       only_selected="false"
       hide_knots="false"
       nodesatellites_param="F,0,0,1,0,0,0,1 @ F,0,0,1,0,5.612624,0,1 @ F,0,0,1,0,5.6126954,0,1 @ F,0,0,1,0,0,0,1 @ F,0,0,1,0,12.550274,0,1 @ F,0,0,1,0,0,0,1 @ F,0,0,1,0,12.550242,0,1 @ F,0,0,1,0,0,0,1" />
    <inkscape:path-effect
       effect="fillet_chamfer"
       id="path-effect2059"
       is_visible="true"
       lpeversion="1"
       satellites_param="F,0,0,1,0,0,0,1 @ F,0,0,1,0,5.612624,0,1 @ F,0,0,1,0,5.6126954,0,1 @ F,0,0,1,0,0,0,1 @ F,0,0,1,0,12.550274,0,1 @ F,0,0,1,0,0,0,1 @ F,0,0,1,0,12.550242,0,1 @ F,0,0,1,0,0,0,1"
       unit="px"
       method="auto"
       mode="F"
       radius="0"
       chamfer_steps="1"
       flexible="false"
       use_knot_distance="true"
       apply_no_radius="true"
       apply_with_radius="true"
       only_selected="false"
       hide_knots="false"
       nodesatellites_param="F,0,0,1,0,0,0,1 @ F,0,0,1,0,5.612624,0,1 @ F,0,0,1,0,5.6126954,0,1 @ F,0,0,1,0,0,0,1 @ F,0,0,1,0,12.550274,0,1 @ F,0,0,1,0,0,0,1 @ F,0,0,1,0,12.550242,0,1 @ F,0,0,1,0,0,0,1" />
    <inkscape:path-effect
       effect="fillet_chamfer"
       id="path-effect2055"
       is_visible="true"
       lpeversion="1"
       satellites_param="F,0,0,1,0,0,0,1 @ F,0,0,1,0,5.612624,0,1 @ F,0,0,1,0,5.6126954,0,1 @ F,0,0,1,0,0,0,1 @ F,0,0,1,0,12.550274,0,1 @ F,0,0,1,0,0,0,1 @ F,0,0,1,0,12.550242,0,1 @ F,0,0,1,0,0,0,1"
       unit="px"
       method="auto"
       mode="F"
       radius="0"
       chamfer_steps="1"
       flexible="false"
       use_knot_distance="true"
       apply_no_radius="true"
       apply_with_radius="true"
       only_selected="false"
       hide_knots="false"
       nodesatellites_param="F,0,0,1,0,0,0,1 @ F,0,0,1,0,5.612624,0,1 @ F,0,0,1,0,5.6126954,0,1 @ F,0,0,1,0,0,0,1 @ F,0,0,1,0,12.550274,0,1 @ F,0,0,1,0,0,0,1 @ F,0,0,1,0,12.550242,0,1 @ F,0,0,1,0,0,0,1" />
    <inkscape:path-effect
       effect="fillet_chamfer"
       id="path-effect1547"
       is_visible="true"
       lpeversion="1"
       satellites_param="F,0,0,1,0,5.8999032,0,1 @ F,0,0,1,0,5.612653,0,1 @ F,0,0,1,0,5.8998905,0,1 @ F,0,1,1,0,5.8999032,0,1"
       unit="px"
       method="auto"
       mode="F"
       radius="0"
       chamfer_steps="1"
       flexible="false"
       use_knot_distance="true"
       apply_no_radius="true"
       apply_with_radius="true"
       only_selected="false"
       hide_knots="false"
       nodesatellites_param="F,0,0,1,0,5.8999032,0,1 @ F,0,0,1,0,5.612653,0,1 @ F,0,0,1,0,5.8998905,0,1 @ F,0,1,1,0,5.8999032,0,1" />
    <inkscape:path-effect
       effect="fillet_chamfer"
       id="path-effect1543"
       is_visible="true"
       lpeversion="1"
       satellites_param="F,0,0,1,0,5.8999032,0,1 @ F,0,0,1,0,5.612653,0,1 @ F,0,0,1,0,5.8998905,0,1 @ F,0,1,1,0,5.8999032,0,1"
       unit="px"
       method="auto"
       mode="F"
       radius="0"
       chamfer_steps="1"
       flexible="false"
       use_knot_distance="true"
       apply_no_radius="true"
       apply_with_radius="true"
       only_selected="false"
       hide_knots="false"
       nodesatellites_param="F,0,0,1,0,5.8999032,0,1 @ F,0,0,1,0,5.612653,0,1 @ F,0,0,1,0,5.8998905,0,1 @ F,0,1,1,0,5.8999032,0,1" />
    <inkscape:path-effect
       effect="fillet_chamfer"
       id="path-effect5632"
       is_visible="true"
       lpeversion="1"
       satellites_param="F,0,0,1,0,0,0,1 @ F,0,0,1,0,5.612624,0,1 @ F,0,0,1,0,5.6126954,0,1 @ F,0,0,1,0,0,0,1 @ F,0,0,1,0,12.550274,0,1 @ F,0,0,1,0,0,0,1 @ F,0,0,1,0,12.550242,0,1 @ F,0,0,1,0,0,0,1"
       unit="px"
       method="auto"
       mode="F"
       radius="0"
       chamfer_steps="1"
       flexible="false"
       use_knot_distance="true"
       apply_no_radius="true"
       apply_with_radius="true"
       only_selected="false"
       hide_knots="false"
       nodesatellites_param="F,0,0,1,0,0,0,1 @ F,0,0,1,0,5.612624,0,1 @ F,0,0,1,0,5.6126954,0,1 @ F,0,0,1,0,0,0,1 @ F,0,0,1,0,12.550274,0,1 @ F,0,0,1,0,0,0,1 @ F,0,0,1,0,12.550242,0,1 @ F,0,0,1,0,0,0,1" />
    <inkscape:path-effect
       effect="fillet_chamfer"
       id="path-effect4162"
       is_visible="true"
       lpeversion="1"
       satellites_param="F,0,0,1,0,0,0,1 @ F,0,0,1,0,0,0,1 @ F,0,0,1,0,0,0,1 @ F,0,0,1,0,0,0,1 @ F,0,0,1,0,17.748789,0,1 @ F,0,0,1,0,0,0,1 @ F,0,0,1,0,0,0,1"
       unit="px"
       method="auto"
       mode="F"
       radius="0"
       chamfer_steps="1"
       flexible="false"
       use_knot_distance="true"
       apply_no_radius="true"
       apply_with_radius="true"
       only_selected="false"
       hide_knots="false"
       nodesatellites_param="F,0,0,1,0,0,0,1 @ F,0,0,1,0,0,0,1 @ F,0,0,1,0,0,0,1 @ F,0,0,1,0,0,0,1 @ F,0,0,1,0,17.748789,0,1 @ F,0,0,1,0,0,0,1 @ F,0,0,1,0,0,0,1" />
    <inkscape:path-effect
       effect="fillet_chamfer"
       id="path-effect15409"
       is_visible="true"
       lpeversion="1"
       satellites_param="F,0,0,1,0,0,0,1 @ F,0,0,1,0,4.0213085,0,1 @ F,0,0,1,0,0,0,1 @ F,0,0,1,0,4.3976809,0,1"
       unit="px"
       method="auto"
       mode="F"
       radius="0"
       chamfer_steps="1"
       flexible="false"
       use_knot_distance="true"
       apply_no_radius="true"
       apply_with_radius="true"
       only_selected="false"
       hide_knots="false"
       nodesatellites_param="F,0,0,1,0,0,0,1 @ F,0,0,1,0,4.0213085,0,1 @ F,0,0,1,0,0,0,1 @ F,0,0,1,0,4.3976809,0,1" />
    <inkscape:path-effect
       effect="fillet_chamfer"
       id="path-effect11393"
       is_visible="true"
       lpeversion="1"
       satellites_param="F,0,0,1,0,0,0,1 @ F,0,0,1,0,5.6126671,0,1 @ F,0,0,1,0,0,0,1 @ F,0,0,1,0,5.612653,0,1"
       unit="px"
       method="auto"
       mode="F"
       radius="0"
       chamfer_steps="1"
       flexible="false"
       use_knot_distance="true"
       apply_no_radius="true"
       apply_with_radius="true"
       only_selected="false"
       hide_knots="false"
       nodesatellites_param="F,0,0,1,0,0,0,1 @ F,0,0,1,0,5.6126671,0,1 @ F,0,0,1,0,0,0,1 @ F,0,0,1,0,5.612653,0,1" />
    <inkscape:path-effect
       effect="fillet_chamfer"
       id="path-effect20251"
       is_visible="true"
       lpeversion="1"
       satellites_param="F,0,0,1,0,0,0,1 @ F,0,0,1,0,0,0,1 @ F,0,0,1,0,0,0,1 @ F,0,0,1,0,8.2765197,0,1 @ F,0,0,1,0,5.4349569,0,1 @ F,0,0,1,0,5.503666,0,1 @ F,0,0,1,0,0,0,1 @ F,0,0,1,0,5.503666,0,1 @ F,0,0,1,0,5.6126601,0,1 @ F,0,0,1,0,5.8325023,0,1 @ F,0,1,1,0,0,0,1 @ F,0,0,1,0,2.6194615,0,1 @ F,0,0,1,0,3.6202679,0,1 @ F,0,0,1,0,5.5932726,0,1 @ F,0,0,1,0,5.6126601,0,1 @ F,0,0,1,0,3.3021996,0,1 @ F,0,0,1,0,0,0,1 @ F,0,0,1,0,5.6126601,0,1 @ F,0,0,1,0,5.6126601,0,1 @ F,0,0,1,0,0,0,1"
       unit="px"
       method="auto"
       mode="F"
       radius="0"
       chamfer_steps="1"
       flexible="false"
       use_knot_distance="true"
       apply_no_radius="true"
       apply_with_radius="true"
       only_selected="false"
       hide_knots="false"
       nodesatellites_param="F,0,0,1,0,0,0,1 @ F,0,0,1,0,0,0,1 @ F,0,0,1,0,0,0,1 @ F,0,0,1,0,8.2765197,0,1 @ F,0,0,1,0,5.4349569,0,1 @ F,0,0,1,0,5.503666,0,1 @ F,0,0,1,0,0,0,1 @ F,0,0,1,0,5.503666,0,1 @ F,0,0,1,0,5.6126601,0,1 @ F,0,0,1,0,5.8325023,0,1 @ F,0,1,1,0,0,0,1 @ F,0,0,1,0,2.6194615,0,1 @ F,0,0,1,0,3.6202679,0,1 @ F,0,0,1,0,5.5932726,0,1 @ F,0,0,1,0,5.6126601,0,1 @ F,0,0,1,0,3.3021996,0,1 @ F,0,0,1,0,0,0,1 @ F,0,0,1,0,5.6126601,0,1 @ F,0,0,1,0,5.6126601,0,1 @ F,0,0,1,0,0,0,1" />
    <inkscape:path-effect
       effect="fillet_chamfer"
       id="path-effect19424"
       is_visible="true"
       lpeversion="1"
       satellites_param="F,0,0,1,0,0,0,1 @ F,0,0,1,0,2.9162509,0,1 @ F,0,0,1,0,0,0,1 @ F,0,0,1,0,2.8063367,0,1 @ F,0,0,1,0,0,0,1 @ F,0,0,1,0,8.8058609,0,1 @ F,0,0,1,0,8.8058609,0,1 @ F,0,0,1,0,0,0,1 @ F,0,0,1,0,0,0,1 @ F,0,0,1,0,0,0,1"
       unit="px"
       method="auto"
       mode="F"
       radius="0"
       chamfer_steps="1"
       flexible="false"
       use_knot_distance="true"
       apply_no_radius="true"
       apply_with_radius="true"
       only_selected="false"
       hide_knots="false"
       nodesatellites_param="F,0,0,1,0,0,0,1 @ F,0,0,1,0,2.9162509,0,1 @ F,0,0,1,0,0,0,1 @ F,0,0,1,0,2.8063367,0,1 @ F,0,0,1,0,0,0,1 @ F,0,0,1,0,8.8058609,0,1 @ F,0,0,1,0,8.8058609,0,1 @ F,0,0,1,0,0,0,1 @ F,0,0,1,0,0,0,1 @ F,0,0,1,0,0,0,1" />
    <inkscape:path-effect
       effect="fillet_chamfer"
       id="path-effect14555"
       is_visible="true"
       lpeversion="1"
       satellites_param="F,0,0,1,0,0,0,1 @ F,0,0,1,0,0,0,1 @ F,0,0,1,0,5.6081821,0,1 @ F,0,0,1,0,6.0266057,0,1 @ F,0,0,1,0,8.3001063,0,1 @ F,0,0,1,0,0.22431944,0,1 @ F,0,0,1,0,0,0,1 @ F,0,0,1,0,5.5036724,0,1 @ F,0,0,1,0,5.8324951,0,1 @ F,0,0,1,0,5.612653,0,1 @ F,0,0,1,0,2.3939114,0,1 @ F,0,0,1,0,2.7288753,0,1 @ F,0,0,1,0,8.8701302,0,1 @ F,0,0,1,0,3.96875,0,1 @ F,0,0,1,0,3.96875,0,1 @ F,0,0,1,0,5.8325091,0,1 @ F,0,0,1,0,0,0,1 @ F,0,0,1,0,5.5036605,0,1 @ F,0,0,1,0,5.6126671,0,1 @ F,0,0,1,0,8.4533064,0,1"
       unit="px"
       method="auto"
       mode="F"
       radius="0"
       chamfer_steps="1"
       flexible="false"
       use_knot_distance="true"
       apply_no_radius="true"
       apply_with_radius="true"
       only_selected="false"
       hide_knots="false"
       nodesatellites_param="F,0,0,1,0,0,0,1 @ F,0,0,1,0,0,0,1 @ F,0,0,1,0,5.6081821,0,1 @ F,0,0,1,0,6.0266057,0,1 @ F,0,0,1,0,8.3001063,0,1 @ F,0,0,1,0,0.22431944,0,1 @ F,0,0,1,0,0,0,1 @ F,0,0,1,0,5.5036724,0,1 @ F,0,0,1,0,5.8324951,0,1 @ F,0,0,1,0,5.612653,0,1 @ F,0,0,1,0,2.3939114,0,1 @ F,0,0,1,0,2.7288753,0,1 @ F,0,0,1,0,8.8701302,0,1 @ F,0,0,1,0,3.96875,0,1 @ F,0,0,1,0,3.96875,0,1 @ F,0,0,1,0,5.8325091,0,1 @ F,0,0,1,0,0,0,1 @ F,0,0,1,0,5.5036605,0,1 @ F,0,0,1,0,5.6126671,0,1 @ F,0,0,1,0,8.4533064,0,1" />
    <inkscape:path-effect
       effect="fillet_chamfer"
       id="path-effect9184"
       is_visible="true"
       lpeversion="1"
       satellites_param="F,0,0,1,0,5.8999032,0,1 @ F,0,0,1,0,5.612653,0,1 @ F,0,0,1,0,5.8998905,0,1 @ F,0,1,1,0,5.8999032,0,1"
       unit="px"
       method="auto"
       mode="F"
       radius="0"
       chamfer_steps="1"
       flexible="false"
       use_knot_distance="true"
       apply_no_radius="true"
       apply_with_radius="true"
       only_selected="false"
       hide_knots="false"
       nodesatellites_param="F,0,0,1,0,5.8999032,0,1 @ F,0,0,1,0,5.612653,0,1 @ F,0,0,1,0,5.8998905,0,1 @ F,0,1,1,0,5.8999032,0,1" />
    <inkscape:path-effect
       effect="fillet_chamfer"
       id="path-effect8721"
       is_visible="true"
       lpeversion="1"
       satellites_param="F,0,0,1,0,0,0,1 @ F,0,0,1,0,5.6126671,0,1 @ F,0,0,1,0,5.578337,0,1 @ F,0,0,1,0,6.1981508,0,1 @ F,0,0,1,0,0,0,1"
       unit="px"
       method="auto"
       mode="F"
       radius="0"
       chamfer_steps="1"
       flexible="false"
       use_knot_distance="true"
       apply_no_radius="true"
       apply_with_radius="true"
       only_selected="false"
       hide_knots="false"
       nodesatellites_param="F,0,0,1,0,0,0,1 @ F,0,0,1,0,5.6126671,0,1 @ F,0,0,1,0,5.578337,0,1 @ F,0,0,1,0,6.1981508,0,1 @ F,0,0,1,0,0,0,1" />
    <inkscape:path-effect
       effect="fillet_chamfer"
       id="path-effect8011"
       is_visible="true"
       lpeversion="1"
       satellites_param="F,0,0,1,0,2.9144571,0,1 @ F,0,0,1,0,2.9499427,0,1 @ F,0,0,1,0,2.8063371,0,1 @ F,0,0,1,0,2.9499553,0,1"
       unit="px"
       method="auto"
       mode="F"
       radius="0"
       chamfer_steps="1"
       flexible="false"
       use_knot_distance="true"
       apply_no_radius="true"
       apply_with_radius="true"
       only_selected="false"
       hide_knots="false"
       nodesatellites_param="F,0,0,1,0,2.9144571,0,1 @ F,0,0,1,0,2.9499427,0,1 @ F,0,0,1,0,2.8063371,0,1 @ F,0,0,1,0,2.9499553,0,1" />
    <inkscape:path-effect
       effect="fillet_chamfer"
       id="path-effect6207"
       is_visible="true"
       lpeversion="1"
       satellites_param="F,0,0,1,0,0,0,1 @ F,0,0,1,0,3.9687482,0,1 @ F,0,0,1,0,0,0,1 @ F,0,0,1,0,0,0,1 @ F,0,0,1,0,3.96876,0,1 @ F,0,0,1,0,0,0,1 @ F,0,0,1,0,0,0,1"
       unit="px"
       method="auto"
       mode="F"
       radius="0"
       chamfer_steps="1"
       flexible="false"
       use_knot_distance="true"
       apply_no_radius="true"
       apply_with_radius="true"
       only_selected="false"
       hide_knots="false"
       nodesatellites_param="F,0,0,1,0,0,0,1 @ F,0,0,1,0,3.9687482,0,1 @ F,0,0,1,0,0,0,1 @ F,0,0,1,0,0,0,1 @ F,0,0,1,0,3.96876,0,1 @ F,0,0,1,0,0,0,1 @ F,0,0,1,0,0,0,1" />
    <inkscape:path-effect
       effect="fillet_chamfer"
       id="path-effect5573"
       is_visible="true"
       lpeversion="1"
       satellites_param="F,0,0,1,0,0,0,1 @ F,0,1,1,0,3.968505,0,1 @ F,0,0,1,0,0,0,1 @ F,0,0,1,0,0,0,1 @ F,0,0,1,0,4.0109684,0,1 @ F,0,0,1,0,0,0,1"
       unit="px"
       method="auto"
       mode="F"
       radius="0"
       chamfer_steps="1"
       flexible="false"
       use_knot_distance="true"
       apply_no_radius="true"
       apply_with_radius="true"
       only_selected="false"
       hide_knots="false"
       nodesatellites_param="F,0,0,1,0,0,0,1 @ F,0,1,1,0,3.968505,0,1 @ F,0,0,1,0,0,0,1 @ F,0,0,1,0,0,0,1 @ F,0,0,1,0,4.0109684,0,1 @ F,0,0,1,0,0,0,1" />
    <inkscape:path-effect
       effect="fillet_chamfer"
       id="path-effect5164"
       is_visible="true"
       lpeversion="1"
       satellites_param="F,0,0,1,0,0,0,1 @ F,0,1,1,0,3.968505,0,1 @ F,0,0,1,0,0,0,1 @ F,0,0,1,0,0,0,1 @ F,0,0,1,0,4.0109684,0,1 @ F,0,0,1,0,0,0,1"
       unit="px"
       method="auto"
       mode="F"
       radius="0"
       chamfer_steps="1"
       flexible="false"
       use_knot_distance="true"
       apply_no_radius="true"
       apply_with_radius="true"
       only_selected="false"
       hide_knots="false"
       nodesatellites_param="F,0,0,1,0,0,0,1 @ F,0,1,1,0,3.968505,0,1 @ F,0,0,1,0,0,0,1 @ F,0,0,1,0,0,0,1 @ F,0,0,1,0,4.0109684,0,1 @ F,0,0,1,0,0,0,1" />
    <inkscape:path-effect
       effect="fillet_chamfer"
       id="path-effect3518"
       is_visible="true"
       lpeversion="1"
       satellites_param="F,0,0,1,0,0,0,1 @ F,0,0,1,0,0,0,1 @ F,0,0,1,0,11.90626,0,1 @ F,0,0,1,0,0,0,1 @ F,0,0,1,0,0,0,1"
       unit="px"
       method="auto"
       mode="F"
       radius="0"
       chamfer_steps="1"
       flexible="false"
       use_knot_distance="true"
       apply_no_radius="true"
       apply_with_radius="true"
       only_selected="false"
       hide_knots="false"
       nodesatellites_param="F,0,0,1,0,0,0,1 @ F,0,0,1,0,0,0,1 @ F,0,0,1,0,11.90626,0,1 @ F,0,0,1,0,0,0,1 @ F,0,0,1,0,0,0,1" />
    <inkscape:path-effect
       effect="fillet_chamfer"
       id="path-effect2832"
       is_visible="true"
       lpeversion="1"
       satellites_param="F,0,0,1,0,0,0,1 @ F,0,0,1,0,11.90624,0,1 @ F,0,0,1,0,0,0,1 @ F,0,0,1,0,0,0,1 @ F,0,0,1,0,0,0,1"
       unit="px"
       method="auto"
       mode="F"
       radius="0"
       chamfer_steps="1"
       flexible="false"
       use_knot_distance="true"
       apply_no_radius="true"
       apply_with_radius="true"
       only_selected="false"
       hide_knots="false"
       nodesatellites_param="F,0,0,1,0,0,0,1 @ F,0,0,1,0,11.90624,0,1 @ F,0,0,1,0,0,0,1 @ F,0,0,1,0,0,0,1 @ F,0,0,1,0,0,0,1" />
    <inkscape:path-effect
       effect="fillet_chamfer"
       id="path-effect42357"
       is_visible="true"
       lpeversion="1"
       satellites_param="F,0,0,1,0,3.96874,0,1 @ F,0,0,1,0,2.8063194,0,1 @ F,0,0,1,0,0.26458333,0,1 @ F,0,0,1,0,3.96875,0,1 @ F,0,0,1,0,3.96875,0,1 @ F,0,0,1,0,0.26458333,0,1 @ F,0,0,1,0,0.26458333,0,1 @ F,0,0,1,0,3.96874,0,1"
       unit="px"
       method="auto"
       mode="F"
       radius="1"
       chamfer_steps="1"
       flexible="false"
       use_knot_distance="true"
       apply_no_radius="true"
       apply_with_radius="true"
       only_selected="false"
       hide_knots="false"
       nodesatellites_param="F,0,0,1,0,3.96874,0,1 @ F,0,0,1,0,2.8063194,0,1 @ F,0,0,1,0,0.26458333,0,1 @ F,0,0,1,0,3.96875,0,1 @ F,0,0,1,0,3.96875,0,1 @ F,0,0,1,0,0.26458333,0,1 @ F,0,0,1,0,0.26458333,0,1 @ F,0,0,1,0,3.96874,0,1" />
    <inkscape:path-effect
       effect="fillet_chamfer"
       id="path-effect41469"
       is_visible="true"
       lpeversion="1"
       satellites_param="F,0,0,1,0,3.670979,0,1 @ F,0,0,1,0,2.8063194,0,1 @ F,0,0,1,0,0.26458333,0,1 @ F,0,0,1,0,3.96875,0,1 @ F,0,0,1,0,3.96875,0,1 @ F,0,0,1,0,0.26458333,0,1 @ F,0,1,1,0,3.670979,0,1 @ F,0,1,1,0,3.670979,0,1"
       unit="px"
       method="auto"
       mode="F"
       radius="1"
       chamfer_steps="1"
       flexible="false"
       use_knot_distance="true"
       apply_no_radius="true"
       apply_with_radius="true"
       only_selected="false"
       hide_knots="false"
       nodesatellites_param="F,0,0,1,0,3.670979,0,1 @ F,0,0,1,0,2.8063194,0,1 @ F,0,0,1,0,0.26458333,0,1 @ F,0,0,1,0,3.96875,0,1 @ F,0,0,1,0,3.96875,0,1 @ F,0,0,1,0,0.26458333,0,1 @ F,0,1,1,0,3.670979,0,1 @ F,0,1,1,0,3.670979,0,1" />
    <inkscape:path-effect
       effect="fillet_chamfer"
       id="path-effect41463"
       is_visible="true"
       lpeversion="1"
       satellites_param="F,0,0,1,0,4.729554,0,1 @ F,0,0,1,0,2.8063194,0,1 @ F,0,0,1,0,0.26458333,0,1 @ F,0,0,1,0,3.96875,0,1 @ F,0,0,1,0,3.96875,0,1 @ F,0,0,1,0,0.26458333,0,1 @ F,0,0,1,0,0.26458333,0,1 @ F,0,0,1,0,4.729554,0,1"
       unit="px"
       method="auto"
       mode="F"
       radius="1"
       chamfer_steps="1"
       flexible="false"
       use_knot_distance="true"
       apply_no_radius="true"
       apply_with_radius="true"
       only_selected="false"
       hide_knots="false"
       nodesatellites_param="F,0,0,1,0,4.729554,0,1 @ F,0,0,1,0,2.8063194,0,1 @ F,0,0,1,0,0.26458333,0,1 @ F,0,0,1,0,3.96875,0,1 @ F,0,0,1,0,3.96875,0,1 @ F,0,0,1,0,0.26458333,0,1 @ F,0,0,1,0,0.26458333,0,1 @ F,0,0,1,0,4.729554,0,1" />
    <inkscape:path-effect
       effect="fillet_chamfer"
       id="path-effect41457"
       is_visible="true"
       lpeversion="1"
       satellites_param="F,0,0,1,0,7.87161,0,1 @ F,0,0,1,0,2.8063194,0,1 @ F,0,0,1,0,0.26458333,0,1 @ F,0,0,1,0,3.96875,0,1 @ F,0,0,1,0,3.96875,0,1 @ F,0,0,1,0,0.26458333,0,1 @ F,0,0,1,0,0.26458333,0,1 @ F,0,0,1,0,9.1437487,0,1"
       unit="px"
       method="auto"
       mode="F"
       radius="1"
       chamfer_steps="1"
       flexible="false"
       use_knot_distance="true"
       apply_no_radius="true"
       apply_with_radius="true"
       only_selected="false"
       hide_knots="false"
       nodesatellites_param="F,0,0,1,0,7.87161,0,1 @ F,0,0,1,0,2.8063194,0,1 @ F,0,0,1,0,0.26458333,0,1 @ F,0,0,1,0,3.96875,0,1 @ F,0,0,1,0,3.96875,0,1 @ F,0,0,1,0,0.26458333,0,1 @ F,0,0,1,0,0.26458333,0,1 @ F,0,0,1,0,9.1437487,0,1" />
    <inkscape:path-effect
       effect="fillet_chamfer"
       id="path-effect41371"
       is_visible="true"
       lpeversion="1"
       satellites_param="F,0,0,1,0,3.96874,0,1 @ F,0,0,1,0,2.8063194,0,1 @ F,0,0,1,0,0.26458333,0,1 @ F,0,0,1,0,3.96875,0,1 @ F,0,0,1,0,3.96875,0,1 @ F,0,0,1,0,0.26458333,0,1 @ F,0,0,1,0,0.26458333,0,1 @ F,0,0,1,0,3.96874,0,1"
       unit="px"
       method="auto"
       mode="F"
       radius="1"
       chamfer_steps="1"
       flexible="false"
       use_knot_distance="true"
       apply_no_radius="true"
       apply_with_radius="true"
       only_selected="false"
       hide_knots="false"
       nodesatellites_param="F,0,0,1,0,3.96874,0,1 @ F,0,0,1,0,2.8063194,0,1 @ F,0,0,1,0,0.26458333,0,1 @ F,0,0,1,0,3.96875,0,1 @ F,0,0,1,0,3.96875,0,1 @ F,0,0,1,0,0.26458333,0,1 @ F,0,0,1,0,0.26458333,0,1 @ F,0,0,1,0,3.96874,0,1" />
    <inkscape:path-effect
       effect="fillet_chamfer"
       id="path-effect40117"
       is_visible="true"
       lpeversion="1"
       satellites_param="F,0,0,1,0,3.96874,0,1 @ F,0,1,1,0,3.5974026,0,1 @ F,0,0,1,0,3.5974026,0,1 @ F,0,0,1,0,16.561211,0,1 @ F,0,0,1,0,3.96875,0,1 @ F,0,0,1,0,7.93749,0,1 @ F,0,0,1,0,3.96875,0,1"
       unit="px"
       method="auto"
       mode="F"
       radius="0"
       chamfer_steps="1"
       flexible="false"
       use_knot_distance="true"
       apply_no_radius="true"
       apply_with_radius="true"
       only_selected="false"
       hide_knots="false"
       nodesatellites_param="F,0,0,1,0,3.96874,0,1 @ F,0,1,1,0,3.5974026,0,1 @ F,0,0,1,0,3.5974026,0,1 @ F,0,0,1,0,16.561211,0,1 @ F,0,0,1,0,3.96875,0,1 @ F,0,0,1,0,7.93749,0,1 @ F,0,0,1,0,3.96875,0,1" />
    <inkscape:path-effect
       effect="fillet_chamfer"
       id="path-effect38865"
       is_visible="true"
       lpeversion="1"
       satellites_param="F,0,0,1,0,16.561211,0,1 @ F,0,0,1,0,3.96875,0,1 @ F,0,0,1,0,7.93749,0,1 @ F,0,0,1,0,3.96875,0,1"
       unit="px"
       method="auto"
       mode="F"
       radius="0"
       chamfer_steps="1"
       flexible="false"
       use_knot_distance="true"
       apply_no_radius="true"
       apply_with_radius="true"
       only_selected="false"
       hide_knots="false"
       nodesatellites_param="F,0,0,1,0,16.561211,0,1 @ F,0,0,1,0,3.96875,0,1 @ F,0,0,1,0,7.93749,0,1 @ F,0,0,1,0,3.96875,0,1" />
    <inkscape:path-effect
       effect="fillet_chamfer"
       id="path-effect28521"
       is_visible="true"
       lpeversion="1"
       satellites_param="F,0,0,1,0,0,0,1 @ F,0,0,1,0,8.8579202,0,1 @ F,0,0,1,0,7.9813377,0,1 @ F,0,0,1,0,0.56240432,0,1 @ F,0,0,1,0,0,0,1 @ F,0,0,1,0,5.6126664,0,1 @ F,0,0,1,0,5.7874217,0,1 @ F,0,0,1,0,0,0,1"
       unit="px"
       method="auto"
       mode="F"
       radius="0"
       chamfer_steps="1"
       flexible="false"
       use_knot_distance="true"
       apply_no_radius="true"
       apply_with_radius="true"
       only_selected="false"
       hide_knots="false"
       nodesatellites_param="F,0,0,1,0,0,0,1 @ F,0,0,1,0,8.8579202,0,1 @ F,0,0,1,0,7.9813377,0,1 @ F,0,0,1,0,0.56240432,0,1 @ F,0,0,1,0,0,0,1 @ F,0,0,1,0,5.6126664,0,1 @ F,0,0,1,0,5.7874217,0,1 @ F,0,0,1,0,0,0,1" />
    <inkscape:path-effect
       effect="fillet_chamfer"
       id="path-effect28511"
       is_visible="true"
       lpeversion="1"
       satellites_param="F,0,0,1,0,0,0,1 @ F,0,0,1,0,8.8579202,0,1 @ F,0,0,1,0,7.9813377,0,1 @ F,0,0,1,0,0.56240432,0,1 @ F,0,0,1,0,0,0,1 @ F,0,0,1,0,5.6126664,0,1 @ F,0,0,1,0,5.7874217,0,1 @ F,0,0,1,0,0,0,1"
       unit="px"
       method="auto"
       mode="F"
       radius="0"
       chamfer_steps="1"
       flexible="false"
       use_knot_distance="true"
       apply_no_radius="true"
       apply_with_radius="true"
       only_selected="false"
       hide_knots="false"
       nodesatellites_param="F,0,0,1,0,0,0,1 @ F,0,0,1,0,8.8579202,0,1 @ F,0,0,1,0,7.9813377,0,1 @ F,0,0,1,0,0.56240432,0,1 @ F,0,0,1,0,0,0,1 @ F,0,0,1,0,5.6126664,0,1 @ F,0,0,1,0,5.7874217,0,1 @ F,0,0,1,0,0,0,1" />
    <inkscape:path-effect
       effect="fillet_chamfer"
       id="path-effect28475"
       is_visible="true"
       lpeversion="1"
       satellites_param="F,0,0,1,0,0,0,1 @ F,0,0,1,0,8.8579202,0,1 @ F,0,0,1,0,7.9813377,0,1 @ F,0,0,1,0,0.56240432,0,1 @ F,0,0,1,0,0,0,1 @ F,0,0,1,0,5.6126664,0,1 @ F,0,0,1,0,5.7874217,0,1 @ F,0,0,1,0,0,0,1"
       unit="px"
       method="auto"
       mode="F"
       radius="0"
       chamfer_steps="1"
       flexible="false"
       use_knot_distance="true"
       apply_no_radius="true"
       apply_with_radius="true"
       only_selected="false"
       hide_knots="false"
       nodesatellites_param="F,0,0,1,0,0,0,1 @ F,0,0,1,0,8.8579202,0,1 @ F,0,0,1,0,7.9813377,0,1 @ F,0,0,1,0,0.56240432,0,1 @ F,0,0,1,0,0,0,1 @ F,0,0,1,0,5.6126664,0,1 @ F,0,0,1,0,5.7874217,0,1 @ F,0,0,1,0,0,0,1" />
    <inkscape:path-effect
       effect="fillet_chamfer"
       id="path-effect26704"
       is_visible="true"
       lpeversion="1"
       satellites_param="F,0,0,1,0,15.874999,0,1 @ F,0,0,1,0,0,0,1 @ F,0,0,1,0,0,0,1 @ F,0,0,1,0,15.874999,0,1 @ F,0,0,1,0,0,0,1 @ F,0,0,1,0,0,0,1 @ F,0,0,1,0,0,0,1 @ F,0,0,1,0,0,0,1"
       unit="px"
       method="auto"
       mode="F"
       radius="0"
       chamfer_steps="1"
       flexible="false"
       use_knot_distance="true"
       apply_no_radius="true"
       apply_with_radius="true"
       only_selected="false"
       hide_knots="false"
       nodesatellites_param="F,0,0,1,0,15.874999,0,1 @ F,0,0,1,0,0,0,1 @ F,0,0,1,0,0,0,1 @ F,0,0,1,0,15.874999,0,1 @ F,0,0,1,0,0,0,1 @ F,0,0,1,0,0,0,1 @ F,0,0,1,0,0,0,1 @ F,0,0,1,0,0,0,1" />
    <inkscape:path-effect
       effect="fillet_chamfer"
       id="path-effect25630"
       is_visible="true"
       lpeversion="1"
       satellites_param="F,0,0,1,0,15.874999,0,1 @ F,0,0,1,0,15.875,0,1 @ F,0,0,1,0,15.874999,0,1 @ F,0,0,1,0,15.874999,0,1 @ F,0,0,1,0,0,0,1 @ F,0,1,1,0,15.875001,0,1 @ F,0,1,1,0,15.875001,0,1 @ F,0,0,1,0,0,0,1"
       unit="px"
       method="auto"
       mode="F"
       radius="0"
       chamfer_steps="1"
       flexible="false"
       use_knot_distance="true"
       apply_no_radius="true"
       apply_with_radius="true"
       only_selected="true"
       hide_knots="false"
       nodesatellites_param="F,0,0,1,0,15.874999,0,1 @ F,0,0,1,0,15.875,0,1 @ F,0,0,1,0,15.874999,0,1 @ F,0,0,1,0,15.874999,0,1 @ F,0,0,1,0,0,0,1 @ F,0,1,1,0,15.875001,0,1 @ F,0,1,1,0,15.875001,0,1 @ F,0,0,1,0,0,0,1" />
    <inkscape:path-effect
       effect="fillet_chamfer"
       id="path-effect23727"
       is_visible="true"
       lpeversion="1"
       satellites_param="F,0,0,1,0,0,0,1 @ F,0,0,1,0,8.8579202,0,1 @ F,0,0,1,0,7.9813377,0,1 @ F,0,0,1,0,0.56240432,0,1 @ F,0,0,1,0,0,0,1 @ F,0,0,1,0,5.6126664,0,1 @ F,0,0,1,0,5.7874217,0,1 @ F,0,0,1,0,0,0,1"
       unit="px"
       method="auto"
       mode="F"
       radius="0"
       chamfer_steps="1"
       flexible="false"
       use_knot_distance="true"
       apply_no_radius="true"
       apply_with_radius="true"
       only_selected="false"
       hide_knots="false"
       nodesatellites_param="F,0,0,1,0,0,0,1 @ F,0,0,1,0,8.8579202,0,1 @ F,0,0,1,0,7.9813377,0,1 @ F,0,0,1,0,0.56240432,0,1 @ F,0,0,1,0,0,0,1 @ F,0,0,1,0,5.6126664,0,1 @ F,0,0,1,0,5.7874217,0,1 @ F,0,0,1,0,0,0,1" />
    <inkscape:path-effect
       effect="fillet_chamfer"
       id="path-effect12513"
       is_visible="true"
       lpeversion="1"
       satellites_param="F,0,1,1,0,0,0,1 @ F,0,0,1,0,8.8579202,0,1 @ F,0,0,1,0,7.9813377,0,1 @ F,0,0,1,0,2.8063306,0,1 @ F,0,0,1,0,2.806332,0,1 @ F,0,0,1,0,5.6126664,0,1 @ F,0,0,1,0,5.7874217,0,1 @ F,0,0,1,0,0,0,1"
       unit="px"
       method="auto"
       mode="F"
       radius="0"
       chamfer_steps="1"
       flexible="false"
       use_knot_distance="true"
       apply_no_radius="true"
       apply_with_radius="true"
       only_selected="false"
       hide_knots="false"
       nodesatellites_param="F,0,1,1,0,0,0,1 @ F,0,0,1,0,8.8579202,0,1 @ F,0,0,1,0,7.9813377,0,1 @ F,0,0,1,0,2.8063306,0,1 @ F,0,0,1,0,2.806332,0,1 @ F,0,0,1,0,5.6126664,0,1 @ F,0,0,1,0,5.7874217,0,1 @ F,0,0,1,0,0,0,1" />
    <inkscape:path-effect
       effect="fillet_chamfer"
       id="path-effect12507"
       is_visible="true"
       lpeversion="1"
       satellites_param="F,0,0,1,0,0,0,1 @ F,0,0,1,0,8.8579202,0,1 @ F,0,0,1,0,7.9813377,0,1 @ F,0,1,1,0,2.8063298,0,1 @ F,0,0,1,0,2.80633,0,1 @ F,0,0,1,0,5.6126664,0,1 @ F,0,0,1,0,5.7874217,0,1 @ F,0,0,1,0,0,0,1"
       unit="px"
       method="auto"
       mode="F"
       radius="0"
       chamfer_steps="1"
       flexible="false"
       use_knot_distance="true"
       apply_no_radius="true"
       apply_with_radius="true"
       only_selected="false"
       hide_knots="false"
       nodesatellites_param="F,0,0,1,0,0,0,1 @ F,0,0,1,0,8.8579202,0,1 @ F,0,0,1,0,7.9813377,0,1 @ F,0,1,1,0,2.8063298,0,1 @ F,0,0,1,0,2.80633,0,1 @ F,0,0,1,0,5.6126664,0,1 @ F,0,0,1,0,5.7874217,0,1 @ F,0,0,1,0,0,0,1" />
    <inkscape:path-effect
       effect="fillet_chamfer"
       id="path-effect12501"
       is_visible="true"
       lpeversion="1"
       satellites_param="F,0,0,1,0,0,0,1 @ F,0,0,1,0,8.8579202,0,1 @ F,0,0,1,0,7.9813377,0,1 @ F,0,0,1,0,12.353675,0,1 @ F,0,0,1,0,14.03414,0,1 @ F,0,0,1,0,5.6126664,0,1 @ F,0,0,1,0,5.7874217,0,1 @ F,0,0,1,0,0,0,1"
       unit="px"
       method="auto"
       mode="F"
       radius="0"
       chamfer_steps="1"
       flexible="false"
       use_knot_distance="true"
       apply_no_radius="true"
       apply_with_radius="true"
       only_selected="false"
       hide_knots="false"
       nodesatellites_param="F,0,0,1,0,0,0,1 @ F,0,0,1,0,8.8579202,0,1 @ F,0,0,1,0,7.9813377,0,1 @ F,0,0,1,0,12.353675,0,1 @ F,0,0,1,0,14.03414,0,1 @ F,0,0,1,0,5.6126664,0,1 @ F,0,0,1,0,5.7874217,0,1 @ F,0,0,1,0,0,0,1" />
    <inkscape:path-effect
       effect="fillet_chamfer"
       id="path-effect10802"
       is_visible="true"
       lpeversion="1"
       satellites_param="F,0,0,1,0,0,0,1 @ F,0,0,1,0,5.6126594,0,1 @ F,0,0,1,0,5.6126594,0,1 @ F,0,0,1,0,2.8063306,0,1 @ F,0,0,1,0,2.806332,0,1 @ F,0,0,1,0,5.6126664,0,1 @ F,0,0,1,0,5.6126601,0,1 @ F,0,0,1,0,0,0,1"
       unit="px"
       method="auto"
       mode="F"
       radius="0"
       chamfer_steps="1"
       flexible="false"
       use_knot_distance="true"
       apply_no_radius="true"
       apply_with_radius="true"
       only_selected="false"
       hide_knots="false"
       nodesatellites_param="F,0,0,1,0,0,0,1 @ F,0,0,1,0,5.6126594,0,1 @ F,0,0,1,0,5.6126594,0,1 @ F,0,0,1,0,2.8063306,0,1 @ F,0,0,1,0,2.806332,0,1 @ F,0,0,1,0,5.6126664,0,1 @ F,0,0,1,0,5.6126601,0,1 @ F,0,0,1,0,0,0,1" />
    <inkscape:path-effect
       effect="fillet_chamfer"
       id="path-effect10796"
       is_visible="true"
       lpeversion="1"
       satellites_param="F,0,0,1,0,0,0,1 @ F,0,0,1,0,5.6126594,0,1 @ F,0,0,1,0,5.6126594,0,1 @ F,0,0,1,0,2.8063306,0,1 @ F,0,0,1,0,2.806332,0,1 @ F,0,0,1,0,5.6126664,0,1 @ F,0,0,1,0,5.6126601,0,1 @ F,0,0,1,0,0,0,1"
       unit="px"
       method="auto"
       mode="F"
       radius="0"
       chamfer_steps="1"
       flexible="false"
       use_knot_distance="true"
       apply_no_radius="true"
       apply_with_radius="true"
       only_selected="false"
       hide_knots="false"
       nodesatellites_param="F,0,0,1,0,0,0,1 @ F,0,0,1,0,5.6126594,0,1 @ F,0,0,1,0,5.6126594,0,1 @ F,0,0,1,0,2.8063306,0,1 @ F,0,0,1,0,2.806332,0,1 @ F,0,0,1,0,5.6126664,0,1 @ F,0,0,1,0,5.6126601,0,1 @ F,0,0,1,0,0,0,1" />
    <inkscape:path-effect
       effect="fillet_chamfer"
       id="path-effect10710"
       is_visible="true"
       lpeversion="1"
       satellites_param="F,0,0,1,0,0,0,1 @ F,0,0,1,0,5.6126594,0,1 @ F,0,0,1,0,5.6126594,0,1 @ F,0,0,1,0,2.8063306,0,1 @ F,0,0,1,0,2.806332,0,1 @ F,0,0,1,0,5.6126664,0,1 @ F,0,0,1,0,5.6126601,0,1 @ F,0,0,1,0,0,0,1"
       unit="px"
       method="auto"
       mode="F"
       radius="0"
       chamfer_steps="1"
       flexible="false"
       use_knot_distance="true"
       apply_no_radius="true"
       apply_with_radius="true"
       only_selected="false"
       hide_knots="false"
       nodesatellites_param="F,0,0,1,0,0,0,1 @ F,0,0,1,0,5.6126594,0,1 @ F,0,0,1,0,5.6126594,0,1 @ F,0,0,1,0,2.8063306,0,1 @ F,0,0,1,0,2.806332,0,1 @ F,0,0,1,0,5.6126664,0,1 @ F,0,0,1,0,5.6126601,0,1 @ F,0,0,1,0,0,0,1" />
    <inkscape:path-effect
       effect="fillet_chamfer"
       id="path-effect10704"
       is_visible="true"
       lpeversion="1"
       satellites_param="F,0,0,1,0,0,0,1 @ F,0,0,1,0,5.6126594,0,1 @ F,0,0,1,0,5.6126594,0,1 @ F,0,0,1,0,2.8063306,0,1 @ F,0,0,1,0,2.806332,0,1 @ F,0,0,1,0,5.6126664,0,1 @ F,0,0,1,0,5.6126601,0,1 @ F,0,0,1,0,0,0,1"
       unit="px"
       method="auto"
       mode="F"
       radius="0"
       chamfer_steps="1"
       flexible="false"
       use_knot_distance="true"
       apply_no_radius="true"
       apply_with_radius="true"
       only_selected="false"
       hide_knots="false"
       nodesatellites_param="F,0,0,1,0,0,0,1 @ F,0,0,1,0,5.6126594,0,1 @ F,0,0,1,0,5.6126594,0,1 @ F,0,0,1,0,2.8063306,0,1 @ F,0,0,1,0,2.806332,0,1 @ F,0,0,1,0,5.6126664,0,1 @ F,0,0,1,0,5.6126601,0,1 @ F,0,0,1,0,0,0,1" />
    <inkscape:path-effect
       effect="fillet_chamfer"
       id="path-effect10532"
       is_visible="true"
       lpeversion="1"
       satellites_param="F,0,1,1,0,0,0,1 @ F,0,0,1,0,8.8579202,0,1 @ F,0,0,1,0,7.9813377,0,1 @ F,0,0,1,0,2.8063306,0,1 @ F,0,0,1,0,2.806332,0,1 @ F,0,0,1,0,5.6126664,0,1 @ F,0,0,1,0,5.7874217,0,1 @ F,0,0,1,0,0,0,1"
       unit="px"
       method="auto"
       mode="F"
       radius="0"
       chamfer_steps="1"
       flexible="false"
       use_knot_distance="true"
       apply_no_radius="true"
       apply_with_radius="true"
       only_selected="false"
       hide_knots="false"
       nodesatellites_param="F,0,1,1,0,0,0,1 @ F,0,0,1,0,8.8579202,0,1 @ F,0,0,1,0,7.9813377,0,1 @ F,0,0,1,0,2.8063306,0,1 @ F,0,0,1,0,2.806332,0,1 @ F,0,0,1,0,5.6126664,0,1 @ F,0,0,1,0,5.7874217,0,1 @ F,0,0,1,0,0,0,1" />
    <inkscape:path-effect
       effect="fillet_chamfer"
       id="path-effect7180"
       is_visible="true"
       lpeversion="1"
       satellites_param="F,0,0,1,0,3.96875,0,1 @ F,0,0,1,0,0,0,1 @ F,0,0,1,0,0,0,1 @ F,0,0,1,0,0,0,1 @ F,0,0,1,0,0,0,1 @ F,0,0,1,0,0,0,1 @ F,0,0,1,0,0,0,1 @ F,0,0,1,0,0,0,1 @ F,0,0,1,0,0,0,1 @ F,0,0,1,0,0,0,1 @ F,0,0,1,0,0,0,1 @ F,0,0,1,0,0,0,1 @ F,0,0,1,0,0,0,1 @ F,0,0,1,0,3.96875,0,1"
       unit="px"
       method="auto"
       mode="F"
       radius="1"
       chamfer_steps="1"
       flexible="false"
       use_knot_distance="true"
       apply_no_radius="true"
       apply_with_radius="true"
       only_selected="true"
       hide_knots="false"
       nodesatellites_param="F,0,0,1,0,3.96875,0,1 @ F,0,0,1,0,0,0,1 @ F,0,0,1,0,0,0,1 @ F,0,0,1,0,0,0,1 @ F,0,0,1,0,0,0,1 @ F,0,0,1,0,0,0,1 @ F,0,0,1,0,0,0,1 @ F,0,0,1,0,0,0,1 @ F,0,0,1,0,0,0,1 @ F,0,0,1,0,0,0,1 @ F,0,0,1,0,0,0,1 @ F,0,0,1,0,0,0,1 @ F,0,0,1,0,0,0,1 @ F,0,0,1,0,3.96875,0,1" />
    <inkscape:path-effect
       effect="fillet_chamfer"
       id="path-effect11074"
       is_visible="true"
       lpeversion="1"
       satellites_param="F,0,0,1,0,0,0,1 @ F,0,1,1,0,0,0,1 @ F,0,1,1,0,0,0,1 @ F,0,1,1,0,0,0,1 @ F,0,1,1,0,0,0,1 @ F,0,0,1,0,0,0,1 @ F,0,0,1,0,0,0,1 @ F,0,0,1,0,0,0,1 @ F,0,0,1,0,0,0,1 @ F,0,0,1,0,0,0,1 @ F,0,0,1,0,2.8063293,0,1 @ F,0,0,1,0,0,0,1 @ F,0,0,1,0,0,0,1 @ F,0,0,1,0,0,0,1 @ F,0,0,1,0,0,0,1 @ F,0,0,1,0,0,0,1 @ F,0,0,1,0,0,0,1 @ F,0,0,1,0,0,0,1 @ F,0,0,1,0,0,0,1 @ F,0,0,1,0,0,0,1 @ F,0,0,1,0,0,0,1 @ F,0,0,1,0,0,0,1 @ F,0,0,1,0,0,0,1 @ F,0,0,1,0,0,0,1 @ F,0,0,1,0,0,0,1 @ F,0,0,1,0,0,0,1 @ F,0,0,1,0,5.6126587,0,1 @ F,0,0,1,0,0,0,1 @ F,0,0,1,0,2.80633,0,1 @ F,0,0,1,0,0,0,1 @ F,0,0,1,0,2.8063315,0,1 @ F,0,0,1,0,0,0,1 @ F,0,0,1,0,0,0,1 @ F,0,0,1,0,0,0,1 @ F,0,0,1,0,2.8063285,0,1 @ F,0,0,1,0,0,0,1"
       unit="px"
       method="auto"
       mode="F"
       radius="10"
       chamfer_steps="1"
       flexible="false"
       use_knot_distance="true"
       apply_no_radius="true"
       apply_with_radius="true"
       only_selected="true"
       hide_knots="false"
       nodesatellites_param="F,0,0,1,0,0,0,1 @ F,0,1,1,0,0,0,1 @ F,0,1,1,0,0,0,1 @ F,0,1,1,0,0,0,1 @ F,0,1,1,0,0,0,1 @ F,0,0,1,0,0,0,1 @ F,0,0,1,0,0,0,1 @ F,0,0,1,0,0,0,1 @ F,0,0,1,0,0,0,1 @ F,0,0,1,0,0,0,1 @ F,0,0,1,0,2.8063293,0,1 @ F,0,0,1,0,0,0,1 @ F,0,0,1,0,0,0,1 @ F,0,0,1,0,0,0,1 @ F,0,0,1,0,0,0,1 @ F,0,0,1,0,0,0,1 @ F,0,0,1,0,0,0,1 @ F,0,0,1,0,0,0,1 @ F,0,0,1,0,0,0,1 @ F,0,0,1,0,0,0,1 @ F,0,0,1,0,0,0,1 @ F,0,0,1,0,0,0,1 @ F,0,0,1,0,0,0,1 @ F,0,0,1,0,0,0,1 @ F,0,0,1,0,0,0,1 @ F,0,0,1,0,0,0,1 @ F,0,0,1,0,5.6126587,0,1 @ F,0,0,1,0,0,0,1 @ F,0,0,1,0,2.80633,0,1 @ F,0,0,1,0,0,0,1 @ F,0,0,1,0,2.8063315,0,1 @ F,0,0,1,0,0,0,1 @ F,0,0,1,0,0,0,1 @ F,0,0,1,0,0,0,1 @ F,0,0,1,0,2.8063285,0,1 @ F,0,0,1,0,0,0,1" />
    <inkscape:path-effect
       effect="skeletal"
       id="path-effect1030"
       is_visible="true"
       lpeversion="1"
       pattern="M 0,4.9921382 C 0,2.2364779 2.2364779,0 4.9921382,0 c 2.7556604,0 4.9921383,2.2364779 4.9921383,4.9921382 0,2.7556604 -2.2364779,4.9921383 -4.9921383,4.9921383 C 2.2364779,9.9842765 0,7.7477986 0,4.9921382 Z"
       copytype="single_stretched"
       prop_scale="0.5"
       scale_y_rel="false"
       spacing="0"
       normal_offset="0"
       tang_offset="0"
       prop_units="false"
       vertical_pattern="false"
       hide_knot="false"
       fuse_tolerance="0" />
    <inkscape:path-effect
       effect="skeletal"
       id="path-effect1026"
       is_visible="true"
       lpeversion="1"
       pattern="M 0,4.9921382 C 0,2.2364779 2.2364779,0 4.9921382,0 c 2.7556604,0 4.9921383,2.2364779 4.9921383,4.9921382 0,2.7556604 -2.2364779,4.9921383 -4.9921383,4.9921383 C 2.2364779,9.9842765 0,7.7477986 0,4.9921382 Z"
       copytype="single_stretched"
       prop_scale="0.5"
       scale_y_rel="false"
       spacing="0"
       normal_offset="0"
       tang_offset="0"
       prop_units="false"
       vertical_pattern="false"
       hide_knot="false"
       fuse_tolerance="0" />
    <inkscape:path-effect
       effect="skeletal"
       id="path-effect1022"
       is_visible="true"
       lpeversion="1"
       pattern="M 0,4.9921382 C 0,2.2364779 2.2364779,0 4.9921382,0 c 2.7556604,0 4.9921383,2.2364779 4.9921383,4.9921382 0,2.7556604 -2.2364779,4.9921383 -4.9921383,4.9921383 C 2.2364779,9.9842765 0,7.7477986 0,4.9921382 Z"
       copytype="single_stretched"
       prop_scale="0.5"
       scale_y_rel="false"
       spacing="0"
       normal_offset="0"
       tang_offset="0"
       prop_units="false"
       vertical_pattern="false"
       hide_knot="false"
       fuse_tolerance="0" />
    <inkscape:path-effect
       effect="skeletal"
       id="path-effect548"
       is_visible="true"
       lpeversion="1"
       pattern="M 0,4.9921382 C 0,2.2364779 2.2364779,0 4.9921382,0 c 2.7556604,0 4.9921383,2.2364779 4.9921383,4.9921382 0,2.7556604 -2.2364779,4.9921383 -4.9921383,4.9921383 C 2.2364779,9.9842765 0,7.7477986 0,4.9921382 Z"
       copytype="single_stretched"
       prop_scale="1"
       scale_y_rel="false"
       spacing="0"
       normal_offset="0"
       tang_offset="0"
       prop_units="false"
       vertical_pattern="false"
       hide_knot="false"
       fuse_tolerance="0" />
    <inkscape:path-effect
       effect="fillet_chamfer"
       id="path-effect9184-0"
       is_visible="true"
       lpeversion="1"
       satellites_param="F,0,0,1,0,5.8999032,0,1 @ F,0,0,1,0,5.612653,0,1 @ F,0,0,1,0,5.8998905,0,1 @ F,0,1,1,0,5.8999032,0,1"
       unit="px"
       method="auto"
       mode="F"
       radius="0"
       chamfer_steps="1"
       flexible="false"
       use_knot_distance="true"
       apply_no_radius="true"
       apply_with_radius="true"
       only_selected="false"
       hide_knots="false"
       nodesatellites_param="F,0,0,1,0,5.8999032,0,1 @ F,0,0,1,0,5.612653,0,1 @ F,0,0,1,0,5.8998905,0,1 @ F,0,1,1,0,5.8999032,0,1" />
    <inkscape:path-effect
       effect="fillet_chamfer"
       id="path-effect11393-8"
       is_visible="true"
       lpeversion="1"
       satellites_param="F,0,0,1,0,0,0,1 @ F,0,0,1,0,5.6126671,0,1 @ F,0,0,1,0,0,0,1 @ F,0,0,1,0,5.612653,0,1"
       unit="px"
       method="auto"
       mode="F"
       radius="0"
       chamfer_steps="1"
       flexible="false"
       use_knot_distance="true"
       apply_no_radius="true"
       apply_with_radius="true"
       only_selected="false"
       hide_knots="false"
       nodesatellites_param="F,0,0,1,0,0,0,1 @ F,0,0,1,0,5.6126671,0,1 @ F,0,0,1,0,0,0,1 @ F,0,0,1,0,5.612653,0,1" />
    <inkscape:path-effect
       effect="fillet_chamfer"
       id="path-effect11393-6"
       is_visible="true"
       lpeversion="1"
       satellites_param="F,0,0,1,0,0,0,1 @ F,0,0,1,0,5.6126671,0,1 @ F,0,0,1,0,0,0,1 @ F,0,0,1,0,5.612653,0,1"
       unit="px"
       method="auto"
       mode="F"
       radius="0"
       chamfer_steps="1"
       flexible="false"
       use_knot_distance="true"
       apply_no_radius="true"
       apply_with_radius="true"
       only_selected="false"
       hide_knots="false"
       nodesatellites_param="F,0,0,1,0,0,0,1 @ F,0,0,1,0,5.6126671,0,1 @ F,0,0,1,0,0,0,1 @ F,0,0,1,0,5.612653,0,1" />
    <inkscape:path-effect
       effect="fillet_chamfer"
       id="path-effect11393-63"
       is_visible="true"
       lpeversion="1"
       satellites_param="F,0,0,1,0,0,0,1 @ F,0,0,1,0,5.6126671,0,1 @ F,0,0,1,0,0,0,1 @ F,0,0,1,0,5.612653,0,1"
       unit="px"
       method="auto"
       mode="F"
       radius="0"
       chamfer_steps="1"
       flexible="false"
       use_knot_distance="true"
       apply_no_radius="true"
       apply_with_radius="true"
       only_selected="false"
       hide_knots="false"
       nodesatellites_param="F,0,0,1,0,0,0,1 @ F,0,0,1,0,5.6126671,0,1 @ F,0,0,1,0,0,0,1 @ F,0,0,1,0,5.612653,0,1" />
    <inkscape:path-effect
       effect="fillet_chamfer"
       id="path-effect11393-8-4"
       is_visible="true"
       lpeversion="1"
       satellites_param="F,0,0,1,0,0,0,1 @ F,0,0,1,0,5.6126671,0,1 @ F,0,0,1,0,0,0,1 @ F,0,0,1,0,5.612653,0,1"
       unit="px"
       method="auto"
       mode="F"
       radius="0"
       chamfer_steps="1"
       flexible="false"
       use_knot_distance="true"
       apply_no_radius="true"
       apply_with_radius="true"
       only_selected="false"
       hide_knots="false"
       nodesatellites_param="F,0,0,1,0,0,0,1 @ F,0,0,1,0,5.6126671,0,1 @ F,0,0,1,0,0,0,1 @ F,0,0,1,0,5.612653,0,1" />
    <inkscape:path-effect
       effect="fillet_chamfer"
       id="path-effect11393-61"
       is_visible="true"
       lpeversion="1"
       satellites_param="F,0,0,1,0,0,0,1 @ F,0,0,1,0,5.6126671,0,1 @ F,0,0,1,0,0,0,1 @ F,0,0,1,0,5.612653,0,1"
       unit="px"
       method="auto"
       mode="F"
       radius="0"
       chamfer_steps="1"
       flexible="false"
       use_knot_distance="true"
       apply_no_radius="true"
       apply_with_radius="true"
       only_selected="false"
       hide_knots="false"
       nodesatellites_param="F,0,0,1,0,0,0,1 @ F,0,0,1,0,5.6126671,0,1 @ F,0,0,1,0,0,0,1 @ F,0,0,1,0,5.612653,0,1" />
    <inkscape:path-effect
       effect="fillet_chamfer"
       id="path-effect11393-6-7"
       is_visible="true"
       lpeversion="1"
       satellites_param="F,0,0,1,0,0,0,1 @ F,0,0,1,0,5.6126671,0,1 @ F,0,0,1,0,0,0,1 @ F,0,0,1,0,5.612653,0,1"
       unit="px"
       method="auto"
       mode="F"
       radius="0"
       chamfer_steps="1"
       flexible="false"
       use_knot_distance="true"
       apply_no_radius="true"
       apply_with_radius="true"
       only_selected="false"
       hide_knots="false"
       nodesatellites_param="F,0,0,1,0,0,0,1 @ F,0,0,1,0,5.6126671,0,1 @ F,0,0,1,0,0,0,1 @ F,0,0,1,0,5.612653,0,1" />
    <inkscape:path-effect
       effect="fillet_chamfer"
       id="path-effect11393-63-5"
       is_visible="true"
       lpeversion="1"
       satellites_param="F,0,0,1,0,0,0,1 @ F,0,0,1,0,5.6126671,0,1 @ F,0,0,1,0,0,0,1 @ F,0,0,1,0,5.612653,0,1"
       unit="px"
       method="auto"
       mode="F"
       radius="0"
       chamfer_steps="1"
       flexible="false"
       use_knot_distance="true"
       apply_no_radius="true"
       apply_with_radius="true"
       only_selected="false"
       hide_knots="false"
       nodesatellites_param="F,0,0,1,0,0,0,1 @ F,0,0,1,0,5.6126671,0,1 @ F,0,0,1,0,0,0,1 @ F,0,0,1,0,5.612653,0,1" />
    <inkscape:path-effect
       effect="fillet_chamfer"
       id="path-effect15409-3"
       is_visible="true"
       lpeversion="1"
       satellites_param="F,0,0,1,0,0,0,1 @ F,0,0,1,0,4.0213085,0,1 @ F,0,0,1,0,0,0,1 @ F,0,0,1,0,4.3976809,0,1"
       unit="px"
       method="auto"
       mode="F"
       radius="0"
       chamfer_steps="1"
       flexible="false"
       use_knot_distance="true"
       apply_no_radius="true"
       apply_with_radius="true"
       only_selected="false"
       hide_knots="false"
       nodesatellites_param="F,0,0,1,0,0,0,1 @ F,0,0,1,0,4.0213085,0,1 @ F,0,0,1,0,0,0,1 @ F,0,0,1,0,4.3976809,0,1" />
    <inkscape:path-effect
       effect="fillet_chamfer"
       id="path-effect11393-61-6"
       is_visible="true"
       lpeversion="1"
       satellites_param="F,0,0,1,0,0,0,1 @ F,0,0,1,0,5.6126671,0,1 @ F,0,0,1,0,0,0,1 @ F,0,0,1,0,5.612653,0,1"
       unit="px"
       method="auto"
       mode="F"
       radius="0"
       chamfer_steps="1"
       flexible="false"
       use_knot_distance="true"
       apply_no_radius="true"
       apply_with_radius="true"
       only_selected="false"
       hide_knots="false"
       nodesatellites_param="F,0,0,1,0,0,0,1 @ F,0,0,1,0,5.6126671,0,1 @ F,0,0,1,0,0,0,1 @ F,0,0,1,0,5.612653,0,1" />
    <inkscape:path-effect
       effect="fillet_chamfer"
       id="path-effect11393-6-7-4"
       is_visible="true"
       lpeversion="1"
       satellites_param="F,0,0,1,0,0,0,1 @ F,0,0,1,0,5.6126671,0,1 @ F,0,0,1,0,0,0,1 @ F,0,0,1,0,5.612653,0,1"
       unit="px"
       method="auto"
       mode="F"
       radius="0"
       chamfer_steps="1"
       flexible="false"
       use_knot_distance="true"
       apply_no_radius="true"
       apply_with_radius="true"
       only_selected="false"
       hide_knots="false"
       nodesatellites_param="F,0,0,1,0,0,0,1 @ F,0,0,1,0,5.6126671,0,1 @ F,0,0,1,0,0,0,1 @ F,0,0,1,0,5.612653,0,1" />
    <inkscape:path-effect
       effect="fillet_chamfer"
       id="path-effect15409-3-6"
       is_visible="true"
       lpeversion="1"
       satellites_param="F,0,0,1,0,0,0,1 @ F,0,0,1,0,4.0213085,0,1 @ F,0,0,1,0,0,0,1 @ F,0,0,1,0,4.3976809,0,1"
       unit="px"
       method="auto"
       mode="F"
       radius="0"
       chamfer_steps="1"
       flexible="false"
       use_knot_distance="true"
       apply_no_radius="true"
       apply_with_radius="true"
       only_selected="false"
       hide_knots="false"
       nodesatellites_param="F,0,0,1,0,0,0,1 @ F,0,0,1,0,4.0213085,0,1 @ F,0,0,1,0,0,0,1 @ F,0,0,1,0,4.3976809,0,1" />
    <inkscape:path-effect
       effect="fillet_chamfer"
       id="path-effect11393-61-6-0"
       is_visible="true"
       lpeversion="1"
       satellites_param="F,0,0,1,0,0,0,1 @ F,0,0,1,0,5.6126671,0,1 @ F,0,0,1,0,0,0,1 @ F,0,0,1,0,5.612653,0,1"
       unit="px"
       method="auto"
       mode="F"
       radius="0"
       chamfer_steps="1"
       flexible="false"
       use_knot_distance="true"
       apply_no_radius="true"
       apply_with_radius="true"
       only_selected="false"
       hide_knots="false"
       nodesatellites_param="F,0,0,1,0,0,0,1 @ F,0,0,1,0,5.6126671,0,1 @ F,0,0,1,0,0,0,1 @ F,0,0,1,0,5.612653,0,1" />
    <inkscape:path-effect
       effect="fillet_chamfer"
       id="path-effect11393-6-7-4-5"
       is_visible="true"
       lpeversion="1"
       satellites_param="F,0,0,1,0,0,0,1 @ F,0,0,1,0,5.6126671,0,1 @ F,0,0,1,0,0,0,1 @ F,0,0,1,0,5.612653,0,1"
       unit="px"
       method="auto"
       mode="F"
       radius="0"
       chamfer_steps="1"
       flexible="false"
       use_knot_distance="true"
       apply_no_radius="true"
       apply_with_radius="true"
       only_selected="false"
       hide_knots="false"
       nodesatellites_param="F,0,0,1,0,0,0,1 @ F,0,0,1,0,5.6126671,0,1 @ F,0,0,1,0,0,0,1 @ F,0,0,1,0,5.612653,0,1" />
    <inkscape:path-effect
       effect="fillet_chamfer"
       id="path-effect15409-3-5"
       is_visible="true"
       lpeversion="1"
       satellites_param="F,0,0,1,0,0,0,1 @ F,0,0,1,0,4.0213085,0,1 @ F,0,0,1,0,0,0,1 @ F,0,0,1,0,4.3976809,0,1"
       unit="px"
       method="auto"
       mode="F"
       radius="0"
       chamfer_steps="1"
       flexible="false"
       use_knot_distance="true"
       apply_no_radius="true"
       apply_with_radius="true"
       only_selected="false"
       hide_knots="false"
       nodesatellites_param="F,0,0,1,0,0,0,1 @ F,0,0,1,0,4.0213085,0,1 @ F,0,0,1,0,0,0,1 @ F,0,0,1,0,4.3976809,0,1" />
    <inkscape:path-effect
       effect="fillet_chamfer"
       id="path-effect11393-61-6-6"
       is_visible="true"
       lpeversion="1"
       satellites_param="F,0,0,1,0,0,0,1 @ F,0,0,1,0,5.6126671,0,1 @ F,0,0,1,0,0,0,1 @ F,0,0,1,0,5.612653,0,1"
       unit="px"
       method="auto"
       mode="F"
       radius="0"
       chamfer_steps="1"
       flexible="false"
       use_knot_distance="true"
       apply_no_radius="true"
       apply_with_radius="true"
       only_selected="false"
       hide_knots="false"
       nodesatellites_param="F,0,0,1,0,0,0,1 @ F,0,0,1,0,5.6126671,0,1 @ F,0,0,1,0,0,0,1 @ F,0,0,1,0,5.612653,0,1" />
    <inkscape:path-effect
       effect="fillet_chamfer"
       id="path-effect11393-6-7-4-1"
       is_visible="true"
       lpeversion="1"
       satellites_param="F,0,0,1,0,0,0,1 @ F,0,0,1,0,5.6126671,0,1 @ F,0,0,1,0,0,0,1 @ F,0,0,1,0,5.612653,0,1"
       unit="px"
       method="auto"
       mode="F"
       radius="0"
       chamfer_steps="1"
       flexible="false"
       use_knot_distance="true"
       apply_no_radius="true"
       apply_with_radius="true"
       only_selected="false"
       hide_knots="false"
       nodesatellites_param="F,0,0,1,0,0,0,1 @ F,0,0,1,0,5.6126671,0,1 @ F,0,0,1,0,0,0,1 @ F,0,0,1,0,5.612653,0,1" />
    <inkscape:path-effect
       effect="fillet_chamfer"
       id="path-effect15409-9"
       is_visible="true"
       lpeversion="1"
       satellites_param="F,0,0,1,0,0,0,1 @ F,0,0,1,0,4.0213085,0,1 @ F,0,0,1,0,0,0,1 @ F,0,0,1,0,4.3976809,0,1"
       unit="px"
       method="auto"
       mode="F"
       radius="0"
       chamfer_steps="1"
       flexible="false"
       use_knot_distance="true"
       apply_no_radius="true"
       apply_with_radius="true"
       only_selected="false"
       hide_knots="false"
       nodesatellites_param="F,0,0,1,0,0,0,1 @ F,0,0,1,0,4.0213085,0,1 @ F,0,0,1,0,0,0,1 @ F,0,0,1,0,4.3976809,0,1" />
    <inkscape:path-effect
       effect="fillet_chamfer"
       id="path-effect11393-61-0"
       is_visible="true"
       lpeversion="1"
       satellites_param="F,0,0,1,0,0,0,1 @ F,0,0,1,0,5.6126671,0,1 @ F,0,0,1,0,0,0,1 @ F,0,0,1,0,5.612653,0,1"
       unit="px"
       method="auto"
       mode="F"
       radius="0"
       chamfer_steps="1"
       flexible="false"
       use_knot_distance="true"
       apply_no_radius="true"
       apply_with_radius="true"
       only_selected="false"
       hide_knots="false"
       nodesatellites_param="F,0,0,1,0,0,0,1 @ F,0,0,1,0,5.6126671,0,1 @ F,0,0,1,0,0,0,1 @ F,0,0,1,0,5.612653,0,1" />
    <inkscape:path-effect
       effect="fillet_chamfer"
       id="path-effect11393-6-7-2"
       is_visible="true"
       lpeversion="1"
       satellites_param="F,0,0,1,0,0,0,1 @ F,0,0,1,0,5.6126671,0,1 @ F,0,0,1,0,0,0,1 @ F,0,0,1,0,5.612653,0,1"
       unit="px"
       method="auto"
       mode="F"
       radius="0"
       chamfer_steps="1"
       flexible="false"
       use_knot_distance="true"
       apply_no_radius="true"
       apply_with_radius="true"
       only_selected="false"
       hide_knots="false"
       nodesatellites_param="F,0,0,1,0,0,0,1 @ F,0,0,1,0,5.6126671,0,1 @ F,0,0,1,0,0,0,1 @ F,0,0,1,0,5.612653,0,1" />
    <inkscape:path-effect
       effect="fillet_chamfer"
       id="path-effect15409-3-9"
       is_visible="true"
       lpeversion="1"
       satellites_param="F,0,0,1,0,0,0,1 @ F,0,0,1,0,4.0213085,0,1 @ F,0,0,1,0,0,0,1 @ F,0,0,1,0,4.3976809,0,1"
       unit="px"
       method="auto"
       mode="F"
       radius="0"
       chamfer_steps="1"
       flexible="false"
       use_knot_distance="true"
       apply_no_radius="true"
       apply_with_radius="true"
       only_selected="false"
       hide_knots="false"
       nodesatellites_param="F,0,0,1,0,0,0,1 @ F,0,0,1,0,4.0213085,0,1 @ F,0,0,1,0,0,0,1 @ F,0,0,1,0,4.3976809,0,1" />
    <inkscape:path-effect
       effect="fillet_chamfer"
       id="path-effect11393-61-6-5"
       is_visible="true"
       lpeversion="1"
       satellites_param="F,0,0,1,0,0,0,1 @ F,0,0,1,0,5.6126671,0,1 @ F,0,0,1,0,0,0,1 @ F,0,0,1,0,5.612653,0,1"
       unit="px"
       method="auto"
       mode="F"
       radius="0"
       chamfer_steps="1"
       flexible="false"
       use_knot_distance="true"
       apply_no_radius="true"
       apply_with_radius="true"
       only_selected="false"
       hide_knots="false"
       nodesatellites_param="F,0,0,1,0,0,0,1 @ F,0,0,1,0,5.6126671,0,1 @ F,0,0,1,0,0,0,1 @ F,0,0,1,0,5.612653,0,1" />
    <inkscape:path-effect
       effect="fillet_chamfer"
       id="path-effect11393-6-7-4-8"
       is_visible="true"
       lpeversion="1"
       satellites_param="F,0,0,1,0,0,0,1 @ F,0,0,1,0,5.6126671,0,1 @ F,0,0,1,0,0,0,1 @ F,0,0,1,0,5.612653,0,1"
       unit="px"
       method="auto"
       mode="F"
       radius="0"
       chamfer_steps="1"
       flexible="false"
       use_knot_distance="true"
       apply_no_radius="true"
       apply_with_radius="true"
       only_selected="false"
       hide_knots="false"
       nodesatellites_param="F,0,0,1,0,0,0,1 @ F,0,0,1,0,5.6126671,0,1 @ F,0,0,1,0,0,0,1 @ F,0,0,1,0,5.612653,0,1" />
    <inkscape:path-effect
       effect="fillet_chamfer"
       id="path-effect15409-3-3"
       is_visible="true"
       lpeversion="1"
       satellites_param="F,0,0,1,0,0,0,1 @ F,0,0,1,0,4.0213085,0,1 @ F,0,0,1,0,0,0,1 @ F,0,0,1,0,4.3976809,0,1"
       unit="px"
       method="auto"
       mode="F"
       radius="0"
       chamfer_steps="1"
       flexible="false"
       use_knot_distance="true"
       apply_no_radius="true"
       apply_with_radius="true"
       only_selected="false"
       hide_knots="false"
       nodesatellites_param="F,0,0,1,0,0,0,1 @ F,0,0,1,0,4.0213085,0,1 @ F,0,0,1,0,0,0,1 @ F,0,0,1,0,4.3976809,0,1" />
    <inkscape:path-effect
       effect="fillet_chamfer"
       id="path-effect11393-61-6-50"
       is_visible="true"
       lpeversion="1"
       satellites_param="F,0,0,1,0,0,0,1 @ F,0,0,1,0,5.6126671,0,1 @ F,0,0,1,0,0,0,1 @ F,0,0,1,0,5.612653,0,1"
       unit="px"
       method="auto"
       mode="F"
       radius="0"
       chamfer_steps="1"
       flexible="false"
       use_knot_distance="true"
       apply_no_radius="true"
       apply_with_radius="true"
       only_selected="false"
       hide_knots="false"
       nodesatellites_param="F,0,0,1,0,0,0,1 @ F,0,0,1,0,5.6126671,0,1 @ F,0,0,1,0,0,0,1 @ F,0,0,1,0,5.612653,0,1" />
    <inkscape:path-effect
       effect="fillet_chamfer"
       id="path-effect11393-6-7-4-2"
       is_visible="true"
       lpeversion="1"
       satellites_param="F,0,0,1,0,0,0,1 @ F,0,0,1,0,5.6126671,0,1 @ F,0,0,1,0,0,0,1 @ F,0,0,1,0,5.612653,0,1"
       unit="px"
       method="auto"
       mode="F"
       radius="0"
       chamfer_steps="1"
       flexible="false"
       use_knot_distance="true"
       apply_no_radius="true"
       apply_with_radius="true"
       only_selected="false"
       hide_knots="false"
       nodesatellites_param="F,0,0,1,0,0,0,1 @ F,0,0,1,0,5.6126671,0,1 @ F,0,0,1,0,0,0,1 @ F,0,0,1,0,5.612653,0,1" />
    <inkscape:path-effect
       effect="fillet_chamfer"
       id="path-effect15409-3-3-5"
       is_visible="true"
       lpeversion="1"
       satellites_param="F,0,0,1,0,0,0,1 @ F,0,0,1,0,4.0213085,0,1 @ F,0,0,1,0,0,0,1 @ F,0,0,1,0,4.3976809,0,1"
       unit="px"
       method="auto"
       mode="F"
       radius="0"
       chamfer_steps="1"
       flexible="false"
       use_knot_distance="true"
       apply_no_radius="true"
       apply_with_radius="true"
       only_selected="false"
       hide_knots="false"
       nodesatellites_param="F,0,0,1,0,0,0,1 @ F,0,0,1,0,4.0213085,0,1 @ F,0,0,1,0,0,0,1 @ F,0,0,1,0,4.3976809,0,1" />
    <inkscape:path-effect
       effect="fillet_chamfer"
       id="path-effect11393-61-6-50-3"
       is_visible="true"
       lpeversion="1"
       satellites_param="F,0,0,1,0,0,0,1 @ F,0,0,1,0,5.6126671,0,1 @ F,0,0,1,0,0,0,1 @ F,0,0,1,0,5.612653,0,1"
       unit="px"
       method="auto"
       mode="F"
       radius="0"
       chamfer_steps="1"
       flexible="false"
       use_knot_distance="true"
       apply_no_radius="true"
       apply_with_radius="true"
       only_selected="false"
       hide_knots="false"
       nodesatellites_param="F,0,0,1,0,0,0,1 @ F,0,0,1,0,5.6126671,0,1 @ F,0,0,1,0,0,0,1 @ F,0,0,1,0,5.612653,0,1" />
    <inkscape:path-effect
       effect="fillet_chamfer"
       id="path-effect11393-6-7-4-2-6"
       is_visible="true"
       lpeversion="1"
       satellites_param="F,0,0,1,0,0,0,1 @ F,0,0,1,0,5.6126671,0,1 @ F,0,0,1,0,0,0,1 @ F,0,0,1,0,5.612653,0,1"
       unit="px"
       method="auto"
       mode="F"
       radius="0"
       chamfer_steps="1"
       flexible="false"
       use_knot_distance="true"
       apply_no_radius="true"
       apply_with_radius="true"
       only_selected="false"
       hide_knots="false"
       nodesatellites_param="F,0,0,1,0,0,0,1 @ F,0,0,1,0,5.6126671,0,1 @ F,0,0,1,0,0,0,1 @ F,0,0,1,0,5.612653,0,1" />
    <inkscape:path-effect
       effect="fillet_chamfer"
       id="path-effect10532-4"
       is_visible="true"
       lpeversion="1"
       satellites_param="F,0,1,1,0,0,0,1 @ F,0,0,1,0,8.8579202,0,1 @ F,0,0,1,0,7.9813377,0,1 @ F,0,0,1,0,2.8063306,0,1 @ F,0,0,1,0,2.806332,0,1 @ F,0,0,1,0,5.6126664,0,1 @ F,0,0,1,0,5.7874217,0,1 @ F,0,0,1,0,0,0,1"
       unit="px"
       method="auto"
       mode="F"
       radius="0"
       chamfer_steps="1"
       flexible="false"
       use_knot_distance="true"
       apply_no_radius="true"
       apply_with_radius="true"
       only_selected="false"
       hide_knots="false"
       nodesatellites_param="F,0,1,1,0,0,0,1 @ F,0,0,1,0,8.8579202,0,1 @ F,0,0,1,0,7.9813377,0,1 @ F,0,0,1,0,2.8063306,0,1 @ F,0,0,1,0,2.806332,0,1 @ F,0,0,1,0,5.6126664,0,1 @ F,0,0,1,0,5.7874217,0,1 @ F,0,0,1,0,0,0,1" />
    <inkscape:path-effect
       effect="fillet_chamfer"
       id="path-effect12501-9"
       is_visible="true"
       lpeversion="1"
       satellites_param="F,0,0,1,0,0,0,1 @ F,0,0,1,0,8.8579202,0,1 @ F,0,0,1,0,7.9813377,0,1 @ F,0,0,1,0,12.353675,0,1 @ F,0,0,1,0,14.03414,0,1 @ F,0,0,1,0,5.6126664,0,1 @ F,0,0,1,0,5.7874217,0,1 @ F,0,0,1,0,0,0,1"
       unit="px"
       method="auto"
       mode="F"
       radius="0"
       chamfer_steps="1"
       flexible="false"
       use_knot_distance="true"
       apply_no_radius="true"
       apply_with_radius="true"
       only_selected="false"
       hide_knots="false"
       nodesatellites_param="F,0,0,1,0,0,0,1 @ F,0,0,1,0,8.8579202,0,1 @ F,0,0,1,0,7.9813377,0,1 @ F,0,0,1,0,12.353675,0,1 @ F,0,0,1,0,14.03414,0,1 @ F,0,0,1,0,5.6126664,0,1 @ F,0,0,1,0,5.7874217,0,1 @ F,0,0,1,0,0,0,1" />
    <inkscape:path-effect
       effect="fillet_chamfer"
       id="path-effect12507-7"
       is_visible="true"
       lpeversion="1"
       satellites_param="F,0,0,1,0,0,0,1 @ F,0,0,1,0,8.8579202,0,1 @ F,0,0,1,0,7.9813377,0,1 @ F,0,1,1,0,2.8063298,0,1 @ F,0,0,1,0,2.80633,0,1 @ F,0,0,1,0,5.6126664,0,1 @ F,0,0,1,0,5.7874217,0,1 @ F,0,0,1,0,0,0,1"
       unit="px"
       method="auto"
       mode="F"
       radius="0"
       chamfer_steps="1"
       flexible="false"
       use_knot_distance="true"
       apply_no_radius="true"
       apply_with_radius="true"
       only_selected="false"
       hide_knots="false"
       nodesatellites_param="F,0,0,1,0,0,0,1 @ F,0,0,1,0,8.8579202,0,1 @ F,0,0,1,0,7.9813377,0,1 @ F,0,1,1,0,2.8063298,0,1 @ F,0,0,1,0,2.80633,0,1 @ F,0,0,1,0,5.6126664,0,1 @ F,0,0,1,0,5.7874217,0,1 @ F,0,0,1,0,0,0,1" />
    <inkscape:path-effect
       effect="fillet_chamfer"
       id="path-effect12513-6"
       is_visible="true"
       lpeversion="1"
       satellites_param="F,0,1,1,0,0,0,1 @ F,0,0,1,0,8.8579202,0,1 @ F,0,0,1,0,7.9813377,0,1 @ F,0,0,1,0,2.8063306,0,1 @ F,0,0,1,0,2.806332,0,1 @ F,0,0,1,0,5.6126664,0,1 @ F,0,0,1,0,5.7874217,0,1 @ F,0,0,1,0,0,0,1"
       unit="px"
       method="auto"
       mode="F"
       radius="0"
       chamfer_steps="1"
       flexible="false"
       use_knot_distance="true"
       apply_no_radius="true"
       apply_with_radius="true"
       only_selected="false"
       hide_knots="false"
       nodesatellites_param="F,0,1,1,0,0,0,1 @ F,0,0,1,0,8.8579202,0,1 @ F,0,0,1,0,7.9813377,0,1 @ F,0,0,1,0,2.8063306,0,1 @ F,0,0,1,0,2.806332,0,1 @ F,0,0,1,0,5.6126664,0,1 @ F,0,0,1,0,5.7874217,0,1 @ F,0,0,1,0,0,0,1" />
    <inkscape:path-effect
       effect="fillet_chamfer"
       id="path-effect5632-6"
       is_visible="true"
       lpeversion="1"
       satellites_param="F,0,0,1,0,0,0,1 @ F,0,0,1,0,5.612624,0,1 @ F,0,0,1,0,5.6126954,0,1 @ F,0,0,1,0,0,0,1 @ F,0,0,1,0,12.550274,0,1 @ F,0,0,1,0,0,0,1 @ F,0,0,1,0,12.550242,0,1 @ F,0,0,1,0,0,0,1"
       unit="px"
       method="auto"
       mode="F"
       radius="0"
       chamfer_steps="1"
       flexible="false"
       use_knot_distance="true"
       apply_no_radius="true"
       apply_with_radius="true"
       only_selected="false"
       hide_knots="false"
       nodesatellites_param="F,0,0,1,0,0,0,1 @ F,0,0,1,0,5.612624,0,1 @ F,0,0,1,0,5.6126954,0,1 @ F,0,0,1,0,0,0,1 @ F,0,0,1,0,12.550274,0,1 @ F,0,0,1,0,0,0,1 @ F,0,0,1,0,12.550242,0,1 @ F,0,0,1,0,0,0,1" />
    <inkscape:path-effect
       effect="fillet_chamfer"
       id="path-effect5632-3"
       is_visible="true"
       lpeversion="1"
       satellites_param="F,0,0,1,0,0,0,1 @ F,0,0,1,0,5.612624,0,1 @ F,0,0,1,0,5.6126954,0,1 @ F,0,0,1,0,0,0,1 @ F,0,0,1,0,12.550274,0,1 @ F,0,0,1,0,0,0,1 @ F,0,0,1,0,12.550242,0,1 @ F,0,0,1,0,0,0,1"
       unit="px"
       method="auto"
       mode="F"
       radius="0"
       chamfer_steps="1"
       flexible="false"
       use_knot_distance="true"
       apply_no_radius="true"
       apply_with_radius="true"
       only_selected="false"
       hide_knots="false"
       nodesatellites_param="F,0,0,1,0,0,0,1 @ F,0,0,1,0,5.612624,0,1 @ F,0,0,1,0,5.6126954,0,1 @ F,0,0,1,0,0,0,1 @ F,0,0,1,0,12.550274,0,1 @ F,0,0,1,0,0,0,1 @ F,0,0,1,0,12.550242,0,1 @ F,0,0,1,0,0,0,1" />
    <inkscape:path-effect
       effect="fillet_chamfer"
       id="path-effect5632-65"
       is_visible="true"
       lpeversion="1"
       satellites_param="F,0,0,1,0,0,0,1 @ F,0,0,1,0,5.612624,0,1 @ F,0,0,1,0,5.6126954,0,1 @ F,0,0,1,0,0,0,1 @ F,0,0,1,0,12.550274,0,1 @ F,0,0,1,0,0,0,1 @ F,0,0,1,0,12.550242,0,1 @ F,0,0,1,0,0,0,1"
       unit="px"
       method="auto"
       mode="F"
       radius="0"
       chamfer_steps="1"
       flexible="false"
       use_knot_distance="true"
       apply_no_radius="true"
       apply_with_radius="true"
       only_selected="false"
       hide_knots="false"
       nodesatellites_param="F,0,0,1,0,0,0,1 @ F,0,0,1,0,5.612624,0,1 @ F,0,0,1,0,5.6126954,0,1 @ F,0,0,1,0,0,0,1 @ F,0,0,1,0,12.550274,0,1 @ F,0,0,1,0,0,0,1 @ F,0,0,1,0,12.550242,0,1 @ F,0,0,1,0,0,0,1" />
    <inkscape:path-effect
       effect="fillet_chamfer"
       id="path-effect41371-9"
       is_visible="true"
       lpeversion="1"
       satellites_param="F,0,0,1,0,3.96874,0,1 @ F,0,0,1,0,2.8063194,0,1 @ F,0,0,1,0,0.26458333,0,1 @ F,0,0,1,0,3.96875,0,1 @ F,0,0,1,0,3.96875,0,1 @ F,0,0,1,0,0.26458333,0,1 @ F,0,0,1,0,0.26458333,0,1 @ F,0,0,1,0,3.96874,0,1"
       unit="px"
       method="auto"
       mode="F"
       radius="1"
       chamfer_steps="1"
       flexible="false"
       use_knot_distance="true"
       apply_no_radius="true"
       apply_with_radius="true"
       only_selected="false"
       hide_knots="false"
       nodesatellites_param="F,0,0,1,0,3.96874,0,1 @ F,0,0,1,0,2.8063194,0,1 @ F,0,0,1,0,0.26458333,0,1 @ F,0,0,1,0,3.96875,0,1 @ F,0,0,1,0,3.96875,0,1 @ F,0,0,1,0,0.26458333,0,1 @ F,0,0,1,0,0.26458333,0,1 @ F,0,0,1,0,3.96874,0,1" />
    <inkscape:path-effect
       effect="fillet_chamfer"
       id="path-effect41463-6"
       is_visible="true"
       lpeversion="1"
       satellites_param="F,0,0,1,0,4.729554,0,1 @ F,0,0,1,0,2.8063194,0,1 @ F,0,0,1,0,0.26458333,0,1 @ F,0,0,1,0,3.96875,0,1 @ F,0,0,1,0,3.96875,0,1 @ F,0,0,1,0,0.26458333,0,1 @ F,0,0,1,0,0.26458333,0,1 @ F,0,0,1,0,4.729554,0,1"
       unit="px"
       method="auto"
       mode="F"
       radius="1"
       chamfer_steps="1"
       flexible="false"
       use_knot_distance="true"
       apply_no_radius="true"
       apply_with_radius="true"
       only_selected="false"
       hide_knots="false"
       nodesatellites_param="F,0,0,1,0,4.729554,0,1 @ F,0,0,1,0,2.8063194,0,1 @ F,0,0,1,0,0.26458333,0,1 @ F,0,0,1,0,3.96875,0,1 @ F,0,0,1,0,3.96875,0,1 @ F,0,0,1,0,0.26458333,0,1 @ F,0,0,1,0,0.26458333,0,1 @ F,0,0,1,0,4.729554,0,1" />
    <inkscape:path-effect
       effect="fillet_chamfer"
       id="path-effect41469-0"
       is_visible="true"
       lpeversion="1"
       satellites_param="F,0,0,1,0,3.670979,0,1 @ F,0,0,1,0,2.8063194,0,1 @ F,0,0,1,0,0.26458333,0,1 @ F,0,0,1,0,3.96875,0,1 @ F,0,0,1,0,3.96875,0,1 @ F,0,0,1,0,0.26458333,0,1 @ F,0,1,1,0,3.670979,0,1 @ F,0,1,1,0,3.670979,0,1"
       unit="px"
       method="auto"
       mode="F"
       radius="1"
       chamfer_steps="1"
       flexible="false"
       use_knot_distance="true"
       apply_no_radius="true"
       apply_with_radius="true"
       only_selected="false"
       hide_knots="false"
       nodesatellites_param="F,0,0,1,0,3.670979,0,1 @ F,0,0,1,0,2.8063194,0,1 @ F,0,0,1,0,0.26458333,0,1 @ F,0,0,1,0,3.96875,0,1 @ F,0,0,1,0,3.96875,0,1 @ F,0,0,1,0,0.26458333,0,1 @ F,0,1,1,0,3.670979,0,1 @ F,0,1,1,0,3.670979,0,1" />
    <inkscape:path-effect
       effect="fillet_chamfer"
       id="path-effect42357-6"
       is_visible="true"
       lpeversion="1"
       satellites_param="F,0,0,1,0,3.96874,0,1 @ F,0,0,1,0,2.8063194,0,1 @ F,0,0,1,0,0.26458333,0,1 @ F,0,0,1,0,3.96875,0,1 @ F,0,0,1,0,3.96875,0,1 @ F,0,0,1,0,0.26458333,0,1 @ F,0,0,1,0,0.26458333,0,1 @ F,0,0,1,0,3.96874,0,1"
       unit="px"
       method="auto"
       mode="F"
       radius="1"
       chamfer_steps="1"
       flexible="false"
       use_knot_distance="true"
       apply_no_radius="true"
       apply_with_radius="true"
       only_selected="false"
       hide_knots="false"
       nodesatellites_param="F,0,0,1,0,3.96874,0,1 @ F,0,0,1,0,2.8063194,0,1 @ F,0,0,1,0,0.26458333,0,1 @ F,0,0,1,0,3.96875,0,1 @ F,0,0,1,0,3.96875,0,1 @ F,0,0,1,0,0.26458333,0,1 @ F,0,0,1,0,0.26458333,0,1 @ F,0,0,1,0,3.96874,0,1" />
    <inkscape:path-effect
       effect="fillet_chamfer"
       id="path-effect5632-4"
       is_visible="true"
       lpeversion="1"
       satellites_param="F,0,0,1,0,0,0,1 @ F,0,0,1,0,5.612624,0,1 @ F,0,0,1,0,5.6126954,0,1 @ F,0,0,1,0,0,0,1 @ F,0,0,1,0,12.550274,0,1 @ F,0,0,1,0,0,0,1 @ F,0,0,1,0,12.550242,0,1 @ F,0,0,1,0,0,0,1"
       unit="px"
       method="auto"
       mode="F"
       radius="0"
       chamfer_steps="1"
       flexible="false"
       use_knot_distance="true"
       apply_no_radius="true"
       apply_with_radius="true"
       only_selected="false"
       hide_knots="false"
       nodesatellites_param="F,0,0,1,0,0,0,1 @ F,0,0,1,0,5.612624,0,1 @ F,0,0,1,0,5.6126954,0,1 @ F,0,0,1,0,0,0,1 @ F,0,0,1,0,12.550274,0,1 @ F,0,0,1,0,0,0,1 @ F,0,0,1,0,12.550242,0,1 @ F,0,0,1,0,0,0,1" />
    <inkscape:path-effect
       effect="fillet_chamfer"
       id="path-effect5632-6-1"
       is_visible="true"
       lpeversion="1"
       satellites_param="F,0,0,1,0,0,0,1 @ F,0,0,1,0,5.612624,0,1 @ F,0,0,1,0,5.6126954,0,1 @ F,0,0,1,0,0,0,1 @ F,0,0,1,0,12.550274,0,1 @ F,0,0,1,0,0,0,1 @ F,0,0,1,0,12.550242,0,1 @ F,0,0,1,0,0,0,1"
       unit="px"
       method="auto"
       mode="F"
       radius="0"
       chamfer_steps="1"
       flexible="false"
       use_knot_distance="true"
       apply_no_radius="true"
       apply_with_radius="true"
       only_selected="false"
       hide_knots="false"
       nodesatellites_param="F,0,0,1,0,0,0,1 @ F,0,0,1,0,5.612624,0,1 @ F,0,0,1,0,5.6126954,0,1 @ F,0,0,1,0,0,0,1 @ F,0,0,1,0,12.550274,0,1 @ F,0,0,1,0,0,0,1 @ F,0,0,1,0,12.550242,0,1 @ F,0,0,1,0,0,0,1" />
    <inkscape:path-effect
       effect="fillet_chamfer"
       id="path-effect5632-3-7"
       is_visible="true"
       lpeversion="1"
       satellites_param="F,0,0,1,0,0,0,1 @ F,0,0,1,0,5.612624,0,1 @ F,0,0,1,0,5.6126954,0,1 @ F,0,0,1,0,0,0,1 @ F,0,0,1,0,12.550274,0,1 @ F,0,0,1,0,0,0,1 @ F,0,0,1,0,12.550242,0,1 @ F,0,0,1,0,0,0,1"
       unit="px"
       method="auto"
       mode="F"
       radius="0"
       chamfer_steps="1"
       flexible="false"
       use_knot_distance="true"
       apply_no_radius="true"
       apply_with_radius="true"
       only_selected="false"
       hide_knots="false"
       nodesatellites_param="F,0,0,1,0,0,0,1 @ F,0,0,1,0,5.612624,0,1 @ F,0,0,1,0,5.6126954,0,1 @ F,0,0,1,0,0,0,1 @ F,0,0,1,0,12.550274,0,1 @ F,0,0,1,0,0,0,1 @ F,0,0,1,0,12.550242,0,1 @ F,0,0,1,0,0,0,1" />
    <inkscape:path-effect
       effect="fillet_chamfer"
       id="path-effect5632-65-5"
       is_visible="true"
       lpeversion="1"
       satellites_param="F,0,0,1,0,0,0,1 @ F,0,0,1,0,5.612624,0,1 @ F,0,0,1,0,5.6126954,0,1 @ F,0,0,1,0,0,0,1 @ F,0,0,1,0,12.550274,0,1 @ F,0,0,1,0,0,0,1 @ F,0,0,1,0,12.550242,0,1 @ F,0,0,1,0,0,0,1"
       unit="px"
       method="auto"
       mode="F"
       radius="0"
       chamfer_steps="1"
       flexible="false"
       use_knot_distance="true"
       apply_no_radius="true"
       apply_with_radius="true"
       only_selected="false"
       hide_knots="false"
       nodesatellites_param="F,0,0,1,0,0,0,1 @ F,0,0,1,0,5.612624,0,1 @ F,0,0,1,0,5.6126954,0,1 @ F,0,0,1,0,0,0,1 @ F,0,0,1,0,12.550274,0,1 @ F,0,0,1,0,0,0,1 @ F,0,0,1,0,12.550242,0,1 @ F,0,0,1,0,0,0,1" />
    <inkscape:path-effect
       effect="fillet_chamfer"
       id="path-effect9184-7"
       is_visible="true"
       lpeversion="1"
       satellites_param="F,0,0,1,0,5.8999032,0,1 @ F,0,0,1,0,5.612653,0,1 @ F,0,0,1,0,5.8998905,0,1 @ F,0,1,1,0,5.8999032,0,1"
       unit="px"
       method="auto"
       mode="F"
       radius="0"
       chamfer_steps="1"
       flexible="false"
       use_knot_distance="true"
       apply_no_radius="true"
       apply_with_radius="true"
       only_selected="false"
       hide_knots="false"
       nodesatellites_param="F,0,0,1,0,5.8999032,0,1 @ F,0,0,1,0,5.612653,0,1 @ F,0,0,1,0,5.8998905,0,1 @ F,0,1,1,0,5.8999032,0,1" />
    <inkscape:path-effect
       effect="fillet_chamfer"
       id="path-effect9184-0-1"
       is_visible="true"
       lpeversion="1"
       satellites_param="F,0,0,1,0,5.8999032,0,1 @ F,0,0,1,0,5.612653,0,1 @ F,0,0,1,0,5.8998905,0,1 @ F,0,1,1,0,5.8999032,0,1"
       unit="px"
       method="auto"
       mode="F"
       radius="0"
       chamfer_steps="1"
       flexible="false"
       use_knot_distance="true"
       apply_no_radius="true"
       apply_with_radius="true"
       only_selected="false"
       hide_knots="false"
       nodesatellites_param="F,0,0,1,0,5.8999032,0,1 @ F,0,0,1,0,5.612653,0,1 @ F,0,0,1,0,5.8998905,0,1 @ F,0,1,1,0,5.8999032,0,1" />
  </defs>
  <g
     inkscape:label="Layer 1"
     inkscape:groupmode="layer"
     id="layer1"
     transform="translate(-198.14363,-249.73738)">
    <g
       id="g13036"
       transform="translate(472.28125,781.84375)">
      <rect
         style="opacity:0.960912;fill:#800000;stroke:#ffffff;stroke-width:0.587743;stroke-miterlimit:4;stroke-dasharray:none;stroke-opacity:1"
         id="rect18032-1"
         width="134.9375"
         height="130.96875"
         x="-273.84375"
         y="-531.8125"
         ry="4.6774559" />
      <g
         id="g12992">
        <ellipse
           id="path2899-7-77-4-04-3"
           style="fill:#ffffff;fill-opacity:1;stroke:#ffffff;stroke-width:0.817059;stroke-opacity:1"
           cx="-174.0735"
           cy="-447.55194"
           rx="0.72768676"
           ry="0.57800448" />
        <ellipse
           id="path2899-7-77-4-35"
           style="fill:#ffffff;fill-opacity:1;stroke:#ffffff;stroke-width:0.817059;stroke-opacity:1"
           cx="-206.61719"
           cy="-432.73517"
           rx="0.72768676"
           ry="0.57800448" />
        <ellipse
           id="path2899-7-77-4-88"
           style="fill:#ffffff;fill-opacity:1;stroke:#ffffff;stroke-width:0.817059;stroke-opacity:1"
           cx="-223.02135"
           cy="-432.73517"
           rx="0.72768676"
           ry="0.57800448" />
        <ellipse
           id="path2899-7-77-4-04"
           style="fill:#ffffff;fill-opacity:1;stroke:#ffffff;stroke-width:0.817059;stroke-opacity:1"
           cx="-190.47766"
           cy="-449.40399"
           rx="0.72768676"
           ry="0.57800448" />
        <ellipse
           id="path2899-7-77-4-90"
           style="fill:#ffffff;fill-opacity:1;stroke:#ffffff;stroke-width:0.817059;stroke-opacity:1"
           cx="-205.55887"
           cy="-450.19769"
           rx="0.72768676"
           ry="0.57800448" />
        <ellipse
           id="path2899-7-77-4-49"
           style="fill:#ffffff;fill-opacity:1;stroke:#ffffff;stroke-width:0.817059;stroke-opacity:1"
           cx="-156.34639"
           cy="-465.27899"
           rx="0.72768676"
           ry="0.57800448" />
        <ellipse
           id="path2899-7-77-4-41"
           style="fill:#ffffff;fill-opacity:1;stroke:#ffffff;stroke-width:0.817059;stroke-opacity:1"
           cx="-189.68387"
           cy="-464.74982"
           rx="0.72768676"
           ry="0.57800448" />
        <ellipse
           id="path2899-7-77-4-9"
           style="fill:#ffffff;fill-opacity:1;stroke:#ffffff;stroke-width:0.817059;stroke-opacity:1"
           cx="-255.82967"
           cy="-465.01434"
           rx="0.72768676"
           ry="0.57800448" />
        <ellipse
           id="path2899-7-77-4-3"
           style="fill:#ffffff;fill-opacity:1;stroke:#ffffff;stroke-width:0.817059;stroke-opacity:1"
           cx="-190.21303"
           cy="-479.56647"
           rx="0.72768676"
           ry="0.57800448" />
        <ellipse
           id="path2899-7-77-4-69"
           style="fill:#ffffff;fill-opacity:1;stroke:#ffffff;stroke-width:0.817059;stroke-opacity:1"
           cx="-220.11092"
           cy="-481.94769"
           rx="0.72768676"
           ry="0.57800448" />
        <ellipse
           id="path2899-7-77-4-03"
           style="fill:#ffffff;fill-opacity:1;stroke:#ffffff;stroke-width:0.817059;stroke-opacity:1"
           cx="-237.30887"
           cy="-481.94769"
           rx="0.72768676"
           ry="0.57800448" />
        <ellipse
           id="path2899-7-77-4-0"
           style="fill:#ffffff;fill-opacity:1;stroke:#ffffff;stroke-width:0.817059;stroke-opacity:1"
           cx="-188.62555"
           cy="-496.76434"
           rx="0.72768676"
           ry="0.57800448" />
        <path
           id="path3216-1"
           style="fill:none;stroke:#ffffff;stroke-width:1.10116;stroke-opacity:1"
           d="m -205.95679,-520.03636 c 0.87198,-0.0861 1.85555,0.80464 2.63538,1.19085 3.1772,1.57348 4.05554,3.96174 2.31961,7.3669 l -4.81192,6.67599 -3.66623,-5.2405 c -1.93544,-1.90832 -1.87118,-4.23672 -1.36188,-6.25854 1.344,-2.08582 2.71815,-3.52252 4.88504,-3.7347 z"
           sodipodi:nodetypes="csccccc" />
        <ellipse
           id="path2899-7-77-4-8"
           style="fill:#ffffff;fill-opacity:1;stroke:#ffffff;stroke-width:0.817059;stroke-opacity:1"
           cx="-205.55887"
           cy="-513.69769"
           rx="0.72768676"
           ry="0.57800448" />
        <path
           id="path3216-1-8-4-9"
           style="fill:none;stroke:#ffffff;stroke-width:1.10116;stroke-opacity:1"
           d="m -206.99329,-409.74733 c -0.87559,0.0335 -1.80379,-0.91479 -2.55898,-1.34721 -3.07679,-1.76175 -3.80988,-4.19853 -1.87226,-7.49309 l 5.20478,-6.37445 3.34437,5.45154 c 1.81714,2.02129 1.61293,4.3416 0.98294,6.32913 -1.46704,2.0012 -2.92512,3.35262 -5.10085,3.43408 z"
           sodipodi:nodetypes="csccccc" />
        <ellipse
           id="path2899-7-77-4-66"
           style="fill:#ffffff;fill-opacity:1;stroke:#ffffff;stroke-width:0.817059;stroke-opacity:1"
           cx="-206.61719"
           cy="-416.06647"
           rx="0.72768676"
           ry="0.57800448" />
        <path
           id="path3216-1-0-2-9-5"
           style="fill:none;stroke:#ffffff;stroke-width:1.10116;stroke-opacity:1"
           d="m -182.85985,-433.4715 c 0.0947,0.8711 -0.78642,1.86335 -1.16497,2.64692 -1.54229,3.19246 -3.92184,4.09415 -7.34384,2.39165 l -6.72279,-4.74631 5.20434,-3.71738 c 1.88927,-1.95404 4.21819,-1.91257 6.2449,-1.4231 2.09889,1.32351 3.54897,2.68351 3.78236,4.84822 z"
           sodipodi:nodetypes="csccccc" />
        <ellipse
           id="path2899-7-77-4-76"
           style="fill:#ffffff;fill-opacity:1;stroke:#ffffff;stroke-width:0.817059;stroke-opacity:1"
           cx="-188.62555"
           cy="-432.47064"
           rx="0.72768676"
           ry="0.57800448" />
        <path
           id="path3216-1-8-4-4"
           style="fill:none;stroke:#ffffff;stroke-width:1.10116;stroke-opacity:1"
           d="m -174.40621,-440.94698 c -0.8648,0.19522 -1.81996,-0.58527 -2.58384,-0.87991 -3.11222,-1.2004 -3.93245,-3.51082 -2.14435,-7.17505 l 4.89972,-7.35834 3.52086,4.85434 c 1.87633,1.69336 1.76486,4.05986 1.21924,6.17094 -1.37308,2.27928 -2.76264,3.90473 -4.91163,4.38802 z"
           sodipodi:nodetypes="csccccc" />
        <path
           id="path3216-1-0-2-9"
           style="fill:none;stroke:#ffffff;stroke-width:1.10116;stroke-opacity:1"
           d="m -150.58068,-465.22151 c 0.0947,0.8711 -0.78642,1.86335 -1.16498,2.64692 -1.54228,3.19246 -3.92184,4.09415 -7.34383,2.39165 l -6.72279,-4.74631 5.20434,-3.71738 c 1.88927,-1.95404 4.21818,-1.91257 6.2449,-1.42311 2.09889,1.32352 3.54897,2.68352 3.78236,4.84823 z"
           sodipodi:nodetypes="csccccc" />
        <path
           id="path3216-1-8-49"
           style="fill:none;stroke:#ffffff;stroke-width:1.10116;stroke-opacity:1"
           d="m -172.97309,-488.30063 c 0.8762,-0.007 1.77528,0.96897 2.51703,1.42405 3.02206,1.85407 3.68106,4.31192 1.64461,7.54633 l -5.39534,6.21399 -3.17783,-5.55027 c -1.75513,-2.07536 -1.48078,-4.38843 -0.79092,-6.35598 1.52694,-1.95588 3.02525,-3.26256 5.20245,-3.27812 z"
           sodipodi:nodetypes="csccccc" />
        <ellipse
           id="path2899-7-77-4-79"
           style="fill:#ffffff;fill-opacity:1;stroke:#ffffff;stroke-width:0.817059;stroke-opacity:1"
           cx="-173.27971"
           cy="-481.15399"
           rx="0.72768676"
           ry="0.57800448" />
        <path
           id="path3216-1-0"
           style="fill:none;stroke:#ffffff;stroke-width:1.10116;stroke-opacity:1"
           d="m -229.66944,-497.63859 c -0.13408,-0.8762 0.7115,-1.77528 1.05901,-2.51703 1.41578,-3.02206 3.77805,-3.68106 7.30781,-1.64461 l 6.99647,5.39534 -5.08939,3.17783 c -1.82081,1.75513 -4.17367,1.48078 -6.24127,0.79092 -2.17733,-1.52694 -3.70131,-3.02525 -4.03263,-5.20245 z"
           sodipodi:nodetypes="csccccc" />
        <ellipse
           id="path2899-7-77-4-6"
           style="fill:#ffffff;fill-opacity:1;stroke:#ffffff;stroke-width:0.817059;stroke-opacity:1"
           cx="-223.02135"
           cy="-496.49982"
           rx="0.72768676"
           ry="0.57800448" />
        <path
           id="path3216-1-07"
           style="fill:none;stroke:#ffffff;stroke-width:1.10116;stroke-opacity:1"
           d="m -182.45652,-497.87735 c 0.1693,0.85972 -0.6231,1.92413 -0.93279,2.73739 -1.26174,3.31336 -3.55484,4.41656 -7.11069,3.01496 l -7.10642,-4.14994 4.865,-4.15161 c 1.71405,-2.10942 4.03789,-2.26859 6.09921,-1.95542 2.20503,1.13791 3.76681,2.36804 4.18569,4.50462 z"
           sodipodi:nodetypes="csccccc" />
        <path
           id="path3216-1-0-2-4"
           style="fill:none;stroke:#ffffff;stroke-width:1.10116;stroke-opacity:1"
           d="m -229.08805,-432.77361 c -0.10084,-0.87041 0.77317,-1.86888 1.14616,-2.65512 1.51959,-3.20333 3.89268,-4.12188 7.32667,-2.44372 l 6.75631,4.69847 -5.17782,3.75423 c -1.87535,1.9674 -4.2045,1.94247 -6.23464,1.4674 -2.10823,-1.30858 -3.56793,-2.65826 -3.81668,-4.82126 z"
           sodipodi:nodetypes="csccccc" />
        <path
           id="path3216-1-8-4"
           style="fill:none;stroke:#ffffff;stroke-width:1.10116;stroke-opacity:1"
           d="m -238.97917,-441.49964 c -0.8762,0.007 -1.77528,-0.96897 -2.51703,-1.42405 -3.02206,-1.85407 -3.68106,-4.31192 -1.64461,-7.54633 l 5.39534,-6.21399 3.17783,5.55027 c 1.75513,2.07536 1.48078,4.38843 0.79092,6.35598 -1.52694,1.95588 -3.02525,3.26255 -5.20245,3.27812 z"
           sodipodi:nodetypes="csccccc" />
        <ellipse
           id="path2899-7-77-4-50"
           style="fill:#ffffff;fill-opacity:1;stroke:#ffffff;stroke-width:0.817059;stroke-opacity:1"
           cx="-237.30887"
           cy="-450.19769"
           rx="0.72768676"
           ry="0.57800448" />
        <path
           id="path3216-1-8"
           style="fill:none;stroke:#ffffff;stroke-width:1.10116;stroke-opacity:1"
           d="m -236.47309,-487.77145 c 0.8762,-0.007 1.77528,0.96897 2.51704,1.42405 3.02205,1.85407 3.68106,4.31192 1.64461,7.54633 l -5.39535,6.21399 -3.17782,-5.55027 c -1.75513,-2.07536 -1.48079,-4.38843 -0.79093,-6.35598 1.52694,-1.95588 3.02526,-3.26256 5.20245,-3.27812 z"
           sodipodi:nodetypes="csccccc" />
        <path
           id="path3216-1-0-2"
           style="fill:none;stroke:#ffffff;stroke-width:1.10116;stroke-opacity:1"
           d="m -261.41944,-465.88859 c -0.13407,-0.8762 0.7115,-1.77528 1.05901,-2.51703 1.41578,-3.02206 3.77805,-3.68106 7.30781,-1.64461 l 6.99647,5.39534 -5.08939,3.17783 c -1.82081,1.75513 -4.17367,1.48078 -6.24127,0.79092 -2.17733,-1.52694 -3.70131,-3.02525 -4.03263,-5.20245 z"
           sodipodi:nodetypes="csccccc" />
        <path
           style="fill:none;stroke:#ffffff;stroke-width:1;stroke-linecap:butt;stroke-linejoin:miter;stroke-opacity:1"
           d="m -213.89429,-496.39957 7.9375,-7.9375 7.9375,7.9375 -39.6875,39.6875 -7.9375,-7.9375 7.9375,-7.9375 39.6875,39.6875 -7.9375,7.9375 -7.9375,-7.9375 39.6875,-39.6875 7.9375,7.9375 -7.9375,7.9375 z"
           id="path7857" />
        <ellipse
           id="path2899-7-77-4-5"
           style="fill:#ffffff;fill-opacity:1;stroke:#ffffff;stroke-width:0.817059;stroke-opacity:1"
           cx="-173.27971"
           cy="-464.74982"
           rx="0.72768676"
           ry="0.57800448" />
        <ellipse
           id="path2899-7-77-4-2"
           style="fill:#ffffff;fill-opacity:1;stroke:#ffffff;stroke-width:0.817059;stroke-opacity:1"
           cx="-237.57339"
           cy="-464.74982"
           rx="0.72768676"
           ry="0.57800448" />
        <ellipse
           id="path2899-7-77-4-7"
           style="fill:#ffffff;fill-opacity:1;stroke:#ffffff;stroke-width:0.817059;stroke-opacity:1"
           cx="-205.82339"
           cy="-496.49982"
           rx="0.72768676"
           ry="0.57800448" />
        <path
           style="fill:none;stroke:#ffffff;stroke-width:1;stroke-linecap:butt;stroke-linejoin:miter;stroke-opacity:1"
           d="m -225.38393,-454.57347 31.13029,-28.01725 a 5.9158242,5.9158242 1.5063938 0 1 8.14059,0.21407 5.4631719,5.4631719 93.012715 0 1 -0.41659,7.91558 l -30.91679,27.8251 a 6.2185904,6.2185904 1.5063938 0 1 -8.55722,-0.22503 5.3327669,5.3327669 94.594057 0 1 0.61972,-7.71247 z"
           id="path9106"
           inkscape:path-effect="#path-effect9184"
           inkscape:original-d="m -229.76929,-450.62664 39.6875,-35.71875 7.9375,7.9375 -39.6875,35.71875 z" />
        <ellipse
           id="path2899-7-77-4-1"
           style="fill:#ffffff;fill-opacity:1;stroke:#ffffff;stroke-width:0.817059;stroke-opacity:1"
           cx="-221.43387"
           cy="-450.19769"
           rx="0.72768676"
           ry="0.57800448" />
        <ellipse
           id="path2899-7-77-4-4"
           style="fill:#ffffff;fill-opacity:1;stroke:#ffffff;stroke-width:0.817059;stroke-opacity:1"
           cx="-205.55887"
           cy="-465.27899"
           rx="0.72768676"
           ry="0.57800448" />
        <ellipse
           id="path2899-7-77-4-91"
           style="fill:#ffffff;fill-opacity:1;stroke:#ffffff;stroke-width:0.817059;stroke-opacity:1"
           cx="-221.43387"
           cy="-466.07269"
           rx="0.72768676"
           ry="0.57800448" />
        <ellipse
           id="path2899-7-77-4-74"
           style="fill:#ffffff;fill-opacity:1;stroke:#ffffff;stroke-width:0.817059;stroke-opacity:1"
           cx="-205.29424"
           cy="-480.62482"
           rx="0.72768676"
           ry="0.57800448" />
        <path
           style="fill:none;stroke:#ffffff;stroke-width:1;stroke-linecap:butt;stroke-linejoin:miter;stroke-opacity:1"
           d="m -215.46245,-484.23238 28.01725,31.13028 a 5.9158234,5.9158234 91.50639 0 1 -0.21407,8.14059 5.4631725,5.4631725 3.012711 0 1 -7.91558,-0.41659 l -27.8251,-30.91678 a 6.2185896,6.2185896 91.50639 0 1 0.22503,-8.55722 5.3327676,5.3327676 4.5940528 0 1 7.71247,0.61972 z"
           id="path9106-4"
           inkscape:path-effect="#path-effect9184-0"
           inkscape:original-d="m -219.40928,-488.61774 35.71875,39.68749 -7.9375,7.9375 -35.71875,-39.68749 z" />
      </g>
    </g>
  </g>
</svg>
