<?xml version="1.0" encoding="UTF-8" standalone="no"?>
<!-- Created with Inkscape (http://www.inkscape.org/) -->

<svg
   width="135.52524mm"
   height="131.55649mm"
   viewBox="0 0 135.52524 131.55649"
   version="1.1"
   id="svg5"
   inkscape:version="1.2.2 (732a01da63, 2022-12-09)"
   sodipodi:docname="j14-option-a.svg"
   xmlns:inkscape="http://www.inkscape.org/namespaces/inkscape"
   xmlns:sodipodi="http://sodipodi.sourceforge.net/DTD/sodipodi-0.dtd"
   xmlns="http://www.w3.org/2000/svg"
   xmlns:svg="http://www.w3.org/2000/svg">
  <sodipodi:namedview
     id="namedview7"
     pagecolor="#ffffff"
     bordercolor="#000000"
     borderopacity="0.25"
     inkscape:pageshadow="2"
     inkscape:pageopacity="0.0"
     inkscape:pagecheckerboard="0"
     inkscape:document-units="mm"
     showgrid="true"
     inkscape:snap-global="true"
     inkscape:zoom="0.90509668"
     inkscape:cx="281.73786"
     inkscape:cy="181.19611"
     inkscape:window-width="1920"
     inkscape:window-height="1017"
     inkscape:window-x="-8"
     inkscape:window-y="-8"
     inkscape:window-maximized="1"
     inkscape:current-layer="layer1"
     showguides="true"
     inkscape:guide-bbox="true"
     width="211mm"
     inkscape:showpageshadow="2"
     inkscape:deskcolor="#d1d1d1">
    <inkscape:grid
       type="xygrid"
       id="grid509"
       spacingx="3.96875"
       spacingy="3.96875"
       empspacing="4"
       originx="-344.44673"
       originy="-90.454189" />
    <sodipodi:guide
       position="-233.32174,-785.73934"
       orientation="0,-1"
       id="guide5265"
       inkscape:locked="false" />
    <sodipodi:guide
       position="-407.94673,-785.73934"
       orientation="0,-1"
       id="guide5305"
       inkscape:locked="false" />
  </sodipodi:namedview>
  <defs
     id="defs2">
    <inkscape:path-effect
       effect="fillet_chamfer"
       id="path-effect1919"
       is_visible="true"
       lpeversion="1"
       satellites_param="F,0,0,1,0,3.96874,0,1 @ F,0,0,1,0,2.8063194,0,1 @ F,0,0,1,0,0.26458333,0,1 @ F,0,0,1,0,3.96875,0,1 @ F,0,0,1,0,3.96875,0,1 @ F,0,0,1,0,0.26458333,0,1 @ F,0,0,1,0,0.26458333,0,1 @ F,0,0,1,0,3.96874,0,1"
       unit="px"
       method="auto"
       mode="F"
       radius="1"
       chamfer_steps="1"
       flexible="false"
       use_knot_distance="true"
       apply_no_radius="true"
       apply_with_radius="true"
       only_selected="false"
       hide_knots="false"
       nodesatellites_param="F,0,0,1,0,3.96874,0,1 @ F,0,0,1,0,2.8063194,0,1 @ F,0,0,1,0,0.26458333,0,1 @ F,0,0,1,0,3.96875,0,1 @ F,0,0,1,0,3.96875,0,1 @ F,0,0,1,0,0.26458333,0,1 @ F,0,0,1,0,0.26458333,0,1 @ F,0,0,1,0,3.96874,0,1" />
    <inkscape:path-effect
       effect="fillet_chamfer"
       id="path-effect1864"
       is_visible="true"
       lpeversion="1"
       satellites_param="F,0,0,1,0,3.96874,0,1 @ F,0,0,1,0,2.8063194,0,1 @ F,0,0,1,0,0.26458333,0,1 @ F,0,0,1,0,3.96875,0,1 @ F,0,0,1,0,3.96875,0,1 @ F,0,0,1,0,0.26458333,0,1 @ F,0,0,1,0,0.26458333,0,1 @ F,0,0,1,0,3.96874,0,1"
       unit="px"
       method="auto"
       mode="F"
       radius="1"
       chamfer_steps="1"
       flexible="false"
       use_knot_distance="true"
       apply_no_radius="true"
       apply_with_radius="true"
       only_selected="false"
       hide_knots="false"
       nodesatellites_param="F,0,0,1,0,3.96874,0,1 @ F,0,0,1,0,2.8063194,0,1 @ F,0,0,1,0,0.26458333,0,1 @ F,0,0,1,0,3.96875,0,1 @ F,0,0,1,0,3.96875,0,1 @ F,0,0,1,0,0.26458333,0,1 @ F,0,0,1,0,0.26458333,0,1 @ F,0,0,1,0,3.96874,0,1" />
    <inkscape:path-effect
       effect="fillet_chamfer"
       id="path-effect1726"
       is_visible="true"
       lpeversion="1"
       satellites_param="F,0,0,1,0,3.96874,0,1 @ F,0,0,1,0,2.8063194,0,1 @ F,0,0,1,0,0.26458333,0,1 @ F,0,0,1,0,3.96875,0,1 @ F,0,0,1,0,3.96875,0,1 @ F,0,0,1,0,0.26458333,0,1 @ F,0,0,1,0,0.26458333,0,1 @ F,0,0,1,0,3.96874,0,1"
       unit="px"
       method="auto"
       mode="F"
       radius="1"
       chamfer_steps="1"
       flexible="false"
       use_knot_distance="true"
       apply_no_radius="true"
       apply_with_radius="true"
       only_selected="false"
       hide_knots="false"
       nodesatellites_param="F,0,0,1,0,3.96874,0,1 @ F,0,0,1,0,2.8063194,0,1 @ F,0,0,1,0,0.26458333,0,1 @ F,0,0,1,0,3.96875,0,1 @ F,0,0,1,0,3.96875,0,1 @ F,0,0,1,0,0.26458333,0,1 @ F,0,0,1,0,0.26458333,0,1 @ F,0,0,1,0,3.96874,0,1" />
    <inkscape:path-effect
       effect="fillet_chamfer"
       id="path-effect2687"
       is_visible="true"
       lpeversion="1"
       satellites_param="F,0,0,1,0,0.26458333,0,1 @ F,0,0,1,0,0.26458333,0,1 @ F,0,0,1,0,0.26458333,0,1 @ F,0,0,1,0,0.26458333,0,1 @ F,0,0,1,0,0.26458333,0,1 @ F,0,0,1,0,0.26458333,0,1 @ F,0,0,1,0,0.26458333,0,1 @ F,0,0,1,0,0.26458333,0,1"
       unit="px"
       method="auto"
       mode="F"
       radius="1"
       chamfer_steps="1"
       flexible="false"
       use_knot_distance="true"
       apply_no_radius="true"
       apply_with_radius="true"
       only_selected="false"
       hide_knots="false"
       nodesatellites_param="F,0,0,1,0,0.26458333,0,1 @ F,0,0,1,0,0.26458333,0,1 @ F,0,0,1,0,0.26458333,0,1 @ F,0,0,1,0,0.26458333,0,1 @ F,0,0,1,0,0.26458333,0,1 @ F,0,0,1,0,0.26458333,0,1 @ F,0,0,1,0,0.26458333,0,1 @ F,0,0,1,0,0.26458333,0,1" />
    <inkscape:path-effect
       effect="fillet_chamfer"
       id="path-effect2528"
       is_visible="true"
       lpeversion="1"
       satellites_param="F,0,0,1,0,0.26458333,0,1 @ F,0,0,1,0,0.26458333,0,1 @ F,0,0,1,0,0.26458333,0,1 @ F,0,0,1,0,0.26458333,0,1 @ F,0,0,1,0,0.26458333,0,1 @ F,0,0,1,0,0.26458333,0,1 @ F,0,0,1,0,0.26458333,0,1 @ F,0,0,1,0,0.26458333,0,1 @ F,0,0,1,0,0.26458333,0,1"
       unit="px"
       method="auto"
       mode="F"
       radius="1"
       chamfer_steps="1"
       flexible="false"
       use_knot_distance="true"
       apply_no_radius="true"
       apply_with_radius="true"
       only_selected="false"
       hide_knots="false"
       nodesatellites_param="F,0,0,1,0,0.26458333,0,1 @ F,0,0,1,0,0.26458333,0,1 @ F,0,0,1,0,0.26458333,0,1 @ F,0,0,1,0,0.26458333,0,1 @ F,0,0,1,0,0.26458333,0,1 @ F,0,0,1,0,0.26458333,0,1 @ F,0,0,1,0,0.26458333,0,1 @ F,0,0,1,0,0.26458333,0,1 @ F,0,0,1,0,0.26458333,0,1" />
    <inkscape:path-effect
       effect="fillet_chamfer"
       id="path-effect4277"
       is_visible="true"
       lpeversion="1"
       satellites_param="F,0,0,1,0,0,0,1 @ F,0,0,1,0,5.612624,0,1 @ F,0,0,1,0,5.6126954,0,1 @ F,0,0,1,0,0,0,1 @ F,0,0,1,0,12.550274,0,1 @ F,0,0,1,0,0,0,1 @ F,0,0,1,0,12.550242,0,1 @ F,0,0,1,0,0,0,1"
       unit="px"
       method="auto"
       mode="F"
       radius="0"
       chamfer_steps="1"
       flexible="false"
       use_knot_distance="true"
       apply_no_radius="true"
       apply_with_radius="true"
       only_selected="false"
       hide_knots="false"
       nodesatellites_param="F,0,0,1,0,0,0,1 @ F,0,0,1,0,5.612624,0,1 @ F,0,0,1,0,5.6126954,0,1 @ F,0,0,1,0,0,0,1 @ F,0,0,1,0,12.550274,0,1 @ F,0,0,1,0,0,0,1 @ F,0,0,1,0,12.550242,0,1 @ F,0,0,1,0,0,0,1" />
    <inkscape:path-effect
       effect="fillet_chamfer"
       id="path-effect4094"
       is_visible="true"
       lpeversion="1"
       satellites_param="F,0,0,1,0,0,0,1 @ F,0,0,1,0,5.612624,0,1 @ F,0,0,1,0,5.6126954,0,1 @ F,0,0,1,0,0,0,1 @ F,0,0,1,0,12.550274,0,1 @ F,0,0,1,0,0,0,1 @ F,0,0,1,0,12.550242,0,1 @ F,0,0,1,0,0,0,1"
       unit="px"
       method="auto"
       mode="F"
       radius="0"
       chamfer_steps="1"
       flexible="false"
       use_knot_distance="true"
       apply_no_radius="true"
       apply_with_radius="true"
       only_selected="false"
       hide_knots="false"
       nodesatellites_param="F,0,0,1,0,0,0,1 @ F,0,0,1,0,5.612624,0,1 @ F,0,0,1,0,5.6126954,0,1 @ F,0,0,1,0,0,0,1 @ F,0,0,1,0,12.550274,0,1 @ F,0,0,1,0,0,0,1 @ F,0,0,1,0,12.550242,0,1 @ F,0,0,1,0,0,0,1" />
    <inkscape:path-effect
       effect="fillet_chamfer"
       id="path-effect3592"
       is_visible="true"
       lpeversion="1"
       satellites_param="F,0,0,1,0,0,0,1 @ F,0,0,1,0,5.612624,0,1 @ F,0,0,1,0,5.6126954,0,1 @ F,0,0,1,0,0,0,1 @ F,0,0,1,0,12.550274,0,1 @ F,0,0,1,0,0,0,1 @ F,0,0,1,0,12.550242,0,1 @ F,0,0,1,0,0,0,1"
       unit="px"
       method="auto"
       mode="F"
       radius="0"
       chamfer_steps="1"
       flexible="false"
       use_knot_distance="true"
       apply_no_radius="true"
       apply_with_radius="true"
       only_selected="false"
       hide_knots="false"
       nodesatellites_param="F,0,0,1,0,0,0,1 @ F,0,0,1,0,5.612624,0,1 @ F,0,0,1,0,5.6126954,0,1 @ F,0,0,1,0,0,0,1 @ F,0,0,1,0,12.550274,0,1 @ F,0,0,1,0,0,0,1 @ F,0,0,1,0,12.550242,0,1 @ F,0,0,1,0,0,0,1" />
    <inkscape:path-effect
       effect="fillet_chamfer"
       id="path-effect3588"
       is_visible="true"
       lpeversion="1"
       satellites_param="F,0,0,1,0,0,0,1 @ F,0,0,1,0,5.612624,0,1 @ F,0,0,1,0,5.6126954,0,1 @ F,0,0,1,0,0,0,1 @ F,0,0,1,0,12.550274,0,1 @ F,0,0,1,0,0,0,1 @ F,0,0,1,0,12.550242,0,1 @ F,0,0,1,0,0,0,1"
       unit="px"
       method="auto"
       mode="F"
       radius="0"
       chamfer_steps="1"
       flexible="false"
       use_knot_distance="true"
       apply_no_radius="true"
       apply_with_radius="true"
       only_selected="false"
       hide_knots="false"
       nodesatellites_param="F,0,0,1,0,0,0,1 @ F,0,0,1,0,5.612624,0,1 @ F,0,0,1,0,5.6126954,0,1 @ F,0,0,1,0,0,0,1 @ F,0,0,1,0,12.550274,0,1 @ F,0,0,1,0,0,0,1 @ F,0,0,1,0,12.550242,0,1 @ F,0,0,1,0,0,0,1" />
    <inkscape:path-effect
       effect="fillet_chamfer"
       id="path-effect2236"
       is_visible="true"
       lpeversion="1"
       satellites_param="F,0,0,1,0,0,0,1 @ F,0,0,1,0,5.612624,0,1 @ F,0,0,1,0,5.6126954,0,1 @ F,0,0,1,0,0,0,1 @ F,0,0,1,0,12.550274,0,1 @ F,0,0,1,0,0,0,1 @ F,0,0,1,0,12.550242,0,1 @ F,0,0,1,0,0,0,1"
       unit="px"
       method="auto"
       mode="F"
       radius="0"
       chamfer_steps="1"
       flexible="false"
       use_knot_distance="true"
       apply_no_radius="true"
       apply_with_radius="true"
       only_selected="false"
       hide_knots="false"
       nodesatellites_param="F,0,0,1,0,0,0,1 @ F,0,0,1,0,5.612624,0,1 @ F,0,0,1,0,5.6126954,0,1 @ F,0,0,1,0,0,0,1 @ F,0,0,1,0,12.550274,0,1 @ F,0,0,1,0,0,0,1 @ F,0,0,1,0,12.550242,0,1 @ F,0,0,1,0,0,0,1" />
    <inkscape:path-effect
       effect="fillet_chamfer"
       id="path-effect2232"
       is_visible="true"
       lpeversion="1"
       satellites_param="F,0,0,1,0,0,0,1 @ F,0,0,1,0,5.612624,0,1 @ F,0,0,1,0,5.6126954,0,1 @ F,0,0,1,0,0,0,1 @ F,0,0,1,0,12.550274,0,1 @ F,0,0,1,0,0,0,1 @ F,0,0,1,0,12.550242,0,1 @ F,0,0,1,0,0,0,1"
       unit="px"
       method="auto"
       mode="F"
       radius="0"
       chamfer_steps="1"
       flexible="false"
       use_knot_distance="true"
       apply_no_radius="true"
       apply_with_radius="true"
       only_selected="false"
       hide_knots="false"
       nodesatellites_param="F,0,0,1,0,0,0,1 @ F,0,0,1,0,5.612624,0,1 @ F,0,0,1,0,5.6126954,0,1 @ F,0,0,1,0,0,0,1 @ F,0,0,1,0,12.550274,0,1 @ F,0,0,1,0,0,0,1 @ F,0,0,1,0,12.550242,0,1 @ F,0,0,1,0,0,0,1" />
    <inkscape:path-effect
       effect="fillet_chamfer"
       id="path-effect2059"
       is_visible="true"
       lpeversion="1"
       satellites_param="F,0,0,1,0,0,0,1 @ F,0,0,1,0,5.612624,0,1 @ F,0,0,1,0,5.6126954,0,1 @ F,0,0,1,0,0,0,1 @ F,0,0,1,0,12.550274,0,1 @ F,0,0,1,0,0,0,1 @ F,0,0,1,0,12.550242,0,1 @ F,0,0,1,0,0,0,1"
       unit="px"
       method="auto"
       mode="F"
       radius="0"
       chamfer_steps="1"
       flexible="false"
       use_knot_distance="true"
       apply_no_radius="true"
       apply_with_radius="true"
       only_selected="false"
       hide_knots="false"
       nodesatellites_param="F,0,0,1,0,0,0,1 @ F,0,0,1,0,5.612624,0,1 @ F,0,0,1,0,5.6126954,0,1 @ F,0,0,1,0,0,0,1 @ F,0,0,1,0,12.550274,0,1 @ F,0,0,1,0,0,0,1 @ F,0,0,1,0,12.550242,0,1 @ F,0,0,1,0,0,0,1" />
    <inkscape:path-effect
       effect="fillet_chamfer"
       id="path-effect2055"
       is_visible="true"
       lpeversion="1"
       satellites_param="F,0,0,1,0,0,0,1 @ F,0,0,1,0,5.612624,0,1 @ F,0,0,1,0,5.6126954,0,1 @ F,0,0,1,0,0,0,1 @ F,0,0,1,0,12.550274,0,1 @ F,0,0,1,0,0,0,1 @ F,0,0,1,0,12.550242,0,1 @ F,0,0,1,0,0,0,1"
       unit="px"
       method="auto"
       mode="F"
       radius="0"
       chamfer_steps="1"
       flexible="false"
       use_knot_distance="true"
       apply_no_radius="true"
       apply_with_radius="true"
       only_selected="false"
       hide_knots="false"
       nodesatellites_param="F,0,0,1,0,0,0,1 @ F,0,0,1,0,5.612624,0,1 @ F,0,0,1,0,5.6126954,0,1 @ F,0,0,1,0,0,0,1 @ F,0,0,1,0,12.550274,0,1 @ F,0,0,1,0,0,0,1 @ F,0,0,1,0,12.550242,0,1 @ F,0,0,1,0,0,0,1" />
    <inkscape:path-effect
       effect="fillet_chamfer"
       id="path-effect1547"
       is_visible="true"
       lpeversion="1"
       satellites_param="F,0,0,1,0,5.8999032,0,1 @ F,0,0,1,0,5.612653,0,1 @ F,0,0,1,0,5.8998905,0,1 @ F,0,1,1,0,5.8999032,0,1"
       unit="px"
       method="auto"
       mode="F"
       radius="0"
       chamfer_steps="1"
       flexible="false"
       use_knot_distance="true"
       apply_no_radius="true"
       apply_with_radius="true"
       only_selected="false"
       hide_knots="false"
       nodesatellites_param="F,0,0,1,0,5.8999032,0,1 @ F,0,0,1,0,5.612653,0,1 @ F,0,0,1,0,5.8998905,0,1 @ F,0,1,1,0,5.8999032,0,1" />
    <inkscape:path-effect
       effect="fillet_chamfer"
       id="path-effect1543"
       is_visible="true"
       lpeversion="1"
       satellites_param="F,0,0,1,0,5.8999032,0,1 @ F,0,0,1,0,5.612653,0,1 @ F,0,0,1,0,5.8998905,0,1 @ F,0,1,1,0,5.8999032,0,1"
       unit="px"
       method="auto"
       mode="F"
       radius="0"
       chamfer_steps="1"
       flexible="false"
       use_knot_distance="true"
       apply_no_radius="true"
       apply_with_radius="true"
       only_selected="false"
       hide_knots="false"
       nodesatellites_param="F,0,0,1,0,5.8999032,0,1 @ F,0,0,1,0,5.612653,0,1 @ F,0,0,1,0,5.8998905,0,1 @ F,0,1,1,0,5.8999032,0,1" />
    <inkscape:path-effect
       effect="fillet_chamfer"
       id="path-effect5632"
       is_visible="true"
       lpeversion="1"
       satellites_param="F,0,0,1,0,0,0,1 @ F,0,0,1,0,5.612624,0,1 @ F,0,0,1,0,5.6126954,0,1 @ F,0,0,1,0,0,0,1 @ F,0,0,1,0,12.550274,0,1 @ F,0,0,1,0,0,0,1 @ F,0,0,1,0,12.550242,0,1 @ F,0,0,1,0,0,0,1"
       unit="px"
       method="auto"
       mode="F"
       radius="0"
       chamfer_steps="1"
       flexible="false"
       use_knot_distance="true"
       apply_no_radius="true"
       apply_with_radius="true"
       only_selected="false"
       hide_knots="false"
       nodesatellites_param="F,0,0,1,0,0,0,1 @ F,0,0,1,0,5.612624,0,1 @ F,0,0,1,0,5.6126954,0,1 @ F,0,0,1,0,0,0,1 @ F,0,0,1,0,12.550274,0,1 @ F,0,0,1,0,0,0,1 @ F,0,0,1,0,12.550242,0,1 @ F,0,0,1,0,0,0,1" />
    <inkscape:path-effect
       effect="fillet_chamfer"
       id="path-effect4162"
       is_visible="true"
       lpeversion="1"
       satellites_param="F,0,0,1,0,0,0,1 @ F,0,0,1,0,0,0,1 @ F,0,0,1,0,0,0,1 @ F,0,0,1,0,0,0,1 @ F,0,0,1,0,17.748789,0,1 @ F,0,0,1,0,0,0,1 @ F,0,0,1,0,0,0,1"
       unit="px"
       method="auto"
       mode="F"
       radius="0"
       chamfer_steps="1"
       flexible="false"
       use_knot_distance="true"
       apply_no_radius="true"
       apply_with_radius="true"
       only_selected="false"
       hide_knots="false"
       nodesatellites_param="F,0,0,1,0,0,0,1 @ F,0,0,1,0,0,0,1 @ F,0,0,1,0,0,0,1 @ F,0,0,1,0,0,0,1 @ F,0,0,1,0,17.748789,0,1 @ F,0,0,1,0,0,0,1 @ F,0,0,1,0,0,0,1" />
    <inkscape:path-effect
       effect="fillet_chamfer"
       id="path-effect15409"
       is_visible="true"
       lpeversion="1"
       satellites_param="F,0,0,1,0,0,0,1 @ F,0,0,1,0,4.0213085,0,1 @ F,0,0,1,0,0,0,1 @ F,0,0,1,0,4.3976809,0,1"
       unit="px"
       method="auto"
       mode="F"
       radius="0"
       chamfer_steps="1"
       flexible="false"
       use_knot_distance="true"
       apply_no_radius="true"
       apply_with_radius="true"
       only_selected="false"
       hide_knots="false"
       nodesatellites_param="F,0,0,1,0,0,0,1 @ F,0,0,1,0,4.0213085,0,1 @ F,0,0,1,0,0,0,1 @ F,0,0,1,0,4.3976809,0,1" />
    <inkscape:path-effect
       effect="fillet_chamfer"
       id="path-effect11393"
       is_visible="true"
       lpeversion="1"
       satellites_param="F,0,0,1,0,0,0,1 @ F,0,0,1,0,5.6126671,0,1 @ F,0,0,1,0,0,0,1 @ F,0,0,1,0,5.612653,0,1"
       unit="px"
       method="auto"
       mode="F"
       radius="0"
       chamfer_steps="1"
       flexible="false"
       use_knot_distance="true"
       apply_no_radius="true"
       apply_with_radius="true"
       only_selected="false"
       hide_knots="false"
       nodesatellites_param="F,0,0,1,0,0,0,1 @ F,0,0,1,0,5.6126671,0,1 @ F,0,0,1,0,0,0,1 @ F,0,0,1,0,5.612653,0,1" />
    <inkscape:path-effect
       effect="fillet_chamfer"
       id="path-effect20251"
       is_visible="true"
       lpeversion="1"
       satellites_param="F,0,0,1,0,0,0,1 @ F,0,0,1,0,0,0,1 @ F,0,0,1,0,0,0,1 @ F,0,0,1,0,8.2765197,0,1 @ F,0,0,1,0,5.4349569,0,1 @ F,0,0,1,0,5.503666,0,1 @ F,0,0,1,0,0,0,1 @ F,0,0,1,0,5.503666,0,1 @ F,0,0,1,0,5.6126601,0,1 @ F,0,0,1,0,5.8325023,0,1 @ F,0,1,1,0,0,0,1 @ F,0,0,1,0,2.6194615,0,1 @ F,0,0,1,0,3.6202679,0,1 @ F,0,0,1,0,5.5932726,0,1 @ F,0,0,1,0,5.6126601,0,1 @ F,0,0,1,0,3.3021996,0,1 @ F,0,0,1,0,0,0,1 @ F,0,0,1,0,5.6126601,0,1 @ F,0,0,1,0,5.6126601,0,1 @ F,0,0,1,0,0,0,1"
       unit="px"
       method="auto"
       mode="F"
       radius="0"
       chamfer_steps="1"
       flexible="false"
       use_knot_distance="true"
       apply_no_radius="true"
       apply_with_radius="true"
       only_selected="false"
       hide_knots="false"
       nodesatellites_param="F,0,0,1,0,0,0,1 @ F,0,0,1,0,0,0,1 @ F,0,0,1,0,0,0,1 @ F,0,0,1,0,8.2765197,0,1 @ F,0,0,1,0,5.4349569,0,1 @ F,0,0,1,0,5.503666,0,1 @ F,0,0,1,0,0,0,1 @ F,0,0,1,0,5.503666,0,1 @ F,0,0,1,0,5.6126601,0,1 @ F,0,0,1,0,5.8325023,0,1 @ F,0,1,1,0,0,0,1 @ F,0,0,1,0,2.6194615,0,1 @ F,0,0,1,0,3.6202679,0,1 @ F,0,0,1,0,5.5932726,0,1 @ F,0,0,1,0,5.6126601,0,1 @ F,0,0,1,0,3.3021996,0,1 @ F,0,0,1,0,0,0,1 @ F,0,0,1,0,5.6126601,0,1 @ F,0,0,1,0,5.6126601,0,1 @ F,0,0,1,0,0,0,1" />
    <inkscape:path-effect
       effect="fillet_chamfer"
       id="path-effect19424"
       is_visible="true"
       lpeversion="1"
       satellites_param="F,0,0,1,0,0,0,1 @ F,0,0,1,0,2.9162509,0,1 @ F,0,0,1,0,0,0,1 @ F,0,0,1,0,2.8063367,0,1 @ F,0,0,1,0,0,0,1 @ F,0,0,1,0,8.8058609,0,1 @ F,0,0,1,0,8.8058609,0,1 @ F,0,0,1,0,0,0,1 @ F,0,0,1,0,0,0,1 @ F,0,0,1,0,0,0,1"
       unit="px"
       method="auto"
       mode="F"
       radius="0"
       chamfer_steps="1"
       flexible="false"
       use_knot_distance="true"
       apply_no_radius="true"
       apply_with_radius="true"
       only_selected="false"
       hide_knots="false"
       nodesatellites_param="F,0,0,1,0,0,0,1 @ F,0,0,1,0,2.9162509,0,1 @ F,0,0,1,0,0,0,1 @ F,0,0,1,0,2.8063367,0,1 @ F,0,0,1,0,0,0,1 @ F,0,0,1,0,8.8058609,0,1 @ F,0,0,1,0,8.8058609,0,1 @ F,0,0,1,0,0,0,1 @ F,0,0,1,0,0,0,1 @ F,0,0,1,0,0,0,1" />
    <inkscape:path-effect
       effect="fillet_chamfer"
       id="path-effect14555"
       is_visible="true"
       lpeversion="1"
       satellites_param="F,0,0,1,0,0,0,1 @ F,0,0,1,0,0,0,1 @ F,0,0,1,0,5.6081821,0,1 @ F,0,0,1,0,6.0266057,0,1 @ F,0,0,1,0,8.3001063,0,1 @ F,0,0,1,0,0.22431944,0,1 @ F,0,0,1,0,0,0,1 @ F,0,0,1,0,5.5036724,0,1 @ F,0,0,1,0,5.8324951,0,1 @ F,0,0,1,0,5.612653,0,1 @ F,0,0,1,0,2.3939114,0,1 @ F,0,0,1,0,2.7288753,0,1 @ F,0,0,1,0,8.8701302,0,1 @ F,0,0,1,0,3.96875,0,1 @ F,0,0,1,0,3.96875,0,1 @ F,0,0,1,0,5.8325091,0,1 @ F,0,0,1,0,0,0,1 @ F,0,0,1,0,5.5036605,0,1 @ F,0,0,1,0,5.6126671,0,1 @ F,0,0,1,0,8.4533064,0,1"
       unit="px"
       method="auto"
       mode="F"
       radius="0"
       chamfer_steps="1"
       flexible="false"
       use_knot_distance="true"
       apply_no_radius="true"
       apply_with_radius="true"
       only_selected="false"
       hide_knots="false"
       nodesatellites_param="F,0,0,1,0,0,0,1 @ F,0,0,1,0,0,0,1 @ F,0,0,1,0,5.6081821,0,1 @ F,0,0,1,0,6.0266057,0,1 @ F,0,0,1,0,8.3001063,0,1 @ F,0,0,1,0,0.22431944,0,1 @ F,0,0,1,0,0,0,1 @ F,0,0,1,0,5.5036724,0,1 @ F,0,0,1,0,5.8324951,0,1 @ F,0,0,1,0,5.612653,0,1 @ F,0,0,1,0,2.3939114,0,1 @ F,0,0,1,0,2.7288753,0,1 @ F,0,0,1,0,8.8701302,0,1 @ F,0,0,1,0,3.96875,0,1 @ F,0,0,1,0,3.96875,0,1 @ F,0,0,1,0,5.8325091,0,1 @ F,0,0,1,0,0,0,1 @ F,0,0,1,0,5.5036605,0,1 @ F,0,0,1,0,5.6126671,0,1 @ F,0,0,1,0,8.4533064,0,1" />
    <inkscape:path-effect
       effect="fillet_chamfer"
       id="path-effect9184"
       is_visible="true"
       lpeversion="1"
       satellites_param="F,0,0,1,0,5.8999032,0,1 @ F,0,0,1,0,5.612653,0,1 @ F,0,0,1,0,5.8998905,0,1 @ F,0,1,1,0,5.8999032,0,1"
       unit="px"
       method="auto"
       mode="F"
       radius="0"
       chamfer_steps="1"
       flexible="false"
       use_knot_distance="true"
       apply_no_radius="true"
       apply_with_radius="true"
       only_selected="false"
       hide_knots="false"
       nodesatellites_param="F,0,0,1,0,5.8999032,0,1 @ F,0,0,1,0,5.612653,0,1 @ F,0,0,1,0,5.8998905,0,1 @ F,0,1,1,0,5.8999032,0,1" />
    <inkscape:path-effect
       effect="fillet_chamfer"
       id="path-effect8721"
       is_visible="true"
       lpeversion="1"
       satellites_param="F,0,0,1,0,0,0,1 @ F,0,0,1,0,5.6126671,0,1 @ F,0,0,1,0,5.578337,0,1 @ F,0,0,1,0,6.1981508,0,1 @ F,0,0,1,0,0,0,1"
       unit="px"
       method="auto"
       mode="F"
       radius="0"
       chamfer_steps="1"
       flexible="false"
       use_knot_distance="true"
       apply_no_radius="true"
       apply_with_radius="true"
       only_selected="false"
       hide_knots="false"
       nodesatellites_param="F,0,0,1,0,0,0,1 @ F,0,0,1,0,5.6126671,0,1 @ F,0,0,1,0,5.578337,0,1 @ F,0,0,1,0,6.1981508,0,1 @ F,0,0,1,0,0,0,1" />
    <inkscape:path-effect
       effect="fillet_chamfer"
       id="path-effect8011"
       is_visible="true"
       lpeversion="1"
       satellites_param="F,0,0,1,0,2.9144571,0,1 @ F,0,0,1,0,2.9499427,0,1 @ F,0,0,1,0,2.8063371,0,1 @ F,0,0,1,0,2.9499553,0,1"
       unit="px"
       method="auto"
       mode="F"
       radius="0"
       chamfer_steps="1"
       flexible="false"
       use_knot_distance="true"
       apply_no_radius="true"
       apply_with_radius="true"
       only_selected="false"
       hide_knots="false"
       nodesatellites_param="F,0,0,1,0,2.9144571,0,1 @ F,0,0,1,0,2.9499427,0,1 @ F,0,0,1,0,2.8063371,0,1 @ F,0,0,1,0,2.9499553,0,1" />
    <inkscape:path-effect
       effect="fillet_chamfer"
       id="path-effect6207"
       is_visible="true"
       lpeversion="1"
       satellites_param="F,0,0,1,0,0,0,1 @ F,0,0,1,0,3.9687482,0,1 @ F,0,0,1,0,0,0,1 @ F,0,0,1,0,0,0,1 @ F,0,0,1,0,3.96876,0,1 @ F,0,0,1,0,0,0,1 @ F,0,0,1,0,0,0,1"
       unit="px"
       method="auto"
       mode="F"
       radius="0"
       chamfer_steps="1"
       flexible="false"
       use_knot_distance="true"
       apply_no_radius="true"
       apply_with_radius="true"
       only_selected="false"
       hide_knots="false"
       nodesatellites_param="F,0,0,1,0,0,0,1 @ F,0,0,1,0,3.9687482,0,1 @ F,0,0,1,0,0,0,1 @ F,0,0,1,0,0,0,1 @ F,0,0,1,0,3.96876,0,1 @ F,0,0,1,0,0,0,1 @ F,0,0,1,0,0,0,1" />
    <inkscape:path-effect
       effect="fillet_chamfer"
       id="path-effect5573"
       is_visible="true"
       lpeversion="1"
       satellites_param="F,0,0,1,0,0,0,1 @ F,0,1,1,0,3.968505,0,1 @ F,0,0,1,0,0,0,1 @ F,0,0,1,0,0,0,1 @ F,0,0,1,0,4.0109684,0,1 @ F,0,0,1,0,0,0,1"
       unit="px"
       method="auto"
       mode="F"
       radius="0"
       chamfer_steps="1"
       flexible="false"
       use_knot_distance="true"
       apply_no_radius="true"
       apply_with_radius="true"
       only_selected="false"
       hide_knots="false"
       nodesatellites_param="F,0,0,1,0,0,0,1 @ F,0,1,1,0,3.968505,0,1 @ F,0,0,1,0,0,0,1 @ F,0,0,1,0,0,0,1 @ F,0,0,1,0,4.0109684,0,1 @ F,0,0,1,0,0,0,1" />
    <inkscape:path-effect
       effect="fillet_chamfer"
       id="path-effect5164"
       is_visible="true"
       lpeversion="1"
       satellites_param="F,0,0,1,0,0,0,1 @ F,0,1,1,0,3.968505,0,1 @ F,0,0,1,0,0,0,1 @ F,0,0,1,0,0,0,1 @ F,0,0,1,0,4.0109684,0,1 @ F,0,0,1,0,0,0,1"
       unit="px"
       method="auto"
       mode="F"
       radius="0"
       chamfer_steps="1"
       flexible="false"
       use_knot_distance="true"
       apply_no_radius="true"
       apply_with_radius="true"
       only_selected="false"
       hide_knots="false"
       nodesatellites_param="F,0,0,1,0,0,0,1 @ F,0,1,1,0,3.968505,0,1 @ F,0,0,1,0,0,0,1 @ F,0,0,1,0,0,0,1 @ F,0,0,1,0,4.0109684,0,1 @ F,0,0,1,0,0,0,1" />
    <inkscape:path-effect
       effect="fillet_chamfer"
       id="path-effect3518"
       is_visible="true"
       lpeversion="1"
       satellites_param="F,0,0,1,0,0,0,1 @ F,0,0,1,0,0,0,1 @ F,0,0,1,0,11.90626,0,1 @ F,0,0,1,0,0,0,1 @ F,0,0,1,0,0,0,1"
       unit="px"
       method="auto"
       mode="F"
       radius="0"
       chamfer_steps="1"
       flexible="false"
       use_knot_distance="true"
       apply_no_radius="true"
       apply_with_radius="true"
       only_selected="false"
       hide_knots="false"
       nodesatellites_param="F,0,0,1,0,0,0,1 @ F,0,0,1,0,0,0,1 @ F,0,0,1,0,11.90626,0,1 @ F,0,0,1,0,0,0,1 @ F,0,0,1,0,0,0,1" />
    <inkscape:path-effect
       effect="fillet_chamfer"
       id="path-effect2832"
       is_visible="true"
       lpeversion="1"
       satellites_param="F,0,0,1,0,0,0,1 @ F,0,0,1,0,11.90624,0,1 @ F,0,0,1,0,0,0,1 @ F,0,0,1,0,0,0,1 @ F,0,0,1,0,0,0,1"
       unit="px"
       method="auto"
       mode="F"
       radius="0"
       chamfer_steps="1"
       flexible="false"
       use_knot_distance="true"
       apply_no_radius="true"
       apply_with_radius="true"
       only_selected="false"
       hide_knots="false"
       nodesatellites_param="F,0,0,1,0,0,0,1 @ F,0,0,1,0,11.90624,0,1 @ F,0,0,1,0,0,0,1 @ F,0,0,1,0,0,0,1 @ F,0,0,1,0,0,0,1" />
    <inkscape:path-effect
       effect="fillet_chamfer"
       id="path-effect42357"
       is_visible="true"
       lpeversion="1"
       satellites_param="F,0,0,1,0,3.96874,0,1 @ F,0,0,1,0,2.8063194,0,1 @ F,0,0,1,0,0.26458333,0,1 @ F,0,0,1,0,3.96875,0,1 @ F,0,0,1,0,3.96875,0,1 @ F,0,0,1,0,0.26458333,0,1 @ F,0,0,1,0,0.26458333,0,1 @ F,0,0,1,0,3.96874,0,1"
       unit="px"
       method="auto"
       mode="F"
       radius="1"
       chamfer_steps="1"
       flexible="false"
       use_knot_distance="true"
       apply_no_radius="true"
       apply_with_radius="true"
       only_selected="false"
       hide_knots="false"
       nodesatellites_param="F,0,0,1,0,3.96874,0,1 @ F,0,0,1,0,2.8063194,0,1 @ F,0,0,1,0,0.26458333,0,1 @ F,0,0,1,0,3.96875,0,1 @ F,0,0,1,0,3.96875,0,1 @ F,0,0,1,0,0.26458333,0,1 @ F,0,0,1,0,0.26458333,0,1 @ F,0,0,1,0,3.96874,0,1" />
    <inkscape:path-effect
       effect="fillet_chamfer"
       id="path-effect41469"
       is_visible="true"
       lpeversion="1"
       satellites_param="F,0,0,1,0,3.670979,0,1 @ F,0,0,1,0,2.8063194,0,1 @ F,0,0,1,0,0.26458333,0,1 @ F,0,0,1,0,3.96875,0,1 @ F,0,0,1,0,3.96875,0,1 @ F,0,0,1,0,0.26458333,0,1 @ F,0,1,1,0,3.670979,0,1 @ F,0,1,1,0,3.670979,0,1"
       unit="px"
       method="auto"
       mode="F"
       radius="1"
       chamfer_steps="1"
       flexible="false"
       use_knot_distance="true"
       apply_no_radius="true"
       apply_with_radius="true"
       only_selected="false"
       hide_knots="false"
       nodesatellites_param="F,0,0,1,0,3.670979,0,1 @ F,0,0,1,0,2.8063194,0,1 @ F,0,0,1,0,0.26458333,0,1 @ F,0,0,1,0,3.96875,0,1 @ F,0,0,1,0,3.96875,0,1 @ F,0,0,1,0,0.26458333,0,1 @ F,0,1,1,0,3.670979,0,1 @ F,0,1,1,0,3.670979,0,1" />
    <inkscape:path-effect
       effect="fillet_chamfer"
       id="path-effect41463"
       is_visible="true"
       lpeversion="1"
       satellites_param="F,0,0,1,0,4.729554,0,1 @ F,0,0,1,0,2.8063194,0,1 @ F,0,0,1,0,0.26458333,0,1 @ F,0,0,1,0,3.96875,0,1 @ F,0,0,1,0,3.96875,0,1 @ F,0,0,1,0,0.26458333,0,1 @ F,0,0,1,0,0.26458333,0,1 @ F,0,0,1,0,4.729554,0,1"
       unit="px"
       method="auto"
       mode="F"
       radius="1"
       chamfer_steps="1"
       flexible="false"
       use_knot_distance="true"
       apply_no_radius="true"
       apply_with_radius="true"
       only_selected="false"
       hide_knots="false"
       nodesatellites_param="F,0,0,1,0,4.729554,0,1 @ F,0,0,1,0,2.8063194,0,1 @ F,0,0,1,0,0.26458333,0,1 @ F,0,0,1,0,3.96875,0,1 @ F,0,0,1,0,3.96875,0,1 @ F,0,0,1,0,0.26458333,0,1 @ F,0,0,1,0,0.26458333,0,1 @ F,0,0,1,0,4.729554,0,1" />
    <inkscape:path-effect
       effect="fillet_chamfer"
       id="path-effect41457"
       is_visible="true"
       lpeversion="1"
       satellites_param="F,0,0,1,0,7.87161,0,1 @ F,0,0,1,0,2.8063194,0,1 @ F,0,0,1,0,0.26458333,0,1 @ F,0,0,1,0,3.96875,0,1 @ F,0,0,1,0,3.96875,0,1 @ F,0,0,1,0,0.26458333,0,1 @ F,0,0,1,0,0.26458333,0,1 @ F,0,0,1,0,9.1437487,0,1"
       unit="px"
       method="auto"
       mode="F"
       radius="1"
       chamfer_steps="1"
       flexible="false"
       use_knot_distance="true"
       apply_no_radius="true"
       apply_with_radius="true"
       only_selected="false"
       hide_knots="false"
       nodesatellites_param="F,0,0,1,0,7.87161,0,1 @ F,0,0,1,0,2.8063194,0,1 @ F,0,0,1,0,0.26458333,0,1 @ F,0,0,1,0,3.96875,0,1 @ F,0,0,1,0,3.96875,0,1 @ F,0,0,1,0,0.26458333,0,1 @ F,0,0,1,0,0.26458333,0,1 @ F,0,0,1,0,9.1437487,0,1" />
    <inkscape:path-effect
       effect="fillet_chamfer"
       id="path-effect41371"
       is_visible="true"
       lpeversion="1"
       satellites_param="F,0,0,1,0,3.96874,0,1 @ F,0,0,1,0,2.8063194,0,1 @ F,0,0,1,0,0.26458333,0,1 @ F,0,0,1,0,3.96875,0,1 @ F,0,0,1,0,3.96875,0,1 @ F,0,0,1,0,0.26458333,0,1 @ F,0,0,1,0,0.26458333,0,1 @ F,0,0,1,0,3.96874,0,1"
       unit="px"
       method="auto"
       mode="F"
       radius="1"
       chamfer_steps="1"
       flexible="false"
       use_knot_distance="true"
       apply_no_radius="true"
       apply_with_radius="true"
       only_selected="false"
       hide_knots="false"
       nodesatellites_param="F,0,0,1,0,3.96874,0,1 @ F,0,0,1,0,2.8063194,0,1 @ F,0,0,1,0,0.26458333,0,1 @ F,0,0,1,0,3.96875,0,1 @ F,0,0,1,0,3.96875,0,1 @ F,0,0,1,0,0.26458333,0,1 @ F,0,0,1,0,0.26458333,0,1 @ F,0,0,1,0,3.96874,0,1" />
    <inkscape:path-effect
       effect="fillet_chamfer"
       id="path-effect40117"
       is_visible="true"
       lpeversion="1"
       satellites_param="F,0,0,1,0,3.96874,0,1 @ F,0,1,1,0,3.5974026,0,1 @ F,0,0,1,0,3.5974026,0,1 @ F,0,0,1,0,16.561211,0,1 @ F,0,0,1,0,3.96875,0,1 @ F,0,0,1,0,7.93749,0,1 @ F,0,0,1,0,3.96875,0,1"
       unit="px"
       method="auto"
       mode="F"
       radius="0"
       chamfer_steps="1"
       flexible="false"
       use_knot_distance="true"
       apply_no_radius="true"
       apply_with_radius="true"
       only_selected="false"
       hide_knots="false"
       nodesatellites_param="F,0,0,1,0,3.96874,0,1 @ F,0,1,1,0,3.5974026,0,1 @ F,0,0,1,0,3.5974026,0,1 @ F,0,0,1,0,16.561211,0,1 @ F,0,0,1,0,3.96875,0,1 @ F,0,0,1,0,7.93749,0,1 @ F,0,0,1,0,3.96875,0,1" />
    <inkscape:path-effect
       effect="fillet_chamfer"
       id="path-effect38865"
       is_visible="true"
       lpeversion="1"
       satellites_param="F,0,0,1,0,16.561211,0,1 @ F,0,0,1,0,3.96875,0,1 @ F,0,0,1,0,7.93749,0,1 @ F,0,0,1,0,3.96875,0,1"
       unit="px"
       method="auto"
       mode="F"
       radius="0"
       chamfer_steps="1"
       flexible="false"
       use_knot_distance="true"
       apply_no_radius="true"
       apply_with_radius="true"
       only_selected="false"
       hide_knots="false"
       nodesatellites_param="F,0,0,1,0,16.561211,0,1 @ F,0,0,1,0,3.96875,0,1 @ F,0,0,1,0,7.93749,0,1 @ F,0,0,1,0,3.96875,0,1" />
    <inkscape:path-effect
       effect="fillet_chamfer"
       id="path-effect28521"
       is_visible="true"
       lpeversion="1"
       satellites_param="F,0,0,1,0,0,0,1 @ F,0,0,1,0,8.8579202,0,1 @ F,0,0,1,0,7.9813377,0,1 @ F,0,0,1,0,0.56240432,0,1 @ F,0,0,1,0,0,0,1 @ F,0,0,1,0,5.6126664,0,1 @ F,0,0,1,0,5.7874217,0,1 @ F,0,0,1,0,0,0,1"
       unit="px"
       method="auto"
       mode="F"
       radius="0"
       chamfer_steps="1"
       flexible="false"
       use_knot_distance="true"
       apply_no_radius="true"
       apply_with_radius="true"
       only_selected="false"
       hide_knots="false"
       nodesatellites_param="F,0,0,1,0,0,0,1 @ F,0,0,1,0,8.8579202,0,1 @ F,0,0,1,0,7.9813377,0,1 @ F,0,0,1,0,0.56240432,0,1 @ F,0,0,1,0,0,0,1 @ F,0,0,1,0,5.6126664,0,1 @ F,0,0,1,0,5.7874217,0,1 @ F,0,0,1,0,0,0,1" />
    <inkscape:path-effect
       effect="fillet_chamfer"
       id="path-effect28511"
       is_visible="true"
       lpeversion="1"
       satellites_param="F,0,0,1,0,0,0,1 @ F,0,0,1,0,8.8579202,0,1 @ F,0,0,1,0,7.9813377,0,1 @ F,0,0,1,0,0.56240432,0,1 @ F,0,0,1,0,0,0,1 @ F,0,0,1,0,5.6126664,0,1 @ F,0,0,1,0,5.7874217,0,1 @ F,0,0,1,0,0,0,1"
       unit="px"
       method="auto"
       mode="F"
       radius="0"
       chamfer_steps="1"
       flexible="false"
       use_knot_distance="true"
       apply_no_radius="true"
       apply_with_radius="true"
       only_selected="false"
       hide_knots="false"
       nodesatellites_param="F,0,0,1,0,0,0,1 @ F,0,0,1,0,8.8579202,0,1 @ F,0,0,1,0,7.9813377,0,1 @ F,0,0,1,0,0.56240432,0,1 @ F,0,0,1,0,0,0,1 @ F,0,0,1,0,5.6126664,0,1 @ F,0,0,1,0,5.7874217,0,1 @ F,0,0,1,0,0,0,1" />
    <inkscape:path-effect
       effect="fillet_chamfer"
       id="path-effect28475"
       is_visible="true"
       lpeversion="1"
       satellites_param="F,0,0,1,0,0,0,1 @ F,0,0,1,0,8.8579202,0,1 @ F,0,0,1,0,7.9813377,0,1 @ F,0,0,1,0,0.56240432,0,1 @ F,0,0,1,0,0,0,1 @ F,0,0,1,0,5.6126664,0,1 @ F,0,0,1,0,5.7874217,0,1 @ F,0,0,1,0,0,0,1"
       unit="px"
       method="auto"
       mode="F"
       radius="0"
       chamfer_steps="1"
       flexible="false"
       use_knot_distance="true"
       apply_no_radius="true"
       apply_with_radius="true"
       only_selected="false"
       hide_knots="false"
       nodesatellites_param="F,0,0,1,0,0,0,1 @ F,0,0,1,0,8.8579202,0,1 @ F,0,0,1,0,7.9813377,0,1 @ F,0,0,1,0,0.56240432,0,1 @ F,0,0,1,0,0,0,1 @ F,0,0,1,0,5.6126664,0,1 @ F,0,0,1,0,5.7874217,0,1 @ F,0,0,1,0,0,0,1" />
    <inkscape:path-effect
       effect="fillet_chamfer"
       id="path-effect26704"
       is_visible="true"
       lpeversion="1"
       satellites_param="F,0,0,1,0,15.874999,0,1 @ F,0,0,1,0,0,0,1 @ F,0,0,1,0,0,0,1 @ F,0,0,1,0,15.874999,0,1 @ F,0,0,1,0,0,0,1 @ F,0,0,1,0,0,0,1 @ F,0,0,1,0,0,0,1 @ F,0,0,1,0,0,0,1"
       unit="px"
       method="auto"
       mode="F"
       radius="0"
       chamfer_steps="1"
       flexible="false"
       use_knot_distance="true"
       apply_no_radius="true"
       apply_with_radius="true"
       only_selected="false"
       hide_knots="false"
       nodesatellites_param="F,0,0,1,0,15.874999,0,1 @ F,0,0,1,0,0,0,1 @ F,0,0,1,0,0,0,1 @ F,0,0,1,0,15.874999,0,1 @ F,0,0,1,0,0,0,1 @ F,0,0,1,0,0,0,1 @ F,0,0,1,0,0,0,1 @ F,0,0,1,0,0,0,1" />
    <inkscape:path-effect
       effect="fillet_chamfer"
       id="path-effect25630"
       is_visible="true"
       lpeversion="1"
       satellites_param="F,0,0,1,0,15.874999,0,1 @ F,0,0,1,0,15.875,0,1 @ F,0,0,1,0,15.874999,0,1 @ F,0,0,1,0,15.874999,0,1 @ F,0,0,1,0,0,0,1 @ F,0,1,1,0,15.875001,0,1 @ F,0,1,1,0,15.875001,0,1 @ F,0,0,1,0,0,0,1"
       unit="px"
       method="auto"
       mode="F"
       radius="0"
       chamfer_steps="1"
       flexible="false"
       use_knot_distance="true"
       apply_no_radius="true"
       apply_with_radius="true"
       only_selected="true"
       hide_knots="false"
       nodesatellites_param="F,0,0,1,0,15.874999,0,1 @ F,0,0,1,0,15.875,0,1 @ F,0,0,1,0,15.874999,0,1 @ F,0,0,1,0,15.874999,0,1 @ F,0,0,1,0,0,0,1 @ F,0,1,1,0,15.875001,0,1 @ F,0,1,1,0,15.875001,0,1 @ F,0,0,1,0,0,0,1" />
    <inkscape:path-effect
       effect="fillet_chamfer"
       id="path-effect23727"
       is_visible="true"
       lpeversion="1"
       satellites_param="F,0,0,1,0,0,0,1 @ F,0,0,1,0,8.8579202,0,1 @ F,0,0,1,0,7.9813377,0,1 @ F,0,0,1,0,0.56240432,0,1 @ F,0,0,1,0,0,0,1 @ F,0,0,1,0,5.6126664,0,1 @ F,0,0,1,0,5.7874217,0,1 @ F,0,0,1,0,0,0,1"
       unit="px"
       method="auto"
       mode="F"
       radius="0"
       chamfer_steps="1"
       flexible="false"
       use_knot_distance="true"
       apply_no_radius="true"
       apply_with_radius="true"
       only_selected="false"
       hide_knots="false"
       nodesatellites_param="F,0,0,1,0,0,0,1 @ F,0,0,1,0,8.8579202,0,1 @ F,0,0,1,0,7.9813377,0,1 @ F,0,0,1,0,0.56240432,0,1 @ F,0,0,1,0,0,0,1 @ F,0,0,1,0,5.6126664,0,1 @ F,0,0,1,0,5.7874217,0,1 @ F,0,0,1,0,0,0,1" />
    <inkscape:path-effect
       effect="fillet_chamfer"
       id="path-effect12513"
       is_visible="true"
       lpeversion="1"
       satellites_param="F,0,1,1,0,0,0,1 @ F,0,0,1,0,8.8579202,0,1 @ F,0,0,1,0,7.9813377,0,1 @ F,0,0,1,0,2.8063306,0,1 @ F,0,0,1,0,2.806332,0,1 @ F,0,0,1,0,5.6126664,0,1 @ F,0,0,1,0,5.7874217,0,1 @ F,0,0,1,0,0,0,1"
       unit="px"
       method="auto"
       mode="F"
       radius="0"
       chamfer_steps="1"
       flexible="false"
       use_knot_distance="true"
       apply_no_radius="true"
       apply_with_radius="true"
       only_selected="false"
       hide_knots="false"
       nodesatellites_param="F,0,1,1,0,0,0,1 @ F,0,0,1,0,8.8579202,0,1 @ F,0,0,1,0,7.9813377,0,1 @ F,0,0,1,0,2.8063306,0,1 @ F,0,0,1,0,2.806332,0,1 @ F,0,0,1,0,5.6126664,0,1 @ F,0,0,1,0,5.7874217,0,1 @ F,0,0,1,0,0,0,1" />
    <inkscape:path-effect
       effect="fillet_chamfer"
       id="path-effect12507"
       is_visible="true"
       lpeversion="1"
       satellites_param="F,0,0,1,0,0,0,1 @ F,0,0,1,0,8.8579202,0,1 @ F,0,0,1,0,7.9813377,0,1 @ F,0,1,1,0,2.8063298,0,1 @ F,0,0,1,0,2.80633,0,1 @ F,0,0,1,0,5.6126664,0,1 @ F,0,0,1,0,5.7874217,0,1 @ F,0,0,1,0,0,0,1"
       unit="px"
       method="auto"
       mode="F"
       radius="0"
       chamfer_steps="1"
       flexible="false"
       use_knot_distance="true"
       apply_no_radius="true"
       apply_with_radius="true"
       only_selected="false"
       hide_knots="false"
       nodesatellites_param="F,0,0,1,0,0,0,1 @ F,0,0,1,0,8.8579202,0,1 @ F,0,0,1,0,7.9813377,0,1 @ F,0,1,1,0,2.8063298,0,1 @ F,0,0,1,0,2.80633,0,1 @ F,0,0,1,0,5.6126664,0,1 @ F,0,0,1,0,5.7874217,0,1 @ F,0,0,1,0,0,0,1" />
    <inkscape:path-effect
       effect="fillet_chamfer"
       id="path-effect12501"
       is_visible="true"
       lpeversion="1"
       satellites_param="F,0,0,1,0,0,0,1 @ F,0,0,1,0,8.8579202,0,1 @ F,0,0,1,0,7.9813377,0,1 @ F,0,0,1,0,12.353675,0,1 @ F,0,0,1,0,14.03414,0,1 @ F,0,0,1,0,5.6126664,0,1 @ F,0,0,1,0,5.7874217,0,1 @ F,0,0,1,0,0,0,1"
       unit="px"
       method="auto"
       mode="F"
       radius="0"
       chamfer_steps="1"
       flexible="false"
       use_knot_distance="true"
       apply_no_radius="true"
       apply_with_radius="true"
       only_selected="false"
       hide_knots="false"
       nodesatellites_param="F,0,0,1,0,0,0,1 @ F,0,0,1,0,8.8579202,0,1 @ F,0,0,1,0,7.9813377,0,1 @ F,0,0,1,0,12.353675,0,1 @ F,0,0,1,0,14.03414,0,1 @ F,0,0,1,0,5.6126664,0,1 @ F,0,0,1,0,5.7874217,0,1 @ F,0,0,1,0,0,0,1" />
    <inkscape:path-effect
       effect="fillet_chamfer"
       id="path-effect10802"
       is_visible="true"
       lpeversion="1"
       satellites_param="F,0,0,1,0,0,0,1 @ F,0,0,1,0,5.6126594,0,1 @ F,0,0,1,0,5.6126594,0,1 @ F,0,0,1,0,2.8063306,0,1 @ F,0,0,1,0,2.806332,0,1 @ F,0,0,1,0,5.6126664,0,1 @ F,0,0,1,0,5.6126601,0,1 @ F,0,0,1,0,0,0,1"
       unit="px"
       method="auto"
       mode="F"
       radius="0"
       chamfer_steps="1"
       flexible="false"
       use_knot_distance="true"
       apply_no_radius="true"
       apply_with_radius="true"
       only_selected="false"
       hide_knots="false"
       nodesatellites_param="F,0,0,1,0,0,0,1 @ F,0,0,1,0,5.6126594,0,1 @ F,0,0,1,0,5.6126594,0,1 @ F,0,0,1,0,2.8063306,0,1 @ F,0,0,1,0,2.806332,0,1 @ F,0,0,1,0,5.6126664,0,1 @ F,0,0,1,0,5.6126601,0,1 @ F,0,0,1,0,0,0,1" />
    <inkscape:path-effect
       effect="fillet_chamfer"
       id="path-effect10796"
       is_visible="true"
       lpeversion="1"
       satellites_param="F,0,0,1,0,0,0,1 @ F,0,0,1,0,5.6126594,0,1 @ F,0,0,1,0,5.6126594,0,1 @ F,0,0,1,0,2.8063306,0,1 @ F,0,0,1,0,2.806332,0,1 @ F,0,0,1,0,5.6126664,0,1 @ F,0,0,1,0,5.6126601,0,1 @ F,0,0,1,0,0,0,1"
       unit="px"
       method="auto"
       mode="F"
       radius="0"
       chamfer_steps="1"
       flexible="false"
       use_knot_distance="true"
       apply_no_radius="true"
       apply_with_radius="true"
       only_selected="false"
       hide_knots="false"
       nodesatellites_param="F,0,0,1,0,0,0,1 @ F,0,0,1,0,5.6126594,0,1 @ F,0,0,1,0,5.6126594,0,1 @ F,0,0,1,0,2.8063306,0,1 @ F,0,0,1,0,2.806332,0,1 @ F,0,0,1,0,5.6126664,0,1 @ F,0,0,1,0,5.6126601,0,1 @ F,0,0,1,0,0,0,1" />
    <inkscape:path-effect
       effect="fillet_chamfer"
       id="path-effect10710"
       is_visible="true"
       lpeversion="1"
       satellites_param="F,0,0,1,0,0,0,1 @ F,0,0,1,0,5.6126594,0,1 @ F,0,0,1,0,5.6126594,0,1 @ F,0,0,1,0,2.8063306,0,1 @ F,0,0,1,0,2.806332,0,1 @ F,0,0,1,0,5.6126664,0,1 @ F,0,0,1,0,5.6126601,0,1 @ F,0,0,1,0,0,0,1"
       unit="px"
       method="auto"
       mode="F"
       radius="0"
       chamfer_steps="1"
       flexible="false"
       use_knot_distance="true"
       apply_no_radius="true"
       apply_with_radius="true"
       only_selected="false"
       hide_knots="false"
       nodesatellites_param="F,0,0,1,0,0,0,1 @ F,0,0,1,0,5.6126594,0,1 @ F,0,0,1,0,5.6126594,0,1 @ F,0,0,1,0,2.8063306,0,1 @ F,0,0,1,0,2.806332,0,1 @ F,0,0,1,0,5.6126664,0,1 @ F,0,0,1,0,5.6126601,0,1 @ F,0,0,1,0,0,0,1" />
    <inkscape:path-effect
       effect="fillet_chamfer"
       id="path-effect10704"
       is_visible="true"
       lpeversion="1"
       satellites_param="F,0,0,1,0,0,0,1 @ F,0,0,1,0,5.6126594,0,1 @ F,0,0,1,0,5.6126594,0,1 @ F,0,0,1,0,2.8063306,0,1 @ F,0,0,1,0,2.806332,0,1 @ F,0,0,1,0,5.6126664,0,1 @ F,0,0,1,0,5.6126601,0,1 @ F,0,0,1,0,0,0,1"
       unit="px"
       method="auto"
       mode="F"
       radius="0"
       chamfer_steps="1"
       flexible="false"
       use_knot_distance="true"
       apply_no_radius="true"
       apply_with_radius="true"
       only_selected="false"
       hide_knots="false"
       nodesatellites_param="F,0,0,1,0,0,0,1 @ F,0,0,1,0,5.6126594,0,1 @ F,0,0,1,0,5.6126594,0,1 @ F,0,0,1,0,2.8063306,0,1 @ F,0,0,1,0,2.806332,0,1 @ F,0,0,1,0,5.6126664,0,1 @ F,0,0,1,0,5.6126601,0,1 @ F,0,0,1,0,0,0,1" />
    <inkscape:path-effect
       effect="fillet_chamfer"
       id="path-effect10532"
       is_visible="true"
       lpeversion="1"
       satellites_param="F,0,1,1,0,0,0,1 @ F,0,0,1,0,8.8579202,0,1 @ F,0,0,1,0,7.9813377,0,1 @ F,0,0,1,0,2.8063306,0,1 @ F,0,0,1,0,2.806332,0,1 @ F,0,0,1,0,5.6126664,0,1 @ F,0,0,1,0,5.7874217,0,1 @ F,0,0,1,0,0,0,1"
       unit="px"
       method="auto"
       mode="F"
       radius="0"
       chamfer_steps="1"
       flexible="false"
       use_knot_distance="true"
       apply_no_radius="true"
       apply_with_radius="true"
       only_selected="false"
       hide_knots="false"
       nodesatellites_param="F,0,1,1,0,0,0,1 @ F,0,0,1,0,8.8579202,0,1 @ F,0,0,1,0,7.9813377,0,1 @ F,0,0,1,0,2.8063306,0,1 @ F,0,0,1,0,2.806332,0,1 @ F,0,0,1,0,5.6126664,0,1 @ F,0,0,1,0,5.7874217,0,1 @ F,0,0,1,0,0,0,1" />
    <inkscape:path-effect
       effect="fillet_chamfer"
       id="path-effect7180"
       is_visible="true"
       lpeversion="1"
       satellites_param="F,0,0,1,0,3.96875,0,1 @ F,0,0,1,0,0,0,1 @ F,0,0,1,0,0,0,1 @ F,0,0,1,0,0,0,1 @ F,0,0,1,0,0,0,1 @ F,0,0,1,0,0,0,1 @ F,0,0,1,0,0,0,1 @ F,0,0,1,0,0,0,1 @ F,0,0,1,0,0,0,1 @ F,0,0,1,0,0,0,1 @ F,0,0,1,0,0,0,1 @ F,0,0,1,0,0,0,1 @ F,0,0,1,0,0,0,1 @ F,0,0,1,0,3.96875,0,1"
       unit="px"
       method="auto"
       mode="F"
       radius="1"
       chamfer_steps="1"
       flexible="false"
       use_knot_distance="true"
       apply_no_radius="true"
       apply_with_radius="true"
       only_selected="true"
       hide_knots="false"
       nodesatellites_param="F,0,0,1,0,3.96875,0,1 @ F,0,0,1,0,0,0,1 @ F,0,0,1,0,0,0,1 @ F,0,0,1,0,0,0,1 @ F,0,0,1,0,0,0,1 @ F,0,0,1,0,0,0,1 @ F,0,0,1,0,0,0,1 @ F,0,0,1,0,0,0,1 @ F,0,0,1,0,0,0,1 @ F,0,0,1,0,0,0,1 @ F,0,0,1,0,0,0,1 @ F,0,0,1,0,0,0,1 @ F,0,0,1,0,0,0,1 @ F,0,0,1,0,3.96875,0,1" />
    <inkscape:path-effect
       effect="fillet_chamfer"
       id="path-effect11074"
       is_visible="true"
       lpeversion="1"
       satellites_param="F,0,0,1,0,0,0,1 @ F,0,1,1,0,0,0,1 @ F,0,1,1,0,0,0,1 @ F,0,1,1,0,0,0,1 @ F,0,1,1,0,0,0,1 @ F,0,0,1,0,0,0,1 @ F,0,0,1,0,0,0,1 @ F,0,0,1,0,0,0,1 @ F,0,0,1,0,0,0,1 @ F,0,0,1,0,0,0,1 @ F,0,0,1,0,2.8063293,0,1 @ F,0,0,1,0,0,0,1 @ F,0,0,1,0,0,0,1 @ F,0,0,1,0,0,0,1 @ F,0,0,1,0,0,0,1 @ F,0,0,1,0,0,0,1 @ F,0,0,1,0,0,0,1 @ F,0,0,1,0,0,0,1 @ F,0,0,1,0,0,0,1 @ F,0,0,1,0,0,0,1 @ F,0,0,1,0,0,0,1 @ F,0,0,1,0,0,0,1 @ F,0,0,1,0,0,0,1 @ F,0,0,1,0,0,0,1 @ F,0,0,1,0,0,0,1 @ F,0,0,1,0,0,0,1 @ F,0,0,1,0,5.6126587,0,1 @ F,0,0,1,0,0,0,1 @ F,0,0,1,0,2.80633,0,1 @ F,0,0,1,0,0,0,1 @ F,0,0,1,0,2.8063315,0,1 @ F,0,0,1,0,0,0,1 @ F,0,0,1,0,0,0,1 @ F,0,0,1,0,0,0,1 @ F,0,0,1,0,2.8063285,0,1 @ F,0,0,1,0,0,0,1"
       unit="px"
       method="auto"
       mode="F"
       radius="10"
       chamfer_steps="1"
       flexible="false"
       use_knot_distance="true"
       apply_no_radius="true"
       apply_with_radius="true"
       only_selected="true"
       hide_knots="false"
       nodesatellites_param="F,0,0,1,0,0,0,1 @ F,0,1,1,0,0,0,1 @ F,0,1,1,0,0,0,1 @ F,0,1,1,0,0,0,1 @ F,0,1,1,0,0,0,1 @ F,0,0,1,0,0,0,1 @ F,0,0,1,0,0,0,1 @ F,0,0,1,0,0,0,1 @ F,0,0,1,0,0,0,1 @ F,0,0,1,0,0,0,1 @ F,0,0,1,0,2.8063293,0,1 @ F,0,0,1,0,0,0,1 @ F,0,0,1,0,0,0,1 @ F,0,0,1,0,0,0,1 @ F,0,0,1,0,0,0,1 @ F,0,0,1,0,0,0,1 @ F,0,0,1,0,0,0,1 @ F,0,0,1,0,0,0,1 @ F,0,0,1,0,0,0,1 @ F,0,0,1,0,0,0,1 @ F,0,0,1,0,0,0,1 @ F,0,0,1,0,0,0,1 @ F,0,0,1,0,0,0,1 @ F,0,0,1,0,0,0,1 @ F,0,0,1,0,0,0,1 @ F,0,0,1,0,0,0,1 @ F,0,0,1,0,5.6126587,0,1 @ F,0,0,1,0,0,0,1 @ F,0,0,1,0,2.80633,0,1 @ F,0,0,1,0,0,0,1 @ F,0,0,1,0,2.8063315,0,1 @ F,0,0,1,0,0,0,1 @ F,0,0,1,0,0,0,1 @ F,0,0,1,0,0,0,1 @ F,0,0,1,0,2.8063285,0,1 @ F,0,0,1,0,0,0,1" />
    <inkscape:path-effect
       effect="skeletal"
       id="path-effect1030"
       is_visible="true"
       lpeversion="1"
       pattern="M 0,4.9921382 C 0,2.2364779 2.2364779,0 4.9921382,0 c 2.7556604,0 4.9921383,2.2364779 4.9921383,4.9921382 0,2.7556604 -2.2364779,4.9921383 -4.9921383,4.9921383 C 2.2364779,9.9842765 0,7.7477986 0,4.9921382 Z"
       copytype="single_stretched"
       prop_scale="0.5"
       scale_y_rel="false"
       spacing="0"
       normal_offset="0"
       tang_offset="0"
       prop_units="false"
       vertical_pattern="false"
       hide_knot="false"
       fuse_tolerance="0" />
    <inkscape:path-effect
       effect="skeletal"
       id="path-effect1026"
       is_visible="true"
       lpeversion="1"
       pattern="M 0,4.9921382 C 0,2.2364779 2.2364779,0 4.9921382,0 c 2.7556604,0 4.9921383,2.2364779 4.9921383,4.9921382 0,2.7556604 -2.2364779,4.9921383 -4.9921383,4.9921383 C 2.2364779,9.9842765 0,7.7477986 0,4.9921382 Z"
       copytype="single_stretched"
       prop_scale="0.5"
       scale_y_rel="false"
       spacing="0"
       normal_offset="0"
       tang_offset="0"
       prop_units="false"
       vertical_pattern="false"
       hide_knot="false"
       fuse_tolerance="0" />
    <inkscape:path-effect
       effect="skeletal"
       id="path-effect1022"
       is_visible="true"
       lpeversion="1"
       pattern="M 0,4.9921382 C 0,2.2364779 2.2364779,0 4.9921382,0 c 2.7556604,0 4.9921383,2.2364779 4.9921383,4.9921382 0,2.7556604 -2.2364779,4.9921383 -4.9921383,4.9921383 C 2.2364779,9.9842765 0,7.7477986 0,4.9921382 Z"
       copytype="single_stretched"
       prop_scale="0.5"
       scale_y_rel="false"
       spacing="0"
       normal_offset="0"
       tang_offset="0"
       prop_units="false"
       vertical_pattern="false"
       hide_knot="false"
       fuse_tolerance="0" />
    <inkscape:path-effect
       effect="skeletal"
       id="path-effect548"
       is_visible="true"
       lpeversion="1"
       pattern="M 0,4.9921382 C 0,2.2364779 2.2364779,0 4.9921382,0 c 2.7556604,0 4.9921383,2.2364779 4.9921383,4.9921382 0,2.7556604 -2.2364779,4.9921383 -4.9921383,4.9921383 C 2.2364779,9.9842765 0,7.7477986 0,4.9921382 Z"
       copytype="single_stretched"
       prop_scale="1"
       scale_y_rel="false"
       spacing="0"
       normal_offset="0"
       tang_offset="0"
       prop_units="false"
       vertical_pattern="false"
       hide_knot="false"
       fuse_tolerance="0" />
    <inkscape:path-effect
       effect="fillet_chamfer"
       id="path-effect9184-0"
       is_visible="true"
       lpeversion="1"
       satellites_param="F,0,0,1,0,5.8999032,0,1 @ F,0,0,1,0,5.612653,0,1 @ F,0,0,1,0,5.8998905,0,1 @ F,0,1,1,0,5.8999032,0,1"
       unit="px"
       method="auto"
       mode="F"
       radius="0"
       chamfer_steps="1"
       flexible="false"
       use_knot_distance="true"
       apply_no_radius="true"
       apply_with_radius="true"
       only_selected="false"
       hide_knots="false"
       nodesatellites_param="F,0,0,1,0,5.8999032,0,1 @ F,0,0,1,0,5.612653,0,1 @ F,0,0,1,0,5.8998905,0,1 @ F,0,1,1,0,5.8999032,0,1" />
    <inkscape:path-effect
       effect="fillet_chamfer"
       id="path-effect11393-8"
       is_visible="true"
       lpeversion="1"
       satellites_param="F,0,0,1,0,0,0,1 @ F,0,0,1,0,5.6126671,0,1 @ F,0,0,1,0,0,0,1 @ F,0,0,1,0,5.612653,0,1"
       unit="px"
       method="auto"
       mode="F"
       radius="0"
       chamfer_steps="1"
       flexible="false"
       use_knot_distance="true"
       apply_no_radius="true"
       apply_with_radius="true"
       only_selected="false"
       hide_knots="false"
       nodesatellites_param="F,0,0,1,0,0,0,1 @ F,0,0,1,0,5.6126671,0,1 @ F,0,0,1,0,0,0,1 @ F,0,0,1,0,5.612653,0,1" />
    <inkscape:path-effect
       effect="fillet_chamfer"
       id="path-effect11393-6"
       is_visible="true"
       lpeversion="1"
       satellites_param="F,0,0,1,0,0,0,1 @ F,0,0,1,0,5.6126671,0,1 @ F,0,0,1,0,0,0,1 @ F,0,0,1,0,5.612653,0,1"
       unit="px"
       method="auto"
       mode="F"
       radius="0"
       chamfer_steps="1"
       flexible="false"
       use_knot_distance="true"
       apply_no_radius="true"
       apply_with_radius="true"
       only_selected="false"
       hide_knots="false"
       nodesatellites_param="F,0,0,1,0,0,0,1 @ F,0,0,1,0,5.6126671,0,1 @ F,0,0,1,0,0,0,1 @ F,0,0,1,0,5.612653,0,1" />
    <inkscape:path-effect
       effect="fillet_chamfer"
       id="path-effect11393-63"
       is_visible="true"
       lpeversion="1"
       satellites_param="F,0,0,1,0,0,0,1 @ F,0,0,1,0,5.6126671,0,1 @ F,0,0,1,0,0,0,1 @ F,0,0,1,0,5.612653,0,1"
       unit="px"
       method="auto"
       mode="F"
       radius="0"
       chamfer_steps="1"
       flexible="false"
       use_knot_distance="true"
       apply_no_radius="true"
       apply_with_radius="true"
       only_selected="false"
       hide_knots="false"
       nodesatellites_param="F,0,0,1,0,0,0,1 @ F,0,0,1,0,5.6126671,0,1 @ F,0,0,1,0,0,0,1 @ F,0,0,1,0,5.612653,0,1" />
    <inkscape:path-effect
       effect="fillet_chamfer"
       id="path-effect11393-8-4"
       is_visible="true"
       lpeversion="1"
       satellites_param="F,0,0,1,0,0,0,1 @ F,0,0,1,0,5.6126671,0,1 @ F,0,0,1,0,0,0,1 @ F,0,0,1,0,5.612653,0,1"
       unit="px"
       method="auto"
       mode="F"
       radius="0"
       chamfer_steps="1"
       flexible="false"
       use_knot_distance="true"
       apply_no_radius="true"
       apply_with_radius="true"
       only_selected="false"
       hide_knots="false"
       nodesatellites_param="F,0,0,1,0,0,0,1 @ F,0,0,1,0,5.6126671,0,1 @ F,0,0,1,0,0,0,1 @ F,0,0,1,0,5.612653,0,1" />
    <inkscape:path-effect
       effect="fillet_chamfer"
       id="path-effect11393-61"
       is_visible="true"
       lpeversion="1"
       satellites_param="F,0,0,1,0,0,0,1 @ F,0,0,1,0,5.6126671,0,1 @ F,0,0,1,0,0,0,1 @ F,0,0,1,0,5.612653,0,1"
       unit="px"
       method="auto"
       mode="F"
       radius="0"
       chamfer_steps="1"
       flexible="false"
       use_knot_distance="true"
       apply_no_radius="true"
       apply_with_radius="true"
       only_selected="false"
       hide_knots="false"
       nodesatellites_param="F,0,0,1,0,0,0,1 @ F,0,0,1,0,5.6126671,0,1 @ F,0,0,1,0,0,0,1 @ F,0,0,1,0,5.612653,0,1" />
    <inkscape:path-effect
       effect="fillet_chamfer"
       id="path-effect11393-6-7"
       is_visible="true"
       lpeversion="1"
       satellites_param="F,0,0,1,0,0,0,1 @ F,0,0,1,0,5.6126671,0,1 @ F,0,0,1,0,0,0,1 @ F,0,0,1,0,5.612653,0,1"
       unit="px"
       method="auto"
       mode="F"
       radius="0"
       chamfer_steps="1"
       flexible="false"
       use_knot_distance="true"
       apply_no_radius="true"
       apply_with_radius="true"
       only_selected="false"
       hide_knots="false"
       nodesatellites_param="F,0,0,1,0,0,0,1 @ F,0,0,1,0,5.6126671,0,1 @ F,0,0,1,0,0,0,1 @ F,0,0,1,0,5.612653,0,1" />
    <inkscape:path-effect
       effect="fillet_chamfer"
       id="path-effect11393-63-5"
       is_visible="true"
       lpeversion="1"
       satellites_param="F,0,0,1,0,0,0,1 @ F,0,0,1,0,5.6126671,0,1 @ F,0,0,1,0,0,0,1 @ F,0,0,1,0,5.612653,0,1"
       unit="px"
       method="auto"
       mode="F"
       radius="0"
       chamfer_steps="1"
       flexible="false"
       use_knot_distance="true"
       apply_no_radius="true"
       apply_with_radius="true"
       only_selected="false"
       hide_knots="false"
       nodesatellites_param="F,0,0,1,0,0,0,1 @ F,0,0,1,0,5.6126671,0,1 @ F,0,0,1,0,0,0,1 @ F,0,0,1,0,5.612653,0,1" />
    <inkscape:path-effect
       effect="fillet_chamfer"
       id="path-effect15409-3"
       is_visible="true"
       lpeversion="1"
       satellites_param="F,0,0,1,0,0,0,1 @ F,0,0,1,0,4.0213085,0,1 @ F,0,0,1,0,0,0,1 @ F,0,0,1,0,4.3976809,0,1"
       unit="px"
       method="auto"
       mode="F"
       radius="0"
       chamfer_steps="1"
       flexible="false"
       use_knot_distance="true"
       apply_no_radius="true"
       apply_with_radius="true"
       only_selected="false"
       hide_knots="false"
       nodesatellites_param="F,0,0,1,0,0,0,1 @ F,0,0,1,0,4.0213085,0,1 @ F,0,0,1,0,0,0,1 @ F,0,0,1,0,4.3976809,0,1" />
    <inkscape:path-effect
       effect="fillet_chamfer"
       id="path-effect11393-61-6"
       is_visible="true"
       lpeversion="1"
       satellites_param="F,0,0,1,0,0,0,1 @ F,0,0,1,0,5.6126671,0,1 @ F,0,0,1,0,0,0,1 @ F,0,0,1,0,5.612653,0,1"
       unit="px"
       method="auto"
       mode="F"
       radius="0"
       chamfer_steps="1"
       flexible="false"
       use_knot_distance="true"
       apply_no_radius="true"
       apply_with_radius="true"
       only_selected="false"
       hide_knots="false"
       nodesatellites_param="F,0,0,1,0,0,0,1 @ F,0,0,1,0,5.6126671,0,1 @ F,0,0,1,0,0,0,1 @ F,0,0,1,0,5.612653,0,1" />
    <inkscape:path-effect
       effect="fillet_chamfer"
       id="path-effect11393-6-7-4"
       is_visible="true"
       lpeversion="1"
       satellites_param="F,0,0,1,0,0,0,1 @ F,0,0,1,0,5.6126671,0,1 @ F,0,0,1,0,0,0,1 @ F,0,0,1,0,5.612653,0,1"
       unit="px"
       method="auto"
       mode="F"
       radius="0"
       chamfer_steps="1"
       flexible="false"
       use_knot_distance="true"
       apply_no_radius="true"
       apply_with_radius="true"
       only_selected="false"
       hide_knots="false"
       nodesatellites_param="F,0,0,1,0,0,0,1 @ F,0,0,1,0,5.6126671,0,1 @ F,0,0,1,0,0,0,1 @ F,0,0,1,0,5.612653,0,1" />
    <inkscape:path-effect
       effect="fillet_chamfer"
       id="path-effect15409-3-6"
       is_visible="true"
       lpeversion="1"
       satellites_param="F,0,0,1,0,0,0,1 @ F,0,0,1,0,4.0213085,0,1 @ F,0,0,1,0,0,0,1 @ F,0,0,1,0,4.3976809,0,1"
       unit="px"
       method="auto"
       mode="F"
       radius="0"
       chamfer_steps="1"
       flexible="false"
       use_knot_distance="true"
       apply_no_radius="true"
       apply_with_radius="true"
       only_selected="false"
       hide_knots="false"
       nodesatellites_param="F,0,0,1,0,0,0,1 @ F,0,0,1,0,4.0213085,0,1 @ F,0,0,1,0,0,0,1 @ F,0,0,1,0,4.3976809,0,1" />
    <inkscape:path-effect
       effect="fillet_chamfer"
       id="path-effect11393-61-6-0"
       is_visible="true"
       lpeversion="1"
       satellites_param="F,0,0,1,0,0,0,1 @ F,0,0,1,0,5.6126671,0,1 @ F,0,0,1,0,0,0,1 @ F,0,0,1,0,5.612653,0,1"
       unit="px"
       method="auto"
       mode="F"
       radius="0"
       chamfer_steps="1"
       flexible="false"
       use_knot_distance="true"
       apply_no_radius="true"
       apply_with_radius="true"
       only_selected="false"
       hide_knots="false"
       nodesatellites_param="F,0,0,1,0,0,0,1 @ F,0,0,1,0,5.6126671,0,1 @ F,0,0,1,0,0,0,1 @ F,0,0,1,0,5.612653,0,1" />
    <inkscape:path-effect
       effect="fillet_chamfer"
       id="path-effect11393-6-7-4-5"
       is_visible="true"
       lpeversion="1"
       satellites_param="F,0,0,1,0,0,0,1 @ F,0,0,1,0,5.6126671,0,1 @ F,0,0,1,0,0,0,1 @ F,0,0,1,0,5.612653,0,1"
       unit="px"
       method="auto"
       mode="F"
       radius="0"
       chamfer_steps="1"
       flexible="false"
       use_knot_distance="true"
       apply_no_radius="true"
       apply_with_radius="true"
       only_selected="false"
       hide_knots="false"
       nodesatellites_param="F,0,0,1,0,0,0,1 @ F,0,0,1,0,5.6126671,0,1 @ F,0,0,1,0,0,0,1 @ F,0,0,1,0,5.612653,0,1" />
    <inkscape:path-effect
       effect="fillet_chamfer"
       id="path-effect15409-3-5"
       is_visible="true"
       lpeversion="1"
       satellites_param="F,0,0,1,0,0,0,1 @ F,0,0,1,0,4.0213085,0,1 @ F,0,0,1,0,0,0,1 @ F,0,0,1,0,4.3976809,0,1"
       unit="px"
       method="auto"
       mode="F"
       radius="0"
       chamfer_steps="1"
       flexible="false"
       use_knot_distance="true"
       apply_no_radius="true"
       apply_with_radius="true"
       only_selected="false"
       hide_knots="false"
       nodesatellites_param="F,0,0,1,0,0,0,1 @ F,0,0,1,0,4.0213085,0,1 @ F,0,0,1,0,0,0,1 @ F,0,0,1,0,4.3976809,0,1" />
    <inkscape:path-effect
       effect="fillet_chamfer"
       id="path-effect11393-61-6-6"
       is_visible="true"
       lpeversion="1"
       satellites_param="F,0,0,1,0,0,0,1 @ F,0,0,1,0,5.6126671,0,1 @ F,0,0,1,0,0,0,1 @ F,0,0,1,0,5.612653,0,1"
       unit="px"
       method="auto"
       mode="F"
       radius="0"
       chamfer_steps="1"
       flexible="false"
       use_knot_distance="true"
       apply_no_radius="true"
       apply_with_radius="true"
       only_selected="false"
       hide_knots="false"
       nodesatellites_param="F,0,0,1,0,0,0,1 @ F,0,0,1,0,5.6126671,0,1 @ F,0,0,1,0,0,0,1 @ F,0,0,1,0,5.612653,0,1" />
    <inkscape:path-effect
       effect="fillet_chamfer"
       id="path-effect11393-6-7-4-1"
       is_visible="true"
       lpeversion="1"
       satellites_param="F,0,0,1,0,0,0,1 @ F,0,0,1,0,5.6126671,0,1 @ F,0,0,1,0,0,0,1 @ F,0,0,1,0,5.612653,0,1"
       unit="px"
       method="auto"
       mode="F"
       radius="0"
       chamfer_steps="1"
       flexible="false"
       use_knot_distance="true"
       apply_no_radius="true"
       apply_with_radius="true"
       only_selected="false"
       hide_knots="false"
       nodesatellites_param="F,0,0,1,0,0,0,1 @ F,0,0,1,0,5.6126671,0,1 @ F,0,0,1,0,0,0,1 @ F,0,0,1,0,5.612653,0,1" />
    <inkscape:path-effect
       effect="fillet_chamfer"
       id="path-effect15409-9"
       is_visible="true"
       lpeversion="1"
       satellites_param="F,0,0,1,0,0,0,1 @ F,0,0,1,0,4.0213085,0,1 @ F,0,0,1,0,0,0,1 @ F,0,0,1,0,4.3976809,0,1"
       unit="px"
       method="auto"
       mode="F"
       radius="0"
       chamfer_steps="1"
       flexible="false"
       use_knot_distance="true"
       apply_no_radius="true"
       apply_with_radius="true"
       only_selected="false"
       hide_knots="false"
       nodesatellites_param="F,0,0,1,0,0,0,1 @ F,0,0,1,0,4.0213085,0,1 @ F,0,0,1,0,0,0,1 @ F,0,0,1,0,4.3976809,0,1" />
    <inkscape:path-effect
       effect="fillet_chamfer"
       id="path-effect11393-61-0"
       is_visible="true"
       lpeversion="1"
       satellites_param="F,0,0,1,0,0,0,1 @ F,0,0,1,0,5.6126671,0,1 @ F,0,0,1,0,0,0,1 @ F,0,0,1,0,5.612653,0,1"
       unit="px"
       method="auto"
       mode="F"
       radius="0"
       chamfer_steps="1"
       flexible="false"
       use_knot_distance="true"
       apply_no_radius="true"
       apply_with_radius="true"
       only_selected="false"
       hide_knots="false"
       nodesatellites_param="F,0,0,1,0,0,0,1 @ F,0,0,1,0,5.6126671,0,1 @ F,0,0,1,0,0,0,1 @ F,0,0,1,0,5.612653,0,1" />
    <inkscape:path-effect
       effect="fillet_chamfer"
       id="path-effect11393-6-7-2"
       is_visible="true"
       lpeversion="1"
       satellites_param="F,0,0,1,0,0,0,1 @ F,0,0,1,0,5.6126671,0,1 @ F,0,0,1,0,0,0,1 @ F,0,0,1,0,5.612653,0,1"
       unit="px"
       method="auto"
       mode="F"
       radius="0"
       chamfer_steps="1"
       flexible="false"
       use_knot_distance="true"
       apply_no_radius="true"
       apply_with_radius="true"
       only_selected="false"
       hide_knots="false"
       nodesatellites_param="F,0,0,1,0,0,0,1 @ F,0,0,1,0,5.6126671,0,1 @ F,0,0,1,0,0,0,1 @ F,0,0,1,0,5.612653,0,1" />
    <inkscape:path-effect
       effect="fillet_chamfer"
       id="path-effect15409-3-9"
       is_visible="true"
       lpeversion="1"
       satellites_param="F,0,0,1,0,0,0,1 @ F,0,0,1,0,4.0213085,0,1 @ F,0,0,1,0,0,0,1 @ F,0,0,1,0,4.3976809,0,1"
       unit="px"
       method="auto"
       mode="F"
       radius="0"
       chamfer_steps="1"
       flexible="false"
       use_knot_distance="true"
       apply_no_radius="true"
       apply_with_radius="true"
       only_selected="false"
       hide_knots="false"
       nodesatellites_param="F,0,0,1,0,0,0,1 @ F,0,0,1,0,4.0213085,0,1 @ F,0,0,1,0,0,0,1 @ F,0,0,1,0,4.3976809,0,1" />
    <inkscape:path-effect
       effect="fillet_chamfer"
       id="path-effect11393-61-6-5"
       is_visible="true"
       lpeversion="1"
       satellites_param="F,0,0,1,0,0,0,1 @ F,0,0,1,0,5.6126671,0,1 @ F,0,0,1,0,0,0,1 @ F,0,0,1,0,5.612653,0,1"
       unit="px"
       method="auto"
       mode="F"
       radius="0"
       chamfer_steps="1"
       flexible="false"
       use_knot_distance="true"
       apply_no_radius="true"
       apply_with_radius="true"
       only_selected="false"
       hide_knots="false"
       nodesatellites_param="F,0,0,1,0,0,0,1 @ F,0,0,1,0,5.6126671,0,1 @ F,0,0,1,0,0,0,1 @ F,0,0,1,0,5.612653,0,1" />
    <inkscape:path-effect
       effect="fillet_chamfer"
       id="path-effect11393-6-7-4-8"
       is_visible="true"
       lpeversion="1"
       satellites_param="F,0,0,1,0,0,0,1 @ F,0,0,1,0,5.6126671,0,1 @ F,0,0,1,0,0,0,1 @ F,0,0,1,0,5.612653,0,1"
       unit="px"
       method="auto"
       mode="F"
       radius="0"
       chamfer_steps="1"
       flexible="false"
       use_knot_distance="true"
       apply_no_radius="true"
       apply_with_radius="true"
       only_selected="false"
       hide_knots="false"
       nodesatellites_param="F,0,0,1,0,0,0,1 @ F,0,0,1,0,5.6126671,0,1 @ F,0,0,1,0,0,0,1 @ F,0,0,1,0,5.612653,0,1" />
    <inkscape:path-effect
       effect="fillet_chamfer"
       id="path-effect15409-3-3"
       is_visible="true"
       lpeversion="1"
       satellites_param="F,0,0,1,0,0,0,1 @ F,0,0,1,0,4.0213085,0,1 @ F,0,0,1,0,0,0,1 @ F,0,0,1,0,4.3976809,0,1"
       unit="px"
       method="auto"
       mode="F"
       radius="0"
       chamfer_steps="1"
       flexible="false"
       use_knot_distance="true"
       apply_no_radius="true"
       apply_with_radius="true"
       only_selected="false"
       hide_knots="false"
       nodesatellites_param="F,0,0,1,0,0,0,1 @ F,0,0,1,0,4.0213085,0,1 @ F,0,0,1,0,0,0,1 @ F,0,0,1,0,4.3976809,0,1" />
    <inkscape:path-effect
       effect="fillet_chamfer"
       id="path-effect11393-61-6-50"
       is_visible="true"
       lpeversion="1"
       satellites_param="F,0,0,1,0,0,0,1 @ F,0,0,1,0,5.6126671,0,1 @ F,0,0,1,0,0,0,1 @ F,0,0,1,0,5.612653,0,1"
       unit="px"
       method="auto"
       mode="F"
       radius="0"
       chamfer_steps="1"
       flexible="false"
       use_knot_distance="true"
       apply_no_radius="true"
       apply_with_radius="true"
       only_selected="false"
       hide_knots="false"
       nodesatellites_param="F,0,0,1,0,0,0,1 @ F,0,0,1,0,5.6126671,0,1 @ F,0,0,1,0,0,0,1 @ F,0,0,1,0,5.612653,0,1" />
    <inkscape:path-effect
       effect="fillet_chamfer"
       id="path-effect11393-6-7-4-2"
       is_visible="true"
       lpeversion="1"
       satellites_param="F,0,0,1,0,0,0,1 @ F,0,0,1,0,5.6126671,0,1 @ F,0,0,1,0,0,0,1 @ F,0,0,1,0,5.612653,0,1"
       unit="px"
       method="auto"
       mode="F"
       radius="0"
       chamfer_steps="1"
       flexible="false"
       use_knot_distance="true"
       apply_no_radius="true"
       apply_with_radius="true"
       only_selected="false"
       hide_knots="false"
       nodesatellites_param="F,0,0,1,0,0,0,1 @ F,0,0,1,0,5.6126671,0,1 @ F,0,0,1,0,0,0,1 @ F,0,0,1,0,5.612653,0,1" />
    <inkscape:path-effect
       effect="fillet_chamfer"
       id="path-effect15409-3-3-5"
       is_visible="true"
       lpeversion="1"
       satellites_param="F,0,0,1,0,0,0,1 @ F,0,0,1,0,4.0213085,0,1 @ F,0,0,1,0,0,0,1 @ F,0,0,1,0,4.3976809,0,1"
       unit="px"
       method="auto"
       mode="F"
       radius="0"
       chamfer_steps="1"
       flexible="false"
       use_knot_distance="true"
       apply_no_radius="true"
       apply_with_radius="true"
       only_selected="false"
       hide_knots="false"
       nodesatellites_param="F,0,0,1,0,0,0,1 @ F,0,0,1,0,4.0213085,0,1 @ F,0,0,1,0,0,0,1 @ F,0,0,1,0,4.3976809,0,1" />
    <inkscape:path-effect
       effect="fillet_chamfer"
       id="path-effect11393-61-6-50-3"
       is_visible="true"
       lpeversion="1"
       satellites_param="F,0,0,1,0,0,0,1 @ F,0,0,1,0,5.6126671,0,1 @ F,0,0,1,0,0,0,1 @ F,0,0,1,0,5.612653,0,1"
       unit="px"
       method="auto"
       mode="F"
       radius="0"
       chamfer_steps="1"
       flexible="false"
       use_knot_distance="true"
       apply_no_radius="true"
       apply_with_radius="true"
       only_selected="false"
       hide_knots="false"
       nodesatellites_param="F,0,0,1,0,0,0,1 @ F,0,0,1,0,5.6126671,0,1 @ F,0,0,1,0,0,0,1 @ F,0,0,1,0,5.612653,0,1" />
    <inkscape:path-effect
       effect="fillet_chamfer"
       id="path-effect11393-6-7-4-2-6"
       is_visible="true"
       lpeversion="1"
       satellites_param="F,0,0,1,0,0,0,1 @ F,0,0,1,0,5.6126671,0,1 @ F,0,0,1,0,0,0,1 @ F,0,0,1,0,5.612653,0,1"
       unit="px"
       method="auto"
       mode="F"
       radius="0"
       chamfer_steps="1"
       flexible="false"
       use_knot_distance="true"
       apply_no_radius="true"
       apply_with_radius="true"
       only_selected="false"
       hide_knots="false"
       nodesatellites_param="F,0,0,1,0,0,0,1 @ F,0,0,1,0,5.6126671,0,1 @ F,0,0,1,0,0,0,1 @ F,0,0,1,0,5.612653,0,1" />
    <inkscape:path-effect
       effect="fillet_chamfer"
       id="path-effect10532-4"
       is_visible="true"
       lpeversion="1"
       satellites_param="F,0,1,1,0,0,0,1 @ F,0,0,1,0,8.8579202,0,1 @ F,0,0,1,0,7.9813377,0,1 @ F,0,0,1,0,2.8063306,0,1 @ F,0,0,1,0,2.806332,0,1 @ F,0,0,1,0,5.6126664,0,1 @ F,0,0,1,0,5.7874217,0,1 @ F,0,0,1,0,0,0,1"
       unit="px"
       method="auto"
       mode="F"
       radius="0"
       chamfer_steps="1"
       flexible="false"
       use_knot_distance="true"
       apply_no_radius="true"
       apply_with_radius="true"
       only_selected="false"
       hide_knots="false"
       nodesatellites_param="F,0,1,1,0,0,0,1 @ F,0,0,1,0,8.8579202,0,1 @ F,0,0,1,0,7.9813377,0,1 @ F,0,0,1,0,2.8063306,0,1 @ F,0,0,1,0,2.806332,0,1 @ F,0,0,1,0,5.6126664,0,1 @ F,0,0,1,0,5.7874217,0,1 @ F,0,0,1,0,0,0,1" />
    <inkscape:path-effect
       effect="fillet_chamfer"
       id="path-effect12501-9"
       is_visible="true"
       lpeversion="1"
       satellites_param="F,0,0,1,0,0,0,1 @ F,0,0,1,0,8.8579202,0,1 @ F,0,0,1,0,7.9813377,0,1 @ F,0,0,1,0,12.353675,0,1 @ F,0,0,1,0,14.03414,0,1 @ F,0,0,1,0,5.6126664,0,1 @ F,0,0,1,0,5.7874217,0,1 @ F,0,0,1,0,0,0,1"
       unit="px"
       method="auto"
       mode="F"
       radius="0"
       chamfer_steps="1"
       flexible="false"
       use_knot_distance="true"
       apply_no_radius="true"
       apply_with_radius="true"
       only_selected="false"
       hide_knots="false"
       nodesatellites_param="F,0,0,1,0,0,0,1 @ F,0,0,1,0,8.8579202,0,1 @ F,0,0,1,0,7.9813377,0,1 @ F,0,0,1,0,12.353675,0,1 @ F,0,0,1,0,14.03414,0,1 @ F,0,0,1,0,5.6126664,0,1 @ F,0,0,1,0,5.7874217,0,1 @ F,0,0,1,0,0,0,1" />
    <inkscape:path-effect
       effect="fillet_chamfer"
       id="path-effect12507-7"
       is_visible="true"
       lpeversion="1"
       satellites_param="F,0,0,1,0,0,0,1 @ F,0,0,1,0,8.8579202,0,1 @ F,0,0,1,0,7.9813377,0,1 @ F,0,1,1,0,2.8063298,0,1 @ F,0,0,1,0,2.80633,0,1 @ F,0,0,1,0,5.6126664,0,1 @ F,0,0,1,0,5.7874217,0,1 @ F,0,0,1,0,0,0,1"
       unit="px"
       method="auto"
       mode="F"
       radius="0"
       chamfer_steps="1"
       flexible="false"
       use_knot_distance="true"
       apply_no_radius="true"
       apply_with_radius="true"
       only_selected="false"
       hide_knots="false"
       nodesatellites_param="F,0,0,1,0,0,0,1 @ F,0,0,1,0,8.8579202,0,1 @ F,0,0,1,0,7.9813377,0,1 @ F,0,1,1,0,2.8063298,0,1 @ F,0,0,1,0,2.80633,0,1 @ F,0,0,1,0,5.6126664,0,1 @ F,0,0,1,0,5.7874217,0,1 @ F,0,0,1,0,0,0,1" />
    <inkscape:path-effect
       effect="fillet_chamfer"
       id="path-effect12513-6"
       is_visible="true"
       lpeversion="1"
       satellites_param="F,0,1,1,0,0,0,1 @ F,0,0,1,0,8.8579202,0,1 @ F,0,0,1,0,7.9813377,0,1 @ F,0,0,1,0,2.8063306,0,1 @ F,0,0,1,0,2.806332,0,1 @ F,0,0,1,0,5.6126664,0,1 @ F,0,0,1,0,5.7874217,0,1 @ F,0,0,1,0,0,0,1"
       unit="px"
       method="auto"
       mode="F"
       radius="0"
       chamfer_steps="1"
       flexible="false"
       use_knot_distance="true"
       apply_no_radius="true"
       apply_with_radius="true"
       only_selected="false"
       hide_knots="false"
       nodesatellites_param="F,0,1,1,0,0,0,1 @ F,0,0,1,0,8.8579202,0,1 @ F,0,0,1,0,7.9813377,0,1 @ F,0,0,1,0,2.8063306,0,1 @ F,0,0,1,0,2.806332,0,1 @ F,0,0,1,0,5.6126664,0,1 @ F,0,0,1,0,5.7874217,0,1 @ F,0,0,1,0,0,0,1" />
    <inkscape:path-effect
       effect="fillet_chamfer"
       id="path-effect5632-6"
       is_visible="true"
       lpeversion="1"
       satellites_param="F,0,0,1,0,0,0,1 @ F,0,0,1,0,5.612624,0,1 @ F,0,0,1,0,5.6126954,0,1 @ F,0,0,1,0,0,0,1 @ F,0,0,1,0,12.550274,0,1 @ F,0,0,1,0,0,0,1 @ F,0,0,1,0,12.550242,0,1 @ F,0,0,1,0,0,0,1"
       unit="px"
       method="auto"
       mode="F"
       radius="0"
       chamfer_steps="1"
       flexible="false"
       use_knot_distance="true"
       apply_no_radius="true"
       apply_with_radius="true"
       only_selected="false"
       hide_knots="false"
       nodesatellites_param="F,0,0,1,0,0,0,1 @ F,0,0,1,0,5.612624,0,1 @ F,0,0,1,0,5.6126954,0,1 @ F,0,0,1,0,0,0,1 @ F,0,0,1,0,12.550274,0,1 @ F,0,0,1,0,0,0,1 @ F,0,0,1,0,12.550242,0,1 @ F,0,0,1,0,0,0,1" />
    <inkscape:path-effect
       effect="fillet_chamfer"
       id="path-effect5632-3"
       is_visible="true"
       lpeversion="1"
       satellites_param="F,0,0,1,0,0,0,1 @ F,0,0,1,0,5.612624,0,1 @ F,0,0,1,0,5.6126954,0,1 @ F,0,0,1,0,0,0,1 @ F,0,0,1,0,12.550274,0,1 @ F,0,0,1,0,0,0,1 @ F,0,0,1,0,12.550242,0,1 @ F,0,0,1,0,0,0,1"
       unit="px"
       method="auto"
       mode="F"
       radius="0"
       chamfer_steps="1"
       flexible="false"
       use_knot_distance="true"
       apply_no_radius="true"
       apply_with_radius="true"
       only_selected="false"
       hide_knots="false"
       nodesatellites_param="F,0,0,1,0,0,0,1 @ F,0,0,1,0,5.612624,0,1 @ F,0,0,1,0,5.6126954,0,1 @ F,0,0,1,0,0,0,1 @ F,0,0,1,0,12.550274,0,1 @ F,0,0,1,0,0,0,1 @ F,0,0,1,0,12.550242,0,1 @ F,0,0,1,0,0,0,1" />
    <inkscape:path-effect
       effect="fillet_chamfer"
       id="path-effect5632-65"
       is_visible="true"
       lpeversion="1"
       satellites_param="F,0,0,1,0,0,0,1 @ F,0,0,1,0,5.612624,0,1 @ F,0,0,1,0,5.6126954,0,1 @ F,0,0,1,0,0,0,1 @ F,0,0,1,0,12.550274,0,1 @ F,0,0,1,0,0,0,1 @ F,0,0,1,0,12.550242,0,1 @ F,0,0,1,0,0,0,1"
       unit="px"
       method="auto"
       mode="F"
       radius="0"
       chamfer_steps="1"
       flexible="false"
       use_knot_distance="true"
       apply_no_radius="true"
       apply_with_radius="true"
       only_selected="false"
       hide_knots="false"
       nodesatellites_param="F,0,0,1,0,0,0,1 @ F,0,0,1,0,5.612624,0,1 @ F,0,0,1,0,5.6126954,0,1 @ F,0,0,1,0,0,0,1 @ F,0,0,1,0,12.550274,0,1 @ F,0,0,1,0,0,0,1 @ F,0,0,1,0,12.550242,0,1 @ F,0,0,1,0,0,0,1" />
    <inkscape:path-effect
       effect="fillet_chamfer"
       id="path-effect41371-9"
       is_visible="true"
       lpeversion="1"
       satellites_param="F,0,0,1,0,3.96874,0,1 @ F,0,0,1,0,2.8063194,0,1 @ F,0,0,1,0,0.26458333,0,1 @ F,0,0,1,0,3.96875,0,1 @ F,0,0,1,0,3.96875,0,1 @ F,0,0,1,0,0.26458333,0,1 @ F,0,0,1,0,0.26458333,0,1 @ F,0,0,1,0,3.96874,0,1"
       unit="px"
       method="auto"
       mode="F"
       radius="1"
       chamfer_steps="1"
       flexible="false"
       use_knot_distance="true"
       apply_no_radius="true"
       apply_with_radius="true"
       only_selected="false"
       hide_knots="false"
       nodesatellites_param="F,0,0,1,0,3.96874,0,1 @ F,0,0,1,0,2.8063194,0,1 @ F,0,0,1,0,0.26458333,0,1 @ F,0,0,1,0,3.96875,0,1 @ F,0,0,1,0,3.96875,0,1 @ F,0,0,1,0,0.26458333,0,1 @ F,0,0,1,0,0.26458333,0,1 @ F,0,0,1,0,3.96874,0,1" />
    <inkscape:path-effect
       effect="fillet_chamfer"
       id="path-effect41463-6"
       is_visible="true"
       lpeversion="1"
       satellites_param="F,0,0,1,0,4.729554,0,1 @ F,0,0,1,0,2.8063194,0,1 @ F,0,0,1,0,0.26458333,0,1 @ F,0,0,1,0,3.96875,0,1 @ F,0,0,1,0,3.96875,0,1 @ F,0,0,1,0,0.26458333,0,1 @ F,0,0,1,0,0.26458333,0,1 @ F,0,0,1,0,4.729554,0,1"
       unit="px"
       method="auto"
       mode="F"
       radius="1"
       chamfer_steps="1"
       flexible="false"
       use_knot_distance="true"
       apply_no_radius="true"
       apply_with_radius="true"
       only_selected="false"
       hide_knots="false"
       nodesatellites_param="F,0,0,1,0,4.729554,0,1 @ F,0,0,1,0,2.8063194,0,1 @ F,0,0,1,0,0.26458333,0,1 @ F,0,0,1,0,3.96875,0,1 @ F,0,0,1,0,3.96875,0,1 @ F,0,0,1,0,0.26458333,0,1 @ F,0,0,1,0,0.26458333,0,1 @ F,0,0,1,0,4.729554,0,1" />
    <inkscape:path-effect
       effect="fillet_chamfer"
       id="path-effect41469-0"
       is_visible="true"
       lpeversion="1"
       satellites_param="F,0,0,1,0,3.670979,0,1 @ F,0,0,1,0,2.8063194,0,1 @ F,0,0,1,0,0.26458333,0,1 @ F,0,0,1,0,3.96875,0,1 @ F,0,0,1,0,3.96875,0,1 @ F,0,0,1,0,0.26458333,0,1 @ F,0,1,1,0,3.670979,0,1 @ F,0,1,1,0,3.670979,0,1"
       unit="px"
       method="auto"
       mode="F"
       radius="1"
       chamfer_steps="1"
       flexible="false"
       use_knot_distance="true"
       apply_no_radius="true"
       apply_with_radius="true"
       only_selected="false"
       hide_knots="false"
       nodesatellites_param="F,0,0,1,0,3.670979,0,1 @ F,0,0,1,0,2.8063194,0,1 @ F,0,0,1,0,0.26458333,0,1 @ F,0,0,1,0,3.96875,0,1 @ F,0,0,1,0,3.96875,0,1 @ F,0,0,1,0,0.26458333,0,1 @ F,0,1,1,0,3.670979,0,1 @ F,0,1,1,0,3.670979,0,1" />
    <inkscape:path-effect
       effect="fillet_chamfer"
       id="path-effect42357-6"
       is_visible="true"
       lpeversion="1"
       satellites_param="F,0,0,1,0,3.96874,0,1 @ F,0,0,1,0,2.8063194,0,1 @ F,0,0,1,0,0.26458333,0,1 @ F,0,0,1,0,3.96875,0,1 @ F,0,0,1,0,3.96875,0,1 @ F,0,0,1,0,0.26458333,0,1 @ F,0,0,1,0,0.26458333,0,1 @ F,0,0,1,0,3.96874,0,1"
       unit="px"
       method="auto"
       mode="F"
       radius="1"
       chamfer_steps="1"
       flexible="false"
       use_knot_distance="true"
       apply_no_radius="true"
       apply_with_radius="true"
       only_selected="false"
       hide_knots="false"
       nodesatellites_param="F,0,0,1,0,3.96874,0,1 @ F,0,0,1,0,2.8063194,0,1 @ F,0,0,1,0,0.26458333,0,1 @ F,0,0,1,0,3.96875,0,1 @ F,0,0,1,0,3.96875,0,1 @ F,0,0,1,0,0.26458333,0,1 @ F,0,0,1,0,0.26458333,0,1 @ F,0,0,1,0,3.96874,0,1" />
    <inkscape:path-effect
       effect="fillet_chamfer"
       id="path-effect5632-4"
       is_visible="true"
       lpeversion="1"
       satellites_param="F,0,0,1,0,0,0,1 @ F,0,0,1,0,5.612624,0,1 @ F,0,0,1,0,5.6126954,0,1 @ F,0,0,1,0,0,0,1 @ F,0,0,1,0,12.550274,0,1 @ F,0,0,1,0,0,0,1 @ F,0,0,1,0,12.550242,0,1 @ F,0,0,1,0,0,0,1"
       unit="px"
       method="auto"
       mode="F"
       radius="0"
       chamfer_steps="1"
       flexible="false"
       use_knot_distance="true"
       apply_no_radius="true"
       apply_with_radius="true"
       only_selected="false"
       hide_knots="false"
       nodesatellites_param="F,0,0,1,0,0,0,1 @ F,0,0,1,0,5.612624,0,1 @ F,0,0,1,0,5.6126954,0,1 @ F,0,0,1,0,0,0,1 @ F,0,0,1,0,12.550274,0,1 @ F,0,0,1,0,0,0,1 @ F,0,0,1,0,12.550242,0,1 @ F,0,0,1,0,0,0,1" />
    <inkscape:path-effect
       effect="fillet_chamfer"
       id="path-effect5632-6-1"
       is_visible="true"
       lpeversion="1"
       satellites_param="F,0,0,1,0,0,0,1 @ F,0,0,1,0,5.612624,0,1 @ F,0,0,1,0,5.6126954,0,1 @ F,0,0,1,0,0,0,1 @ F,0,0,1,0,12.550274,0,1 @ F,0,0,1,0,0,0,1 @ F,0,0,1,0,12.550242,0,1 @ F,0,0,1,0,0,0,1"
       unit="px"
       method="auto"
       mode="F"
       radius="0"
       chamfer_steps="1"
       flexible="false"
       use_knot_distance="true"
       apply_no_radius="true"
       apply_with_radius="true"
       only_selected="false"
       hide_knots="false"
       nodesatellites_param="F,0,0,1,0,0,0,1 @ F,0,0,1,0,5.612624,0,1 @ F,0,0,1,0,5.6126954,0,1 @ F,0,0,1,0,0,0,1 @ F,0,0,1,0,12.550274,0,1 @ F,0,0,1,0,0,0,1 @ F,0,0,1,0,12.550242,0,1 @ F,0,0,1,0,0,0,1" />
    <inkscape:path-effect
       effect="fillet_chamfer"
       id="path-effect5632-3-7"
       is_visible="true"
       lpeversion="1"
       satellites_param="F,0,0,1,0,0,0,1 @ F,0,0,1,0,5.612624,0,1 @ F,0,0,1,0,5.6126954,0,1 @ F,0,0,1,0,0,0,1 @ F,0,0,1,0,12.550274,0,1 @ F,0,0,1,0,0,0,1 @ F,0,0,1,0,12.550242,0,1 @ F,0,0,1,0,0,0,1"
       unit="px"
       method="auto"
       mode="F"
       radius="0"
       chamfer_steps="1"
       flexible="false"
       use_knot_distance="true"
       apply_no_radius="true"
       apply_with_radius="true"
       only_selected="false"
       hide_knots="false"
       nodesatellites_param="F,0,0,1,0,0,0,1 @ F,0,0,1,0,5.612624,0,1 @ F,0,0,1,0,5.6126954,0,1 @ F,0,0,1,0,0,0,1 @ F,0,0,1,0,12.550274,0,1 @ F,0,0,1,0,0,0,1 @ F,0,0,1,0,12.550242,0,1 @ F,0,0,1,0,0,0,1" />
    <inkscape:path-effect
       effect="fillet_chamfer"
       id="path-effect5632-65-5"
       is_visible="true"
       lpeversion="1"
       satellites_param="F,0,0,1,0,0,0,1 @ F,0,0,1,0,5.612624,0,1 @ F,0,0,1,0,5.6126954,0,1 @ F,0,0,1,0,0,0,1 @ F,0,0,1,0,12.550274,0,1 @ F,0,0,1,0,0,0,1 @ F,0,0,1,0,12.550242,0,1 @ F,0,0,1,0,0,0,1"
       unit="px"
       method="auto"
       mode="F"
       radius="0"
       chamfer_steps="1"
       flexible="false"
       use_knot_distance="true"
       apply_no_radius="true"
       apply_with_radius="true"
       only_selected="false"
       hide_knots="false"
       nodesatellites_param="F,0,0,1,0,0,0,1 @ F,0,0,1,0,5.612624,0,1 @ F,0,0,1,0,5.6126954,0,1 @ F,0,0,1,0,0,0,1 @ F,0,0,1,0,12.550274,0,1 @ F,0,0,1,0,0,0,1 @ F,0,0,1,0,12.550242,0,1 @ F,0,0,1,0,0,0,1" />
    <inkscape:path-effect
       effect="fillet_chamfer"
       id="path-effect9184-7"
       is_visible="true"
       lpeversion="1"
       satellites_param="F,0,0,1,0,5.8999032,0,1 @ F,0,0,1,0,5.612653,0,1 @ F,0,0,1,0,5.8998905,0,1 @ F,0,1,1,0,5.8999032,0,1"
       unit="px"
       method="auto"
       mode="F"
       radius="0"
       chamfer_steps="1"
       flexible="false"
       use_knot_distance="true"
       apply_no_radius="true"
       apply_with_radius="true"
       only_selected="false"
       hide_knots="false"
       nodesatellites_param="F,0,0,1,0,5.8999032,0,1 @ F,0,0,1,0,5.612653,0,1 @ F,0,0,1,0,5.8998905,0,1 @ F,0,1,1,0,5.8999032,0,1" />
    <inkscape:path-effect
       effect="fillet_chamfer"
       id="path-effect9184-0-1"
       is_visible="true"
       lpeversion="1"
       satellites_param="F,0,0,1,0,5.8999032,0,1 @ F,0,0,1,0,5.612653,0,1 @ F,0,0,1,0,5.8998905,0,1 @ F,0,1,1,0,5.8999032,0,1"
       unit="px"
       method="auto"
       mode="F"
       radius="0"
       chamfer_steps="1"
       flexible="false"
       use_knot_distance="true"
       apply_no_radius="true"
       apply_with_radius="true"
       only_selected="false"
       hide_knots="false"
       nodesatellites_param="F,0,0,1,0,5.8999032,0,1 @ F,0,0,1,0,5.612653,0,1 @ F,0,0,1,0,5.8998905,0,1 @ F,0,1,1,0,5.8999032,0,1" />
  </defs>
  <g
     inkscape:label="Layer 1"
     inkscape:groupmode="layer"
     id="layer1"
     transform="translate(-344.44673,-90.454189)">
    <g
       id="g694"
       transform="translate(443.95935,781.31056)">
      <rect
         style="opacity:0.960912;fill:#800000;stroke:#ffffff;stroke-width:0.587743;stroke-miterlimit:4;stroke-dasharray:none;stroke-opacity:1"
         id="rect42478"
         width="134.9375"
         height="130.96875"
         x="-99.21875"
         y="-690.5625"
         ry="4.6774559" />
      <g
         id="g46176"
         transform="matrix(0.94162367,0,0,0.91265561,-16.263792,-46.665438)">
        <ellipse
           id="path2899-6-194"
           style="fill:#ffffff;fill-opacity:1;stroke:#ffffff;stroke-width:0.817059;stroke-opacity:1"
           cx="12.817001"
           cy="-649.09973"
           rx="0.72768676"
           ry="0.57800448" />
        <ellipse
           id="path2899-6-6"
           style="fill:#ffffff;fill-opacity:1;stroke:#ffffff;stroke-width:0.817059;stroke-opacity:1"
           cx="13.610747"
           cy="-634.81226"
           rx="0.72768676"
           ry="0.57800448" />
        <ellipse
           id="path2899-6-7"
           style="fill:#ffffff;fill-opacity:1;stroke:#ffffff;stroke-width:0.817059;stroke-opacity:1"
           cx="-32.162163"
           cy="-635.60596"
           rx="0.72768676"
           ry="0.57800448" />
        <ellipse
           id="path2899-6-5"
           style="fill:#ffffff;fill-opacity:1;stroke:#ffffff;stroke-width:0.817059;stroke-opacity:1"
           cx="-45.391327"
           cy="-636.66443"
           rx="0.72768676"
           ry="0.57800448" />
        <ellipse
           id="path2899-6-81"
           style="fill:#ffffff;fill-opacity:1;stroke:#ffffff;stroke-width:0.817059;stroke-opacity:1"
           cx="-61.530914"
           cy="-635.60596"
           rx="0.72768676"
           ry="0.57800448" />
        <ellipse
           id="path2899-6-80"
           style="fill:#ffffff;fill-opacity:1;stroke:#ffffff;stroke-width:0.817059;stroke-opacity:1"
           cx="-16.022581"
           cy="-621.05396"
           rx="0.72768676"
           ry="0.57800448" />
        <ellipse
           id="path2899-6-8"
           style="fill:#ffffff;fill-opacity:1;stroke:#ffffff;stroke-width:0.817059;stroke-opacity:1"
           cx="-31.103838"
           cy="-620.52478"
           rx="0.72768676"
           ry="0.57800448" />
        <ellipse
           id="path2899-6-1"
           style="fill:#ffffff;fill-opacity:1;stroke:#ffffff;stroke-width:0.817059;stroke-opacity:1"
           cx="-44.862167"
           cy="-621.05396"
           rx="0.72768676"
           ry="0.57800448" />
        <ellipse
           id="path2899-6-2"
           style="fill:#ffffff;fill-opacity:1;stroke:#ffffff;stroke-width:0.817059;stroke-opacity:1"
           cx="-31.368418"
           cy="-607.03101"
           rx="0.72768676"
           ry="0.57800448" />
        <ellipse
           id="path2899-6"
           style="fill:#ffffff;fill-opacity:1;stroke:#ffffff;stroke-width:0.817059;stroke-opacity:1"
           cx="-16.816332"
           cy="-587.98096"
           rx="0.72768676"
           ry="0.57800448" />
        <path
           style="fill:none;fill-opacity:1;stroke:#ffffff;stroke-width:1;stroke-linecap:butt;stroke-linejoin:miter;stroke-opacity:1"
           d="m -20.902084,-685.00624 v 21.00619 a 6.7750423,6.7750423 67.499964 0 0 1.98437,4.79068 l 1.797291,1.79729 a 0.6387618,0.6387618 22.499964 0 0 0.451672,0.18709 h 31.485417 a 3.96875,3.96875 45 0 1 3.96875,3.96875 v 35.71875 a 3.9687517,3.9687517 134.99999 0 1 -3.96875,3.96875 l -19.5791661,1e-5 c -0.1461253,0 -0.3690553,-0.056 -0.4961063,-0.1283 -0.8022677,-0.45662 -3.4297594,-2.05688 -3.7125033,-3.57943 -0.02644,-0.14237 -0.024724,-0.37949 -0.024724,-0.52561 l 1e-7,-67.20417 c 0,-2.19187 -0.7353074,-5.9185 -2.6921417,-6.50623 -1.94915,-0.58543 -4.572835,-0.58543 -6.521982,0 -1.956826,0.58774 -2.692127,4.31436 -2.692127,6.50623 z"
           id="path40776"
           sodipodi:nodetypes="scccccsss"
           inkscape:path-effect="#path-effect41371"
           inkscape:original-d="m -20.902084,-688.97498 v 27.78125 l 3.96875,3.96874 h 35.71875 v 43.65625 l -23.8124994,1e-5 c 0,0 -3.96875,-2.09787 -3.96875,-3.96876 l 1e-7,-71.43749 c 10e-8,-3.96875 -11.9062507,-3.96875 -11.9062507,0 z" />
        <ellipse
           id="path2899-6-0"
           style="fill:#ffffff;fill-opacity:1;stroke:#ffffff;stroke-width:0.817059;stroke-opacity:1"
           cx="13.081585"
           cy="-621.05396"
           rx="0.72768676"
           ry="0.57800448" />
        <ellipse
           id="path2899-6-4"
           style="fill:#ffffff;fill-opacity:1;stroke:#ffffff;stroke-width:0.817059;stroke-opacity:1"
           cx="-1.2059162"
           cy="-621.05396"
           rx="0.72768676"
           ry="0.57800448" />
        <path
           style="fill:none;fill-opacity:1;stroke:#ffffff;stroke-width:1;stroke-linecap:butt;stroke-linejoin:miter;stroke-opacity:1"
           d="m -66.939583,-629.74147 20.245378,0 a 6.7750423,6.7750423 157.49996 0 0 4.790684,-1.98437 l 1.797287,-1.79729 a 0.6387618,0.6387618 112.49996 0 0 0.187088,-0.45167 v -31.48543 a 3.96875,3.96875 135 0 1 3.96875,-3.96875 h 35.7187416 a 3.9687517,3.9687517 44.999988 0 1 3.9687517,3.96875 l 8.2e-6,19.57918 c 0,0.14612 -0.055991,0.36905 -0.128303,0.4961 -0.4566163,0.80227 -2.0568773,3.42976 -3.57942207,3.71251 -0.1423752,0.0264 -0.37949033,0.0247 -0.52561567,0.0247 l -66.44334776,0 c -2.612061,0 -6.953116,1.06279 -7.454352,3.42931 -0.33569,1.58492 -0.335689,3.46273 3e-6,5.04764 0.501238,2.36652 4.842288,3.4293 7.454349,3.4293 z"
           id="path41459"
           sodipodi:nodetypes="scccccsss"
           inkscape:path-effect="#path-effect41463"
           inkscape:original-d="m -71.669137,-629.74147 h 27.781251 l 3.96874,-3.96875 v -35.71876 H 3.7370956 l 1e-5,23.81251 c 0,0 -2.0978688,3.96875 -3.96875751,3.96875 H -71.669137 c -3.968753,0 -3.968753,11.90625 0,11.90625 z" />
        <ellipse
           id="path2899-6-30"
           style="fill:#ffffff;fill-opacity:1;stroke:#ffffff;stroke-width:0.817059;stroke-opacity:1"
           cx="-2.2642496"
           cy="-649.89343"
           rx="0.72768676"
           ry="0.57800448" />
        <path
           style="fill:none;fill-opacity:1;stroke:#ffffff;stroke-width:1;stroke-linecap:butt;stroke-linejoin:miter;stroke-opacity:1"
           d="M 34.131249,-640.2917 H 12.827297 a 6.7750394,6.7750394 157.49996 0 0 -4.7906834,1.98437 l -1.7972848,1.79729 a 0.63876207,0.63876207 112.49996 0 0 -0.1870884,0.45167 v 31.48543 a 3.96875,3.96875 135 0 1 -3.96875,3.96875 H -33.63525 a 3.9687517,3.9687517 44.999988 0 1 -3.968752,-3.96875 l -8e-6,-19.57918 c 0,-0.14612 0.05599,-0.36905 0.128303,-0.4961 0.182569,-0.32077 0.547966,-0.93333 1.018122,-1.57114 1.165879,-1.58161 4.465888,-2.16609 6.493314,-2.16609 h 64.09552 c 2.027426,0 5.503502,-0.61468 6.117512,-2.40863 0.706708,-2.06479 0.706706,-5.02422 -5e-6,-7.089 -0.614011,-1.79394 -4.090081,-2.40862 -6.117507,-2.40862 z"
           id="path41465"
           sodipodi:nodetypes="scccccsss"
           inkscape:path-effect="#path-effect41469"
           inkscape:original-d="m 37.802228,-640.2917 h -27.78125 l -3.9687376,3.96875 v 35.71876 H -37.604 l -1e-5,-23.81251 c 0,0 2.09787,-3.96875 3.96876,-3.96875 h 71.437478 c 3.96875,0 3.96875,-11.90625 0,-11.90625 z" />
        <ellipse
           id="path2899-6-23"
           style="fill:#ffffff;fill-opacity:1;stroke:#ffffff;stroke-width:0.817059;stroke-opacity:1"
           cx="-1.7350829"
           cy="-607.03101"
           rx="0.72768676"
           ry="0.57800448" />
        <ellipse
           id="path2899-6-9"
           style="fill:#ffffff;fill-opacity:1;stroke:#ffffff;stroke-width:0.817059;stroke-opacity:1"
           cx="-16.816332"
           cy="-607.03101"
           rx="0.72768676"
           ry="0.57800448" />
        <path
           style="fill:none;fill-opacity:1;stroke:#ffffff;stroke-width:1;stroke-linecap:butt;stroke-linejoin:miter;stroke-opacity:1"
           d="m -11.906259,-586.65269 v -21.00619 a 6.7750423,6.7750423 67.499964 0 0 -1.98437,-4.79068 l -1.797291,-1.79729 a 0.6387618,0.6387618 22.499964 0 0 -0.451672,-0.18709 h -31.485427 a 3.96875,3.96875 45 0 1 -3.96875,-3.96875 v -35.71875 a 3.9687517,3.9687517 134.99999 0 1 3.96875,-3.96875 l 19.579177,-10e-6 c 0.146125,0 0.369007,0.056 0.495999,0.12824 0.802122,0.45653 3.429723,2.05679 3.712589,3.57937 0.02646,0.14244 0.02475,0.37961 0.02475,0.52573 l 0,67.20417 c 0,2.19187 0.735307,5.9185 2.692141,6.50623 1.94915,0.58543 4.572836,0.58543 6.521982,0 1.956826,-0.58774 2.692127,-4.31436 2.692127,-6.50623 z"
           id="path42353"
           sodipodi:nodetypes="scccccsss"
           inkscape:path-effect="#path-effect42357"
           inkscape:original-d="m -11.906259,-582.68395 v -27.78125 l -3.96875,-3.96874 h -35.71876 v -43.65625 l 23.81251,-10e-6 c 0,0 3.96875,2.09787 3.96875,3.96876 v 71.43749 c 0,3.96875 11.90625,3.96875 11.90625,0 z" />
        <ellipse
           id="path2899-6-18"
           style="fill:#ffffff;fill-opacity:1;stroke:#ffffff;stroke-width:0.817059;stroke-opacity:1"
           cx="-45.920464"
           cy="-649.89453"
           rx="0.72768676"
           ry="0.57800448" />
        <ellipse
           id="path2899-6-27"
           style="fill:#ffffff;fill-opacity:1;stroke:#ffffff;stroke-width:0.817059;stroke-opacity:1"
           cx="-16.287125"
           cy="-635.34143"
           rx="0.72768676"
           ry="0.57800448" />
        <ellipse
           id="path2899-6-93"
           style="fill:#ffffff;fill-opacity:1;stroke:#ffffff;stroke-width:0.817059;stroke-opacity:1"
           cx="-1.4704642"
           cy="-635.87061"
           rx="0.72768676"
           ry="0.57800448" />
        <ellipse
           id="path2899-6-3"
           style="fill:#ffffff;fill-opacity:1;stroke:#ffffff;stroke-width:0.817059;stroke-opacity:1"
           cx="28.427406"
           cy="-634.81116"
           rx="0.72768676"
           ry="0.57800448" />
        <ellipse
           id="path2899-6-85"
           style="fill:#ffffff;fill-opacity:1;stroke:#ffffff;stroke-width:0.817059;stroke-opacity:1"
           cx="-32.42675"
           cy="-649.62891"
           rx="0.72768676"
           ry="0.57800448" />
        <ellipse
           id="path2899-6-28"
           style="fill:#ffffff;fill-opacity:1;stroke:#ffffff;stroke-width:0.817059;stroke-opacity:1"
           cx="-31.632973"
           cy="-663.65283"
           rx="0.72768676"
           ry="0.57800448" />
        <ellipse
           id="path2899-6-19"
           style="fill:#ffffff;fill-opacity:1;stroke:#ffffff;stroke-width:0.817059;stroke-opacity:1"
           cx="-14.964249"
           cy="-663.38721"
           rx="0.72768676"
           ry="0.57800448" />
        <ellipse
           id="path2899-6-46"
           style="fill:#ffffff;fill-opacity:1;stroke:#ffffff;stroke-width:0.817059;stroke-opacity:1"
           cx="-1.7350826"
           cy="-663.38745"
           rx="0.72768676"
           ry="0.57800448" />
        <ellipse
           id="path2899-6-43"
           style="fill:#ffffff;fill-opacity:1;stroke:#ffffff;stroke-width:0.817059;stroke-opacity:1"
           cx="-14.69966"
           cy="-678.73328"
           rx="0.72768676"
           ry="0.57800448" />
        <ellipse
           id="path2899-6-35"
           style="fill:#ffffff;fill-opacity:1;stroke:#ffffff;stroke-width:0.817059;stroke-opacity:1"
           cx="-15.493415"
           cy="-649.62891"
           rx="0.72768676"
           ry="0.57800448" />
      </g>
    </g>
  </g>
</svg>
