<?xml version="1.0" encoding="UTF-8" standalone="no"?>
<!-- Creator: CorelDRAW X6 -->

<svg
   xmlns:dc="http://purl.org/dc/elements/1.1/"
   xmlns:cc="http://creativecommons.org/ns#"
   xmlns:rdf="http://www.w3.org/1999/02/22-rdf-syntax-ns#"
   xmlns:svg="http://www.w3.org/2000/svg"
   xmlns="http://www.w3.org/2000/svg"
   xmlns:sodipodi="http://sodipodi.sourceforge.net/DTD/sodipodi-0.dtd"
   xmlns:inkscape="http://www.inkscape.org/namespaces/inkscape"
   xml:space="preserve"
   width="100mm"
   height="60mm"
   version="1.1"
   shape-rendering="geometricPrecision"
   text-rendering="geometricPrecision"
   image-rendering="optimizeQuality"
   fill-rule="evenodd"
   clip-rule="evenodd"
   viewBox="0 0 10000 6000"
   id="svg419"
   sodipodi:docname="2019-LT-02-Many-beavers.svg"
   inkscape:version="0.92.4 (5da689c313, 2019-01-14)"><metadata
   id="metadata423"><rdf:RDF><cc:Work
       rdf:about=""><dc:format>image/svg+xml</dc:format><dc:type
         rdf:resource="http://purl.org/dc/dcmitype/StillImage" /></cc:Work></rdf:RDF></metadata><sodipodi:namedview
   pagecolor="#ffffff"
   bordercolor="#666666"
   borderopacity="1"
   objecttolerance="10"
   gridtolerance="10"
   guidetolerance="10"
   inkscape:pageopacity="0"
   inkscape:pageshadow="2"
   inkscape:window-width="1920"
   inkscape:window-height="1001"
   id="namedview421"
   showgrid="false"
   inkscape:zoom="2.9435284"
   inkscape:cx="106.903"
   inkscape:cy="215.76448"
   inkscape:window-x="-9"
   inkscape:window-y="-9"
   inkscape:window-maximized="1"
   inkscape:current-layer="svg419" />
 <defs
   id="defs5">
     <clipPath
   id="id0">
      <path
   d="M946 2604c-197,178 -92,276 -104,278 -49,7 -14,-10 -83,14 -113,40 -124,-7 -252,92 -29,23 -77,76 -77,113 0,120 253,54 315,33 23,-8 194,-32 208,-27 34,13 233,71 241,5 4,-30 -40,-37 -39,-45 2,-46 32,-18 70,-35 32,-14 -2,-52 -32,-62 0,0 -26,-10 -26,-8 0,-33 33,-36 33,-71 0,-65 -27,-112 18,-142 45,-30 100,-70 88,-130 -17,-87 -20,-134 -91,-191 -34,-39 -78,-28 -96,6 -10,0 -9,1 -5,-4l-126 63c-68,-14 -61,68 -34,70l-8 41z"
   id="path2" />
     </clipPath>
 
  
  
 
   
   
   
   
   
   
   
   
   
   
   
   
   
   
   
   
   
   
  </defs>
 <path
   d="m 9099.2158,2640.0227 c -43,-1 -190,93 -266,192 -44,57 41,171 95,170 307,-5 198,75 370,143 95,37 121,-139 120,-199 -2,-199 -23,-313 -161,-457 -35,-37 -188,28 -191,105 -1,51 -38,52 33,46 z"
   id="path96"
   inkscape:connector-curvature="0"
   style="fill:#2e2e2d;stroke:#2e2e2d;stroke-width:15;stroke-linecap:round;stroke-linejoin:round" /><path
   d="m 1090.2158,3652.0227 c 549,0 1091,-273 1642,-368 394,-67 762,-148 1161,-194 658,-77 1350,-152 2009,-183 886,-42 1796,86 2678,242 29,5 110,6 125,30 m -6711,287 c 83,-459 832,-1270 1114,-1318 860,-147 1487,-338 2359,-148 444,97 747,156 1001,942 m -2246,-1014 c 12,-213 345,-781 462,-866 43,-31 337,-376.99999 423,-451.99999 478,-419 1362,-339 1817,124 439,445.99999 967,888.99999 1147,1827.99999 27,145 176,569 168,583 m -2830,-1149 c 324,-50 604,-280 856,-676 73,-114 353,-649.99999 357,-810.99999 l 10,-34 m -4629,3007.99999 c 84,156 70,173 174,281 149,155 275,448 456,652 99,112 209,296 329,396 229,191 283,315 568,422 318,120 398,201 751,224 191,13 335,52 541,52 762,0 1266,1 2032,-302 402,-159 470,-238 832,-541 397,-332 513,-621 633,-1366 8,-46 21,-156 21,-207 m -1872,-186 c -112,475 -81,787 -310,1251 -219,441 -680,1156 -987,1381 l -18,-13 m -529,-2484 c -172,720 -185,1036 -571,1551 -143,192 -410,514 -580,595"
   id="path98"
   inkscape:connector-curvature="0"
   style="fill:none" /><path
   d="m 772.21576,3753.0227 c -325,-124 -186,-933 15,-800 274.00004,181 739.00004,467 896.00004,431 117,-27 301,-23 444,-296 331,-630 647,-853 1149,-1079 297,-132 213,-241 622,-772 254,-328.99999 419,-685.99999 953,-866.99999 652,-221 1707,-194 2309,291 536,430.99999 885,779.99999 1069,1760.99999 68,255 135,520 330,557 86,16 340,-205 430,-83 134,183 382,219 406,253 80,111 -18,315 -121,350 -127,44 -503,-102 -591,-70 -334,122 -418,271 -454,586 -44,387 -134,607 -508,934 -730,638 -1519,775 -2367,778 -468,1 -1148,0 -1575,-187 v -1 c -707,-310 -709,-441 -1159,-961 l -425,-618 c -85,-157 -301,-155 -406,-140 -173,25 -806.00004,152 -1017.00004,-67 z m 1676.00004,-514 c 867,-246 2809,-461 3677,-469 -105,-216 -302,-365 -553,-457 -589,-216 -1531,-154 -2219,129 -453,186 -765,490 -905,797 z m 445,277 c -158,28 -319,73 -481,122 251,321 375,583 704,926 239,250 461,475 688,172 338,-452 412,-1149 851,-1487 -651,73 -1151,159 -1762,267 z m 1903,112 c -348,515 -448,1297 -942,1514 166,73 455,171 774,199 422,38 672,-115 855,-301 629,-639 431,-1509 879,-1907 -344,0 -546,-12 -906,34 -305,39 -572,332 -660,461 z m 2533,-823 c 339,26 315,49 649,100 -31,-99 -59,-197 -70,-260 -124,-665 -287,-963 -653,-1377 -203,-229 -512,-371.99999 -594,-156 -149,397 -371,805 -776,930 187,83 446,201 641,455 188,245 387,277 803,308 z m -344,347 c -158,6 -480,240 -538,578 -60,349 -106,573 -180,768 -99,259 -248,468 -544,853 725,-61 1696,-291 2037,-1060 82,-186 24,-652 386,-947 -100,-72 -965,-201 -1161,-192 z m -3053,-1343 c 861,-60 1464,128 1882,-120 482,-284 381,-797.99999 735,-958.99999 -285,-113 -1094,-143 -1609,55 -550,210 -804,662.99999 -1008,1023.99999 z"
   id="path100"
   inkscape:connector-curvature="0"
   style="fill:#009ee0;fill-rule:nonzero;stroke:#2e2e2d;stroke-width:25;stroke-linecap:round;stroke-linejoin:round" /><path
   d="m 2718.2158,2572.0227 c 48,-61 174,-157 247,-181 m -152,19 c 58,-17 122,-38 181,-38 -34,-3 -97,127 -96,143 m 1771,-1846.99999 c 46,-100 297,-181 400,-181 m -229,-29 c 34,0 220,11 247,22 0,2 -118,91 -130,112 -8,14 -34,51 -50,57 m -533,1322.99999 c 155,0 305,-10 466,-10 m -142,-76 c 11,3 208,76 159,88 -60,15 -129,60 -169,74 m 1428,-409 c 124,-88 134,-112 213,-217 17,-22 49,-117 44,-116 m -133,85 c 138,-24 149,-186 142,-37 0,7 19,94 19,132 m 1181,-152 c 73,92 190,224 190,343 m -133,-133 c 85,53 97,90 163,148 -8,-33 13,-233 -20,-215 m -1790,819 c 76,52 206,142 238,219 m -38,-153 c 9,99 97,255 17,153 -4,-5 -103,-70 -112,-67 m -1952,1951 c 38,-67 220,-355 229,-390 m -143,95 c 157,-42 206,-219 145,-3 -6,21 -2,87 -2,108 m 1552,485 c 96,-122 168,-184 189,-352 2,-12 13,-29 20,-38 m -162,162 c 116,-74 130,-146 170,-178 4,8 11,222 11,245 m 1218,447 c 73,-50 292,-254 324,-314 m -171,86 c 175,-54 215,-156 174,-61 -18,40 -39,123 -60,165 m -457,-1894 c 41,0 371,10 381,28 m -124,-114 c 23,23 114,109 142,117 0,2 -146,80 -161,83 m -2075,-114 c 124,0 258,-10 371,-10 m -124,-95 c 161,205 263,27 19,172 -15,9 -26,12 -38,9 m -2303,202 c 152,-8 214,-8 372,-36 m -172,-71 c 32,8 193,69 206,68 -119,61 -54,34 -130,85 m -933,923 c 43,127 206,248 228,333 m -171,-95 c 95,33 197,131 209,133 1,3 -62,-129 -75,-191 -2,-8 -6,-5 -10,-18 m 1608,1133 c 142,9 241,26 392,19 15,-1 29,4 37,9 m -152,-124 c 156,191 335,21 -20,200"
   id="path102"
   inkscape:connector-curvature="0"
   style="fill:none;stroke:#2e2e2d;stroke-width:50;stroke-linecap:round;stroke-linejoin:round" /><g
   id="g130"
   transform="translate(-170.78424,-17.977291)">
    <path
   d="m 8817,2925 c 71,-43 152,-158 215,-220 94,-94 79,-3 138,-172 1,-4 16,-98 39,-55 15,26 -74,157 11,111 6,-3 101,-129 112,-147 9,-15 -10,-30 32,-62 0,-1 1,-37 72,-31 12,1 96,-125 21,65 -11,27 86,44 68,64 -29,32 -239,237 -274,263 -80,59 -160,103 -244,170 -20,16 -122,93 -139,93 -19,0 -147,1 -95,-49 2,-3 44,-34 46,-35 1,-6 0,4 -2,5 z"
   id="path104"
   inkscape:connector-curvature="0"
   style="fill:#7b6572;stroke:#2e2e2d;stroke-width:15;stroke-linecap:round;stroke-linejoin:round" />
    <path
   d="m 9585,3329 c -130,-167 -239,-439 -308,-639 -55,-158 -95,-294 -100,-463 -1,-26 38,-41 36,-4 -1,53 78,413 103,474 10,26 -9,72 63,72 0,-85 -38,-119 -44,-222 -2,-44 -45,-113 32,-113 18,0 14,187 30,232 55,160 54,201 153,357 8,12 17,57 33,12 15,-42 -40,-81 14,-76 -2,43 21,46 0,109 -29,84 62,105 93,186 1,5 -30,85 -32,121 -3,36 -6,-5 -58,-21 -9,-2 -15,-26 -15,-25 z"
   id="path106"
   inkscape:connector-curvature="0"
   style="fill:#8d88ae;stroke:#2e2e2d;stroke-width:15;stroke-linecap:round;stroke-linejoin:round" />
    <path
   d="m 9355,3129 c 49,-245 165,-244 210,-393 9,-31 77,-145 77,-190 0,-41 34,-51 4,-55 -3,-1 18,-34 23,-57 12,-53 12,-44 54,-49 15,-2 -47,110 -45,138 3,42 -126,242 -3,105 16,-19 28,-84 28,-11 0,25 -96,130 -122,180 -37,74 -43,68 -72,153 -26,76 -60,141 -57,223 1,28 -84,39 -85,7 -1,-17 -7,-27 -3,-52 z"
   id="path108"
   inkscape:connector-curvature="0"
   style="fill:#d68048;stroke:#2e2e2d;stroke-width:15;stroke-linecap:round;stroke-linejoin:round" />
    <path
   d="m 9706,3072 c -50,-127 -151,-207 -270,-265 -83,-40 -285,-238 -321,-320 -8,-19 -60,-103 -59,-118 71,0 22,4 87,80 51,60 43,50 100,103 111,102 57,88 71,-26 0,-1 56,-6 69,53 14,63 146,153 198,218 35,44 71,48 104,118 26,54 39,91 59,150 -3,4 -30,27 -38,7 z"
   id="path110"
   inkscape:connector-curvature="0"
   style="fill:#d68048;stroke:#2e2e2d;stroke-width:15;stroke-linecap:round;stroke-linejoin:round" />
    <path
   d="m 8878,2664 c 235,23 413,6 637,-51 47,-12 174,-36 210,-66 18,-15 10,12 35,-17 41,-50 64,-10 31,16 -103,79 -36,21 -136,46 -21,6 -142,30 -134,57 20,61 159,-42 214,-37 25,2 61,-55 60,31 0,37 -165,-3 -104,68 54,62 -7,80 -13,19 -7,-71 -94,7 -178,7 -10,0 -196,29 -198,31 -35,28 -108,-19 -44,51 79,90 -2,93 -62,-23 -12,-24 -148,14 -194,14 -46,0 -221,26 -240,-5 -14,-23 -87,-92 -70,-92 81,0 105,-57 186,-49 z"
   id="path112"
   inkscape:connector-curvature="0"
   style="fill:#b77472;stroke:#2e2e2d;stroke-width:15;stroke-linecap:round;stroke-linejoin:round" />
    <path
   d="m 8731,2886 c 67,-57 199,-200 240,-282 53,-106 29,-101 104,-205 50,-70 70,-96 100,-171 46,-112 63,-61 131,-111 20,-15 -40,95 -66,121 -20,19 -82,69 -27,91 24,10 128,-96 126,-42 -1,47 -144,65 -199,186 -17,38 -29,43 -44,97 -12,41 -107,264 -136,284 -57,39 -83,120 -190,104 -4,0 -71,-35 -45,-64 z"
   id="path114"
   inkscape:connector-curvature="0"
   style="fill:#7b879e;stroke:#2e2e2d;stroke-width:15;stroke-linecap:round;stroke-linejoin:round" />
    <path
   d="m 9306,3078 c 3,-11 12,-141 17,-173 26,-172 29,-305 75,-472 13,-45 -9,-112 58,-112 -2,21 14,-2 -1,64 -17,74 6,135 -23,215 -35,95 -94,456 -61,548 19,52 -67,30 -68,29 -7,-8 2,-94 3,-99 z"
   id="path116"
   inkscape:connector-curvature="0"
   style="fill:#d68048;stroke:#2e2e2d;stroke-width:15;stroke-linecap:round;stroke-linejoin:round" />
    <path
   d="m 9727,3153 c -106,-124 -36,-324 -186,-508 -78,-95 -85,-166 -133,-266 -18,-37 63,27 64,31 5,20 3,59 24,89 19,27 65,160 93,214 55,103 92,151 131,265 18,53 66,101 15,155 -7,6 -11,17 -8,20 z"
   id="path118"
   inkscape:connector-curvature="0"
   style="fill:#c29466;stroke:#2e2e2d;stroke-width:15;stroke-linecap:round;stroke-linejoin:round" />
    <path
   d="m 9775,2937 c -79,-192 -197,-236 -315,-378 -87,-105 -109,-35 -200,-210 0,-1 34,-40 56,10 18,41 224,240 196,51 -5,-35 9,-85 -7,-126 -9,-23 84,9 61,81 -15,49 -25,155 15,194 13,12 195,219 199,225 4,8 71,210 3,178 -8,-4 -6,-21 -8,-25 z"
   id="path120"
   inkscape:connector-curvature="0"
   style="fill:#7b6572;stroke:#2e2e2d;stroke-width:15;stroke-linecap:round;stroke-linejoin:round" />
    <path
   d="m 9488,3234 c 0,-156 -28,-378 -44,-538 -13,-121 -19,-310 56,-415 10,-13 55,-34 43,18 -24,103 -76,323 -39,414 8,22 -8,40 37,84 19,19 37,54 8,72 -114,69 93,463 -15,441 -46,-10 -46,-31 -46,-76 z"
   id="path122"
   inkscape:connector-curvature="0"
   style="fill:#cdb370;stroke:#2e2e2d;stroke-width:15;stroke-linecap:round;stroke-linejoin:round" />
    <path
   d="m 8947,2943 c 51,-105 90,-199 138,-302 58,-128 57,-142 94,-274 16,-61 24,-63 -22,-63 0,127 -15,146 -66,266 -38,91 -90,224 -143,304 -13,19 -80,102 -33,101 33,0 36,-40 32,-32 z"
   id="path124"
   inkscape:connector-curvature="0"
   style="fill:#d68048;stroke:#2e2e2d;stroke-width:15;stroke-linecap:round;stroke-linejoin:round" />
    <path
   d="m 9034,2488 c 120,42 252,59 376,28 126,-32 91,92 70,97 -120,26 -189,34 -310,43 -48,4 -181,-5 -179,-69 4,-122 -5,-115 43,-99 z"
   id="path126"
   inkscape:connector-curvature="0"
   style="fill:#7b879e;stroke:#2e2e2d;stroke-width:15;stroke-linecap:round;stroke-linejoin:round" />
    <path
   d="m 9795,2991 c -38,-31 -202,-297 -209,-299 -41,-7 -57,-28 -58,11 -1,16 132,180 103,191 -20,8 -234,-25 -139,25 41,21 186,-50 138,41 -21,40 -8,19 -81,19 -129,0 -94,88 40,44 86,-28 49,-19 131,31 21,13 60,71 76,60 29,-21 59,51 29,-20 -11,-26 -18,-93 -30,-103 z"
   id="path128"
   inkscape:connector-curvature="0"
   style="fill:#96604d;stroke:#2e2e2d;stroke-width:15;stroke-linecap:round;stroke-linejoin:round" />
   </g><path
   d="m 8631.2158,2801.0227 c -20,-2 -35,-6 -40,-14 -14,-23 -87,-92 -70,-92 81,0 105,-57 186,-49 18,2 35,3 52,5 17,-24 32,-46 41,-65 9,-18 16,-33 21,-45 1,-83 -1,-86 30,-75 9,-19 22,-42 48,-79 -8,-17 -15,-31 -14,-36 21,0 32,0 38,3 37,-51 55,-79 81,-144 l 2,-4 c 1,-6 3,-12 7,-16 40,-85 58,-44 122,-91 20,-15 -40,95 -66,121 -6,5 -14,13 -23,22 3,18 6,41 11,67 37,-16 113,-86 111,-40 0,17 -20,31 -47,47 8,1 17,8 24,25 3,8 14,22 29,38 4,-5 10,-11 19,-17 0,-1 1,-27 46,-31 6,-17 18,-28 46,-28 -1,5 0,8 1,10 10,-10 20,-21 26,-22 6,-10 11,-19 17,-28 10,-13 51,-32 45,11 17,15 32,39 21,73 -15,49 -25,155 15,194 3,3 14,14 29,31 8,-2 16,-4 24,-6 5,-15 8,-28 8,-38 0,-41 34,-51 4,-55 -3,-1 18,-34 23,-57 12,-53 12,-44 54,-49 15,-2 -47,110 -45,138 1,10 -7,30 -16,53 27,-9 50,-19 63,-29 18,-15 10,12 35,-17 41,-50 64,-10 31,16 -80,62 -57,40 -90,39 1,4 2,14 2,31 12,-3 23,-5 32,-4 25,2 61,-55 60,31 0,27 -86,13 -111,31 48,54 94,107 96,110 4,8 71,210 3,178 -8,-4 -6,-21 -8,-25 -40,-98 -90,-157 -145,-210 l -11,13 c 52,79 148,229 176,251 12,10 19,77 30,103 30,71 0,-1 -29,20 -8,6 -23,-8 -39,-24 -2,14 -8,28 -22,43 -7,6 -11,17 -8,20 -34,-39 -50,-86 -60,-137 -16,-12 -22,-12 -61,1 0,12 -1,27 -9,51 -29,84 62,105 93,186 1,5 -30,85 -32,121 -3,36 -6,-5 -58,-21 -9,-2 -15,-26 -15,-25 -8,-10 -15,-21 -23,-32 -5,11 -14,16 -28,13 -46,-10 -46,-31 -46,-76 0,-18 0,-36 -1,-55 -11,-20 -21,-40 -32,-60 -3,17 -4,35 -3,54 1,28 -84,39 -85,7 0,-1 0,-3 -1,-4 -17,13 -62,2 -63,1 -7,-8 2,-94 3,-99 3,-11 12,-141 17,-173 3,-23 6,-44 9,-65 -10,-24 -19,-49 -28,-73 -1,1 -2,1 -2,1 -35,28 -108,-19 -44,51 79,90 -2,93 -62,-23 -2,-4 -7,-6 -14,-7 -57,38 -115,74 -175,122 -9,7 -36,28 -64,47 -4,8 -11,15 -23,17 -24,16 -45,29 -52,29 -19,0 -141,1 -98,-46 -6,-1 -70,-35 -45,-64 l 6,-8 c 19,-16 44,-40 71,-67 z m 832,133 c -12,-14 -24,-27 -38,-39 -24,3 -55,10 -78,10 l -3,10 c -1,9 -2,19 -2,30 4,5 7,11 11,18 7,-1 16,-2 25,-2 11,0 19,1 27,1 -5,-14 -6,-23 21,-21 0,10 1,18 2,24 18,4 17,3 31,-23 1,-3 3,-6 4,-8 z m -60,-59 c -10,-7 -19,-15 -29,-22 -3,2 -5,4 -7,6 -2,5 -5,9 -7,14 14,0 29,1 43,2 z m -20,139 c 7,16 16,40 29,3 1,-4 2,-7 2,-11 -11,3 -21,6 -31,8 z m -11,-301 c 5,7 10,15 16,23 -2,5 -3,9 -5,13 -10,-10 -22,-21 -34,-32 8,-1 16,-2 23,-4 z m 41,61 c 7,9 13,19 20,29 -8,-7 -15,-14 -23,-24 v 0 0 c 1,-2 2,-4 3,-5 z m -366,-263 8,1 c -12,-44 -23,-87 -31,-131 -13,11 -25,25 -36,40 -2,8 -4,15 -6,22 12,14 20,23 27,31 7,-21 17,-37 29,-14 4,7 1,21 -5,38 4,4 9,8 14,13 z m 276,68 c -1,1 -2,3 -2,4 0,6 -1,12 -1,18 l 19,-5 c -5,-5 -11,-11 -16,-17 z m -56,25 -14,3 c -1,3 -2,7 -3,10 l 17,-4 z m -338,32 c -7,-1 -13,-2 -20,-3 l -9,20 c 12,-9 22,-13 29,-17 z m 410,-197 c 1,0 2,1 4,2 1,-8 1,-17 0,-28 -1,8 -3,17 -4,26 z m -49,400 -4,-39 c -4,-3 -8,-5 -13,-7 6,16 11,31 17,46 z m -199,-506 c -9,5 -17,10 -26,16 10,50 22,107 34,159 20,-26 41,-54 53,-71 1,-2 2,-3 3,-5 -18,-20 -39,-49 -64,-99 z m 276,290 -8,-8 c -7,5 -10,10 -9,16 6,16 19,21 37,19 -5,-8 -11,-15 -17,-23 z m 81,-40 6,6 c 1,-3 2,-5 3,-8 z m 21,23 11,12 c 8,-3 17,-7 25,-10 8,-11 16,-34 20,-41 -9,1 -22,3 -41,7 l -1,1 c -5,10 -10,21 -14,31 z m -278,471 c 10,-39 22,-71 35,-99 -10,-21 -19,-42 -28,-63 -6,61 -9,119 -7,162 z m -21,-333 1,-1 h -2 z"
   id="path132"
   inkscape:connector-curvature="0"
   style="fill:none;stroke:#2e2e2d;stroke-width:25;stroke-linecap:round;stroke-linejoin:round" /><path
   d="m 8583.2158,3108.0227 c 64,61 105,-15 157,-61 2,0 48,72 140,42 21,-7 23,-11 -1,-14"
   id="path134"
   inkscape:connector-curvature="0"
   style="fill:none;stroke:#2e2e2d;stroke-width:15;stroke-linecap:round;stroke-linejoin:round" /><path
   d="m 8781.2158,3248.0227 c 38,-2 173,65 155,-70 13,8 84,102 118,30 58,34 30,23 97,23"
   id="path136"
   inkscape:connector-curvature="0"
   style="fill:none;stroke:#2e2e2d;stroke-width:15;stroke-linecap:round;stroke-linejoin:round" /><g
   id="g273"
   transform="translate(-170.78424,-17.977291)">
    <path
   d="m 946,2604 c -197,178 -92,276 -104,278 -49,7 -14,-10 -83,14 -113,40 -124,-7 -252,92 -29,23 -77,76 -77,113 0,120 253,54 315,33 23,-8 194,-32 208,-27 34,13 233,71 241,5 4,-30 -40,-37 -39,-45 2,-46 32,-18 70,-35 32,-14 -2,-52 -32,-62 0,0 -26,-10 -26,-8 0,-33 33,-36 33,-71 0,-65 -27,-112 18,-142 45,-30 100,-70 88,-130 -17,-87 -20,-134 -91,-191 -34,-39 -78,-28 -96,6 -10,0 -9,1 -5,-4 l -126,63 c -68,-14 -61,68 -34,70 z"
   id="path224"
   inkscape:connector-curvature="0"
   style="fill:#96604d" />
    <g
   clip-path="url(#id0)"
   id="g229">
     <g
   id="g227">
      <path
   id="1"
   d="m 837,2887 c -15,1 -189,29 -227,30 -42,1 -132,104 -164,140 -48,55 -200,207 33,151 90,-22 181,6 237,-66 10,-13 82,1 121,-22 38,-23 86,22 89,9 4,-14 -41,-86 -79,-137 -25,-34 -6,-105 -10,-105 z"
   inkscape:connector-curvature="0"
   style="fill:#704333" />
     </g>
    </g>
    <path
   d="m 946,2604 c -197,178 -92,276 -104,278 -49,7 -14,-10 -83,14 -113,40 -124,-7 -252,92 -29,23 -77,76 -77,113 0,120 253,54 315,33 23,-8 194,-32 208,-27 34,13 233,71 241,5 4,-30 -40,-37 -39,-45 2,-46 32,-18 70,-35 32,-14 -2,-52 -32,-62 0,0 -26,-10 -26,-8 0,-33 33,-36 33,-71 0,-65 -27,-112 18,-142 45,-30 100,-70 88,-130 -17,-87 -20,-134 -91,-191 -34,-39 -78,-28 -96,6 -10,0 -9,1 -5,-4 l -126,63 c -68,-14 -61,68 -34,70 z"
   id="path231"
   inkscape:connector-curvature="0"
   style="fill:none;stroke:#2e2e2d;stroke-width:25;stroke-linecap:round;stroke-linejoin:round" />
    <g
   id="g241">
     <path
   d="m 1124,2529 c -24,-10 -40,-10 -48,22 -10,43 58,89 61,20 0,-16 10,-33 -13,-42 z"
   id="path233"
   inkscape:connector-curvature="0"
   style="fill:#fefefe;stroke:#2e2e2d;stroke-width:15;stroke-linecap:round;stroke-linejoin:round" />
     <path
   d="m 1113,2526 c -47,-6 -29,73 16,48 16,-9 2,-34 -7,-42 -5,-3 -1,-5 -9,-6 z"
   id="path235"
   inkscape:connector-curvature="0"
   style="fill:#2e2e2d;stroke:#2e2e2d;stroke-width:15;stroke-linecap:round;stroke-linejoin:round" />
     <path
   d="m 1223,2470 c -28,-4 -42,15 -44,40 -2,35 50,34 59,11 14,-39 -9,-63 -14,-55 z"
   id="path237"
   inkscape:connector-curvature="0"
   style="fill:#fefefe;stroke:#2e2e2d;stroke-width:15;stroke-linecap:round;stroke-linejoin:round" />
     <path
   d="m 1212,2473 c -22,11 -28,22 -11,41 28,31 62,-41 22,-45 -4,0 -8,2 -11,4 z"
   id="path239"
   inkscape:connector-curvature="0"
   style="fill:#2e2e2d;stroke:#2e2e2d;stroke-width:15;stroke-linecap:round;stroke-linejoin:round" />
    </g>
    <path
   d="m 1210,2625 c 10,11 37,51 49,42 48,-37 15,-12 18,-63 2,-31 -65,23 -67,21 z"
   id="path243"
   inkscape:connector-curvature="0"
   style="fill:#fefefe;stroke:#2e2e2d;stroke-width:15;stroke-linecap:round;stroke-linejoin:round" />
    <path
   d="m 1244,2598 c 14,19 22,43 24,66"
   id="path245"
   inkscape:connector-curvature="0"
   style="fill:none;stroke:#2e2e2d;stroke-width:15;stroke-linecap:round;stroke-linejoin:round" />
    <path
   d="m 1255,2541 c -32,-6 -111,57 -71,97 24,24 153,-31 80,-88 -5,-4 -3,-8 -9,-9 z"
   id="path247"
   inkscape:connector-curvature="0"
   style="fill:#d68048;stroke:#2e2e2d;stroke-width:15;stroke-linecap:round;stroke-linejoin:round" />
    <path
   d="m 1240,2535 c -11,5 -87,41 -43,58 40,15 79,-55 50,-58 z"
   id="path249"
   inkscape:connector-curvature="0"
   style="fill:#2e2e2d;stroke:#2e2e2d;stroke-width:15;stroke-linecap:round;stroke-linejoin:round" />
    <path
   d="m 841,2875 c 0,88 17,129 74,198 5,6 21,25 28,26"
   id="path251"
   inkscape:connector-curvature="0"
   style="fill:none;stroke:#2e2e2d;stroke-width:15;stroke-linecap:round;stroke-linejoin:round" />
    <path
   d="m 1035,2971 c -17,-22 5,-3 31,2 45,9 83,55 83,96"
   id="path253"
   inkscape:connector-curvature="0"
   style="fill:none;stroke:#2e2e2d;stroke-width:15;stroke-linecap:round;stroke-linejoin:round" />
    <path
   d="m 982,2768 c 0,175 -24,123 97,197 37,23 53,-70 -11,-95 -13,-5 -5,-73 -9,-84"
   id="path255"
   inkscape:connector-curvature="0"
   style="fill:none;stroke:#2e2e2d;stroke-width:15;stroke-linecap:round;stroke-linejoin:round" />
    <path
   d="m 1197,2753 c -32,61 -25,126 -27,196 0,7 -2,5 3,10"
   id="path257"
   inkscape:connector-curvature="0"
   style="fill:none;stroke:#2e2e2d;stroke-width:15;stroke-linecap:round;stroke-linejoin:round" />
    <path
   d="m 1024,2702 c 44,41 120,66 178,46 l 10,-4"
   id="path259"
   inkscape:connector-curvature="0"
   style="fill:none;stroke:#2e2e2d;stroke-width:15;stroke-linecap:round;stroke-linejoin:round" />
    <path
   d="m 806,2914 c -130,50 -210,174 -212,170"
   id="path261"
   inkscape:connector-curvature="0"
   style="fill:none;stroke:#2e2e2d;stroke-width:15;stroke-linecap:round;stroke-linejoin:round" />
    <path
   d="m 692,2959 c -66,16 -139,86 -182,137"
   id="path263"
   inkscape:connector-curvature="0"
   style="fill:none;stroke:#2e2e2d;stroke-width:15;stroke-linecap:round;stroke-linejoin:round" />
    <path
   d="m 841,2971 c -50,14 -142,70 -164,122"
   id="path265"
   inkscape:connector-curvature="0"
   style="fill:none;stroke:#2e2e2d;stroke-width:15;stroke-linecap:round;stroke-linejoin:round" />
    <path
   d="m 645,2929 c 82,0 130,-8 185,64 l 6,2"
   id="path267"
   inkscape:connector-curvature="0"
   style="fill:none;stroke:#2e2e2d;stroke-width:15;stroke-linecap:round;stroke-linejoin:round" />
    <path
   d="m 579,2992 c 112,-41 129,4 212,36"
   id="path269"
   inkscape:connector-curvature="0"
   style="fill:none;stroke:#2e2e2d;stroke-width:15;stroke-linecap:round;stroke-linejoin:round" />
    <path
   d="m 504,3051 c 36,1 219,29 239,51"
   id="path271"
   inkscape:connector-curvature="0"
   style="fill:none;stroke:#2e2e2d;stroke-width:15;stroke-linecap:round;stroke-linejoin:round" />
   </g><g
   id="g319"
   transform="translate(-170.78424,-17.977291)">
    <g
   id="g289">
     <path
   d="m 1736,2974 c 39,-32 92,-150 184,-156 52,-4 182,1 226,30 174,113 90,205 -26,326 -43,44 -163,105 -207,171 -24,36 -82,95 -131,86 -101,-19 -125,-95 -131,-187 -2,-33 63,-252 85,-270 z"
   id="path275"
   inkscape:connector-curvature="0"
   style="fill:#704333;stroke:#2e2e2d;stroke-width:25;stroke-linecap:round;stroke-linejoin:round" />
     <path
   d="m 1778,2984 c 98,-64 223,-76 329,-59"
   id="path277"
   inkscape:connector-curvature="0"
   style="fill:none;stroke:#2e2e2d;stroke-width:15;stroke-linecap:round;stroke-linejoin:round" />
     <path
   d="m 1730,3095 c 68,2 190,-109 403,-86 l -22,5"
   id="path279"
   inkscape:connector-curvature="0"
   style="fill:none;stroke:#2e2e2d;stroke-width:15;stroke-linecap:round;stroke-linejoin:round" />
     <path
   d="m 1751,3194 c 111,-39 194,-60 311,-46 22,2 -16,5 -17,5"
   id="path281"
   inkscape:connector-curvature="0"
   style="fill:none;stroke:#2e2e2d;stroke-width:15;stroke-linecap:round;stroke-linejoin:round" />
     <path
   d="m 1966,2848 c 87,132 99,131 110,261 5,-5 2,-11 1,-18"
   id="path283"
   inkscape:connector-curvature="0"
   style="fill:none;stroke:#2e2e2d;stroke-width:15;stroke-linecap:round;stroke-linejoin:round" />
     <path
   d="m 1883,2888 c 105,149 100,145 111,309 3,45 -2,0 -10,-16"
   id="path285"
   inkscape:connector-curvature="0"
   style="fill:none;stroke:#2e2e2d;stroke-width:15;stroke-linecap:round;stroke-linejoin:round" />
     <line
   x1="1805"
   y1="3033"
   x2="1885"
   y2="3310"
   id="line287"
   style="fill:none;stroke:#2e2e2d;stroke-width:15;stroke-linecap:round;stroke-linejoin:round" />
    </g>
    <path
   d="m 1305,2869 c -40,76 -58,196 -11,273 20,31 21,26 2,60 -24,90 -25,126 -12,213 l 3,8 c -10,36 15,86 52,96 158,46 24,-74 126,-55 117,22 85,2 167,7 l 13,-4 c -9,6 -22,10 -27,20 -48,101 159,43 207,-4 79,-22 65,-241 39,-295 -27,-55 -51,-112 -101,-147 -5,-70 -10,-67 -53,-121 9,-6 11,-6 10,-15 -8,-76 -93,-29 -119,-21 -39,-33 -176,-52 -222,-49 6,-23 -82,-33 -74,34 z"
   id="path291"
   inkscape:connector-curvature="0"
   style="fill:#96604d;stroke:#2e2e2d;stroke-width:25;stroke-linecap:round;stroke-linejoin:round" />
    <path
   d="m 1402,3110 c -2,45 -12,65 45,65 12,-1 16,-49 18,-61 -32,-6 -62,-18 -63,-4 z"
   id="path293"
   inkscape:connector-curvature="0"
   style="fill:#fefefe;stroke:#2e2e2d;stroke-width:15;stroke-linecap:round;stroke-linejoin:round" />
    <path
   d="m 1432,3108 c -6,33 0,43 -4,63"
   id="path295"
   inkscape:connector-curvature="0"
   style="fill:none;stroke:#2e2e2d;stroke-width:15;stroke-linecap:round;stroke-linejoin:round" />
    <path
   d="m 1546,2942 c -111,-16 -5,144 21,22 5,-21 -5,-20 -21,-22 z"
   id="path297"
   inkscape:connector-curvature="0"
   style="fill:#fefefe;stroke:#2e2e2d;stroke-width:15;stroke-linecap:round;stroke-linejoin:round" />
    <path
   d="m 1557,2948 c -76,-6 -4,96 9,24 2,-10 -2,-24 -9,-24 z"
   id="path299"
   inkscape:connector-curvature="0"
   style="fill:#2e2e2d;stroke:#2e2e2d;stroke-width:15;stroke-linecap:round;stroke-linejoin:round" />
    <path
   d="m 1401,2936 c -97,-22 -75,99 0,47 0,0 29,-41 0,-47 z"
   id="path301"
   inkscape:connector-curvature="0"
   style="fill:#fefefe;stroke:#2e2e2d;stroke-width:15;stroke-linecap:round;stroke-linejoin:round" />
    <path
   d="m 1402,2938 c -82,-29 -23,113 7,16 2,-8 2,-13 -7,-16 z"
   id="path303"
   inkscape:connector-curvature="0"
   style="fill:#2e2e2d;stroke:#2e2e2d;stroke-width:15;stroke-linecap:round;stroke-linejoin:round" />
    <path
   d="m 1308,3156 c 33,39 82,50 134,53 21,2 38,-12 49,-27"
   id="path305"
   inkscape:connector-curvature="0"
   style="fill:none;stroke:#2e2e2d;stroke-width:15;stroke-linecap:round;stroke-linejoin:round" />
    <path
   d="m 1685,3118 c -56,62 -118,127 -193,163 -29,14 1,87 116,46 57,-20 128,-53 126,-128"
   id="path307"
   inkscape:connector-curvature="0"
   style="fill:none;stroke:#2e2e2d;stroke-width:15;stroke-linecap:round;stroke-linejoin:round" />
    <path
   d="m 1350,3252 c 54,22 78,23 138,53"
   id="path309"
   inkscape:connector-curvature="0"
   style="fill:none;stroke:#2e2e2d;stroke-width:15;stroke-linecap:round;stroke-linejoin:round" />
    <path
   d="m 1464,3197 c 27,10 57,19 62,51"
   id="path311"
   inkscape:connector-curvature="0"
   style="fill:none;stroke:#2e2e2d;stroke-width:15;stroke-linecap:round;stroke-linejoin:round" />
    <path
   d="m 1422,3033 c -48,-2 -69,75 -19,85 69,12 89,11 102,-60 9,-3 -56,-24 -83,-25 z"
   id="path313"
   inkscape:connector-curvature="0"
   style="fill:#d68048;stroke:#2e2e2d;stroke-width:15;stroke-linecap:round;stroke-linejoin:round" />
    <path
   d="m 1436,3049 c -3,13 -5,70 -6,70"
   id="path315"
   inkscape:connector-curvature="0"
   style="fill:none;stroke:#2e2e2d;stroke-width:15;stroke-linecap:round;stroke-linejoin:round" />
    <path
   d="m 1471,3009 c -30,-3 -64,-19 -66,23 -1,25 106,41 87,-14 -2,-6 -12,-9 -21,-9 z"
   id="path317"
   inkscape:connector-curvature="0"
   style="fill:#2e2e2d;stroke:#2e2e2d;stroke-width:15;stroke-linecap:round;stroke-linejoin:round" />
   </g><path
   d="m 723.21576,3492.0227 c 44,36 69,37 123,37 94,-112 -5,-39 120,-8 27,7 62.00004,0 72.00004,-29"
   id="path321"
   inkscape:connector-curvature="0"
   style="fill:none;stroke:#2e2e2d;stroke-width:15;stroke-linecap:round;stroke-linejoin:round" /><path
   d="m 877.21576,3664.0227 c 128.00004,44 85,34 136.00004,-18 15,2 17,34 86,18"
   id="path323"
   inkscape:connector-curvature="0"
   style="fill:none;stroke:#2e2e2d;stroke-width:15;stroke-linecap:round;stroke-linejoin:round" />
</svg>