<?xml version="1.0" encoding="UTF-8" standalone="no"?>
<!-- Created with Inkscape (http://www.inkscape.org/) -->

<svg
   xmlns:dc="http://purl.org/dc/elements/1.1/"
   xmlns:cc="http://creativecommons.org/ns#"
   xmlns:rdf="http://www.w3.org/1999/02/22-rdf-syntax-ns#"
   xmlns:svg="http://www.w3.org/2000/svg"
   xmlns="http://www.w3.org/2000/svg"
   xmlns:sodipodi="http://sodipodi.sourceforge.net/DTD/sodipodi-0.dtd"
   xmlns:inkscape="http://www.inkscape.org/namespaces/inkscape"
   width="40mm"
   height="120mm"
   viewBox="0 0 40 120"
   version="1.1"
   id="svg2161"
   sodipodi:docname="2019-CH-11_clouds_slsls.svg"
   inkscape:version="0.92.2 (5c3e80d, 2017-08-06)">
  <defs
     id="defs2155" />
  <sodipodi:namedview
     id="base"
     pagecolor="#ffffff"
     bordercolor="#666666"
     borderopacity="1.0"
     inkscape:pageopacity="0.0"
     inkscape:pageshadow="2"
     inkscape:zoom="1.8146007"
     inkscape:cx="-77.335655"
     inkscape:cy="226.77165"
     inkscape:document-units="mm"
     inkscape:current-layer="layer1"
     showgrid="false"
     inkscape:window-width="1680"
     inkscape:window-height="987"
     inkscape:window-x="-8"
     inkscape:window-y="222"
     inkscape:window-maximized="1"
     inkscape:snap-global="false" />
  <metadata
     id="metadata2158">
    <rdf:RDF>
      <cc:Work
         rdf:about="">
        <dc:format>image/svg+xml</dc:format>
        <dc:type
           rdf:resource="http://purl.org/dc/dcmitype/StillImage" />
        <dc:title />
      </cc:Work>
    </rdf:RDF>
  </metadata>
  <g
     inkscape:label="Layer 1"
     inkscape:groupmode="layer"
     id="layer1"
     transform="translate(0,-177)">
    <g
       transform="matrix(0.5873735,0,0,0.5873735,-55.651087,196.78008)"
       id="g1897">
      <path
         sodipodi:nodetypes="scsccscsccscccccccs"
         inkscape:connector-curvature="0"
         id="path815-0"
         d="m 134.39325,44.865208 c -5.34109,0.01185 -16.74407,-3.551296 -19.26868,-7.002324 -4.83551,0.723895 -10.61427,-1.02841 -12.75131,-4.37187 -0.4016,-0.628309 -0.0446,-2.029033 0.38979,-3.040493 -8.977823,2.570231 -11.684019,-16.501253 -0.24912,-14.696614 0.86221,-2.163042 4.02003,-3.290205 8.09264,-4.013847 5.25116,-0.933045 8.82599,-1.452103 11.62951,1.261311 0.80764,-0.632896 1.89567,-1.329312 3.35351,-2.089586 2.09865,-1.094472 6.75042,-0.358828 7.60208,1.161667 0.98838,-1.178829 2.78655,-2.5796579 5.57402,-3.1247963 3.12644,-0.6114336 6.61927,0.2824689 6.27523,2.9452353 -0.0515,0.398235 -0.18902,0.995908 -0.12873,0.766968 3.32894,-3.0444432 12.84027,-3.6091377 11.42306,3.650336 -0.16737,0.857313 -0.51872,1.653298 -0.97135,2.351271 6.24637,0.322386 11.73606,13.075236 1.914,14.687854 -1.61678,0.250127 -3.42998,0.100961 -4.80351,-0.262224 5.75472,7.712098 -8.57877,5.519034 -10.57071,4.329717 0.26935,2.401431 -2.66603,6.797878 -6.27522,7.362551 -0.36044,0.05635 -0.77526,0.0838 -1.23517,0.08486 z"
         style="opacity:1;vector-effect:none;fill:#c8b7b7;fill-opacity:1;stroke:none;stroke-width:0.39627907px;stroke-linecap:butt;stroke-linejoin:miter;stroke-miterlimit:4;stroke-dasharray:none;stroke-dashoffset:0;stroke-opacity:1" />
      <path
         style="opacity:1;vector-effect:none;fill:#d9cdcd;fill-opacity:1;stroke:none;stroke-width:0.39627907px;stroke-linecap:butt;stroke-linejoin:miter;stroke-miterlimit:4;stroke-dasharray:none;stroke-dashoffset:0;stroke-opacity:1"
         d="m 139.56714,10.134242 c -0.54491,0.0066 -1.1035,0.06417 -1.65023,0.171094 -2.59969,0.508419 -4.27655,1.814958 -5.19835,2.91438 -0.79429,-1.418072 -5.13275,-2.10418 -7.09005,-1.083435 -1.35964,0.709062 -2.37464,1.358761 -3.12787,1.949024 -2.61468,-2.530634 -5.94848,-2.046642 -10.84591,-1.176451 -3.79828,0.674899 -6.74328,1.726005 -7.5474,3.743343 -9.72717,-1.535125 -8.481699,13.124001 -1.83432,13.894748 -0.99391,-4.298579 0.84657,-9.433154 6.80375,-8.493003 0.80413,-2.017338 3.74913,-3.068444 7.5474,-3.74334 4.89744,-0.870194 8.23172,-1.354186 10.84639,1.176451 0.75323,-0.590263 1.76775,-1.239962 3.12741,-1.949024 9.76599,-0.28579 12.13006,-6.4112 8.9693,-7.403785 z"
         id="path815-0-0-8"
         inkscape:connector-curvature="0"
         sodipodi:nodetypes="cccscccccscccc" />
      <path
         style="opacity:1;vector-effect:none;fill:#c0adad;fill-opacity:1;stroke:none;stroke-width:0.39627907px;stroke-linecap:butt;stroke-linejoin:miter;stroke-miterlimit:4;stroke-dasharray:none;stroke-dashoffset:0;stroke-opacity:1"
         d="m 102.77555,30.509241 c -0.43437,1.01146 -0.79125,2.412332 -0.38963,3.040641 2.13704,3.343461 7.91565,5.09572 12.75115,4.371826 2.52461,3.451029 13.92751,7.014006 19.2686,7.002158 0.45992,-0.0011 0.87513,-0.0284 1.23558,-0.08475 3.60918,-0.564673 6.54442,-4.960908 6.27507,-7.36234 1.99195,1.189318 16.32564,3.382131 10.57093,-4.329968 1.37353,0.363185 3.18654,0.512643 4.80333,0.262516 12.58458,-5.614247 -6.60186,-0.923246 -11.43601,-3.346049 0.26938,2.401432 -2.66589,6.797667 -6.27506,7.362341 -0.36045,0.05635 -0.77514,0.08369 -1.23507,0.08475 -5.34108,0.01185 -16.7445,-3.551128 -19.26911,-7.002157 -21.5929,-22.6643379 -22.887568,1.420485 -16.29978,10e-4 z"
         id="path815-0-0"
         inkscape:connector-curvature="0"
         sodipodi:nodetypes="ccccccccccccc" />
      <path
         style="color:#000000;font-style:normal;font-variant:normal;font-weight:normal;font-stretch:normal;font-size:medium;line-height:normal;font-family:sans-serif;font-variant-ligatures:normal;font-variant-position:normal;font-variant-caps:normal;font-variant-numeric:normal;font-variant-alternates:normal;font-feature-settings:normal;text-indent:0;text-align:start;text-decoration:none;text-decoration-line:none;text-decoration-style:solid;text-decoration-color:#000000;letter-spacing:normal;word-spacing:normal;text-transform:none;writing-mode:lr-tb;direction:ltr;text-orientation:mixed;dominant-baseline:auto;baseline-shift:baseline;text-anchor:start;white-space:normal;shape-padding:0;clip-rule:nonzero;display:inline;overflow:visible;visibility:visible;opacity:1;isolation:auto;mix-blend-mode:normal;color-interpolation:sRGB;color-interpolation-filters:linearRGB;solid-color:#000000;solid-opacity:1;vector-effect:none;fill:#000000;fill-opacity:1;fill-rule:nonzero;stroke:none;stroke-width:0.34049886;stroke-linecap:round;stroke-linejoin:round;stroke-miterlimit:4;stroke-dasharray:none;stroke-dashoffset:0;stroke-opacity:1;color-rendering:auto;image-rendering:auto;shape-rendering:auto;text-rendering:auto;enable-background:accumulate"
         d="m 141.12305,8.6054688 c -0.77666,-0.040112 -1.59549,0.020277 -2.39063,0.1757812 -2.74964,0.5377414 -4.52533,1.898629 -5.55273,3.082031 -0.26228,-0.361533 -0.63588,-0.680841 -1.16992,-0.921875 -0.60732,-0.274105 -1.34659,-0.477131 -2.125,-0.597656 -1.55684,-0.24105 -3.26413,-0.160347 -4.37305,0.417969 -1.41938,0.740218 -2.46562,1.416018 -3.27539,2.041015 -1.40609,-1.310412 -3.00888,-1.876981 -4.88867,-1.96875 -1.92856,-0.09415 -4.14471,0.271546 -6.77149,0.738282 -2.04383,0.363158 -3.86264,0.827761 -5.29101,1.480468 -1.38176,0.631409 -2.38115,1.457969 -2.85743,2.541016 -2.833603,-0.411376 -4.861769,0.433142 -6.093746,1.949219 -1.251019,1.539512 -1.707216,3.716796 -1.519531,5.861328 0.187685,2.144532 1.018707,4.263012 2.390625,5.697265 1.311956,1.371568 3.161532,2.028101 5.330082,1.513672 -0.18533,0.466313 -0.36588,0.975086 -0.44922,1.470704 -0.0965,0.574062 -0.0995,1.114277 0.14453,1.496093 1.09875,1.719033 3.11086,3.007135 5.45312,3.78125 2.31983,0.766702 4.96621,1.020943 7.39453,0.669922 1.35789,1.775295 4.77261,3.483493 8.56836,4.791016 3.83268,1.320241 7.99939,2.205977 10.70899,2.207031 0.001,0 0.003,0 0.004,0 a 0.17026646,0.17026646 0 0 0 0.0332,0.0039 c 5.3e-4,-10e-7 0.001,10e-7 0.002,0 0.46645,-0.0011 0.88797,-0.02781 1.25977,-0.08594 1.86429,-0.291678 3.53023,-1.561725 4.70117,-3.056641 1.10966,-1.416684 1.73195,-3.012556 1.67773,-4.267578 0.60307,0.311504 1.6995,0.633378 3.14453,0.871094 1.54472,0.254115 3.35357,0.399062 4.93165,0.263672 1.57807,-0.135391 2.946,-0.539805 3.56445,-1.480469 0.30922,-0.470332 0.40886,-1.069306 0.24609,-1.779297 -0.14204,-0.619603 -0.57513,-1.374285 -1.14258,-2.193359 1.35083,0.31158 3.00287,0.448738 4.52735,0.21289 a 0.17026646,0.17026646 0 0 0 0,-0.002 c 2.49342,-0.409377 4.05024,-1.539063 4.8457,-3.015625 0.79546,-1.476561 0.8323,-3.277839 0.36133,-5.023437 -0.47098,-1.745599 -1.44975,-3.442288 -2.71094,-4.730469 -1.20295,-1.228695 -2.67415,-2.044044 -4.21094,-2.193359 0.40801,-0.669543 0.75434,-1.402762 0.91211,-2.210938 0.36109,-1.849609 0.0254,-3.237713 -0.7539,-4.201172 -0.77927,-0.963459 -1.98303,-1.492343 -3.32032,-1.689453 -2.54483,-0.375098 -5.52287,0.476582 -7.29492,1.910156 0.0276,-0.147154 0.0571,-0.299715 0.0762,-0.447265 0.0909,-0.7032 -0.0734,-1.310732 -0.42578,-1.792969 -0.35243,-0.482237 -0.88339,-0.8394067 -1.51562,-1.0878908 -0.63223,-0.248484 -1.36788,-0.3895759 -2.14453,-0.4296874 z m -0.0176,0.3417968 c 0.74681,0.038741 1.44833,0.1728888 2.03711,0.4042969 0.58878,0.2314081 1.06182,0.5574908 1.36523,0.9726565 0.30342,0.415165 0.4464,0.918691 0.36524,1.546875 -0.0247,0.190745 -0.0724,0.439626 -0.10547,0.609375 -0.0166,0.08487 -0.0289,0.147243 -0.0352,0.183593 -0.002,0.0091 -0.002,0.01449 -0.004,0.03125 -3.7e-4,0.0042 -0.002,0.01914 -0.002,0.01953 1e-5,1.94e-4 0.004,0.03114 0.004,0.03125 1e-5,5.7e-5 0.0117,0.03512 0.0117,0.03516 1e-5,3.7e-5 0.15429,-0.07031 0.15429,-0.07031 0,0 0.10544,0.134789 0.10547,0.134765 3e-5,-2.4e-5 0.0293,-0.02925 0.0293,-0.0293 4e-5,-4.4e-5 0.0117,-0.01556 0.0117,-0.01563 1.6e-4,-2.61e-4 0.0117,-0.02244 0.0137,-0.02734 4.1e-4,-0.001 -3.9e-4,-9.71e-4 0,-0.002 1.61551,-1.459641 4.77464,-2.355978 7.32227,-1.980468 1.27951,0.188595 2.39592,0.689157 3.10547,1.566406 0.70954,0.877249 1.03111,2.141747 0.68359,3.921875 -0.16258,0.832786 -0.5049,1.608875 -0.94727,2.291015 a 0.17026646,0.17026646 0 0 0 0.13477,0.261719 c 1.50517,0.07768 2.98515,0.910253 4.20312,2.154297 1.21798,1.244044 2.16856,2.895589 2.62305,4.580078 0.45449,1.68449 0.4124,3.395216 -0.33008,4.773438 -0.74226,1.377814 -2.18328,2.444586 -4.59961,2.841797 -1.58766,0.245623 -3.3855,0.09885 -4.73437,-0.257813 a 0.17026646,0.17026646 0 0 0 -0.17969,0.265625 c 0.71037,0.951988 1.10292,1.743191 1.25,2.384766 0.14708,0.641574 0.0572,1.127579 -0.19922,1.517578 -0.51281,0.779998 -1.77364,1.198387 -3.30859,1.330078 -1.53495,0.131691 -3.32445,-0.01114 -4.84766,-0.261719 -1.52321,-0.250577 -2.80159,-0.625607 -3.24219,-0.888672 a 0.17026646,0.17026646 0 0 0 -0.25585,0.166016 c 0.12575,1.1212 -0.51673,2.801259 -1.64844,4.246094 -1.13171,1.444834 -2.73948,2.654738 -4.48438,2.927734 -0.34852,0.05449 -0.75454,0.08286 -1.20703,0.08398 -7.3e-4,2e-6 -0.001,-1e-6 -0.002,0 -2.63242,0.0058 -6.81467,-0.877451 -10.63477,-2.193359 -3.82009,-1.315907 -7.28942,-3.090767 -8.49609,-4.740234 a 0.17026646,0.17026646 0 0 0 -0.16211,-0.06641 c -2.38804,0.357499 -5.01834,0.102632 -7.30859,-0.654296 -2.29026,-0.756929 -4.23516,-2.01815 -5.27344,-3.642578 -0.15755,-0.246493 -0.18587,-0.719618 -0.0957,-1.25586 0.0902,-0.536242 0.28542,-1.129915 0.49804,-1.625 a 0.17026646,0.17026646 0 0 0 -0.20312,-0.230469 c -2.18872,0.626602 -3.962462,-0.05754 -5.265628,-1.419921 C 96.148006,27.50481 95.336026,25.45148 95.154297,23.375 c -0.181729,-2.07648 0.266283,-4.16867 1.443359,-5.617188 1.177077,-1.448517 3.07649,-2.28006 5.890624,-1.835937 a 0.17026646,0.17026646 0 0 0 0.1836,-0.105469 c 0.4084,-1.024561 1.37161,-1.822533 2.75585,-2.455078 1.38425,-0.632545 3.18021,-1.092642 5.20899,-1.453125 2.62438,-0.46631 4.82083,-0.825789 6.69336,-0.734375 1.87253,0.09141 3.41523,0.621434 4.78711,1.949219 a 0.17026646,0.17026646 0 0 0 0.22461,0.01172 c 0.79693,-0.624508 1.87533,-1.315643 3.32617,-2.072266 0.98973,-0.516156 2.65743,-0.61609 4.16406,-0.382812 0.75332,0.116638 1.46711,0.315 2.03711,0.572265 0.57,0.257265 0.99034,0.576718 1.17383,0.904297 a 0.17026646,0.17026646 0 0 0 0.2793,0.02734 c 0.96572,-1.15181 2.72947,-2.5311184 5.47656,-3.0683596 0.76808,-0.1502126 1.55983,-0.2067097 2.30664,-0.1679688 z"
         id="path815-0-2"
         inkscape:connector-curvature="0" />
      <path
         style="color:#000000;font-style:normal;font-variant:normal;font-weight:normal;font-stretch:normal;font-size:medium;line-height:normal;font-family:sans-serif;font-variant-ligatures:normal;font-variant-position:normal;font-variant-caps:normal;font-variant-numeric:normal;font-variant-alternates:normal;font-feature-settings:normal;text-indent:0;text-align:start;text-decoration:none;text-decoration-line:none;text-decoration-style:solid;text-decoration-color:#000000;letter-spacing:normal;word-spacing:normal;text-transform:none;writing-mode:lr-tb;direction:ltr;text-orientation:mixed;dominant-baseline:auto;baseline-shift:baseline;text-anchor:start;white-space:normal;shape-padding:0;clip-rule:nonzero;display:inline;overflow:visible;visibility:visible;opacity:1;isolation:auto;mix-blend-mode:normal;color-interpolation:sRGB;color-interpolation-filters:linearRGB;solid-color:#000000;solid-opacity:1;vector-effect:none;fill:#000000;fill-opacity:1;fill-rule:nonzero;stroke:none;stroke-width:0.25537413;stroke-linecap:round;stroke-linejoin:round;stroke-miterlimit:4;stroke-dasharray:none;stroke-dashoffset:0;stroke-opacity:1;color-rendering:auto;image-rendering:auto;shape-rendering:auto;text-rendering:auto;enable-background:accumulate"
         d="m 114.36914,20.353516 c -3.06473,-0.03286 -5.21958,0.981299 -5.85156,2.476562 -0.31599,0.747632 -0.23097,1.607615 0.30664,2.462891 0.53761,0.855275 1.52107,1.714354 3.01562,2.507812 a 0.12769984,0.12769984 0 1 0 0.11914,-0.224609 c -1.46802,-0.779373 -2.4143,-1.616695 -2.91796,-2.417969 -0.50367,-0.801273 -0.56998,-1.559254 -0.28711,-2.228515 0.56573,-1.338523 2.60675,-2.354499 5.61328,-2.322266 a 0.12769984,0.12769984 0 1 0 0.002,-0.253906 z"
         id="path913"
         inkscape:connector-curvature="0" />
      <path
         style="color:#000000;font-style:normal;font-variant:normal;font-weight:normal;font-stretch:normal;font-size:medium;line-height:normal;font-family:sans-serif;font-variant-ligatures:normal;font-variant-position:normal;font-variant-caps:normal;font-variant-numeric:normal;font-variant-alternates:normal;font-feature-settings:normal;text-indent:0;text-align:start;text-decoration:none;text-decoration-line:none;text-decoration-style:solid;text-decoration-color:#000000;letter-spacing:normal;word-spacing:normal;text-transform:none;writing-mode:lr-tb;direction:ltr;text-orientation:mixed;dominant-baseline:auto;baseline-shift:baseline;text-anchor:start;white-space:normal;shape-padding:0;clip-rule:nonzero;display:inline;overflow:visible;visibility:visible;opacity:1;isolation:auto;mix-blend-mode:normal;color-interpolation:sRGB;color-interpolation-filters:linearRGB;solid-color:#000000;solid-opacity:1;vector-effect:none;fill:#000000;fill-opacity:1;fill-rule:nonzero;stroke:none;stroke-width:0.25537413;stroke-linecap:round;stroke-linejoin:round;stroke-miterlimit:4;stroke-dasharray:none;stroke-dashoffset:0;stroke-opacity:1;color-rendering:auto;image-rendering:auto;shape-rendering:auto;text-rendering:auto;enable-background:accumulate"
         d="m 152.21289,25.265625 a 0.12769984,0.12769984 0 0 0 -0.11133,0.181641 c 0.21442,0.467076 0.24321,0.875121 0.13867,1.238281 -0.10453,0.36316 -0.34524,0.686567 -0.69335,0.96875 -0.69623,0.564365 -1.81594,0.948442 -2.99219,1.107422 -1.17626,0.15898 -2.40969,0.09544 -3.33399,-0.199219 -0.46214,-0.147327 -0.84536,-0.352272 -1.10742,-0.607422 -0.26206,-0.25515 -0.40625,-0.5544 -0.40625,-0.921875 a 0.12793,0.12793 0 1 0 -0.25586,0 c 0,0.436535 0.18271,0.811753 0.48438,1.105469 0.30167,0.293716 0.71883,0.512336 1.20703,0.667969 0.9764,0.311264 2.23899,0.370339 3.44726,0.207031 1.20828,-0.163308 2.36191,-0.547922 3.11719,-1.160156 0.37764,-0.306118 0.657,-0.672794 0.7793,-1.097657 0.12229,-0.424862 0.0824,-0.90263 -0.15235,-1.414062 a 0.12769984,0.12769984 0 0 0 -0.12109,-0.07617 z"
         id="path915"
         inkscape:connector-curvature="0" />
      <path
         style="color:#000000;font-style:normal;font-variant:normal;font-weight:normal;font-stretch:normal;font-size:medium;line-height:normal;font-family:sans-serif;font-variant-ligatures:normal;font-variant-position:normal;font-variant-caps:normal;font-variant-numeric:normal;font-variant-alternates:normal;font-feature-settings:normal;text-indent:0;text-align:start;text-decoration:none;text-decoration-line:none;text-decoration-style:solid;text-decoration-color:#000000;letter-spacing:normal;word-spacing:normal;text-transform:none;writing-mode:lr-tb;direction:ltr;text-orientation:mixed;dominant-baseline:auto;baseline-shift:baseline;text-anchor:start;white-space:normal;shape-padding:0;clip-rule:nonzero;display:inline;overflow:visible;visibility:visible;opacity:1;isolation:auto;mix-blend-mode:normal;color-interpolation:sRGB;color-interpolation-filters:linearRGB;solid-color:#000000;solid-opacity:1;vector-effect:none;fill:#000000;fill-opacity:1;fill-rule:nonzero;stroke:none;stroke-width:0.25537413;stroke-linecap:round;stroke-linejoin:round;stroke-miterlimit:4;stroke-dasharray:none;stroke-dashoffset:0;stroke-opacity:1;color-rendering:auto;image-rendering:auto;shape-rendering:auto;text-rendering:auto;enable-background:accumulate"
         d="m 128.76562,28.869141 a 0.12769984,0.12769984 0 0 0 -0.11523,0.08203 c -0.61661,1.520102 -0.57143,2.808146 0.15625,3.707031 0.72768,0.898885 2.10259,1.382813 4.07617,1.382813 a 0.12793,0.12793 0 1 0 0,-0.25586 c -1.93164,0 -3.22061,-0.478302 -3.87695,-1.289062 -0.65634,-0.81076 -0.71551,-1.979006 -0.11914,-3.449219 a 0.12769984,0.12769984 0 0 0 -0.1211,-0.177734 z"
         id="path917"
         inkscape:connector-curvature="0" />
    </g>
    <g
       transform="matrix(0.62040438,0,0,0.62040438,-15.6371,177.88351)"
       id="g1870">
      <path
         sodipodi:nodetypes="sccccccsccccccccscs"
         inkscape:connector-curvature="0"
         id="path821"
         d="m 70.021972,119.2629 c -1.044221,0.0165 -2.086292,0.15961 -3.098174,0.44814 -2.197543,0.62657 -5.320757,1.89453 -6.755539,3.53091 -0.02885,0.0329 -0.06776,0.1002 -0.111295,0.18807 -4.612153,-4.481 -10.075169,-5.65325 -12.57936,-0.25933 -3.378846,0 -8.264154,-1.31562 -9.825393,1.35529 -0.08168,0.13974 -0.244282,0.69056 -0.37732,1.24534 -1.512734,-0.35927 -5.366489,0.30414 -5.627201,0.35991 -4.134159,0.88406 -5.023787,5.24357 -3.968364,8.85471 -7.188552,7.03732 4.821291,7.86 6.220511,7.51579 0,0.26206 -0.646415,2.44113 -0.220302,3.53459 3.929505,7.10204 12.131397,4.74797 19.487976,2.11626 2.79165,1.94659 10.693974,4.31763 13.005273,3.65861 3.989639,-1.13756 5.645267,-3.27608 5.948421,-6.29403 4.92438,2.53754 14.043997,-2.31227 10.801987,-5.92096 11.49353,0.154 5.460646,-12.91508 0.13754,-10.57648 -0.05516,-0.0472 -1.126526,0.0377 -1.126526,0 0,-0.30371 0.751016,-0.60639 0.751016,-1.92567 -1.32499,-4.31788 -7.024463,-7.92006 -12.663242,-7.83115 z"
         style="fill:#c8b7b7;stroke:none;stroke-width:0.39627907px;stroke-linecap:butt;stroke-linejoin:miter;stroke-opacity:1" />
      <path
         style="opacity:1;vector-effect:none;fill:#d9cdcd;fill-opacity:1;stroke:none;stroke-width:0.39627907px;stroke-linecap:butt;stroke-linejoin:miter;stroke-miterlimit:4;stroke-dasharray:none;stroke-dashoffset:0;stroke-opacity:1"
         d="m 67.87049,121.73448 c -0.935029,0.0148 -1.867979,0.14283 -2.774046,0.40119 -1.967745,0.56105 -4.764475,1.69608 -6.049221,3.16134 -0.02584,0.0295 -0.06097,0.0898 -0.09996,0.16843 -4.129861,-4.01242 -9.021357,-5.0617 -11.263684,-0.23182 -3.025521,0 -7.399835,-1.17834 -8.797816,1.21327 -0.07314,0.12513 -0.219126,0.6184 -0.338252,1.11517 -1.35455,-0.3217 -4.805177,0.27258 -5.038628,0.32252 -3.70185,0.79162 -4.498332,4.69483 -3.553276,7.92836 -2.638012,2.58251 -2.386812,4.22947 -1.087407,5.25379 -0.08366,-2.59614 1.033376,-5.08669 3.90726,-5.70125 0.23345,-0.05 3.68408,-0.64423 5.038628,-0.32252 0.119126,-0.49677 0.265111,-0.99005 0.338255,-1.11517 1.397978,-2.39162 5.772293,-1.21327 8.797814,-1.21327 2.242328,-4.82988 7.133823,-3.7806 11.263684,0.23182 0.03899,-0.0787 0.07412,-0.1385 0.09996,-0.16796 1.284742,-1.46527 4.081476,-2.60076 6.049221,-3.16181 0.906068,-0.25836 1.839016,-0.38642 2.774044,-0.40119 5.61338,1.8875 15.725909,-9.80107 0.733424,-7.4809 z"
         id="path821-5"
         inkscape:connector-curvature="0"
         sodipodi:nodetypes="ccccccccccccccccccc" />
      <path
         style="opacity:1;vector-effect:none;fill:#c0adad;fill-opacity:1;stroke:none;stroke-width:0.39627907px;stroke-linecap:butt;stroke-linejoin:miter;stroke-miterlimit:4;stroke-dasharray:none;stroke-dashoffset:0;stroke-opacity:1"
         d="m 86.859422,129.59347 c -1.040258,0.83229 -2.658377,1.35653 -5.013129,1.32498 3.242008,3.60869 -5.877545,8.45811 -10.801927,5.92057 -0.303152,3.01795 -1.958835,5.15663 -5.948474,6.29419 -2.311296,0.65902 -10.213756,-1.7121 -13.005406,-3.65869 -7.356578,2.63171 -15.558195,4.98589 -19.487699,-2.11615 -0.426114,-1.09346 1.378487,-1.53509 1.378487,-1.79715 -0.625618,0.1539 -4.529118,-1.66512 -6.732682,-2.42895 0.06578,0.57207 0.17503,1.14178 0.336413,1.69395 -7.188552,7.03732 4.821588,7.86003 6.220809,7.51582 0,0.26206 -0.646256,2.44121 -0.220142,3.53467 3.929505,7.10204 12.131122,4.74786 19.4877,2.11615 2.79165,1.94659 10.694108,4.31771 13.005408,3.65869 3.989638,-1.13756 5.645319,-3.27624 5.948474,-6.29419 4.924379,2.53754 14.043934,-2.31188 10.801924,-5.92056 8.574687,0.11489 7.393039,-7.12726 4.030244,-9.84333 z"
         id="path821-6"
         inkscape:connector-curvature="0"
         sodipodi:nodetypes="ccccccccccccsccc" />
      <path
         style="color:#000000;font-style:normal;font-variant:normal;font-weight:normal;font-stretch:normal;font-size:medium;line-height:normal;font-family:sans-serif;font-variant-ligatures:normal;font-variant-position:normal;font-variant-caps:normal;font-variant-numeric:normal;font-variant-alternates:normal;font-feature-settings:normal;text-indent:0;text-align:start;text-decoration:none;text-decoration-line:none;text-decoration-style:solid;text-decoration-color:#000000;letter-spacing:normal;word-spacing:normal;text-transform:none;writing-mode:lr-tb;direction:ltr;text-orientation:mixed;dominant-baseline:auto;baseline-shift:baseline;text-anchor:start;white-space:normal;shape-padding:0;clip-rule:nonzero;display:inline;overflow:visible;visibility:visible;opacity:1;isolation:auto;mix-blend-mode:normal;color-interpolation:sRGB;color-interpolation-filters:linearRGB;solid-color:#000000;solid-opacity:1;vector-effect:none;fill:#000000;fill-opacity:1;fill-rule:nonzero;stroke:none;stroke-width:0.32237038;stroke-linecap:round;stroke-linejoin:round;stroke-miterlimit:4;stroke-dasharray:none;stroke-dashoffset:0;stroke-opacity:1;color-rendering:auto;image-rendering:auto;shape-rendering:auto;text-rendering:auto;enable-background:accumulate"
         d="m 70.019531,119.10156 c -1.057246,0.0167 -2.114194,0.1624 -3.140625,0.45508 -2.213955,0.63125 -5.348014,1.8856 -6.832031,3.57813 -0.01426,0.0163 -0.02293,0.0428 -0.03516,0.0605 -2.28201,-2.17266 -4.759726,-3.57835 -7.021485,-3.75781 -2.279723,-0.18089 -4.318667,0.90942 -5.595703,3.56641 -1.655123,-0.01 -3.681246,-0.3233 -5.511719,-0.31836 -0.929191,0.002 -1.807771,0.0882 -2.564453,0.34961 -0.756682,0.26135 -1.392986,0.70583 -1.804687,1.41015 -0.06389,0.1093 -0.116897,0.27358 -0.185547,0.50196 -0.05827,0.19385 -0.121049,0.43152 -0.179687,0.66796 -0.816312,-0.15719 -2.041131,-0.10272 -3.173829,0.0195 -0.595624,0.0643 -1.150748,0.14232 -1.574218,0.20703 -0.423471,0.0647 -0.706422,0.1136 -0.78711,0.13086 -2.117749,0.45286 -3.42432,1.8144 -4.046875,3.50781 -0.612448,1.66592 -0.566286,3.64881 -0.05469,5.45898 -1.755122,1.74045 -2.394654,3.1363 -2.25,4.25782 0.146756,1.13782 1.07577,1.92831 2.240234,2.46093 1.164464,0.53262 2.585027,0.82488 3.806641,0.96485 0.610807,0.07 1.172145,0.10017 1.626953,0.10351 0.351961,0.003 0.568687,-0.0234 0.775391,-0.0527 -0.01616,0.082 -0.03723,0.18373 -0.0625,0.30469 -0.05408,0.25888 -0.122804,0.59295 -0.177735,0.95507 -0.109862,0.72425 -0.177628,1.55594 0.05859,2.16211 a 0.16120131,0.16120131 0 0 0 0.0098,0.0195 c 1.991404,3.59919 5.102674,4.82107 8.601563,4.79102 3.478151,-0.0299 7.353057,-1.27155 11.015625,-2.58008 1.443068,0.98495 4.059727,2.04054 6.648438,2.78711 1.312348,0.37848 2.610732,0.67639 3.730468,0.83789 1.119736,0.16151 2.056015,0.19401 2.681641,0.0156 2.014778,-0.57447 3.455803,-1.40808 4.431641,-2.49024 0.933499,-1.03521 1.411318,-2.30736 1.58789,-3.75781 2.521603,1.19162 5.954907,0.62105 8.425781,-0.71484 1.26449,-0.68366 2.27842,-1.56238 2.777344,-2.5293 0.459247,-0.89003 0.379324,-1.86361 -0.285156,-2.75 2.74278,-0.0145 4.537659,-0.76649 5.511719,-1.94141 1.006694,-1.21428 1.166506,-2.8201 0.789062,-4.33398 -0.377444,-1.51389 -1.288153,-2.94968 -2.455078,-3.86914 -1.140706,-0.8988 -2.547524,-1.27025 -3.910156,-0.7168 -0.0049,-3.5e-4 -0.01682,-0.009 -0.02148,-0.01 -0.02107,-0.004 -0.03965,-0.004 -0.06055,-0.006 -0.0418,-0.003 -0.09232,-0.004 -0.148437,-0.004 -0.112237,7.6e-4 -0.25102,0.006 -0.388672,0.0117 -0.10506,0.004 -0.196352,0.007 -0.283203,0.01 0.06527,-0.0842 0.158511,-0.19346 0.255859,-0.33789 0.200441,-0.29736 0.402344,-0.74336 0.402344,-1.43359 a 0.16120131,0.16120131 0 0 0 -0.0059,-0.0469 c -1.355643,-4.41778 -7.111203,-8.03534 -12.820313,-7.94532 z m 0.0059,0.32227 c 5.556824,-0.0876 11.182455,3.48486 12.492187,7.6914 -0.0058,0.60945 -0.169726,0.97715 -0.341797,1.23243 -0.08753,0.12986 -0.176467,0.23176 -0.251953,0.33007 -0.07549,0.0983 -0.15039,0.19944 -0.15039,0.3418 0,3e-4 0.0155,0.0681 0.01562,0.0684 1.3e-4,2.8e-4 0.03099,0.0447 0.03125,0.0449 2.58e-4,2.7e-4 0.02696,0.0232 0.02734,0.0234 3.84e-4,2.5e-4 0.01536,0.0108 0.02148,0.0137 0.02451,0.0114 0.0358,0.0116 0.04687,0.0137 0.02215,0.004 0.03827,0.005 0.05664,0.006 0.03673,0.002 0.08055,9.9e-4 0.132813,0 0.104516,-0.002 0.239868,-0.006 0.376953,-0.0117 0.137084,-0.005 0.276701,-0.011 0.380859,-0.0117 0.05208,-3.6e-4 0.0957,1.5e-4 0.123047,0.002 0.01035,6.8e-4 0.01393,0.003 0.01758,0.004 0.0012,1.5e-4 0.0057,-4e-5 0.0059,0 a 0.16120131,0.16120131 0 0 0 0.115234,-0.004 c 1.269895,-0.5579 2.57359,-0.20244 3.675781,0.66601 1.102191,0.86846 1.982323,2.25155 2.341797,3.69336 0.359474,1.44181 0.203739,2.92905 -0.724609,4.04883 -0.928348,1.11978 -2.649155,1.89747 -5.492188,1.85938 a 0.16120131,0.16120131 0 0 0 -0.123047,0.26757 c 0.773401,0.86088 0.802686,1.74499 0.34961,2.62305 -0.453076,0.87807 -1.41882,1.72989 -2.644532,2.39258 -2.451422,1.32538 -5.923492,1.88536 -8.3125,0.6543 a 0.16120131,0.16120131 0 0 0 -0.234374,0.1289 c -0.149038,1.48371 -0.625607,2.73379 -1.550782,3.75977 -0.925174,1.02598 -2.306391,1.83144 -4.28125,2.39453 -0.530024,0.15113 -1.447633,0.13316 -2.546875,-0.0254 -1.099242,-0.15855 -2.386399,-0.45094 -3.6875,-0.82617 -2.602202,-0.75046 -5.272286,-1.83512 -6.634765,-2.78516 A 0.16120131,0.16120131 0 0 0 53.113281,148 c -3.674753,1.31459 -7.552985,2.55458 -10.976562,2.58398 -3.418339,0.0294 -6.3684,-1.12101 -8.306641,-4.61132 -0.187977,-0.48771 -0.147519,-1.29009 -0.04102,-1.99219 0.05341,-0.35209 0.120023,-0.67993 0.173829,-0.9375 0.0269,-0.12878 0.05105,-0.2389 0.06836,-0.32813 0.01731,-0.0892 0.0293,-0.147 0.0293,-0.21289 a 0.16120131,0.16120131 0 0 0 -0.199219,-0.15625 c -0.141702,0.0349 -0.482108,0.0618 -0.923828,0.0586 -0.44172,-0.003 -0.992237,-0.0329 -1.591797,-0.10157 -1.19912,-0.13739 -2.594654,-0.42781 -3.708984,-0.9375 -1.11433,-0.50968 -1.927653,-1.22406 -2.054688,-2.20898 -0.127034,-0.98492 0.430954,-2.31215 2.210938,-4.05469 a 0.16120131,0.16120131 0 0 0 0.04102,-0.16015 c -0.51939,-1.7771 -0.556786,-3.73947 0.03516,-5.34961 0.591942,-1.61015 1.79609,-2.87154 3.8125,-3.30274 0.04967,-0.0106 0.347871,-0.0648 0.767578,-0.1289 0.419706,-0.0641 0.971051,-0.14146 1.560547,-0.20508 1.178991,-0.12726 2.523788,-0.19472 3.228515,-0.0273 a 0.16120131,0.16120131 0 0 0 0.19336,-0.11914 c 0.06587,-0.27467 0.138747,-0.54886 0.205078,-0.76953 0.06633,-0.22066 0.136503,-0.4012 0.154297,-0.43164 0.368918,-0.63113 0.928811,-1.02442 1.632812,-1.26758 0.704001,-0.24316 1.549339,-0.32957 2.458984,-0.33203 1.819292,-0.005 3.88536,0.32422 5.595704,0.32422 a 0.16120131,0.16120131 0 0 0 0.144531,-0.0937 c 1.231366,-2.65231 3.143775,-3.65487 5.341797,-3.48047 2.198021,0.17441 4.692166,1.56388 6.980468,3.78711 a 0.16120131,0.16120131 0 0 0 0.25586,-0.043 c 0.04111,-0.083 0.08354,-0.14933 0.08789,-0.15429 1.385553,-1.58023 4.498563,-2.86054 6.679688,-3.48243 0.997337,-0.28438 2.025449,-0.42511 3.056641,-0.4414 z"
         id="path821-4"
         inkscape:connector-curvature="0" />
      <path
         style="color:#000000;font-style:normal;font-variant:normal;font-weight:normal;font-stretch:normal;font-size:medium;line-height:normal;font-family:sans-serif;font-variant-ligatures:normal;font-variant-position:normal;font-variant-caps:normal;font-variant-numeric:normal;font-variant-alternates:normal;font-feature-settings:normal;text-indent:0;text-align:start;text-decoration:none;text-decoration-line:none;text-decoration-style:solid;text-decoration-color:#000000;letter-spacing:normal;word-spacing:normal;text-transform:none;writing-mode:lr-tb;direction:ltr;text-orientation:mixed;dominant-baseline:auto;baseline-shift:baseline;text-anchor:start;white-space:normal;shape-padding:0;clip-rule:nonzero;display:inline;overflow:visible;visibility:visible;opacity:1;isolation:auto;mix-blend-mode:normal;color-interpolation:sRGB;color-interpolation-filters:linearRGB;solid-color:#000000;solid-opacity:1;vector-effect:none;fill:#000000;fill-opacity:1;fill-rule:nonzero;stroke:none;stroke-width:0.24177779;stroke-linecap:round;stroke-linejoin:round;stroke-miterlimit:4;stroke-dasharray:none;stroke-dashoffset:0;stroke-opacity:1;color-rendering:auto;image-rendering:auto;shape-rendering:auto;text-rendering:auto;enable-background:accumulate"
         d="m 71.615234,137.43164 a 0.12090099,0.12090099 0 0 0 -0.105468,0.17188 c 0.484793,1.06535 0.52704,1.99045 0.267578,2.75976 -0.259463,0.76931 -0.82427,1.38999 -1.582032,1.83008 -1.515522,0.88018 -3.795759,1.02326 -5.804687,0.16406 a 0.12117811,0.12117811 0 1 0 -0.0957,0.22266 c 2.078277,0.88886 4.425409,0.74923 6.021484,-0.17774 0.798038,-0.46348 1.410484,-1.12799 1.691406,-1.96093 0.280923,-0.83294 0.227235,-1.82867 -0.277343,-2.9375 a 0.12090099,0.12090099 0 0 0 -0.115235,-0.0723 z"
         id="path941"
         inkscape:connector-curvature="0" />
      <path
         style="color:#000000;font-style:normal;font-variant:normal;font-weight:normal;font-stretch:normal;font-size:medium;line-height:normal;font-family:sans-serif;font-variant-ligatures:normal;font-variant-position:normal;font-variant-caps:normal;font-variant-numeric:normal;font-variant-alternates:normal;font-feature-settings:normal;text-indent:0;text-align:start;text-decoration:none;text-decoration-line:none;text-decoration-style:solid;text-decoration-color:#000000;letter-spacing:normal;word-spacing:normal;text-transform:none;writing-mode:lr-tb;direction:ltr;text-orientation:mixed;dominant-baseline:auto;baseline-shift:baseline;text-anchor:start;white-space:normal;shape-padding:0;clip-rule:nonzero;display:inline;overflow:visible;visibility:visible;opacity:1;isolation:auto;mix-blend-mode:normal;color-interpolation:sRGB;color-interpolation-filters:linearRGB;solid-color:#000000;solid-opacity:1;vector-effect:none;fill:#000000;fill-opacity:1;fill-rule:nonzero;stroke:none;stroke-width:0.24177779;stroke-linecap:round;stroke-linejoin:round;stroke-miterlimit:4;stroke-dasharray:none;stroke-dashoffset:0;stroke-opacity:1;color-rendering:auto;image-rendering:auto;shape-rendering:auto;text-rendering:auto;enable-background:accumulate"
         d="m 52.453125,137.75977 a 0.12090099,0.12090099 0 0 0 -0.07031,0.0371 c -0.556458,0.56842 -0.996569,0.98926 -1.308593,1.31835 -0.312025,0.3291 -0.507247,0.55775 -0.539063,0.80079 -0.01591,0.12151 0.02664,0.24557 0.111328,0.33789 0.08469,0.0923 0.203426,0.16237 0.359375,0.23242 0.311899,0.14009 0.777517,0.27498 1.429688,0.46094 a 0.12090099,0.12090099 0 1 0 0.06641,-0.23243 c -0.651719,-0.18582 -1.115231,-0.32289 -1.396484,-0.44922 -0.140627,-0.0632 -0.233815,-0.12406 -0.28125,-0.17578 -0.04744,-0.0517 -0.05839,-0.0845 -0.05078,-0.14257 0.01522,-0.11626 0.169964,-0.34276 0.474609,-0.66407 0.304645,-0.32131 0.747346,-0.74508 1.306641,-1.3164 a 0.12090099,0.12090099 0 0 0 -0.101563,-0.20703 z"
         id="path943"
         inkscape:connector-curvature="0" />
      <path
         style="color:#000000;font-style:normal;font-variant:normal;font-weight:normal;font-stretch:normal;font-size:medium;line-height:normal;font-family:sans-serif;font-variant-ligatures:normal;font-variant-position:normal;font-variant-caps:normal;font-variant-numeric:normal;font-variant-alternates:normal;font-feature-settings:normal;text-indent:0;text-align:start;text-decoration:none;text-decoration-line:none;text-decoration-style:solid;text-decoration-color:#000000;letter-spacing:normal;word-spacing:normal;text-transform:none;writing-mode:lr-tb;direction:ltr;text-orientation:mixed;dominant-baseline:auto;baseline-shift:baseline;text-anchor:start;white-space:normal;shape-padding:0;clip-rule:nonzero;display:inline;overflow:visible;visibility:visible;opacity:1;isolation:auto;mix-blend-mode:normal;color-interpolation:sRGB;color-interpolation-filters:linearRGB;solid-color:#000000;solid-opacity:1;vector-effect:none;fill:#000000;fill-opacity:1;fill-rule:nonzero;stroke:none;stroke-width:0.24177779;stroke-linecap:round;stroke-linejoin:round;stroke-miterlimit:4;stroke-dasharray:none;stroke-dashoffset:0;stroke-opacity:1;color-rendering:auto;image-rendering:auto;shape-rendering:auto;text-rendering:auto;enable-background:accumulate"
         d="m 32.921875,134.81055 a 0.12090099,0.12090099 0 0 0 -0.105469,0.0976 c -0.176357,0.8624 -0.20231,1.5124 -0.08984,2.01953 0.112467,0.50714 0.370438,0.8697 0.738282,1.125 0.735688,0.51061 1.876063,0.63045 3.27539,0.92969 a 0.12090099,0.12090099 0 1 0 0.05078,-0.23633 c -1.411354,-0.30181 -2.53632,-0.44062 -3.1875,-0.89257 -0.325591,-0.22598 -0.539503,-0.52254 -0.640625,-0.97852 -0.101123,-0.45598 -0.08265,-1.07446 0.08984,-1.91797 a 0.12090099,0.12090099 0 0 0 -0.130859,-0.14648 z"
         id="path945"
         inkscape:connector-curvature="0" />
    </g>
    <g
       transform="matrix(0.55972105,0,0,0.55972105,-54.935629,89.759126)"
       id="g2153">
      <g
         transform="matrix(0.89985016,0,0,0.96273622,23.051301,1.173984)"
         id="g1330"
         style="stroke-width:1.12591958">
        <path
           sodipodi:nodetypes="sccsccccccs"
           inkscape:connector-curvature="0"
           id="path1131"
           d="m 469.23242,670.59961 c -4.36731,0.26188 -9.43584,4.11386 -14.78125,14.80469 -0.25053,0.50105 -0.422,1.37747 -0.49805,2.42187 -30.47533,-0.3938 -35.01742,35.1457 -19.4329,26.82225 2.4246,-1.29494 -16.52723,10.33423 3.8333,23.3828 6.58245,2.19414 21.14864,3.43376 28.52734,-3.13278 1.56853,4.44262 4.45747,9.2972 8.62109,12.41992 10.07615,12.22318 40.24214,-7.32959 34.22266,-19.74024 12.93831,-1.46461 25.11533,-16.91713 1.99609,-31.02929 20.15269,-15.31953 -5.09745,-23.72809 -28.48047,-12.38281 -1.40115,-4.46694 -6.72896,-14.00288 -14.00781,-13.56641 z"
           style="opacity:1;vector-effect:none;fill:#b29a9a;fill-opacity:1;stroke:none;stroke-width:1.87788641px;stroke-linecap:butt;stroke-linejoin:miter;stroke-miterlimit:4;stroke-dasharray:none;stroke-dashoffset:0;stroke-opacity:1"
           transform="matrix(0.23725125,0,0,0.23794133,10.410975,11.556718)" />
        <path
           sodipodi:nodetypes="cccccccccc"
           inkscape:connector-curvature="0"
           id="path1131-5"
           d="m 133.08706,178.26332 c -0.53885,1.21253 -1.90906,2.07747 -3.32013,2.23767 1.42814,2.95301 -5.72878,7.60542 -8.11936,4.69702 -0.98782,-0.74302 -1.67324,-1.89814 -2.04537,-2.95522 -1.53087,1.36335 -4.69505,1.74949 -6.13515,0.29005 -0.60294,1.04716 -2.17086,2.58677 0.50924,4.30938 1.5617,0.52207 5.01754,0.81702 6.76815,-0.74543 0.37213,1.05708 1.05754,2.2122 2.04536,2.95522 2.39058,2.9084 9.5475,-1.74401 8.11937,-4.69702 2.67859,-0.3041 5.2185,-3.1423 2.17789,-6.09167 z"
           style="opacity:1;vector-effect:none;fill:#a98f8f;fill-opacity:1;stroke:none;stroke-width:0.44617838px;stroke-linecap:butt;stroke-linejoin:miter;stroke-miterlimit:4;stroke-dasharray:none;stroke-dashoffset:0;stroke-opacity:1" />
        <path
           style="color:#000000;font-style:normal;font-variant:normal;font-weight:normal;font-stretch:normal;font-size:medium;line-height:normal;font-family:sans-serif;font-variant-ligatures:normal;font-variant-position:normal;font-variant-caps:normal;font-variant-numeric:normal;font-variant-alternates:normal;font-feature-settings:normal;text-indent:0;text-align:start;text-decoration:none;text-decoration-line:none;text-decoration-style:solid;text-decoration-color:#000000;letter-spacing:normal;word-spacing:normal;text-transform:none;writing-mode:lr-tb;direction:ltr;text-orientation:mixed;dominant-baseline:auto;baseline-shift:baseline;text-anchor:start;white-space:normal;shape-padding:0;clip-rule:nonzero;display:inline;overflow:visible;visibility:visible;opacity:1;isolation:auto;mix-blend-mode:normal;color-interpolation:sRGB;color-interpolation-filters:linearRGB;solid-color:#000000;solid-opacity:1;vector-effect:none;fill:#000000;fill-opacity:1;fill-rule:nonzero;stroke:none;stroke-width:0.38390133;stroke-linecap:round;stroke-linejoin:round;stroke-miterlimit:4;stroke-dasharray:none;stroke-dashoffset:0;stroke-opacity:1;color-rendering:auto;image-rendering:auto;shape-rendering:auto;text-rendering:auto;enable-background:accumulate"
           d="m 121.72461,170.92773 c -1.13986,0.0685 -2.3844,1.05824 -3.66602,3.62891 -0.0635,0.12742 -0.0837,0.3097 -0.10547,0.49219 -3.58066,0.0227 -5.6974,2.10498 -6.42382,4 -0.36924,0.96322 -0.40496,1.87965 -0.0488,2.47656 0.17806,0.29846 0.47091,0.50781 0.83594,0.55664 0.18501,0.0247 0.43044,-0.10493 0.64648,-0.1582 -0.2592,0.27381 -0.57,0.6174 -0.7793,1.10351 -0.23885,0.55475 -0.33687,1.24306 -0.0508,1.98438 0.28609,0.74131 0.94389,1.52392 2.17383,2.31445 a 0.19196986,0.19196986 0 0 0 0.043,0.0215 c 0.81091,0.27108 2.0789,0.47541 3.38281,0.41796 1.21952,-0.0537 2.44599,-0.37499 3.36133,-1.08789 0.39137,1.02118 1.03895,2.09754 1.99414,2.82618 0.64345,0.77392 1.60775,1.04671 2.62891,0.9707 1.02621,-0.0764 2.12353,-0.48856 3.09961,-1.08594 0.97607,-0.59738 1.83055,-1.38083 2.35937,-2.2207 0.48594,-0.77177 0.64288,-1.60532 0.36914,-2.36719 1.53358,-0.23993 2.99626,-1.21169 3.42774,-2.63086 0.22474,-0.73922 0.15771,-1.58568 -0.31641,-2.44726 -0.44763,-0.81344 -1.28778,-1.64053 -2.54687,-2.44727 1.06074,-0.85754 1.61485,-1.64679 1.64062,-2.35156 0.0138,-0.37679 -0.11914,-0.72295 -0.36133,-1.00195 -0.24219,-0.27901 -0.58839,-0.49544 -1.00781,-0.65821 -1.642,-0.63723 -4.46984,-0.43058 -7.22852,0.86133 -0.1945,-0.55523 -0.53628,-1.29488 -1.08398,-1.95117 -0.59425,-0.71208 -1.39388,-1.30322 -2.34375,-1.2461 z m 0.0234,0.38477 c 0.77704,-0.0467 1.47278,0.44525 2.02539,1.10742 0.5526,0.66218 0.94638,1.48391 1.10351,1.98633 a 0.19196986,0.19196986 0 0 0 0.26758,0.11523 c 2.73261,-1.32969 5.58841,-1.4861 7.09766,-0.90039 0.37731,0.14643 0.66751,0.33621 0.85547,0.55274 0.18795,0.21652 0.27981,0.45513 0.26953,0.73633 -0.0206,0.56239 -0.49281,1.33798 -1.66602,2.23242 a 0.19196986,0.19196986 0 0 0 0.0156,0.3164 c 1.35156,0.82741 2.17257,1.66612 2.60351,2.44922 0.43094,0.78311 0.48073,1.50713 0.28516,2.15039 -0.39115,1.28654 -1.81686,2.26127 -3.2832,2.42774 a 0.19196986,0.19196986 0 0 0 -0.15039,0.27539 c 0.32107,0.6639 0.16583,1.43102 -0.32032,2.20312 -0.48615,0.77211 -1.30287,1.52441 -2.23633,2.09571 -0.93346,0.5713 -1.9843,0.96102 -2.92773,1.03125 -0.94343,0.0702 -1.76258,-0.16844 -2.31445,-0.83985 a 0.19196986,0.19196986 0 0 0 -0.0332,-0.0312 c -0.94554,-0.71121 -1.61829,-1.83647 -1.98046,-2.86523 a 0.19196986,0.19196986 0 0 0 -0.3086,-0.0801 c -0.82401,0.73545 -2.08385,1.05226 -3.33594,1.10742 -1.24456,0.0548 -2.47055,-0.14953 -3.22265,-0.39843 -1.16488,-0.75467 -1.75668,-1.47578 -2.00196,-2.11133 -0.24741,-0.64111 -0.16263,-1.20676 0.0469,-1.69336 0.20951,-0.48661 0.54939,-0.88588 0.80469,-1.14063 0.12765,-0.12737 0.2318,-0.21683 0.29297,-0.27148 0.0153,-0.0137 0.0284,-0.0247 0.041,-0.0371 0.006,-0.006 0.0118,-0.0118 0.0215,-0.0234 0.005,-0.006 0.0111,-0.0133 0.0195,-0.0273 0.004,-0.007 0.0155,-0.0289 0.0156,-0.0293 1.4e-4,-3.4e-4 0.0137,-0.0642 0.0137,-0.0644 1e-5,-2.6e-4 -0.037,-0.11898 -0.0371,-0.11914 -1.1e-4,-1.7e-4 -0.0974,-0.0722 -0.0977,-0.0723 -2.5e-4,-8e-5 -0.0641,-0.01 -0.0644,-0.01 -3.9e-4,1e-5 -0.0252,0.002 -0.0332,0.004 -0.032,0.006 -0.039,0.0114 -0.0488,0.0156 -0.0196,0.009 -0.035,0.0168 -0.0547,0.0273 -0.43884,0.23506 -0.78746,0.30371 -1.04297,0.26953 -0.25552,-0.0342 -0.42875,-0.15869 -0.55664,-0.37305 -0.25578,-0.4287 -0.26365,-1.25099 0.0781,-2.14257 0.68355,-1.78316 2.68049,-3.82127 6.22071,-3.77539 a 0.19196986,0.19196986 0 0 0 0.19335,-0.17774 c 0.0171,-0.23543 0.0644,-0.43331 0.0996,-0.5039 1.25481,-2.51691 2.41326,-3.35996 3.34571,-3.41602 z"
           id="path1131-6"
           inkscape:connector-curvature="0" />
        <path
           sodipodi:nodetypes="cccccccc"
           inkscape:connector-curvature="0"
           id="path1131-4"
           d="m 118.62935,175.08431 c -0.0512,0.10269 -0.0862,0.28231 -0.10177,0.49634 -6.2275,-0.0807 -7.1554,7.20276 -3.97077,5.49694 0.49546,-0.26538 -3.37753,2.1179 0.78306,4.79207 0.10962,0.0367 0.23356,0.0712 0.36319,0.10448 -0.42359,-4.17441 0.51771,-8.55128 4.84881,-8.68032 0.0155,-0.21404 0.0507,-0.39366 0.10177,-0.49634 5.33193,-1.73056 2.27188,-4.81604 -2.02429,-1.71317 z"
           style="opacity:1;vector-effect:none;fill:#c9b8b8;fill-opacity:1;stroke:none;stroke-width:0.44617838px;stroke-linecap:butt;stroke-linejoin:miter;stroke-miterlimit:4;stroke-dasharray:none;stroke-dashoffset:0;stroke-opacity:1" />
        <path
           style="color:#000000;font-style:normal;font-variant:normal;font-weight:normal;font-stretch:normal;font-size:medium;line-height:normal;font-family:sans-serif;font-variant-ligatures:normal;font-variant-position:normal;font-variant-caps:normal;font-variant-numeric:normal;font-variant-alternates:normal;font-feature-settings:normal;text-indent:0;text-align:start;text-decoration:none;text-decoration-line:none;text-decoration-style:solid;text-decoration-color:#000000;letter-spacing:normal;word-spacing:normal;text-transform:none;writing-mode:lr-tb;direction:ltr;text-orientation:mixed;dominant-baseline:auto;baseline-shift:baseline;text-anchor:start;white-space:normal;shape-padding:0;clip-rule:nonzero;display:inline;overflow:visible;visibility:visible;opacity:1;isolation:auto;mix-blend-mode:normal;color-interpolation:sRGB;color-interpolation-filters:linearRGB;solid-color:#000000;solid-opacity:1;vector-effect:none;fill:#000000;fill-opacity:1;fill-rule:nonzero;stroke:none;stroke-width:0.28792599;stroke-linecap:round;stroke-linejoin:round;stroke-miterlimit:4;stroke-dasharray:none;stroke-dashoffset:0;stroke-opacity:1;color-rendering:auto;image-rendering:auto;shape-rendering:auto;text-rendering:auto;enable-background:accumulate"
           d="m 128.05664,178.33008 a 0.14397739,0.14397739 0 0 0 0.0156,0.28711 c 0.30621,-2.1e-4 0.65785,0.0231 0.86523,0.18945 0.49671,0.39853 0.87359,1.14283 0.99219,1.90625 0.11859,0.76342 -0.019,1.53129 -0.49024,2.00391 -0.041,0.0411 -0.19474,0.13056 -0.39257,0.21093 -0.19784,0.0804 -0.44405,0.16225 -0.69532,0.23438 -0.50253,0.14426 -1.04535,0.25 -1.23437,0.25 a 0.14397739,0.14397739 0 1 0 0,0.28711 c 0.27823,0 0.79729,-0.11131 1.31445,-0.25977 0.25858,-0.0742 0.51079,-0.15806 0.72266,-0.24414 0.21186,-0.0861 0.37858,-0.16537 0.48828,-0.27539 0.55988,-0.56151 0.7005,-1.42451 0.57226,-2.25 -0.12823,-0.82549 -0.52231,-1.62627 -1.09765,-2.08789 -0.3113,-0.24977 -0.73044,-0.25216 -1.04492,-0.25195 a 0.14397739,0.14397739 0 0 0 -0.0156,0 z"
           id="path1294"
           inkscape:connector-curvature="0" />
        <path
           style="color:#000000;font-style:normal;font-variant:normal;font-weight:normal;font-stretch:normal;font-size:medium;line-height:normal;font-family:sans-serif;font-variant-ligatures:normal;font-variant-position:normal;font-variant-caps:normal;font-variant-numeric:normal;font-variant-alternates:normal;font-feature-settings:normal;text-indent:0;text-align:start;text-decoration:none;text-decoration-line:none;text-decoration-style:solid;text-decoration-color:#000000;letter-spacing:normal;word-spacing:normal;text-transform:none;writing-mode:lr-tb;direction:ltr;text-orientation:mixed;dominant-baseline:auto;baseline-shift:baseline;text-anchor:start;white-space:normal;shape-padding:0;clip-rule:nonzero;display:inline;overflow:visible;visibility:visible;opacity:1;isolation:auto;mix-blend-mode:normal;color-interpolation:sRGB;color-interpolation-filters:linearRGB;solid-color:#000000;solid-opacity:1;vector-effect:none;fill:#000000;fill-opacity:1;fill-rule:nonzero;stroke:none;stroke-width:0.28792599;stroke-linecap:round;stroke-linejoin:round;stroke-miterlimit:4;stroke-dasharray:none;stroke-dashoffset:0;stroke-opacity:1;color-rendering:auto;image-rendering:auto;shape-rendering:auto;text-rendering:auto;enable-background:accumulate"
           d="m 120.06055,176.7832 c -0.32327,0.0114 -0.61452,0.19305 -0.85547,0.45313 -0.24096,0.26008 -0.43687,0.6034 -0.57227,0.9707 -0.1354,0.3673 -0.21072,0.75826 -0.19726,1.12109 0.0134,0.36284 0.11659,0.7038 0.35351,0.94141 0.50825,0.50974 1.18404,0.89581 1.80078,1.20508 a 0.14412129,0.14412129 0 1 0 0.12891,-0.25781 c -0.60562,-0.30369 -1.25741,-0.67987 -1.72656,-1.15039 -0.16827,-0.16876 -0.2559,-0.43295 -0.26758,-0.74805 -0.0117,-0.3151 0.0537,-0.67512 0.17773,-1.01172 0.12409,-0.3366 0.30597,-0.6508 0.51368,-0.875 0.2077,-0.22419 0.43516,-0.35363 0.65429,-0.36133 a 0.14397739,0.14397739 0 1 0 -0.01,-0.28711 z"
           id="path1296"
           inkscape:connector-curvature="0" />
        <path
           style="color:#000000;font-style:normal;font-variant:normal;font-weight:normal;font-stretch:normal;font-size:medium;line-height:normal;font-family:sans-serif;font-variant-ligatures:normal;font-variant-position:normal;font-variant-caps:normal;font-variant-numeric:normal;font-variant-alternates:normal;font-feature-settings:normal;text-indent:0;text-align:start;text-decoration:none;text-decoration-line:none;text-decoration-style:solid;text-decoration-color:#000000;letter-spacing:normal;word-spacing:normal;text-transform:none;writing-mode:lr-tb;direction:ltr;text-orientation:mixed;dominant-baseline:auto;baseline-shift:baseline;text-anchor:start;white-space:normal;shape-padding:0;clip-rule:nonzero;display:inline;overflow:visible;visibility:visible;opacity:1;isolation:auto;mix-blend-mode:normal;color-interpolation:sRGB;color-interpolation-filters:linearRGB;solid-color:#000000;solid-opacity:1;vector-effect:none;fill:#000000;fill-opacity:1;fill-rule:nonzero;stroke:none;stroke-width:0.28792599;stroke-linecap:round;stroke-linejoin:round;stroke-miterlimit:4;stroke-dasharray:none;stroke-dashoffset:0;stroke-opacity:1;color-rendering:auto;image-rendering:auto;shape-rendering:auto;text-rendering:auto;enable-background:accumulate"
           d="m 116.46289,182.82031 a 0.14397739,0.14397739 0 0 0 -0.13867,0.13477 c -0.0375,0.4761 -0.0164,0.83578 0.0742,1.11719 0.0906,0.2814 0.26105,0.48298 0.48437,0.60351 0.44665,0.24107 1.06366,0.20313 1.86133,0.20313 a 0.144535,0.144535 0 1 0 0,-0.28907 c -0.80337,0 -1.39639,0.009 -1.72461,-0.16796 -0.16411,-0.0886 -0.27334,-0.21281 -0.3457,-0.4375 -0.0724,-0.2247 -0.0984,-0.55057 -0.0625,-1.00586 a 0.14397739,0.14397739 0 0 0 -0.14844,-0.15821 z"
           id="path1298"
           inkscape:connector-curvature="0" />
      </g>
    </g>
    <g
       transform="matrix(0.58093173,0,0,0.58093173,-40.557252,136.70919)"
       id="g2143">
      <path
         style="opacity:1;vector-effect:none;fill:#b29a9a;fill-opacity:1;stroke:none;stroke-width:0.39627907px;stroke-linecap:butt;stroke-linejoin:miter;stroke-miterlimit:4;stroke-dasharray:none;stroke-dashoffset:0;stroke-opacity:1"
         d="m 106.11762,164.31306 c -0.44521,-0.0169 -0.98858,-0.113 -1.40112,0.12365 -0.61138,0.35072 -1.11454,0.78693 -1.29335,1.60748 -0.0616,0.28275 0.14626,0.86557 -0.10778,0.86557 -2.66716,-3.7463 -6.233603,1.24551 -6.278133,3.21496 0,0.1349 -0.09562,1.00317 0,1.11288 0.07621,0.0874 0.323339,0.12365 0.323339,0 -1.348598,-1.24054 -3.575124,2.48691 -3.206426,3.83322 -0.324762,7.65627 7.42042,4.03509 7.33702,4.10256 -0.0839,0.0962 0.0906,0.46015 0.10779,0.4946 0.73755,1.48081 2.26115,2.44246 3.77226,2.22575 1.43864,-0.20631 2.76774,-2.17648 2.47892,-3.83323 -0.0206,-0.1182 -0.44116,-1.225 -0.43111,-1.23652 0.13273,-0.15229 1.15962,0.54154 1.29334,0.61826 7.3265,5.48069 7.04635,-9.8669 1.41975,-7.85832 2.64793,-2.90456 -0.58587,-5.14093 -4.0145,-5.27086 z"
         id="path1164-8"
         inkscape:connector-curvature="0"
         sodipodi:nodetypes="sscccccccccccccs" />
      <path
         sodipodi:nodetypes="ccccccccc"
         inkscape:connector-curvature="0"
         id="path1164-8-0"
         d="m 103.35656,166.85718 c -0.0553,0.25048 0.13109,0.76677 -0.097,0.76677 -2.39421,-3.31862 -5.59571,1.10363 -5.635682,2.84825 0,0.0887 -0.04695,0.53431 -0.03618,0.79835 -1.209438,-0.35945 -2.854436,2.49246 -2.551803,3.58297 -0.124026,2.88538 1.063887,3.95951 2.463201,4.24949 -0.09629,-0.48395 -0.138855,-1.04828 -0.110402,-1.71023 -0.06309,-2.40421 2.499661,-3.13108 2.587985,-4.38133 13.310301,-1.42688 4.379341,-10.31998 3.379831,-6.15427 z"
         style="opacity:1;vector-effect:none;fill:#c9b8b8;fill-opacity:1;stroke:none;stroke-width:0.39627907px;stroke-linecap:butt;stroke-linejoin:miter;stroke-miterlimit:4;stroke-dasharray:none;stroke-dashoffset:0;stroke-opacity:1" />
      <path
         sodipodi:nodetypes="ccccccccccccccc"
         inkscape:connector-curvature="0"
         id="path1164-8-4"
         d="m 112.36714,169.68616 c 0.87858,3.53615 -0.70963,8.3965 -5.34231,4.93097 -0.13372,-0.0767 -1.16073,-0.77034 -1.29346,-0.61806 -0.01,0.0115 0.41038,1.11842 0.43098,1.23662 0.28882,1.65675 -1.04028,3.62705 -2.47892,3.83336 -1.5111,0.21671 -3.03483,-0.74541 -3.772375,-2.22622 -0.0172,-0.0344 -0.191387,-0.39834 -0.107487,-0.49454 0.05334,-0.0431 -3.093564,1.41814 -5.285465,0.47748 0.835649,5.38709 7.331287,2.35662 7.254857,2.41846 -0.0839,0.0962 0.0903,0.46009 0.10748,0.49455 0.73755,1.48081 2.26127,2.44241 3.77238,2.2257 1.43864,-0.20631 2.76774,-2.17609 2.47892,-3.83284 -0.0206,-0.1182 -0.44103,-1.2251 -0.43098,-1.23662 0.13273,-0.15229 1.15923,0.54133 1.29295,0.61805 6.35289,4.75237 6.98558,-6.1534 3.37343,-7.82691 z"
         style="opacity:1;vector-effect:none;fill:#a98f8f;fill-opacity:1;stroke:none;stroke-width:0.39627907px;stroke-linecap:butt;stroke-linejoin:miter;stroke-miterlimit:4;stroke-dasharray:none;stroke-dashoffset:0;stroke-opacity:1" />
      <path
         style="color:#000000;font-style:normal;font-variant:normal;font-weight:normal;font-stretch:normal;font-size:medium;line-height:normal;font-family:sans-serif;font-variant-ligatures:normal;font-variant-position:normal;font-variant-caps:normal;font-variant-numeric:normal;font-variant-alternates:normal;font-feature-settings:normal;text-indent:0;text-align:start;text-decoration:none;text-decoration-line:none;text-decoration-style:solid;text-decoration-color:#000000;letter-spacing:normal;word-spacing:normal;text-transform:none;writing-mode:lr-tb;direction:ltr;text-orientation:mixed;dominant-baseline:auto;baseline-shift:baseline;text-anchor:start;white-space:normal;shape-padding:0;clip-rule:nonzero;display:inline;overflow:visible;visibility:visible;opacity:1;isolation:auto;mix-blend-mode:normal;color-interpolation:sRGB;color-interpolation-filters:linearRGB;solid-color:#000000;solid-opacity:1;vector-effect:none;fill:#000000;fill-opacity:1;fill-rule:nonzero;stroke:none;stroke-width:0.25820589;stroke-linecap:round;stroke-linejoin:round;stroke-miterlimit:4;stroke-dasharray:none;stroke-dashoffset:0;stroke-opacity:1;color-rendering:auto;image-rendering:auto;shape-rendering:auto;text-rendering:auto;enable-background:accumulate"
         d="m 101.71875,169.09961 c -0.55603,0.19046 -0.97347,0.65365 -1.18359,1.49414 -0.11119,0.44476 -0.23181,0.87491 -0.11328,1.23047 a 0.12911586,0.12911586 0 1 0 0.24414,-0.082 c -0.0782,-0.23472 0.008,-0.64174 0.11914,-1.08594 0.1967,-0.78681 0.54129,-1.14935 1.01757,-1.3125 0.47629,-0.16315 1.1101,-0.1122 1.84766,0.0176 a 0.12911586,0.12911586 0 1 0 0.0449,-0.25391 c -0.74978,-0.13192 -1.42053,-0.19827 -1.97656,-0.008 z"
         id="path2115"
         inkscape:connector-curvature="0" />
      <path
         style="color:#000000;font-style:normal;font-variant:normal;font-weight:normal;font-stretch:normal;font-size:medium;line-height:normal;font-family:sans-serif;font-variant-ligatures:normal;font-variant-position:normal;font-variant-caps:normal;font-variant-numeric:normal;font-variant-alternates:normal;font-feature-settings:normal;text-indent:0;text-align:start;text-decoration:none;text-decoration-line:none;text-decoration-style:solid;text-decoration-color:#000000;letter-spacing:normal;word-spacing:normal;text-transform:none;writing-mode:lr-tb;direction:ltr;text-orientation:mixed;dominant-baseline:auto;baseline-shift:baseline;text-anchor:start;white-space:normal;shape-padding:0;clip-rule:nonzero;display:inline;overflow:visible;visibility:visible;opacity:1;isolation:auto;mix-blend-mode:normal;color-interpolation:sRGB;color-interpolation-filters:linearRGB;solid-color:#000000;solid-opacity:1;vector-effect:none;fill:#000000;fill-opacity:1;fill-rule:nonzero;stroke:none;stroke-width:0.25820589;stroke-linecap:round;stroke-linejoin:round;stroke-miterlimit:4;stroke-dasharray:none;stroke-dashoffset:0;stroke-opacity:1;color-rendering:auto;image-rendering:auto;shape-rendering:auto;text-rendering:auto;enable-background:accumulate"
         d="m 108.86719,171.53711 a 0.12911586,0.12911586 0 0 0 -0.0957,0.19336 c 0.23895,0.42411 0.26509,0.74492 0.17383,0.99805 -0.0913,0.25312 -0.30973,0.45528 -0.61523,0.60742 -0.61101,0.30427 -1.54509,0.38362 -2.20703,0.28906 -0.662,-0.0946 -1.25952,-0.54542 -1.80078,-0.90625 a 0.12911586,0.12911586 0 1 0 -0.14258,0.21484 c 0.52988,0.35325 1.15417,0.83787 1.90625,0.94532 0.71315,0.10187 1.67114,0.0293 2.35742,-0.3125 0.34314,-0.17088 0.62509,-0.41439 0.74609,-0.75 0.121,-0.33562 0.0698,-0.74582 -0.19336,-1.21289 a 0.12911586,0.12911586 0 0 0 -0.1289,-0.0664 z"
         id="path2117"
         inkscape:connector-curvature="0" />
      <path
         style="color:#000000;font-style:normal;font-variant:normal;font-weight:normal;font-stretch:normal;font-size:medium;line-height:normal;font-family:sans-serif;font-variant-ligatures:normal;font-variant-position:normal;font-variant-caps:normal;font-variant-numeric:normal;font-variant-alternates:normal;font-feature-settings:normal;text-indent:0;text-align:start;text-decoration:none;text-decoration-line:none;text-decoration-style:solid;text-decoration-color:#000000;letter-spacing:normal;word-spacing:normal;text-transform:none;writing-mode:lr-tb;direction:ltr;text-orientation:mixed;dominant-baseline:auto;baseline-shift:baseline;text-anchor:start;white-space:normal;shape-padding:0;clip-rule:nonzero;display:inline;overflow:visible;visibility:visible;opacity:1;isolation:auto;mix-blend-mode:normal;color-interpolation:sRGB;color-interpolation-filters:linearRGB;solid-color:#000000;solid-opacity:1;vector-effect:none;fill:#000000;fill-opacity:1;fill-rule:nonzero;stroke:none;stroke-width:0.25820589;stroke-linecap:round;stroke-linejoin:round;stroke-miterlimit:4;stroke-dasharray:none;stroke-dashoffset:0;stroke-opacity:1;color-rendering:auto;image-rendering:auto;shape-rendering:auto;text-rendering:auto;enable-background:accumulate"
         d="m 99.017578,175.35938 a 0.12911586,0.12911586 0 0 0 -0.107422,0.15039 c 0.152194,0.99632 1.134314,1.69896 2.167964,2.0957 0.51683,0.19837 1.05064,0.32143 1.51954,0.35937 0.46889,0.0379 0.87126,-4.1e-4 1.14062,-0.16406 a 0.12911586,0.12911586 0 1 0 -0.13281,-0.2207 c -0.17955,0.10908 -0.54628,0.16256 -0.98633,0.12695 -0.44005,-0.0356 -0.95512,-0.15215 -1.44922,-0.3418 -0.98819,-0.37929 -1.874561,-1.04779 -2.003904,-1.89453 a 0.12911586,0.12911586 0 0 0 -0.148438,-0.11132 z"
         id="path2119"
         inkscape:connector-curvature="0" />
    </g>
    <g
       transform="matrix(-0.58093173,0,0,0.58093173,11.721896,186.76859)"
       id="g2143-7">
      <g
         id="g3084"
         transform="translate(-118.4913,-1.0038352)">
        <path
           sodipodi:nodetypes="sscccccccccccccs"
           inkscape:connector-curvature="0"
           id="path1164-8-2"
           d="m 106.11762,164.31306 c -0.44521,-0.0169 -0.98858,-0.113 -1.40112,0.12365 -0.61138,0.35072 -1.11454,0.78693 -1.29335,1.60748 -0.0616,0.28275 0.14626,0.86557 -0.10778,0.86557 -2.66716,-3.7463 -6.233603,1.24551 -6.278133,3.21496 0,0.1349 -0.09562,1.00317 0,1.11288 0.07621,0.0874 0.323339,0.12365 0.323339,0 -1.348598,-1.24054 -3.575124,2.48691 -3.206426,3.83322 -0.324762,7.65627 7.42042,4.03509 7.33702,4.10256 -0.0839,0.0962 0.0906,0.46015 0.10779,0.4946 0.73755,1.48081 2.26115,2.44246 3.77226,2.22575 1.43864,-0.20631 2.76774,-2.17648 2.47892,-3.83323 -0.0206,-0.1182 -0.44116,-1.225 -0.43111,-1.23652 0.13273,-0.15229 1.15962,0.54154 1.29334,0.61826 7.3265,5.48069 7.04635,-9.8669 1.41975,-7.85832 2.64793,-2.90456 -0.58587,-5.14093 -4.0145,-5.27086 z"
           style="opacity:1;vector-effect:none;fill:#b29a9a;fill-opacity:1;stroke:none;stroke-width:0.39627907px;stroke-linecap:butt;stroke-linejoin:miter;stroke-miterlimit:4;stroke-dasharray:none;stroke-dashoffset:0;stroke-opacity:1" />
        <path
           style="opacity:1;vector-effect:none;fill:#a98f8f;fill-opacity:1;stroke:none;stroke-width:0.39627907px;stroke-linecap:butt;stroke-linejoin:miter;stroke-miterlimit:4;stroke-dasharray:none;stroke-dashoffset:0;stroke-opacity:1"
           d="m 112.36714,169.68616 c 0.87858,3.53615 -0.70963,8.3965 -5.34231,4.93097 -0.13372,-0.0767 -1.16073,-0.77034 -1.29346,-0.61806 -0.01,0.0115 0.41038,1.11842 0.43098,1.23662 0.28882,1.65675 -1.04028,3.62705 -2.47892,3.83336 -1.5111,0.21671 -3.03483,-0.74541 -3.772375,-2.22622 -0.0172,-0.0344 -0.191387,-0.39834 -0.107487,-0.49454 0.05334,-0.0431 -3.093564,1.41814 -5.285465,0.47748 0.835649,5.38709 7.331287,2.35662 7.254857,2.41846 -0.0839,0.0962 0.0903,0.46009 0.10748,0.49455 0.73755,1.48081 2.26127,2.44241 3.77238,2.2257 1.43864,-0.20631 2.76774,-2.17609 2.47892,-3.83284 -0.0206,-0.1182 -0.44103,-1.2251 -0.43098,-1.23662 0.13273,-0.15229 1.15923,0.54133 1.29295,0.61805 6.35289,4.75237 6.98558,-6.1534 3.37343,-7.82691 z"
           id="path1164-8-4-2"
           inkscape:connector-curvature="0"
           sodipodi:nodetypes="ccccccccccccccc" />
        <path
           sodipodi:nodetypes="ccccccccc"
           inkscape:connector-curvature="0"
           id="path1164-8-2-8"
           d="m 105.73918,165.16561 c 0.2112,-0.003 0.42646,0.0213 0.61989,0.0286 2.97914,0.1129 5.78901,2.05582 3.48822,4.5796 4.21391,-1.50428 4.97174,8.1858 1.02568,7.84367 0.60594,-2.66065 -0.66788,-6.58388 -3.46117,-5.58673 2.25608,-4.17891 -3.30047,-3.76391 -3.39471,-5.33243 0.15537,-0.71297 0.59261,-1.09194 1.12384,-1.39668 0.17923,-0.10281 0.38705,-0.13304 0.59825,-0.13603 z"
           style="opacity:1;vector-effect:none;fill:#c9b8b8;fill-opacity:1;stroke:none;stroke-width:0.34432819px;stroke-linecap:butt;stroke-linejoin:miter;stroke-miterlimit:4;stroke-dasharray:none;stroke-dashoffset:0;stroke-opacity:1" />
        <path
           style="color:#000000;font-style:normal;font-variant:normal;font-weight:normal;font-stretch:normal;font-size:medium;line-height:normal;font-family:sans-serif;font-variant-ligatures:normal;font-variant-position:normal;font-variant-caps:normal;font-variant-numeric:normal;font-variant-alternates:normal;font-feature-settings:normal;text-indent:0;text-align:start;text-decoration:none;text-decoration-line:none;text-decoration-style:solid;text-decoration-color:#000000;letter-spacing:normal;word-spacing:normal;text-transform:none;writing-mode:lr-tb;direction:ltr;text-orientation:mixed;dominant-baseline:auto;baseline-shift:baseline;text-anchor:start;white-space:normal;shape-padding:0;clip-rule:nonzero;display:inline;overflow:visible;visibility:visible;opacity:1;isolation:auto;mix-blend-mode:normal;color-interpolation:sRGB;color-interpolation-filters:linearRGB;solid-color:#000000;solid-opacity:1;vector-effect:none;fill:#000000;fill-opacity:1;fill-rule:nonzero;stroke:none;stroke-width:0.25820589;stroke-linecap:round;stroke-linejoin:round;stroke-miterlimit:4;stroke-dasharray:none;stroke-dashoffset:0;stroke-opacity:1;color-rendering:auto;image-rendering:auto;shape-rendering:auto;text-rendering:auto;enable-background:accumulate"
           d="m 101.71875,169.09961 c -0.55603,0.19046 -0.97347,0.65365 -1.18359,1.49414 -0.11119,0.44476 -0.23181,0.87491 -0.11328,1.23047 a 0.12911586,0.12911586 0 1 0 0.24414,-0.082 c -0.0782,-0.23472 0.008,-0.64174 0.11914,-1.08594 0.1967,-0.78681 0.54129,-1.14935 1.01757,-1.3125 0.47629,-0.16315 1.1101,-0.1122 1.84766,0.0176 a 0.12911586,0.12911586 0 1 0 0.0449,-0.25391 c -0.74978,-0.13192 -1.42053,-0.19827 -1.97656,-0.008 z"
           id="path2115-6"
           inkscape:connector-curvature="0" />
        <path
           style="color:#000000;font-style:normal;font-variant:normal;font-weight:normal;font-stretch:normal;font-size:medium;line-height:normal;font-family:sans-serif;font-variant-ligatures:normal;font-variant-position:normal;font-variant-caps:normal;font-variant-numeric:normal;font-variant-alternates:normal;font-feature-settings:normal;text-indent:0;text-align:start;text-decoration:none;text-decoration-line:none;text-decoration-style:solid;text-decoration-color:#000000;letter-spacing:normal;word-spacing:normal;text-transform:none;writing-mode:lr-tb;direction:ltr;text-orientation:mixed;dominant-baseline:auto;baseline-shift:baseline;text-anchor:start;white-space:normal;shape-padding:0;clip-rule:nonzero;display:inline;overflow:visible;visibility:visible;opacity:1;isolation:auto;mix-blend-mode:normal;color-interpolation:sRGB;color-interpolation-filters:linearRGB;solid-color:#000000;solid-opacity:1;vector-effect:none;fill:#000000;fill-opacity:1;fill-rule:nonzero;stroke:none;stroke-width:0.25820589;stroke-linecap:round;stroke-linejoin:round;stroke-miterlimit:4;stroke-dasharray:none;stroke-dashoffset:0;stroke-opacity:1;color-rendering:auto;image-rendering:auto;shape-rendering:auto;text-rendering:auto;enable-background:accumulate"
           d="m 108.86719,171.53711 a 0.12911586,0.12911586 0 0 0 -0.0957,0.19336 c 0.23895,0.42411 0.26509,0.74492 0.17383,0.99805 -0.0913,0.25312 -0.30973,0.45528 -0.61523,0.60742 -0.61101,0.30427 -1.54509,0.38362 -2.20703,0.28906 -0.662,-0.0946 -1.25952,-0.54542 -1.80078,-0.90625 a 0.12911586,0.12911586 0 1 0 -0.14258,0.21484 c 0.52988,0.35325 1.15417,0.83787 1.90625,0.94532 0.71315,0.10187 1.67114,0.0293 2.35742,-0.3125 0.34314,-0.17088 0.62509,-0.41439 0.74609,-0.75 0.121,-0.33562 0.0698,-0.74582 -0.19336,-1.21289 a 0.12911586,0.12911586 0 0 0 -0.1289,-0.0664 z"
           id="path2117-0"
           inkscape:connector-curvature="0" />
        <path
           style="color:#000000;font-style:normal;font-variant:normal;font-weight:normal;font-stretch:normal;font-size:medium;line-height:normal;font-family:sans-serif;font-variant-ligatures:normal;font-variant-position:normal;font-variant-caps:normal;font-variant-numeric:normal;font-variant-alternates:normal;font-feature-settings:normal;text-indent:0;text-align:start;text-decoration:none;text-decoration-line:none;text-decoration-style:solid;text-decoration-color:#000000;letter-spacing:normal;word-spacing:normal;text-transform:none;writing-mode:lr-tb;direction:ltr;text-orientation:mixed;dominant-baseline:auto;baseline-shift:baseline;text-anchor:start;white-space:normal;shape-padding:0;clip-rule:nonzero;display:inline;overflow:visible;visibility:visible;opacity:1;isolation:auto;mix-blend-mode:normal;color-interpolation:sRGB;color-interpolation-filters:linearRGB;solid-color:#000000;solid-opacity:1;vector-effect:none;fill:#000000;fill-opacity:1;fill-rule:nonzero;stroke:none;stroke-width:0.25820589;stroke-linecap:round;stroke-linejoin:round;stroke-miterlimit:4;stroke-dasharray:none;stroke-dashoffset:0;stroke-opacity:1;color-rendering:auto;image-rendering:auto;shape-rendering:auto;text-rendering:auto;enable-background:accumulate"
           d="m 99.017578,175.35938 a 0.12911586,0.12911586 0 0 0 -0.107422,0.15039 c 0.152194,0.99632 1.134314,1.69896 2.167964,2.0957 0.51683,0.19837 1.05064,0.32143 1.51954,0.35937 0.46889,0.0379 0.87126,-4.1e-4 1.14062,-0.16406 a 0.12911586,0.12911586 0 1 0 -0.13281,-0.2207 c -0.17955,0.10908 -0.54628,0.16256 -0.98633,0.12695 -0.44005,-0.0356 -0.95512,-0.15215 -1.44922,-0.3418 -0.98819,-0.37929 -1.874561,-1.04779 -2.003904,-1.89453 a 0.12911586,0.12911586 0 0 0 -0.148438,-0.11132 z"
           id="path2119-3"
           inkscape:connector-curvature="0" />
      </g>
    </g>
    <path
       style="color:#000000;font-style:normal;font-variant:normal;font-weight:normal;font-stretch:normal;font-size:medium;line-height:normal;font-family:sans-serif;font-variant-ligatures:normal;font-variant-position:normal;font-variant-caps:normal;font-variant-numeric:normal;font-variant-alternates:normal;font-feature-settings:normal;text-indent:0;text-align:start;text-decoration:none;text-decoration-line:none;text-decoration-style:solid;text-decoration-color:#000000;letter-spacing:normal;word-spacing:normal;text-transform:none;writing-mode:lr-tb;direction:ltr;text-orientation:mixed;dominant-baseline:auto;baseline-shift:baseline;text-anchor:start;white-space:normal;shape-padding:0;clip-rule:nonzero;display:inline;overflow:visible;visibility:visible;opacity:1;isolation:auto;mix-blend-mode:normal;color-interpolation:sRGB;color-interpolation-filters:linearRGB;solid-color:#000000;solid-opacity:1;vector-effect:none;fill:#000000;fill-opacity:1;fill-rule:nonzero;stroke:none;stroke-width:0.2;stroke-linecap:round;stroke-linejoin:round;stroke-miterlimit:4;stroke-dasharray:none;stroke-dashoffset:0;stroke-opacity:1;color-rendering:auto;image-rendering:auto;shape-rendering:auto;text-rendering:auto;enable-background:accumulate"
       d="m 21.094127,232.06354 c -0.24736,-0.009 -0.585323,-0.0771 -0.867993,0.0851 -0.365673,0.20977 -0.688166,0.49199 -0.798781,0.99961 -0.02591,0.11895 0.0012,0.24425 0.008,0.34152 5.82e-4,0.01 -2.27e-4,0.0106 0,0.0193 -0.373162,-0.46526 -0.780784,-0.70776 -1.189092,-0.7239 -0.446428,-0.0177 -0.873995,0.19115 -1.243559,0.49924 -0.369565,0.30808 -0.684815,0.71834 -0.912244,1.12669 -0.22743,0.40835 -0.368436,0.81145 -0.375564,1.12669 a 0.10000999,0.10000999 0 0 0 0,0.002 c 0,0.008 -0.0036,0.0586 -0.0079,0.118 -0.0044,0.0594 -0.0089,0.13186 -0.01248,0.20537 -0.0035,0.0727 -0.0061,0.14602 -0.0034,0.20878 -0.132408,-0.0111 -0.257794,-0.10419 -0.384641,-0.0408 -0.251843,0.12575 -0.487662,0.36379 -0.690991,0.64674 -0.203328,0.28296 -0.372981,0.6114 -0.479949,0.92359 -0.106968,0.3122 -0.15533,0.6069 -0.09191,0.8385 -0.04095,1.10765 0.203288,1.83527 0.616105,2.28401 0.417357,0.45367 0.99121,0.61625 1.555581,0.63426 0.564371,0.018 1.12485,-0.10515 1.543101,-0.2292 0.209118,-0.062 0.382893,-0.12444 0.502646,-0.17019 0.01993,-0.008 0.02847,-0.0116 0.04537,-0.0181 0.0041,0.0144 0.0058,0.0305 0.01022,0.0443 0.02318,0.0704 0.05153,0.12803 0.059,0.14296 0.445267,0.89398 1.367014,1.48108 2.29536,1.34794 0.457873,-0.0657 0.87694,-0.40248 1.165268,-0.8419 0.288328,-0.4394 0.448049,-0.98771 0.358545,-1.50111 -0.0041,-0.0239 -0.0099,-0.038 -0.01812,-0.0635 -0.0083,-0.0255 -0.01824,-0.0576 -0.03062,-0.093 -0.02481,-0.0709 -0.05641,-0.15764 -0.08737,-0.24281 -0.02335,-0.0642 -0.04421,-0.12 -0.06354,-0.1736 0.05368,0.0238 0.111672,0.0516 0.177004,0.0885 0.159582,0.0902 0.305721,0.18738 0.365354,0.22239 0.540865,0.4046 1.016927,0.62204 1.435308,0.68872 0.418382,0.0667 0.778955,-0.0221 1.065417,-0.22125 0.572932,-0.39821 0.850653,-1.20709 0.892956,-2.06844 0.04229,-0.86134 -0.151512,-1.78326 -0.576394,-2.43038 -0.212442,-0.32356 -0.484834,-0.57949 -0.816935,-0.71482 -0.278662,-0.11356 -0.61637,-0.0792 -0.964435,0.006 0.296856,-0.3741 0.504308,-0.74329 0.512853,-1.08244 0.0098,-0.39003 -0.157416,-0.73979 -0.434567,-1.02684 -0.554296,-0.5741 -1.541055,-0.91911 -2.557459,-0.95764 z m -0.008,0.1997 c 0.975391,0.0369 1.922908,0.38015 2.421306,0.89635 0.249197,0.2581 0.38729,0.55339 0.378965,0.88388 -0.0083,0.3305 -0.16438,0.70572 -0.537815,1.11535 a 0.10000999,0.10000999 0 0 0 0.106654,0.16111 c 0.389474,-0.13903 0.720606,-0.12668 1.006424,-0.0102 0.285813,0.11647 0.52906,0.34146 0.725026,0.63993 0.391937,0.59694 0.585079,1.48633 0.544624,2.31011 -0.04043,0.82378 -0.31526,1.57367 -0.806723,1.91526 -0.245728,0.17079 -0.545571,0.24692 -0.920185,0.18721 -0.374614,-0.0597 -0.823628,-0.2599 -1.346809,-0.65127 a 0.10000999,0.10000999 0 0 0 -0.01022,-0.007 c -0.02179,-0.0125 -0.203884,-0.1326 -0.376699,-0.23033 -0.08641,-0.0489 -0.172676,-0.0931 -0.249621,-0.12254 -0.03846,-0.0148 -0.07494,-0.0264 -0.113461,-0.0306 -0.03852,-0.004 -0.09431,-0.004 -0.137292,0.0454 -2.3e-5,3e-5 -0.01929,0.034 -0.01929,0.034 -1.7e-5,4e-5 -0.0046,0.0203 -0.0046,0.0205 -1.7e-5,1.2e-4 -1.7e-5,0.019 0,0.0193 2.9e-5,4.2e-4 4.76e-4,0.0116 0.0012,0.0148 0.0012,0.006 0.0023,0.01 0.0035,0.0136 0.0023,0.008 0.0058,0.0151 0.0091,0.025 0.0066,0.0197 0.01487,0.0457 0.02608,0.0772 0.02248,0.0629 0.0531,0.14648 0.08396,0.23146 0.03091,0.085 0.06203,0.17134 0.08623,0.24055 0.01208,0.0346 0.02324,0.0656 0.03061,0.0885 0.0074,0.0228 0.01139,0.0431 0.01022,0.0363 0.07828,0.44906 -0.06319,0.95359 -0.327913,1.35702 -0.264719,0.40344 -0.648959,0.69921 -1.026837,0.7534 -0.827357,0.11865 -1.676058,-0.41136 -2.087724,-1.23788 -0.0023,-0.005 -0.03096,-0.0626 -0.0488,-0.11687 -0.0089,-0.0271 -0.01545,-0.0545 -0.01702,-0.0704 -0.0018,-0.0159 0.0083,-0.0123 -0.01133,0.0102 l -0.01249,0.0113 c 1.92e-4,-1.5e-4 0.02376,-0.0271 0.02382,-0.0272 5.2e-5,-9e-5 -0.05891,-0.14635 -0.059,-0.14637 -8.7e-5,-3e-5 -0.04514,-0.003 -0.04537,-0.003 -2.21e-4,4e-5 -0.0079,0.003 -0.01022,0.003 -0.0093,0.002 -0.01139,0.003 -0.01586,0.005 -0.009,0.003 -0.02004,0.009 -0.0352,0.0147 -0.03027,0.0121 -0.07574,0.03 -0.133887,0.0522 -0.116297,0.0444 -0.284959,0.10547 -0.48789,0.16566 -0.405871,0.12037 -0.948718,0.23706 -1.479563,0.22011 -0.530846,-0.017 -1.043179,-0.1644 -1.414888,-0.56845 -0.371708,-0.40405 -0.613783,-1.07623 -0.567316,-2.17169 a 0.10000999,0.10000999 0 0 0 -0.0034,-0.0306 c -0.04367,-0.15946 -0.0113,-0.42923 0.0885,-0.72049 0.0998,-0.29127 0.262659,-0.60533 0.453853,-0.8714 0.191193,-0.26607 0.41291,-0.48345 0.61724,-0.58548 0.128607,-0.0642 0.230646,0.003 0.339255,0.0318 0.003,0.004 6.96e-4,0.007 0.0045,0.0113 0.05282,0.0606 0.113894,0.0753 0.179272,0.0794 0.03269,0.002 0.06777,5.8e-4 0.106656,-0.0193 0.03889,-0.0202 0.07716,-0.0747 0.07716,-0.12595 a 0.10000999,0.10000999 0 0 0 -0.0329,-0.0737 c -0.05167,-0.0475 -0.11866,0.007 -0.175868,-0.0193 -9.87e-4,-0.01 -0.0029,-0.0159 -0.0034,-0.0283 -0.0023,-0.0517 8e-6,-0.1214 0.0034,-0.19175 0.0034,-0.0703 0.0082,-0.14162 0.01248,-0.20083 0.0042,-0.0582 0.0078,-0.0993 0.0079,-0.13048 0.0058,-0.25683 0.133862,-0.64563 0.350601,-1.03479 0.21674,-0.38916 0.520411,-0.78209 0.865725,-1.06996 0.345314,-0.28786 0.728763,-0.46768 1.107397,-0.45272 0.378639,0.015 0.76741,0.2185 1.142576,0.74546 a 0.10000999,0.10000999 0 0 0 0.08056,0.042 c 0.03759,0 0.08039,-0.0136 0.110063,-0.0397 0.02969,-0.0261 0.04485,-0.0582 0.05333,-0.0874 0.01696,-0.0583 0.01412,-0.11365 0.01022,-0.17019 -0.0078,-0.11308 -0.02237,-0.23949 -0.01249,-0.28479 0.09714,-0.44576 0.358801,-0.67028 0.703468,-0.868 0.196651,-0.1128 0.490295,-0.0692 0.760207,-0.059 z m -2.760558,8.47002 c -0.0071,0.008 -0.0012,0.0154 -0.0058,0.0238 -5.82e-4,-0.002 -0.0046,-0.0113 -0.0046,-0.0113 -2.4e-5,4e-5 0.0052,-0.006 0.01022,-0.0125 z"
       id="path1164-7"
       inkscape:connector-curvature="0" />
    <path
       style="color:#000000;font-style:normal;font-variant:normal;font-weight:normal;font-stretch:normal;font-size:medium;line-height:normal;font-family:sans-serif;font-variant-ligatures:normal;font-variant-position:normal;font-variant-caps:normal;font-variant-numeric:normal;font-variant-alternates:normal;font-feature-settings:normal;text-indent:0;text-align:start;text-decoration:none;text-decoration-line:none;text-decoration-style:solid;text-decoration-color:#000000;letter-spacing:normal;word-spacing:normal;text-transform:none;writing-mode:lr-tb;direction:ltr;text-orientation:mixed;dominant-baseline:auto;baseline-shift:baseline;text-anchor:start;white-space:normal;shape-padding:0;clip-rule:nonzero;display:inline;overflow:visible;visibility:visible;opacity:1;isolation:auto;mix-blend-mode:normal;color-interpolation:sRGB;color-interpolation-filters:linearRGB;solid-color:#000000;solid-opacity:1;vector-effect:none;fill:#000000;fill-opacity:1;fill-rule:nonzero;stroke:none;stroke-width:0.2;stroke-linecap:round;stroke-linejoin:round;stroke-miterlimit:4;stroke-dasharray:none;stroke-dashoffset:0;stroke-opacity:1;color-rendering:auto;image-rendering:auto;shape-rendering:auto;text-rendering:auto;enable-background:accumulate"
       d="m 18.905937,281.53978 c 0.247361,-0.009 0.585324,-0.0771 0.867993,0.0851 0.365674,0.20977 0.688166,0.49199 0.798782,0.99961 0.02591,0.11895 -0.0012,0.24425 -0.008,0.34152 -5.82e-4,0.01 2.26e-4,0.0106 0,0.0193 0.373161,-0.46527 0.780784,-0.70776 1.189091,-0.7239 0.446429,-0.0177 0.873995,0.19115 1.24356,0.49924 0.369564,0.30808 0.684815,0.71834 0.912244,1.12669 0.22743,0.40835 0.368436,0.81145 0.375564,1.12669 a 0.10000999,0.10000999 0 0 1 0,0.002 c 0,0.008 0.0036,0.0586 0.0079,0.118 0.0044,0.0594 0.0089,0.13186 0.01248,0.20537 0.0035,0.0727 0.0061,0.14602 0.0034,0.20878 0.132408,-0.0111 0.257793,-0.10419 0.38464,-0.0408 0.251844,0.12575 0.487663,0.36378 0.690991,0.64674 0.203329,0.28296 0.372982,0.6114 0.47995,0.92359 0.106967,0.3122 0.155329,0.6069 0.09191,0.8385 0.04095,1.10765 -0.203288,1.83527 -0.616105,2.28401 -0.417357,0.45367 -0.99121,0.61625 -1.555582,0.63426 -0.564371,0.018 -1.12485,-0.10515 -1.543101,-0.2292 -0.209119,-0.062 -0.382893,-0.12445 -0.502646,-0.17019 -0.01993,-0.008 -0.02847,-0.0116 -0.04537,-0.0181 -0.0041,0.0144 -0.0058,0.0305 -0.01022,0.0443 -0.02318,0.0704 -0.05153,0.12803 -0.059,0.14296 -0.445266,0.89398 -1.367013,1.48108 -2.29536,1.34794 -0.457873,-0.0657 -0.876939,-0.40248 -1.165267,-0.8419 -0.288329,-0.4394 -0.44805,-0.98771 -0.358546,-1.50111 0.0041,-0.0239 0.0099,-0.038 0.01812,-0.0635 0.0083,-0.0255 0.01824,-0.0576 0.03061,-0.093 0.02481,-0.0709 0.05641,-0.15764 0.08737,-0.24281 0.02335,-0.0642 0.04421,-0.12001 0.06354,-0.1736 -0.05368,0.0238 -0.111672,0.0516 -0.177004,0.0885 -0.159582,0.0902 -0.305721,0.18738 -0.365354,0.22239 -0.540864,0.4046 -1.016926,0.62204 -1.435308,0.68872 -0.418378,0.0667 -0.778951,-0.0221 -1.065414,-0.22126 -0.572932,-0.39821 -0.850653,-1.20708 -0.892956,-2.06843 -0.04229,-0.86135 0.151513,-1.78327 0.576395,-2.43039 0.212441,-0.32355 0.484834,-0.57948 0.816935,-0.71481 0.278661,-0.11356 0.616368,-0.0792 0.964434,0.006 -0.296856,-0.3741 -0.504307,-0.74329 -0.512853,-1.08244 -0.0098,-0.39003 0.157415,-0.73979 0.434566,-1.02684 0.554296,-0.5741 1.541055,-0.91911 2.557459,-0.95764 z m 0.008,0.1997 c -0.97539,0.0369 -1.922907,0.38015 -2.421306,0.89635 -0.249196,0.2581 -0.387289,0.55339 -0.378965,0.88388 0.0083,0.3305 0.164381,0.70572 0.537815,1.11535 a 0.10000999,0.10000999 0 0 1 -0.106653,0.16111 c -0.389474,-0.13903 -0.720605,-0.12668 -1.006424,-0.0102 -0.285812,0.11647 -0.52906,0.34146 -0.725025,0.63993 -0.391938,0.59694 -0.58508,1.48632 -0.544624,2.31011 0.04043,0.82378 0.31526,1.57367 0.806722,1.91526 0.245729,0.17079 0.545571,0.24692 0.920185,0.18721 0.374614,-0.0597 0.823627,-0.2599 1.346809,-0.65127 a 0.10000999,0.10000999 0 0 1 0.01022,-0.007 c 0.02179,-0.0125 0.203884,-0.13261 0.376699,-0.23034 0.08641,-0.0489 0.172676,-0.0931 0.249621,-0.12253 0.03846,-0.0148 0.07494,-0.0264 0.113461,-0.0306 0.03852,-0.004 0.09431,-0.004 0.137292,0.0454 2.3e-5,3e-5 0.01929,0.034 0.01929,0.034 1.7e-5,4e-5 0.0046,0.0203 0.0046,0.0205 1.7e-5,1.2e-4 1.7e-5,0.019 0,0.0193 -2.9e-5,4.3e-4 -4.76e-4,0.0116 -0.0012,0.0148 -0.0012,0.006 -0.0023,0.01 -0.0035,0.0136 -0.0023,0.008 -0.0058,0.0151 -0.0091,0.025 -0.0066,0.0197 -0.01487,0.0457 -0.02608,0.0772 -0.02248,0.0629 -0.0531,0.14648 -0.08396,0.23146 -0.03091,0.085 -0.06203,0.17134 -0.08623,0.24054 -0.01208,0.0346 -0.02324,0.0657 -0.03062,0.0885 -0.0074,0.0228 -0.01139,0.0431 -0.01022,0.0363 -0.07828,0.44906 0.06319,0.95359 0.327913,1.35702 0.264719,0.40344 0.648959,0.69921 1.026837,0.7534 0.827357,0.11865 1.676058,-0.41136 2.087724,-1.23788 0.0023,-0.005 0.03096,-0.0626 0.0488,-0.11687 0.0089,-0.0271 0.01545,-0.0545 0.01702,-0.0704 0.0017,-0.0159 -0.0083,-0.0123 0.01133,0.0102 l 0.01249,0.0113 c -1.92e-4,-1.5e-4 -0.02376,-0.0271 -0.02382,-0.0272 -5.3e-5,-9e-5 0.05891,-0.14635 0.059,-0.14637 8.7e-5,-3e-5 0.04514,-0.003 0.04537,-0.003 2.2e-4,4e-5 0.0079,0.003 0.01022,0.003 0.0093,0.002 0.01139,0.003 0.01586,0.005 0.009,0.003 0.02004,0.009 0.03521,0.0147 0.03027,0.0121 0.07574,0.03 0.133887,0.0522 0.116296,0.0444 0.284959,0.10547 0.487889,0.16566 0.405872,0.12037 0.948718,0.23706 1.479563,0.22011 0.530845,-0.017 1.043178,-0.1644 1.414887,-0.56845 0.371708,-0.40405 0.613783,-1.07622 0.567316,-2.17169 a 0.10000999,0.10000999 0 0 1 0.0034,-0.0306 c 0.04367,-0.15946 0.0113,-0.42923 -0.0885,-0.72049 -0.0998,-0.29127 -0.262659,-0.60533 -0.453853,-0.8714 -0.191193,-0.26607 -0.41291,-0.48345 -0.61724,-0.58547 -0.128607,-0.0642 -0.230646,0.003 -0.339255,0.0318 -0.003,0.004 -6.88e-4,0.007 -0.0045,0.0113 -0.05283,0.0606 -0.113895,0.0753 -0.179273,0.0794 -0.03269,0.002 -0.06777,5.8e-4 -0.106655,-0.0193 -0.03889,-0.0202 -0.07716,-0.0747 -0.07716,-0.12595 a 0.10000999,0.10000999 0 0 1 0.0329,-0.0737 c 0.05167,-0.0475 0.11866,0.007 0.175868,-0.0193 9.79e-4,-0.01 0.0028,-0.0159 0.0034,-0.0283 0.0023,-0.0517 -8e-6,-0.12141 -0.0034,-0.19176 -0.0034,-0.0703 -0.0081,-0.14162 -0.01248,-0.20082 -0.0042,-0.0582 -0.0078,-0.0993 -0.0079,-0.13049 -0.0058,-0.25683 -0.133865,-0.64563 -0.350605,-1.03478 -0.21674,-0.38916 -0.52041,-0.7821 -0.865724,-1.06996 -0.345314,-0.28787 -0.728763,-0.46769 -1.107397,-0.45272 -0.37864,0.015 -0.767411,0.21849 -1.142577,0.74545 a 0.10000999,0.10000999 0 0 1 -0.08056,0.042 c -0.03759,0 -0.08039,-0.0136 -0.110063,-0.0397 -0.02969,-0.0261 -0.04485,-0.0582 -0.05333,-0.0874 -0.01696,-0.0583 -0.01412,-0.11365 -0.01022,-0.17019 0.0078,-0.11308 0.02237,-0.23949 0.01249,-0.28479 -0.09714,-0.44576 -0.358801,-0.67028 -0.703468,-0.868 -0.196651,-0.1128 -0.490295,-0.0692 -0.760207,-0.059 z m 2.760559,8.47002 c 0.0071,0.008 0.0012,0.0154 0.0058,0.0238 5.82e-4,-0.002 0.0047,-0.0113 0.0047,-0.0113 2.3e-5,4e-5 -0.0052,-0.006 -0.01022,-0.0125 z"
       id="path1164-7-6"
       inkscape:connector-curvature="0" />
  </g>
</svg>
