<?xml version="1.0" encoding="utf-8"?>
<!-- Generator: Adobe Illustrator 16.0.0, SVG Export Plug-In . SVG Version: 6.00 Build 0)  -->
<!DOCTYPE svg PUBLIC "-//W3C//DTD SVG 1.0//EN" "http://www.w3.org/TR/2001/REC-SVG-20010904/DTD/svg10.dtd">
<svg version="1.0" id="Ebene_1" xmlns="http://www.w3.org/2000/svg" xmlns:xlink="http://www.w3.org/1999/xlink" x="0px" y="0px"
	 width="283px" height="281px" viewBox="0 0 283 281" enable-background="new 0 0 283 281" xml:space="preserve">
<g>
	<g>
		<path fill="#69ACDF" d="M123.8,123.95l4.7-42.2l2.1,4.2l-3.7,36.5c-2.9,12.3-1.7,24.7,3.7,37l11.7-50.6l-3.7-16.1l-18.5-34.4
			c-10.1-14.2-22.2-25.1-36.3-32.7L46,1.65H0l12.3,10.8c13.5,8,26.8,18.3,39.8,30.8l40.1,19.8c6.2,8.4,7.6,24.4,4.1,47.9
			c-4.5,20-5.8,33-3.8,38.8c2,5.8,3.2,8.4,3.3,7.5c3.4,15.8,12.3,30.3,26.9,43.3c8.9,7,21.5,12.7,38,17.2l22.6,6.3
			c16,5.8,23.5,14.9,22.2,27.1l10.6,25.4h27.2l-29.9-55.6c-6.5-10.2-18.1-17.1-34.8-20.9l-35.3-8.8c-10.2-9.4-16.1-18.8-17.9-28.2
			C123,149.35,122.4,136.35,123.8,123.95z"/>
	</g>
</g>
<g>
	<text transform="matrix(1 0 0 1 143.5 124.0996)" font-family="'ArialMT'" font-size="10">Loreley</text>
</g>
<g>
	<path fill="#C6452C" d="M181.6,207.45v0.1c-0.1,0-0.1,0,0,0c0,0.1,0,0.2,0,0.2c0.2,0.6,0.3,1.3,0.6,1.8c0.5,0.5,1.1,1.2,1.8,1.7
		l17.2,8.5l1.4-3.3l-8.2-4.2l-8.5-4.5c-0.8-0.4-1.7-0.5-2.6-0.6C182.7,207.25,182.1,207.25,181.6,207.45z"/>
	<path fill="#312783" d="M173.7,252.15c0,0.3-0.1,0.5-0.3,0.7c-0.2,0.2-0.5,0.3-0.7,0.3c-0.3,0-0.5-0.1-0.7-0.3
		c-0.2-0.2-0.3-0.4-0.3-0.7c0-0.2,0.1-0.5,0.3-0.7c0.2-0.2,0.4-0.3,0.7-0.3c0.2,0,0.5,0.1,0.7,0.3
		C173.6,251.65,173.7,251.95,173.7,252.15"/>
	<path fill="#312783" d="M176.1,247.75c0,0.2-0.1,0.5-0.3,0.7c-0.2,0.2-0.5,0.3-0.7,0.3c-0.3,0-0.5-0.1-0.7-0.3
		c-0.2-0.2-0.3-0.5-0.3-0.7c0-0.3,0.1-0.5,0.3-0.7c0.2-0.2,0.4-0.3,0.7-0.3c0.2,0,0.5,0.1,0.7,0.3
		C176,247.25,176.1,247.45,176.1,247.75"/>
	<path fill="#312783" d="M178.5,243.35c0,0.2-0.1,0.5-0.3,0.7c-0.2,0.2-0.4,0.3-0.7,0.3c-0.2,0-0.5-0.1-0.7-0.3
		c-0.2-0.2-0.3-0.5-0.3-0.7c0-0.3,0.1-0.5,0.3-0.7c0.2-0.2,0.5-0.3,0.7-0.3c0.3,0,0.5,0.1,0.7,0.3
		C178.4,242.85,178.5,243.05,178.5,243.35"/>
	<path fill="#312783" d="M180.9,238.95c0,0.2-0.1,0.5-0.3,0.7c-0.2,0.2-0.4,0.3-0.7,0.3c-0.2,0-0.5-0.1-0.7-0.3
		c-0.2-0.2-0.3-0.5-0.3-0.7c0-0.3,0.1-0.5,0.3-0.7c0.2-0.2,0.5-0.3,0.7-0.3c0.3,0,0.5,0.1,0.7,0.3
		C180.8,238.45,180.9,238.65,180.9,238.95"/>
	<path fill="#312783" d="M183.3,234.55c0,0.2-0.1,0.5-0.3,0.7c-0.2,0.2-0.4,0.3-0.7,0.3c-0.2,0-0.5-0.1-0.7-0.3
		c-0.2-0.2-0.3-0.5-0.3-0.7c0-0.3,0.1-0.5,0.3-0.7c0.2-0.2,0.5-0.3,0.7-0.3c0.3,0,0.5,0.1,0.7,0.3
		C183.2,234.05,183.3,234.25,183.3,234.55"/>
	<path fill="#312783" d="M185.7,230.15c0,0.3-0.1,0.5-0.3,0.7c-0.2,0.2-0.5,0.3-0.7,0.3c-0.3,0-0.5-0.1-0.7-0.3
		c-0.2-0.2-0.3-0.4-0.3-0.7c0-0.2,0.1-0.5,0.3-0.7c0.2-0.2,0.4-0.3,0.7-0.3c0.2,0,0.5,0.1,0.7,0.3
		C185.6,229.65,185.7,229.95,185.7,230.15"/>
	<path fill="#312783" d="M188.1,225.75c0,0.3-0.1,0.5-0.3,0.7c-0.2,0.2-0.5,0.3-0.7,0.3c-0.3,0-0.5-0.1-0.7-0.3
		c-0.2-0.2-0.3-0.4-0.3-0.7c0-0.2,0.1-0.5,0.3-0.7c0.2-0.2,0.4-0.3,0.7-0.3c0.2,0,0.5,0.1,0.7,0.3
		C188,225.25,188.1,225.55,188.1,225.75"/>
	<path fill="#312783" d="M190.5,221.35c0,0.2-0.1,0.5-0.3,0.7c-0.2,0.2-0.4,0.3-0.7,0.3c-0.2,0-0.5-0.1-0.7-0.3
		c-0.2-0.2-0.3-0.5-0.3-0.7c0-0.3,0.1-0.5,0.3-0.7c0.2-0.2,0.5-0.3,0.7-0.3c0.3,0,0.5,0.1,0.7,0.3
		C190.4,220.85,190.5,221.05,190.5,221.35"/>
	<path fill="#312783" d="M192.8,216.95c0,0.2-0.1,0.5-0.3,0.6c-0.2,0.2-0.4,0.4-0.7,0.4c-0.2,0-0.5-0.2-0.7-0.4
		c-0.2-0.1-0.3-0.4-0.3-0.6c0-0.3,0.1-0.5,0.3-0.8c0.2-0.1,0.5-0.2,0.7-0.2c0.3,0,0.5,0.1,0.7,0.2
		C192.7,216.45,192.8,216.65,192.8,216.95"/>
	<path fill="#312783" d="M76.3,151.45c0,0.3-0.1,0.5-0.3,0.8c-0.2,0.1-0.5,0.2-0.7,0.2c-0.3,0-0.5-0.1-0.7-0.2
		c-0.2-0.3-0.3-0.5-0.3-0.8c0-0.2,0.1-0.5,0.3-0.7c0.2-0.2,0.4-0.3,0.7-0.3c0.2,0,0.5,0.1,0.7,0.3
		C76.2,150.95,76.3,151.25,76.3,151.45"/>
	<path fill="#312783" d="M80.7,153.75c0,0.3-0.1,0.5-0.3,0.7c-0.2,0.3-0.4,0.3-0.7,0.3c-0.2,0-0.5,0-0.7-0.3
		c-0.2-0.2-0.3-0.4-0.3-0.7c0-0.2,0.1-0.5,0.3-0.7s0.5-0.3,0.7-0.3c0.3,0,0.5,0.1,0.7,0.3C80.6,153.25,80.7,153.55,80.7,153.75"/>
	<path fill="#312783" d="M85.1,156.05c0,0.3-0.1,0.5-0.3,0.7c-0.2,0.2-0.5,0.3-0.7,0.3c-0.3,0-0.5-0.1-0.7-0.3
		c-0.2-0.2-0.3-0.4-0.3-0.7c0-0.2,0.1-0.5,0.3-0.7c0.2-0.1,0.4-0.3,0.7-0.3c0.2,0,0.5,0.2,0.7,0.3
		C85,155.55,85.1,155.85,85.1,156.05"/>
	<path fill="#312783" d="M89.5,158.35c0,0.3-0.1,0.5-0.3,0.7c-0.2,0.2-0.4,0.3-0.7,0.3c-0.2,0-0.5-0.1-0.7-0.3
		c-0.2-0.2-0.3-0.4-0.3-0.7c0-0.2,0.1-0.5,0.3-0.6c0.2-0.3,0.5-0.4,0.7-0.4c0.3,0,0.5,0.1,0.7,0.4
		C89.4,157.85,89.5,158.15,89.5,158.35"/>
	<path fill="#312783" d="M93.9,160.75c0,0.2-0.1,0.5-0.3,0.6c-0.2,0.2-0.4,0.4-0.7,0.4c-0.2,0-0.5-0.2-0.7-0.4
		c-0.2-0.1-0.3-0.4-0.3-0.6c0-0.3,0.1-0.5,0.3-0.8c0.2-0.2,0.5-0.2,0.7-0.2c0.3,0,0.5,0,0.7,0.2
		C93.8,160.25,93.9,160.45,93.9,160.75"/>
	<path fill="#312783" d="M98.3,162.95c0,0.3-0.1,0.5-0.3,0.8c-0.2,0.1-0.5,0.2-0.7,0.2c-0.3,0-0.5-0.1-0.7-0.2
		c-0.2-0.3-0.3-0.5-0.3-0.8c0-0.2,0.1-0.5,0.3-0.7c0.2-0.2,0.4-0.3,0.7-0.3c0.2,0,0.5,0.1,0.7,0.3
		C98.2,162.45,98.3,162.75,98.3,162.95"/>
	<path fill="#312783" d="M102.7,165.25c0,0.3-0.1,0.5-0.3,0.7c-0.2,0.3-0.4,0.3-0.7,0.3c-0.2,0-0.5,0-0.7-0.3
		c-0.2-0.2-0.3-0.4-0.3-0.7c0-0.2,0.1-0.5,0.3-0.7s0.5-0.3,0.7-0.3c0.3,0,0.5,0.1,0.7,0.3C102.6,164.75,102.7,165.05,102.7,165.25"
		/>
	<path fill="#312783" d="M107.1,167.55c0,0.3-0.1,0.5-0.3,0.7c-0.2,0.2-0.5,0.3-0.7,0.3c-0.3,0-0.5-0.1-0.7-0.3
		c-0.2-0.2-0.3-0.4-0.3-0.7c0-0.2,0.1-0.5,0.3-0.7c0.2-0.1,0.4-0.3,0.7-0.3c0.2,0,0.5,0.2,0.7,0.3
		C107,167.05,107.1,167.35,107.1,167.55"/>
	<path fill="#312783" d="M111.5,169.85c0,0.3-0.1,0.5-0.3,0.7c-0.2,0.2-0.4,0.3-0.7,0.3c-0.2,0-0.5-0.1-0.7-0.3
		c-0.2-0.2-0.3-0.4-0.3-0.7c0-0.2,0.1-0.5,0.3-0.6c0.2-0.3,0.5-0.4,0.7-0.4c0.3,0,0.5,0.1,0.7,0.4
		C111.4,169.35,111.5,169.65,111.5,169.85"/>
	<path fill="#312783" d="M115.9,172.25c0,0.2-0.1,0.5-0.3,0.6c-0.2,0.2-0.4,0.4-0.7,0.4c-0.2,0-0.5-0.2-0.7-0.4
		c-0.2-0.1-0.3-0.4-0.3-0.6c0-0.3,0.1-0.5,0.3-0.8c0.2-0.2,0.5-0.2,0.7-0.2c0.3,0,0.5,0,0.7,0.2
		C115.8,171.75,115.9,171.95,115.9,172.25"/>
	<path fill="#312783" d="M120.3,174.45c0,0.3-0.1,0.5-0.3,0.8c-0.2,0.1-0.4,0.2-0.7,0.2c-0.2,0-0.5-0.1-0.7-0.2
		c-0.2-0.3-0.3-0.5-0.3-0.8c0-0.2,0.1-0.5,0.3-0.7c0.2-0.2,0.5-0.3,0.7-0.3c0.3,0,0.5,0.1,0.7,0.3
		C120.2,173.95,120.3,174.25,120.3,174.45"/>
	<path fill="#312783" d="M124.7,176.75c0,0.3-0.1,0.5-0.3,0.8c-0.2,0.2-0.4,0.2-0.7,0.2c-0.2,0-0.5,0-0.7-0.2
		c-0.2-0.3-0.3-0.5-0.3-0.8c0-0.2,0.1-0.5,0.3-0.7s0.5-0.3,0.7-0.3c0.3,0,0.5,0.1,0.7,0.3C124.6,176.25,124.7,176.55,124.7,176.75"
		/>
	<path fill="#312783" d="M129.1,179.05c0,0.3-0.1,0.5-0.3,0.7c-0.2,0.3-0.5,0.3-0.7,0.3c-0.3,0-0.5,0-0.7-0.3
		c-0.2-0.2-0.3-0.4-0.3-0.7c0-0.2,0.1-0.5,0.3-0.7c0.2-0.1,0.4-0.3,0.7-0.3c0.2,0,0.5,0.2,0.7,0.3
		C129,178.55,129.1,178.85,129.1,179.05"/>
	<path fill="#312783" d="M133.5,181.35c0,0.3-0.1,0.5-0.3,0.7c-0.2,0.2-0.4,0.3-0.7,0.3c-0.2,0-0.5-0.1-0.7-0.3
		c-0.2-0.2-0.3-0.4-0.3-0.7c0-0.2,0.1-0.5,0.3-0.6c0.2-0.2,0.5-0.4,0.7-0.4c0.3,0,0.5,0.2,0.7,0.4
		C133.4,180.85,133.5,181.15,133.5,181.35"/>
	<path fill="#312783" d="M137.9,183.75c0,0.2-0.1,0.5-0.3,0.6c-0.2,0.2-0.4,0.4-0.7,0.4c-0.2,0-0.5-0.2-0.7-0.4
		c-0.2-0.1-0.3-0.4-0.3-0.6c0-0.3,0.1-0.5,0.3-0.7c0.2-0.3,0.5-0.3,0.7-0.3c0.3,0,0.5,0,0.7,0.3
		C137.8,183.25,137.9,183.45,137.9,183.75"/>
	<path fill="#312783" d="M142.3,186.05c0,0.2-0.1,0.5-0.3,0.7c-0.2,0.1-0.4,0.3-0.7,0.3c-0.2,0-0.5-0.2-0.7-0.3
		c-0.2-0.2-0.3-0.5-0.3-0.7c0-0.3,0.1-0.5,0.3-0.8c0.2-0.2,0.5-0.2,0.7-0.2c0.3,0,0.5,0,0.7,0.2
		C142.2,185.55,142.3,185.75,142.3,186.05"/>
	<path fill="#312783" d="M146.7,188.25c0,0.3-0.1,0.5-0.3,0.8c-0.2,0.2-0.5,0.2-0.7,0.2c-0.3,0-0.5,0-0.7-0.2
		c-0.2-0.3-0.3-0.5-0.3-0.8c0-0.2,0.1-0.5,0.3-0.7s0.4-0.3,0.7-0.3c0.2,0,0.5,0.1,0.7,0.3C146.6,187.75,146.7,188.05,146.7,188.25"
		/>
	<path fill="#312783" d="M151.1,190.55c0,0.3-0.1,0.5-0.3,0.7c-0.2,0.3-0.5,0.3-0.7,0.3c-0.3,0-0.5,0-0.7-0.3
		c-0.2-0.2-0.3-0.4-0.3-0.7c0-0.2,0.1-0.5,0.3-0.7c0.2-0.1,0.4-0.3,0.7-0.3c0.2,0,0.5,0.2,0.7,0.3
		C151,190.05,151.1,190.35,151.1,190.55"/>
	<path fill="#312783" d="M155.5,192.85c0,0.3-0.1,0.5-0.3,0.7c-0.2,0.2-0.4,0.3-0.7,0.3c-0.2,0-0.5-0.1-0.7-0.3
		c-0.2-0.2-0.3-0.4-0.3-0.7c0-0.2,0.1-0.5,0.3-0.6c0.2-0.2,0.5-0.4,0.7-0.4c0.3,0,0.5,0.2,0.7,0.4
		C155.4,192.35,155.5,192.65,155.5,192.85"/>
	<path fill="#312783" d="M159.9,195.25c0,0.3-0.1,0.5-0.3,0.7c-0.2,0.2-0.4,0.3-0.7,0.3c-0.2,0-0.5-0.1-0.7-0.3
		c-0.2-0.2-0.3-0.4-0.3-0.7c0-0.2,0.1-0.5,0.3-0.7c0.2-0.2,0.5-0.3,0.7-0.3c0.3,0,0.5,0.1,0.7,0.3
		C159.8,194.75,159.9,195.05,159.9,195.25"/>
	<path fill="#312783" d="M164.3,197.55c0,0.2-0.1,0.5-0.3,0.7c-0.2,0.2-0.4,0.3-0.7,0.3c-0.2,0-0.5-0.1-0.7-0.3
		c-0.2-0.2-0.3-0.5-0.3-0.7c0-0.3,0.1-0.5,0.3-0.7c0.2-0.2,0.5-0.3,0.7-0.3c0.3,0,0.5,0.1,0.7,0.3
		C164.2,197.05,164.3,197.25,164.3,197.55"/>
	<path fill="#312783" d="M168.7,199.95c0,0.3-0.1,0.5-0.3,0.7c-0.2,0.2-0.5,0.3-0.7,0.3c-0.3,0-0.5-0.1-0.7-0.3
		c-0.2-0.2-0.3-0.4-0.3-0.7c0-0.2,0.1-0.5,0.3-0.7c0.2-0.2,0.4-0.3,0.7-0.3c0.2,0,0.5,0.1,0.7,0.3
		C168.6,199.45,168.7,199.75,168.7,199.95"/>
	<path fill="#312783" d="M173.1,202.25c0,0.3-0.1,0.5-0.3,0.7c-0.2,0.2-0.5,0.3-0.7,0.3c-0.3,0-0.5-0.1-0.7-0.3
		c-0.2-0.2-0.3-0.4-0.3-0.7c0-0.2,0.1-0.5,0.3-0.7c0.2-0.2,0.4-0.3,0.7-0.3c0.2,0,0.5,0.1,0.7,0.3
		C173,201.75,173.1,202.05,173.1,202.25"/>
	<path fill="#312783" d="M177.5,204.55c0,0.2-0.1,0.5-0.3,0.7c-0.2,0.2-0.4,0.3-0.7,0.3c-0.2,0-0.5-0.1-0.7-0.3
		c-0.2-0.2-0.3-0.5-0.3-0.7c0-0.3,0.1-0.5,0.3-0.7c0.2-0.2,0.5-0.3,0.7-0.3c0.3,0,0.5,0.1,0.7,0.3
		C177.4,204.05,177.5,204.25,177.5,204.55"/>
	<path fill="#312783" d="M205.9,219.45c0,0.2-0.1,0.5-0.3,0.7c-0.2,0.2-0.4,0.3-0.7,0.3c-0.2,0-0.5-0.1-0.7-0.3
		c-0.2-0.2-0.3-0.5-0.3-0.7c0-0.3,0.1-0.5,0.3-0.7c0.2-0.2,0.5-0.3,0.7-0.3c0.3,0,0.5,0.1,0.7,0.3
		C205.8,218.95,205.9,219.15,205.9,219.45"/>
	<path fill="#312783" d="M210.4,221.65c0,0.3-0.1,0.5-0.3,0.7c-0.2,0.2-0.4,0.3-0.7,0.3c-0.2,0-0.5-0.1-0.7-0.3
		c-0.2-0.2-0.3-0.4-0.3-0.7c0-0.2,0.1-0.5,0.3-0.7c0.2-0.2,0.5-0.3,0.7-0.3c0.3,0,0.5,0.1,0.7,0.3
		C210.3,221.15,210.4,221.45,210.4,221.65"/>
	<path fill="#312783" d="M214.9,223.85c0,0.2-0.1,0.5-0.3,0.7c-0.2,0.2-0.4,0.3-0.7,0.3c-0.2,0-0.5-0.1-0.7-0.3
		c-0.2-0.2-0.3-0.5-0.3-0.7c0-0.3,0.1-0.5,0.3-0.7c0.2-0.2,0.5-0.3,0.7-0.3c0.3,0,0.5,0.1,0.7,0.3
		C214.8,223.35,214.9,223.55,214.9,223.85"/>
	<path fill="#312783" d="M219.4,226.05c0,0.2-0.1,0.5-0.3,0.7c-0.2,0.2-0.4,0.3-0.7,0.3c-0.2,0-0.5-0.1-0.7-0.3
		c-0.2-0.2-0.3-0.5-0.3-0.7c0-0.3,0.1-0.5,0.3-0.7c0.2-0.2,0.5-0.3,0.7-0.3c0.3,0,0.5,0.1,0.7,0.3
		C219.3,225.55,219.4,225.75,219.4,226.05"/>
	<path fill="#312783" d="M223.9,228.25c0,0.3-0.1,0.5-0.3,0.7c-0.2,0.2-0.4,0.3-0.7,0.3c-0.2,0-0.5-0.1-0.7-0.3
		c-0.2-0.2-0.3-0.4-0.3-0.7c0-0.2,0.1-0.5,0.3-0.7c0.2-0.2,0.5-0.3,0.7-0.3c0.3,0,0.5,0.1,0.7,0.3
		C223.8,227.75,223.9,228.05,223.9,228.25"/>
	<path fill="#312783" d="M228.4,230.45c0,0.2-0.1,0.5-0.3,0.7c-0.2,0.2-0.4,0.3-0.7,0.3c-0.2,0-0.5-0.1-0.7-0.3
		c-0.2-0.2-0.3-0.5-0.3-0.7c0-0.3,0.1-0.5,0.3-0.7c0.2-0.2,0.5-0.3,0.7-0.3c0.3,0,0.5,0.1,0.7,0.3
		C228.3,229.95,228.4,230.15,228.4,230.45"/>
	<path fill="#312783" d="M232.9,232.65c0,0.3-0.1,0.5-0.3,0.7c-0.2,0.2-0.4,0.3-0.7,0.3c-0.2,0-0.5-0.1-0.7-0.3
		c-0.2-0.2-0.3-0.4-0.3-0.7c0-0.2,0.1-0.5,0.3-0.7c0.2-0.2,0.5-0.3,0.7-0.3c0.3,0,0.5,0.1,0.7,0.3
		C232.8,232.15,232.9,232.45,232.9,232.65"/>
	<path fill="#312783" d="M237.4,234.85c0,0.2-0.1,0.5-0.3,0.7c-0.2,0.2-0.4,0.3-0.7,0.3c-0.2,0-0.5-0.1-0.7-0.3
		c-0.2-0.2-0.3-0.5-0.3-0.7c0-0.3,0.1-0.5,0.3-0.7c0.2-0.2,0.5-0.3,0.7-0.3c0.3,0,0.5,0.1,0.7,0.3
		C237.3,234.35,237.4,234.55,237.4,234.85"/>
	<path fill="#312783" d="M241.9,237.05c0,0.3-0.1,0.5-0.3,0.7c-0.2,0.3-0.4,0.3-0.7,0.3c-0.2,0-0.5,0-0.7-0.3
		c-0.2-0.2-0.3-0.4-0.3-0.7c0-0.2,0.1-0.5,0.3-0.6c0.2-0.3,0.5-0.4,0.7-0.4c0.3,0,0.5,0.1,0.7,0.4
		C241.8,236.55,241.9,236.85,241.9,237.05"/>
	<path fill="#312783" d="M246.4,239.45c0,0.2-0.1,0.5-0.3,0.6c-0.2,0.2-0.4,0.4-0.7,0.4c-0.2,0-0.5-0.2-0.7-0.4
		c-0.2-0.1-0.3-0.4-0.3-0.6c0-0.3,0.1-0.5,0.3-0.8c0.2-0.1,0.5-0.2,0.7-0.2c0.3,0,0.5,0.1,0.7,0.2
		C246.3,238.95,246.4,239.15,246.4,239.45"/>
	<path fill="#312783" d="M250.9,241.55c0,0.3-0.1,0.5-0.3,0.7c-0.2,0.3-0.4,0.3-0.7,0.3c-0.2,0-0.5,0-0.7-0.3
		c-0.2-0.2-0.3-0.4-0.3-0.7c0-0.2,0.1-0.5,0.3-0.6c0.2-0.3,0.5-0.4,0.7-0.4c0.3,0,0.5,0.1,0.7,0.4
		C250.8,241.05,250.9,241.35,250.9,241.55"/>
	<path fill="#312783" d="M255.4,243.95c0,0.2-0.1,0.5-0.3,0.7c-0.2,0.1-0.4,0.3-0.7,0.3c-0.2,0-0.5-0.2-0.7-0.3
		c-0.2-0.2-0.3-0.5-0.3-0.7c0-0.3,0.1-0.5,0.3-0.8c0.2-0.1,0.5-0.2,0.7-0.2c0.3,0,0.5,0.1,0.7,0.2
		C255.3,243.45,255.4,243.65,255.4,243.95"/>
	<path fill="#312783" d="M259.9,246.15c0,0.2-0.1,0.5-0.3,0.6c-0.2,0.2-0.5,0.4-0.7,0.4c-0.3,0-0.5-0.2-0.7-0.4
		c-0.2-0.1-0.3-0.4-0.3-0.6c0-0.3,0.1-0.5,0.3-0.7c0.2-0.3,0.4-0.3,0.7-0.3c0.2,0,0.5,0,0.7,0.3
		C259.8,245.65,259.9,245.85,259.9,246.15"/>
	<path fill="#312783" d="M264.4,248.45c0,0.2-0.1,0.5-0.3,0.7c-0.2,0.1-0.5,0.3-0.7,0.3c-0.3,0-0.5-0.2-0.7-0.3
		c-0.2-0.2-0.3-0.5-0.3-0.7c0-0.3,0.1-0.5,0.3-0.8c0.2-0.2,0.4-0.2,0.7-0.2c0.2,0,0.5,0,0.7,0.2
		C264.3,247.95,264.4,248.15,264.4,248.45"/>
	<path fill="#312783" d="M268.9,250.65c0,0.3-0.1,0.5-0.3,0.8c-0.2,0.2-0.5,0.2-0.7,0.2c-0.3,0-0.5,0-0.7-0.2
		c-0.2-0.3-0.3-0.5-0.3-0.8c0-0.2,0.1-0.5,0.3-0.7c0.2-0.2,0.4-0.3,0.7-0.3c0.2,0,0.5,0.1,0.7,0.3
		C268.8,250.15,268.9,250.45,268.9,250.65"/>
	<path fill="#312783" d="M273.4,252.95c0,0.3-0.1,0.5-0.3,0.7c-0.2,0.3-0.5,0.3-0.7,0.3c-0.3,0-0.5,0-0.7-0.3
		c-0.2-0.2-0.3-0.4-0.3-0.7c0-0.2,0.1-0.5,0.3-0.7c0.2-0.1,0.4-0.3,0.7-0.3c0.2,0,0.5,0.2,0.7,0.3
		C273.3,252.45,273.4,252.75,273.4,252.95"/>
	<path fill="#312783" d="M277.9,255.15c0,0.3-0.1,0.5-0.3,0.8c-0.2,0.2-0.5,0.2-0.7,0.2c-0.3,0-0.5,0-0.7-0.2
		c-0.2-0.3-0.3-0.5-0.3-0.8c0-0.2,0.1-0.5,0.3-0.7c0.2-0.2,0.4-0.3,0.7-0.3c0.2,0,0.5,0.1,0.7,0.3
		C277.8,254.65,277.9,254.95,277.9,255.15"/>
	<path fill="#312783" d="M220.2,166.25c0,0.2-0.1,0.5-0.3,0.6c-0.2,0.2-0.5,0.4-0.7,0.4c-0.3,0-0.5-0.2-0.7-0.4
		c-0.2-0.1-0.3-0.4-0.3-0.6c0-0.3,0.1-0.5,0.3-0.8c0.2-0.2,0.4-0.2,0.7-0.2c0.2,0,0.5,0,0.7,0.2
		C220.1,165.75,220.2,165.95,220.2,166.25"/>
	<path fill="#312783" d="M217.8,170.55c0,0.3-0.1,0.5-0.3,0.7c-0.2,0.2-0.4,0.3-0.7,0.3c-0.2,0-0.5-0.1-0.7-0.3
		c-0.2-0.2-0.3-0.4-0.3-0.7c0-0.2,0.1-0.5,0.3-0.7c0.2-0.1,0.5-0.3,0.7-0.3c0.3,0,0.5,0.2,0.7,0.3
		C217.7,170.05,217.8,170.35,217.8,170.55"/>
	<path fill="#312783" d="M215.4,174.95c0,0.3-0.1,0.5-0.3,0.8c-0.2,0.1-0.4,0.2-0.7,0.2c-0.2,0-0.5-0.1-0.7-0.2
		c-0.2-0.3-0.3-0.5-0.3-0.8c0-0.2,0.1-0.5,0.3-0.7c0.2-0.2,0.5-0.3,0.7-0.3c0.3,0,0.5,0.1,0.7,0.3
		C215.3,174.45,215.4,174.75,215.4,174.95"/>
	<path fill="#312783" d="M213,179.35c0,0.3-0.1,0.5-0.3,0.7c-0.2,0.2-0.4,0.3-0.7,0.3c-0.2,0-0.5-0.1-0.7-0.3
		c-0.2-0.2-0.3-0.4-0.3-0.7c0-0.2,0.1-0.5,0.3-0.6c0.2-0.2,0.5-0.4,0.7-0.4c0.3,0,0.5,0.2,0.7,0.4
		C212.9,178.85,213,179.15,213,179.35"/>
	<path fill="#312783" d="M210.6,183.75c0,0.3-0.1,0.5-0.3,0.8c-0.2,0.2-0.5,0.2-0.7,0.2c-0.3,0-0.5,0-0.7-0.2
		c-0.2-0.3-0.3-0.5-0.3-0.8c0-0.2,0.1-0.5,0.3-0.7c0.2-0.2,0.4-0.3,0.7-0.3c0.2,0,0.5,0.1,0.7,0.3
		C210.5,183.25,210.6,183.55,210.6,183.75"/>
	<path fill="#312783" d="M208.2,188.25c0,0.2-0.1,0.5-0.3,0.6c-0.2,0.2-0.5,0.4-0.7,0.4c-0.3,0-0.5-0.2-0.7-0.4
		c-0.2-0.1-0.3-0.4-0.3-0.6c0-0.3,0.1-0.5,0.3-0.7c0.2-0.3,0.4-0.3,0.7-0.3c0.2,0,0.5,0,0.7,0.3
		C208.1,187.75,208.2,187.95,208.2,188.25"/>
	<path fill="#312783" d="M205.8,192.55c0,0.3-0.1,0.5-0.3,0.7c-0.2,0.3-0.4,0.3-0.7,0.3c-0.2,0-0.5,0-0.7-0.3
		c-0.2-0.2-0.3-0.4-0.3-0.7c0-0.2,0.1-0.5,0.3-0.7c0.2-0.1,0.5-0.3,0.7-0.3c0.3,0,0.5,0.2,0.7,0.3
		C205.7,192.05,205.8,192.35,205.8,192.55"/>
	<path fill="#312783" d="M203.5,197.05c0,0.2-0.1,0.5-0.3,0.7c-0.2,0.1-0.4,0.3-0.7,0.3c-0.2,0-0.5-0.2-0.7-0.3
		c-0.2-0.2-0.3-0.5-0.3-0.7c0-0.3,0.1-0.5,0.3-0.8c0.2-0.2,0.5-0.2,0.7-0.2c0.3,0,0.5,0,0.7,0.2
		C203.4,196.55,203.5,196.75,203.5,197.05"/>
	<path fill="#312783" d="M201.1,201.35c0,0.3-0.1,0.5-0.3,0.7c-0.2,0.2-0.5,0.3-0.7,0.3c-0.3,0-0.5-0.1-0.7-0.3
		c-0.2-0.2-0.3-0.4-0.3-0.7c0-0.2,0.1-0.5,0.3-0.6c0.2-0.2,0.4-0.4,0.7-0.4c0.2,0,0.5,0.2,0.7,0.4
		C201,200.85,201.1,201.15,201.1,201.35"/>
	<path fill="#312783" d="M198.8,205.75c0,0.3-0.1,0.5-0.3,0.8c-0.2,0.2-0.4,0.2-0.7,0.2c-0.2,0-0.5,0-0.7-0.2
		c-0.2-0.3-0.3-0.5-0.3-0.8c0-0.2,0.1-0.5,0.3-0.7c0.2-0.2,0.5-0.3,0.7-0.3c0.3,0,0.5,0.1,0.7,0.3S198.8,205.55,198.8,205.75"/>
	<path fill="#312783" d="M196.5,210.25c0,0.2-0.1,0.5-0.3,0.6c-0.2,0.2-0.4,0.4-0.7,0.4c-0.2,0-0.5-0.2-0.7-0.4
		c-0.2-0.1-0.3-0.4-0.3-0.6c0-0.3,0.1-0.5,0.3-0.7c0.2-0.3,0.5-0.3,0.7-0.3c0.3,0,0.5,0,0.7,0.3
		C196.4,209.75,196.5,209.95,196.5,210.25"/>
</g>
<text transform="matrix(1 0 0 1 161.5 194.0996)" font-family="'ArialMT'" font-size="10">9</text>
<text transform="matrix(1 0 0 1 202.5 208.0996)" font-family="'ArialMT'" font-size="10">3</text>
<text transform="matrix(1 0 0 1 220.2998 225)" font-family="'ArialMT'" font-size="10">6</text>
<text transform="matrix(1 0 0 1 176.2998 232.5996)" font-family="'ArialMT'" font-size="10">5</text>
</svg>
