<?xml version="1.0" encoding="UTF-8" standalone="no"?>
<svg viewBox="0 0 706.38007 529.40076" xmlns="http://www.w3.org/2000/svg" xmlns:xlink="http://www.w3.org/1999/xlink">
<defs>
<filter id="filter3853">
<feGaussianBlur stdDeviation="5.95322"/>
</filter>
<filter id="filter4421">
<feGaussianBlur stdDeviation="2.11446"/>
</filter>
<filter id="filter4463">
<feGaussianBlur stdDeviation="1.33226"/>
</filter>
<filter id="filter4487">
<feGaussianBlur stdDeviation=".73963"/>
</filter>
<filter id="filter4586">
<feGaussianBlur stdDeviation=".34477"/>
</filter>
<filter id="filter4660">
<feGaussianBlur stdDeviation="3.53033"/>
</filter>
<filter id="filter4138">
<feGaussianBlur stdDeviation="7.86406"/>
</filter>
<filter id="filter4146">
<feGaussianBlur stdDeviation="5.33094"/>
</filter>
<filter id="filter4154">
<feGaussianBlur stdDeviation="2.99344"/>
</filter>
<filter id="filter4580"></filter>
<filter height="1.24647" id="filter3870" width="1.05514" x="-.02757" y="-.12324">
<feGaussianBlur stdDeviation="4.96499"/>
</filter>
<filter height="1.24392" id="filter3893" width="1.07432" x="-.03716" y="-.12196">
<feGaussianBlur stdDeviation="6.48628"/>
</filter>
<filter height="2.86614" id="filter4061" width="1.37811" x="-.18905" y="-.93307">
<feGaussianBlur stdDeviation="34.43472"/>
</filter>
<filter height="1.24161" id="filter4505" width="1.15929" x="-.07965" y="-.1208">
<feGaussianBlur stdDeviation="3.16427"/>
</filter>
<filter height="1.26965" id="filter4513" width="1.14907" x="-.07454" y="-.13483">
<feGaussianBlur stdDeviation="3.45411"/>
</filter>
<filter height="1.30668" id="filter4517" width="1.13974" x="-.06987" y="-.15334">
<feGaussianBlur stdDeviation="3.92849"/>
</filter>
<filter height="1.20932" id="filter4531" width="1.46144" x="-.23072" y="-.10466">
<feGaussianBlur stdDeviation="1.40647"/>
</filter>
<filter height="1.59673" id="filter4539" width="1.11441" x="-.0572" y="-.29836">
<feGaussianBlur stdDeviation="3.11639"/>
</filter>
<filter height="1.22789" id="filter4574" width="1.10525" x="-.05263" y="-.11394">
<feGaussianBlur stdDeviation=".27868"/>
</filter>
<filter height="1.33853" id="filter4606" width="1.134" x="-.067" y="-.16926">
<feGaussianBlur stdDeviation=".50389"/>
</filter>
<filter height="1.46995" id="filter4612" width="1.29174" x="-.14587" y="-.23497">
<feGaussianBlur stdDeviation="2.81768"/>
</filter>
<linearGradient id="linearGradient4648">
<stop offset="0"/>
<stop offset="1" stop-opacity="0"/>
</linearGradient>
<linearGradient id="linearGradient4427">
<stop offset="0" stop-color="#fff" stop-opacity="0"/>
<stop offset=".3" stop-color="#fff"/>
<stop offset="1" stop-color="#fff" stop-opacity="0"/>
</linearGradient>
<linearGradient gradientUnits="userSpaceOnUse" id="linearGradient4475" x1="176.85443" x2="282.254" y1="630.22949" y2="708.04602">
<stop offset="0" stop-color="#fff" stop-opacity="0"/>
<stop offset=".35169" stop-color="#fff"/>
<stop offset="1" stop-color="#fff" stop-opacity="0"/>
</linearGradient>
<linearGradient gradientUnits="userSpaceOnUse" id="linearGradient4031" x1="282.00525" x2="288.68365" y1="584.69257" y2="581.90289">
<stop offset="0" stop-color="#fff6d5"/>
<stop offset="1" stop-color="#fff6d5" stop-opacity="0"/>
</linearGradient>
<linearGradient gradientUnits="userSpaceOnUse" id="linearGradient4433" x1="-42.73859" x2="251.11009" xlink:href="#linearGradient4427" y1="848.31036" y2="1142.1591"/>
<linearGradient gradientUnits="userSpaceOnUse" id="linearGradient4459" x1="75.32861" x2="270.86969" xlink:href="#linearGradient4427" y1="730.36194" y2="918.03693"/>
<linearGradient gradientUnits="userSpaceOnUse" id="linearGradient4654" x1="86.44519" x2="311.4281" xlink:href="#linearGradient4648" y1="512.5824" y2="461.4201"/>
<radialGradient cx="1067.1428" cy="870.93359" gradientTransform="matrix(1.14356,0,0,.20443,-153.20185,692.88491)" gradientUnits="userSpaceOnUse" id="radialGradient3818" r="219.07143" xlink:href="#linearGradient4648"/>
<radialGradient cx="1067.1428" cy="870.93359" gradientTransform="matrix(1.27564,0,0,.20443,-294.15152,692.8849)" gradientUnits="userSpaceOnUse" id="radialGradient4439" r="219.07143" xlink:href="#linearGradient4648"/>
<radialGradient cx="1067.1428" cy="870.93359" gradientTransform="matrix(1.26024,0,0,.20716,-277.71062,690.51096)" gradientUnits="userSpaceOnUse" id="radialGradient4449" r="219.82458" xlink:href="#linearGradient4648"/>
<radialGradient cx="343.80008" cy="531.21112" gradientTransform="matrix(1,0,0,.32143,0,360.4647)" gradientUnits="userSpaceOnUse" id="radialGradient4598" r="5.45096" xlink:href="#linearGradient4648"/>
</defs>
<g transform="translate(9.30739,-545.18062)">
<path d="m289.49084,512.5824c0,23.87118-45.45331,43.22259-101.52282,43.22259s-101.52283-19.35141-101.52283-43.22259 45.45332-43.22259 101.52283-43.22259 101.52282,19.35141 101.52282,43.22259z" fill="url(#linearGradient4654)" fill-rule="evenodd" filter="url(#filter4660)" opacity=".8" transform="matrix(3.07567,-.38416,.76867,3.52888,-615.36056,-850.12393)"/>
<g transform="matrix(.67315,0,0,1.10302,-198.02841,102.36275)">
<path d="m1285.7142,870.93359c0,24.45833-97.8577,44.28572-218.5714,44.28572s-218.5714-19.82739-218.5714-44.28572 97.85776-44.28571 218.5714-44.28571 218.5714,19.82739 218.5714,44.28571z" fill="#ff2a2a" fill-rule="evenodd" transform="matrix(.06863,0,0,.08468,449.94638,403.20043)"/>
<path d="m508.1875,475.5625v124h.21875c-.13782.20428-.21875.41092-.21875.625 0,2.07107 6.71573,3.75 15,3.75s15-1.67893 15-3.75c0-.2173-.10808-.41782-.25-.625h.25v-124h-.0312c-.31017,2.00262-6.88228,3.59375-14.96875,3.59375-8.08375,0-14.65445-1.59207-14.96875-3.59375h-.0312z" fill="#f00" fill-rule="evenodd" stroke="#faa"/>
<path d="m508.18167,596.12642c6.59849,0 23.13039-4.74713 30-8.7133v5.47503c-5.93866,3.42869-21.91987,8.7133-30,8.7133z" fill="#ffd5d5" fill-rule="evenodd"/>
<path d="m508.18167,576.12642c6.59849,0 23.13039-4.74713 30-8.7133v5.47503c-5.93866,3.42869-21.91987,8.7133-30,8.7133z" fill="#ffd5d5" fill-rule="evenodd"/>
<path d="m508.18167,556.12642c6.59849,0 23.13039-4.74713 30-8.7133v5.47503c-5.93866,3.42869-21.91987,8.7133-30,8.7133z" fill="#ffd5d5" fill-rule="evenodd"/>
<path d="m508.18167,536.12642c6.59849,0 23.13039-4.74713 30-8.7133v5.47503c-5.93866,3.42869-21.91987,8.7133-30,8.7133z" fill="#ffd5d5" fill-rule="evenodd"/>
<path d="m508.18167,516.12642c6.59849,0 23.13039-4.74713 30-8.7133v5.47503c-5.93866,3.42869-21.91987,8.7133-30,8.7133z" fill="#ffd5d5" fill-rule="evenodd"/>
<path d="m508.18167,496.12642c6.59849,0 23.13039-4.74713 30-8.7133v5.47503c-5.93866,3.42869-21.91987,8.7133-30,8.7133z" fill="#ffd5d5" fill-rule="evenodd"/>
<path d="m1285.7142,870.93359c0,24.45833-97.8577,44.28572-218.5714,44.28572s-218.5714-19.82739-218.5714-44.28572 97.85776-44.28571 218.5714-44.28571 218.5714,19.82739 218.5714,44.28571z" fill="#ff8080" fill-rule="evenodd" filter="url(#filter4061)" transform="matrix(.03635,0,0,.04486,484.38724,437.8826)"/>
<path d="m522.44818,476.56698c-.69708-7.72393 1.28707-13.43692 5.29061-17.63538" fill="none" stroke="#000"/>
</g>
<g transform="matrix(.67315,0,0,1.10302,-113.23174,99.89265)">
<path d="m1285.7142,870.93359c0,24.45833-97.8577,44.28572-218.5714,44.28572s-218.5714-19.82739-218.5714-44.28572 97.85776-44.28571 218.5714-44.28571 218.5714,19.82739 218.5714,44.28571z" fill="#ff2a2a" fill-rule="evenodd" transform="matrix(.06863,0,0,.08468,449.94638,403.20043)"/>
<path d="m508.1875,475.5625v124h.21875c-.13782.20428-.21875.41092-.21875.625 0,2.07107 6.71573,3.75 15,3.75s15-1.67893 15-3.75c0-.2173-.10808-.41782-.25-.625h.25v-124h-.0312c-.31017,2.00262-6.88228,3.59375-14.96875,3.59375-8.08375,0-14.65445-1.59207-14.96875-3.59375h-.0312z" fill="#f00" fill-rule="evenodd" stroke="#faa"/>
<path d="m508.18167,596.12642c6.59849,0 23.13039-4.74713 30-8.7133v5.47503c-5.93866,3.42869-21.91987,8.7133-30,8.7133z" fill="#ffd5d5" fill-rule="evenodd"/>
<path d="m508.18167,576.12642c6.59849,0 23.13039-4.74713 30-8.7133v5.47503c-5.93866,3.42869-21.91987,8.7133-30,8.7133z" fill="#ffd5d5" fill-rule="evenodd"/>
<path d="m508.18167,556.12642c6.59849,0 23.13039-4.74713 30-8.7133v5.47503c-5.93866,3.42869-21.91987,8.7133-30,8.7133z" fill="#ffd5d5" fill-rule="evenodd"/>
<path d="m508.18167,536.12642c6.59849,0 23.13039-4.74713 30-8.7133v5.47503c-5.93866,3.42869-21.91987,8.7133-30,8.7133z" fill="#ffd5d5" fill-rule="evenodd"/>
<path d="m508.18167,516.12642c6.59849,0 23.13039-4.74713 30-8.7133v5.47503c-5.93866,3.42869-21.91987,8.7133-30,8.7133z" fill="#ffd5d5" fill-rule="evenodd"/>
<path d="m508.18167,496.12642c6.59849,0 23.13039-4.74713 30-8.7133v5.47503c-5.93866,3.42869-21.91987,8.7133-30,8.7133z" fill="#ffd5d5" fill-rule="evenodd"/>
<path d="m1285.7142,870.93359c0,24.45833-97.8577,44.28572-218.5714,44.28572s-218.5714-19.82739-218.5714-44.28572 97.85776-44.28571 218.5714-44.28571 218.5714,19.82739 218.5714,44.28571z" fill="#ff8080" fill-rule="evenodd" filter="url(#filter4061)" transform="matrix(.03635,0,0,.04486,484.38724,437.8826)"/>
<path d="m522.44818,476.56698c-.69708-7.72393 1.28707-13.43692 5.29061-17.63538" fill="none" stroke="#000"/>
</g>
<g transform="matrix(.67315,0,0,1.10302,-23.44704,97.39863)">
<path d="m1285.7142,870.93359c0,24.45833-97.8577,44.28572-218.5714,44.28572s-218.5714-19.82739-218.5714-44.28572 97.85776-44.28571 218.5714-44.28571 218.5714,19.82739 218.5714,44.28571z" fill="#ff2a2a" fill-rule="evenodd" transform="matrix(.06863,0,0,.08468,449.94638,403.20043)"/>
<path d="m508.1875,475.5625v124h.21875c-.13782.20428-.21875.41092-.21875.625 0,2.07107 6.71573,3.75 15,3.75s15-1.67893 15-3.75c0-.2173-.10808-.41782-.25-.625h.25v-124h-.0312c-.31017,2.00262-6.88228,3.59375-14.96875,3.59375-8.08375,0-14.65445-1.59207-14.96875-3.59375h-.0312z" fill="#f00" fill-rule="evenodd" stroke="#faa"/>
<path d="m508.18167,596.12642c6.59849,0 23.13039-4.74713 30-8.7133v5.47503c-5.93866,3.42869-21.91987,8.7133-30,8.7133z" fill="#ffd5d5" fill-rule="evenodd"/>
<path d="m508.18167,576.12642c6.59849,0 23.13039-4.74713 30-8.7133v5.47503c-5.93866,3.42869-21.91987,8.7133-30,8.7133z" fill="#ffd5d5" fill-rule="evenodd"/>
<path d="m508.18167,556.12642c6.59849,0 23.13039-4.74713 30-8.7133v5.47503c-5.93866,3.42869-21.91987,8.7133-30,8.7133z" fill="#ffd5d5" fill-rule="evenodd"/>
<path d="m508.18167,536.12642c6.59849,0 23.13039-4.74713 30-8.7133v5.47503c-5.93866,3.42869-21.91987,8.7133-30,8.7133z" fill="#ffd5d5" fill-rule="evenodd"/>
<path d="m508.18167,516.12642c6.59849,0 23.13039-4.74713 30-8.7133v5.47503c-5.93866,3.42869-21.91987,8.7133-30,8.7133z" fill="#ffd5d5" fill-rule="evenodd"/>
<path d="m508.18167,496.12642c6.59849,0 23.13039-4.74713 30-8.7133v5.47503c-5.93866,3.42869-21.91987,8.7133-30,8.7133z" fill="#ffd5d5" fill-rule="evenodd"/>
<path d="m1285.7142,870.93359c0,24.45833-97.8577,44.28572-218.5714,44.28572s-218.5714-19.82739-218.5714-44.28572 97.85776-44.28571 218.5714-44.28571 218.5714,19.82739 218.5714,44.28571z" fill="#ff8080" fill-rule="evenodd" filter="url(#filter4061)" transform="matrix(.03635,0,0,.04486,484.38724,437.8826)"/>
<path d="m522.44818,476.56698c-.69708-7.72393 1.28707-13.43692 5.29061-17.63538" fill="none" stroke="#000"/>
</g>
<g transform="matrix(.67315,0,0,1.10302,63.84365,102.38667)">
<path d="m1285.7142,870.93359c0,24.45833-97.8577,44.28572-218.5714,44.28572s-218.5714-19.82739-218.5714-44.28572 97.85776-44.28571 218.5714-44.28571 218.5714,19.82739 218.5714,44.28571z" fill="#ff2a2a" fill-rule="evenodd" transform="matrix(.06863,0,0,.08468,449.94638,403.20043)"/>
<path d="m508.1875,475.5625v124h.21875c-.13782.20428-.21875.41092-.21875.625 0,2.07107 6.71573,3.75 15,3.75s15-1.67893 15-3.75c0-.2173-.10808-.41782-.25-.625h.25v-124h-.0312c-.31017,2.00262-6.88228,3.59375-14.96875,3.59375-8.08375,0-14.65445-1.59207-14.96875-3.59375h-.0312z" fill="#f00" fill-rule="evenodd" stroke="#faa"/>
<path d="m508.18167,596.12642c6.59849,0 23.13039-4.74713 30-8.7133v5.47503c-5.93866,3.42869-21.91987,8.7133-30,8.7133z" fill="#ffd5d5" fill-rule="evenodd"/>
<path d="m508.18167,576.12642c6.59849,0 23.13039-4.74713 30-8.7133v5.47503c-5.93866,3.42869-21.91987,8.7133-30,8.7133z" fill="#ffd5d5" fill-rule="evenodd"/>
<path d="m508.18167,556.12642c6.59849,0 23.13039-4.74713 30-8.7133v5.47503c-5.93866,3.42869-21.91987,8.7133-30,8.7133z" fill="#ffd5d5" fill-rule="evenodd"/>
<path d="m508.18167,536.12642c6.59849,0 23.13039-4.74713 30-8.7133v5.47503c-5.93866,3.42869-21.91987,8.7133-30,8.7133z" fill="#ffd5d5" fill-rule="evenodd"/>
<path d="m508.18167,516.12642c6.59849,0 23.13039-4.74713 30-8.7133v5.47503c-5.93866,3.42869-21.91987,8.7133-30,8.7133z" fill="#ffd5d5" fill-rule="evenodd"/>
<path d="m508.18167,496.12642c6.59849,0 23.13039-4.74713 30-8.7133v5.47503c-5.93866,3.42869-21.91987,8.7133-30,8.7133z" fill="#ffd5d5" fill-rule="evenodd"/>
<path d="m1285.7142,870.93359c0,24.45833-97.8577,44.28572-218.5714,44.28572s-218.5714-19.82739-218.5714-44.28572 97.85776-44.28571 218.5714-44.28571 218.5714,19.82739 218.5714,44.28571z" fill="#ff8080" fill-rule="evenodd" filter="url(#filter4061)" transform="matrix(.03635,0,0,.04486,484.38724,437.8826)"/>
<path d="m522.44818,476.56698c-.69708-7.72393 1.28707-13.43692 5.29061-17.63538" fill="none" stroke="#000"/>
</g>
<path d="m0,827.375v150c0,41.4214 134.31458,75 300,75s300-33.5786 300-75v-150c0,41.42136-134.31458,75-300,75s-300-33.57864-300-75z" fill="#762301" fill-rule="evenodd" stroke="#6e3319" stroke-width="2"/>
<path d="m5.40625,849.75v127.625c0,7.43139 6.49993,15.99769 20.9375,24.5312s36.01318,16.5424 62.84375,23.25c53.66113,13.4153 128.33528,21.8126 210.8125,21.8126s157.15137-8.3973 210.8125-21.8126c26.83057-6.7076 48.40618-14.7164 62.84375-23.25s20.9375-17.09981 20.9375-24.5312v-127.625c-4.16625,4.08879-9.3719,7.90205-15.40625,11.46875-15.92409,9.41219-38.29125,17.57281-65.75,24.4375-54.91751,13.72938-130.22929,22.125-213.4375,22.125s-158.51999-8.39562-213.4375-22.125c-27.45876-6.86469-49.82591-15.02531-65.75-24.4375-6.03435-3.5667-11.24-7.37996-15.40625-11.46875z" fill="#8e320c" fill-rule="evenodd" filter="url(#filter4138)"/>
<path d="m0,827.375v150c0,41.4214 134.31458,75 300,75s300-33.5786 300-75v-150c0,41.42136-134.31458,75-300,75s-300-33.57864-300-75z" fill="url(#linearGradient4433)" fill-rule="evenodd" opacity=".6"/>
<path d="m273.625,757.51231c-55.71199,1.03712-111.46185,6.31189-166.02672,17.81303-22.46911,4.95853-45.05398,10.19807-66.29686,19.22934-9.86872,4.32838-19.57025,9.32514-28.07401,15.99758-10.06828,8.37098-15.7563,21.13656-16.94129,34.02961-1.97943,16.18741 1.72621,33.11253 10.75704,46.73586 5.51907,7.95181 14.32761,12.50305 22.07552,17.92286 5.37404,3.51742 10.08875,7.90062 14.63124,12.40828 6.67618,5.71936 14.48922,11.23118 23.57939,11.63301 15.26813.9417 29.58564-5.4542 44.44093-7.74141 9.01583-1.11122 18.63317.91553 25.74598,6.76745 7.39517,5.32299 13.91558,12.71638 23.20702,14.63409 10.5905,2.16975 21.10872-1.50439 31.19038-4.35568 8.96479-2.39549 18.31225-5.14158 27.65376-3.52642 6.40201,2.24637 9.80028,8.80025 11.8059,14.8591 4.04067,11.0365 5.17469,23.40372 12.28296,33.12455 3.30074,3.97907 10.29599,2.08018 12.09226-2.47032 6.36192-10.71126 11.56439-22.66825 21.42614-30.73681 7.17544-6.01448 17.50046-9.43385 26.57648-5.95318 8.96221,3.45607 15.02082,12.37557 24.74887,14.16031 6.86618,1.23677 13.1474-2.81361 18.55765-6.50871 8.14928-5.47815 16.69414-11.58592 26.81735-12.30379 8.67764.10979 15.8623,5.62523 22.805,10.17036 9.70479,6.34435 19.36592,13.75244 31.07,15.79839 5.56823.41286 9.69672-4.05722 13.32455-7.62996 13.08908-12.85243 29.92578-22.63432 48.35192-24.81095 11.79855-1.44281 23.78974,2.02356 35.47511-.82219 8.84601-1.97786 15.47952-8.64111 21.9892-14.49555 5.25182-4.91498 10.81203-9.64966 17.3849-12.70509 10.68133-5.83794 22.65528-10.30491 30.83867-19.7274 15.84685-17.78105 19.48511-45.69892 7.82137-66.62097-6.18584-10.54392-17.17667-17.06371-28.24062-21.48827-47.49392-19.25735-97.92769-30.72472-148.83723-36.02477-43.2476-5.01728-86.78903-7.14007-130.3136-7.39604-7.30614-.068-14.61315-.0183-21.91927.0337z" fill-rule="evenodd" filter="url(#filter4421)"/>
<path d="m273.625,756.3125c-55.71199,1.03712-111.46185,6.31189-166.02672,17.81303-22.46911,4.95853-45.05398,10.19807-66.29686,19.22934-9.86872,4.32838-19.57025,9.32514-28.07401,15.99758-10.06828,8.37098-15.7563,21.13656-16.94129,34.02961-1.97943,16.18741 1.72621,33.11253 10.75704,46.73586 5.51907,7.95181 14.32761,12.50305 22.07552,17.92286 5.37404,3.51742 10.08875,7.90062 14.63124,12.40828 6.67618,5.71936 14.48922,11.23118 23.57939,11.63301 15.26813.9417 29.58564-5.4542 44.44093-7.74141 9.01583-1.11122 18.63317.91553 25.74598,6.76745 7.39517,5.32299 13.91558,12.71638 23.20702,14.63409 10.5905,2.16975 21.10872-1.50439 31.19038-4.35568 8.96479-2.39549 18.31225-5.14158 27.65376-3.52642 6.40201,2.24637 9.80028,8.80025 11.8059,14.8591 4.04067,11.0365 5.17469,23.40372 12.28296,33.12455 3.30074,3.97907 10.29599,2.08018 12.09226-2.47032 6.36192-10.71126 11.56439-22.66825 21.42614-30.73681 7.17544-6.01448 17.50046-9.43385 26.57648-5.95318 8.96221,3.45607 15.02082,12.37557 24.74887,14.16031 6.86618,1.23677 13.1474-2.81361 18.55765-6.50871 8.14928-5.47815 16.69414-11.58592 26.81735-12.30379 8.67764.10979 15.8623,5.62523 22.805,10.17036 9.70479,6.34435 19.36592,13.75244 31.07,15.79839 5.56823.41286 9.69672-4.05722 13.32455-7.62996 13.08908-12.85243 29.92578-22.63432 48.35192-24.81095 11.79855-1.44281 23.78974,2.02356 35.47511-.82219 8.84601-1.97786 15.47952-8.64111 21.9892-14.49555 5.25182-4.91498 10.81203-9.64966 17.3849-12.70509 10.68133-5.83794 22.65528-10.30491 30.83867-19.7274 15.84685-17.78105 19.48511-45.69892 7.82137-66.62097-6.18584-10.54392-17.17667-17.06371-28.24062-21.48827-47.49392-19.25735-97.92769-30.72472-148.83723-36.02477-43.2476-5.01728-86.78903-7.14007-130.3136-7.39604-7.30614-.068-14.61315-.0183-21.91927.0337z" fill="#daaf05" fill-rule="evenodd"/>
<g transform="matrix(.67315,0,0,1.10302,153.62835,117.35079)">
<path d="m1285.7142,870.93359c0,24.45833-97.8577,44.28572-218.5714,44.28572s-218.5714-19.82739-218.5714-44.28572 97.85776-44.28571 218.5714-44.28571 218.5714,19.82739 218.5714,44.28571z" fill="#ff2a2a" fill-rule="evenodd" transform="matrix(.06863,0,0,.08468,449.94638,403.20043)"/>
<path d="m508.1875,475.5625v124h.21875c-.13782.20428-.21875.41092-.21875.625 0,2.07107 6.71573,3.75 15,3.75s15-1.67893 15-3.75c0-.2173-.10808-.41782-.25-.625h.25v-124h-.0312c-.31017,2.00262-6.88228,3.59375-14.96875,3.59375-8.08375,0-14.65445-1.59207-14.96875-3.59375h-.0312z" fill="#f00" fill-rule="evenodd" stroke="#faa"/>
<path d="m508.18167,596.12642c6.59849,0 23.13039-4.74713 30-8.7133v5.47503c-5.93866,3.42869-21.91987,8.7133-30,8.7133z" fill="#ffd5d5" fill-rule="evenodd"/>
<path d="m508.18167,576.12642c6.59849,0 23.13039-4.74713 30-8.7133v5.47503c-5.93866,3.42869-21.91987,8.7133-30,8.7133z" fill="#ffd5d5" fill-rule="evenodd"/>
<path d="m508.18167,556.12642c6.59849,0 23.13039-4.74713 30-8.7133v5.47503c-5.93866,3.42869-21.91987,8.7133-30,8.7133z" fill="#ffd5d5" fill-rule="evenodd"/>
<path d="m508.18167,536.12642c6.59849,0 23.13039-4.74713 30-8.7133v5.47503c-5.93866,3.42869-21.91987,8.7133-30,8.7133z" fill="#ffd5d5" fill-rule="evenodd"/>
<path d="m508.18167,516.12642c6.59849,0 23.13039-4.74713 30-8.7133v5.47503c-5.93866,3.42869-21.91987,8.7133-30,8.7133z" fill="#ffd5d5" fill-rule="evenodd"/>
<path d="m508.18167,496.12642c6.59849,0 23.13039-4.74713 30-8.7133v5.47503c-5.93866,3.42869-21.91987,8.7133-30,8.7133z" fill="#ffd5d5" fill-rule="evenodd"/>
<path d="m1285.7142,870.93359c0,24.45833-97.8577,44.28572-218.5714,44.28572s-218.5714-19.82739-218.5714-44.28572 97.85776-44.28571 218.5714-44.28571 218.5714,19.82739 218.5714,44.28571z" fill="#ff8080" fill-rule="evenodd" filter="url(#filter4061)" transform="matrix(.03635,0,0,.04486,484.38724,437.8826)"/>
<path d="m522.44818,476.56698c-.69708-7.72393 1.28707-13.43692 5.29061-17.63538" fill="none" stroke="#000"/>
</g>
<path d="m295.4375,767.9375c-7.14238-.0665-14.33542-.0204-21.59375.0312h-.125c-55.04694,1.03107-109.99516,6.23478-163.625,17.53125l-.0937.0312c-22.31161,4.92464-44.06239,10.03987-64,18.5-9.32014,4.08778-18.05784,8.61471-25.34375,14.28125l-.03125.0312c-7.22782,6.02813-11.81315,15.90048-12.75,26.09375a11.65458,11.65458 0 0,1 -.03125.34375c-1.64254,13.43239 1.51609,27.66148 8.84375,38.78125 3.41213,4.8309 10.53206,8.89533 19.125,14.90625l-.0313.0314c6.07271,4.02019 11.06617,8.65383 15.5625,13.09375 .05322.0456.10308.0797.15625.125 6.02109,5.13205 11.71631,8.51419 16.34375,8.71875a11.65458,11.65458 0 0,1 .21875.0312c11.58114.7143 24.96127-5.04249 41.9375-7.65625a11.65458,11.65458 0 0,1 .34375-.0312c11.4765-1.4145 23.9808.96743 33.96875,8.875l.0312-.0312c.24323.17508.35587.29536.59375.46875 8.49747,6.19396 13.72716,11.34231 18.125,12.25 6.55727,1.34343 15.11182-1.19649 25.6875-4.1875a11.65458,11.65458 0 0,1 .15625-.0312c8.79189-2.34929 19.86431-5.93049 32.65625-3.71875a11.65458,11.65458 0 0,1 1.84375.46875c11.68283,4.09933 16.42108,14.44215 18.90625,21.84375 .0356.10607.0903.23892.125.34375 3.10177,8.56049 4.76873,16.03454 6.875,22.03125 4.84405-8.89172 10.18071-19.01828 20.375-27.40625l.125-.0937c9.72608-8.09777 23.97954-13.20606 38.125-7.78125 6.7971,2.62115 11.31408,6.58343 14.875,9.25 3.5461,2.65548 5.85548,3.95766 7.75,4.3125h.0312c1.29824.2176 4.72123-1.11498 9.90625-4.65625a11.65458,11.65458 0 0,1 .0625-.0312c7.94456-5.34053 18.17923-13.26572 32.5-14.28125a11.65458,11.65458 0 0,1 .96875-.0312c13.52026.17106 22.60817,7.85755 29.03125,12.0625 9.6781,6.3269 17.70388,11.89873 25.375,13.6875 .0419-.0289.0115.004.0625-.0312 .86026-.59675 2.40184-2.08805 4.375-4.03125a11.65458,11.65458 0 0,1 .0312,0c14.54221-14.27928 33.49406-25.49873 55.125-28.0625h.0312c14.96443-1.82326 26.31362,1.3322 34.09375-.5625a11.65458,11.65458 0 0,1 .21875-.0625c4.56937-1.02166 9.8136-5.55876 16.5625-11.625 .056-.0524.13134-.10376.1875-.15625 5.31276-4.96501 11.52043-10.36555 19.5625-14.25v-.0312c.24696-.13498.44188-.2107.6875-.34375 11.39901-6.17478 21.37249-10.40486 26.9375-16.8125a11.65458,11.65458 0 0,1 .125-.0937c12.37204-13.88212 15.30838-36.89601 6.375-53.0625-4.21635-7.10866-12.61553-12.57212-22.4375-16.5a11.65458,11.65458 0 0,1 -.0625,0c-46.32081-18.78217-95.70743-30.01589-145.6873-35.21915a11.65458,11.65458 0 0,1 -.125-.03125c-42.73378-4.95767-85.84169-7.0585-129.03125-7.3125a11.65458,11.65458 0 0,1 -.0312,0z" fill="#ffd42a" fill-rule="evenodd" filter="url(#filter3853)"/>
<path d="m1285.7142,870.93359c0,24.45833-97.8577,44.28572-218.5714,44.28572s-218.5714-19.82739-218.5714-44.28572 97.85776-44.28571 218.5714-44.28571 218.5714,19.82739 218.5714,44.28571z" fill="#fd5" fill-rule="evenodd" stroke="url(#radialGradient3818)" stroke-width="3.14651" transform="matrix(1.11783,0,0,1.37925,-892.87925,-373.87491)"/>
<path d="m18.43578,1004.1455c0,7.0489-10.79367,12.7632-24.10833,12.7632s-24.10833-5.7143-24.10833-12.7632 10.79367-12.76322 24.10833-12.76322 24.10833,5.71429 24.10833,12.76322z" fill-rule="evenodd" filter="url(#filter4612)" opacity=".2" transform="matrix(.96653,-.25654,.25654,.96653,295.284,-119.59178)"/>
<g transform="matrix(.67315,0,0,1.10302,186.0506,202.14746)">
<path d="m1285.7142,870.93359c0,24.45833-97.8577,44.28572-218.5714,44.28572s-218.5714-19.82739-218.5714-44.28572 97.85776-44.28571 218.5714-44.28571 218.5714,19.82739 218.5714,44.28571z" fill="#ff2a2a" fill-rule="evenodd" transform="matrix(.06863,0,0,.08468,449.94638,403.20043)"/>
<path d="m508.1875,475.5625v124h.21875c-.13782.20428-.21875.41092-.21875.625 0,2.07107 6.71573,3.75 15,3.75s15-1.67893 15-3.75c0-.2173-.10808-.41782-.25-.625h.25v-124h-.0312c-.31017,2.00262-6.88228,3.59375-14.96875,3.59375-8.08375,0-14.65445-1.59207-14.96875-3.59375h-.0312z" fill="#f00" fill-rule="evenodd" stroke="#faa"/>
<path d="m508.18167,596.12642c6.59849,0 23.13039-4.74713 30-8.7133v5.47503c-5.93866,3.42869-21.91987,8.7133-30,8.7133z" fill="#ffd5d5" fill-rule="evenodd"/>
<path d="m508.18167,576.12642c6.59849,0 23.13039-4.74713 30-8.7133v5.47503c-5.93866,3.42869-21.91987,8.7133-30,8.7133z" fill="#ffd5d5" fill-rule="evenodd"/>
<path d="m508.18167,556.12642c6.59849,0 23.13039-4.74713 30-8.7133v5.47503c-5.93866,3.42869-21.91987,8.7133-30,8.7133z" fill="#ffd5d5" fill-rule="evenodd"/>
<path d="m508.18167,536.12642c6.59849,0 23.13039-4.74713 30-8.7133v5.47503c-5.93866,3.42869-21.91987,8.7133-30,8.7133z" fill="#ffd5d5" fill-rule="evenodd"/>
<path d="m508.18167,516.12642c6.59849,0 23.13039-4.74713 30-8.7133v5.47503c-5.93866,3.42869-21.91987,8.7133-30,8.7133z" fill="#ffd5d5" fill-rule="evenodd"/>
<path d="m508.18167,496.12642c6.59849,0 23.13039-4.74713 30-8.7133v5.47503c-5.93866,3.42869-21.91987,8.7133-30,8.7133z" fill="#ffd5d5" fill-rule="evenodd"/>
<path d="m1285.7142,870.93359c0,24.45833-97.8577,44.28572-218.5714,44.28572s-218.5714-19.82739-218.5714-44.28572 97.85776-44.28571 218.5714-44.28571 218.5714,19.82739 218.5714,44.28571z" fill="#ff8080" fill-rule="evenodd" filter="url(#filter4061)" transform="matrix(.03635,0,0,.04486,484.38724,437.8826)"/>
<path d="m522.44818,476.56698c-.69708-7.72393 1.28707-13.43692 5.29061-17.63538" fill="none" stroke="#000"/>
</g>
<path d="m289.49084,512.5824c0,23.87118-45.45331,43.22259-101.52282,43.22259s-101.52283-19.35141-101.52283-43.22259 45.45332-43.22259 101.52283-43.22259 101.52282,19.35141 101.52282,43.22259z" fill-rule="evenodd" opacity=".2" transform="matrix(1.98292,-.15366,.49557,1.41149,-301.13311,113.48449)"/>
<path d="m98.2158,702.36218v125.01282c0,27.61424 89.54305,50 200,50s200-22.38576 200-50v-125.01282c0,27.61424-89.54305,50-200,50s-200-22.38576-200-50z" fill="#ffb380" fill-rule="evenodd" stroke="#ef8f50"/>
<path d="m105,723.9375v103.4375c0,3.23339 3.21864,8.19451 12.40625,13.625s23.32906,10.7307 41.03125,15.15625c35.40438,8.85109 85.01155,14.4375 139.78125,14.4375s104.37687-5.58641 139.78125-14.4375c17.70219-4.42555 31.84364-9.72576 41.03125-15.15625s12.40625-10.39161 12.40625-13.625v-103.4375c-1.75793,1.2836-3.48563,2.57785-5.46875,3.75-11.05349,6.53335-26.19681,12.00233-44.6875,16.625-36.98139,9.24535-87.37525,14.84375-143.0625,14.84375s-106.08111-5.5984-143.0625-14.84375c-18.49069-4.62267-33.63401-10.09165-44.6875-16.625-1.98312-1.17215-3.71082-2.4664-5.46875-3.75z" fill="#fac099" fill-rule="evenodd" filter="url(#filter4146)"/>
<path d="m98.2158,702.36218v125.01282c0,27.61424 89.54305,50 200,50s200-22.38576 200-50v-125.01282c0,27.61424-89.54305,50-200,50s-200-22.38576-200-50z" fill="url(#linearGradient4459)" fill-rule="evenodd" opacity=".6"/>
<path d="m1056.375,827.40625c-49.7248.63538-99.7414,3.42928-148.4375,14.125-18.65112,4.0611-37.42831,9.07988-54.0625,18.71875-4.63332,2.65266-8.92064,6.81151-9.65625,12.34375-1.42617,8.04195 2.6205,15.80452 7.28125,22.0625 5.39334,7.46677 12.87422,14.15006 22.1875,15.90625 7.02118,1.51067 14.19384.13297 21.25-.34375 7.06933-.6605 14.4079-.5862 21.0625,2.1875 12.80977,4.55461 24.33133,12.9591 38.09375,14.625 12.2282,1.52491 24.042-2.82469 35.75-5.625 10.00538-2.12618 21.08965-.32492 29.25005,6.0625 8.0725,5.33489 15.5349,12.5193 25.375,14.34375 9.4495,1.78858 19.0501-3.64246 24.125-11.46875 4.5136-5.43591 12.0468-7.41322 18.875-6.625 10.4263.42866 20.7537,2.07198 31.125,3.125 13.8666,1.84446 28.2164,3.84024 41.9687.15625 9.6274-2.22373 19.1222-6.71667 29.2187-5.5625 7.1484.96472 12.8216,5.7464 19.0626,8.90625 6.5978,3.0422 15.0311,3.26323 20.9687-1.375 4.9732-3.71354 8.5557-9.44099 14.7187-11.40625 7.8475-3.02648 16.5442-3.03012 24.2813-6.4375 12.0918-4.68847 22.2288-15.22508 24.9375-28.09375 1.5291-6.76227-.4597-14.31945-5.6562-19.03125-5.7142-5.2883-13.4851-7.13039-20.5-10.03125-26.3751-10.04769-54.2222-15.69444-82.1563-19.25-28.3779-3.57506-56.923-5.61521-85.5-6.6875-14.5113-.50835-29.0423-.74885-43.5625-.625z" fill-rule="evenodd" filter="url(#filter4463)" transform="matrix(.91503,0,0,1.12903,-680.03646,-279.7498)"/>
<path d="m1056.375,827.40625c-49.7248.63538-99.7414,3.42928-148.4375,14.125-18.65112,4.0611-37.42831,9.07988-54.0625,18.71875-4.63332,2.65266-8.92064,6.81151-9.65625,12.34375-1.42617,8.04195 2.6205,15.80452 7.28125,22.0625 5.39334,7.46677 12.87422,14.15006 22.1875,15.90625 7.02118,1.51067 14.19384.13297 21.25-.34375 7.06933-.6605 14.4079-.5862 21.0625,2.1875 12.80977,4.55461 24.33133,12.9591 38.09375,14.625 12.2282,1.52491 24.042-2.82469 35.75-5.625 10.00538-2.12618 21.08965-.32492 29.25005,6.0625 8.0725,5.33489 15.5349,12.5193 25.375,14.34375 9.4495,1.78858 19.0501-3.64246 24.125-11.46875 4.5136-5.43591 12.0468-7.41322 18.875-6.625 10.4263.42866 20.7537,2.07198 31.125,3.125 13.8666,1.84446 28.2164,3.84024 41.9687.15625 9.6274-2.22373 19.1222-6.71667 29.2187-5.5625 7.1484.96472 12.8216,5.7464 19.0626,8.90625 6.5978,3.0422 15.0311,3.26323 20.9687-1.375 4.9732-3.71354 8.5557-9.44099 14.7187-11.40625 7.8475-3.02648 16.5442-3.03012 24.2813-6.4375 12.0918-4.68847 22.2288-15.22508 24.9375-28.09375 1.5291-6.76227-.4597-14.31945-5.6562-19.03125-5.7142-5.2883-13.4851-7.13039-20.5-10.03125-26.3751-10.04769-54.2222-15.69444-82.1563-19.25-28.3779-3.57506-56.923-5.61521-85.5-6.6875-14.5113-.50835-29.0423-.74885-43.5625-.625z" fill="#714326" fill-rule="evenodd" transform="matrix(.91503,0,0,1.12903,-680.03646,-280.94998)"/>
<path d="m1056.4375,836.4375c-49.4426.6336-98.83188,3.45384-146.5625,13.9375-18.3705,4-36.21126,8.84637-51.46875,17.6875a9.04771,9.04771 0 0,1 -.0312.0312c-3.18333,1.82251-4.97917,4.12076-5.1875,5.6875a9.04771,9.04771 0 0,1 -.0625.40625c-.73761,4.15925 1.60656,9.66694 5.625,15.0625a9.04771,9.04771 0 0,1 .0937.0937c4.56863,6.32501 10.45813,11.19855 16.53125,12.34375a9.04771,9.04771 0 0,1 .21875.0312c4.62792.99574 10.79962.032 18.5-.5 .0812-.006.13719-.0257.21875-.0312v.0312c7.53023-.69031 16.16139-.75548 24.71875,2.6875v-.0312c.15572.0554.28261.13156.4375.1875 14.27417,5.15562 25.07747,12.7119 35.71875,14a9.04771,9.04771 0 0,1 .0312,0c9.42197,1.17496 20.10104-2.4957 32.53125-5.46875a9.04771,9.04771 0 0,1 .21875-.0312c12.12875-2.5774 25.53635-.58518 36.09375,7.375l.031-.0312c9.0498,5.98078 15.5707,11.80217 22.0312,13a9.04771,9.04771 0 0,1 .031.0312c5.0611.95795 11.5631-2.47195 14.8438-7.53125a9.04771,9.04771 0 0,1 .625-.84375c6.8243-8.219 17.0833-10.73021 26.2188-9.84375v-.0312c.1071.004.2054.0266.3124.0312 .1125.0119.2317-.0129.3438,0v.0312c10.8799.49628 21.1719,2.09589 31,3.09375a9.04771,9.04771 0 0,1 .2812.0312c13.9034,1.84936 26.9935,3.44065 38.4376.375a9.04771,9.04771 0 0,1 .3124-.0625c8.2948-1.91591 18.9169-7.27775 32.2813-5.75a9.04771,9.04771 0 0,1 .1875.0312c10.333,1.39448 16.8375,7.14615 21.75,9.6875 4.0644,1.82726 8.9717,1.66249 11.5-.3125a9.04771,9.04771 0 0,1 .1562-.125c3.0108-2.24819 7.2349-9.27209 16.875-12.5625v-.0312c.1081-.0417.2048-.053.3126-.0937 .072-.0237.1144-.0705.1874-.0937v.0312c9.7156-3.6379 18.0194-3.76639 23.375-6.125a9.04771,9.04771 0 0,1 .375-.15625c9.4212-3.65295 17.3984-12.14041 19.375-21.53125a9.04771,9.04771 0 0,1 .031-.125c.8371-3.70198-.4248-8.09373-2.9063-10.34375a9.04771,9.04771 0 0,1 -.094-.0625c-3.4413-3.18475-9.7467-4.97437-17.5625-8.1875l-.25-.0937c-25.3678-9.63271-52.4217-15.1683-79.8125-18.65625h-.031c-28.0345-3.53068-56.3041-5.56044-84.6562-6.625h-.031c-14.3687-.50297-28.7561-.74625-43.0938-.625h-.062z" fill="#8c3e0a" fill-rule="evenodd" filter="url(#filter3870)" transform="matrix(.91503,0,0,1.12903,-680.03897,-280.94998)"/>
<path d="m151.55331,732.11316c-22.3569-2.99159-44.21842-7.92857-41.77259-30.64001 11.25504,23.90724 24.91215,17.47529 41.77259,30.64001z" fill="#fff" filter="url(#filter4513)" opacity=".6" transform="matrix(.71691,0,0,.71691,174.65628,244.59621)"/>
<path d="m1285.7142,870.93359c0,24.45833-97.8577,44.28572-218.5714,44.28572s-218.5714-19.82739-218.5714-44.28572 97.85776-44.28571 218.5714-44.28571 218.5714,19.82739 218.5714,44.28571z" fill="#a40" fill-rule="evenodd" stroke="url(#radialGradient4449)" stroke-width="3.34175" transform="matrix(.61862,0,0,.7633,-361.94056,37.58045)"/>
<path d="m289.49084,512.5824c0,23.87118-45.45331,43.22259-101.52282,43.22259s-101.52283-19.35141-101.52283-43.22259 45.45332-43.22259 101.52283-43.22259 101.52282,19.35141 101.52282,43.22259z" fill-rule="evenodd" opacity=".2" transform="matrix(1.20519,-.07764,.3012,.7132,-64.36308,339.52114)"/>
<path d="m198.2158,591.07781v111.28437c0,13.80712 44.77153,25 100,25s100-11.19288 100-25v-111.28437c-.0664,13.79299-44.81253,24.96875-100,24.96875s-99.93359-11.17576-100-24.96875z" fill="#ff8080" fill-rule="evenodd" stroke="#ef6666"/>
<path d="m204.96875,607.78125v94.59375c0-.20317.4313,1.46444 4.5625,3.90625s10.9694,5.05485 19.625,7.21875c17.31121,4.3278 41.90513,7.125 69.0625,7.125s51.75129-2.7972 69.0625-7.125c8.6556-2.1639 15.4938-4.77694 19.625-7.21875s4.5625-4.10942 4.5625-3.90625v-94.59375c-5.65941,2.96298-12.61494,5.42178-20.9375,7.5-18.87718,4.71381-44.26226,7.5-72.3125,7.5s-53.43532-2.78619-72.3125-7.5c-8.32256-2.07822-15.27809-4.53702-20.9375-7.5z" fill="#f89797" fill-rule="evenodd" filter="url(#filter4154)"/>
<path d="m198.2158,591.07781v111.28437c0,13.80712 44.77153,25 100,25s100-11.19288 100-25v-111.28437c-.0664,13.79299-44.81253,24.96875-100,24.96875s-99.93359-11.17576-100-24.96875z" fill="url(#linearGradient4475)" fill-rule="evenodd" opacity=".6"/>
<path d="m291.91854,569.09621c-30.4758-.0328-61.39069,4.33308-89.9614,18.02188-7.15823,3.50698-9.06136,16.48823-3.81589,23.23726 5.94112,8.76901 16.15523,11.06319 21.5469,20.57302 2.55957,4.03213 3.29504,9.1957 4.70241,13.86638 2.25616,5.12623 6.65437,7.86496 10.04714,11.67302 2.70853,2.60511 7.00521,3.51456 9.61983.2378 3.9922-4.39375 5.81371-11.47054 10.86547-14.44448 5.65939-4.0233 11.39869-7.94143 16.57865-12.87666 2.97138-2.36469 6.62195-5.06 10.25591-3.62785 4.59269,3.23125 5.23015,10.57806 9.06198,14.73189 4.94717,6.63583 11.36457,11.89942 18.599,13.70855 2.64312-1.17425 4.3928-4.11057 6.71703-5.91015 4.88559-5.828 8.95176-13.0166 15.20651-16.79831 5.92393-4.09859 12.52804-8.07173 19.50882-7.27467 5.38085.77716 10.89315,1.85989 15.78345,4.86179 3.83513,2.7978 7.18845,6.98112 11.62613,8.27406 5.37627.89678 10.16702-3.60596 13.217-8.64728 4.38873-6.21473 9.11776-13.01911 9.68736-21.60726 .86132-9.01463-3.24393-18.81112-10.36137-21.91777-10.96456-5.85015-22.83295-8.2995-34.48356-11.11817-21.26924-4.32174-42.8862-5.07578-64.40137-4.96305z" fill-rule="evenodd" filter="url(#filter4487)"/>
<path d="m291.91854,568.19604c-30.4758-.0328-61.39069,4.33308-89.9614,18.02188-7.15823,3.50698-9.06136,16.48823-3.81589,23.23726 5.94112,8.76901 16.15523,11.06319 21.5469,20.57302 2.55957,4.03213 3.29504,9.1957 4.70241,13.86638 2.25616,5.12623 6.65437,7.86496 10.04714,11.67302 2.70853,2.60511 7.00521,3.51456 9.61983.2378 3.9922-4.39375 5.81371-11.47054 10.86547-14.44448 5.65939-4.0233 11.39869-7.94143 16.57865-12.87666 2.97138-2.36469 6.62195-5.06 10.25591-3.62785 4.59269,3.23125 5.23015,10.57806 9.06198,14.73189 4.94717,6.63583 11.36457,11.89942 18.599,13.70855 2.64312-1.17425 4.3928-4.11057 6.71703-5.91015 4.88559-5.828 8.95176-13.0166 15.20651-16.79831 5.92393-4.09859 12.52804-8.07173 19.50882-7.27467 5.38085.77716 10.89315,1.85989 15.78345,4.86179 3.83513,2.7978 7.18845,6.98112 11.62613,8.27406 5.37627.89678 10.16702-3.60596 13.217-8.64728 4.38873-6.21473 9.11776-13.01911 9.68736-21.60726 .86132-9.01463-3.24393-18.81112-10.36137-21.91777-10.96456-5.85015-22.83295-8.2995-34.48356-11.11817-21.26924-4.32174-42.8862-5.07578-64.40137-4.96305z" fill="#fceaa9" fill-rule="evenodd"/>
<path d="m1051.75,843.65625c-65.36423-.057-130.96777,7.5875-190.90625,30.84375-4.30699,1.71014-6.12246,12.54981-2.84375,15.96875a15.53709,15.53709 0 0,1 .6875.78125c4.11009,4.91658 11.03555,9.10642 19.90625,14.28125 8.68764,5.06803 19.33189,11.30199 27.46875,22.5625l.0312-.0312c.0993.12677.15256.2482.25.375 .0807.11358.16982.19789.25.3125l-.0312.0312c7.70739,10.2052 9.5807,20.18264 11.71875,26.59375 2.2782,3.41634 8.7814,7.58448 17.40625,15.28125 .37166.28971.97191.46807 1.46875.625 2.09567-2.01554 4.70243-5.75047 8.40625-10.84375 3.73796-5.14023 9.07203-11.72184 17.59375-16.125l-.03125-.0625c12.52911-7.21877 24.42729-13.84719 34.5-21.625a15.53709,15.53709 0 0,1 1.09375-.78125c6.85935-4.42413 19.36075-13.32113 35.53125-8.15625a15.53709,15.53709 0 0,1 2.9688,1.3125c9.1497,5.21724 13.5998,13.18449 16.5,18.53125s4.7761,8.44087 5.875,9.40625a15.53709,15.53709 0 0,1 1.1874,1.125c7.5525,8.21028 16.7883,14.50396 26.5,17.8125 1.4182-1.23102 4.0667-3.09062 7.0313-5.09375 8.9384-8.78602 18.5104-22.8045 36.0313-31.65625l-.031-.0312c13.5027-7.57133 30.8034-16.74506 51.6875-14.8125a15.53709,15.53709 0 0,1 .375.0312c12.2098,1.42921 26.0786,3.43252 39.5938,10.15625a15.53709,15.53709 0 0,1 1,.53125c10.1852,6.02198 16.1483,11.16206 20.25,12.5625 3.7246.0828 9.2732-3.21176 13.6874-9.125a15.53709,15.53709 0 0,1 .7188-.9375c9.5371-10.94551 16.709-20.44125 17.4375-29.34375a15.53709,15.53709 0 0,1 .031-.53125c1.0567-8.96382-4.7503-19.63543-12.4063-22.34375a15.53709,15.53709 0 0,1 -.9687-.40625c-21.541-9.31474-46.1767-13.61709-71.75-18.625-45.1074-7.4282-91.4663-8.79201-138.1563-8.59375a15.53709,15.53709 0 0,1 -.062,0z" fill="#faf5e0" fill-rule="evenodd" filter="url(#filter3893)" opacity=".6" transform="matrix(.45752,0,0,.56452,-189.39045,100.7061)"/>
<path d="m1285.7142,870.93359c0,24.45833-97.8577,44.28572-218.5714,44.28572s-218.5714-19.82739-218.5714-44.28572 97.85776-44.28571 218.5714-44.28571 218.5714,19.82739 218.5714,44.28571z" fill="#fff6d5" fill-rule="evenodd" stroke="url(#radialGradient4439)" stroke-width="3.7073" transform="matrix(.24283,0,0,.29962,39.07837,331.40912)"/>
<path d="m18.43578,1004.1455c0,7.0489-10.79367,12.7632-24.10833,12.7632s-24.10833-5.7143-24.10833-12.7632 10.79367-12.76322 24.10833-12.76322 24.10833,5.71429 24.10833,12.76322z" fill-rule="evenodd" filter="url(#filter4612)" opacity=".2" transform="matrix(.80818,-.22116,.21451,.83323,364.24294,-19.57213)"/>
<g transform="matrix(.67315,0,0,1.10302,218.1306,161.9009)">
<path d="m1285.7142,870.93359c0,24.45833-97.8577,44.28572-218.5714,44.28572s-218.5714-19.82739-218.5714-44.28572 97.85776-44.28571 218.5714-44.28571 218.5714,19.82739 218.5714,44.28571z" fill="#ff2a2a" fill-rule="evenodd" transform="matrix(.06863,0,0,.08468,449.94638,403.20043)"/>
<path d="m508.1875,475.5625v124h.21875c-.13782.20428-.21875.41092-.21875.625 0,2.07107 6.71573,3.75 15,3.75s15-1.67893 15-3.75c0-.2173-.10808-.41782-.25-.625h.25v-124h-.0312c-.31017,2.00262-6.88228,3.59375-14.96875,3.59375-8.08375,0-14.65445-1.59207-14.96875-3.59375h-.0312z" fill="#f00" fill-rule="evenodd" stroke="#faa"/>
<path d="m508.18167,596.12642c6.59849,0 23.13039-4.74713 30-8.7133v5.47503c-5.93866,3.42869-21.91987,8.7133-30,8.7133z" fill="#ffd5d5" fill-rule="evenodd"/>
<path d="m508.18167,576.12642c6.59849,0 23.13039-4.74713 30-8.7133v5.47503c-5.93866,3.42869-21.91987,8.7133-30,8.7133z" fill="#ffd5d5" fill-rule="evenodd"/>
<path d="m508.18167,556.12642c6.59849,0 23.13039-4.74713 30-8.7133v5.47503c-5.93866,3.42869-21.91987,8.7133-30,8.7133z" fill="#ffd5d5" fill-rule="evenodd"/>
<path d="m508.18167,536.12642c6.59849,0 23.13039-4.74713 30-8.7133v5.47503c-5.93866,3.42869-21.91987,8.7133-30,8.7133z" fill="#ffd5d5" fill-rule="evenodd"/>
<path d="m508.18167,516.12642c6.59849,0 23.13039-4.74713 30-8.7133v5.47503c-5.93866,3.42869-21.91987,8.7133-30,8.7133z" fill="#ffd5d5" fill-rule="evenodd"/>
<path d="m508.18167,496.12642c6.59849,0 23.13039-4.74713 30-8.7133v5.47503c-5.93866,3.42869-21.91987,8.7133-30,8.7133z" fill="#ffd5d5" fill-rule="evenodd"/>
<path d="m1285.7142,870.93359c0,24.45833-97.8577,44.28572-218.5714,44.28572s-218.5714-19.82739-218.5714-44.28572 97.85776-44.28571 218.5714-44.28571 218.5714,19.82739 218.5714,44.28571z" fill="#ff8080" fill-rule="evenodd" filter="url(#filter4061)" transform="matrix(.03635,0,0,.04486,484.38724,437.8826)"/>
<path d="m522.44818,476.56698c-.69708-7.72393 1.28707-13.43692 5.29061-17.63538" fill="none" stroke="#000"/>
</g>
<path d="m18.43578,1004.1455c0,7.0489-10.79367,12.7632-24.10833,12.7632s-24.10833-5.7143-24.10833-12.7632 10.79367-12.76322 24.10833-12.76322 24.10833,5.71429 24.10833,12.76322z" fill-rule="evenodd" filter="url(#filter4612)" opacity=".2" transform="matrix(.96653,-.25654,.25654,.96653,-203.9002,-159.29961)"/>
<g transform="matrix(.67315,0,0,1.10302,-315.24733,162.24315)">
<path d="m1285.7142,870.93359c0,24.45833-97.8577,44.28572-218.5714,44.28572s-218.5714-19.82739-218.5714-44.28572 97.85776-44.28571 218.5714-44.28571 218.5714,19.82739 218.5714,44.28571z" fill="#ff2a2a" fill-rule="evenodd" transform="matrix(.06863,0,0,.08468,449.94638,403.20043)"/>
<path d="m508.1875,475.5625v124h.21875c-.13782.20428-.21875.41092-.21875.625 0,2.07107 6.71573,3.75 15,3.75s15-1.67893 15-3.75c0-.2173-.10808-.41782-.25-.625h.25v-124h-.0312c-.31017,2.00262-6.88228,3.59375-14.96875,3.59375-8.08375,0-14.65445-1.59207-14.96875-3.59375h-.0312z" fill="#f00" fill-rule="evenodd" stroke="#faa"/>
<path d="m508.18167,596.12642c6.59849,0 23.13039-4.74713 30-8.7133v5.47503c-5.93866,3.42869-21.91987,8.7133-30,8.7133z" fill="#ffd5d5" fill-rule="evenodd"/>
<path d="m508.18167,576.12642c6.59849,0 23.13039-4.74713 30-8.7133v5.47503c-5.93866,3.42869-21.91987,8.7133-30,8.7133z" fill="#ffd5d5" fill-rule="evenodd"/>
<path d="m508.18167,556.12642c6.59849,0 23.13039-4.74713 30-8.7133v5.47503c-5.93866,3.42869-21.91987,8.7133-30,8.7133z" fill="#ffd5d5" fill-rule="evenodd"/>
<path d="m508.18167,536.12642c6.59849,0 23.13039-4.74713 30-8.7133v5.47503c-5.93866,3.42869-21.91987,8.7133-30,8.7133z" fill="#ffd5d5" fill-rule="evenodd"/>
<path d="m508.18167,516.12642c6.59849,0 23.13039-4.74713 30-8.7133v5.47503c-5.93866,3.42869-21.91987,8.7133-30,8.7133z" fill="#ffd5d5" fill-rule="evenodd"/>
<path d="m508.18167,496.12642c6.59849,0 23.13039-4.74713 30-8.7133v5.47503c-5.93866,3.42869-21.91987,8.7133-30,8.7133z" fill="#ffd5d5" fill-rule="evenodd"/>
<path d="m1285.7142,870.93359c0,24.45833-97.8577,44.28572-218.5714,44.28572s-218.5714-19.82739-218.5714-44.28572 97.85776-44.28571 218.5714-44.28571 218.5714,19.82739 218.5714,44.28571z" fill="#ff8080" fill-rule="evenodd" filter="url(#filter4061)" transform="matrix(.03635,0,0,.04486,484.38724,437.8826)"/>
<path d="m522.44818,476.56698c-.69708-7.72393 1.28707-13.43692 5.29061-17.63538" fill="none" stroke="#000"/>
</g>
<path d="m18.43578,1004.1455c0,7.0489-10.79367,12.7632-24.10833,12.7632s-24.10833-5.7143-24.10833-12.7632 10.79367-12.76322 24.10833-12.76322 24.10833,5.71429 24.10833,12.76322z" fill-rule="evenodd" filter="url(#filter4612)" opacity=".2" transform="matrix(.96653,-.25654,.25654,.96653,-81.94043,-85.55649)"/>
<g transform="matrix(.67315,0,0,1.10302,-193.04037,234.56972)">
<path d="m1285.7142,870.93359c0,24.45833-97.8577,44.28572-218.5714,44.28572s-218.5714-19.82739-218.5714-44.28572 97.85776-44.28571 218.5714-44.28571 218.5714,19.82739 218.5714,44.28571z" fill="#ff2a2a" fill-rule="evenodd" transform="matrix(.06863,0,0,.08468,449.94638,403.20043)"/>
<path d="m508.1875,475.5625v124h.21875c-.13782.20428-.21875.41092-.21875.625 0,2.07107 6.71573,3.75 15,3.75s15-1.67893 15-3.75c0-.2173-.10808-.41782-.25-.625h.25v-124h-.0312c-.31017,2.00262-6.88228,3.59375-14.96875,3.59375-8.08375,0-14.65445-1.59207-14.96875-3.59375h-.0312z" fill="#f00" fill-rule="evenodd" stroke="#faa"/>
<path d="m508.18167,596.12642c6.59849,0 23.13039-4.74713 30-8.7133v5.47503c-5.93866,3.42869-21.91987,8.7133-30,8.7133z" fill="#ffd5d5" fill-rule="evenodd"/>
<path d="m508.18167,576.12642c6.59849,0 23.13039-4.74713 30-8.7133v5.47503c-5.93866,3.42869-21.91987,8.7133-30,8.7133z" fill="#ffd5d5" fill-rule="evenodd"/>
<path d="m508.18167,556.12642c6.59849,0 23.13039-4.74713 30-8.7133v5.47503c-5.93866,3.42869-21.91987,8.7133-30,8.7133z" fill="#ffd5d5" fill-rule="evenodd"/>
<path d="m508.18167,536.12642c6.59849,0 23.13039-4.74713 30-8.7133v5.47503c-5.93866,3.42869-21.91987,8.7133-30,8.7133z" fill="#ffd5d5" fill-rule="evenodd"/>
<path d="m508.18167,516.12642c6.59849,0 23.13039-4.74713 30-8.7133v5.47503c-5.93866,3.42869-21.91987,8.7133-30,8.7133z" fill="#ffd5d5" fill-rule="evenodd"/>
<path d="m508.18167,496.12642c6.59849,0 23.13039-4.74713 30-8.7133v5.47503c-5.93866,3.42869-21.91987,8.7133-30,8.7133z" fill="#ffd5d5" fill-rule="evenodd"/>
<path d="m1285.7142,870.93359c0,24.45833-97.8577,44.28572-218.5714,44.28572s-218.5714-19.82739-218.5714-44.28572 97.85776-44.28571 218.5714-44.28571 218.5714,19.82739 218.5714,44.28571z" fill="#ff8080" fill-rule="evenodd" filter="url(#filter4061)" transform="matrix(.03635,0,0,.04486,484.38724,437.8826)"/>
<path d="m522.44818,476.56698c-.69708-7.72393 1.28707-13.43692 5.29061-17.63538" fill="none" stroke="#000"/>
</g>
<path d="m152.38698,905.61916c0,0 31.80206.15912 47.03303-3.76265 10.32853-2.65946 18.69689-11.10407 29.16047-13.16924 17.85252-3.5235 54.55831,1.88132 54.55831,1.88132s-35.01773,1.81899-51.73632,6.58462c-11.60448,3.30785-20.98033,13.32564-32.92312,15.05057-15.36072,2.21858-46.09237-6.58462-46.09237-6.58462z" fill="#fff" filter="url(#filter4539)" opacity=".6"/>
<path d="m18.43578,1004.1455c0,7.0489-10.79367,12.7632-24.10833,12.7632s-24.10833-5.7143-24.10833-12.7632 10.79367-12.76322 24.10833-12.76322 24.10833,5.71429 24.10833,12.76322z" fill-rule="evenodd" filter="url(#filter4612)" opacity=".2" transform="matrix(.96653,-.25654,.25654,.96653,20.16543,-75.62953)"/>
<g transform="matrix(.67315,0,0,1.10302,-93.2796,244.5458)">
<path d="m1285.7142,870.93359c0,24.45833-97.8577,44.28572-218.5714,44.28572s-218.5714-19.82739-218.5714-44.28572 97.85776-44.28571 218.5714-44.28571 218.5714,19.82739 218.5714,44.28571z" fill="#ff2a2a" fill-rule="evenodd" transform="matrix(.06863,0,0,.08468,449.94638,403.20043)"/>
<path d="m508.1875,475.5625v124h.21875c-.13782.20428-.21875.41092-.21875.625 0,2.07107 6.71573,3.75 15,3.75s15-1.67893 15-3.75c0-.2173-.10808-.41782-.25-.625h.25v-124h-.0312c-.31017,2.00262-6.88228,3.59375-14.96875,3.59375-8.08375,0-14.65445-1.59207-14.96875-3.59375h-.0312z" fill="#f00" fill-rule="evenodd" stroke="#faa"/>
<path d="m508.18167,596.12642c6.59849,0 23.13039-4.74713 30-8.7133v5.47503c-5.93866,3.42869-21.91987,8.7133-30,8.7133z" fill="#ffd5d5" fill-rule="evenodd"/>
<path d="m508.18167,576.12642c6.59849,0 23.13039-4.74713 30-8.7133v5.47503c-5.93866,3.42869-21.91987,8.7133-30,8.7133z" fill="#ffd5d5" fill-rule="evenodd"/>
<path d="m508.18167,556.12642c6.59849,0 23.13039-4.74713 30-8.7133v5.47503c-5.93866,3.42869-21.91987,8.7133-30,8.7133z" fill="#ffd5d5" fill-rule="evenodd"/>
<path d="m508.18167,536.12642c6.59849,0 23.13039-4.74713 30-8.7133v5.47503c-5.93866,3.42869-21.91987,8.7133-30,8.7133z" fill="#ffd5d5" fill-rule="evenodd"/>
<path d="m508.18167,516.12642c6.59849,0 23.13039-4.74713 30-8.7133v5.47503c-5.93866,3.42869-21.91987,8.7133-30,8.7133z" fill="#ffd5d5" fill-rule="evenodd"/>
<path d="m508.18167,496.12642c6.59849,0 23.13039-4.74713 30-8.7133v5.47503c-5.93866,3.42869-21.91987,8.7133-30,8.7133z" fill="#ffd5d5" fill-rule="evenodd"/>
<path d="m1285.7142,870.93359c0,24.45833-97.8577,44.28572-218.5714,44.28572s-218.5714-19.82739-218.5714-44.28572 97.85776-44.28571 218.5714-44.28571 218.5714,19.82739 218.5714,44.28571z" fill="#ff8080" fill-rule="evenodd" filter="url(#filter4061)" transform="matrix(.03635,0,0,.04486,484.38724,437.8826)"/>
<path d="m522.44818,476.56698c-.69708-7.72393 1.28707-13.43692 5.29061-17.63538" fill="none" stroke="#000"/>
</g>
<path d="m18.43578,1004.1455c0,7.0489-10.79367,12.7632-24.10833,12.7632s-24.10833-5.7143-24.10833-12.7632 10.79367-12.76322 24.10833-12.76322 24.10833,5.71429 24.10833,12.76322z" fill-rule="evenodd" filter="url(#filter4612)" opacity=".2" transform="matrix(.96653,-.25654,.25654,.96653,123.68943,-75.62953)"/>
<g transform="matrix(.67315,0,0,1.10302,13.96325,246.05178)">
<path d="m1285.7142,870.93359c0,24.45833-97.8577,44.28572-218.5714,44.28572s-218.5714-19.82739-218.5714-44.28572 97.85776-44.28571 218.5714-44.28571 218.5714,19.82739 218.5714,44.28571z" fill="#ff2a2a" fill-rule="evenodd" transform="matrix(.06863,0,0,.08468,449.94638,403.20043)"/>
<path d="m508.1875,475.5625v124h.21875c-.13782.20428-.21875.41092-.21875.625 0,2.07107 6.71573,3.75 15,3.75s15-1.67893 15-3.75c0-.2173-.10808-.41782-.25-.625h.25v-124h-.0312c-.31017,2.00262-6.88228,3.59375-14.96875,3.59375-8.08375,0-14.65445-1.59207-14.96875-3.59375h-.0312z" fill="#f00" fill-rule="evenodd" stroke="#faa"/>
<path d="m508.18167,596.12642c6.59849,0 23.13039-4.74713 30-8.7133v5.47503c-5.93866,3.42869-21.91987,8.7133-30,8.7133z" fill="#ffd5d5" fill-rule="evenodd"/>
<path d="m508.18167,576.12642c6.59849,0 23.13039-4.74713 30-8.7133v5.47503c-5.93866,3.42869-21.91987,8.7133-30,8.7133z" fill="#ffd5d5" fill-rule="evenodd"/>
<path d="m508.18167,556.12642c6.59849,0 23.13039-4.74713 30-8.7133v5.47503c-5.93866,3.42869-21.91987,8.7133-30,8.7133z" fill="#ffd5d5" fill-rule="evenodd"/>
<path d="m508.18167,536.12642c6.59849,0 23.13039-4.74713 30-8.7133v5.47503c-5.93866,3.42869-21.91987,8.7133-30,8.7133z" fill="#ffd5d5" fill-rule="evenodd"/>
<path d="m508.18167,516.12642c6.59849,0 23.13039-4.74713 30-8.7133v5.47503c-5.93866,3.42869-21.91987,8.7133-30,8.7133z" fill="#ffd5d5" fill-rule="evenodd"/>
<path d="m508.18167,496.12642c6.59849,0 23.13039-4.74713 30-8.7133v5.47503c-5.93866,3.42869-21.91987,8.7133-30,8.7133z" fill="#ffd5d5" fill-rule="evenodd"/>
<path d="m1285.7142,870.93359c0,24.45833-97.8577,44.28572-218.5714,44.28572s-218.5714-19.82739-218.5714-44.28572 97.85776-44.28571 218.5714-44.28571 218.5714,19.82739 218.5714,44.28571z" fill="#ff8080" fill-rule="evenodd" filter="url(#filter4061)" transform="matrix(.03635,0,0,.04486,484.38724,437.8826)"/>
<path d="m522.44818,476.56698c-.69708-7.72393 1.28707-13.43692 5.29061-17.63538" fill="none" stroke="#000"/>
</g>
<g transform="matrix(.67315,0,0,1.10302,-269.86096,121.32687)">
<path d="m1285.7142,870.93359c0,24.45833-97.8577,44.28572-218.5714,44.28572s-218.5714-19.82739-218.5714-44.28572 97.85776-44.28571 218.5714-44.28571 218.5714,19.82739 218.5714,44.28571z" fill="#ff2a2a" fill-rule="evenodd" transform="matrix(.06863,0,0,.08468,449.94638,403.20043)"/>
<path d="m508.1875,475.5625v124h.21875c-.13782.20428-.21875.41092-.21875.625 0,2.07107 6.71573,3.75 15,3.75s15-1.67893 15-3.75c0-.2173-.10808-.41782-.25-.625h.25v-124h-.0312c-.31017,2.00262-6.88228,3.59375-14.96875,3.59375-8.08375,0-14.65445-1.59207-14.96875-3.59375h-.0312z" fill="#f00" fill-rule="evenodd" stroke="#faa"/>
<path d="m508.18167,596.12642c6.59849,0 23.13039-4.74713 30-8.7133v5.47503c-5.93866,3.42869-21.91987,8.7133-30,8.7133z" fill="#ffd5d5" fill-rule="evenodd"/>
<path d="m508.18167,576.12642c6.59849,0 23.13039-4.74713 30-8.7133v5.47503c-5.93866,3.42869-21.91987,8.7133-30,8.7133z" fill="#ffd5d5" fill-rule="evenodd"/>
<path d="m508.18167,556.12642c6.59849,0 23.13039-4.74713 30-8.7133v5.47503c-5.93866,3.42869-21.91987,8.7133-30,8.7133z" fill="#ffd5d5" fill-rule="evenodd"/>
<path d="m508.18167,536.12642c6.59849,0 23.13039-4.74713 30-8.7133v5.47503c-5.93866,3.42869-21.91987,8.7133-30,8.7133z" fill="#ffd5d5" fill-rule="evenodd"/>
<path d="m508.18167,516.12642c6.59849,0 23.13039-4.74713 30-8.7133v5.47503c-5.93866,3.42869-21.91987,8.7133-30,8.7133z" fill="#ffd5d5" fill-rule="evenodd"/>
<path d="m508.18167,496.12642c6.59849,0 23.13039-4.74713 30-8.7133v5.47503c-5.93866,3.42869-21.91987,8.7133-30,8.7133z" fill="#ffd5d5" fill-rule="evenodd"/>
<path d="m1285.7142,870.93359c0,24.45833-97.8577,44.28572-218.5714,44.28572s-218.5714-19.82739-218.5714-44.28572 97.85776-44.28571 218.5714-44.28571 218.5714,19.82739 218.5714,44.28571z" fill="#ff8080" fill-rule="evenodd" filter="url(#filter4061)" transform="matrix(.03635,0,0,.04486,484.38724,437.8826)"/>
<path d="m522.44818,476.56698c-.69708-7.72393 1.28707-13.43692 5.29061-17.63538" fill="none" stroke="#000"/>
</g>
<path d="m18.43578,1004.1455c0,7.0489-10.79367,12.7632-24.10833,12.7632s-24.10833-5.7143-24.10833-12.7632 10.79367-12.76322 24.10833-12.76322 24.10833,5.71429 24.10833,12.76322z" fill-rule="evenodd" filter="url(#filter4612)" opacity=".2" transform="matrix(.96653,-.25654,.25654,.96653,220.12274,-91.22904)"/>
<g transform="matrix(.67315,0,0,1.10302,111.23001,229.58168)">
<path d="m1285.7142,870.93359c0,24.45833-97.8577,44.28572-218.5714,44.28572s-218.5714-19.82739-218.5714-44.28572 97.85776-44.28571 218.5714-44.28571 218.5714,19.82739 218.5714,44.28571z" fill="#ff2a2a" fill-rule="evenodd" transform="matrix(.06863,0,0,.08468,449.94638,403.20043)"/>
<path d="m508.1875,475.5625v124h.21875c-.13782.20428-.21875.41092-.21875.625 0,2.07107 6.71573,3.75 15,3.75s15-1.67893 15-3.75c0-.2173-.10808-.41782-.25-.625h.25v-124h-.0312c-.31017,2.00262-6.88228,3.59375-14.96875,3.59375-8.08375,0-14.65445-1.59207-14.96875-3.59375h-.0312z" fill="#f00" fill-rule="evenodd" stroke="#faa"/>
<path d="m508.18167,596.12642c6.59849,0 23.13039-4.74713 30-8.7133v5.47503c-5.93866,3.42869-21.91987,8.7133-30,8.7133z" fill="#ffd5d5" fill-rule="evenodd"/>
<path d="m508.18167,576.12642c6.59849,0 23.13039-4.74713 30-8.7133v5.47503c-5.93866,3.42869-21.91987,8.7133-30,8.7133z" fill="#ffd5d5" fill-rule="evenodd"/>
<path d="m508.18167,556.12642c6.59849,0 23.13039-4.74713 30-8.7133v5.47503c-5.93866,3.42869-21.91987,8.7133-30,8.7133z" fill="#ffd5d5" fill-rule="evenodd"/>
<path d="m508.18167,536.12642c6.59849,0 23.13039-4.74713 30-8.7133v5.47503c-5.93866,3.42869-21.91987,8.7133-30,8.7133z" fill="#ffd5d5" fill-rule="evenodd"/>
<path d="m508.18167,516.12642c6.59849,0 23.13039-4.74713 30-8.7133v5.47503c-5.93866,3.42869-21.91987,8.7133-30,8.7133z" fill="#ffd5d5" fill-rule="evenodd"/>
<path d="m508.18167,496.12642c6.59849,0 23.13039-4.74713 30-8.7133v5.47503c-5.93866,3.42869-21.91987,8.7133-30,8.7133z" fill="#ffd5d5" fill-rule="evenodd"/>
<path d="m1285.7142,870.93359c0,24.45833-97.8577,44.28572-218.5714,44.28572s-218.5714-19.82739-218.5714-44.28572 97.85776-44.28571 218.5714-44.28571 218.5714,19.82739 218.5714,44.28571z" fill="#ff8080" fill-rule="evenodd" filter="url(#filter4061)" transform="matrix(.03635,0,0,.04486,484.38724,437.8826)"/>
<path d="m522.44818,476.56698c-.69708-7.72393 1.28707-13.43692 5.29061-17.63538" fill="none" stroke="#000"/>
</g>
<path d="m18.43578,1004.1455c0,7.0489-10.79367,12.7632-24.10833,12.7632s-24.10833-5.7143-24.10833-12.7632 10.79367-12.76322 24.10833-12.76322 24.10833,5.71429 24.10833,12.76322z" fill-rule="evenodd" filter="url(#filter4612)" opacity=".2" transform="matrix(.96653,-.25654,.25654,.96653,-164.19237,-109.66482)"/>
<g transform="matrix(.67315,0,0,1.10302,-278.33106,211.62952)">
<path d="m1285.7142,870.93359c0,24.45833-97.8577,44.28572-218.5714,44.28572s-218.5714-19.82739-218.5714-44.28572 97.85776-44.28571 218.5714-44.28571 218.5714,19.82739 218.5714,44.28571z" fill="#ff2a2a" fill-rule="evenodd" transform="matrix(.06863,0,0,.08468,449.94638,403.20043)"/>
<path d="m508.1875,475.5625v124h.21875c-.13782.20428-.21875.41092-.21875.625 0,2.07107 6.71573,3.75 15,3.75s15-1.67893 15-3.75c0-.2173-.10808-.41782-.25-.625h.25v-124h-.0312c-.31017,2.00262-6.88228,3.59375-14.96875,3.59375-8.08375,0-14.65445-1.59207-14.96875-3.59375h-.0312z" fill="#f00" fill-rule="evenodd" stroke="#faa"/>
<path d="m508.18167,596.12642c6.59849,0 23.13039-4.74713 30-8.7133v5.47503c-5.93866,3.42869-21.91987,8.7133-30,8.7133z" fill="#ffd5d5" fill-rule="evenodd"/>
<path d="m508.18167,576.12642c6.59849,0 23.13039-4.74713 30-8.7133v5.47503c-5.93866,3.42869-21.91987,8.7133-30,8.7133z" fill="#ffd5d5" fill-rule="evenodd"/>
<path d="m508.18167,556.12642c6.59849,0 23.13039-4.74713 30-8.7133v5.47503c-5.93866,3.42869-21.91987,8.7133-30,8.7133z" fill="#ffd5d5" fill-rule="evenodd"/>
<path d="m508.18167,536.12642c6.59849,0 23.13039-4.74713 30-8.7133v5.47503c-5.93866,3.42869-21.91987,8.7133-30,8.7133z" fill="#ffd5d5" fill-rule="evenodd"/>
<path d="m508.18167,516.12642c6.59849,0 23.13039-4.74713 30-8.7133v5.47503c-5.93866,3.42869-21.91987,8.7133-30,8.7133z" fill="#ffd5d5" fill-rule="evenodd"/>
<path d="m508.18167,496.12642c6.59849,0 23.13039-4.74713 30-8.7133v5.47503c-5.93866,3.42869-21.91987,8.7133-30,8.7133z" fill="#ffd5d5" fill-rule="evenodd"/>
<path d="m1285.7142,870.93359c0,24.45833-97.8577,44.28572-218.5714,44.28572s-218.5714-19.82739-218.5714-44.28572 97.85776-44.28571 218.5714-44.28571 218.5714,19.82739 218.5714,44.28571z" fill="#ff8080" fill-rule="evenodd" filter="url(#filter4061)" transform="matrix(.03635,0,0,.04486,484.38724,437.8826)"/>
<path d="m522.44818,476.56698c-.69708-7.72393 1.28707-13.43692 5.29061-17.63538" fill="none" stroke="#000"/>
</g>
<path d="m105.03682,895.37369c-92.58237-21.84746-102.74334-54.02873-91.81253-62.86406-.0099,6.50175 34.99236,44.09095 91.81253,62.86406z" fill="#fff" filter="url(#filter4505)" opacity=".6"/>
<path d="m206.23503,747.53621c-99.47214-17.7136-101.70432-55.59981-63.50507-70.59973-37.8183,18.99991 6.68491,51.82662 63.50507,70.59973z" fill="#fff" filter="url(#filter4513)" opacity=".6" transform="matrix(.71691,0,0,.71691,31.92121,199.36326)"/>
<path d="m242.68289,751.7425c-108.16249-4.67809-152.45091-33.52012-128.69589-61.48611-2.76591,13.39152 50.14987,51.40334 128.69589,61.48611z" fill="#fff" filter="url(#filter4517)" opacity=".6" transform="matrix(.4547,0,0,.4547,164.18561,273.82543)"/>
<path d="m76.37639,919.0829c-21.14253-.90945-35.09836-2.75589-34.79317-22.21684 5.89322,8.27269 17.84921,13.70793 34.79317,22.21684z" fill="#fff" filter="url(#filter4505)" opacity=".6"/>
<path d="m173.18762,939.15352c-21.14252-.90945-35.09836-2.75589-34.79317-22.21684 5.89322,8.27269 17.84921,13.70793 34.79317,22.21684z" fill="#fff" filter="url(#filter4505)" opacity=".6"/>
<path d="m252.28948,977.52382c-12.87815-9.76414-16.79868-12.20089-13.54193-32.25215 4.12229,12.40488 2.50109,17.2498 13.54193,32.25215z" fill="#fff" filter="url(#filter4531)" opacity=".6" transform="matrix(.97716,.2125,-.2125,.97716,209.89257,-30.09977)"/>
<path d="m337.29447,948.59852c-21.14252-.90945-35.09836-2.75589-34.79317-22.21684 5.89322,8.27269 17.84921,13.70793 34.79317,22.21684z" fill="#fff" filter="url(#filter4505)" opacity=".6" transform="matrix(.63391,0,0,.81062,122.71914,186.98505)"/>
<path d="m444.13577,952.07977c-21.14252-.90945-144.90747,5.36704-141.63447-25.69809 17.76448,18.71645 124.69051,17.18918 141.63447,25.69809z" fill="#fff" filter="url(#filter4505)" opacity=".6" transform="matrix(.63391,0,0,.81062,122.71914,148.41797)"/>
<path d="m370.39972,554.29675c0,1.97298-4.04061,3.57239-9.02496,3.57239s-9.02497-1.59941-9.02497-3.57239 4.04061-3.57238 9.02497-3.57238 9.02496,1.59941 9.02496,3.57238z" fill-rule="evenodd" filter="url(#filter4606)" opacity=".2" transform="matrix(2.04133,0,0,2.21187,-434.03354,-636.91964)"/>
<path d="m295.6262,565.14361c-3.71176.44674-7.53383.96857-10.87696,2.74784-2.85896,1.50815-4.69221,4.48863-5.40359,7.57449-1.02576,4.11584-.0897,8.67216 2.51212,12.02543 1.83125,2.68739 4.5717,4.66008 7.51293,5.97851 5.00612,2.21711 10.80486,2.45965 16.0229.85428 4.57288-1.43099 8.84523-4.49081 10.93487-8.89552 1.48585-3.02096 1.67999-6.59341.76305-9.80969-.94948-3.30813-3.19766-6.31879-6.3514-7.79896-4.10124-1.98348-8.69554-2.69934-13.21993-2.69421-.63143-.0299-1.26253.009-1.89399.0178z" fill-rule="evenodd" filter="url(#filter4586)"/>
<path d="m295.6262,565.14361c-3.71176.44674-7.53383.96857-10.87696,2.74784-2.85896,1.50815-4.69221,4.48863-5.40359,7.57449-1.02576,4.11584-.0897,8.67216 2.51212,12.02543 1.83125,2.68739 4.5717,4.66008 7.51293,5.97851 5.00612,2.21711 10.80486,2.45965 16.0229.85428 4.57288-1.43099 8.84523-4.49081 10.93487-8.89552 1.48585-3.02096 1.67999-6.59341.76305-9.80969-.94948-3.30813-3.19766-6.31879-6.3514-7.79896-4.10124-1.98348-8.69554-2.69934-13.21993-2.69421-.63143-.0299-1.26253.009-1.89399.0178z" fill="#d40000" fill-rule="evenodd"/>
<path d="m349.25104,531.21112a5.45096,1.7521 0 1,1 -10.90192,0 5.45096,1.7521 0 1,1 10.90192,0z" fill="url(#radialGradient4598)" fill-rule="evenodd" opacity=".56967" transform="matrix(1.35714,0,0,1.35714,-169.09196,-150.66331)"/>
<path d="m297.52327,570.66982c-.70002-9.7274 11.63644-23.24231 17.79635-23.89307l.076,1.29152c-6.30757-.004-18.31683,11.34545-17.87232,22.60155z" filter="url(#filter4580)" stroke="#000"/>
<path d="m298.30104,573.82247c-11.16182.85085-16.28856-2.97986-9.95809-5.74909-3.70652,3.55149 3.16198,4.90018 9.95809,5.74909z" fill="#fff" filter="url(#filter4574)" opacity=".6"/>
<path d="m296.83859,593.76502c-8.76872-.21275-17.43595-8.47773-16.33971-18.09967 1.62757,1.29243 5.42966,1.00114 5.42966,1.00114-.32633,4.12023 5.80715,15.81336 10.91005,17.09853z" fill="url(#linearGradient4031)" filter="url(#filter4574)" opacity=".8"/>
<path d="m157.16169,722.99954c-21.65585,8.22517-49.8268,1.8861-50.88621-13.81487 15.46133,14.09258 24.91215,14.6711 50.88621,13.81487z" fill="#fff" filter="url(#filter4513)" opacity=".6" transform="matrix(.71691,0,0,.71691,102.78616,235.54962)"/>
<path d="m295.6262,565.14361c-3.71176.44674-7.53383.96857-10.87696,2.74784-2.85896,1.50815-4.69221,4.48863-5.40359,7.57449-1.02576,4.11584-.0897,8.67216 2.51212,12.02543 1.83125,2.68739 4.5717,4.66008 7.51293,5.97851 5.00612,2.21711 10.80486,2.45965 16.0229.85428 4.57288-1.43099 8.84523-4.49081 10.93487-8.89552 1.48585-3.02096 1.67999-6.59341.76305-9.80969-.94948-3.30813-3.19766-6.31879-6.3514-7.79896-4.10124-1.98348-8.69554-2.69934-13.21993-2.69421-.63143-.0299-1.26253.009-1.89399.0178z" fill-rule="evenodd" filter="url(#filter4586)"/>
<path d="m295.6262,565.14361c-3.71176.44674-7.53383.96857-10.87696,2.74784-2.85896,1.50815-4.69221,4.48863-5.40359,7.57449-1.02576,4.11584-.0897,8.67216 2.51212,12.02543 1.83125,2.68739 4.5717,4.66008 7.51293,5.97851 5.00612,2.21711 10.80486,2.45965 16.0229.85428 4.57288-1.43099 8.84523-4.49081 10.93487-8.89552 1.48585-3.02096 1.67999-6.59341.76305-9.80969-.94948-3.30813-3.19766-6.31879-6.3514-7.79896-4.10124-1.98348-8.69554-2.69934-13.21993-2.69421-.63143-.0299-1.26253.009-1.89399.0178z" fill="#d40000" fill-rule="evenodd"/>
<path d="m349.25104,531.21112a5.45096,1.7521 0 1,1 -10.90192,0 5.45096,1.7521 0 1,1 10.90192,0z" fill="url(#radialGradient4598)" fill-rule="evenodd" opacity=".56967" transform="matrix(1.35714,0,0,1.35714,-169.09196,-150.66331)"/>
<path d="m297.52327,570.66982c-.70002-9.7274 11.63644-23.24231 17.79635-23.89307l.076,1.29152c-6.30757-.004-18.31683,11.34545-17.87232,22.60155z" filter="url(#filter4580)" stroke="#000"/>
<path d="m298.30104,573.82247c-11.16182.85085-16.28856-2.97986-9.95809-5.74909-3.70652,3.55149 3.16198,4.90018 9.95809,5.74909z" fill="#fff" filter="url(#filter4574)" opacity=".6"/>
<path d="m296.83859,593.76502c-8.76872-.21275-17.43595-8.47773-16.33971-18.09967 1.62757,1.29243 5.42966,1.00114 5.42966,1.00114-.32633,4.12023 5.80715,15.81336 10.91005,17.09853z" fill="url(#linearGradient4031)" filter="url(#filter4574)" opacity=".8"/>
</g>
</svg>
