<?xml version="1.0" encoding="UTF-8" standalone="no"?>
<!-- Created with Inkscape (http://www.inkscape.org/) -->

<svg
   xmlns:dc="http://purl.org/dc/elements/1.1/"
   xmlns:cc="http://creativecommons.org/ns#"
   xmlns:rdf="http://www.w3.org/1999/02/22-rdf-syntax-ns#"
   xmlns:svg="http://www.w3.org/2000/svg"
   xmlns="http://www.w3.org/2000/svg"
   xmlns:sodipodi="http://sodipodi.sourceforge.net/DTD/sodipodi-0.dtd"
   xmlns:inkscape="http://www.inkscape.org/namespaces/inkscape"
   width="22.72501mm"
   height="22.725mm"
   viewBox="0 0 22.72501 22.725"
   version="1.1"
   id="svg9908"
   inkscape:version="0.92.4 (5da689c313, 2019-01-14)"
   sodipodi:docname="heat_map_o.svg">
  <defs
     id="defs9902" />
  <sodipodi:namedview
     id="base"
     pagecolor="#ffffff"
     bordercolor="#666666"
     borderopacity="1.0"
     inkscape:pageopacity="0.0"
     inkscape:pageshadow="2"
     inkscape:zoom="0.35"
     inkscape:cx="-554.19796"
     inkscape:cy="68.659175"
     inkscape:document-units="mm"
     inkscape:current-layer="layer1"
     showgrid="false"
     inkscape:window-width="1920"
     inkscape:window-height="1001"
     inkscape:window-x="-9"
     inkscape:window-y="-9"
     inkscape:window-maximized="1" />
  <metadata
     id="metadata9905">
    <rdf:RDF>
      <cc:Work
         rdf:about="">
        <dc:format>image/svg+xml</dc:format>
        <dc:type
           rdf:resource="http://purl.org/dc/dcmitype/StillImage" />
        <dc:title></dc:title>
      </cc:Work>
    </rdf:RDF>
  </metadata>
  <g
     inkscape:label="Ebene 1"
     inkscape:groupmode="layer"
     id="layer1"
     transform="translate(-80.107733,-144.27441)">
    <g
       id="g1542"
       transform="translate(64.482747,110.52024)">
      <rect
         style="fill:#000085;fill-opacity:1;stroke:#646464;stroke-width:0.28273717;stroke-linecap:round;stroke-miterlimit:4;stroke-dasharray:none;stroke-dashoffset:0;stroke-opacity:1"
         id="rect1524"
         width="7.4807539"
         height="7.4807539"
         x="15.766362"
         y="33.895535" />
      <rect
         y="33.895535"
         x="23.247118"
         height="7.4807539"
         width="7.4807539"
         id="rect1526"
         style="fill:#000085;fill-opacity:1;stroke:#646464;stroke-width:0.28273717;stroke-linecap:round;stroke-miterlimit:4;stroke-dasharray:none;stroke-dashoffset:0;stroke-opacity:1" />
      <rect
         style="fill:#00ff00;fill-opacity:0.99215686;stroke:#646464;stroke-width:0.28273717;stroke-linecap:round;stroke-miterlimit:4;stroke-dasharray:none;stroke-dashoffset:0;stroke-opacity:1"
         id="rect1528"
         width="7.4807539"
         height="7.4807539"
         x="15.766355"
         y="41.376289" />
      <rect
         style="fill:#00ff00;fill-opacity:0.99215686;stroke:#646464;stroke-width:0.28273717;stroke-linecap:round;stroke-miterlimit:4;stroke-dasharray:none;stroke-dashoffset:0;stroke-opacity:1"
         id="rect1530"
         width="7.4807539"
         height="7.4807539"
         x="23.247108"
         y="41.376289" />
      <rect
         style="fill:#00ff00;fill-opacity:0.99215686;stroke:#646464;stroke-width:0.28273717;stroke-linecap:round;stroke-miterlimit:4;stroke-dasharray:none;stroke-dashoffset:0;stroke-opacity:1"
         id="rect1532"
         width="7.4807539"
         height="7.4807539"
         x="30.727873"
         y="33.895535" />
      <rect
         y="41.376289"
         x="30.727861"
         height="7.4807539"
         width="7.4807539"
         id="rect1534"
         style="fill:#ffffff;fill-opacity:1;stroke:#646464;stroke-width:0.28273717;stroke-linecap:round;stroke-miterlimit:4;stroke-dasharray:none;stroke-dashoffset:0;stroke-opacity:1" />
      <rect
         y="48.857044"
         x="15.766355"
         height="7.4807539"
         width="7.4807539"
         id="rect1536"
         style="fill:#00ff00;fill-opacity:0.99215686;stroke:#646464;stroke-width:0.28273717;stroke-linecap:round;stroke-miterlimit:4;stroke-dasharray:none;stroke-dashoffset:0;stroke-opacity:1" />
      <rect
         y="48.857044"
         x="23.247108"
         height="7.4807539"
         width="7.4807539"
         id="rect1538"
         style="fill:#000000;fill-opacity:1;stroke:#646464;stroke-width:0.28273717;stroke-linecap:round;stroke-miterlimit:4;stroke-dasharray:none;stroke-dashoffset:0;stroke-opacity:1" />
      <rect
         style="fill:#00ff00;fill-opacity:0.99215686;stroke:#646464;stroke-width:0.28273717;stroke-linecap:round;stroke-miterlimit:4;stroke-dasharray:none;stroke-dashoffset:0;stroke-opacity:1"
         id="rect1540"
         width="7.4807539"
         height="7.4807539"
         x="30.727861"
         y="48.857044" />
    </g>
  </g>
</svg>
