<?xml version="1.0" encoding="UTF-8" standalone="no"?>
<!-- Created with Inkscape (http://www.inkscape.org/) -->

<svg
   xmlns:dc="http://purl.org/dc/elements/1.1/"
   xmlns:cc="http://creativecommons.org/ns#"
   xmlns:rdf="http://www.w3.org/1999/02/22-rdf-syntax-ns#"
   xmlns:svg="http://www.w3.org/2000/svg"
   xmlns="http://www.w3.org/2000/svg"
   xmlns:sodipodi="http://sodipodi.sourceforge.net/DTD/sodipodi-0.dtd"
   xmlns:inkscape="http://www.inkscape.org/namespaces/inkscape"
   width="302"
   height="302.03125"
   id="svg2"
   version="1.1"
   inkscape:version="0.48.4 r9939"
   sodipodi:docname="grid_explain_T_rot90.svg">
  <defs
     id="defs4" />
  <sodipodi:namedview
     id="base"
     pagecolor="#ffffff"
     bordercolor="#666666"
     borderopacity="1.0"
     inkscape:pageopacity="0.0"
     inkscape:pageshadow="2"
     inkscape:zoom="2.49"
     inkscape:cx="166.24996"
     inkscape:cy="144.38649"
     inkscape:document-units="px"
     inkscape:current-layer="layer1"
     showgrid="true"
     inkscape:window-width="1871"
     inkscape:window-height="1056"
     inkscape:window-x="49"
     inkscape:window-y="24"
     inkscape:window-maximized="1"
     showguides="false"
     fit-margin-top="0"
     fit-margin-left="0"
     fit-margin-right="0"
     fit-margin-bottom="0">
    <inkscape:grid
       type="xygrid"
       id="grid3030"
       empspacing="5"
       visible="true"
       enabled="true"
       snapvisiblegridlinesonly="true"
       originx="-99.59375px"
       originy="-497.95593px" />
  </sodipodi:namedview>
  <metadata
     id="metadata7">
    <rdf:RDF>
      <cc:Work
         rdf:about="">
        <dc:format>image/svg+xml</dc:format>
        <dc:type
           rdf:resource="http://purl.org/dc/dcmitype/StillImage" />
        <dc:title></dc:title>
      </cc:Work>
    </rdf:RDF>
  </metadata>
  <g
     inkscape:label="Layer 1"
     inkscape:groupmode="layer"
     id="layer1"
     transform="translate(-99.59375,-252.375)">
    <g
       id="g2993"
       transform="matrix(-1,0,0,-1,501.1077,806.76538)">
      <rect
         y="253.4032"
         x="100.6077"
         height="300"
         width="300"
         id="rect2985"
         style="fill:#ffffff;fill-opacity:1;stroke:#000000;stroke-width:2;stroke-miterlimit:4;stroke-opacity:1;stroke-dasharray:none" />
      <path
         inkscape:connector-curvature="0"
         id="path3009"
         d="m 200.43859,254.40629 0,299.10351 c 0,0 0,-598.207027 0,-299.10351 z"
         style="fill:none;stroke:#000000;stroke-width:0.99632221px;stroke-linecap:butt;stroke-linejoin:miter;stroke-opacity:1" />
      <path
         inkscape:connector-curvature="0"
         id="path3009-6"
         d="m 300.35827,254.06493 0,299.10351 c 0,0 0,-598.207036 0,-299.10351 z"
         style="fill:none;stroke:#000000;stroke-width:0.99632221px;stroke-linecap:butt;stroke-linejoin:miter;stroke-opacity:1" />
      <path
         inkscape:connector-curvature="0"
         id="path3050"
         d="m 100,352.36218 300,0 0,0"
         style="fill:none;stroke:#000000;stroke-width:1px;stroke-linecap:butt;stroke-linejoin:miter;stroke-opacity:1" />
      <path
         inkscape:connector-curvature="0"
         id="path3056"
         d="m 100,452.36218 300,0 0,0"
         style="fill:none;stroke:#000000;stroke-width:1px;stroke-linecap:butt;stroke-linejoin:miter;stroke-opacity:1" />
      <rect
         y="253.34258"
         x="100.98039"
         height="98.039215"
         width="98.039215"
         id="rect3062"
         style="fill:#000000;fill-opacity:1;stroke:#000000;stroke-width:1.96078432;stroke-miterlimit:4;stroke-opacity:1;stroke-dasharray:none" />
      <rect
         y="353.34259"
         x="200.98039"
         height="98.039215"
         width="98.039215"
         id="rect3062-3"
         style="fill:#000000;fill-opacity:1;stroke:#000000;stroke-width:1.96078432;stroke-miterlimit:4;stroke-opacity:1;stroke-dasharray:none" />
      <rect
         y="253.34258"
         x="300.98038"
         height="98.039215"
         width="98.039215"
         id="rect3062-3-6"
         style="fill:#000000;fill-opacity:1;stroke:#000000;stroke-width:1.96078432;stroke-miterlimit:4;stroke-opacity:1;stroke-dasharray:none" />
      <rect
         y="253.34258"
         x="200.98039"
         height="98.039215"
         width="98.039215"
         id="rect3062-3-7"
         style="fill:#000000;fill-opacity:1;stroke:#000000;stroke-width:1.96078432;stroke-miterlimit:4;stroke-opacity:1;stroke-dasharray:none" />
      <rect
         y="453.34259"
         x="200.98039"
         height="98.039215"
         width="98.039215"
         id="rect3062-3-5"
         style="fill:#000000;fill-opacity:1;stroke:#000000;stroke-width:1.96078432;stroke-miterlimit:4;stroke-opacity:1;stroke-dasharray:none" />
    </g>
  </g>
</svg>
