<?xml version="1.0" encoding="UTF-8" standalone="no"?>
<!-- Created with Inkscape (http://www.inkscape.org/) -->

<svg
   xmlns:dc="http://purl.org/dc/elements/1.1/"
   xmlns:cc="http://creativecommons.org/ns#"
   xmlns:rdf="http://www.w3.org/1999/02/22-rdf-syntax-ns#"
   xmlns:svg="http://www.w3.org/2000/svg"
   xmlns="http://www.w3.org/2000/svg"
   xmlns:sodipodi="http://sodipodi.sourceforge.net/DTD/sodipodi-0.dtd"
   xmlns:inkscape="http://www.inkscape.org/namespaces/inkscape"
   width="183.19792mm"
   height="196.48846mm"
   viewBox="0 0 649.12649 696.21897"
   id="svg2"
   version="1.1"
   inkscape:version="0.91 r13725"
   sodipodi:docname="honomakato-solution.svg">
  <defs
     id="defs4" />
  <sodipodi:namedview
     id="base"
     pagecolor="#ffffff"
     bordercolor="#666666"
     borderopacity="1.0"
     inkscape:pageopacity="0.0"
     inkscape:pageshadow="2"
     inkscape:zoom="1.4475093"
     inkscape:cx="231.9917"
     inkscape:cy="346.11447"
     inkscape:document-units="px"
     inkscape:current-layer="layer1"
     showgrid="false"
     inkscape:window-width="2278"
     inkscape:window-height="1235"
     inkscape:window-x="0"
     inkscape:window-y="0"
     inkscape:window-maximized="0"
     fit-margin-top="1"
     fit-margin-left="1"
     fit-margin-right="1"
     fit-margin-bottom="1"
     inkscape:connector-spacing="10" />
  <metadata
     id="metadata7">
    <rdf:RDF>
      <cc:Work
         rdf:about="">
        <dc:format>image/svg+xml</dc:format>
        <dc:type
           rdf:resource="http://purl.org/dc/dcmitype/StillImage" />
        <dc:title />
      </cc:Work>
    </rdf:RDF>
  </metadata>
  <g
     inkscape:label="Ebene 1"
     inkscape:groupmode="layer"
     id="layer1"
     transform="translate(-47.635656,-161.89297)">
    <ellipse
       style="fill:#aaccff;fill-opacity:1;stroke:#808080;stroke-width:0;stroke-linecap:round;stroke-linejoin:round;stroke-miterlimit:4;stroke-dasharray:none;stroke-dashoffset:0;stroke-opacity:1"
       id="path4223"
       cx="371.79132"
       cy="510.00247"
       rx="320.61237"
       ry="344.56616"
       inkscape:connector-avoid="true" />
    <g
       id="g4280"
       transform="translate(44.037783,-33.548598)">
      <path
         sodipodi:nodetypes="caaccaaaaaaacc"
         inkscape:connector-curvature="0"
         id="path4139"
         d="m 260.90446,326.23782 c -3.12554,7.08975 -4.72366,15.85706 -2.10418,23.14897 2.29181,6.37975 9.07687,10.14066 14.30816,14.45194 5.15328,4.24699 10.32565,9.02229 16.66696,11.11538 20.57755,8.27874 43.96112,4.51213 51.42671,1.66092 7.75882,-3.20083 -2.31581,-21.75933 3.04343,-30.43136 4.72559,-7.64668 19.65864,-5.97937 22.79939,-14.40187 2.41454,-6.47503 -1.99229,-14.21426 -5.99884,-19.84485 -4.3893,-6.16848 -14.19188,-7.03127 -18.3861,-13.33401 -3.39058,-5.0951 -1.06588,-12.61807 -4.20345,-17.87276 -3.37941,-5.65972 -8.26858,-14.01387 -14.79918,-13.11717 -10.89596,1.4961 -9.53045,20.57083 -17.87902,27.73055 -6.24614,5.35669 -13.24592,4.04866 -22.54359,10.05793 -8.54805,5.36236 -18.39414,12.34991 -22.33029,20.83633 z"
         style="fill:#338000;fill-rule:evenodd;stroke:#000000;stroke-width:1px;stroke-linecap:butt;stroke-linejoin:miter;stroke-opacity:1" />
      <text
         sodipodi:linespacing="125%"
         id="text4209"
         y="344.60587"
         x="283.48279"
         style="font-style:normal;font-variant:normal;font-weight:bold;font-stretch:normal;font-size:30px;line-height:125%;font-family:Arial;-inkscape-font-specification:'Arial, Bold';text-align:start;letter-spacing:0px;word-spacing:0px;writing-mode:lr-tb;text-anchor:start;fill:#000000;fill-opacity:1;stroke:none;stroke-width:1px;stroke-linecap:butt;stroke-linejoin:miter;stroke-opacity:1"
         xml:space="preserve"><tspan
           style="font-style:normal;font-variant:normal;font-weight:bold;font-stretch:normal;font-size:30px;line-height:125%;font-family:Arial;-inkscape-font-specification:'Arial, Bold';text-align:start;writing-mode:lr-tb;text-anchor:start;fill:#ffffff;fill-opacity:1"
           y="344.60587"
           x="283.48279"
           id="tspan4211"
           sodipodi:role="line">No</tspan></text>
    </g>
    <path
       style="fill:#338000;fill-rule:evenodd;stroke:#000000;stroke-width:1px;stroke-linecap:butt;stroke-linejoin:miter;stroke-opacity:1"
       d="m 201.61098,458.64233 c -6.18131,8.59235 -6.71491,20.07925 -9.78832,30.20798 -2.70055,8.89994 -0.91756,20.37771 -7.59962,26.84702 -9.04134,8.75346 -25.83422,2.65181 -36.63968,9.10247 -9.52322,5.68519 -21.44006,13.56746 -22.3843,24.61832 -0.90902,10.63857 8.23496,21.23759 17.21604,27.01215 11.68488,7.51301 27.3872,6.2726 41.27071,5.79338 11.39452,-0.3933 23.97513,-0.7573 33.46335,-7.07896 13.36345,-8.90359 22.50285,-24.34724 27.35253,-39.65529 3.76,-11.86846 -3.53894,-25.52593 0.36554,-37.34764 3.31327,-10.03169 16.8678,-15.22572 18.62662,-25.64297 1.36236,-8.06903 -1.18518,-17.8506 -7.10688,-23.49849 -7.74809,-7.38983 -20.64779,-9.91141 -31.15144,-7.83394 -9.60914,1.90055 -17.90428,9.52448 -23.62455,17.47597 z"
       id="path4192"
       inkscape:connector-curvature="0"
       sodipodi:nodetypes="aaaaaaaaaaaaaa" />
    <text
       sodipodi:linespacing="125%"
       id="text4225"
       y="551.45697"
       x="174.34872"
       style="font-style:normal;font-variant:normal;font-weight:bold;font-stretch:normal;font-size:30px;line-height:125%;font-family:Arial;-inkscape-font-specification:'Arial, Bold';text-align:start;letter-spacing:0px;word-spacing:0px;writing-mode:lr-tb;text-anchor:start;fill:#000000;fill-opacity:1;stroke:none;stroke-width:1px;stroke-linecap:butt;stroke-linejoin:miter;stroke-opacity:1"
       xml:space="preserve"><tspan
         style="font-style:normal;font-variant:normal;font-weight:bold;font-stretch:normal;font-size:30px;line-height:125%;font-family:Arial;-inkscape-font-specification:'Arial, Bold';text-align:start;writing-mode:lr-tb;text-anchor:start;fill:#ffffff;fill-opacity:1"
         y="551.45697"
         x="174.34872"
         id="tspan4227"
         sodipodi:role="line">Ho</tspan></text>
    <g
       id="g4275"
       transform="translate(7.2059629,-15.585922)">
      <path
         sodipodi:nodetypes="aaaaaaaaaaa"
         inkscape:connector-curvature="0"
         id="path4199"
         d="m 568.27862,434.68561 c -8.19068,12.30786 -8.49506,29.40469 -5.89664,43.9587 2.28225,12.7831 7.91441,26.53204 18.21984,34.43231 9.63037,7.38277 24.59814,13.42672 35.49443,8.0863 12.40022,-6.07752 14.7946,-24.0162 17.47285,-37.56347 1.77972,-9.00231 -0.35565,-18.36782 -1.23915,-27.50173 -1.30667,-13.50876 -4.55341,-26.77653 -5.99701,-40.27135 -1.05813,-9.8915 7.88831,-28.29197 -1.94768,-29.7802 -9.68703,-1.46569 -3.51213,20.59099 -10.50896,27.44891 -6.1825,6.05976 -16.59458,5.12851 -24.43557,8.7977 -7.40404,3.46473 -16.63323,5.58744 -21.16211,12.39283 z"
         style="fill:#338000;fill-rule:evenodd;stroke:#000000;stroke-width:1px;stroke-linecap:butt;stroke-linejoin:miter;stroke-opacity:1" />
      <text
         xml:space="preserve"
         style="font-style:normal;font-variant:normal;font-weight:bold;font-stretch:normal;font-size:30px;line-height:125%;font-family:Arial;-inkscape-font-specification:'Arial, Bold';text-align:start;letter-spacing:0px;word-spacing:0px;writing-mode:lr-tb;text-anchor:start;fill:#ffffff;fill-opacity:1;stroke:none;stroke-width:1px;stroke-linecap:butt;stroke-linejoin:miter;stroke-opacity:1"
         x="579.74609"
         y="483.53946"
         id="text4229"
         sodipodi:linespacing="125%"><tspan
           id="tspan4235"
           sodipodi:role="line"
           x="579.74609"
           y="483.53946">Ma</tspan></text>
    </g>
    <path
       style="fill:#338000;fill-rule:evenodd;stroke:#000000;stroke-width:1px;stroke-linecap:butt;stroke-linejoin:miter;stroke-opacity:1"
       d="m 414.99822,482.4578 c 11.65249,-3.96074 27.53303,-6.89615 36.90589,1.0799 9.04951,7.70089 10.0721,23.60393 6.73001,35.00691 -2.63015,8.97385 -16.19434,11.52187 -19.3299,20.33187 -6.58722,18.50817 9.61287,39.79882 4.49143,58.76496 -1.87401,6.94 -6.11577,13.99498 -12.2438,17.75301 -6.62612,4.06348 -16.80754,7.64285 -23.11208,3.09641 -7.40587,-5.34066 -4.7988,-17.78407 -5.12133,-26.90906 -0.33236,-9.40313 5.03545,-18.78388 3.30651,-28.03266 -2.18863,-11.70784 -14.14801,-19.94834 -16.72229,-31.57747 -2.18585,-9.87439 -3.013,-21.27794 1.55619,-30.30035 4.57596,-9.03577 13.94979,-15.95398 23.53937,-19.21352 z"
       id="path4159"
       inkscape:connector-curvature="0"
       sodipodi:nodetypes="aaaaaaaaaaaa"
       inkscape:connector-avoid="true" />
    <text
       xml:space="preserve"
       style="font-style:normal;font-variant:normal;font-weight:bold;font-stretch:normal;font-size:30px;line-height:125%;font-family:Arial;-inkscape-font-specification:'Arial, Bold';text-align:start;letter-spacing:0px;word-spacing:0px;writing-mode:lr-tb;text-anchor:start;fill:#ffffff;fill-opacity:1;stroke:none;stroke-width:1px;stroke-linecap:butt;stroke-linejoin:miter;stroke-opacity:1"
       x="405.97787"
       y="517.82465"
       id="text4237"
       sodipodi:linespacing="125%"><tspan
         sodipodi:role="line"
         id="tspan4241"
         x="405.97787"
         y="517.82465">Ka</tspan></text>
    <path
       style="fill:#338000;fill-rule:evenodd;stroke:#000000;stroke-width:1px;stroke-linecap:butt;stroke-linejoin:miter;stroke-opacity:1"
       d="m 320.85554,783.10449 c 2.00267,5.82592 9.39906,8.41596 15.18226,10.53886 10.7781,3.9564 23.37255,-0.2467 34.28261,3.3298 6.73619,2.2082 11.22611,11.6138 18.27633,10.8742 5.31291,-0.5573 8.05154,-7.0411 11.77242,-10.8742 4.25989,-4.3884 8.35855,-8.96064 12.04361,-13.84172 5.46971,-7.24495 13.28376,-13.88061 14.86308,-22.82001 1.45009,-8.20791 -0.4399,-17.84755 -5.64142,-24.36036 -4.5045,-5.64007 -12.27849,-9.22303 -19.49365,-9.429 -10.47856,-0.29913 -12.69038,4.87258 -29.04567,12.05636 -30.09729,-2.83467 -14.96054,-41.67069 -20.15183,-56.97682 -1.79525,-4.86395 -4.29641,-10.43379 -8.94891,-12.72185 -4.62106,-2.2726 -11.15038,-2.18367 -15.43423,0.67421 -6.85345,4.57214 -8.71907,14.3361 -10.47833,22.38465 -1.57675,7.21358 -1.81321,15.03689 0.16423,22.15108 2.0764,7.47019 8.80729,12.88306 11.85527,20.01222 1.38253,3.23371 2.89717,6.64271 2.8469,10.15921 -0.19383,13.55934 -16.50101,26.01918 -12.09267,38.84337 z"
       id="path4136"
       inkscape:connector-curvature="0"
       sodipodi:nodetypes="aaaaaaaaaccaaaaaaa" />
    <text
       xml:space="preserve"
       style="font-style:normal;font-variant:normal;font-weight:bold;font-stretch:normal;font-size:30px;line-height:125%;font-family:Arial;-inkscape-font-specification:'Arial, Bold';text-align:start;letter-spacing:0px;word-spacing:0px;writing-mode:lr-tb;text-anchor:start;fill:#ffffff;fill-opacity:1;stroke:none;stroke-width:1px;stroke-linecap:butt;stroke-linejoin:miter;stroke-opacity:1"
       x="348.0845"
       y="782.67181"
       id="text4243"
       sodipodi:linespacing="125%"><tspan
         sodipodi:role="line"
         id="tspan4247"
         x="348.0845"
         y="782.67181">To</tspan></text>
    <path
       style="fill:none;fill-rule:evenodd;stroke:#800000;stroke-width:3;stroke-linecap:butt;stroke-linejoin:miter;stroke-miterlimit:4;stroke-dasharray:none;stroke-opacity:1"
       d="M 245.10908,442.4552 323.48047,335.48703"
       id="path4257"
       inkscape:connector-type="polyline"
       inkscape:connector-curvature="0"
       inkscape:connection-start="#path4192"
       inkscape:connection-end="#path4139" />
    <path
       style="fill:none;fill-rule:evenodd;stroke:#000000;stroke-width:1px;stroke-linecap:butt;stroke-linejoin:miter;stroke-opacity:1"
       d="m 194.4957,511.53679 0,0"
       id="path4259"
       inkscape:connector-type="polyline"
       inkscape:connector-curvature="0"
       inkscape:connection-start="#path4192"
       inkscape:connection-end="#path4192" />
    <path
       style="fill:none;fill-rule:evenodd;stroke:#800000;stroke-width:3;stroke-linecap:butt;stroke-linejoin:miter;stroke-miterlimit:4;stroke-dasharray:none;stroke-opacity:1"
       d="M 245.04169,519.90005 396.4163,544.94628"
       id="path4263"
       inkscape:connector-type="polyline"
       inkscape:connector-curvature="0"
       inkscape:connection-start="#path4192"
       inkscape:connection-end="#path4159" />
    <path
       style="fill:none;fill-rule:evenodd;stroke:#800000;stroke-width:3;stroke-linecap:butt;stroke-linejoin:miter;stroke-miterlimit:4;stroke-dasharray:none;stroke-opacity:1"
       d="M 438.7319,540.69243 569.21094,460.79494"
       id="path4267"
       inkscape:connector-type="polyline"
       inkscape:connector-curvature="0"
       inkscape:connection-start="#path4159"
       inkscape:connection-end="#path4199" />
    <path
       style="fill:none;fill-rule:evenodd;stroke:#800000;stroke-width:8;stroke-linecap:butt;stroke-linejoin:miter;stroke-miterlimit:4;stroke-dasharray:none;stroke-opacity:1"
       d="M 51.967759,481.53195 187.30191,510.19193"
       id="path4195"
       inkscape:connector-type="polyline"
       inkscape:connector-curvature="0" />
    <path
       style="fill:none;fill-rule:evenodd;stroke:#ffff00;stroke-width:3;stroke-linecap:butt;stroke-linejoin:miter;stroke-miterlimit:4;stroke-dasharray:none;stroke-opacity:1"
       d="m 232.52657,559.88807 90.80979,115.45276"
       id="path4222"
       inkscape:connector-type="polyline"
       inkscape:connector-curvature="0"
       inkscape:connection-start="#path4192"
       inkscape:connection-end="#path4136" />
    <path
       style="fill:none;fill-rule:evenodd;stroke:#ffff00;stroke-width:3;stroke-linecap:butt;stroke-linejoin:miter;stroke-miterlimit:4;stroke-dasharray:none;stroke-opacity:1"
       d="M 390.24811,310.36861 574.42565,420.79078"
       id="path4224"
       inkscape:connector-type="polyline"
       inkscape:connector-curvature="0"
       inkscape:connection-start="#g4280"
       inkscape:connection-end="#g4275" />
    <path
       style="fill:none;fill-rule:evenodd;stroke:#ffff00;stroke-width:3;stroke-linecap:butt;stroke-linejoin:miter;stroke-miterlimit:4;stroke-dasharray:none;stroke-opacity:1"
       d="M 574.04755,478.49354 372.29045,737.57955"
       id="path4226"
       inkscape:connector-type="polyline"
       inkscape:connector-curvature="0"
       inkscape:connection-start="#g4275"
       inkscape:connection-end="#path4136" />
    <path
       style="fill:none;fill-rule:evenodd;stroke:#ffff00;stroke-width:3;stroke-linecap:butt;stroke-linejoin:miter;stroke-miterlimit:4;stroke-dasharray:none;stroke-opacity:1"
       d="m 371.17994,345.96989 36.43968,139.75795"
       id="path4228"
       inkscape:connector-type="polyline"
       inkscape:connector-curvature="0"
       inkscape:connection-start="#g4280"
       inkscape:connection-end="#path4159" />
    <path
       style="fill:none;fill-rule:evenodd;stroke:#800000;stroke-width:3;stroke-linecap:butt;stroke-linejoin:miter;stroke-miterlimit:4;stroke-dasharray:none;stroke-opacity:1"
       d="M 405.91941,615.91248 372.29045,737.57955"
       id="path4234"
       inkscape:connector-type="polyline"
       inkscape:connector-curvature="0"
       inkscape:connection-start="#path4159"
       inkscape:connection-end="#path4136" />
    <path
       style="fill:none;fill-rule:evenodd;stroke:#ffff00;stroke-width:3;stroke-linecap:butt;stroke-linejoin:miter;stroke-miterlimit:4;stroke-dasharray:none;stroke-opacity:1"
       d="m 243.8993,502.53352 172.44985,-31.42709 c 3,-0.54672 9,-1.60334 12,-2.11325 l 139.82096,-23.76521"
       id="path4240"
       inkscape:connector-type="polyline"
       inkscape:connector-curvature="6"
       inkscape:connection-start="#path4192"
       inkscape:connection-end="#g4275" />
    <text
       xml:space="preserve"
       style="font-style:normal;font-variant:normal;font-weight:normal;font-stretch:normal;font-size:30px;line-height:125%;font-family:Arial;-inkscape-font-specification:'Arial, Normal';text-align:start;letter-spacing:0px;word-spacing:0px;writing-mode:lr-tb;text-anchor:start;fill:#000000;fill-opacity:1;stroke:none;stroke-width:1px;stroke-linecap:butt;stroke-linejoin:miter;stroke-opacity:1"
       x="259.92447"
       y="642.0188"
       id="text4163"
       sodipodi:linespacing="125%"><tspan
         sodipodi:role="line"
         id="tspan4165"
         x="259.92447"
         y="642.0188">2</tspan></text>
    <text
       xml:space="preserve"
       style="font-style:normal;font-variant:normal;font-weight:normal;font-stretch:normal;font-size:30px;line-height:125%;font-family:Arial;-inkscape-font-specification:'Arial, Normal';text-align:start;letter-spacing:0px;word-spacing:0px;writing-mode:lr;text-anchor:start;fill:#000000;fill-opacity:1;stroke:none;stroke-width:1px;stroke-linecap:butt;stroke-linejoin:miter;stroke-opacity:1;"
       x="458.02975"
       y="342.33459"
       id="text4167"
       sodipodi:linespacing="125%"><tspan
         sodipodi:role="line"
         id="tspan4169"
         x="458.02975"
         y="342.33459">2,3,6</tspan></text>
    <text
       xml:space="preserve"
       style="font-style:normal;font-variant:normal;font-weight:normal;font-stretch:normal;font-size:30px;line-height:125%;font-family:Arial;-inkscape-font-specification:'Arial, Normal';text-align:start;letter-spacing:0px;word-spacing:0px;writing-mode:lr;text-anchor:start;fill:#000000;fill-opacity:1;stroke:none;stroke-width:1px;stroke-linecap:butt;stroke-linejoin:miter;stroke-opacity:1;"
       x="293.6087"
       y="484.65039"
       id="text4171"
       sodipodi:linespacing="125%"><tspan
         sodipodi:role="line"
         id="tspan4173"
         x="293.6087"
         y="484.65039">1</tspan></text>
    <text
       xml:space="preserve"
       style="font-style:normal;font-variant:normal;font-weight:normal;font-stretch:normal;font-size:30px;line-height:125%;font-family:Arial;-inkscape-font-specification:'Arial, Normal';text-align:start;letter-spacing:0px;word-spacing:0px;writing-mode:lr-tb;text-anchor:start;fill:#000000;fill-opacity:1;stroke:none;stroke-width:1px;stroke-linecap:butt;stroke-linejoin:miter;stroke-opacity:1"
       x="289.39819"
       y="417.80829"
       id="text4175"
       sodipodi:linespacing="125%"><tspan
         sodipodi:role="line"
         id="tspan4189"
         x="289.39819"
         y="417.80829">1,3,4</tspan></text>
    <text
       xml:space="preserve"
       style="font-style:normal;font-variant:normal;font-weight:normal;font-stretch:normal;font-size:30px;line-height:125%;font-family:Arial;-inkscape-font-specification:'Arial, Normal';text-align:start;letter-spacing:0px;word-spacing:0px;writing-mode:lr-tb;text-anchor:start;fill:#000000;fill-opacity:1;stroke:none;stroke-width:1px;stroke-linecap:butt;stroke-linejoin:miter;stroke-opacity:1"
       x="393.71396"
       y="417.80832"
       id="text4179"
       sodipodi:linespacing="125%"><tspan
         sodipodi:role="line"
         id="tspan4181"
         x="393.71396"
         y="417.80832">5</tspan></text>
    <text
       xml:space="preserve"
       style="font-style:normal;font-variant:normal;font-weight:normal;font-stretch:normal;font-size:30px;line-height:125%;font-family:Arial;-inkscape-font-specification:'Arial, Normal';text-align:start;letter-spacing:0px;word-spacing:0px;writing-mode:lr;text-anchor:start;fill:#000000;fill-opacity:1;stroke:none;stroke-width:1px;stroke-linecap:butt;stroke-linejoin:miter;stroke-opacity:1;"
       x="478.55606"
       y="620.8609"
       id="text4183"
       sodipodi:linespacing="125%"><tspan
         sodipodi:role="line"
         id="tspan4185"
         x="478.55606"
         y="620.8609">4,5,6</tspan></text>
    <path
       style="fill:none;fill-rule:evenodd;stroke:#ffff00;stroke-width:3;stroke-linecap:butt;stroke-linejoin:miter;stroke-miterlimit:4;stroke-dasharray:none;stroke-opacity:1"
       d="m 358.6088,346.38605 13.68165,391.1935"
       id="path4177"
       inkscape:connector-type="polyline"
       inkscape:connector-curvature="0"
       inkscape:connection-start="#g4280"
       inkscape:connection-end="#path4136" />
  </g>
</svg>
