<?xml version="1.0" encoding="UTF-8" standalone="no"?>
<!-- Creator: fig2dev Version 3.2 Patchlevel 5 -->

<!-- CreationDate: Tue Apr 25 11:24:41 2017 -->

<!-- Magnification: 2.100 -->

<svg
   xmlns:dc="http://purl.org/dc/elements/1.1/"
   xmlns:cc="http://creativecommons.org/ns#"
   xmlns:rdf="http://www.w3.org/1999/02/22-rdf-syntax-ns#"
   xmlns:svg="http://www.w3.org/2000/svg"
   xmlns="http://www.w3.org/2000/svg"
   xmlns:sodipodi="http://sodipodi.sourceforge.net/DTD/sodipodi-0.dtd"
   xmlns:inkscape="http://www.inkscape.org/namespaces/inkscape"
   width="9.2in"
   height="5.0in"
   viewBox="-92 -1146 11065 5963"
   id="svg2"
   version="1.1"
   inkscape:version="0.91 r13725"
   sodipodi:docname="maze.svg">
  <metadata
     id="metadata72">
    <rdf:RDF>
      <cc:Work
         rdf:about="">
        <dc:format>image/svg+xml</dc:format>
        <dc:type
           rdf:resource="http://purl.org/dc/dcmitype/StillImage" />
      </cc:Work>
    </rdf:RDF>
  </metadata>
  <defs
     id="defs70" />
  <sodipodi:namedview
     pagecolor="#ffffff"
     bordercolor="#666666"
     borderopacity="1"
     objecttolerance="10"
     gridtolerance="10"
     guidetolerance="10"
     inkscape:pageopacity="0"
     inkscape:pageshadow="2"
     inkscape:window-width="1180"
     inkscape:window-height="804"
     id="namedview68"
     showgrid="false"
     inkscape:zoom="1"
     inkscape:cx="428.99999"
     inkscape:cy="185"
     inkscape:window-x="101"
     inkscape:window-y="31"
     inkscape:window-maximized="0"
     inkscape:current-layer="g4" />
  <g
     style="stroke-width:.025in; stroke:black; fill:none"
     id="g4">
    <!-- Arc -->
    <!-- Circle -->
    <!-- Circle -->
    <!-- Line -->
    <polyline
       points="9213,1461 9213,2364 "
       style="stroke:#000000;stroke-width:63; stroke-linejoin:miter; stroke-linecap:butt; "
       id="polyline12" />
    <!-- Arrowhead on XXXpoint 9213 1461 - 9213 2683-->
    <polygon
       points="9138 2274 9213 2557 9287 2274 9213 2330 9138 2274  "
       style="stroke:#000000;stroke-width:63; fill:#000000;"
       id="polygon14" />
    <!-- Line -->
    <polyline
       points="9213,50 9213,-854 "
       style="stroke:#000000;stroke-width:63; stroke-linejoin:miter; stroke-linecap:butt; "
       id="polyline16" />
    <!-- Arrowhead on XXXpoint 9213 50 - 9213 -1171-->
    <polygon
       points="9287 -760 9213 -1043 9138 -760 9213 -816 9287 -760  "
       style="stroke:#000000;stroke-width:63; fill:#000000;"
       id="polygon18" />
    <!-- Line: box -->
    <!-- Line -->
    <polyline
       points="8648,728 7743,728 "
       style="stroke:#000000;stroke-width:63; stroke-linejoin:miter; stroke-linecap:butt; "
       id="polyline22" />
    <!-- Arrowhead on XXXpoint 8648 728 - 7426 728-->
    <polygon
       points="7834 653 7552 728 7834 802 7777 728 7834 653  "
       style="stroke:#000000;stroke-width:63; fill:#000000;"
       id="polygon24" />
    <!-- Line -->
    <polyline
       points="9776,728 10679,728 "
       style="stroke:#000000;stroke-width:63; stroke-linejoin:miter; stroke-linecap:butt; "
       id="polyline26" />
    <!-- Arrowhead on XXXpoint 9776 728 - 10998 728-->
    <polygon
       points="10588 802 10872 728 10588 653 10645 728 10588 802  "
       style="stroke:#000000;stroke-width:63; fill:#000000;"
       id="polygon28" />
    <!-- Line -->
    <polyline
       points="3779,0 3779,4724 "
       style="stroke:#000000;stroke-width:15; stroke-linejoin:miter; stroke-linecap:butt; stroke-dasharray:83 83;"
       id="polyline30" />
    <!-- Line -->
    <polyline
       points="4724,0 4724,4724 "
       style="stroke:#000000;stroke-width:15; stroke-linejoin:miter; stroke-linecap:butt; stroke-dasharray:83 83;"
       id="polyline32" />
    <!-- Line -->
    <polyline
       points="0,1889 5669,1889 "
       style="stroke:#000000;stroke-width:15; stroke-linejoin:miter; stroke-linecap:butt; stroke-dasharray:83 83;"
       id="polyline34" />
    <!-- Line -->
    <polyline
       points="0,944 5669,944 "
       style="stroke:#000000;stroke-width:15; stroke-linejoin:miter; stroke-linecap:butt; stroke-dasharray:83 83;"
       id="polyline36" />
    <!-- Line -->
    <polyline
       points="4724,0 4724,1889 "
       style="stroke:#000000;stroke-width:95; stroke-linejoin:miter; stroke-linecap:butt; fill:#000000; "
       id="polyline38" />
    <!-- Line -->
    <polyline
       points="5669,2834 3779,2834 "
       style="stroke:#000000;stroke-width:95; stroke-linejoin:miter; stroke-linecap:butt; fill:#000000; "
       id="polyline40" />
    <!-- Line -->
    <polyline
       points="1889,944 1889,1889 "
       style="stroke:#000000;stroke-width:95; stroke-linejoin:miter; stroke-linecap:butt; fill:#000000; "
       id="polyline42" />
    <!-- Line -->
    <polyline
       points="2834,944 3779,944 "
       style="stroke:#000000;stroke-width:95; stroke-linejoin:miter; stroke-linecap:butt; fill:#000000; "
       id="polyline44" />
    <!-- Line -->
    <polyline
       points="944,2834 0,2834 "
       style="stroke:#000000;stroke-width:95; stroke-linejoin:miter; stroke-linecap:butt; fill:#000000; "
       id="polyline46" />
    <!-- Line -->
    <polyline
       points="1889,0 1889,4724 "
       style="stroke:#000000;stroke-width:15; stroke-linejoin:miter; stroke-linecap:butt; stroke-dasharray:83 83;"
       id="polyline48" />
    <!-- Line -->
    <polyline
       points="2834,0 2834,4724 "
       style="stroke:#000000;stroke-width:15; stroke-linejoin:miter; stroke-linecap:butt; stroke-dasharray:83 83;"
       id="polyline50" />
    <!-- Line -->
    <polyline
       points="2834,3779 2834,2834 1889,2834 "
       style="stroke:#000000;stroke-width:95; stroke-linejoin:miter; stroke-linecap:butt; "
       id="polyline52" />
    <!-- Line -->
    <polyline
       points="0,2834 5669,2834 "
       style="stroke:#000000;stroke-width:15; stroke-linejoin:miter; stroke-linecap:butt; stroke-dasharray:83 83;"
       id="polyline54" />
    <!-- Line -->
    <polyline
       points="944,0 944,4724 "
       style="stroke:#000000;stroke-width:15; stroke-linejoin:miter; stroke-linecap:butt; stroke-dasharray:83 83;"
       id="polyline56" />
    <!-- Line -->
    <polyline
       points="1889,-944 1889,0 0,0 0,4724 5669,4724 5669,0 2834,0 2834,-944 "
       style="stroke:#000000;stroke-width:95; stroke-linejoin:miter; stroke-linecap:butt; "
       id="polyline58" />
    <!-- Line -->
    <polyline
       points="0,3779 5669,3779 "
       style="stroke:#000000;stroke-width:15; stroke-linejoin:miter; stroke-linecap:butt; stroke-dasharray:83 83;"
       id="polyline60" />
    <!-- Line -->
    <polyline
       points="0,0 5669,0 "
       style="stroke:#000000;stroke-width:15; stroke-linejoin:miter; stroke-linecap:butt; stroke-dasharray:83 83;"
       id="polyline62" />
    <!-- Text -->
    <text
       xml:space="preserve"
       x="283"
       y="755"
       stroke="#000000"
       fill="#000000"
       font-family="Helvetica"
       font-style="normal"
       font-weight="bold"
       font-size="504"
       text-anchor="start"
       id="text64">A</text>
    <!-- Text -->
    <text
       xml:space="preserve"
       x="1133"
       y="755"
       stroke="#000000"
       fill="#000000"
       font-family="Helvetica"
       font-style="normal"
       font-weight="bold"
       font-size="504"
       text-anchor="start"
       id="text66">B</text>
    <g
       transform="matrix(5.7896482,0,0,5.7896482,7033.5541,-2817.3254)"
       id="g4281">
      <rect
         ry="21.642872"
         y="580.86218"
         x="331"
         height="50.499977"
         width="89.5"
         id="rect4168"
         style="fill:#000000;fill-opacity:1" />
      <circle
         r="10"
         cy="605.86218"
         cx="358.5"
         id="path4170"
         style="fill:#ffffff;fill-opacity:1" />
      <circle
         r="10"
         cy="605.86218"
         cx="394.5"
         id="path4170-3"
         style="fill:#ffffff;fill-opacity:1" />
      <circle
         r="5"
         cy="543.36218"
         cx="362.5"
         id="path4202"
         style="fill:#000000;fill-opacity:1" />
      <path
         inkscape:connector-curvature="0"
         id="path4206"
         d="m 365.5,547.3622 c 15,10 10,35 10,35 l 0,0 0,0"
         style="fill:none;fill-rule:evenodd;stroke:#000000;stroke-width:1.5;stroke-linecap:butt;stroke-linejoin:miter;stroke-miterlimit:4;stroke-dasharray:none;stroke-opacity:1" />
      <g
         transform="matrix(0.56666667,0,0,0.51666667,153.83333,314.89172)"
         id="g4212">
        <circle
           style="fill:#000000;fill-opacity:1;stroke-width:1.5;stroke-miterlimit:4;stroke-dasharray:none"
           id="path4208"
           cx="370"
           cy="692.36218"
           r="15" />
        <circle
           style="fill:#ffffff;fill-opacity:1;stroke-width:1.5;stroke-miterlimit:4;stroke-dasharray:none"
           id="path4210"
           cx="370"
           cy="692.36218"
           r="10" />
      </g>
      <g
         transform="matrix(0.56666667,0,0,0.51666667,174.83333,314.89172)"
         id="g4212-4">
        <circle
           style="fill:#000000;fill-opacity:1;stroke-width:1.5;stroke-miterlimit:4;stroke-dasharray:none"
           id="path4208-7"
           cx="370"
           cy="692.36218"
           r="15" />
        <circle
           style="fill:#ffffff;fill-opacity:1;stroke-width:1.5;stroke-miterlimit:4;stroke-dasharray:none"
           id="path4210-5"
           cx="370"
           cy="692.36218"
           r="10" />
      </g>
      <rect
         ry="1.1964285"
         y="631.86218"
         x="357"
         height="33.5"
         width="36"
         id="rect4260"
         style="fill:#000000;fill-opacity:1;stroke-width:1.5;stroke-miterlimit:4;stroke-dasharray:none" />
      <rect
         ry="5"
         y="632.36218"
         x="343.5"
         height="35"
         width="10"
         id="rect4264"
         style="fill:#000000;fill-opacity:1;stroke-width:1.5;stroke-miterlimit:4;stroke-dasharray:none" />
      <rect
         ry="5"
         y="631.86218"
         x="397.5"
         height="35"
         width="10"
         id="rect4264-2"
         style="fill:#000000;fill-opacity:1;stroke-width:1.5;stroke-miterlimit:4;stroke-dasharray:none" />
    </g>
  </g>
</svg>
