<?xml version="1.0" encoding="UTF-8" standalone="no"?>
<!-- Created with Inkscape (http://www.inkscape.org/) -->

<svg
   xmlns:dc="http://purl.org/dc/elements/1.1/"
   xmlns:cc="http://creativecommons.org/ns#"
   xmlns:rdf="http://www.w3.org/1999/02/22-rdf-syntax-ns#"
   xmlns:svg="http://www.w3.org/2000/svg"
   xmlns="http://www.w3.org/2000/svg"
   xmlns:xlink="http://www.w3.org/1999/xlink"
   xmlns:sodipodi="http://sodipodi.sourceforge.net/DTD/sodipodi-0.dtd"
   xmlns:inkscape="http://www.inkscape.org/namespaces/inkscape"
   width="454.72699"
   height="85.357124"
   viewBox="0 0 454.72699 85.357126"
   id="svg2"
   version="1.1"
   inkscape:version="0.91 r13725"
   sodipodi:docname="j15-2.svg"
   inkscape:export-filename="E:\ol\kbr\2017-2018\git\1voor_jun_est\j15-2.png"
   inkscape:export-xdpi="89.623444"
   inkscape:export-ydpi="89.623444">
  <defs
     id="defs4">
    <linearGradient
       inkscape:collect="always"
       id="linearGradient4256">
      <stop
         style="stop-color:#000000;stop-opacity:1;"
         offset="0"
         id="stop4258" />
      <stop
         style="stop-color:#000000;stop-opacity:0;"
         offset="1"
         id="stop4260" />
    </linearGradient>
    <linearGradient
       inkscape:collect="always"
       xlink:href="#linearGradient4256"
       id="linearGradient4262"
       x1="167.80981"
       y1="741.7876"
       x2="206.76062"
       y2="741.7876"
       gradientUnits="userSpaceOnUse" />
  </defs>
  <sodipodi:namedview
     id="base"
     pagecolor="#ffffff"
     bordercolor="#666666"
     borderopacity="1.0"
     inkscape:pageopacity="0.0"
     inkscape:pageshadow="2"
     inkscape:zoom="1.4"
     inkscape:cx="45.707936"
     inkscape:cy="105.01529"
     inkscape:document-units="px"
     inkscape:current-layer="layer1"
     showgrid="false"
     inkscape:window-width="1920"
     inkscape:window-height="1018"
     inkscape:window-x="-8"
     inkscape:window-y="-8"
     inkscape:window-maximized="1"
     fit-margin-top="0"
     fit-margin-left="0"
     fit-margin-right="0"
     fit-margin-bottom="0" />
  <metadata
     id="metadata7">
    <rdf:RDF>
      <cc:Work
         rdf:about="">
        <dc:format>image/svg+xml</dc:format>
        <dc:type
           rdf:resource="http://purl.org/dc/dcmitype/StillImage" />
        <dc:title />
      </cc:Work>
    </rdf:RDF>
  </metadata>
  <g
     inkscape:label="Layer 1"
     inkscape:groupmode="layer"
     id="layer1"
     transform="translate(-158.35079,-869.18646)">
    <rect
       style="fill:#000000;fill-opacity:0.13888891;stroke-width:1.03400004;stroke-miterlimit:4;stroke-dasharray:none"
       id="rect4136-0"
       width="453.57144"
       height="13.571428"
       x="158.43492"
       y="869.18646"
       inkscape:export-filename="C:\Users\VM2-3313\Downloads\text4264.png"
       inkscape:export-xdpi="100"
       inkscape:export-ydpi="100" />
    <rect
       style="fill:#000000;fill-opacity:0.13888891;stroke-width:1.03400004;stroke-miterlimit:4;stroke-dasharray:none"
       id="rect4136-6-0"
       width="453.57144"
       height="13.571428"
       x="158.79205"
       y="903.82935"
       inkscape:export-filename="C:\Users\VM2-3313\Downloads\text4264.png"
       inkscape:export-xdpi="100"
       inkscape:export-ydpi="100" />
    <rect
       style="fill:#000000;fill-opacity:0.13888891;stroke-width:1.03400004;stroke-miterlimit:4;stroke-dasharray:none"
       id="rect4136-9-5"
       width="453.57144"
       height="13.571428"
       x="159.50635"
       y="940.25793"
       inkscape:export-filename="C:\Users\VM2-3313\Downloads\text4264.png"
       inkscape:export-xdpi="100"
       inkscape:export-ydpi="100" />
    <path
       style="fill:#00e300;fill-opacity:0.88888891;stroke-width:1.03400004;stroke-miterlimit:4;stroke-dasharray:none"
       d="m 158.35079,876.32442 0,-6.78572 226.42857,0 226.42858,0 0,6.78572 0,6.78571 -226.42858,0 -226.42857,0 0,-6.78571 z"
       id="path4198-96"
       inkscape:connector-curvature="0"
       inkscape:export-filename="C:\Users\VM2-3313\Downloads\text4264.png"
       inkscape:export-xdpi="100"
       inkscape:export-ydpi="100" />
    <path
       style="fill:#00e300;fill-opacity:0.88888891;stroke-width:1.03400004;stroke-miterlimit:4;stroke-dasharray:none"
       d="m 159.77936,910.61014 0,-6.78572 184.28572,0 184.28571,0 0,6.78572 0,6.78571 -184.28571,0 -184.28572,0 0,-6.78571 z"
       id="path4231-1"
       inkscape:connector-curvature="0"
       inkscape:export-filename="C:\Users\VM2-3313\Downloads\text4264.png"
       inkscape:export-xdpi="100"
       inkscape:export-ydpi="100" />
    <path
       style="fill:#00e300;fill-opacity:0.88888891;stroke-width:1.03400004;stroke-miterlimit:4;stroke-dasharray:none"
       d="m 159.86349,947.75788 0,-6.78572 226.42858,0 226.42856,0 0,6.78572 0,6.78571 -226.42856,0 -226.42858,0 0,-6.78571 z"
       id="path4198-9-7"
       inkscape:connector-curvature="0"
       inkscape:export-filename="C:\Users\VM2-3313\Downloads\text4264.png"
       inkscape:export-xdpi="100"
       inkscape:export-ydpi="100" />
    <g
       transform="translate(108.7164,152.90326)"
       style="font-size:16.25px;font-style:normal;font-weight:normal;line-height:125%;letter-spacing:0px;word-spacing:0px;fill:#000000;fill-opacity:0.99537036;stroke:none;font-family:sans-serif"
       id="flowRoot4248-7-7">
      <path
         d="m 167.9231,736.00711 10.91796,0 0,2.30896 -3.92761,0 0,9.53735 -3.05481,0 0,-9.53735 -3.93554,0 0,-2.30896"
         style="font-variant:normal;font-weight:bold;font-stretch:normal;fill:#000000;font-family:sans-serif;-inkscape-font-specification:sans-serif Bold"
         id="path3137" />
      <path
         d="m 180.28516,738.96671 2.84057,0 0,8.88671 -2.84057,0 0,-8.88671 m 0,-3.45948 2.84057,0 0,2.3169 -2.84057,0 0,-2.3169"
         style="font-variant:normal;font-weight:bold;font-stretch:normal;fill:#000000;font-family:sans-serif;-inkscape-font-specification:sans-serif Bold"
         id="path3139" />
      <path
         d="m 194.10718,740.44254 c 0.35969,-0.55013 0.78551,-0.96801 1.27746,-1.25367 0.49723,-0.29092 1.04207,-0.43639 1.63453,-0.4364 1.0209,10e-6 1.79848,0.31475 2.33276,0.94422 0.53424,0.62948 0.80137,1.5446 0.80139,2.74536 l 0,5.41137 -2.85645,0 0,-4.63379 c 0.005,-0.0688 0.008,-0.14017 0.008,-0.21423 0.005,-0.0741 0.008,-0.17984 0.008,-0.31738 -1e-5,-0.62947 -0.0926,-1.08439 -0.27771,-1.36475 -0.18515,-0.28564 -0.48402,-0.42846 -0.8966,-0.42846 -0.53956,0 -0.95745,0.22217 -1.25366,0.6665 -0.29095,0.44434 -0.44171,1.08704 -0.45227,1.9281 l 0,4.36401 -2.85645,0 0,-4.63379 c -1e-5,-0.98388 -0.0846,-1.616 -0.25391,-1.89636 -0.16927,-0.28564 -0.47079,-0.42846 -0.90454,-0.42846 -0.54484,0 -0.96538,0.22482 -1.26159,0.67443 -0.29623,0.44435 -0.44434,1.08176 -0.44434,1.91224 l 0,4.37194 -2.85645,0 0,-8.88671 2.85645,0 0,1.30126 c 0.34912,-0.50251 0.74849,-0.88072 1.19812,-1.13464 0.45491,-0.2539 0.95479,-0.38085 1.49963,-0.38086 0.6136,10e-6 1.1558,0.14812 1.62659,0.44434 0.47078,0.29623 0.82783,0.71147 1.07117,1.24573"
         style="font-variant:normal;font-weight:bold;font-stretch:normal;fill:#000000;font-family:sans-serif;-inkscape-font-specification:sans-serif Bold"
         id="path3141" />
      <path
         d="m 211.69019,743.38626 0,0.80933 -6.64124,0 c 0.0688,0.6665 0.30944,1.16638 0.72205,1.49963 0.41259,0.33325 0.98917,0.49988 1.72973,0.49988 0.59773,0 1.20869,-0.0873 1.83289,-0.26184 0.62947,-0.17985 1.27481,-0.44963 1.93603,-0.80933 l 0,2.18994 c -0.6718,0.25391 -1.34359,0.44434 -2.01538,0.57129 -0.6718,0.13224 -1.34359,0.19837 -2.01538,0.19837 -1.60808,0 -2.85909,-0.40731 -3.75305,-1.22193 -0.88867,-0.8199 -1.33301,-1.96777 -1.33301,-3.4436 0,-1.44938 0.4364,-2.58931 1.30921,-3.4198 0.87809,-0.83048 2.08414,-1.24572 3.61816,-1.24573 1.39648,10e-6 2.51261,0.42054 3.34839,1.2616 0.84105,0.84107 1.26159,1.96513 1.2616,3.37219 m -2.91993,-0.94421 c 0,-0.53955 -0.15869,-0.9733 -0.47607,-1.30127 -0.3121,-0.33325 -0.72205,-0.49987 -1.22986,-0.49988 -0.55013,10e-6 -0.99711,0.15605 -1.34094,0.46814 -0.34384,0.30681 -0.55807,0.75114 -0.6427,1.33301 l 3.68957,0"
         style="font-variant:normal;font-weight:bold;font-stretch:normal;fill:#000000;font-family:sans-serif;-inkscape-font-specification:sans-serif Bold"
         id="path3143" />
      <path
         d="m 226.0835,741.38675 c -0.24863,-0.11637 -0.49724,-0.201 -0.74585,-0.25391 -0.24334,-0.0582 -0.48931,-0.0873 -0.73792,-0.0873 -0.72998,10e-6 -1.29334,0.2354 -1.69006,0.70618 -0.39145,0.4655 -0.58716,1.13465 -0.58716,2.00745 l 0,4.09423 -2.84058,0 0,-8.88671 2.84058,0 0,1.45996 c 0.36499,-0.58186 0.78287,-1.00504 1.25366,-1.26954 0.47607,-0.26976 1.04471,-0.40465 1.70593,-0.40466 0.0952,10e-6 0.19836,0.005 0.30945,0.0159 0.11108,0.005 0.27242,0.0212 0.48401,0.0476 l 0.008,2.5708"
         style="font-variant:normal;font-weight:bold;font-stretch:normal;fill:#000000;font-family:sans-serif;-inkscape-font-specification:sans-serif Bold"
         id="path3145" />
      <path
         d="m 236.38257,743.38626 0,0.80933 -6.64124,0 c 0.0688,0.6665 0.30945,1.16638 0.72205,1.49963 0.41259,0.33325 0.98917,0.49988 1.72974,0.49988 0.59773,0 1.20869,-0.0873 1.83288,-0.26184 0.62947,-0.17985 1.27481,-0.44963 1.93604,-0.80933 l 0,2.18994 c -0.67181,0.25391 -1.3436,0.44434 -2.01538,0.57129 -0.67181,0.13224 -1.3436,0.19837 -2.01539,0.19837 -1.60807,0 -2.85909,-0.40731 -3.75305,-1.22193 -0.88867,-0.8199 -1.33301,-1.96777 -1.33301,-3.4436 0,-1.44938 0.43641,-2.58931 1.30921,-3.4198 0.87809,-0.83048 2.08414,-1.24572 3.61816,-1.24573 1.39648,10e-6 2.51261,0.42054 3.34839,1.2616 0.84106,0.84107 1.26159,1.96513 1.2616,3.37219 m -2.91992,-0.94421 c -1e-5,-0.53955 -0.1587,-0.9733 -0.47608,-1.30127 -0.3121,-0.33325 -0.72205,-0.49987 -1.22986,-0.49988 -0.55013,10e-6 -0.99711,0.15605 -1.34094,0.46814 -0.34383,0.30681 -0.55807,0.75114 -0.6427,1.33301 l 3.68958,0"
         style="font-variant:normal;font-weight:bold;font-stretch:normal;fill:#000000;font-family:sans-serif;-inkscape-font-specification:sans-serif Bold"
         id="path3147" />
      <path
         d="m 246.76099,740.44254 c 0.35969,-0.55013 0.78551,-0.96801 1.27746,-1.25367 0.49722,-0.29092 1.04206,-0.43639 1.63452,-0.4364 1.0209,10e-6 1.79849,0.31475 2.33277,0.94422 0.53424,0.62948 0.80137,1.5446 0.80139,2.74536 l 0,5.41137 -2.85645,0 0,-4.63379 c 0.005,-0.0688 0.008,-0.14017 0.008,-0.21423 0.005,-0.0741 0.008,-0.17984 0.008,-0.31738 -1e-5,-0.62947 -0.0926,-1.08439 -0.27771,-1.36475 -0.18515,-0.28564 -0.48402,-0.42846 -0.8966,-0.42846 -0.53957,0 -0.95745,0.22217 -1.25367,0.6665 -0.29094,0.44434 -0.4417,1.08704 -0.45227,1.9281 l 0,4.36401 -2.85644,0 0,-4.63379 c -1e-5,-0.98388 -0.0846,-1.616 -0.25391,-1.89636 -0.16928,-0.28564 -0.47079,-0.42846 -0.90454,-0.42846 -0.54484,0 -0.96538,0.22482 -1.2616,0.67443 -0.29622,0.44435 -0.44434,1.08176 -0.44433,1.91224 l 0,4.37194 -2.85645,0 0,-8.88671 2.85645,0 0,1.30126 c 0.34912,-0.50251 0.74849,-0.88072 1.19812,-1.13464 0.45491,-0.2539 0.95479,-0.38085 1.49963,-0.38086 0.6136,10e-6 1.1558,0.14812 1.62659,0.44434 0.47077,0.29623 0.82783,0.71147 1.07117,1.24573"
         style="font-variant:normal;font-weight:bold;font-stretch:normal;fill:#000000;font-family:sans-serif;-inkscape-font-specification:sans-serif Bold"
         id="path3149" />
      <path
         d="m 259.4563,743.8544 c -0.59245,0 -1.03943,0.10051 -1.34094,0.30151 -0.29623,0.20102 -0.44434,0.49724 -0.44434,0.88868 0,0.3597 0.11902,0.6427 0.35706,0.849 0.24332,0.20101 0.57922,0.30151 1.00769,0.30151 0.53425,0 0.98388,-0.19043 1.34887,-0.57129 0.36499,-0.38615 0.54748,-0.86751 0.54749,-1.44409 l 0,-0.32532 -1.47583,0 m 4.34021,-1.07117 0,5.07019 -2.86438,0 0,-1.31713 c -0.38087,0.53955 -0.80933,0.93363 -1.2854,1.18225 -0.47608,0.24332 -1.0553,0.36499 -1.73767,0.36499 -0.92042,0 -1.66891,-0.26713 -2.24549,-0.8014 -0.57129,-0.53954 -0.85693,-1.23779 -0.85693,-2.09472 0,-1.04207 0.35706,-1.80643 1.07117,-2.29309 0.7194,-0.48665 1.8461,-0.72998 3.38012,-0.72998 l 1.6742,0 0,-0.22217 c -10e-6,-0.44962 -0.17721,-0.77758 -0.53162,-0.98389 -0.35441,-0.21158 -0.90719,-0.31737 -1.65832,-0.31738 -0.60832,10e-6 -1.17432,0.0608 -1.698,0.18249 -0.52368,0.12167 -1.01034,0.30417 -1.45996,0.54749 l 0,-2.16614 c 0.60831,-0.1481 1.21927,-0.25918 1.83288,-0.33325 0.61361,-0.0793 1.22721,-0.11901 1.84082,-0.11902 1.60278,10e-6 2.75858,0.31739 3.46741,0.95215 0.7141,0.62948 1.07116,1.65569 1.07117,3.07861"
         style="font-variant:normal;font-weight:bold;font-stretch:normal;fill:#000000;font-family:sans-serif;-inkscape-font-specification:sans-serif Bold"
         id="path3151" />
      <path
         d="m 266.45459,738.96671 2.84058,0 0,8.88671 -2.84058,0 0,-8.88671 m 0,-3.45948 2.84058,0 0,2.3169 -2.84058,0 0,-2.3169"
         style="font-variant:normal;font-weight:bold;font-stretch:normal;fill:#000000;font-family:sans-serif;-inkscape-font-specification:sans-serif Bold"
         id="path3153" />
      <path
         d="m 280.97485,742.44205 0,5.41137 -2.85644,0 0,-0.88073 0,-3.26111 c -10e-6,-0.76701 -0.0185,-1.29598 -0.0555,-1.58692 -0.0317,-0.29092 -0.0899,-0.50516 -0.17456,-0.6427 -0.1111,-0.18513 -0.26185,-0.32795 -0.45227,-0.42846 -0.19044,-0.10579 -0.40732,-0.15869 -0.65064,-0.15869 -0.59245,0 -1.05795,0.2301 -1.39648,0.6903 -0.33855,0.45492 -0.50782,1.08704 -0.50782,1.89637 l 0,4.37194 -2.84057,0 0,-8.88671 2.84057,0 0,1.30126 c 0.42847,-0.51838 0.88338,-0.89924 1.36475,-1.14257 0.48136,-0.24861 1.01297,-0.37292 1.59485,-0.37293 1.02619,10e-6 1.80378,0.31475 2.33276,0.94422 0.53425,0.62948 0.80138,1.5446 0.80139,2.74536"
         style="font-variant:normal;font-weight:bold;font-stretch:normal;fill:#000000;font-family:sans-serif;-inkscape-font-specification:sans-serif Bold"
         id="path3155" />
      <path
         d="m 283.625,738.96671 2.84058,0 0,8.88671 -2.84058,0 0,-8.88671 m 0,-3.45948 2.84058,0 0,2.3169 -2.84058,0 0,-2.3169"
         style="font-variant:normal;font-weight:bold;font-stretch:normal;fill:#000000;font-family:sans-serif;-inkscape-font-specification:sans-serif Bold"
         id="path3157" />
      <path
         d="m 298.14526,742.44205 0,5.41137 -2.85644,0 0,-0.88073 0,-3.26111 c -10e-6,-0.76701 -0.0185,-1.29598 -0.0555,-1.58692 -0.0317,-0.29092 -0.0899,-0.50516 -0.17456,-0.6427 -0.1111,-0.18513 -0.26185,-0.32795 -0.45227,-0.42846 -0.19044,-0.10579 -0.40732,-0.15869 -0.65064,-0.15869 -0.59245,0 -1.05795,0.2301 -1.39648,0.6903 -0.33855,0.45492 -0.50782,1.08704 -0.50782,1.89637 l 0,4.37194 -2.84057,0 0,-8.88671 2.84057,0 0,1.30126 c 0.42847,-0.51838 0.88338,-0.89924 1.36475,-1.14257 0.48136,-0.24861 1.01297,-0.37292 1.59485,-0.37293 1.02619,10e-6 1.80378,0.31475 2.33276,0.94422 0.53425,0.62948 0.80138,1.5446 0.80139,2.74536"
         style="font-variant:normal;font-weight:bold;font-stretch:normal;fill:#000000;font-family:sans-serif;-inkscape-font-specification:sans-serif Bold"
         id="path3159" />
      <path
         d="m 306.84155,746.34586 c -0.39144,0.51839 -0.82255,0.89925 -1.29333,1.14257 -0.47079,0.24333 -1.01563,0.36499 -1.63452,0.36499 -1.0844,0 -1.981,-0.42582 -2.68982,-1.27746 -0.70883,-0.85693 -1.06324,-1.94661 -1.06324,-3.26904 0,-1.32772 0.35441,-2.41475 1.06324,-3.26111 0.70882,-0.85164 1.60542,-1.27746 2.68982,-1.27747 0.61889,1e-5 1.16373,0.12167 1.63452,0.36499 0.47078,0.24334 0.90189,0.62684 1.29333,1.15051 l 0,-1.31713 2.85645,0 0,7.99011 c -10e-6,1.42822 -0.45228,2.5179 -1.35681,3.26904 -0.89926,0.75643 -2.20582,1.13464 -3.91968,1.13464 -0.55543,0 -1.09233,-0.0423 -1.61072,-0.12695 -0.51839,-0.0846 -1.03943,-0.21424 -1.56311,-0.38879 l 0,-2.21375 c 0.49723,0.28565 0.98388,0.49723 1.45996,0.63477 0.47607,0.14282 0.95479,0.21423 1.43616,0.21423 0.93098,0 1.61336,-0.20365 2.04712,-0.61096 0.43375,-0.40731 0.65063,-1.04472 0.65063,-1.91223 l 0,-0.61096 m -1.87256,-5.5304 c -0.58716,10e-6 -1.04472,0.21689 -1.37268,0.65063 -0.32796,0.43377 -0.49194,1.04737 -0.49194,1.84083 0,0.81461 0.15869,1.43351 0.47607,1.85668 0.31738,0.41789 0.78023,0.62684 1.38855,0.62684 0.59245,0 1.05265,-0.21688 1.38062,-0.65064 0.32795,-0.43375 0.49194,-1.04471 0.49194,-1.83288 0,-0.79346 -0.16399,-1.40706 -0.49194,-1.84083 -0.32797,-0.43374 -0.78817,-0.65062 -1.38062,-0.65063"
         style="font-variant:normal;font-weight:bold;font-stretch:normal;fill:#000000;font-family:sans-serif;-inkscape-font-specification:sans-serif Bold"
         id="path3161" />
      <path
         d="m 327.05884,745.60794 5.21301,0 0,2.24548 -8.60901,0 0,-2.24548 4.32434,-3.81653 c 0.38615,-0.34911 0.67179,-0.6903 0.85694,-1.02356 0.18513,-0.33324 0.2777,-0.67972 0.27771,-1.03943 -10e-6,-0.55541 -0.1878,-1.00239 -0.56336,-1.34094 -0.37028,-0.33853 -0.86487,-0.5078 -1.48376,-0.50781 -0.47608,10e-6 -0.99712,0.10316 -1.56311,0.30945 -0.56601,0.20102 -1.17168,0.50253 -1.81702,0.90454 l 0,-2.60254 c 0.68766,-0.22745 1.36739,-0.39936 2.03918,-0.51575 0.67179,-0.12165 1.33036,-0.18248 1.97571,-0.18249 1.41764,1e-5 2.5179,0.3121 3.30078,0.93628 0.78816,0.62419 1.18225,1.49435 1.18225,2.61047 0,0.64535 -0.16663,1.24838 -0.49987,1.80908 -0.33326,0.55543 -1.03415,1.30128 -2.10266,2.23755 l -2.53113,2.22168"
         style="font-variant:normal;font-weight:bold;font-stretch:normal;fill:#000000;font-family:sans-serif;-inkscape-font-specification:sans-serif Bold"
         id="path3163" />
      <path
         d="m 348.92651,740.44254 c 0.35969,-0.55013 0.78552,-0.96801 1.27747,-1.25367 0.49722,-0.29092 1.04206,-0.43639 1.63452,-0.4364 1.0209,10e-6 1.79849,0.31475 2.33276,0.94422 0.53425,0.62948 0.80138,1.5446 0.8014,2.74536 l 0,5.41137 -2.85645,0 0,-4.63379 c 0.005,-0.0688 0.008,-0.14017 0.008,-0.21423 0.005,-0.0741 0.008,-0.17984 0.008,-0.31738 -10e-6,-0.62947 -0.0926,-1.08439 -0.27771,-1.36475 -0.18515,-0.28564 -0.48402,-0.42846 -0.89661,-0.42846 -0.53956,0 -0.95745,0.22217 -1.25366,0.6665 -0.29094,0.44434 -0.4417,1.08704 -0.45227,1.9281 l 0,4.36401 -2.85644,0 0,-4.63379 c -1e-5,-0.98388 -0.0847,-1.616 -0.25391,-1.89636 -0.16928,-0.28564 -0.47079,-0.42846 -0.90454,-0.42846 -0.54485,0 -0.96538,0.22482 -1.2616,0.67443 -0.29623,0.44435 -0.44434,1.08176 -0.44433,1.91224 l 0,4.37194 -2.85645,0 0,-8.88671 2.85645,0 0,1.30126 c 0.34911,-0.50251 0.74849,-0.88072 1.19812,-1.13464 0.45491,-0.2539 0.95478,-0.38085 1.49963,-0.38086 0.6136,10e-6 1.15579,0.14812 1.62659,0.44434 0.47077,0.29623 0.82783,0.71147 1.07116,1.24573"
         style="font-variant:normal;font-weight:bold;font-stretch:normal;fill:#000000;font-family:sans-serif;-inkscape-font-specification:sans-serif Bold"
         id="path3165" />
      <path
         d="m 357.63867,738.96671 2.84058,0 0,8.88671 -2.84058,0 0,-8.88671 m 0,-3.45948 2.84058,0 0,2.3169 -2.84058,0 0,-2.3169"
         style="font-variant:normal;font-weight:bold;font-stretch:normal;fill:#000000;font-family:sans-serif;-inkscape-font-specification:sans-serif Bold"
         id="path3167" />
      <path
         d="m 372.15894,742.44205 0,5.41137 -2.85645,0 0,-0.88073 0,-3.26111 c -10e-6,-0.76701 -0.0185,-1.29598 -0.0555,-1.58692 -0.0318,-0.29092 -0.0899,-0.50516 -0.17456,-0.6427 -0.11109,-0.18513 -0.26185,-0.32795 -0.45227,-0.42846 -0.19044,-0.10579 -0.40732,-0.15869 -0.65064,-0.15869 -0.59245,0 -1.05795,0.2301 -1.39648,0.6903 -0.33855,0.45492 -0.50782,1.08704 -0.50781,1.89637 l 0,4.37194 -2.84058,0 0,-8.88671 2.84058,0 0,1.30126 c 0.42846,-0.51838 0.88337,-0.89924 1.36474,-1.14257 0.48136,-0.24861 1.01298,-0.37292 1.59485,-0.37293 1.0262,10e-6 1.80378,0.31475 2.33276,0.94422 0.53425,0.62948 0.80139,1.5446 0.8014,2.74536"
         style="font-variant:normal;font-weight:bold;font-stretch:normal;fill:#000000;font-family:sans-serif;-inkscape-font-specification:sans-serif Bold"
         id="path3169" />
    </g>
  </g>
</svg>
