<?xml version="1.0" encoding="UTF-8" standalone="no"?>
<!-- Created with Inkscape (http://www.inkscape.org/) -->

<svg
   xmlns:dc="http://purl.org/dc/elements/1.1/"
   xmlns:cc="http://creativecommons.org/ns#"
   xmlns:rdf="http://www.w3.org/1999/02/22-rdf-syntax-ns#"
   xmlns:svg="http://www.w3.org/2000/svg"
   xmlns="http://www.w3.org/2000/svg"
   xmlns:sodipodi="http://sodipodi.sourceforge.net/DTD/sodipodi-0.dtd"
   xmlns:inkscape="http://www.inkscape.org/namespaces/inkscape"
   width="234.21812mm"
   height="155.86385mm"
   viewBox="0 0 234.21812 155.86384"
   version="1.1"
   id="svg7808"
   inkscape:version="0.92.1 r15371"
   sodipodi:docname="2017-NL-06-graph.svg">
  <defs
     id="defs7802" />
  <sodipodi:namedview
     id="base"
     pagecolor="#ffffff"
     bordercolor="#666666"
     borderopacity="1.0"
     inkscape:pageopacity="0.0"
     inkscape:pageshadow="2"
     inkscape:zoom="1"
     inkscape:cx="564.95992"
     inkscape:cy="323.61137"
     inkscape:document-units="mm"
     inkscape:current-layer="layer1"
     showgrid="false"
     fit-margin-top="5"
     fit-margin-left="5"
     fit-margin-right="5"
     fit-margin-bottom="5"
     inkscape:snap-global="false"
     inkscape:window-width="1920"
     inkscape:window-height="1017"
     inkscape:window-x="-8"
     inkscape:window-y="-8"
     inkscape:window-maximized="1" />
  <metadata
     id="metadata7805">
    <rdf:RDF>
      <cc:Work
         rdf:about="">
        <dc:format>image/svg+xml</dc:format>
        <dc:type
           rdf:resource="http://purl.org/dc/dcmitype/StillImage" />
        <dc:title></dc:title>
      </cc:Work>
    </rdf:RDF>
  </metadata>
  <g
     inkscape:label="Layer 1"
     inkscape:groupmode="layer"
     id="layer1"
     transform="translate(-17.783942,-77.528125)">
    <path
       style="fill:none;fill-rule:evenodd;stroke:#ab37c8;stroke-width:1.5;stroke-linecap:butt;stroke-linejoin:miter;stroke-miterlimit:4;stroke-dasharray:none;stroke-dashoffset:0;stroke-opacity:1"
       d="m 37.027348,94.946348 62.006528,35.279582 56.109144,38.61239 70.71025,43.57299"
       id="path8455"
       inkscape:connector-curvature="0"
       sodipodi:nodetypes="cccc" />
    <path
       style="fill:none;fill-rule:evenodd;stroke:#000000;stroke-width:1.5;stroke-linecap:butt;stroke-linejoin:miter;stroke-miterlimit:4;stroke-dasharray:none;stroke-opacity:1"
       d="m 38.898234,214.6831 58.043342,-38.59753 2.0923,-46.92872 50.592224,-16.8704"
       id="path8457"
       inkscape:connector-curvature="0"
       sodipodi:nodetypes="cccc" />
    <path
       style="fill:none;fill-rule:evenodd;stroke:#c83737;stroke-width:1.5;stroke-linecap:butt;stroke-linejoin:miter;stroke-miterlimit:4;stroke-dasharray:4.50000013, 1.50000004;stroke-dashoffset:0;stroke-opacity:1"
       d="m 45.612398,217.58507 57.424952,-38.84579 44.6958,-58.02147 89.74634,-24.969653"
       id="path8459"
       inkscape:connector-curvature="0"
       sodipodi:nodetypes="cccc" />
    <path
       style="fill:none;fill-rule:evenodd;stroke:#00aad4;stroke-width:1.5;stroke-linecap:butt;stroke-linejoin:miter;stroke-miterlimit:4;stroke-dasharray:18.0000005, 1.50000004;stroke-dashoffset:0;stroke-opacity:1"
       d="m 152.07989,122.07852 3.05603,36.57919 74.32549,45.06734"
       id="path8461"
       inkscape:connector-curvature="0"
       sodipodi:nodetypes="ccc" />
    <path
       style="fill:none;fill-rule:evenodd;stroke:#ff9955;stroke-width:1.5;stroke-linecap:butt;stroke-linejoin:miter;stroke-miterlimit:4;stroke-dasharray:6.00000017, 3.00000008, 1.50000004, 3.00000008;stroke-dashoffset:0;stroke-opacity:1"
       d="m 108.32902,182.70803 48.53235,-19.4111 80.61812,-67.548773"
       id="path8463"
       inkscape:connector-curvature="0"
       sodipodi:nodetypes="ccc" />
    <circle
       style="opacity:1;fill:#ffeeaa;fill-opacity:1;stroke:#d3bc5f;stroke-width:1;stroke-linecap:butt;stroke-linejoin:miter;stroke-miterlimit:4;stroke-dasharray:none;stroke-dashoffset:0;stroke-opacity:1"
       id="path8353"
       cx="33.172916"
       cy="92.917099"
       r="9.8889742" />
    <text
       xml:space="preserve"
       style="font-style:normal;font-weight:normal;font-size:3.96875px;line-height:125%;font-family:sans-serif;letter-spacing:0px;word-spacing:0px;fill:#000000;fill-opacity:1;stroke:none;stroke-width:0.26458332px;stroke-linecap:butt;stroke-linejoin:miter;stroke-opacity:1;-inkscape-font-specification:sans-serif;font-stretch:normal;font-variant:normal;"
       x="33.076283"
       y="95.74604"
       id="text8357"><tspan
         sodipodi:role="line"
         id="tspan8355"
         x="33.076283"
         y="95.74604"
         style="font-size:7.76111126px;text-align:center;text-anchor:middle;stroke-width:0.26458332px;-inkscape-font-specification:sans-serif;font-family:sans-serif;font-weight:normal;font-style:normal;font-stretch:normal;font-variant:normal;">B</tspan></text>
    <circle
       style="opacity:1;fill:#ffeeaa;fill-opacity:1;stroke:#d3bc5f;stroke-width:1;stroke-linecap:butt;stroke-linejoin:miter;stroke-miterlimit:4;stroke-dasharray:none;stroke-dashoffset:0;stroke-opacity:1"
       id="path8353-6"
       cx="98.651787"
       cy="129.17857"
       r="9.8889751" />
    <text
       xml:space="preserve"
       style="font-style:normal;font-weight:normal;font-size:3.96875px;line-height:125%;font-family:sans-serif;letter-spacing:0px;word-spacing:0px;fill:#000000;fill-opacity:1;stroke:none;stroke-width:0.26458332px;stroke-linecap:butt;stroke-linejoin:miter;stroke-opacity:1;-inkscape-font-specification:sans-serif;font-stretch:normal;font-variant:normal;"
       x="98.555153"
       y="132.00751"
       id="text8357-7"><tspan
         sodipodi:role="line"
         x="98.555153"
         y="132.00751"
         style="font-size:7.76111126px;text-align:center;text-anchor:middle;stroke-width:0.26458332px;-inkscape-font-specification:sans-serif;font-family:sans-serif;font-weight:normal;font-style:normal;font-stretch:normal;font-variant:normal;"
         id="tspan8451">A</tspan></text>
    <circle
       style="opacity:1;fill:#ffeeaa;fill-opacity:1;stroke:#d3bc5f;stroke-width:1;stroke-linecap:butt;stroke-linejoin:miter;stroke-miterlimit:4;stroke-dasharray:none;stroke-dashoffset:0;stroke-opacity:1"
       id="path8353-7"
       cx="151.19048"
       cy="115.19345"
       r="9.8889751" />
    <text
       xml:space="preserve"
       style="font-style:normal;font-weight:normal;font-size:3.96875px;line-height:125%;font-family:sans-serif;letter-spacing:0px;word-spacing:0px;fill:#000000;fill-opacity:1;stroke:none;stroke-width:0.26458332px;stroke-linecap:butt;stroke-linejoin:miter;stroke-opacity:1;-inkscape-font-specification:sans-serif;font-stretch:normal;font-variant:normal;"
       x="151.09384"
       y="118.02239"
       id="text8357-2"><tspan
         sodipodi:role="line"
         id="tspan8355-3"
         x="151.09384"
         y="118.02239"
         style="font-size:7.76111126px;text-align:center;text-anchor:middle;stroke-width:0.26458332px;-inkscape-font-specification:sans-serif;font-family:sans-serif;font-weight:normal;font-style:normal;font-stretch:normal;font-variant:normal;">D</tspan></text>
    <circle
       style="opacity:1;fill:#ffeeaa;fill-opacity:1;stroke:#d3bc5f;stroke-width:1;stroke-linecap:butt;stroke-linejoin:miter;stroke-miterlimit:4;stroke-dasharray:none;stroke-dashoffset:0;stroke-opacity:1"
       id="path8353-4"
       cx="236.6131"
       cy="94.782738"
       r="9.8889751" />
    <text
       xml:space="preserve"
       style="font-style:normal;font-weight:normal;font-size:3.96875px;line-height:125%;font-family:sans-serif;letter-spacing:0px;word-spacing:0px;fill:#000000;fill-opacity:1;stroke:none;stroke-width:0.26458332px;stroke-linecap:butt;stroke-linejoin:miter;stroke-opacity:1;-inkscape-font-specification:sans-serif;font-stretch:normal;font-variant:normal;"
       x="236.51646"
       y="97.611679"
       id="text8357-9"><tspan
         sodipodi:role="line"
         id="tspan8355-7"
         x="236.51646"
         y="97.611679"
         style="font-size:7.76111126px;text-align:center;text-anchor:middle;stroke-width:0.26458332px;-inkscape-font-specification:sans-serif;font-family:sans-serif;font-weight:normal;font-style:normal;font-stretch:normal;font-variant:normal;">H</tspan></text>
    <circle
       style="opacity:1;fill:#ffeeaa;fill-opacity:1;stroke:#d3bc5f;stroke-width:1;stroke-linecap:butt;stroke-linejoin:miter;stroke-miterlimit:4;stroke-dasharray:none;stroke-dashoffset:0;stroke-opacity:1"
       id="path8353-9"
       cx="102.05357"
       cy="178.69345"
       r="9.8889751" />
    <text
       xml:space="preserve"
       style="font-style:normal;font-weight:normal;font-size:3.96875px;line-height:125%;font-family:sans-serif;letter-spacing:0px;word-spacing:0px;fill:#000000;fill-opacity:1;stroke:none;stroke-width:0.26458332px;stroke-linecap:butt;stroke-linejoin:miter;stroke-opacity:1;-inkscape-font-specification:sans-serif;font-stretch:normal;font-variant:normal;"
       x="101.95694"
       y="181.5224"
       id="text8357-0"><tspan
         sodipodi:role="line"
         id="tspan8355-8"
         x="101.95694"
         y="181.5224"
         style="font-size:7.76111126px;text-align:center;text-anchor:middle;stroke-width:0.26458332px;-inkscape-font-specification:sans-serif;font-family:sans-serif;font-weight:normal;font-style:normal;font-stretch:normal;font-variant:normal;">E</tspan></text>
    <circle
       style="opacity:1;fill:#ffeeaa;fill-opacity:1;stroke:#d3bc5f;stroke-width:1;stroke-linecap:butt;stroke-linejoin:miter;stroke-miterlimit:4;stroke-dasharray:none;stroke-dashoffset:0;stroke-opacity:1"
       id="path8353-70"
       cx="155.34822"
       cy="162.81845"
       r="9.8889751" />
    <text
       xml:space="preserve"
       style="font-style:normal;font-weight:normal;font-size:3.96875px;line-height:125%;font-family:sans-serif;letter-spacing:0px;word-spacing:0px;fill:#000000;fill-opacity:1;stroke:none;stroke-width:0.26458332px;stroke-linecap:butt;stroke-linejoin:miter;stroke-opacity:1;-inkscape-font-specification:sans-serif;font-stretch:normal;font-variant:normal;"
       x="155.25159"
       y="165.6474"
       id="text8357-09"><tspan
         sodipodi:role="line"
         id="tspan8355-0"
         x="155.25159"
         y="165.6474"
         style="font-size:7.76111126px;text-align:center;text-anchor:middle;stroke-width:0.26458332px;-inkscape-font-specification:sans-serif;font-family:sans-serif;font-weight:normal;font-style:normal;font-stretch:normal;font-variant:normal;">F</tspan></text>
    <circle
       style="opacity:1;fill:#ffeeaa;fill-opacity:1;stroke:#d3bc5f;stroke-width:1;stroke-linecap:butt;stroke-linejoin:miter;stroke-miterlimit:4;stroke-dasharray:none;stroke-dashoffset:0;stroke-opacity:1"
       id="path8353-96"
       cx="41.577381"
       cy="218.00299"
       r="9.8889751" />
    <text
       xml:space="preserve"
       style="font-style:normal;font-weight:normal;font-size:3.96875px;line-height:125%;font-family:sans-serif;letter-spacing:0px;word-spacing:0px;fill:#000000;fill-opacity:1;stroke:none;stroke-width:0.26458332px;stroke-linecap:butt;stroke-linejoin:miter;stroke-opacity:1;-inkscape-font-specification:sans-serif;font-stretch:normal;font-variant:normal;"
       x="41.480747"
       y="220.83192"
       id="text8357-4"><tspan
         sodipodi:role="line"
         id="tspan8355-37"
         x="41.480747"
         y="220.83192"
         style="font-size:7.76111126px;text-align:center;text-anchor:middle;stroke-width:0.26458332px;-inkscape-font-specification:sans-serif;font-family:sans-serif;font-weight:normal;font-style:normal;font-stretch:normal;font-variant:normal;">G</tspan></text>
    <circle
       style="opacity:1;fill:#ffeeaa;fill-opacity:1;stroke:#d3bc5f;stroke-width:1;stroke-linecap:butt;stroke-linejoin:miter;stroke-miterlimit:4;stroke-dasharray:none;stroke-dashoffset:0;stroke-opacity:1"
       id="path8353-8"
       cx="229.05357"
       cy="208.1756"
       r="9.8889751" />
    <text
       xml:space="preserve"
       style="font-style:normal;font-weight:normal;font-size:3.96875px;line-height:125%;font-family:sans-serif;letter-spacing:0px;word-spacing:0px;fill:#000000;fill-opacity:1;stroke:none;stroke-width:0.26458332px;stroke-linecap:butt;stroke-linejoin:miter;stroke-opacity:1;-inkscape-font-specification:sans-serif;font-stretch:normal;font-variant:normal;"
       x="228.95694"
       y="211.00455"
       id="text8357-02"><tspan
         sodipodi:role="line"
         id="tspan8355-4"
         x="228.95694"
         y="211.00455"
         style="font-size:7.76111126px;text-align:center;text-anchor:middle;stroke-width:0.26458332px;-inkscape-font-specification:sans-serif;font-family:sans-serif;font-weight:normal;font-style:normal;font-stretch:normal;font-variant:normal;">C</tspan></text>
  </g>
</svg>
