<?xml version="1.0" encoding="UTF-8" standalone="no"?>
<svg
   xmlns:dc="http://purl.org/dc/elements/1.1/"
   xmlns:cc="http://creativecommons.org/ns#"
   xmlns:rdf="http://www.w3.org/1999/02/22-rdf-syntax-ns#"
   xmlns:svg="http://www.w3.org/2000/svg"
   xmlns="http://www.w3.org/2000/svg"
   xmlns:sodipodi="http://sodipodi.sourceforge.net/DTD/sodipodi-0.dtd"
   xmlns:inkscape="http://www.inkscape.org/namespaces/inkscape"
   width="80.629684mm"
   height="42.531265mm"
   viewBox="0 0 80.629685 42.531265"
   version="1.1"
   id="svg30743"
   inkscape:version="1.0 (4035a4fb49, 2020-05-01)"
   sodipodi:docname="s01-tekst3.svg">
  <defs
     id="defs30737" />
  <sodipodi:namedview
     id="base"
     pagecolor="#ffffff"
     bordercolor="#666666"
     borderopacity="1.0"
     inkscape:pageopacity="0.0"
     inkscape:pageshadow="2"
     inkscape:zoom="3.5406987"
     inkscape:cx="152.37106"
     inkscape:cy="80.374045"
     inkscape:document-units="mm"
     inkscape:current-layer="layer1"
     inkscape:document-rotation="0"
     showgrid="false"
     inkscape:window-width="1216"
     inkscape:window-height="1001"
     inkscape:window-x="-8"
     inkscape:window-y="-8"
     inkscape:window-maximized="1" />
  <metadata
     id="metadata30740">
    <rdf:RDF>
      <cc:Work
         rdf:about="">
        <dc:format>image/svg+xml</dc:format>
        <dc:type
           rdf:resource="http://purl.org/dc/dcmitype/StillImage" />
        <dc:title />
      </cc:Work>
    </rdf:RDF>
  </metadata>
  <g
     inkscape:label="Kiht 1"
     inkscape:groupmode="layer"
     id="layer1"
     transform="translate(-64.762542,-111.78198)">
    <rect
       inkscape:export-ydpi="179.259"
       inkscape:export-xdpi="179.259"
       y="112.381"
       x="65.361557"
       height="41.333237"
       width="79.431656"
       id="rect7824"
       style="opacity:1;fill:#becdff;fill-opacity:1;stroke:#828282;stroke-width:1.19803;stroke-linecap:round;stroke-linejoin:round;stroke-miterlimit:4;stroke-dasharray:none;stroke-opacity:1;paint-order:stroke markers fill" />
    <g
       inkscape:export-ydpi="179.259"
       inkscape:export-xdpi="179.259"
       style="stroke-width:1.38091"
       transform="matrix(0.15328015,0,0,0.15328015,63.301091,84.727864)"
       id="g4232">
      <ellipse
         id="circle2-2"
         cy="274.20197"
         cx="105.13643"
         style="fill:#ba0b00;fill-opacity:1;stroke-width:0.536211"
         rx="25.892998"
         ry="23.851551" />
      <path
         style="fill:#f5f5f5;stroke-width:0.536211"
         d="m 99.85788,260.53278 v 26.46031 c 0,2.67585 2.35465,4.84485 5.25952,4.84485 2.90487,0 5.25951,-2.169 5.25951,-4.84485 v -26.46031 z"
         id="path66-9"
         inkscape:connector-curvature="0" />
      <path
         style="fill:#800000;stroke-width:0.536211"
         d="m 108.7586,271.34051 v 15.65258 c 0,1.84962 -1.63328,3.35413 -3.6412,3.35413 -2.00792,0 -3.64121,-1.50451 -3.64121,-3.35413 v -15.65258 z"
         id="path68-9"
         inkscape:connector-curvature="0" />
      <path
         style="fill:#b3b3b3;stroke-width:0.536211"
         d="m 104.76987,264.25958 h -2.83205 c -0.22373,0 -0.40458,-0.16658 -0.40458,-0.37268 0,-0.20609 0.18085,-0.37268 0.40458,-0.37268 h 2.83205 c 0.22373,0 0.40457,0.16659 0.40457,0.37268 0,0.2061 -0.18125,0.37268 -0.40457,0.37268 z"
         id="path70-0"
         inkscape:connector-curvature="0" />
      <path
         style="fill:#b3b3b3;stroke-width:0.536211"
         d="m 102.74697,265.75031 h -0.80915 c -0.22373,0 -0.40458,-0.16659 -0.40458,-0.37268 0,-0.2061 0.18085,-0.37269 0.40458,-0.37269 h 0.80915 c 0.22374,0 0.40458,0.16659 0.40458,0.37269 0,0.20609 -0.18125,0.37268 -0.40458,0.37268 z"
         id="path72-8"
         inkscape:connector-curvature="0" />
      <path
         style="fill:#b3b3b3;stroke-width:0.536211"
         d="m 104.76987,267.24103 h -2.83205 c -0.22373,0 -0.40458,-0.16659 -0.40458,-0.37268 0,-0.20609 0.18085,-0.37268 0.40458,-0.37268 h 2.83205 c 0.22373,0 0.40457,0.16659 0.40457,0.37268 0,0.20609 -0.18125,0.37268 -0.40457,0.37268 z"
         id="path74-1"
         inkscape:connector-curvature="0" />
      <path
         style="fill:#b3b3b3;stroke-width:0.536211"
         d="m 102.74697,268.73175 h -0.80915 c -0.22373,0 -0.40458,-0.16659 -0.40458,-0.37268 0,-0.20609 0.18085,-0.37268 0.40458,-0.37268 h 0.80915 c 0.22374,0 0.40458,0.16659 0.40458,0.37268 0,0.20609 -0.18125,0.37268 -0.40458,0.37268 z"
         id="path76-3"
         inkscape:connector-curvature="0" />
      <path
         style="fill:#b3b3b3;stroke-width:0.536211"
         d="m 104.76987,270.22247 h -2.83205 c -0.22373,0 -0.40458,-0.16659 -0.40458,-0.37268 0,-0.20609 0.18085,-0.37268 0.40458,-0.37268 h 2.83205 c 0.22373,0 0.40457,0.16659 0.40457,0.37268 0,0.20609 -0.18125,0.37268 -0.40457,0.37268 z"
         id="path78-1"
         inkscape:connector-curvature="0" />
      <path
         style="fill:#b3b3b3;stroke-width:0.536211"
         d="m 102.74697,271.71319 h -0.80915 c -0.22373,0 -0.40458,-0.16658 -0.40458,-0.37268 0,-0.20609 0.18085,-0.37268 0.40458,-0.37268 h 0.80915 c 0.22374,0 0.40458,0.16659 0.40458,0.37268 0,0.2061 -0.18125,0.37268 -0.40458,0.37268 z"
         id="path80-1"
         inkscape:connector-curvature="0" />
      <path
         style="fill:#b3b3b3;stroke-width:0.536211"
         d="m 104.76987,273.20392 h -2.83205 c -0.22373,0 -0.40458,-0.16659 -0.40458,-0.37268 0,-0.2061 0.18085,-0.37269 0.40458,-0.37269 h 2.83205 c 0.22373,0 0.40457,0.16659 0.40457,0.37269 0,0.20609 -0.18125,0.37268 -0.40457,0.37268 z"
         id="path82-0"
         inkscape:connector-curvature="0" />
      <path
         style="fill:#b3b3b3;stroke-width:0.536211"
         d="m 102.74697,274.69464 h -0.80915 c -0.22373,0 -0.40458,-0.16659 -0.40458,-0.37268 0,-0.2061 0.18085,-0.37268 0.40458,-0.37268 h 0.80915 c 0.22374,0 0.40458,0.16658 0.40458,0.37268 0,0.20609 -0.18125,0.37268 -0.40458,0.37268 z"
         id="path84-3"
         inkscape:connector-curvature="0" />
      <path
         style="fill:#b3b3b3;stroke-width:0.536211"
         d="m 104.76987,276.18536 h -2.83205 c -0.22373,0 -0.40458,-0.16659 -0.40458,-0.37268 0,-0.20609 0.18085,-0.37268 0.40458,-0.37268 h 2.83205 c 0.22373,0 0.40457,0.16659 0.40457,0.37268 0,0.20609 -0.18125,0.37268 -0.40457,0.37268 z"
         id="path86-4"
         inkscape:connector-curvature="0" />
      <path
         style="fill:#b3b3b3;stroke-width:0.536211"
         d="m 102.74697,277.67608 h -0.80915 c -0.22373,0 -0.40458,-0.16659 -0.40458,-0.37268 0,-0.20609 0.18085,-0.37268 0.40458,-0.37268 h 0.80915 c 0.22374,0 0.40458,0.16659 0.40458,0.37268 0,0.20609 -0.18125,0.37268 -0.40458,0.37268 z"
         id="path88-0"
         inkscape:connector-curvature="0" />
      <path
         style="fill:#f5f5f5;stroke-width:0.536211"
         d="m 111.99523,259.78742 c 0,0.41144 -0.36251,0.74536 -0.80916,0.74536 H 99.04873 c -0.446658,0 -0.80916,-0.33392 -0.80916,-0.74536 v 0 c 0,-0.41144 0.362502,-0.74536 0.80916,-0.74536 h 12.13734 c 0.44665,0 0.80916,0.33392 0.80916,0.74536 z"
         id="path90-3"
         inkscape:connector-curvature="0" />
      <rect
         x="99.857887"
         y="260.53278"
         style="fill:#cccccc;stroke-width:0.536211"
         width="10.519031"
         height="0.37268049"
         id="rect92-9" />
    </g>
    <g
       id="g4215"
       transform="matrix(0.15328015,0,0,0.15328015,63.137779,104.49965)"
       style="stroke-width:1.38091"
       inkscape:export-xdpi="179.259"
       inkscape:export-ydpi="179.259">
      <ellipse
         ry="23.851551"
         rx="25.892998"
         style="fill:#42ba00;fill-opacity:1;stroke-width:0.536211"
         cx="106.20187"
         cy="205.72134"
         id="circle2" />
      <path
         inkscape:connector-curvature="0"
         id="path66"
         d="m 100.92333,192.05218 v 26.46031 c 0,2.67585 2.35465,4.84485 5.25952,4.84485 2.90487,0 5.25951,-2.169 5.25951,-4.84485 v -26.46031 z"
         style="fill:#f5f5f5;stroke-width:0.536211" />
      <path
         inkscape:connector-curvature="0"
         id="path68"
         d="m 109.82405,202.85991 v 15.65258 c 0,1.84962 -1.63328,3.35413 -3.6412,3.35413 -2.00792,0 -3.64121,-1.50451 -3.64121,-3.35413 v -15.65258 z"
         style="fill:#800000;stroke-width:0.536211" />
      <path
         inkscape:connector-curvature="0"
         id="path70"
         d="m 105.83532,195.77898 h -2.83205 c -0.22373,0 -0.40458,-0.16658 -0.40458,-0.37268 0,-0.20609 0.18085,-0.37268 0.40458,-0.37268 h 2.83205 c 0.22373,0 0.40457,0.16659 0.40457,0.37268 0,0.2061 -0.18125,0.37268 -0.40457,0.37268 z"
         style="fill:#b3b3b3;stroke-width:0.536211" />
      <path
         inkscape:connector-curvature="0"
         id="path72"
         d="m 103.81242,197.26971 h -0.80915 c -0.22373,0 -0.40458,-0.16659 -0.40458,-0.37268 0,-0.2061 0.18085,-0.37269 0.40458,-0.37269 h 0.80915 c 0.22374,0 0.40458,0.16659 0.40458,0.37269 0,0.20609 -0.18125,0.37268 -0.40458,0.37268 z"
         style="fill:#b3b3b3;stroke-width:0.536211" />
      <path
         inkscape:connector-curvature="0"
         id="path74"
         d="m 105.83532,198.76043 h -2.83205 c -0.22373,0 -0.40458,-0.16659 -0.40458,-0.37268 0,-0.20609 0.18085,-0.37268 0.40458,-0.37268 h 2.83205 c 0.22373,0 0.40457,0.16659 0.40457,0.37268 0,0.20609 -0.18125,0.37268 -0.40457,0.37268 z"
         style="fill:#b3b3b3;stroke-width:0.536211" />
      <path
         inkscape:connector-curvature="0"
         id="path76"
         d="m 103.81242,200.25115 h -0.80915 c -0.22373,0 -0.40458,-0.16659 -0.40458,-0.37268 0,-0.20609 0.18085,-0.37268 0.40458,-0.37268 h 0.80915 c 0.22374,0 0.40458,0.16659 0.40458,0.37268 0,0.20609 -0.18125,0.37268 -0.40458,0.37268 z"
         style="fill:#b3b3b3;stroke-width:0.536211" />
      <path
         inkscape:connector-curvature="0"
         id="path78"
         d="m 105.83532,201.74187 h -2.83205 c -0.22373,0 -0.40458,-0.16659 -0.40458,-0.37268 0,-0.20609 0.18085,-0.37268 0.40458,-0.37268 h 2.83205 c 0.22373,0 0.40457,0.16659 0.40457,0.37268 0,0.20609 -0.18125,0.37268 -0.40457,0.37268 z"
         style="fill:#b3b3b3;stroke-width:0.536211" />
      <path
         inkscape:connector-curvature="0"
         id="path80"
         d="m 103.81242,203.23259 h -0.80915 c -0.22373,0 -0.40458,-0.16658 -0.40458,-0.37268 0,-0.20609 0.18085,-0.37268 0.40458,-0.37268 h 0.80915 c 0.22374,0 0.40458,0.16659 0.40458,0.37268 0,0.2061 -0.18125,0.37268 -0.40458,0.37268 z"
         style="fill:#b3b3b3;stroke-width:0.536211" />
      <path
         inkscape:connector-curvature="0"
         id="path82"
         d="m 105.83532,204.72332 h -2.83205 c -0.22373,0 -0.40458,-0.16659 -0.40458,-0.37268 0,-0.2061 0.18085,-0.37269 0.40458,-0.37269 h 2.83205 c 0.22373,0 0.40457,0.16659 0.40457,0.37269 0,0.20609 -0.18125,0.37268 -0.40457,0.37268 z"
         style="fill:#b3b3b3;stroke-width:0.536211" />
      <path
         inkscape:connector-curvature="0"
         id="path84"
         d="m 103.81242,206.21404 h -0.80915 c -0.22373,0 -0.40458,-0.16659 -0.40458,-0.37268 0,-0.2061 0.18085,-0.37268 0.40458,-0.37268 h 0.80915 c 0.22374,0 0.40458,0.16658 0.40458,0.37268 0,0.20609 -0.18125,0.37268 -0.40458,0.37268 z"
         style="fill:#b3b3b3;stroke-width:0.536211" />
      <path
         inkscape:connector-curvature="0"
         id="path86"
         d="m 105.83532,207.70476 h -2.83205 c -0.22373,0 -0.40458,-0.16659 -0.40458,-0.37268 0,-0.20609 0.18085,-0.37268 0.40458,-0.37268 h 2.83205 c 0.22373,0 0.40457,0.16659 0.40457,0.37268 0,0.20609 -0.18125,0.37268 -0.40457,0.37268 z"
         style="fill:#b3b3b3;stroke-width:0.536211" />
      <path
         inkscape:connector-curvature="0"
         id="path88"
         d="m 103.81242,209.19548 h -0.80915 c -0.22373,0 -0.40458,-0.16659 -0.40458,-0.37268 0,-0.20609 0.18085,-0.37268 0.40458,-0.37268 h 0.80915 c 0.22374,0 0.40458,0.16659 0.40458,0.37268 0,0.20609 -0.18125,0.37268 -0.40458,0.37268 z"
         style="fill:#b3b3b3;stroke-width:0.536211" />
      <path
         inkscape:connector-curvature="0"
         id="path90"
         d="m 113.06068,191.30682 c 0,0.41144 -0.36251,0.74536 -0.80916,0.74536 h -12.13734 c -0.446658,0 -0.80916,-0.33392 -0.80916,-0.74536 v 0 c 0,-0.41144 0.362502,-0.74536 0.80916,-0.74536 h 12.13734 c 0.44665,0 0.80916,0.33392 0.80916,0.74536 z"
         style="fill:#f5f5f5;stroke-width:0.536211" />
      <rect
         id="rect92"
         height="0.37268049"
         width="10.519031"
         style="fill:#cccccc;stroke-width:0.536211"
         y="192.05219"
         x="100.92333" />
    </g>
    <g
       inkscape:export-ydpi="179.259"
       inkscape:export-xdpi="179.259"
       style="stroke-width:1.38091"
       transform="matrix(0.15328015,0,0,0.15328015,63.137779,113.77472)"
       id="g4215-1">
      <ellipse
         id="circle2-7"
         cy="205.72134"
         cx="106.20187"
         style="fill:#42ba00;fill-opacity:1;stroke-width:0.536211"
         rx="25.892998"
         ry="23.851551" />
      <path
         style="fill:#f5f5f5;stroke-width:0.536211"
         d="m 100.92333,192.05218 v 26.46031 c 0,2.67585 2.35465,4.84485 5.25952,4.84485 2.90487,0 5.25951,-2.169 5.25951,-4.84485 v -26.46031 z"
         id="path66-8"
         inkscape:connector-curvature="0" />
      <path
         style="fill:#800000;stroke-width:0.536211"
         d="m 109.82405,202.85991 v 15.65258 c 0,1.84962 -1.63328,3.35413 -3.6412,3.35413 -2.00792,0 -3.64121,-1.50451 -3.64121,-3.35413 v -15.65258 z"
         id="path68-78"
         inkscape:connector-curvature="0" />
      <path
         style="fill:#b3b3b3;stroke-width:0.536211"
         d="m 105.83532,195.77898 h -2.83205 c -0.22373,0 -0.40458,-0.16658 -0.40458,-0.37268 0,-0.20609 0.18085,-0.37268 0.40458,-0.37268 h 2.83205 c 0.22373,0 0.40457,0.16659 0.40457,0.37268 0,0.2061 -0.18125,0.37268 -0.40457,0.37268 z"
         id="path70-83"
         inkscape:connector-curvature="0" />
      <path
         style="fill:#b3b3b3;stroke-width:0.536211"
         d="m 103.81242,197.26971 h -0.80915 c -0.22373,0 -0.40458,-0.16659 -0.40458,-0.37268 0,-0.2061 0.18085,-0.37269 0.40458,-0.37269 h 0.80915 c 0.22374,0 0.40458,0.16659 0.40458,0.37269 0,0.20609 -0.18125,0.37268 -0.40458,0.37268 z"
         id="path72-6"
         inkscape:connector-curvature="0" />
      <path
         style="fill:#b3b3b3;stroke-width:0.536211"
         d="m 105.83532,198.76043 h -2.83205 c -0.22373,0 -0.40458,-0.16659 -0.40458,-0.37268 0,-0.20609 0.18085,-0.37268 0.40458,-0.37268 h 2.83205 c 0.22373,0 0.40457,0.16659 0.40457,0.37268 0,0.20609 -0.18125,0.37268 -0.40457,0.37268 z"
         id="path74-9"
         inkscape:connector-curvature="0" />
      <path
         style="fill:#b3b3b3;stroke-width:0.536211"
         d="m 103.81242,200.25115 h -0.80915 c -0.22373,0 -0.40458,-0.16659 -0.40458,-0.37268 0,-0.20609 0.18085,-0.37268 0.40458,-0.37268 h 0.80915 c 0.22374,0 0.40458,0.16659 0.40458,0.37268 0,0.20609 -0.18125,0.37268 -0.40458,0.37268 z"
         id="path76-4"
         inkscape:connector-curvature="0" />
      <path
         style="fill:#b3b3b3;stroke-width:0.536211"
         d="m 105.83532,201.74187 h -2.83205 c -0.22373,0 -0.40458,-0.16659 -0.40458,-0.37268 0,-0.20609 0.18085,-0.37268 0.40458,-0.37268 h 2.83205 c 0.22373,0 0.40457,0.16659 0.40457,0.37268 0,0.20609 -0.18125,0.37268 -0.40457,0.37268 z"
         id="path78-2"
         inkscape:connector-curvature="0" />
      <path
         style="fill:#b3b3b3;stroke-width:0.536211"
         d="m 103.81242,203.23259 h -0.80915 c -0.22373,0 -0.40458,-0.16658 -0.40458,-0.37268 0,-0.20609 0.18085,-0.37268 0.40458,-0.37268 h 0.80915 c 0.22374,0 0.40458,0.16659 0.40458,0.37268 0,0.2061 -0.18125,0.37268 -0.40458,0.37268 z"
         id="path80-3"
         inkscape:connector-curvature="0" />
      <path
         style="fill:#b3b3b3;stroke-width:0.536211"
         d="m 105.83532,204.72332 h -2.83205 c -0.22373,0 -0.40458,-0.16659 -0.40458,-0.37268 0,-0.2061 0.18085,-0.37269 0.40458,-0.37269 h 2.83205 c 0.22373,0 0.40457,0.16659 0.40457,0.37269 0,0.20609 -0.18125,0.37268 -0.40457,0.37268 z"
         id="path82-6"
         inkscape:connector-curvature="0" />
      <path
         style="fill:#b3b3b3;stroke-width:0.536211"
         d="m 103.81242,206.21404 h -0.80915 c -0.22373,0 -0.40458,-0.16659 -0.40458,-0.37268 0,-0.2061 0.18085,-0.37268 0.40458,-0.37268 h 0.80915 c 0.22374,0 0.40458,0.16658 0.40458,0.37268 0,0.20609 -0.18125,0.37268 -0.40458,0.37268 z"
         id="path84-1"
         inkscape:connector-curvature="0" />
      <path
         style="fill:#b3b3b3;stroke-width:0.536211"
         d="m 105.83532,207.70476 h -2.83205 c -0.22373,0 -0.40458,-0.16659 -0.40458,-0.37268 0,-0.20609 0.18085,-0.37268 0.40458,-0.37268 h 2.83205 c 0.22373,0 0.40457,0.16659 0.40457,0.37268 0,0.20609 -0.18125,0.37268 -0.40457,0.37268 z"
         id="path86-41"
         inkscape:connector-curvature="0" />
      <path
         style="fill:#b3b3b3;stroke-width:0.536211"
         d="m 103.81242,209.19548 h -0.80915 c -0.22373,0 -0.40458,-0.16659 -0.40458,-0.37268 0,-0.20609 0.18085,-0.37268 0.40458,-0.37268 h 0.80915 c 0.22374,0 0.40458,0.16659 0.40458,0.37268 0,0.20609 -0.18125,0.37268 -0.40458,0.37268 z"
         id="path88-7"
         inkscape:connector-curvature="0" />
      <path
         style="fill:#f5f5f5;stroke-width:0.536211"
         d="m 113.06068,191.30682 c 0,0.41144 -0.36251,0.74536 -0.80916,0.74536 h -12.13734 c -0.446658,0 -0.80916,-0.33392 -0.80916,-0.74536 v 0 c 0,-0.41144 0.362502,-0.74536 0.80916,-0.74536 h 12.13734 c 0.44665,0 0.80916,0.33392 0.80916,0.74536 z"
         id="path90-38"
         inkscape:connector-curvature="0" />
      <rect
         x="100.92333"
         y="192.05219"
         style="fill:#cccccc;stroke-width:0.536211"
         width="10.519031"
         height="0.37268049"
         id="rect92-91" />
    </g>
    <text
       id="text6227"
       y="119.38625"
       x="74.552124"
       style="font-style:normal;font-weight:normal;font-size:5.29167px;line-height:125%;font-family:sans-serif;letter-spacing:0px;word-spacing:0px;fill:#000000;fill-opacity:1;stroke:none;stroke-width:0.264583px;stroke-linecap:butt;stroke-linejoin:miter;stroke-opacity:1"
       xml:space="preserve"><tspan
         style="font-size:5.29167px;stroke-width:0.264583px"
         y="119.38625"
         x="74.552124"
         id="tspan6225"
         sodipodi:role="line">Senised testitulemused</tspan></text>
    <text
       id="text6231"
       y="128.36992"
       x="85.338799"
       style="font-style:normal;font-weight:normal;font-size:4.23333px;line-height:125%;font-family:sans-serif;letter-spacing:0px;word-spacing:0px;fill:#000000;fill-opacity:1;stroke:none;stroke-width:0.264583px;stroke-linecap:butt;stroke-linejoin:miter;stroke-opacity:1"
       xml:space="preserve"><tspan
         style="font-size:4.23333px;stroke-width:0.264583px"
         y="128.36992"
         x="85.338799"
         id="tspan6229"
         sodipodi:role="line">Katseklaas A - nakatunud</tspan></text>
    <text
       id="text6235"
       y="137.81412"
       x="85.338799"
       style="font-style:normal;font-weight:normal;font-size:4.23333px;line-height:125%;font-family:sans-serif;letter-spacing:0px;word-spacing:0px;fill:#000000;fill-opacity:1;stroke:none;stroke-width:0.264583px;stroke-linecap:butt;stroke-linejoin:miter;stroke-opacity:1"
       xml:space="preserve"><tspan
         style="font-size:4.23333px;stroke-width:0.264583px"
         y="137.81412"
         x="85.338799"
         id="tspan6233"
         sodipodi:role="line">Katseklaas C - terve</tspan></text>
    <text
       id="text6239"
       y="147.50073"
       x="85.338799"
       style="font-style:normal;font-weight:normal;font-size:4.23333px;line-height:125%;font-family:sans-serif;letter-spacing:0px;word-spacing:0px;fill:#000000;fill-opacity:1;stroke:none;stroke-width:0.264583px;stroke-linecap:butt;stroke-linejoin:miter;stroke-opacity:1"
       xml:space="preserve"><tspan
         style="font-size:4.23333px;stroke-width:0.264583px"
         y="147.50073"
         x="85.338799"
         id="tspan6237"
         sodipodi:role="line">Katseklaas E - terve</tspan></text>
  </g>
</svg>
