<?xml version="1.0" encoding="UTF-8" standalone="no"?>
<!-- Created with Inkscape (http://www.inkscape.org/) -->

<svg
   xmlns:dc="http://purl.org/dc/elements/1.1/"
   xmlns:cc="http://creativecommons.org/ns#"
   xmlns:rdf="http://www.w3.org/1999/02/22-rdf-syntax-ns#"
   xmlns:svg="http://www.w3.org/2000/svg"
   xmlns="http://www.w3.org/2000/svg"
   xmlns:sodipodi="http://sodipodi.sourceforge.net/DTD/sodipodi-0.dtd"
   xmlns:inkscape="http://www.inkscape.org/namespaces/inkscape"
   width="140mm"
   height="80.864235mm"
   viewBox="0 0 140 80.864235"
   version="1.1"
   id="svg8"
   sodipodi:docname="map01.svg"
   inkscape:version="0.92.3 (2405546, 2018-03-11)">
  <defs
     id="defs2" />
  <sodipodi:namedview
     id="base"
     pagecolor="#ffffff"
     bordercolor="#666666"
     borderopacity="1.0"
     inkscape:pageopacity="0.0"
     inkscape:pageshadow="2"
     inkscape:zoom="1.4142136"
     inkscape:cx="196.79271"
     inkscape:cy="113.97115"
     inkscape:document-units="mm"
     inkscape:current-layer="layer1"
     showgrid="false"
     inkscape:window-width="1600"
     inkscape:window-height="837"
     inkscape:window-x="-8"
     inkscape:window-y="-8"
     inkscape:window-maximized="1"
     fit-margin-top="5"
     fit-margin-left="5"
     fit-margin-bottom="5"
     fit-margin-right="5" />
  <metadata
     id="metadata5">
    <rdf:RDF>
      <cc:Work
         rdf:about="">
        <dc:format>image/svg+xml</dc:format>
        <dc:type
           rdf:resource="http://purl.org/dc/dcmitype/StillImage" />
        <dc:title />
      </cc:Work>
    </rdf:RDF>
  </metadata>
  <g
     inkscape:label="Layer 1"
     inkscape:groupmode="layer"
     id="layer1"
     transform="translate(-15,-51.537845)">
    <circle
       style="opacity:1;fill:#ffffff;fill-opacity:1;stroke:#000000;stroke-width:0.25522339;stroke-miterlimit:4;stroke-dasharray:none;stroke-opacity:1"
       id="path4518"
       cx="25"
       cy="92"
       r="4.8723884" />
    <circle
       style="opacity:1;fill:#ffffff;fill-opacity:1;stroke:#000000;stroke-width:0.25522339;stroke-miterlimit:4;stroke-dasharray:none;stroke-opacity:1"
       id="path4518-9"
       cx="55"
       cy="62"
       r="0" />
    <circle
       style="opacity:1;fill:#ffffff;fill-opacity:1;stroke:#000000;stroke-width:0.25522339;stroke-miterlimit:4;stroke-dasharray:none;stroke-opacity:1"
       id="path4518-9-7"
       cx="55"
       cy="92"
       r="4.8723893" />
    <circle
       style="opacity:1;fill:#ffffff;fill-opacity:1;stroke:#000000;stroke-width:0.25522339;stroke-miterlimit:4;stroke-dasharray:none;stroke-opacity:1"
       id="path4518-9-7-1"
       cx="55"
       cy="122"
       r="4.8723893" />
    <circle
       style="opacity:1;fill:#ffffff;fill-opacity:1;stroke:#000000;stroke-width:0.25522339;stroke-miterlimit:4;stroke-dasharray:none;stroke-opacity:1"
       id="path4518-9-7-1-0"
       cx="85"
       cy="107"
       r="4.8723893" />
    <circle
       style="opacity:1;fill:#ffffff;fill-opacity:1;stroke:#000000;stroke-width:0.25522339;stroke-miterlimit:4;stroke-dasharray:none;stroke-opacity:1"
       id="path4518-9-7-1-0-3"
       cx="85"
       cy="77"
       r="4.8723893" />
    <circle
       style="opacity:1;fill:#ffffff;fill-opacity:1;stroke:#000000;stroke-width:0.25522339;stroke-miterlimit:4;stroke-dasharray:none;stroke-opacity:1"
       id="path4518-9-8"
       cx="115"
       cy="62"
       r="4.8723893" />
    <circle
       style="opacity:1;fill:#ffffff;fill-opacity:1;stroke:#000000;stroke-width:0.25522339;stroke-miterlimit:4;stroke-dasharray:none;stroke-opacity:1"
       id="path4518-9-7-0"
       cx="115"
       cy="92"
       r="4.8723893" />
    <circle
       style="opacity:1;fill:#ffffff;fill-opacity:1;stroke:#000000;stroke-width:0.25522339;stroke-miterlimit:4;stroke-dasharray:none;stroke-opacity:1"
       id="path4518-9-7-1-5"
       cx="115"
       cy="122"
       r="4.8723893" />
    <circle
       style="opacity:1;fill:#ffffff;fill-opacity:1;stroke:#000000;stroke-width:0.25522339;stroke-miterlimit:4;stroke-dasharray:none;stroke-opacity:1"
       id="path4518-7"
       cx="145"
       cy="92"
       r="4.8723888" />
    <text
       xml:space="preserve"
       style="font-style:normal;font-weight:normal;font-size:5.64444447px;line-height:1.25;font-family:sans-serif;letter-spacing:0px;word-spacing:0px;fill:#000000;fill-opacity:1;stroke:none;stroke-width:0.26458332"
       x="143.24603"
       y="94"
       id="text4656"><tspan
         sodipodi:role="line"
         id="tspan4654"
         x="143.24603"
         y="94"
         style="stroke-width:0.26458332">B</tspan></text>
    <text
       xml:space="preserve"
       style="font-style:normal;font-weight:normal;font-size:5.64444447px;line-height:1.25;font-family:sans-serif;letter-spacing:0px;word-spacing:0px;fill:#000000;fill-opacity:1;stroke:none;stroke-width:0.26458332"
       x="23.155903"
       y="94"
       id="text4660"><tspan
         sodipodi:role="line"
         id="tspan4658"
         x="23.155903"
         y="94"
         style="stroke-width:0.26458332">A</tspan></text>
    <path
       style="fill:none;stroke:#000000;stroke-width:0.26475433px;stroke-linecap:butt;stroke-linejoin:miter;stroke-opacity:1"
       d="M 28.093605,88.406395 51.406347,65.093588"
       id="path4662"
       inkscape:connector-curvature="0" />
    <path
       style="fill:none;stroke:#000000;stroke-width:0.26475433px;stroke-linecap:butt;stroke-linejoin:miter;stroke-opacity:1"
       d="M 118.23662,118.5564 141.54936,95.243573"
       id="path4662-2"
       inkscape:connector-curvature="0" />
    <path
       style="fill:none;stroke:#000000;stroke-width:0.26631442px;stroke-linecap:butt;stroke-linejoin:miter;stroke-opacity:1"
       d="M 29.9,92.007504 H 50.1"
       id="path4696"
       inkscape:connector-curvature="0" />
    <path
       style="fill:none;stroke:#000000;stroke-width:0.26631442px;stroke-linecap:butt;stroke-linejoin:miter;stroke-opacity:1"
       d="m 119.9,92.007843 h 20.2"
       id="path4696-4"
       inkscape:connector-curvature="0" />
    <path
       style="fill:none;stroke:#000000;stroke-width:0.26502028px;stroke-linecap:butt;stroke-linejoin:miter;stroke-opacity:1"
       d="m 59.9,62.00849 h 50.2"
       id="path4734"
       inkscape:connector-curvature="0" />
    <path
       style="fill:none;stroke:#000000;stroke-width:0.26502031px;stroke-linecap:butt;stroke-linejoin:miter;stroke-opacity:1"
       d="m 59.9,122.00849 h 50.20003"
       id="path4734-7"
       inkscape:connector-curvature="0" />
    <path
       style="fill:none;stroke:#000000;stroke-width:0.26657844px;stroke-linecap:butt;stroke-linejoin:miter;stroke-opacity:1"
       d="M 28.159927,95.578527 51.272013,118.68902"
       id="path4751"
       inkscape:connector-curvature="0" />
    <path
       style="fill:none;stroke:#000000;stroke-width:0.26657844px;stroke-linecap:butt;stroke-linejoin:miter;stroke-opacity:1"
       d="m 118.50578,65.559494 23.11208,23.110493"
       id="path4751-3"
       inkscape:connector-curvature="0" />
    <path
       style="fill:none;stroke:#000000;stroke-width:0.26458332px;stroke-linecap:butt;stroke-linejoin:miter;stroke-opacity:1"
       d="M 54.995534,87.034223 V 66.95424"
       id="path4768"
       inkscape:connector-curvature="0" />
    <path
       style="fill:none;stroke:#000000;stroke-width:0.26458332px;stroke-linecap:butt;stroke-linejoin:miter;stroke-opacity:1"
       d="M 85.063542,102.05 V 81.970019"
       id="path4768-1"
       inkscape:connector-curvature="0" />
    <path
       style="fill:none;stroke:#000000;stroke-width:0.26458332px;stroke-linecap:butt;stroke-linejoin:miter;stroke-opacity:1"
       d="M 115.03229,87.05 V 66.970019"
       id="path4768-1-6"
       inkscape:connector-curvature="0" />
    <path
       style="fill:none;stroke:#000000;stroke-width:0.26458332px;stroke-linecap:butt;stroke-linejoin:miter;stroke-opacity:1"
       d="M 115.09377,117.05 V 96.970023"
       id="path4768-1-6-4"
       inkscape:connector-curvature="0" />
    <path
       style="fill:none;stroke:#000000;stroke-width:0.26458332px;stroke-linecap:butt;stroke-linejoin:miter;stroke-opacity:1"
       d="M 54.982981,117.01136 V 96.931375"
       id="path4768-1-7"
       inkscape:connector-curvature="0" />
    <path
       style="fill:none;stroke:#000000;stroke-width:0.26458332px;stroke-linecap:butt;stroke-linejoin:miter;stroke-opacity:1"
       d="M 59.20052,119.39843 80.46168,108.9096"
       id="path4830"
       inkscape:connector-curvature="0" />
    <path
       style="fill:none;stroke:#000000;stroke-width:0.26458332px;stroke-linecap:butt;stroke-linejoin:miter;stroke-opacity:1"
       d="m 59.038529,89.139943 21.26116,-10.48883"
       id="path4830-6"
       inkscape:connector-curvature="0" />
    <path
       style="fill:none;stroke:#000000;stroke-width:0.26458332px;stroke-linecap:butt;stroke-linejoin:miter;stroke-opacity:1"
       d="M 89.358529,74.570453 110.61968,64.081623"
       id="path4830-6-7"
       inkscape:connector-curvature="0" />
    <path
       style="fill:none;stroke:#000000;stroke-width:0.26458332px;stroke-linecap:butt;stroke-linejoin:miter;stroke-opacity:1"
       d="M 89.336219,104.61733 110.59737,94.128506"
       id="path4830-6-7-4"
       inkscape:connector-curvature="0" />
    <path
       style="fill:none;stroke:#000000;stroke-width:0.26458332px;stroke-linecap:butt;stroke-linejoin:miter;stroke-opacity:1"
       d="m 59.026475,64.822961 21.60874,10.196332"
       id="path4877"
       inkscape:connector-curvature="0" />
    <path
       style="fill:none;stroke:#000000;stroke-width:0.26519531px;stroke-linecap:butt;stroke-linejoin:miter;stroke-opacity:1"
       d="m 89.058985,79.790328 21.287035,10.52319"
       id="path4879"
       inkscape:connector-curvature="0" />
    <path
       style="fill:none;stroke:#000000;stroke-width:0.26581895px;stroke-linecap:butt;stroke-linejoin:miter;stroke-opacity:1"
       d="M 59.059755,94.804471 80.353699,105.42064"
       id="path4881"
       inkscape:connector-curvature="0" />
    <path
       style="fill:none;stroke:#000000;stroke-width:0.26458332px;stroke-linecap:butt;stroke-linejoin:miter;stroke-opacity:1"
       d="m 89.241293,109.58393 21.655517,9.63506"
       id="path4883"
       inkscape:connector-curvature="0" />
    <text
       xml:space="preserve"
       style="font-style:normal;font-weight:normal;font-size:5.64444447px;line-height:1.25;font-family:sans-serif;letter-spacing:0px;word-spacing:0px;fill:#000000;fill-opacity:1;stroke:none;stroke-width:0.26458332"
       x="82.814583"
       y="60.727081"
       id="text4887"><tspan
         sodipodi:role="line"
         id="tspan4885"
         x="82.814583"
         y="60.727081"
         style="stroke-width:0.26458332">36</tspan></text>
    <text
       xml:space="preserve"
       style="font-style:normal;font-weight:normal;font-size:5.64444447px;line-height:1.25;font-family:sans-serif;letter-spacing:0px;word-spacing:0px;fill:#000000;fill-opacity:1;stroke:none;stroke-width:0.26458332"
       x="82.814583"
       y="127.40208"
       id="text4891"><tspan
         sodipodi:role="line"
         id="tspan4889"
         x="82.814583"
         y="127.40208"
         style="stroke-width:0.26458332">27</tspan></text>
    <text
       xml:space="preserve"
       style="font-style:normal;font-weight:normal;font-size:5.64444447px;line-height:1.25;font-family:sans-serif;letter-spacing:0px;word-spacing:0px;fill:#000000;fill-opacity:1;stroke:none;stroke-width:0.26458332"
       x="37.041664"
       y="90.757294"
       id="text4895"><tspan
         sodipodi:role="line"
         id="tspan4893"
         x="37.041664"
         y="90.757294"
         style="stroke-width:0.26458332">26</tspan></text>
    <text
       xml:space="preserve"
       style="font-style:normal;font-weight:normal;font-size:5.64444447px;line-height:1.25;font-family:sans-serif;letter-spacing:0px;word-spacing:0px;fill:#000000;fill-opacity:1;stroke:none;stroke-width:0.26458332"
       x="125.67709"
       y="90.492706"
       id="text4899"><tspan
         sodipodi:role="line"
         id="tspan4897"
         x="125.67709"
         y="90.492706"
         style="stroke-width:0.26458332">35</tspan></text>
    <text
       xml:space="preserve"
       style="font-style:normal;font-weight:normal;font-size:5.64444447px;line-height:1.25;font-family:sans-serif;letter-spacing:0px;word-spacing:0px;fill:#000000;fill-opacity:1;stroke:none;stroke-width:0.26458332"
       x="33.072914"
       y="75.543747"
       id="text4903"><tspan
         sodipodi:role="line"
         id="tspan4901"
         x="33.072914"
         y="75.543747"
         style="stroke-width:0.26458332">39</tspan></text>
    <text
       xml:space="preserve"
       style="font-style:normal;font-weight:normal;font-size:5.64444447px;line-height:1.25;font-family:sans-serif;letter-spacing:0px;word-spacing:0px;fill:#000000;fill-opacity:1;stroke:none;stroke-width:0.26458332"
       x="30.956249"
       y="110.60104"
       id="text4907"><tspan
         sodipodi:role="line"
         id="tspan4905"
         x="30.956249"
         y="110.60104"
         style="stroke-width:0.26458332">35</tspan></text>
    <text
       xml:space="preserve"
       style="font-style:normal;font-weight:normal;font-size:5.64444447px;line-height:1.25;font-family:sans-serif;letter-spacing:0px;word-spacing:0px;fill:#000000;fill-opacity:1;stroke:none;stroke-width:0.26458332"
       x="49.444988"
       y="79.644791"
       id="text4911"><tspan
         sodipodi:role="line"
         id="tspan4909"
         x="49.444988"
         y="79.644791"
         style="stroke-width:0.26458332">9</tspan></text>
    <text
       xml:space="preserve"
       style="font-style:normal;font-weight:normal;font-size:5.64444447px;line-height:1.25;font-family:sans-serif;letter-spacing:0px;word-spacing:0px;fill:#000000;fill-opacity:1;stroke:none;stroke-width:0.26458332"
       x="47.095833"
       y="105.70625"
       id="text4915"><tspan
         sodipodi:role="line"
         id="tspan4913"
         x="47.095833"
         y="105.70625"
         style="stroke-width:0.26458332">37</tspan></text>
    <text
       xml:space="preserve"
       style="font-style:normal;font-weight:normal;font-size:5.64444447px;line-height:1.25;font-family:sans-serif;letter-spacing:0px;word-spacing:0px;fill:#000000;fill-opacity:1;stroke:none;stroke-width:0.26458332"
       x="64.426041"
       y="112.84999"
       id="text4919"><tspan
         sodipodi:role="line"
         id="tspan4917"
         x="64.426041"
         y="112.84999"
         style="stroke-width:0.26458332">29</tspan></text>
    <text
       xml:space="preserve"
       style="font-style:normal;font-weight:normal;font-size:5.64444447px;line-height:1.25;font-family:sans-serif;letter-spacing:0px;word-spacing:0px;fill:#000000;fill-opacity:1;stroke:none;stroke-width:0.26458332"
       x="89.429153"
       y="117.61248"
       id="text4923"><tspan
         sodipodi:role="line"
         id="tspan4921"
         x="89.429153"
         y="117.61248"
         style="stroke-width:0.26458332">30</tspan></text>
    <text
       xml:space="preserve"
       style="font-style:normal;font-weight:normal;font-size:5.64444447px;line-height:1.25;font-family:sans-serif;letter-spacing:0px;word-spacing:0px;fill:#000000;fill-opacity:1;stroke:none;stroke-width:0.26458332"
       x="130.57188"
       y="110.73333"
       id="text4927"><tspan
         sodipodi:role="line"
         id="tspan4925"
         x="130.57188"
         y="110.73333"
         style="stroke-width:0.26458332">42</tspan></text>
    <text
       xml:space="preserve"
       style="font-style:normal;font-weight:normal;font-size:5.64444447px;line-height:1.25;font-family:sans-serif;letter-spacing:0px;word-spacing:0px;fill:#000000;fill-opacity:1;stroke:none;stroke-width:0.26458332"
       x="128.19064"
       y="73.823959"
       id="text4931"><tspan
         sodipodi:role="line"
         id="tspan4929"
         x="128.19064"
         y="73.823959"
         style="stroke-width:0.26458332">31</tspan></text>
    <text
       xml:space="preserve"
       style="font-style:normal;font-weight:normal;font-size:5.64444447px;line-height:1.25;font-family:sans-serif;letter-spacing:0px;word-spacing:0px;fill:#000000;fill-opacity:1;stroke:none;stroke-width:0.26458332"
       x="116.28437"
       y="79.644791"
       id="text4935"><tspan
         sodipodi:role="line"
         id="tspan4933"
         x="116.28437"
         y="79.644791"
         style="stroke-width:0.26458332">25</tspan></text>
    <text
       xml:space="preserve"
       style="font-style:normal;font-weight:normal;font-size:5.64444447px;line-height:1.25;font-family:sans-serif;letter-spacing:0px;word-spacing:0px;fill:#000000;fill-opacity:1;stroke:none;stroke-width:0.26458332"
       x="116.68124"
       y="104.9125"
       id="text4939"><tspan
         sodipodi:role="line"
         id="tspan4937"
         x="116.68124"
         y="104.9125"
         style="stroke-width:0.26458332">43</tspan></text>
    <text
       xml:space="preserve"
       style="font-style:normal;font-weight:normal;font-size:5.64444447px;line-height:1.25;font-family:sans-serif;letter-spacing:0px;word-spacing:0px;fill:#000000;fill-opacity:1;stroke:none;stroke-width:0.26458332"
       x="71.70208"
       y="69.590622"
       id="text4943"><tspan
         sodipodi:role="line"
         id="tspan4941"
         x="71.70208"
         y="69.590622"
         style="stroke-width:0.26458332">31</tspan></text>
    <text
       xml:space="preserve"
       style="font-style:normal;font-weight:normal;font-size:5.64444447px;line-height:1.25;font-family:sans-serif;letter-spacing:0px;word-spacing:0px;fill:#000000;fill-opacity:1;stroke:none;stroke-width:0.26458332"
       x="91.942703"
       y="69.193748"
       id="text4947"><tspan
         sodipodi:role="line"
         id="tspan4945"
         x="91.942703"
         y="69.193748"
         style="stroke-width:0.26458332">29</tspan></text>
    <text
       xml:space="preserve"
       style="font-style:normal;font-weight:normal;font-size:5.64444447px;line-height:1.25;font-family:sans-serif;letter-spacing:0px;word-spacing:0px;fill:#000000;fill-opacity:1;stroke:none;stroke-width:0.26458332"
       x="99.351044"
       y="83.745834"
       id="text4951"><tspan
         sodipodi:role="line"
         id="tspan4949"
         x="99.351044"
         y="83.745834"
         style="stroke-width:0.26458332">26</tspan></text>
    <text
       xml:space="preserve"
       style="font-style:normal;font-weight:normal;font-size:5.64444447px;line-height:1.25;font-family:sans-serif;letter-spacing:0px;word-spacing:0px;fill:#000000;fill-opacity:1;stroke:none;stroke-width:0.26458332"
       x="64.822914"
       y="82.290627"
       id="text4955"><tspan
         sodipodi:role="line"
         id="tspan4953"
         x="64.822914"
         y="82.290627"
         style="stroke-width:0.26458332">33</tspan></text>
    <text
       xml:space="preserve"
       style="font-style:normal;font-weight:normal;font-size:5.64444447px;line-height:1.25;font-family:sans-serif;letter-spacing:0px;word-spacing:0px;fill:#000000;fill-opacity:1;stroke:none;stroke-width:0.26458332"
       x="69.453125"
       y="98.959373"
       id="text4959"><tspan
         sodipodi:role="line"
         id="tspan4957"
         x="69.453125"
         y="98.959373"
         style="stroke-width:0.26458332">18</tspan></text>
    <text
       xml:space="preserve"
       style="font-style:normal;font-weight:normal;font-size:5.64444447px;line-height:1.25;font-family:sans-serif;letter-spacing:0px;word-spacing:0px;fill:#000000;fill-opacity:1;stroke:none;stroke-width:0.26458332"
       x="97.763542"
       y="105.17707"
       id="text4963"><tspan
         sodipodi:role="line"
         id="tspan4961"
         x="97.763542"
         y="105.17707"
         style="stroke-width:0.26458332">32</tspan></text>
    <text
       xml:space="preserve"
       style="font-style:normal;font-weight:normal;font-size:5.64444447px;line-height:1.25;font-family:sans-serif;letter-spacing:0px;word-spacing:0px;fill:#000000;fill-opacity:1;stroke:none;stroke-width:0.26458332"
       x="86.254166"
       y="92.477081"
       id="text4967"><tspan
         sodipodi:role="line"
         id="tspan4965"
         x="86.254166"
         y="92.477081"
         style="stroke-width:0.26458332">41</tspan></text>
    <circle
       style="opacity:1;fill:#ffffff;fill-opacity:1;stroke:#000000;stroke-width:0.25522339;stroke-miterlimit:4;stroke-dasharray:none;stroke-opacity:1"
       id="path4518-9-7-3"
       cx="55"
       cy="62"
       r="4.8723893" />
  </g>
</svg>
