<?xml version="1.0" encoding="UTF-8" standalone="no"?>
<!DOCTYPE svg PUBLIC "-//W3C//DTD SVG 1.1//EN" "http://www.w3.org/Graphics/SVG/1.1/DTD/svg11.dtd">
<svg width="100%" height="100%" viewBox="0 0 328 845" version="1.1" xmlns="http://www.w3.org/2000/svg" xmlns:xlink="http://www.w3.org/1999/xlink" xml:space="preserve" xmlns:serif="http://www.serif.com/" style="fill-rule:evenodd;clip-rule:evenodd;stroke-linejoin:round;stroke-miterlimit:2;">
    <g transform="matrix(1,0,0,1,-1359.56,-93.9637)">
        <g transform="matrix(1.35331,0,0,1,555.48,50.2615)">
            <g transform="matrix(1,0,0,1,279.726,-11.0796)">
                <rect x="341.308" y="367.708" width="193.536" height="161.608" style="fill:rgb(173,171,212);"/>
            </g>
            <path d="M624.42,388.839C624.824,388.493 625.514,387.913 626.159,387.423C629.258,385.064 634.076,381.697 635.261,380.513C643.287,372.486 655.584,368.112 663.43,360.266C664.387,359.31 664.589,357.482 663.882,356.187C663.176,354.893 661.825,354.618 660.868,355.575C653.023,363.42 640.726,367.795 632.699,375.821C631.575,376.945 626.986,380.1 624.046,382.338C622.46,383.545 621.293,384.617 620.97,385.094C619.986,386.549 620.313,387.934 620.601,388.651C620.847,389.264 621.313,390.063 622.357,390.213C623.209,390.335 623.999,389.766 624.42,388.839ZM622.944,384.437C623.253,384.508 623.538,384.666 623.784,384.891C623.572,384.681 623.299,384.513 622.944,384.437Z"/>
            <path d="M623.707,428.328C624.185,427.091 625.688,425.754 627.542,424.206C632.837,419.784 641.054,414.929 644.414,412.409C661.215,399.808 677.606,386.568 695.085,374.915C699.546,371.941 703.769,368.832 708.29,365.819C709.377,365.094 710.704,363.603 712.047,362.265C712.564,361.75 713.083,361.263 713.594,360.912C713.87,360.722 714.126,360.544 714.38,360.544C715.569,360.544 716.535,359.237 716.535,357.627C716.535,356.017 715.569,354.71 714.38,354.71C713.125,354.71 711.698,355.521 710.308,356.786C708.907,358.06 707.515,359.833 706.385,360.586C701.864,363.6 697.641,366.709 693.18,369.682C675.638,381.377 659.186,394.661 642.325,407.306C638.929,409.854 630.63,414.773 625.278,419.242C622.567,421.506 620.587,423.815 619.887,425.625C619.336,427.051 619.744,428.815 620.799,429.561C621.853,430.307 623.156,429.755 623.707,428.328Z"/>
            <path d="M623.455,472.804C624.825,471.635 626.303,470.4 627.709,469.319C631.752,466.209 636.039,462.867 640.234,459.996C652.442,451.643 664.149,442.213 675.832,433.227C696.796,417.1 718.96,403.008 740.072,387.174C751.006,378.973 770.994,369.487 780.215,360.266C781.171,359.31 781.374,357.482 780.667,356.187C779.96,354.893 778.61,354.618 777.653,355.575C768.547,364.681 748.781,373.973 737.983,382.072C716.857,397.916 694.679,412.019 673.702,428.155C662.079,437.095 650.434,446.481 638.289,454.79C634.032,457.703 629.681,461.092 625.579,464.247C623.89,465.546 622.102,467.056 620.503,468.427C618.663,470.004 618.908,471.777 619.052,472.524C619.362,474.13 620.466,474.917 621.351,474.895C622.294,474.872 623.09,474.178 623.436,472.882L623.455,472.804ZM620.527,469.231C620.014,469.514 619.596,470.098 619.382,470.899C619.589,470.126 620.012,469.543 620.527,469.231Z"/>
            <path d="M812.771,376.374C812.452,376.61 811.558,377.261 810.836,377.663C808.817,378.785 806.474,379.804 805.804,380.283C796.783,386.726 786.681,391.66 777.395,397.851C742.639,421.022 707.922,444.558 673.227,467.688C660.677,476.054 647.955,485.365 636.611,495.449C632.922,498.728 628.757,501.366 624.942,504.487C624.64,504.734 621.005,507.723 620.198,509.025C619.396,510.32 619.5,511.581 619.694,512.303C619.913,513.118 620.37,514.047 621.515,514.31C622.565,514.552 623.568,513.721 623.909,512.406C624.827,511.577 626.992,509.626 627.172,509.479C631.032,506.32 635.244,503.643 638.978,500.324C650.178,490.369 662.741,481.181 675.132,472.92C709.827,449.79 744.544,426.255 779.3,403.084C788.622,396.869 798.76,391.91 807.816,385.442C808.802,384.737 813.427,382.854 815.243,381.166C816.464,380.031 816.888,378.611 816.888,377.58C816.888,375.971 815.922,374.664 814.732,374.664C813.861,374.664 813.11,375.365 812.771,376.374ZM623.014,508.958C622.813,508.775 622.559,508.634 622.238,508.56C622.522,508.625 622.784,508.763 623.014,508.958Z"/>
            <path d="M812.899,413.392C812.062,414.037 809.914,415.687 809.379,416.044C806.336,418.072 803.097,419.939 800.345,422.385C792.628,429.244 783.475,434.792 775.01,440.718C764.389,448.152 754.65,456.867 743.926,464.178C728.745,474.529 713.173,484.485 697.875,494.683C690.481,499.613 682.547,503.828 675.482,509.126C673.19,510.846 671.024,512.69 668.734,514.408C668.259,514.764 667.136,515.473 666.624,515.874C666.183,516.219 665.915,516.576 665.805,516.754C664.907,518.203 665.263,519.505 665.656,520.298C665.814,520.616 666.446,521.949 668.053,521.528C668.533,521.402 668.945,521.069 669.247,520.61C669.758,520.262 670.517,519.74 670.823,519.51C673.113,517.793 675.279,515.948 677.572,514.229C684.577,508.975 692.448,504.804 699.78,499.916C715.089,489.71 730.673,479.746 745.866,469.388C756.603,462.067 766.355,453.343 776.99,445.899C785.587,439.881 794.875,434.226 802.711,427.26C805.319,424.942 808.4,423.199 811.283,421.277C812.064,420.757 815.144,418.456 815.741,417.879C816.884,416.773 816.747,415.292 816.717,414.997C816.675,414.576 815.975,411.555 813.692,412.697C813.383,412.851 813.115,413.092 812.899,413.392ZM667.357,515.774L667.35,515.775L667.357,515.774ZM815.077,418.219L815.044,418.231L815.072,418.221L815.077,418.219Z"/>
            <path d="M729.42,519.053C738.996,515.975 747.526,504.909 755.606,498.984C766.713,490.838 778.217,482.143 789.803,475.013C795.696,471.387 802.393,468.48 808.056,464.704C810.592,463.014 811.751,460.819 814.306,459.542C815.421,458.984 815.993,457.305 815.58,455.795C815.168,454.285 813.927,453.512 812.812,454.07C810.103,455.425 808.84,457.679 806.151,459.472C800.526,463.221 793.872,466.101 788.018,469.703C776.342,476.889 764.747,485.646 753.553,493.855C749.534,496.802 745.409,501.044 741.103,504.941C737.072,508.588 732.882,511.944 728.424,513.377C727.267,513.749 726.55,515.322 726.825,516.889C727.1,518.455 728.263,519.424 729.42,519.053Z"/>
            <path d="M810.482,495.05C810.154,495.292 809.36,495.864 808.744,496.201C806.942,497.187 804.839,498.068 804.211,498.427C798.443,501.723 792.716,505.829 787.318,509.685C786.503,510.267 782.799,512.261 781.57,513.598C780.148,515.145 780.254,516.976 780.667,518.038C781.222,519.462 782.527,520.009 783.579,519.258C783.988,518.966 784.3,518.52 784.494,518C785.393,517.423 788.716,515.282 789.33,514.844C794.622,511.064 800.233,507.032 805.888,503.801C806.864,503.243 811.22,501.431 812.931,499.885C814.145,498.786 814.54,497.381 814.54,496.419C814.54,494.809 813.574,493.503 812.385,493.503C811.561,493.503 810.844,494.13 810.482,495.05ZM784.582,515.62L784.595,515.665L784.588,515.64L784.582,515.62ZM784.539,515.48L784.565,515.561L784.556,515.532L784.539,515.48ZM784.526,515.441C784.512,515.399 784.496,515.359 784.481,515.318L784.526,515.441ZM810.252,496.004C810.235,496.148 810.23,496.287 810.23,496.419C810.23,496.278 810.237,496.14 810.252,496.004ZM810.263,495.906L810.259,495.945L810.266,495.889L810.263,495.906Z"/>
            <path d="M638.128,375.294C638.486,375.851 639.343,377.18 639.448,377.285C641.075,378.912 643.291,380.298 644.791,382.299C648.851,387.711 653.329,394.394 657.934,398.999C658.891,399.956 660.241,399.681 660.948,398.387C661.655,397.092 661.452,395.264 660.496,394.308C656.046,389.858 651.739,383.373 647.816,378.144C646.226,376.023 643.934,374.471 642.176,372.755C641.9,372.308 641.025,370.899 640.753,370.595C640.42,370.222 640.115,370.061 639.922,369.983C638.913,369.575 638.208,370.078 637.722,370.766C637.426,371.185 637.066,371.864 637.123,373.017C637.17,373.986 637.563,374.814 638.128,375.294ZM640.796,374.886C641.163,374.448 641.479,373.762 641.423,372.631C641.466,373.504 641.22,374.313 640.796,374.886Z"/>
            <path d="M631.094,420.934C633.807,428.06 643.334,443.085 648.838,448.589C649.794,449.545 651.145,449.271 651.852,447.976C652.559,446.682 652.356,444.854 651.399,443.897C646.294,438.792 637.442,424.873 634.926,418.262C634.381,416.831 633.08,416.268 632.023,417.005C630.965,417.742 630.549,419.503 631.094,420.934Z"/>
            <path d="M700.724,370.821C700.742,370.097 700.562,369.363 700.178,368.781C699.385,367.581 698.021,367.478 697.135,368.551C696.281,369.583 695.811,371.491 696.988,373.797C698.345,376.454 703.371,381.39 704.426,382.679C708.847,388.083 711.908,395.461 716.62,400.173C717.577,401.129 718.927,400.855 719.634,399.56C720.341,398.266 720.138,396.438 719.181,395.481C714.581,390.881 711.631,383.626 707.315,378.35C706.408,377.243 702.171,373.262 700.724,370.821ZM700.075,372.814L700.008,372.9C700.031,372.872 700.053,372.843 700.075,372.814Z"/>
            <path d="M700.227,448.216C700.404,449.585 701.287,450.627 702.349,450.627C703.538,450.627 704.504,449.32 704.504,447.71C704.504,446.814 704.183,445.56 703.455,444.299C702.629,442.867 701.156,441.148 700.533,440.057C698.697,436.846 695.831,433.651 693.145,430.424C690.834,427.645 688.629,424.892 687.727,421.941C687.272,420.453 686.011,419.745 684.912,420.36C683.813,420.976 683.289,422.683 683.744,424.171C684.651,427.136 686.51,430.048 688.722,432.862C691.586,436.506 695.067,440.028 697.123,443.626C697.562,444.393 698.376,445.456 699.148,446.526C699.552,447.086 700.088,447.982 700.227,448.216Z"/>
            <path d="M753.504,451.433C753.61,451.691 754.54,453.941 755.12,454.889C755.894,456.155 756.836,456.789 757.807,456.789C758.997,456.789 759.962,455.482 759.962,453.872C759.962,452.542 759.304,451.42 758.404,451.07C758.26,450.778 757.97,450.182 757.811,449.797C757.282,448.521 756.697,447.375 756.154,446.831C752.733,443.41 749.744,438.37 746.726,434.22C745.655,432.749 744.071,431.451 742.58,430.139C741.571,429.251 740.566,428.439 740.139,427.316C739.596,425.884 738.295,425.319 737.237,426.055C736.179,426.791 735.762,428.551 736.306,429.983C736.905,431.56 738.024,432.979 739.376,434.255C740.818,435.614 742.568,436.819 743.654,438.312C746.799,442.638 749.945,447.842 753.504,451.433Z"/>
            <path d="M674.313,473.65C674.096,473.192 673.782,472.811 673.389,472.571C672.512,472.035 671.861,472.379 671.471,472.666C670.886,473.097 670.22,473.904 670.359,475.56C670.365,475.626 670.399,476.311 670.885,477.188C671.602,478.478 675.571,485.195 676.795,486.785C680.844,492.049 684.695,499.117 689.037,503.46C689.994,504.417 691.345,504.142 692.052,502.847C692.759,501.553 692.556,499.725 691.599,498.768C687.395,494.564 683.701,487.675 679.781,482.579C678.649,481.108 674.994,474.877 674.331,473.683L674.313,473.65ZM673.428,477.861C672.912,478.194 672.302,478.248 671.734,477.954C672.479,478.353 673.052,478.115 673.428,477.861ZM673.532,477.79L673.527,477.794L673.532,477.79ZM674.653,475.051C674.737,476.547 674.144,477.316 673.594,477.742C673.965,477.448 674.275,477.001 674.466,476.43C674.615,475.982 674.674,475.51 674.653,475.051Z"/>
            <path d="M744.727,503.188C744.469,502.753 743.022,500.308 742.755,499.862C740.503,496.11 737.829,492.657 735.295,489.11C733.823,487.048 732.115,485.311 730.469,483.365C730.212,483.062 729.603,482.376 729.16,481.88C728.926,481.114 728.453,480.488 727.824,480.217C726.456,479.627 725.733,480.492 725.474,480.814C724.926,481.496 724.562,482.467 724.855,483.836C724.923,484.154 725.122,484.78 725.598,485.427C726.066,486.061 727.169,487.211 727.633,487.759C729.186,489.594 730.807,491.219 732.196,493.165C734.643,496.59 737.234,499.915 739.408,503.54C739.764,504.131 741.413,507.02 741.887,507.596C742.541,508.39 743.17,508.432 743.429,508.432C744.619,508.432 745.584,507.125 745.584,505.516C745.584,504.565 745.248,503.72 744.727,503.188Z"/>
            <path d="M789.635,395.559C796.329,403.527 800.423,414.727 807.583,421.886C808.54,422.843 809.89,422.569 810.597,421.274C811.304,419.979 811.101,418.152 810.145,417.195C803.083,410.133 799.084,399.037 792.481,391.179C791.588,390.116 790.225,390.234 789.44,391.443C788.654,392.652 788.741,394.496 789.635,395.559Z"/>
            <path d="M761.238,408.386C761.345,409.86 762.265,411.014 763.382,411.014C764.572,411.014 765.537,409.707 765.537,408.097C765.537,407.4 765.395,406.533 765.024,405.57C764.549,404.338 763.595,402.724 762.344,400.962C758.816,395.992 752.708,389.418 751.296,386.946C750.576,385.686 749.956,384.06 749.13,382.659C747.998,380.737 746.553,379.182 744.422,378.687C743.249,378.415 742.134,379.483 741.933,381.069C741.733,382.656 742.521,384.165 743.694,384.437C744.899,384.716 745.56,385.862 746.145,386.999C746.766,388.206 747.294,389.479 747.886,390.515C749.341,393.061 755.601,399.883 759.236,405.003C760.143,406.28 761.106,408.13 761.238,408.386Z"/>
            <path d="M645.555,492.496C645.345,492.231 644.701,491.409 644.26,490.748C643.158,489.099 642.02,487.199 641.654,486.712C638.424,482.405 636.753,477.356 633.388,473.15C632.25,471.727 631.043,470.529 630.011,469.219C629.247,468.248 628.578,467.225 628.252,465.838C627.892,464.304 626.679,463.455 625.545,463.943C624.412,464.431 623.784,466.073 624.145,467.607C624.702,469.978 625.754,471.812 627.062,473.472C628.101,474.793 629.316,476.001 630.464,477.435C633.793,481.596 635.433,486.606 638.629,490.868C639.167,491.585 641.395,495.385 642.697,496.881C643.558,497.87 644.386,498.162 644.837,498.162C646.026,498.162 646.992,496.855 646.992,495.246C646.992,493.977 646.392,492.896 645.555,492.496Z"/>
            <path d="M797.908,464.856C797.957,466.407 798.903,467.646 800.061,467.646C801.25,467.646 802.216,466.339 802.216,464.729C802.216,463.823 802.001,462.712 801.493,461.499C801,460.32 800.192,458.936 799.176,457.467C795.746,452.511 789.742,446.272 787.806,443.61C787.268,442.871 786.424,441.938 785.753,440.951C785.585,440.703 785.363,440.27 785.271,440.087C785.35,438.659 784.64,437.334 783.576,437.023C782.414,436.684 781.266,437.685 781.015,439.259C780.815,440.515 781.014,441.883 781.62,443.219C782.354,444.836 783.869,446.513 784.734,447.702C786.656,450.345 792.624,456.533 796.03,461.455C796.665,462.372 797.203,463.233 797.577,464.008C797.716,464.297 797.876,464.761 797.908,464.856Z"/>
            <path d="M772.934,487.523C773.196,487.924 774.006,489.16 774.222,489.437C775.782,491.443 775.773,491.178 777.596,493.131C778.553,494.156 786.297,504.472 787.837,507.064L787.86,507.105C788.213,508.065 788.945,508.726 789.791,508.726C790.98,508.726 791.946,507.419 791.946,505.809C791.946,505.517 791.871,504.544 791.196,503.408C789.554,500.645 781.292,489.65 780.272,488.557C778.612,486.779 778.611,487.035 777.191,485.208C776.865,484.79 775.736,483.04 775.526,482.838C774.297,481.659 773.3,482.515 772.94,482.889C772.51,483.336 772.041,484.067 772.098,485.384C772.136,486.261 772.457,487.025 772.934,487.523ZM775.435,487.648L775.428,487.655L775.435,487.648ZM775.523,487.566L775.5,487.588L775.51,487.579L775.523,487.566ZM775.596,487.49L775.58,487.507L775.587,487.5L775.596,487.49ZM776.138,486.617C776.302,486.231 776.43,485.721 776.401,485.044C776.426,485.612 776.328,486.152 776.138,486.617Z"/>
        </g>
        <g transform="matrix(1.35331,0,0,1,487.497,-175.614)">
            <g>
                <g transform="matrix(1,0,0,1,328.655,55.8738)">
                    <rect x="341.308" y="367.708" width="193.536" height="161.608" style="fill:rgb(38,217,59);"/>
                </g>
                <g transform="matrix(1.00812,0,0,1,-5.44014,0)">
                    <g transform="matrix(1,0,0,1,-115.438,-0.468391)">
                        <g transform="matrix(1.09064,0,0,0.899222,53.6441,139.124)">
                            <rect x="671.352" y="424.219" width="35.151" height="35.826"/>
                        </g>
                        <g transform="matrix(1.09064,0,0,0.899222,92.1466,171.524)">
                            <rect x="671.352" y="424.219" width="35.151" height="35.826"/>
                        </g>
                    </g>
                    <g transform="matrix(1,0,0,1,-38.7076,-0.169495)">
                        <g transform="matrix(1.09064,0,0,0.899222,-23.3609,74.3245)">
                            <rect x="671.352" y="424.219" width="35.151" height="35.826"/>
                        </g>
                        <g transform="matrix(1.09064,0,0,0.899222,15.1416,106.724)">
                            <rect x="671.352" y="424.219" width="35.151" height="35.826"/>
                        </g>
                        <g transform="matrix(1.09064,0,0,0.899222,53.6441,139.124)">
                            <rect x="671.352" y="424.219" width="35.151" height="35.826"/>
                        </g>
                        <g transform="matrix(1.09064,0,0,0.899222,92.1466,171.524)">
                            <rect x="671.352" y="424.219" width="35.151" height="35.826"/>
                        </g>
                    </g>
                    <g transform="matrix(1,0,0,1,38.0231,0.1294)">
                        <g transform="matrix(1.09064,0,0,0.899222,-62.0448,42.1021)">
                            <rect x="671.352" y="424.219" width="35.151" height="35.826"/>
                        </g>
                        <g transform="matrix(1.09064,0,0,0.899222,-23.3609,74.3245)">
                            <rect x="671.352" y="424.219" width="35.151" height="35.826"/>
                        </g>
                        <g transform="matrix(1.09064,0,0,0.899222,15.1416,106.724)">
                            <rect x="671.352" y="424.219" width="35.151" height="35.826"/>
                        </g>
                        <g transform="matrix(1.09064,0,0,0.899222,53.6441,139.124)">
                            <rect x="671.352" y="424.219" width="35.151" height="35.826"/>
                        </g>
                    </g>
                    <g transform="matrix(1,0,0,1,114.754,0.428295)">
                        <g transform="matrix(1.09064,0,0,0.899222,-62.0448,42.1021)">
                            <rect x="671.352" y="424.219" width="35.151" height="35.826"/>
                        </g>
                        <g transform="matrix(1.09064,0,0,0.899222,-23.3609,74.3245)">
                            <rect x="671.352" y="424.219" width="35.151" height="35.826"/>
                        </g>
                    </g>
                </g>
            </g>
            <path d="M707.059,424.122C706.904,434.06 705.518,444.978 706.206,455.31C706.589,461.052 707.485,466.55 707.485,472.425C707.485,485.106 706.599,497.926 707.495,510.465C708.405,523.205 705.621,536.051 706.42,548.833C706.884,556.257 705.83,563.949 706.651,571.333C707.16,575.921 708.128,580.663 708.128,585.274C708.128,586.883 709.094,588.19 710.284,588.19C711.473,588.19 712.439,586.883 712.439,585.274C712.439,580.379 711.454,575.337 710.913,570.466C710.106,563.205 711.171,555.642 710.715,548.341C709.915,535.537 712.697,522.667 711.785,509.904C710.903,497.55 711.795,484.919 711.795,472.425C711.795,466.371 710.894,460.702 710.499,454.786C709.825,444.668 711.216,433.977 711.369,424.246C711.394,422.636 710.449,421.302 709.259,421.268C708.07,421.234 707.084,422.513 707.059,424.122Z"/>
            <path d="M750.81,582.849C750.822,582.285 750.842,581.236 750.842,580.983C750.842,577.223 750.198,573.614 750.198,569.827C750.198,553.649 750.615,537.092 749.763,520.919C748.475,496.431 746.641,472.145 748.683,447.651C749.161,441.911 749.526,436.082 749.766,430.325C749.781,429.952 749.792,427.032 749.794,426.214C750.278,425.38 750.406,424.218 750.056,423.19C749.557,421.729 748.275,421.091 747.196,421.766C746.587,422.146 745.977,422.951 745.673,424.297C745.297,425.961 745.486,429.423 745.462,429.997C745.227,435.646 744.869,441.365 744.399,446.997C742.328,471.848 744.156,496.489 745.464,521.333C746.308,537.369 745.888,553.786 745.888,569.827C745.888,573.614 746.531,577.223 746.531,580.983C746.531,581.601 746.451,583.909 746.663,584.809C747.079,586.572 748.041,587.118 748.901,587.118C750.09,587.118 751.056,585.811 751.056,584.201C751.056,583.713 750.968,583.253 750.81,582.849ZM749.013,581.288C749.187,581.3 749.355,581.34 749.515,581.405C749.354,581.338 749.187,581.299 749.013,581.288ZM749.011,581.288C748.975,581.285 748.938,581.284 748.901,581.284L749.011,581.288Z"/>
            <path d="M788.263,583.044C788.245,582.821 788.17,581.863 788.199,581.276C788.299,579.281 788.53,577.203 788.347,575.924C787.095,567.16 786.885,555.939 788.132,547.21C789.879,534.982 788.244,521.489 787.302,509.239C785.982,492.076 786.241,475.024 786.241,457.837C786.241,450.438 787.478,443.219 787.74,435.88C787.787,434.571 787.609,432.449 787.572,430.354C787.557,429.523 787.566,428.697 787.649,427.96C787.691,427.581 787.722,427.227 787.853,426.982C788.553,425.681 788.341,423.855 787.38,422.907C786.418,421.96 785.069,422.247 784.369,423.549C783.661,424.865 783.303,426.902 783.261,429.151C783.218,431.493 783.488,434.103 783.435,435.598C783.169,443.031 781.93,450.343 781.93,457.837C781.93,475.226 781.679,492.478 783.015,509.843C783.915,521.542 785.569,534.424 783.9,546.103C782.557,555.505 782.767,567.592 784.115,577.031C784.178,577.471 784.103,578.072 784.052,578.732C783.968,579.824 783.864,581.009 783.867,582.106C783.874,584.457 784.42,586.445 785.594,587.619C786.55,588.576 787.901,588.302 788.608,587.007C789.287,585.763 789.126,584.026 788.263,583.044Z"/>
            <path d="M826.755,583.045L826.742,582.538C827.077,581.162 827.004,579.623 827.004,578.194L827.004,566.823C827.004,555.285 825.538,543.395 826.973,531.91C828.389,520.585 826.649,507.266 825.703,495.913C824.664,483.453 826.573,470.805 826.143,458.344C825.868,450.366 826.145,442.393 826.145,434.452C826.145,433.062 825.944,430.76 826.01,428.661C826.037,427.798 826.056,426.968 826.311,426.42C826.944,425.058 826.642,423.256 825.635,422.398C824.628,421.541 823.296,421.951 822.663,423.313C822.074,424.578 821.766,426.418 821.704,428.414C821.635,430.602 821.835,433.003 821.835,434.452C821.835,442.484 821.559,450.547 821.837,458.616C822.271,471.204 820.371,483.98 821.419,496.566C822.323,507.409 824.075,520.122 822.723,530.938C821.248,542.742 822.693,554.963 822.693,566.823L822.693,578.194C822.693,578.693 822.719,579.211 822.726,579.728C822.73,580.041 822.763,580.36 822.669,580.642C822.583,580.901 822.485,581.311 822.448,581.829C822.398,582.525 822.461,583.736 822.493,584.017C822.802,586.762 824.907,586.522 825.1,586.464C825.226,586.425 826.789,586.051 826.789,583.557C826.789,583.383 826.778,583.212 826.755,583.045ZM822.632,582.477C822.555,582.709 822.479,583.06 822.479,583.557C822.479,583.176 822.533,582.811 822.632,582.477Z"/>
            <path d="M675.911,452.508C675.692,452.545 675.529,452.56 675.314,452.56C674.124,452.56 673.158,453.867 673.158,455.477C673.158,457.086 674.124,458.393 675.314,458.393C675.724,458.393 676.036,458.366 676.453,458.295C677.633,458.092 678.47,456.631 678.32,455.034C678.17,453.437 677.091,452.305 675.911,452.508Z"/>
            <path d="M861.71,458.672C861.925,458.77 862.154,458.822 862.393,458.822C863.582,458.822 864.548,457.515 864.548,455.906C864.548,455.399 864.305,453.258 862.422,452.897C860.795,452.585 852.622,452.775 851.88,452.775C839.969,452.775 828.019,451.916 816.052,451.916C796.512,451.916 776.987,452.131 757.483,452.131C749.708,452.131 741.601,453.646 733.845,452.784C723.581,451.644 713.163,452.624 702.851,452.133C692.01,451.617 680.849,451.757 670.095,453.092C668.911,453.239 668.037,454.66 668.146,456.263C668.254,457.866 669.304,459.048 670.489,458.901C681.064,457.588 692.039,457.455 702.699,457.962C712.944,458.45 723.295,457.465 733.492,458.598C741.364,459.473 749.592,457.964 757.483,457.964C776.987,457.964 796.512,457.75 816.052,457.75C828.019,457.75 839.969,458.608 851.88,458.608C852.535,458.608 860.677,458.665 861.71,458.672ZM860.71,457.725C860.414,457.227 860.238,456.594 860.238,455.906C860.238,456.499 860.346,457.141 860.71,457.725Z"/>
            <path d="M670.655,484.535C669.949,484.386 669.204,484.714 668.699,485.495C667.646,487.124 668.117,488.496 668.345,489.057C668.624,489.746 669.186,490.625 670.342,490.61C670.63,490.606 671.338,490.384 672.156,490.019C672.607,489.817 673.477,489.528 673.596,489.489C676.905,490.12 680.015,490.574 683.466,490.574C692.396,490.574 701.295,490.886 710.225,491.217C718.544,491.525 727.177,492.412 735.491,491.858C740.871,491.499 746.168,490.388 751.548,490.144C771.555,489.234 791.726,489.716 811.761,489.716C823.068,489.716 834.337,489.655 845.559,490.357C847.257,490.463 847.135,490.454 848.763,490.57C849.69,490.637 850.617,490.713 851.544,490.784C852.165,490.832 859.314,491.266 860.577,491.343C861.528,491.984 862.708,491.588 863.32,490.365C863.839,489.327 863.831,488.307 863.446,487.317C863.287,486.907 862.897,486.111 861.95,485.745C860.595,485.222 852.54,485.018 851.788,484.96C850.856,484.889 849.923,484.812 848.99,484.745C847.348,484.628 847.471,484.637 845.758,484.53C834.47,483.824 823.135,483.883 811.761,483.883C791.678,483.883 771.458,483.402 751.403,484.314C746,484.559 740.681,485.672 735.279,486.032C727.073,486.579 718.553,485.69 710.343,485.386C701.373,485.054 692.435,484.741 683.466,484.741C680.196,484.741 677.252,484.297 674.113,483.697C673.665,483.611 673.07,483.656 672.425,483.847C671.921,483.996 671.177,484.306 670.655,484.535ZM859.685,487.234C859.364,487.94 859.295,488.637 859.425,489.321C859.319,488.627 859.398,487.882 859.685,487.234ZM672.032,489.188L672.02,489.211L672.023,489.206L672.032,489.188Z"/>
            <path d="M861.241,522.732C862.186,523.544 863.45,523.239 864.126,522.001C864.833,520.707 864.63,518.879 863.674,517.922C863.094,517.343 861.906,516.83 860.409,516.665C858.066,516.407 854.731,516.708 853.597,516.708L826.136,516.708C788.348,516.708 750.549,516.279 712.858,516.279C703.411,516.279 693.988,517.137 684.539,517.137C682.428,517.137 677.783,516.276 674.264,516.489C672.347,516.606 670.71,517.088 669.685,517.906C668.661,518.724 668.319,520.513 668.923,521.9C669.527,523.286 670.85,523.748 671.874,522.931C672.704,522.269 674.229,522.264 675.889,522.289C679.095,522.337 682.741,522.97 684.539,522.97C693.988,522.97 703.411,522.112 712.858,522.112C750.549,522.112 788.348,522.541 826.136,522.541L853.597,522.541C854.533,522.541 857.023,522.318 859.136,522.411C859.941,522.446 861.09,522.698 861.241,522.732Z"/>
            <path d="M672.753,554.672C672.834,554.649 672.975,554.614 673.069,554.605C673.355,554.58 673.663,554.6 673.983,554.631C674.972,554.728 676.041,554.937 677.03,554.937C683.475,554.937 689.852,555.143 696.284,555.365C726.226,556.397 756.205,554.062 786.162,555.364C805.676,556.213 825.422,554.937 845.015,554.937C849.542,554.937 853.84,554.69 858.372,555.143C858.983,555.204 861.536,555.322 861.881,555.337C861.978,555.356 862.077,555.366 862.178,555.366C863.368,555.366 864.334,554.059 864.334,552.449C864.334,552.262 864.18,549.737 862.272,549.525C861.791,549.472 859.352,549.392 858.69,549.326C854.05,548.862 849.65,549.103 845.015,549.103C825.468,549.103 805.769,550.38 786.3,549.534C756.334,548.231 726.345,550.566 696.393,549.533C689.926,549.31 683.512,549.103 677.03,549.103C675.559,549.103 673.91,548.646 672.613,548.803C671.003,548.997 669.758,549.894 669.018,551.767C668.457,553.186 668.853,554.955 669.901,555.714C670.911,556.446 672.161,555.976 672.753,554.672Z"/>
        </g>
        <g transform="matrix(1.31127,0,0,1,554.77,456.892)">
            <g>
                <g transform="matrix(1,0,0,1,302.993,-94.7246)">
                    <rect x="341.308" y="367.708" width="193.536" height="161.608" style="fill:rgb(242,13,13);"/>
                </g>
                <g transform="matrix(1.58888,0,0,1,-379.572,0)">
                    <g>
                        <g>
                            <g>
                                <g transform="matrix(1,0,0,1,-3.39689,-1.38091)">
                                    <g transform="matrix(0.572004,0.568852,-0.562398,0.565514,522.678,-347.513)">
                                        <rect x="671.352" y="424.219" width="35.151" height="35.826"/>
                                    </g>
                                    <g transform="matrix(0.572004,0.568852,-0.562398,0.565514,522.814,-307.072)">
                                        <rect x="671.352" y="424.219" width="35.151" height="35.826"/>
                                    </g>
                                    <g transform="matrix(0.572004,0.568852,-0.562398,0.565514,522.744,-266.614)">
                                        <rect x="671.352" y="424.219" width="35.151" height="35.826"/>
                                    </g>
                                    <g transform="matrix(0.572004,0.568852,-0.562398,0.565514,522.673,-226.156)">
                                        <rect x="671.352" y="424.219" width="35.151" height="35.826"/>
                                    </g>
                                </g>
                                <g transform="matrix(1,0,0,1,-3.39689,-1.38091)">
                                    <g transform="matrix(0.572004,0.568852,-0.562398,0.565514,522.678,-347.513)">
                                        <rect x="671.352" y="424.219" width="35.151" height="35.826"/>
                                    </g>
                                    <g transform="matrix(0.572004,0.568852,-0.562398,0.565514,522.814,-307.072)">
                                        <rect x="671.352" y="424.219" width="35.151" height="35.826"/>
                                    </g>
                                    <g transform="matrix(0.572004,0.568852,-0.562398,0.565514,522.744,-266.614)">
                                        <rect x="671.352" y="424.219" width="35.151" height="35.826"/>
                                    </g>
                                    <g transform="matrix(0.572004,0.568852,-0.562398,0.565514,522.673,-226.156)">
                                        <rect x="671.352" y="424.219" width="35.151" height="35.826"/>
                                    </g>
                                </g>
                                <g transform="matrix(1,0,0,1,37.2481,-1.31676)">
                                    <g transform="matrix(0.572004,0.568852,-0.562398,0.565514,522.678,-347.513)">
                                        <rect x="671.352" y="424.219" width="35.151" height="35.826"/>
                                    </g>
                                    <g transform="matrix(0.572004,0.568852,-0.562398,0.565514,522.814,-307.072)">
                                        <rect x="671.352" y="424.219" width="35.151" height="35.826"/>
                                    </g>
                                    <g transform="matrix(0.572004,0.568852,-0.562398,0.565514,522.744,-266.614)">
                                        <rect x="671.352" y="424.219" width="35.151" height="35.826"/>
                                    </g>
                                    <g transform="matrix(0.572004,0.568852,-0.562398,0.565514,522.673,-226.156)">
                                        <rect x="671.352" y="424.219" width="35.151" height="35.826"/>
                                    </g>
                                </g>
                                <g transform="matrix(1,0,0,1,77.8932,-1.25261)">
                                    <g transform="matrix(0.572004,0.568852,-0.562398,0.565514,522.678,-347.513)">
                                        <rect x="671.352" y="424.219" width="35.151" height="35.826"/>
                                    </g>
                                    <g transform="matrix(0.572004,0.568852,-0.562398,0.565514,522.814,-307.072)">
                                        <rect x="671.352" y="424.219" width="35.151" height="35.826"/>
                                    </g>
                                    <g transform="matrix(0.572004,0.568852,-0.562398,0.565514,522.744,-266.614)">
                                        <rect x="671.352" y="424.219" width="35.151" height="35.826"/>
                                    </g>
                                    <g transform="matrix(0.572004,0.568852,-0.562398,0.565514,522.673,-226.156)">
                                        <rect x="671.352" y="424.219" width="35.151" height="35.826"/>
                                    </g>
                                </g>
                                <g transform="matrix(0.629373,0,0,1,238.893,0)">
                                    <path d="M835.024,292.358C834.68,292.522 834.255,292.745 834.085,292.915C832.707,294.293 830.34,295.559 828.619,297.034C820.431,304.052 809.629,307.244 800.809,313.35C797.276,315.795 793.208,317.229 789.644,319.605C775.243,329.206 760.164,337.345 745.569,346.727C736.745,352.4 728.885,359.721 719.99,365.195C708.909,372.014 696.973,377.916 686.432,385.645C677.29,392.349 667.024,397.45 657.532,403.553C654.159,405.721 650.546,407.437 647.274,409.883C647.17,409.928 645.754,410.542 645.02,410.909C644.346,411.246 643.807,411.644 643.517,411.962C642.689,412.871 642.545,413.945 642.616,414.784C642.678,415.503 642.904,416.301 643.59,416.966C644.578,417.922 645.971,417.648 646.701,416.353L646.701,416.353C647.491,415.993 649.062,415.261 649.438,414.98C652.64,412.578 656.186,410.915 659.49,408.791C669.054,402.642 679.393,397.491 688.603,390.737C699.054,383.073 710.893,377.237 721.879,370.476C730.798,364.988 738.681,357.652 747.528,351.965C762.142,342.57 777.24,334.418 791.66,324.805C795.244,322.416 799.334,320.968 802.886,318.508C811.825,312.32 822.754,309.03 831.053,301.916C832.762,300.452 835.065,299.152 836.535,297.791C836.889,297.635 837.585,297.307 837.857,297.028C838.486,296.383 838.846,295.524 838.846,294.386C838.846,292.776 837.849,291.47 836.621,291.47C835.995,291.47 835.428,291.81 835.024,292.358ZM646.415,412.47C646.54,412.62 646.65,412.787 646.744,412.966C646.658,412.795 646.55,412.628 646.415,412.47ZM646.335,412.379L646.402,412.454L646.356,412.401L646.335,412.379ZM834.404,294.174L834.403,294.183L834.404,294.174Z"/>
                                </g>
                                <g transform="matrix(0.629373,0,0,1,238.893,0)">
                                    <path d="M833.783,333.271C832.275,334.392 830.494,335.049 828.812,335.966C820.953,340.254 813.846,345.807 805.899,350.223C782.343,363.309 760.641,379.587 737.789,393.87C729.617,398.977 722.62,404.923 714.137,409.589C704.504,414.887 694.495,419.508 685.322,425.624C684.088,426.446 678.714,429.107 676.865,431.149C675.492,432.665 675.313,434.405 675.617,435.614C676.002,437.142 677.26,437.974 678.426,437.47C679.164,437.151 679.689,436.373 679.877,435.457C681.651,433.663 686.267,431.538 687.338,430.823C696.416,424.772 706.325,420.211 715.858,414.968C724.408,410.265 731.466,404.284 739.703,399.136C762.496,384.89 784.139,368.647 807.634,355.594C815.573,351.184 822.67,345.635 830.521,341.352C832.39,340.333 834.357,339.562 836.03,338.307C836.204,338.177 836.94,337.48 837.166,337.265C837.955,336.816 838.507,335.786 838.507,334.588C838.507,332.979 837.51,331.672 836.282,331.672C836.054,331.672 835.712,331.715 835.307,331.95C835.009,332.123 833.934,333.129 833.783,333.271Z"/>
                                </g>
                                <g transform="matrix(0.629373,0,0,1,238.893,0)">
                                    <path d="M739.426,434.42C738.842,435.706 739.097,437.389 740.041,438.278C741.038,439.217 742.429,438.917 743.145,437.61C743.417,437.114 743.677,436.042 743.796,435.504C745.957,433.492 749.042,432.031 751.398,430.236C756.841,426.09 762.646,422.975 768.496,419.517C783.98,410.368 799.316,400.842 815.085,392.241C820.43,389.325 826.437,386.091 831.393,382.622C832.295,381.991 834.207,380.116 835.92,378.709C836.534,378.204 837.486,377.612 837.618,377.53C838.777,377.431 839.694,376.165 839.694,374.621C839.694,373.011 838.697,371.704 837.47,371.704C836.778,371.704 835.668,372.16 834.454,373.062C832.64,374.41 830.311,376.767 829.298,377.476C824.46,380.862 818.594,384.009 813.376,386.855C797.567,395.478 782.192,405.027 766.669,414.199C760.677,417.74 754.737,420.946 749.163,425.193C746.54,427.191 743.091,428.861 740.789,431.163C740.266,431.686 739.916,432.365 739.693,433.159C739.594,433.511 739.465,434.207 739.426,434.42Z"/>
                                </g>
                                <g transform="matrix(0.629373,0,0,1,238.893,0)">
                                    <path d="M646.172,371.544C645.967,371.338 645.731,371.175 645.469,371.07C644.228,370.573 643.568,371.277 643.456,371.372C642.804,371.928 642.512,372.692 642.453,373.559C642.436,373.809 642.325,375.482 643.689,376.456C644.172,376.802 646.611,378.167 647.043,378.497C649.462,380.347 651.566,382.14 654.11,383.836C660.89,388.356 666.658,394.081 673.7,398.307C685.746,405.534 697.179,414.064 709.337,421.216C712.8,423.252 716.739,424.655 720.147,426.785C724.861,429.732 729.826,432.243 734.832,434.388C735.588,434.712 736.437,435.596 737.293,436.216C738.309,436.952 739.34,437.416 740.272,437.416C741.5,437.416 742.497,436.11 742.497,434.5C742.497,432.89 741.5,431.583 740.272,431.583C739.865,431.583 739.464,431.137 739.02,430.788C738.049,430.026 737.071,429.211 736.214,428.844C731.39,426.776 726.604,424.359 722.061,421.519C718.623,419.371 714.651,417.948 711.158,415.893C699.01,408.747 687.587,400.224 675.551,393.003C668.566,388.811 662.851,383.119 656.127,378.636C653.663,376.994 651.627,375.25 649.284,373.458C648.932,373.189 646.984,372.026 646.172,371.544ZM645.023,376.764C644.744,376.799 644.455,376.763 644.17,376.65C644.504,376.783 644.788,376.803 645.023,376.764Z"/>
                                </g>
                                <g transform="matrix(0.629373,0,0,1,238.893,0)">
                                    <path d="M804.893,431.023C804.691,430.9 803.319,430.067 801.431,428.893C780.359,415.797 673.841,348.771 650.714,334.189C648.153,332.575 646.34,331.427 646.34,331.427L646.373,331.451C645.908,331.12 645.352,331.005 644.798,331.179C644.761,331.19 641.848,335.035 644.382,336.664C644.662,336.844 646.207,337.821 648.786,339.447C671.917,354.031 778.45,421.066 799.525,434.164C801.692,435.511 802.981,436.3 803.217,436.428C803.955,436.829 804.433,436.638 804.507,436.62C805.153,436.465 805.545,436.037 805.803,435.637C806.142,435.112 806.331,434.49 806.331,433.751C806.331,432.504 805.733,431.44 804.893,431.023ZM647.309,335.305C647.043,336.011 646.563,336.572 645.95,336.81C646.684,336.534 647.069,335.925 647.296,335.341L647.309,335.305ZM646.51,331.557C647.541,332.401 647.623,333.584 647.519,334.405C647.555,334.058 647.544,333.697 647.478,333.337C647.339,332.571 646.98,331.949 646.51,331.557ZM646.412,331.48L646.474,331.527L646.458,331.513L646.412,331.48Z"/>
                                </g>
                                <g transform="matrix(0.629373,0,0,1,238.893,0)">
                                    <path d="M646.614,296.647C647.121,296.874 647.993,297.267 648.436,297.473C652.212,299.235 655.718,301.912 659.623,303.307C664.73,305.131 669.02,309.64 673.448,312.592C677.047,314.991 681.27,316.508 684.757,318.999C690.734,323.268 696.654,327.837 702.794,331.93C709.342,336.295 715.484,341.397 722.161,345.689C736.02,354.598 751.331,361.043 764.832,370.573C776.804,379.024 788.373,388.093 800.694,396.065C809.89,402.016 819.411,407.376 828.982,412.597C829.925,413.111 831.505,414.491 833.004,415.502C834.412,416.452 835.796,417.061 836.791,417.061C838.019,417.061 839.015,415.754 839.015,414.144C839.015,412.535 838.019,411.228 836.791,411.228C836.318,411.228 835.708,410.766 835.039,410.314C833.423,409.225 831.708,407.765 830.691,407.211C821.208,402.038 811.774,396.73 802.662,390.834C790.39,382.893 778.867,373.855 766.941,365.437C753.391,355.873 738.028,349.392 724.119,340.451C717.462,336.171 711.339,331.083 704.81,326.73C698.708,322.662 692.825,318.119 686.885,313.877C683.362,311.36 679.099,309.816 675.464,307.392C670.778,304.268 666.196,299.609 660.792,297.679C656.996,296.323 653.597,293.69 649.927,291.978C649.165,291.622 648.071,291.022 647.216,290.786C646.458,290.577 645.788,290.618 645.299,290.807C644.321,291.185 643.671,292.018 643.422,293.384C643.137,294.95 643.874,296.525 645.068,296.899C645.611,297.07 646.155,296.962 646.614,296.647ZM647.726,294.855C647.734,294.818 647.742,294.78 647.749,294.741L647.726,294.855Z"/>
                                </g>
                                <g transform="matrix(0.629373,0,0,1,238.893,0)">
                                    <path d="M647.563,376.248C649.279,374.75 653.508,373.052 654.625,372.285C659.702,368.794 664.22,364.819 668.999,360.996C672.625,358.095 676.804,356.408 680.584,353.791C691.632,346.142 703.311,339.957 715.026,333.367C723.547,328.574 732.374,322.263 740.058,316.226C749.856,308.528 762.321,303.912 772.802,297.175C780.636,292.139 789.428,288.598 796.975,283.208C799.199,281.619 801.634,280.173 803.992,278.699C804.378,278.458 805.202,277.772 805.419,277.59C806.481,277.371 807.295,276.163 807.295,274.709C807.295,273.099 806.298,271.793 805.07,271.793C804.605,271.793 804.066,271.955 803.515,272.308C803.037,272.613 802.507,273.165 802.078,273.433C799.647,274.952 797.139,276.447 794.846,278.085C787.355,283.436 778.621,286.937 770.844,291.937C760.254,298.745 747.671,303.444 737.772,311.222C730.251,317.132 721.613,323.315 713.272,328.006C701.446,334.659 689.659,340.912 678.507,348.633C674.646,351.305 670.386,353.053 666.682,356.016C661.985,359.774 657.549,363.688 652.559,367.118C651.303,367.982 646.458,370.053 644.74,371.72C643.334,373.084 643.113,374.767 643.34,375.913C643.648,377.472 644.863,378.408 646.052,378.004C646.767,377.761 647.311,377.086 647.563,376.248Z"/>
                                </g>
                                <g transform="matrix(0.629373,0,0,1,238.893,0)">
                                    <path d="M677.373,276.077C677.99,276.513 681.957,279.317 682.306,279.538C685.934,281.847 689.058,285.05 692.539,287.602C698.898,292.266 706.378,296.12 713.282,299.955C718.307,302.748 722.435,307.235 727.694,309.536C731.933,311.39 735.696,313.912 739.773,316.086C745.433,319.105 751.304,321.541 756.47,325.416C761.901,329.489 766.562,335.079 772.727,338.162C784.199,343.898 795.084,350.572 806.438,356.628C816.539,362.015 827.253,367.733 835.442,375.922C836.418,376.898 837.815,376.652 838.56,375.372C839.304,374.092 839.116,372.26 838.14,371.284C829.655,362.799 818.58,356.806 808.114,351.224C796.729,345.153 785.814,338.462 774.312,332.711C768.37,329.74 763.913,324.278 758.679,320.352C753.344,316.351 747.294,313.8 741.449,310.683C737.283,308.461 733.433,305.897 729.102,304.002C723.956,301.751 719.935,297.316 715.017,294.584C708.261,290.831 700.934,287.075 694.71,282.511C691.154,279.903 687.955,276.649 684.248,274.29C683.854,274.04 679.816,271.085 679.02,270.645C677.484,269.796 676.519,271.114 676.365,271.34C675.989,271.893 675.763,272.582 675.803,273.458C675.858,274.709 676.509,275.731 677.373,276.077ZM679.813,275.018C679.587,275.419 679.285,275.742 678.932,275.949C679.331,275.726 679.61,275.386 679.813,275.018ZM679.859,274.933L679.859,274.933L679.859,274.933ZM680.076,274.41L680.048,274.493L680.062,274.456L680.076,274.41ZM680.247,273.276C680.249,273.659 680.193,274.027 680.09,274.365C680.192,274.04 680.25,273.679 680.247,273.276ZM680.247,273.263C680.247,273.215 680.246,273.167 680.244,273.117L680.247,273.263Z"/>
                                </g>
                                <g transform="matrix(0.629373,0,0,1,238.893,0)">
                                    <path d="M744.572,272.574C744.448,272.423 744.307,272.29 744.153,272.177C742.694,271.112 741.787,271.848 741.745,271.875C740.928,272.403 740.535,273.26 740.506,274.394C740.496,274.782 740.49,275.611 741.096,276.473C741.149,276.548 741.237,276.666 741.372,276.804C741.567,277.004 744.07,278.997 744.387,279.247C746.663,281.035 749.061,282.652 751.314,284.483C758.17,290.053 765.107,293.387 772.897,297.281C785.755,303.71 798.696,310.822 809.814,320.087C813.002,322.743 817.908,323.695 821.309,326.124C826.337,329.716 831.679,333.373 837.186,336.126C838.333,336.7 839.619,335.944 840.057,334.44C840.494,332.936 839.918,331.249 838.771,330.676C833.451,328.016 828.295,324.471 823.437,321.001C820.118,318.63 815.312,317.757 812.201,315.164C800.838,305.695 787.622,298.401 774.482,291.831C766.97,288.075 760.269,284.896 753.657,279.524C751.386,277.679 748.969,276.046 746.674,274.243C746.475,274.086 745.319,273.176 744.572,272.574Z"/>
                                </g>
                            </g>
                        </g>
                    </g>
                </g>
            </g>
        </g>
        <g transform="matrix(1.35331,0,0,1,111.505,143.14)">
            <g transform="matrix(1,0,0,1,606.861,54.8547)">
                <rect x="341.308" y="367.708" width="193.536" height="161.608" style="fill:rgb(38,123,217);"/>
            </g>
            <g transform="matrix(0.999111,0,0,0.999111,-54.0189,0.214314)">
                <g transform="matrix(1,0,0,1.15861,-94.5943,-93.8252)">
                    <path d="M1097.24,543.981C1105.02,544.296 1110.86,546.9 1114.99,550.795C1124.35,559.612 1124.91,574.93 1119.8,583.116C1119.1,584.239 1119.31,585.817 1120.28,586.636C1121.24,587.455 1122.59,587.207 1123.29,586.084C1129.48,576.165 1129.04,557.556 1117.7,546.872C1112.96,542.409 1106.31,539.306 1097.39,538.944C1096.2,538.896 1095.2,539.985 1095.16,541.375C1095.12,542.765 1096.05,543.932 1097.24,543.981Z"/>
                </g>
                <g transform="matrix(1,0,0,1.15861,-70.0826,-93.8987)">
                    <path d="M1073.28,538.586C1080.13,542.402 1088.77,543.637 1097.24,543.981C1105.02,544.296 1110.86,546.9 1114.99,550.795C1124.35,559.612 1124.91,574.93 1119.8,583.116C1119.1,584.239 1119.31,585.817 1120.28,586.636C1121.24,587.455 1122.59,587.207 1123.29,586.084C1129.48,576.165 1129.04,557.556 1117.7,546.872C1112.96,542.409 1106.31,539.306 1097.39,538.944C1089.53,538.626 1081.5,537.579 1075.14,534.038C1074.07,533.439 1072.78,533.972 1072.27,535.227C1071.75,536.482 1072.21,537.987 1073.28,538.586Z"/>
                </g>
                <g transform="matrix(1,0,0,1.15861,-45.571,-93.9722)">
                    <path d="M1048.44,486.925C1054.58,491.548 1059.01,499.01 1059.05,510.686C1059.15,537.967 1078.46,543.22 1097.24,543.981C1105.02,544.296 1110.86,546.9 1114.99,550.795C1124.35,559.612 1124.91,574.93 1119.8,583.116C1119.1,584.239 1119.31,585.817 1120.28,586.636C1121.24,587.455 1122.59,587.207 1123.29,586.084C1129.48,576.165 1129.04,557.556 1117.7,546.872C1112.96,542.409 1106.31,539.306 1097.39,538.944C1080.93,538.277 1063.46,534.571 1063.37,510.665C1063.32,496.896 1058.02,488.142 1050.78,482.69C1049.78,481.936 1048.44,482.273 1047.8,483.442C1047.15,484.611 1047.44,486.171 1048.44,486.925Z"/>
                </g>
                <g transform="matrix(1,0,0,1.15861,-21.0593,-94.0458)">
                    <path d="M1023.27,479.78C1037.21,479.67 1058.96,484.736 1059.05,510.686C1059.15,537.967 1078.46,543.22 1097.24,543.981C1105.02,544.296 1110.86,546.9 1114.99,550.795C1124.35,559.612 1124.91,574.93 1119.8,583.116C1119.1,584.239 1119.31,585.817 1120.28,586.636C1121.24,587.455 1122.59,587.207 1123.29,586.084C1129.48,576.165 1129.04,557.556 1117.7,546.872C1112.96,542.409 1106.31,539.306 1097.39,538.944C1080.93,538.277 1063.46,534.571 1063.37,510.665C1063.26,481.184 1039.08,474.616 1023.24,474.741C1022.05,474.75 1021.09,475.887 1021.1,477.278C1021.11,478.668 1022.08,479.79 1023.27,479.78Z"/>
                </g>
                <g transform="matrix(1,0,0,1.15861,3.4523,-94.1193)">
                    <path d="M1000.8,473.432C1006.04,477.231 1013.29,479.859 1023.27,479.78C1037.21,479.67 1058.96,484.736 1059.05,510.686C1059.15,537.967 1078.46,543.22 1097.24,543.981C1105.02,544.296 1110.86,546.9 1114.99,550.795C1124.35,559.612 1124.91,574.93 1119.8,583.116C1119.1,584.239 1119.31,585.817 1120.28,586.636C1121.24,587.455 1122.59,587.207 1123.29,586.084C1129.48,576.165 1129.04,557.556 1117.7,546.872C1112.96,542.409 1106.31,539.306 1097.39,538.944C1080.93,538.277 1063.46,534.571 1063.37,510.665C1063.26,481.184 1039.08,474.616 1023.24,474.741C1014.29,474.812 1007.77,472.555 1003.07,469.15C1002.06,468.417 1000.73,468.781 1000.1,469.963C999.476,471.145 999.788,472.699 1000.8,473.432Z"/>
                </g>
                <g transform="matrix(1,0,0,1.15861,27.9639,-94.1928)">
                    <path d="M987.603,445.406C987.293,450.283 988.816,461.861 997.111,470.265C1002.48,475.704 1010.72,479.879 1023.27,479.78C1037.21,479.67 1058.96,484.736 1059.05,510.686C1059.15,537.967 1078.46,543.22 1097.24,543.981C1105.02,544.296 1110.86,546.9 1114.99,550.795C1124.35,559.612 1124.91,574.93 1119.8,583.116C1119.1,584.239 1119.31,585.817 1120.28,586.636C1121.24,587.455 1122.59,587.207 1123.29,586.084C1129.48,576.165 1129.04,557.556 1117.7,546.872C1112.96,542.409 1106.31,539.306 1097.39,538.944C1080.93,538.277 1063.46,534.571 1063.37,510.665C1063.26,481.184 1039.08,474.616 1023.24,474.741C1012.08,474.829 1004.71,471.293 999.938,466.458C993.02,459.449 991.647,449.847 991.906,445.78C991.994,444.393 991.102,443.183 989.915,443.08C988.727,442.977 987.692,444.019 987.603,445.406Z"/>
                </g>
                <g transform="matrix(1,0,0,1.15861,52.4756,-94.2663)">
                    <path d="M987.603,445.406C987.293,450.283 988.816,461.861 997.111,470.265C1002.48,475.704 1010.72,479.879 1023.27,479.78C1037.21,479.67 1058.96,484.736 1059.05,510.686C1059.15,537.967 1078.46,543.22 1097.24,543.981C1105.02,544.296 1110.86,546.9 1114.99,550.795C1124.35,559.612 1124.91,574.93 1119.8,583.116C1119.1,584.239 1119.31,585.817 1120.28,586.636C1121.24,587.455 1122.59,587.207 1123.29,586.084C1129.48,576.165 1129.04,557.556 1117.7,546.872C1112.96,542.409 1106.31,539.306 1097.39,538.944C1080.93,538.277 1063.46,534.571 1063.37,510.665C1063.26,481.184 1039.08,474.616 1023.24,474.741C1012.08,474.829 1004.71,471.293 999.938,466.458C993.02,459.449 991.647,449.847 991.906,445.78C991.994,444.393 991.102,443.183 989.915,443.08C988.727,442.977 987.692,444.019 987.603,445.406Z"/>
                </g>
                <g transform="matrix(1,0,0,1.15861,76.9872,-94.3398)">
                    <path d="M987.603,445.406C987.293,450.283 988.816,461.861 997.111,470.265C1002.48,475.704 1010.72,479.879 1023.27,479.78C1037.21,479.67 1058.96,484.736 1059.05,510.686C1059.15,537.967 1078.46,543.22 1097.24,543.981C1105.68,544.323 1111.83,547.36 1116,551.807C1116.88,552.744 1118.25,552.671 1119.05,551.644C1119.85,550.617 1119.79,549.022 1118.91,548.085C1114.12,542.973 1107.09,539.337 1097.39,538.944C1080.93,538.277 1063.46,534.571 1063.37,510.665C1063.26,481.184 1039.08,474.616 1023.24,474.741C1012.08,474.829 1004.71,471.293 999.938,466.458C993.02,459.449 991.647,449.847 991.906,445.78C991.994,444.393 991.102,443.183 989.915,443.08C988.727,442.977 987.692,444.019 987.603,445.406Z"/>
                </g>
                <g transform="matrix(1,0,0,1.15861,101.499,-94.4133)">
                    <path d="M987.603,445.406C987.293,450.283 988.816,461.861 997.111,470.265C1002.48,475.704 1010.72,479.879 1023.27,479.78C1037.21,479.67 1058.96,484.736 1059.05,510.686C1059.09,519.015 1060.9,525.248 1063.88,529.937C1070.63,540.59 1083.7,543.271 1096.72,543.798C1097.91,543.847 1098.91,542.757 1098.95,541.368C1098.99,539.978 1098.06,538.81 1096.87,538.762C1080.43,538.096 1063.46,534.55 1063.37,510.665C1063.26,481.184 1039.08,474.616 1023.24,474.741C1012.08,474.829 1004.71,471.293 999.938,466.458C993.02,459.449 991.647,449.847 991.906,445.78C991.994,444.393 991.102,443.183 989.915,443.08C988.727,442.977 987.692,444.019 987.603,445.406Z"/>
                </g>
                <g transform="matrix(1,0,0,1.15861,126.011,-94.4868)">
                    <path d="M987.603,445.406C987.293,450.283 988.816,461.861 997.111,470.265C1002.48,475.704 1010.72,479.879 1023.27,479.78C1037.21,479.67 1058.96,484.736 1059.05,510.686C1059.1,522.755 1062.95,530.477 1068.78,535.465C1069.74,536.288 1071.09,536.045 1071.79,534.923C1072.5,533.802 1072.29,532.224 1071.33,531.401C1066.47,527.242 1063.4,520.727 1063.37,510.665C1063.26,481.184 1039.08,474.616 1023.24,474.741C1012.08,474.829 1004.71,471.293 999.938,466.458C993.02,459.449 991.647,449.847 991.906,445.78C991.994,444.393 991.102,443.183 989.915,443.08C988.727,442.977 987.692,444.019 987.603,445.406Z"/>
                </g>
                <g transform="matrix(1,0,0,1.15861,150.522,-94.5603)">
                    <path d="M987.603,445.406C987.293,450.283 988.816,461.861 997.111,470.265C1002.48,475.704 1010.72,479.879 1023.27,479.78C1029.6,479.73 1037.45,480.775 1044.24,484.293C1045.33,484.856 1046.6,484.282 1047.08,483.011C1047.57,481.74 1047.08,480.25 1045.99,479.686C1038.62,475.869 1030.11,474.687 1023.24,474.741C1012.08,474.829 1004.71,471.293 999.938,466.458C993.02,459.449 991.647,449.847 991.906,445.78C991.994,444.393 991.102,443.183 989.915,443.08C988.727,442.977 987.692,444.019 987.603,445.406Z"/>
                </g>
                <g transform="matrix(1,0,0,1.15861,175.034,-94.6338)">
                    <path d="M987.603,445.406C987.293,450.284 988.458,461.762 996.442,470.1C1001.62,475.506 1009.7,479.665 1022.28,479.566C1023.47,479.556 1024.43,478.42 1024.42,477.029C1024.41,475.639 1023.44,474.517 1022.25,474.527C1011.11,474.614 1003.9,471.131 999.317,466.344C992.662,459.393 991.647,449.846 991.906,445.78C991.994,444.393 991.102,443.183 989.915,443.08C988.727,442.977 987.692,444.019 987.603,445.406Z"/>
                </g>
            </g>
        </g>
        <g transform="matrix(1.35326,0.0117627,-0.00869181,0.999962,935.449,-126.863)">
            <g>
                <g transform="matrix(1,0,0,1,-81.1125,3.24965)">
                    <g transform="matrix(0.99914,0.0414579,-0.0414579,0.99914,27.0201,-21.0006)">
                        <path d="M613.912,232.34C613.743,232.422 613.559,232.5 613.39,232.551C612.384,232.856 611.089,233.002 609.461,233.002C607.506,233.002 605.959,235.148 606.009,237.791C606.058,240.435 607.686,242.581 609.641,242.581C613.225,242.581 615.691,241.909 617.296,240.954C619.058,239.906 620.093,238.431 620.682,236.872C621.915,233.606 621.181,228.888 618.292,224.328C614.486,218.322 607.137,211.944 603.896,210.323C601.461,209.106 593.425,208.549 581.943,208.797C538.763,209.727 443.816,219.383 427.319,219.383C414.763,219.383 403.824,218.28 395.831,220.351C391.155,221.562 387.386,223.844 384.63,227.596C381.832,231.406 379.998,236.769 379.547,244.468C379.393,247.097 380.851,249.455 382.801,249.73C384.75,250.005 386.458,248.094 386.612,245.465C386.904,240.477 387.909,236.9 389.722,234.432C391.577,231.907 394.187,230.576 397.335,229.761C404.991,227.778 415.473,228.963 427.5,228.963C444.008,228.963 539.025,219.306 582.236,218.375C592.354,218.157 599.442,218.225 601.588,219.298C604.155,220.582 609.945,225.694 612.959,230.452C613.299,230.989 613.663,231.768 613.912,232.34Z"/>
                    </g>
                    <g transform="matrix(0.99914,0.0414579,-0.0414579,0.99914,27.0201,-21.0006)">
                        <path d="M393.26,257.333C393.239,257.687 393.226,257.975 393.226,258.097C393.226,289.639 407.458,719.093 422.442,917.482C426.246,967.837 430.218,1003.51 433.902,1014.56C437.138,1024.27 444.499,1032.42 454.922,1038.68C469.384,1047.37 489.907,1052.68 512.282,1054.89C551.09,1058.72 595.489,1053.3 623.034,1040.94C635.609,1035.3 644.756,1028.01 648.852,1019.82C650.222,1017.08 651.415,1011.6 652.145,1003.59C653.642,987.164 653.713,958.957 652.729,922.781C648.269,758.893 622.343,429.962 613.595,297.13C612.072,274.004 611.07,256.853 610.8,247.602C610.705,244.338 610.631,242.266 610.77,241.516C611.241,238.968 610.083,236.328 608.185,235.626C606.287,234.924 604.363,236.423 603.892,238.971C603.692,240.053 603.582,243.03 603.719,247.736C603.992,257.075 604.999,274.391 606.536,297.738C615.278,430.464 641.191,759.132 645.647,922.89C646.613,958.386 646.58,986.063 645.111,1002.18C644.57,1008.12 643.965,1012.29 642.949,1014.32C639.449,1021.32 631.395,1027.02 620.649,1031.84C593.783,1043.9 550.47,1049.08 512.619,1045.34C491.188,1043.22 471.513,1038.27 457.661,1029.95C449.208,1024.87 442.975,1018.68 440.351,1010.81C436.783,1000.11 433.175,965.517 429.492,916.75C414.548,718.892 400.346,290.865 400.313,258.453C400.346,258.016 400.558,255.088 400.441,253.959C400.237,251.991 399.466,250.775 398.829,250.138C397.409,248.718 394.322,247.834 391.323,247.232C390.245,247.016 388.615,246.497 388.17,246.352C386.984,244.756 385.111,244.427 383.697,245.692C382.085,247.134 381.677,250.104 382.784,252.319C383.534,253.818 385.196,255.285 387.537,256.009C389.005,256.463 390.829,256.753 392.49,257.124C392.726,257.176 392.994,257.251 393.26,257.333Z"/>
                    </g>
                    <path d="M406.096,245.469C407.375,244.997 409.658,244.234 411.88,243.872C426.677,241.46 456.812,241.811 464.909,241.558C512.021,240.086 558.383,239.857 605.295,239.857C606.485,239.857 607.45,238.55 607.45,236.94C607.45,235.33 606.485,234.024 605.295,234.024C558.35,234.024 511.955,234.253 464.809,235.727C455.444,236.019 416.949,235.585 405.785,239.363C403.851,240.018 402.569,240.947 401.972,241.801C401.344,242.698 401.108,243.684 401.132,244.673C401.157,245.709 401.503,247.005 402.655,248.195C403.601,249.171 404.954,248.925 405.676,247.645C406.039,247 406.174,246.215 406.096,245.469Z"/>
                </g>
                <path d="M340.672,245.602C341.065,245.131 341.155,244.327 340.859,243.714C340.534,243.04 339.865,242.85 339.367,243.29C339.136,243.495 338.855,243.909 338.637,244.609C338.371,245.467 338.112,246.987 337.887,248.978C336.694,259.511 336.112,284.188 336.112,288.859C336.112,332.295 339.517,375.533 339.517,419.082C339.517,475.818 332.998,536.13 338.675,592.907C342.01,626.254 338.377,659.727 339.219,694.25C339.855,720.299 338.006,745.037 338.556,771.196C339.108,797.458 342.054,825.133 339.527,850.408C338.453,861.142 339.167,908.215 341.479,948.675C342.462,965.871 343.437,981.987 345.349,993.37C346.696,1001.38 348.587,1007.11 351.117,1009.53C354.978,1013.24 363.263,1015.36 373.713,1016.32C397.531,1018.51 432.779,1015.02 451.039,1013.38C477.155,1011.03 511.955,1014.05 532.623,1011.38C538.93,1010.56 543.062,1005.44 545.637,997.412C548.088,989.767 549.106,979.403 549.298,967.733C550.122,917.521 550.839,853.571 551.049,832.749C551.814,756.958 545.943,683.087 545.943,607.181C545.943,547.011 552.686,485.937 549.344,425.781C546.194,369.084 536.58,310.314 536.58,254.814C536.58,254.009 536.097,253.356 535.503,253.356C534.908,253.356 534.425,254.009 534.425,254.814C534.425,310.384 544.041,369.231 547.195,426C550.533,486.083 543.787,547.083 543.787,607.181C543.787,683.074 549.658,756.932 548.894,832.71C548.684,853.527 547.968,917.465 547.143,967.668C546.959,978.904 546.019,988.891 543.66,996.251C541.424,1003.23 537.894,1007.77 532.417,1008.48C511.766,1011.15 476.992,1008.12 450.896,1010.47C432.704,1012.1 397.588,1015.59 373.859,1013.41C363.932,1012.5 356.031,1010.67 352.363,1007.15C350.123,1005.01 348.643,999.817 347.451,992.724C345.557,981.449 344.601,965.483 343.628,948.45C341.33,908.243 340.596,861.466 341.662,850.799C344.205,825.373 341.265,797.532 340.71,771.113C340.16,744.95 342.009,720.207 341.373,694.154C340.528,659.53 344.156,625.96 340.811,592.516C335.146,535.866 341.672,475.691 341.672,419.082C341.672,375.533 338.267,332.295 338.267,288.859C338.267,284.239 338.838,259.836 340.017,249.42C340.168,248.09 340.326,247 340.497,246.231C340.554,245.98 340.643,245.692 340.672,245.602Z"/>
            </g>
            <g transform="matrix(1,0,0,1,-4.76656,12.1956)">
                <path d="M347.144,359.405C347.555,359.376 348.827,359.291 350.394,359.231C373.418,358.346 497.148,356.43 535.076,356.43C536.265,356.43 537.231,355.123 537.231,353.513C537.231,351.903 536.265,350.596 535.076,350.596C497.123,350.596 373.311,352.514 350.272,353.4C348.054,353.485 346.71,353.577 346.384,353.642C346.034,353.712 345.818,353.843 345.713,353.91C344.468,354.705 344.423,356.067 344.481,356.847C344.521,357.385 344.67,358.857 346.069,359.38C346.433,359.516 346.801,359.517 347.144,359.405ZM348.705,355.725C348.586,355.065 348.251,354.144 347.217,353.757C347.955,354.033 348.498,354.799 348.705,355.725Z"/>
            </g>
            <g transform="matrix(1,0,0,1,-2.71126,333.296)">
                <path d="M347.144,359.405C347.555,359.376 348.827,359.291 350.394,359.231C373.418,358.346 497.148,356.43 535.076,356.43C536.265,356.43 537.231,355.123 537.231,353.513C537.231,351.903 536.265,350.596 535.076,350.596C497.123,350.596 373.311,352.514 350.272,353.4C348.054,353.485 346.71,353.577 346.384,353.642C346.034,353.712 345.818,353.843 345.713,353.91C344.468,354.705 344.423,356.067 344.481,356.847C344.521,357.385 344.67,358.857 346.069,359.38C346.433,359.516 346.801,359.517 347.144,359.405ZM348.705,355.725C348.586,355.065 348.251,354.144 347.217,353.757C347.955,354.033 348.498,354.799 348.705,355.725Z"/>
            </g>
            <g transform="matrix(1,0,0,1,-4.07616,173.124)">
                <path d="M347.144,359.405C347.555,359.376 348.827,359.291 350.394,359.231C373.418,358.346 497.148,356.43 535.076,356.43C536.265,356.43 537.231,355.123 537.231,353.513C537.231,351.903 536.265,350.596 535.076,350.596C497.123,350.596 373.311,352.514 350.272,353.4C348.054,353.485 346.71,353.577 346.384,353.642C346.034,353.712 345.818,353.843 345.713,353.91C344.468,354.705 344.423,356.067 344.481,356.847C344.521,357.385 344.67,358.857 346.069,359.38C346.433,359.516 346.801,359.517 347.144,359.405ZM348.705,355.725C348.586,355.065 348.251,354.144 347.217,353.757C347.955,354.033 348.498,354.799 348.705,355.725Z"/>
            </g>
            <g transform="matrix(1,0,0,1,-2.02086,494.224)">
                <path d="M347.144,359.405C347.555,359.376 348.827,359.291 350.394,359.231C373.418,358.346 497.148,356.43 535.076,356.43C536.265,356.43 537.231,355.123 537.231,353.513C537.231,351.903 536.265,350.596 535.076,350.596C497.123,350.596 373.311,352.514 350.272,353.4C348.054,353.485 346.71,353.577 346.384,353.642C346.034,353.712 345.818,353.843 345.713,353.91C344.468,354.705 344.423,356.067 344.481,356.847C344.521,357.385 344.67,358.857 346.069,359.38C346.433,359.516 346.801,359.517 347.144,359.405ZM348.705,355.725C348.586,355.065 348.251,354.144 347.217,353.757C347.955,354.033 348.498,354.799 348.705,355.725Z"/>
            </g>
            <g transform="matrix(1,0,0,1,-1.6052,655.018)">
                <path d="M347.144,359.405C347.555,359.376 348.827,359.291 350.394,359.231C373.418,358.346 497.148,356.43 535.076,356.43C536.265,356.43 537.231,355.123 537.231,353.513C537.231,351.903 536.265,350.596 535.076,350.596C497.123,350.596 373.311,352.514 350.272,353.4C348.054,353.485 346.71,353.577 346.384,353.642C346.034,353.712 345.818,353.843 345.713,353.91C344.468,354.705 344.423,356.067 344.481,356.847C344.521,357.385 344.67,358.857 346.069,359.38C346.433,359.516 346.801,359.517 347.144,359.405ZM348.705,355.725C348.586,355.065 348.251,354.144 347.217,353.757C347.955,354.033 348.498,354.799 348.705,355.725Z"/>
            </g>
        </g>
    </g>
</svg>
