<?xml version="1.0" encoding="UTF-8" standalone="no"?>
<!-- Created with Inkscape (http://www.inkscape.org/) -->

<svg
   xmlns:dc="http://purl.org/dc/elements/1.1/"
   xmlns:cc="http://creativecommons.org/ns#"
   xmlns:rdf="http://www.w3.org/1999/02/22-rdf-syntax-ns#"
   xmlns:svg="http://www.w3.org/2000/svg"
   xmlns="http://www.w3.org/2000/svg"
   xmlns:sodipodi="http://sodipodi.sourceforge.net/DTD/sodipodi-0.dtd"
   xmlns:inkscape="http://www.inkscape.org/namespaces/inkscape"
   width="210mm"
   height="297mm"
   viewBox="0 0 210 297"
   version="1.1"
   id="svg8"
   inkscape:version="0.92.4 (5da689c313, 2019-01-14)"
   sodipodi:docname="picture_2c_B.svg">
  <title
     id="title866">answer option B</title>
  <defs
     id="defs2" />
  <sodipodi:namedview
     id="base"
     pagecolor="#ffffff"
     bordercolor="#666666"
     borderopacity="1.0"
     inkscape:pageopacity="0.0"
     inkscape:pageshadow="2"
     inkscape:zoom="0.32"
     inkscape:cx="74.901575"
     inkscape:cy="594.93435"
     inkscape:document-units="mm"
     inkscape:current-layer="layer1"
     showgrid="false"
     inkscape:window-width="1039"
     inkscape:window-height="866"
     inkscape:window-x="588"
     inkscape:window-y="49"
     inkscape:window-maximized="0"
     inkscape:snap-nodes="false"
     inkscape:snap-text-baseline="true" />
  <metadata
     id="metadata5">
    <rdf:RDF>
      <cc:Work
         rdf:about="">
        <dc:format>image/svg+xml</dc:format>
        <dc:type
           rdf:resource="http://purl.org/dc/dcmitype/StillImage" />
        <dc:title>answer option B</dc:title>
      </cc:Work>
    </rdf:RDF>
  </metadata>
  <g
     inkscape:label="Layer 1"
     inkscape:groupmode="layer"
     id="layer1">
    <rect
       style="fill:#80b3ff;fill-opacity:1;stroke-width:0.69259977"
       id="rect873-6-4-2"
       width="74.192787"
       height="35.165928"
       x="-92.276451"
       y="192.02501"
       transform="matrix(0.70422125,-0.70998058,0.72831855,0.68523872,0,0)" />
    <path
       style="fill:#008080;fill-opacity:1;stroke-width:0.58296883"
       d="M 80.379398,20.654123 A 21.999865,20.58052 0 0 1 58.379537,41.234641 21.999865,20.58052 0 0 1 36.379671,20.654123 21.999865,20.58052 0 0 1 58.379537,0.07360416 21.999865,20.58052 0 0 1 80.379398,20.654123 Z"
       id="path821"
       inkscape:connector-curvature="0" />
    <ellipse
       style="fill:#37c8ab;fill-opacity:1;stroke-width:0.58842981"
       id="path844"
       cx="101.55751"
       cy="73.574654"
       rx="46.838421"
       ry="47.311535" />
    <rect
       style="fill:#80b3ff;fill-opacity:1;stroke-width:0.68304473"
       id="rect873-6-4"
       width="73.186523"
       height="34.672588"
       x="-89.538452"
       y="158.16078"
       transform="matrix(0.69934795,-0.7147814,0.72362031,0.69019827,0,0)" />
    <path
       sodipodi:type="star"
       style="fill:#80b3ff;fill-opacity:1;stroke-width:0.60000002;stroke-miterlimit:4;stroke-dasharray:none"
       id="path19069"
       sodipodi:sides="3"
       sodipodi:cx="38.629166"
       sodipodi:cy="114.17291"
       sodipodi:r1="17.392204"
       sodipodi:r2="8.6961021"
       sodipodi:arg1="0.99123234"
       sodipodi:arg2="2.0384299"
       inkscape:flatsided="true"
       inkscape:rounded="0"
       inkscape:randomized="0"
       d="M 48.154166,128.725 21.264191,115.14576 46.46914,98.647979 Z"
       inkscape:transform-center-x="-0.11049995"
       inkscape:transform-center-y="-7.8777372"
       transform="matrix(-0.16721505,1.8613851,-3.2119687,-0.07486586,426.00827,141.62988)" />
    <path
       sodipodi:type="star"
       style="fill:#0000ff;fill-opacity:1;stroke-width:0.60000002;stroke-miterlimit:4;stroke-dasharray:none"
       id="path19069-0"
       sodipodi:sides="3"
       sodipodi:cx="38.629166"
       sodipodi:cy="114.17291"
       sodipodi:r1="17.392204"
       sodipodi:r2="8.6961021"
       sodipodi:arg1="0.99123234"
       sodipodi:arg2="2.0384299"
       inkscape:flatsided="true"
       inkscape:rounded="0"
       inkscape:randomized="0"
       d="M 48.154166,128.725 21.264191,115.14576 46.46914,98.647979 Z"
       inkscape:transform-center-x="-0.11642726"
       inkscape:transform-center-y="-8.4097808"
       transform="matrix(-0.17619686,1.9870998,-3.384497,-0.07992218,545.5251,135.17432)" />
    <ellipse
       style="fill:#37c8ab;fill-opacity:1;stroke-width:0.58296883"
       id="path821-8"
       cx="141.29933"
       cy="20.58573"
       rx="21.999866"
       ry="20.580517" />
    <rect
       style="fill:#ffaaaa;fill-opacity:1;stroke-width:0.67826217"
       id="rect873-6-4-3"
       width="72.69162"
       height="34.421509"
       x="-294.68286"
       y="64.185616"
       transform="matrix(-0.0168371,-0.99985825,0.99987839,-0.01559495,0,0)" />
    <rect
       style="fill:#ff00ff;fill-opacity:1;stroke-width:0.67826217"
       id="rect873-6-4-7"
       width="72.69162"
       height="34.421509"
       x="-293.91061"
       y="100.42452"
       transform="matrix(-0.00923052,-0.9999574,0.99996809,-0.00798826,0,0)" />
    <text
       xml:space="preserve"
       style="font-style:normal;font-variant:normal;font-weight:normal;font-stretch:normal;font-size:11.35476971px;line-height:1.25;font-family:sans-serif;-inkscape-font-specification:'sans-serif, Normal';font-variant-ligatures:normal;font-variant-caps:normal;font-variant-numeric:normal;font-feature-settings:normal;text-align:start;letter-spacing:0px;word-spacing:0px;writing-mode:lr-tb;text-anchor:start;fill:#ffffff;fill-opacity:1;stroke:none;stroke-width:0.47311541"
       x="56.835754"
       y="25.902098"
       id="text19163"><tspan
         sodipodi:role="line"
         id="tspan19161"
         x="56.835754"
         y="25.902098"
         style="font-style:normal;font-variant:normal;font-weight:normal;font-stretch:normal;font-size:14.11111069px;font-family:'Verdana Pro';-inkscape-font-specification:'Verdana Pro, Normal';font-variant-ligatures:normal;font-variant-caps:normal;font-variant-numeric:normal;font-feature-settings:normal;text-align:center;writing-mode:lr-tb;text-anchor:middle;fill:#ffffff;fill-opacity:1;stroke-width:0.47311541">1</tspan></text>
    <text
       xml:space="preserve"
       style="font-style:normal;font-variant:normal;font-weight:normal;font-stretch:normal;font-size:15.13969326px;line-height:1.25;font-family:sans-serif;-inkscape-font-specification:'sans-serif, Normal';font-variant-ligatures:normal;font-variant-caps:normal;font-variant-numeric:normal;font-feature-settings:normal;text-align:start;letter-spacing:0px;word-spacing:0px;writing-mode:lr-tb;text-anchor:start;fill:#ff8080;fill-opacity:1;stroke:none;stroke-width:0.47311541"
       x="97.299484"
       y="74.937943"
       id="text19167"><tspan
         sodipodi:role="line"
         id="tspan19165"
         x="97.299484"
         y="74.937943"
         style="font-style:normal;font-variant:normal;font-weight:normal;font-stretch:normal;font-size:14.11111069px;font-family:'Verdana Pro';-inkscape-font-specification:'Verdana Pro, Normal';font-variant-ligatures:normal;font-variant-caps:normal;font-variant-numeric:normal;font-feature-settings:normal;text-align:start;writing-mode:lr-tb;text-anchor:start;fill:#070606;fill-opacity:1;stroke-width:0.47311541">4</tspan></text>
    <text
       xml:space="preserve"
       style="font-style:normal;font-variant:normal;font-weight:normal;font-stretch:normal;font-size:12.61641026px;line-height:1.25;font-family:sans-serif;-inkscape-font-specification:'sans-serif, Normal';font-variant-ligatures:normal;font-variant-caps:normal;font-variant-numeric:normal;font-feature-settings:normal;text-align:start;letter-spacing:0px;word-spacing:0px;writing-mode:lr-tb;text-anchor:start;fill:#00ffff;fill-opacity:1;stroke:none;stroke-width:0.47311541"
       x="107.54044"
       y="190.52287"
       id="text19175-6"><tspan
         sodipodi:role="line"
         id="tspan19173-5"
         x="107.54044"
         y="201.68544"
         style="font-style:normal;font-variant:normal;font-weight:normal;font-stretch:normal;font-size:12.61641026px;font-family:sans-serif;-inkscape-font-specification:'sans-serif, Normal';font-variant-ligatures:normal;font-variant-caps:normal;font-variant-numeric:normal;font-feature-settings:normal;text-align:start;writing-mode:lr-tb;text-anchor:start;fill:#00ffff;stroke-width:0.47311541" /></text>
    <text
       xml:space="preserve"
       style="font-style:normal;font-variant:normal;font-weight:normal;font-stretch:normal;font-size:12.61641026px;line-height:1.25;font-family:sans-serif;-inkscape-font-specification:'sans-serif, Normal';font-variant-ligatures:normal;font-variant-caps:normal;font-variant-numeric:normal;font-feature-settings:normal;text-align:start;letter-spacing:0px;word-spacing:0px;writing-mode:lr-tb;text-anchor:start;fill:#00ffff;fill-opacity:1;stroke:none;stroke-width:0.47311541"
       x="82.465324"
       y="258.65149"
       id="text19175-8"><tspan
         sodipodi:role="line"
         id="tspan19173-9"
         x="82.465324"
         y="258.65149"
         style="font-style:normal;font-variant:normal;font-weight:normal;font-stretch:normal;font-size:12.61641026px;font-family:sans-serif;-inkscape-font-specification:'sans-serif, Normal';font-variant-ligatures:normal;font-variant-caps:normal;font-variant-numeric:normal;font-feature-settings:normal;text-align:start;writing-mode:lr-tb;text-anchor:start;fill:#000000;fill-opacity:1;stroke-width:0.47311541">1</tspan></text>
    <text
       xml:space="preserve"
       style="font-style:normal;font-variant:normal;font-weight:normal;font-stretch:normal;font-size:12.61641026px;line-height:1.25;font-family:sans-serif;-inkscape-font-specification:'sans-serif, Normal';font-variant-ligatures:normal;font-variant-caps:normal;font-variant-numeric:normal;font-feature-settings:normal;text-align:start;letter-spacing:0px;word-spacing:0px;writing-mode:lr-tb;text-anchor:start;fill:#00ffff;fill-opacity:1;stroke:none;stroke-width:0.47311541"
       x="117.47586"
       y="258.45865"
       id="text19175-0"><tspan
         sodipodi:role="line"
         id="tspan19173-4"
         x="117.47586"
         y="258.45865"
         style="font-style:normal;font-variant:normal;font-weight:normal;font-stretch:normal;font-size:12.61641026px;font-family:sans-serif;-inkscape-font-specification:'sans-serif, Normal';font-variant-ligatures:normal;font-variant-caps:normal;font-variant-numeric:normal;font-feature-settings:normal;text-align:start;writing-mode:lr-tb;text-anchor:start;fill:#000000;fill-opacity:1;stroke-width:0.47311541">1</tspan></text>
    <text
       xml:space="preserve"
       style="font-style:normal;font-variant:normal;font-weight:normal;font-stretch:normal;font-size:14.11111069px;line-height:1.25;font-family:'Verdana Pro';-inkscape-font-specification:'Verdana Pro, Normal';font-variant-ligatures:normal;font-variant-caps:normal;font-variant-numeric:normal;font-feature-settings:normal;text-align:start;letter-spacing:0px;word-spacing:0px;writing-mode:lr-tb;text-anchor:start;fill:#ffffff;fill-opacity:1;stroke:none;stroke-width:0.47311541"
       x="148.92096"
       y="206.86436"
       id="text19213-0"><tspan
         sodipodi:role="line"
         id="tspan19211-9"
         x="148.92096"
         y="206.86436"
         style="font-style:normal;font-variant:normal;font-weight:normal;font-stretch:normal;font-size:14.11111069px;font-family:'Verdana Pro';-inkscape-font-specification:'Verdana Pro, Normal';font-variant-ligatures:normal;font-variant-caps:normal;font-variant-numeric:normal;font-feature-settings:normal;text-align:start;writing-mode:lr-tb;text-anchor:start;fill:#ffffff;fill-opacity:1;stroke-width:0.47311541">2</tspan></text>
    <text
       xml:space="preserve"
       style="font-style:normal;font-variant:normal;font-weight:normal;font-stretch:normal;font-size:14.11111069px;line-height:1.25;font-family:'Verdana Pro';-inkscape-font-specification:'Verdana Pro, Normal';font-variant-ligatures:normal;font-variant-caps:normal;font-variant-numeric:normal;font-feature-settings:normal;text-align:start;letter-spacing:0px;word-spacing:0px;writing-mode:lr-tb;text-anchor:start;fill:#000000;fill-opacity:1;stroke:none;stroke-width:0.47311541"
       x="78.224091"
       y="192.77922"
       id="text19175"><tspan
         sodipodi:role="line"
         id="tspan19173"
         x="78.224091"
         y="192.77922"
         style="font-style:normal;font-variant:normal;font-weight:normal;font-stretch:normal;font-size:14.11111069px;font-family:'Verdana Pro';-inkscape-font-specification:'Verdana Pro, Normal';font-variant-ligatures:normal;font-variant-caps:normal;font-variant-numeric:normal;font-feature-settings:normal;text-align:start;writing-mode:lr-tb;text-anchor:start;fill:#000000;fill-opacity:1;stroke-width:0.47311541">7</tspan></text>
    <text
       xml:space="preserve"
       style="font-style:normal;font-weight:normal;font-size:10.58333302px;line-height:1.25;font-family:sans-serif;letter-spacing:0px;word-spacing:0px;fill:#000000;fill-opacity:1;stroke:none;stroke-width:0.26458332"
       x="17.363281"
       y="282.944"
       id="text838"><tspan
         sodipodi:role="line"
         id="tspan836"
         x="17.363281"
         y="282.944"
         style="font-style:normal;font-variant:normal;font-weight:bold;font-stretch:normal;font-size:25.39999962px;font-family:Verdana;-inkscape-font-specification:'Verdana Bold';stroke-width:0.26458332">B</tspan></text>
  </g>
</svg>
