<?xml version="1.0" encoding="UTF-8" standalone="no"?>
<!-- Created with Inkscape (http://www.inkscape.org/) -->

<svg
   xmlns:dc="http://purl.org/dc/elements/1.1/"
   xmlns:cc="http://creativecommons.org/ns#"
   xmlns:rdf="http://www.w3.org/1999/02/22-rdf-syntax-ns#"
   xmlns:svg="http://www.w3.org/2000/svg"
   xmlns="http://www.w3.org/2000/svg"
   xmlns:sodipodi="http://sodipodi.sourceforge.net/DTD/sodipodi-0.dtd"
   xmlns:inkscape="http://www.inkscape.org/namespaces/inkscape"
   width="76.993752mm"
   height="105.83334mm"
   viewBox="0 0 76.993752 105.83334"
   version="1.1"
   id="svg8"
   inkscape:version="0.92.4 (5da689c313, 2019-01-14)"
   sodipodi:docname="b09-biscuits.svg">
  <defs
     id="defs2" />
  <sodipodi:namedview
     id="base"
     pagecolor="#ffffff"
     bordercolor="#666666"
     borderopacity="1.0"
     inkscape:pageopacity="0.0"
     inkscape:pageshadow="2"
     inkscape:zoom="1.979899"
     inkscape:cx="186.33122"
     inkscape:cy="174.51858"
     inkscape:document-units="mm"
     inkscape:current-layer="layer1"
     showgrid="false"
     fit-margin-top="0"
     fit-margin-left="0"
     fit-margin-right="0"
     fit-margin-bottom="0"
     inkscape:window-width="1920"
     inkscape:window-height="1017"
     inkscape:window-x="-8"
     inkscape:window-y="-8"
     inkscape:window-maximized="1" />
  <metadata
     id="metadata5">
    <rdf:RDF>
      <cc:Work
         rdf:about="">
        <dc:format>image/svg+xml</dc:format>
        <dc:type
           rdf:resource="http://purl.org/dc/dcmitype/StillImage" />
        <dc:title />
      </cc:Work>
    </rdf:RDF>
  </metadata>
  <g
     inkscape:label="Ebene 1"
     inkscape:groupmode="layer"
     id="layer1"
     transform="translate(-0.59603521,-0.28040454)">
    <g
       id="g3853"
       transform="translate(-0.21661446,-0.00827718)">
      <path
         style="fill:#fdfdfd;stroke-width:0.26458335"
         d="M 0.81264967,53.205352 V 0.28868172 H 39.309526 77.806402 V 53.205352 106.12202 H 39.309526 0.81264967 Z"
         id="path3869"
         inkscape:connector-curvature="0" />
      <path
         style="fill:#f0e8d1;stroke-width:0.26458335"
         d="M 4.8468283,100.61181 C 4.5828765,100.44422 4.5289976,90.625602 4.582245,52.395544 L 4.6491081,4.3897236 h 33.9989589 33.99896 l 0.06686,47.9620084 0.06686,47.962008 -0.6794,0.25831 c -0.826085,0.31408 -66.7610833,0.35305 -67.2545217,0.0398 z M 70.927235,52.411602 V 6.1095154 H 38.648067 6.3688998 V 52.411602 98.713688 H 38.648067 70.927235 Z M 17.613692,49.668251 c -1.285623,-0.336198 -3.079685,-1.256996 -3.789212,-1.944807 -0.192295,-0.18641 -0.449939,-0.338926 -0.572541,-0.338926 -0.122602,0 -0.654088,-0.771014 -1.181081,-1.713365 -2.8833722,-5.155952 -0.02844,-11.208343 5.794784,-12.284825 2.312957,-0.427574 2.84521,-0.369482 4.767691,0.520346 2.82569,1.307886 4.281005,3.22698 4.872159,6.424822 0.226107,1.223134 0.187788,1.664332 -0.248136,2.856974 -0.283546,0.775747 -0.515539,1.594262 -0.515539,1.81892 0,0.424077 -2.883528,3.707382 -3.25186,3.702701 -0.115033,-0.0016 -0.531751,0.232879 -0.926041,0.520756 -0.929431,0.678593 -3.245374,0.883229 -4.950224,0.437404 z m 18.607313,-2.16035 c -1.704478,-0.283517 -2.485795,-0.727244 -5.108975,-2.901508 -0.733708,-0.608145 -1.527876,-2.960159 -1.652749,-4.894792 -0.11139,-1.725727 -0.03918,-2.184718 0.553979,-3.521417 0.838163,-1.888818 1.787652,-2.935922 3.343141,-3.686844 0.654843,-0.31613 1.395986,-0.744337 1.646983,-0.951572 0.354325,-0.292547 1.081027,-0.349009 3.250272,-0.252531 2.326505,0.10347 2.923381,0.21998 3.567821,0.696436 0.425651,0.314698 0.883666,0.572177 1.017807,0.572177 0.644488,0 2.497601,3.030787 2.831047,4.630209 0.497324,2.385481 0.500052,2.634433 0.04842,4.421587 -0.449702,1.779501 -0.97494,2.674758 -2.256351,3.845905 -2.04374,1.867881 -4.361059,2.521455 -7.241392,2.04235 z M 24.582497,32.105409 c -2.425695,-0.123637 -4.467851,-1.19562 -6.102155,-3.203192 -3.315513,-4.072755 -1.880805,-10.659714 2.848387,-13.077368 1.581561,-0.808525 3.88727,-1.113697 5.569721,-0.73718 1.885072,0.42186 3.381198,1.179621 3.90379,1.977198 0.217535,0.331999 0.75823,0.966347 1.201544,1.409662 1.57175,1.57175 2.334917,5.677969 1.507877,8.113134 -0.476475,1.402946 -2.848417,4.128104 -3.59305,4.128104 -0.23382,0 -0.564176,0.139049 -0.734129,0.309002 -0.277106,0.277106 -1.359821,0.745384 -2.442665,1.056457 -0.218281,0.06271 -1.189975,0.07359 -2.15932,0.02418 z"
         id="path3867"
         inkscape:connector-curvature="0" />
      <path
         style="fill:#ecdbad;stroke-width:0.26458335"
         d="M 4.6774156,100.14726 C 4.589086,99.917074 4.5168164,78.390572 4.5168164,52.310586 c 0,-36.528008 0.072918,-47.4910716 0.3175,-47.735654 0.2436051,-0.2436051 8.1235796,-0.3175 33.8573596,-0.3175 32.889085,0 33.545172,0.00993 33.813751,0.5117727 0.421807,0.7881554 0.378751,95.0567073 -0.04361,95.4790653 -0.243615,0.24362 -8.148757,0.3175 -33.970651,0.3175 -30.4431978,0 -33.6684708,-0.0399 -33.8137514,-0.41851 z M 70.861827,52.477748 70.794943,5.9772237 38.808754,5.9100116 C 15.39093,5.8608044 6.7263633,5.9226394 6.4634402,6.1408461 6.1635122,6.3897642 6.1043165,14.036631 6.1043165,52.532193 c 0,25.351316 0.079375,46.172676 0.176389,46.269688 0.097014,0.09701 14.6825025,0.17639 32.4121955,0.17639 H 70.928709 Z M 17.853643,49.403686 c -3.599151,-0.90061 -6.231552,-3.692472 -6.606515,-7.006715 -0.315938,-2.792518 0.966691,-5.596866 3.339538,-7.301588 4.071578,-2.925135 9.53698,-1.563994 12.017249,2.992859 0.676049,1.242068 0.709762,4.384781 0.06632,6.18267 -0.420378,1.174612 -0.645297,1.499925 -2.123758,3.07173 -0.75745,0.805273 -2.548094,1.955533 -3.225878,2.072217 -1.71539,0.295312 -2.249007,0.293592 -3.466958,-0.01116 z m 17.884008,-2.264879 c -1.486038,-0.29664 -5.027084,-2.865906 -5.027084,-3.647485 0,-0.142362 -0.208359,-0.664083 -0.463021,-1.159383 -0.724508,-1.409126 -0.641437,-4.790374 0.155385,-6.324505 0.622033,-1.197607 2.079762,-2.910417 2.476987,-2.910417 0.117403,0 0.758859,-0.339466 1.425461,-0.754367 1.144696,-0.712478 1.364594,-0.752186 3.959987,-0.715076 2.437561,0.03485 2.818069,0.105127 3.368336,0.622075 0.341191,0.320532 0.747369,0.582785 0.902619,0.582785 0.3181,0 1.581412,1.576416 2.226294,2.778072 0.234302,0.436592 0.564327,1.592408 0.733388,2.568483 0.626777,3.618703 -0.897726,6.670866 -4.187061,8.382778 -1.641594,0.854358 -3.314216,1.027597 -5.571291,0.57704 z M 21.398347,30.888019 c -1.714024,-0.948233 -3.462571,-2.92734 -3.997691,-4.52482 -1.173089,-3.501987 0.260277,-7.811911 3.221768,-9.687393 3.769847,-2.387406 7.805702,-1.829731 10.749601,1.485383 1.385655,1.560379 1.585304,2.0398 2.05535,4.935525 0.397523,2.448956 -0.197112,4.214101 -2.035807,6.043184 -0.724998,0.721207 -1.508189,1.311286 -1.740424,1.311286 -0.232233,0 -0.561293,0.139049 -0.731245,0.309001 -0.596482,0.596482 -2.328127,1.005734 -4.162457,0.983745 -1.55792,-0.01868 -2.09144,-0.154617 -3.359095,-0.855911 z"
         id="path3865"
         inkscape:connector-curvature="0" />
      <path
         style="fill:#d1d1d1;stroke-width:0.26458335"
         d="M 4.6774156,100.14726 C 4.589086,99.917074 4.5168164,78.390572 4.5168164,52.310586 c 0,-36.528008 0.072918,-47.4910716 0.3175,-47.735654 0.2436051,-0.2436051 8.1235796,-0.3175 33.8573596,-0.3175 32.889085,0 33.545172,0.00993 33.813751,0.5117727 0.421807,0.7881554 0.378751,95.0567073 -0.04361,95.4790653 -0.243615,0.24362 -8.148757,0.3175 -33.970651,0.3175 -30.4431978,0 -33.6684708,-0.0399 -33.8137514,-0.41851 z M 70.861827,52.477748 70.794943,5.9772237 38.808754,5.9100116 C 15.39093,5.8608044 6.7263633,5.9226394 6.4634402,6.1408461 6.1635122,6.3897642 6.1043165,14.036631 6.1043165,52.532193 c 0,25.351316 0.079375,46.172676 0.176389,46.269688 0.097014,0.09701 14.6825025,0.17639 32.4121955,0.17639 H 70.928709 Z M 17.903489,49.201637 c -0.713736,-0.140584 -1.592996,-0.487884 -1.95391,-0.771779 -0.360915,-0.283896 -0.792285,-0.516173 -0.958601,-0.516173 -0.166316,0 -0.493927,-0.223698 -0.728026,-0.497105 -0.234098,-0.273407 -0.533144,-0.541298 -0.664546,-0.595312 -0.131401,-0.05402 -0.614174,-0.713706 -1.072828,-1.465977 -1.527942,-2.506094 -1.338657,-6.260802 0.427759,-8.485199 1.595287,-2.008897 4.642321,-3.311686 7.306188,-3.123832 1.233539,0.08699 3.336537,1.129511 4.45419,2.208085 1.591885,1.536224 2.138004,2.793003 2.150045,4.947881 0.0132,2.363288 -0.489909,3.912817 -1.780989,5.485236 -2.07929,2.532388 -4.263366,3.388514 -7.179282,2.814175 z m 18.49562,-2.226498 c -1.902995,-0.365263 -2.657748,-0.754282 -4.156472,-2.142353 -1.542997,-1.429075 -2.112402,-2.724758 -2.263892,-5.151498 -0.112365,-1.799982 -0.04985,-2.166544 0.586582,-3.439584 0.696978,-1.394143 1.887476,-2.880104 2.307434,-2.880104 0.116109,0 0.781854,-0.351184 1.479433,-0.780409 1.216443,-0.748485 1.379017,-0.77737 3.974291,-0.706107 2.352468,0.0646 2.785758,0.149262 3.316764,0.648118 0.335938,0.315598 0.743847,0.573815 0.90646,0.573815 0.314528,0 1.244536,1.19928 1.948322,2.512433 0.234302,0.437171 0.563084,1.586328 0.730626,2.553679 0.632566,3.652296 -0.771152,6.570187 -3.934756,8.179137 -1.606897,0.817237 -2.997526,0.997037 -4.894792,0.632873 z M 24.757442,31.573507 c -2.237133,-0.09625 -4.47548,-1.268233 -5.858914,-3.067678 -1.388692,-1.806284 -1.787122,-3.131403 -1.624581,-5.403118 0.429657,-6.005022 6.498371,-9.500067 11.716828,-6.747861 1.116391,0.588783 3.554143,3.272299 3.563816,3.923104 0.0044,0.298318 0.123764,0.658102 0.265184,0.79952 0.523605,0.523606 0.62811,3.874389 0.163513,5.242825 -0.523656,1.542397 -2.230597,3.420195 -3.717595,4.089715 -2.410206,1.085194 -2.970029,1.229675 -4.508251,1.163493 z"
         id="path3863"
         inkscape:connector-curvature="0" />
      <path
         style="fill:#ecd38e;stroke-width:0.26458335"
         d="M 4.9040252,99.97147 C 4.8346562,99.789013 4.8084529,78.26801 4.8457957,52.147018 L 4.9136914,4.654307 H 38.648067 72.382443 V 52.411602 100.1689 l -33.676146,0.0672 c -26.8016,0.0534 -33.7018932,-5.3e-4 -33.8022718,-0.26458 z M 71.126411,52.559964 C 71.179668,15.494094 71.125881,5.9664864 70.861827,5.7989096 70.479221,5.5559832 7.153508,5.4989343 6.522831,5.7409479 6.1433976,5.8865502 6.1043165,10.243199 6.1043165,52.395811 c 0,25.571846 0.079845,46.57411 0.1774341,46.671699 0.097589,0.09759 14.7125114,0.147198 32.4776054,0.110244 l 32.30017,-0.06719 z M 17.903489,49.201637 c -0.713736,-0.140584 -1.592996,-0.487884 -1.95391,-0.771779 -0.360915,-0.283896 -0.792285,-0.516173 -0.958601,-0.516173 -0.166316,0 -0.493927,-0.223698 -0.728026,-0.497105 -0.234098,-0.273407 -0.533144,-0.541298 -0.664546,-0.595312 -0.131401,-0.05402 -0.614174,-0.713706 -1.072828,-1.465977 -1.527942,-2.506094 -1.338657,-6.260802 0.427759,-8.485199 1.595287,-2.008897 4.642321,-3.311686 7.306188,-3.123832 1.233539,0.08699 3.336537,1.129511 4.45419,2.208085 1.591885,1.536224 2.138004,2.793003 2.150045,4.947881 0.0132,2.363288 -0.489909,3.912817 -1.780989,5.485236 -2.07929,2.532388 -4.263366,3.388514 -7.179282,2.814175 z m 18.49562,-2.226498 c -1.902995,-0.365263 -2.657748,-0.754282 -4.156472,-2.142353 -1.542997,-1.429075 -2.112402,-2.724758 -2.263892,-5.151498 -0.112365,-1.799982 -0.04985,-2.166544 0.586582,-3.439584 0.696978,-1.394143 1.887476,-2.880104 2.307434,-2.880104 0.116109,0 0.781854,-0.351184 1.479433,-0.780409 1.216443,-0.748485 1.379017,-0.77737 3.974291,-0.706107 2.352468,0.0646 2.785758,0.149262 3.316764,0.648118 0.335938,0.315598 0.743847,0.573815 0.90646,0.573815 0.314528,0 1.244536,1.19928 1.948322,2.512433 0.234302,0.437171 0.563084,1.586328 0.730626,2.553679 0.632566,3.652296 -0.771152,6.570187 -3.934756,8.179137 -1.606897,0.817237 -2.997526,0.997037 -4.894792,0.632873 z M 24.757442,31.573507 c -2.237133,-0.09625 -4.47548,-1.268233 -5.858914,-3.067678 -1.388692,-1.806284 -1.787122,-3.131403 -1.624581,-5.403118 0.429657,-6.005022 6.498371,-9.500067 11.716828,-6.747861 1.116391,0.588783 3.554143,3.272299 3.563816,3.923104 0.0044,0.298318 0.123764,0.658102 0.265184,0.79952 0.523605,0.523606 0.62811,3.874389 0.163513,5.242825 -0.523656,1.542397 -2.230597,3.420195 -3.717595,4.089715 -2.410206,1.085194 -2.970029,1.229675 -4.508251,1.163493 z"
         id="path3861"
         inkscape:connector-curvature="0" />
      <path
         style="fill:#fcd765;stroke-width:0.26458335"
         d="M 4.9040252,99.97147 C 4.8346562,99.789013 4.8084529,78.26801 4.8457957,52.147018 L 4.9136914,4.654307 H 38.648067 72.382443 V 52.411602 100.1689 l -33.676146,0.0672 c -26.8016,0.0534 -33.7018932,-5.3e-4 -33.8022718,-0.26458 z M 71.126411,52.559964 C 71.179668,15.494094 71.125881,5.9664864 70.861827,5.7989096 70.479221,5.5559832 7.153508,5.4989343 6.522831,5.7409479 6.1433976,5.8865502 6.1043165,10.243199 6.1043165,52.395811 c 0,25.571846 0.079845,46.57411 0.1774341,46.671699 0.097589,0.09759 14.7125114,0.147198 32.4776054,0.110244 l 32.30017,-0.06719 z M 18.407442,48.970727 c -2.056935,-0.426143 -4.544506,-1.918962 -5.282768,-3.170246 -1.011246,-1.713968 -1.201329,-2.235255 -1.314509,-3.604916 -0.255839,-3.096088 1.462994,-6.053381 4.302615,-7.402756 1.080661,-0.513525 4.455086,-0.921581 5.072787,-0.613432 0.218281,0.108895 0.917537,0.451414 1.553902,0.761156 3.115317,1.516346 4.718178,5.233173 3.597843,8.342943 -0.209702,0.582083 -0.38307,1.226939 -0.385261,1.433013 -0.0022,0.206073 -0.179088,0.563261 -0.393105,0.79375 -1.633299,1.759011 -2.306631,2.403446 -2.511216,2.403446 -0.130276,0 -0.435273,0.198408 -0.677771,0.440907 -0.242498,0.242496 -0.757019,0.471466 -1.143378,0.508823 -0.38636,0.03735 -0.940597,0.126113 -1.231639,0.197244 -0.291042,0.07113 -1.005417,0.03066 -1.5875,-0.08993 z M 35.8235,46.665423 c -0.462105,-0.05788 -0.9827,-0.276955 -1.156875,-0.486823 -0.174178,-0.20987 -0.455927,-0.381582 -0.626113,-0.381582 -0.438483,0 -2.800778,-2.186244 -2.800778,-2.592049 0,-0.185341 -0.192307,-0.630484 -0.427347,-0.9892 -0.693537,-1.058469 -0.7776,-3.721035 -0.167799,-5.314607 0.62253,-1.626836 1.879523,-3.27496 2.497759,-3.27497 0.246073,-6e-6 0.519023,-0.115885 0.606552,-0.257511 0.455499,-0.737013 2.189779,-1.197706 4.508762,-1.197706 2.075522,0 2.486674,0.07784 3.144536,0.595313 0.416248,0.327422 0.900242,0.595312 1.07554,0.595312 0.175299,0 0.461613,0.267891 0.636254,0.595313 0.544684,1.021191 0.967488,1.715754 1.271309,2.088449 0.160939,0.197422 0.415148,1.155274 0.564912,2.12856 0.538036,3.496593 -0.794737,6.222474 -3.867941,7.910986 -1.408554,0.773904 -2.634475,0.909233 -5.258771,0.580515 z M 22.101353,30.731663 c -0.927399,-0.413012 -2.324285,-1.627209 -3.517504,-3.057475 -0.876567,-1.050706 -1.327447,-4.454686 -0.805634,-6.082245 0.187381,-0.584449 0.55296,-1.419823 0.812397,-1.856385 0.259437,-0.436563 0.589301,-1.061641 0.733031,-1.389063 0.143729,-0.327422 0.428289,-0.595312 0.632353,-0.595312 0.204065,0 0.517197,-0.176124 0.695848,-0.391385 0.957039,-1.153162 4.134918,-1.941779 6.001343,-1.489282 1.398685,0.339097 3.024947,1.066786 3.31602,1.483792 0.101576,0.145521 0.633159,0.783002 1.181293,1.416626 0.548138,0.633623 1.149522,1.586123 1.336411,2.116666 0.448352,1.272793 0.68675,4.719271 0.341209,4.932827 -0.146007,0.09024 -0.26547,0.435082 -0.26547,0.76632 0,0.361271 -0.491826,1.101123 -1.229153,1.849015 -2.478403,2.513915 -6.498014,3.513535 -9.232144,2.295901 z"
         id="path3859"
         inkscape:connector-curvature="0" />
      <path
         style="fill:#b0b0b0;stroke-width:0.26458335"
         d="M 4.9040252,99.97147 C 4.8346562,99.789013 4.8084529,78.26801 4.8457957,52.147018 L 4.9136914,4.654307 H 38.648067 72.382443 V 52.411602 100.1689 l -33.676146,0.0672 c -26.8016,0.0534 -33.7018932,-5.3e-4 -33.8022718,-0.26458 z M 71.126411,52.559964 C 71.179668,15.494094 71.125881,5.9664864 70.861827,5.7989096 70.479221,5.5559832 7.153508,5.4989343 6.522831,5.7409479 6.1433976,5.8865502 6.1043165,10.243199 6.1043165,52.395811 c 0,25.571846 0.079845,46.57411 0.1774341,46.671699 0.097589,0.09759 14.7125114,0.147198 32.4776054,0.110244 l 32.30017,-0.06719 z"
         id="path3857"
         inkscape:connector-curvature="0" />
      <path
         style="fill:#8d8d8d;stroke-width:0.26458335"
         d="M 5.0459831,52.411602 V 4.7845717 L 38.581921,4.8517309 72.11786,4.9188903 V 52.411602 99.904313 l -33.535939,0.06716 -33.5359379,0.06716 z M 71.160161,99.148708 C 71.378805,98.88526 71.440114,86.429176 71.390994,52.251309 L 71.32411,5.7126404 H 38.648067 5.9720248 L 5.9051416,52.395531 c -0.053256,37.171706 6.614e-4,46.725769 0.2645833,46.893348 0.1823067,0.11575 14.8127481,0.21228 32.5120931,0.214508 26.765036,0.0034 32.230725,-0.05632 32.478343,-0.354679 z"
         id="path3855"
         inkscape:connector-curvature="0" />
    </g>
    <text
       xml:space="preserve"
       style="font-style:normal;font-weight:normal;line-height:0%;font-family:sans-serif;letter-spacing:0px;word-spacing:0px;fill:#000000;fill-opacity:1;stroke:none;stroke-width:0.26458332"
       x="8.3362532"
       y="76.89592"
       id="text3816"><tspan
         sodipodi:role="line"
         id="tspan3814"
         x="8.3362532"
         y="76.89592"
         style="font-size:5.64444447px;line-height:1.25;stroke-width:0.26458332">Tainas: 45 min</tspan><tspan
         sodipodi:role="line"
         x="8.3362532"
         y="83.951477"
         style="font-size:5.64444447px;line-height:1.25;stroke-width:0.26458332"
         id="tspan3818">Küpsetamine: 15 min</tspan><tspan
         sodipodi:role="line"
         x="8.3362532"
         y="91.007034"
         style="font-size:5.64444447px;line-height:1.25;stroke-width:0.26458332"
         id="tspan3820">Kaunistamine: 0 min</tspan></text>
    <text
       xml:space="preserve"
       style="font-style:normal;font-weight:normal;line-height:0%;font-family:sans-serif;letter-spacing:0px;word-spacing:0px;fill:#000000;fill-opacity:1;stroke:none;stroke-width:0.26458332"
       x="15.869523"
       y="65.283463"
       id="text3812"><tspan
         sodipodi:role="line"
         id="tspan3810"
         x="15.869523"
         y="65.283463"
         style="font-size:10.58333302px;line-height:1.25;stroke-width:0.26458332">Küpsised</tspan></text>
  </g>
</svg>
