<?xml version="1.0" encoding="UTF-8" standalone="no"?>
<!-- Created with Inkscape (http://www.inkscape.org/) -->

<svg
   xmlns:dc="http://purl.org/dc/elements/1.1/"
   xmlns:cc="http://creativecommons.org/ns#"
   xmlns:rdf="http://www.w3.org/1999/02/22-rdf-syntax-ns#"
   xmlns:svg="http://www.w3.org/2000/svg"
   xmlns="http://www.w3.org/2000/svg"
   xmlns:sodipodi="http://sodipodi.sourceforge.net/DTD/sodipodi-0.dtd"
   xmlns:inkscape="http://www.inkscape.org/namespaces/inkscape"
   width="90.498291mm"
   height="77mm"
   viewBox="0 0 90.498291 77"
   version="1.1"
   id="svg1020"
   inkscape:version="0.92.2 (5c3e80d, 2017-08-06)"
   sodipodi:docname="2019-CN-03a_example02.svg">
  <defs
     id="defs1014" />
  <sodipodi:namedview
     id="base"
     pagecolor="#ffffff"
     bordercolor="#666666"
     borderopacity="1.0"
     inkscape:pageopacity="0.0"
     inkscape:pageshadow="2"
     inkscape:zoom="0.49497475"
     inkscape:cx="-497.89674"
     inkscape:cy="43.814735"
     inkscape:document-units="mm"
     inkscape:current-layer="layer1"
     showgrid="false"
     fit-margin-top="0"
     fit-margin-left="0"
     fit-margin-right="0"
     fit-margin-bottom="0"
     inkscape:window-width="1600"
     inkscape:window-height="838"
     inkscape:window-x="-8"
     inkscape:window-y="-8"
     inkscape:window-maximized="1" />
  <metadata
     id="metadata1017">
    <rdf:RDF>
      <cc:Work
         rdf:about="">
        <dc:format>image/svg+xml</dc:format>
        <dc:type
           rdf:resource="http://purl.org/dc/dcmitype/StillImage" />
        <dc:title></dc:title>
      </cc:Work>
    </rdf:RDF>
  </metadata>
  <g
     inkscape:label="Layer 1"
     inkscape:groupmode="layer"
     id="layer1"
     transform="translate(-31.939083,-45.880495)">
    <path
       style="color:#000000;font-style:normal;font-variant:normal;font-weight:normal;font-stretch:normal;font-size:medium;line-height:normal;font-family:sans-serif;font-variant-ligatures:normal;font-variant-position:normal;font-variant-caps:normal;font-variant-numeric:normal;font-variant-alternates:normal;font-feature-settings:normal;text-indent:0;text-align:start;text-decoration:none;text-decoration-line:none;text-decoration-style:solid;text-decoration-color:#000000;letter-spacing:normal;word-spacing:normal;text-transform:none;writing-mode:lr-tb;direction:ltr;text-orientation:mixed;dominant-baseline:auto;baseline-shift:baseline;text-anchor:start;white-space:normal;shape-padding:0;clip-rule:nonzero;display:inline;overflow:visible;visibility:visible;opacity:1;isolation:auto;mix-blend-mode:normal;color-interpolation:sRGB;color-interpolation-filters:linearRGB;solid-color:#000000;solid-opacity:1;vector-effect:none;fill:#0044aa;fill-opacity:1;fill-rule:nonzero;stroke:none;stroke-width:0.52425486;stroke-linecap:round;stroke-linejoin:round;stroke-miterlimit:4;stroke-dasharray:none;stroke-dashoffset:0;stroke-opacity:1;color-rendering:auto;image-rendering:auto;shape-rendering:auto;text-rendering:auto;enable-background:accumulate"
       d="m 57.340772,53.461723 c -0.846635,-0.01528 -1.523516,-0.0215 -2.185457,0.08979 -0.66194,0.111287 -1.497948,0.438275 -1.943594,1.207867 -0.445645,0.769591 -0.366547,1.515361 -0.237518,2.201388 0.129029,0.686027 0.362899,1.424039 0.670555,2.354906 1.248452,3.777441 1.701247,8.803063 1.249866,14.828957 -0.941312,12.56647 -2.040012,18.398053 -4.524432,24.365893 -2.446146,5.875916 -9.472598,14.593556 -15.590753,19.202776 -0.659882,0.49713 -1.255504,1.0002 -1.722007,1.44973 -0.233252,0.22476 -0.43191,0.43132 -0.611175,0.65462 -0.08963,0.11165 -0.175963,0.22458 -0.266484,0.3838 -0.09052,0.15921 -0.231304,0.3384 -0.240415,0.8371 -0.0062,0.33468 0.09093,0.83475 0.435933,1.22669 0.345004,0.39195 0.814748,0.54864 1.148488,0.59091 0.667479,0.0845 1.080632,-0.0644 1.622075,-0.24042 1.082886,-0.352 2.551247,-1.02557 4.764847,-2.11594 9.289748,-4.57595 16.859772,-13.18581 20.484498,-23.249272 1.840247,-5.10914 3.441889,-14.614138 4.150775,-24.051615 0.229719,-3.058267 0.476562,-5.624731 0.719796,-7.555686 0.243234,-1.930955 0.543431,-3.330291 0.644486,-3.596083 0.361244,-0.950142 0.514098,-1.932714 0.464898,-2.867599 -0.0492,-0.934884 -0.26921,-1.86074 -0.960211,-2.624286 -1.80504,-1.994552 -5.035679,-3.03872 -8.074171,-3.09353 z"
       id="path2263"
       inkscape:connector-curvature="0" />
    <path
       style="color:#000000;font-style:normal;font-variant:normal;font-weight:normal;font-stretch:normal;font-size:medium;line-height:normal;font-family:sans-serif;font-variant-ligatures:normal;font-variant-position:normal;font-variant-caps:normal;font-variant-numeric:normal;font-variant-alternates:normal;font-feature-settings:normal;text-indent:0;text-align:start;text-decoration:none;text-decoration-line:none;text-decoration-style:solid;text-decoration-color:#000000;letter-spacing:normal;word-spacing:normal;text-transform:none;writing-mode:lr-tb;direction:ltr;text-orientation:mixed;dominant-baseline:auto;baseline-shift:baseline;text-anchor:start;white-space:normal;shape-padding:0;clip-rule:nonzero;display:inline;overflow:visible;visibility:visible;opacity:1;isolation:auto;mix-blend-mode:normal;color-interpolation:sRGB;color-interpolation-filters:linearRGB;solid-color:#000000;solid-opacity:1;vector-effect:none;fill:#338000;fill-opacity:1;fill-rule:nonzero;stroke:none;stroke-width:0.52425486;stroke-linecap:round;stroke-linejoin:round;stroke-miterlimit:4;stroke-dasharray:none;stroke-dashoffset:0;stroke-opacity:1;color-rendering:auto;image-rendering:auto;shape-rendering:auto;text-rendering:auto;enable-background:accumulate"
       d="m 78.747825,45.904589 c -0.518536,-0.05373 -1.040019,-0.02386 -1.598903,0.153518 -0.409748,0.130049 -0.898481,0.34412 -1.294764,0.800899 -0.396282,0.45678 -0.570394,1.074088 -0.590899,1.597455 -0.04101,1.046734 0.263463,2.020811 0.754555,3.604774 0.806334,2.600745 0.844692,3.103529 0.889245,9.030036 0.02647,3.519684 -0.176882,11.884891 -0.453312,18.467041 -0.765182,18.219991 -0.188756,27.098538 2.825598,32.267718 2.262667,3.88013 6.550048,6.47933 12.175703,7.7121 1.733756,0.37993 4.993116,0.50589 8.568042,0.54455 3.57492,0.0386 7.24506,-0.0498 9.3979,-0.33455 2.97432,-0.39344 5.48618,-0.92668 7.48616,-1.60035 1.99999,-0.67368 3.51998,-1.42404 4.49257,-2.66049 0.65804,-0.83656 1.05646,-1.89413 1.03697,-2.97912 -0.0195,-1.08499 -0.38316,-2.14289 -0.96311,-3.2876 -0.72038,-1.42193 -1.94709,-6.08256 -2.61704,-10.715836 -0.22339,-1.544983 -0.4179,-2.58292 -0.85738,-3.457048 -0.10987,-0.218532 -0.23362,-0.440964 -0.49677,-0.689382 -0.26313,-0.248419 -0.80409,-0.548376 -1.40048,-0.469244 -0.59639,0.07913 -0.96297,0.435365 -1.16152,0.692279 -0.19856,0.256915 -0.29861,0.482132 -0.38814,0.715452 -0.13727,0.35771 -0.13474,0.456204 -0.20132,0.757451 -0.0666,0.301247 -0.1461,0.685513 -0.23461,1.134004 -0.17704,0.896983 -0.39159,2.050306 -0.60249,3.255734 -0.58242,3.32876 -1.10827,5.1987 -1.78863,6.26527 -0.68036,1.06657 -1.54895,1.61357 -3.53381,2.39401 -2.73318,1.07468 -7.05923,1.45909 -11.112659,1.10649 -4.053432,-0.3526 -7.884704,-1.50745 -9.561563,-2.81981 -1.288488,-1.00842 -1.462199,-2.31427 -2.005177,-4.75252 -0.542986,-2.43826 -0.761349,-6.134105 -0.747319,-11.72529 0.03848,-15.320882 1.15188,-28.556628 3.717058,-35.412674 0.225533,-0.602805 0.399264,-1.205442 0.509795,-1.749525 0.05524,-0.272041 0.09568,-0.526733 0.112963,-0.789313 0.01728,-0.262581 0.07222,-0.494102 -0.121654,-0.999315 -0.411862,-1.073296 -1.183399,-1.721255 -2.095662,-2.420079 -0.91227,-0.698824 -2.006554,-1.358513 -3.14567,-1.930559 -1.139123,-0.572046 -2.315749,-1.052561 -3.412153,-1.361385 -0.548202,-0.154412 -1.062988,-0.290959 -1.581524,-0.344691 z"
       id="path2267"
       inkscape:connector-curvature="0"
       sodipodi:nodetypes="cccsscscccccccccscccccccscscccccccccsc" />
    <circle
       style="opacity:1;vector-effect:none;fill:#5fd35f;fill-opacity:1;stroke-width:0.50359148"
       id="path2229-8"
       cx="80.780327"
       cy="78.618866"
       r="3.5" />
    <path
       inkscape:connector-curvature="0"
       id="rect2233-3-0"
       d="m 55.964283,75.618871 h 6.000005 v 5.99999 h -6.000005 z"
       style="opacity:1;vector-effect:none;fill:#ffffff;fill-opacity:1;stroke:#ffffff;stroke-width:0;stroke-miterlimit:4;stroke-dasharray:none" />
  </g>
</svg>
