<?xml version="1.0" encoding="UTF-8" standalone="no"?>
<!-- Created with Inkscape (http://www.inkscape.org/) -->

<svg
   xmlns:dc="http://purl.org/dc/elements/1.1/"
   xmlns:cc="http://creativecommons.org/ns#"
   xmlns:rdf="http://www.w3.org/1999/02/22-rdf-syntax-ns#"
   xmlns:svg="http://www.w3.org/2000/svg"
   xmlns="http://www.w3.org/2000/svg"
   xmlns:sodipodi="http://sodipodi.sourceforge.net/DTD/sodipodi-0.dtd"
   xmlns:inkscape="http://www.inkscape.org/namespaces/inkscape"
   width="78.841003mm"
   height="78.841187mm"
   viewBox="0 0 78.841003 78.841187"
   version="1.1"
   id="svg1937"
   inkscape:version="0.92.1 r15371"
   sodipodi:docname="RangoliB.svg">
  <defs
     id="defs1931" />
  <sodipodi:namedview
     id="base"
     pagecolor="#ffffff"
     bordercolor="#666666"
     borderopacity="1.0"
     inkscape:pageopacity="0.0"
     inkscape:pageshadow="2"
     inkscape:zoom="0.35"
     inkscape:cx="294.70516"
     inkscape:cy="-33.865927"
     inkscape:document-units="mm"
     inkscape:current-layer="layer1"
     showgrid="false"
     inkscape:window-width="748"
     inkscape:window-height="539"
     inkscape:window-x="754"
     inkscape:window-y="483"
     inkscape:window-maximized="0" />
  <metadata
     id="metadata1934">
    <rdf:RDF>
      <cc:Work
         rdf:about="">
        <dc:format>image/svg+xml</dc:format>
        <dc:type
           rdf:resource="http://purl.org/dc/dcmitype/StillImage" />
        <dc:title></dc:title>
      </cc:Work>
    </rdf:RDF>
  </metadata>
  <g
     inkscape:label="Layer 1"
     inkscape:groupmode="layer"
     id="layer1"
     transform="translate(-27.859259,-61.031788)">
    <g
       id="g6715-7"
       transform="matrix(0,0.1971025,-0.1971025,0,-82.757821,327.66919)">
      <path
         inkscape:connector-curvature="0"
         style="fill:#000000;fill-opacity:1;stroke-width:0.52676225"
         d="m 591.68555,74.496094 -74.4961,74.494136 74.4961,74.4961 74.49609,-74.4961 z"
         transform="matrix(0,-1.3423642,1.3423642,0,-1352.7855,33.041641)"
         id="rect46-6-9-2-6-3" />
    </g>
    <g
       id="g6715-7-6-0"
       transform="matrix(0,0.1971025,-0.1971025,0,-43.33733,327.66919)">
      <path
         inkscape:connector-curvature="0"
         style="fill:#000000;fill-opacity:1;stroke-width:0.52676225"
         d="m 740.67578,74.496094 -74.49414,74.494136 74.49414,74.4961 v -74.4961 z"
         transform="matrix(0,-1.3423642,1.3423642,0,-1352.7855,233.04162)"
         id="rect46-6-9-2-6-3-3-6" />
    </g>
    <g
       id="g6715-7-6-5"
       transform="matrix(0,-0.1971025,0.1971025,0,177.89687,-126.7646)">
      <path
         inkscape:connector-curvature="0"
         style="fill:#000000;fill-opacity:1;stroke-width:0.52676225"
         d="m 442.69531,74.496094 v 74.494136 74.4961 l 74.49414,-74.4961 z"
         transform="matrix(0,1.3423642,-1.3423642,0,-952.78545,-1355.4738)"
         id="rect46-6-9-2-6-3-3-5" />
    </g>
    <g
       id="g6715-7-6-7"
       transform="matrix(-0.1971025,0,0,-0.1971025,-159.93713,-10.164793)">
      <path
         inkscape:connector-curvature="0"
         style="fill:#000000;fill-opacity:1;stroke-width:0.52676225"
         d="m 591.68555,223.48633 -74.4961,74.49609 h 74.4961 74.49609 z"
         transform="matrix(-1.3423642,0,0,-1.3423642,-358.52778,-361.21603)"
         id="rect46-6-9-2-6-3-3-65" />
    </g>
    <g
       id="g6715-7-6-9"
       transform="matrix(0.1971025,0,0,0.1971025,294.49669,211.06939)">
      <path
         inkscape:connector-curvature="0"
         style="fill:#000000;fill-opacity:1;stroke-width:0.52676225"
         d="M 517.18945,0 591.68555,74.496094 666.18164,0 h -74.49609 z"
         transform="matrix(1.3423642,0,0,1.3423642,-1947.0433,-761.21612)"
         id="rect46-6-9-2-6-3-3-3" />
    </g>
    <rect
       id="rect46-3-5-0-3-1-0-4"
       width="78.287849"
       height="78.169586"
       x="-139.59622"
       y="28.135839"
       style="fill:none;stroke:#000000;stroke-width:0.55316031;stroke-opacity:1"
       transform="rotate(-90)" />
    <rect
       id="rect46-3-5-0-3-1-0-7"
       width="19.710249"
       height="19.710249"
       x="-139.87279"
       y="27.859266"
       style="fill:#78ff78;fill-opacity:1;stroke-width:0.13937251"
       transform="rotate(-90)" />
    <rect
       id="rect46-3-5-0-3-1-0-44"
       width="19.710249"
       height="19.710249"
       x="-80.742043"
       y="27.859266"
       style="fill:#78ff78;fill-opacity:1;stroke-width:0.13937251"
       transform="rotate(-90)" />
    <rect
       id="rect46-3-5-0-3-1-0-44-3"
       width="19.710249"
       height="19.710249"
       x="-139.87279"
       y="86.990013"
       style="fill:#78ff78;fill-opacity:1;stroke-width:0.13937251"
       transform="rotate(-90)" />
    <rect
       id="rect46-3-5-0-3-1-0-44-3-0"
       width="19.710249"
       height="19.710249"
       x="-80.742043"
       y="86.990013"
       style="fill:#78ff78;fill-opacity:1;stroke-width:0.13937251"
       transform="rotate(-90)" />
    <path
       inkscape:connector-curvature="0"
       style="fill:#800080;fill-opacity:1;stroke-width:0.13937251"
       d="M 86.990144,61.031788 67.27972,80.742213 86.990144,100.45212 106.70005,80.742213 H 86.990144 Z"
       id="rect46-6-9-2-7" />
    <path
       inkscape:connector-curvature="0"
       style="fill:#800080;fill-opacity:1;stroke-width:0.13937251"
       d="M 47.569294,61.031788 V 80.742213 H 27.859386 L 47.569294,100.45212 67.27972,80.742213 Z"
       id="rect46-6-9-2-7-8" />
    <path
       inkscape:connector-curvature="0"
       style="fill:#800080;fill-opacity:1;stroke-width:0.13937251"
       d="M 86.990144,100.45212 67.27972,120.16255 86.990144,139.87297 V 120.16255 H 106.70005 Z"
       id="rect46-6-9-2-7-84" />
    <path
       inkscape:connector-curvature="0"
       style="fill:#800080;fill-opacity:1;stroke-width:0.13937251"
       d="m 47.569294,100.45212 -19.709908,19.71043 h 19.709908 v 19.71042 L 67.27972,120.16255 Z"
       id="rect46-6-9-2-7-8-3" />
  </g>
</svg>
