<?xml version="1.0" encoding="UTF-8" standalone="no"?>
<!-- Created with Inkscape (http://www.inkscape.org/) -->

<svg
   xmlns:dc="http://purl.org/dc/elements/1.1/"
   xmlns:cc="http://creativecommons.org/ns#"
   xmlns:rdf="http://www.w3.org/1999/02/22-rdf-syntax-ns#"
   xmlns:svg="http://www.w3.org/2000/svg"
   xmlns="http://www.w3.org/2000/svg"
   xmlns:sodipodi="http://sodipodi.sourceforge.net/DTD/sodipodi-0.dtd"
   xmlns:inkscape="http://www.inkscape.org/namespaces/inkscape"
   width="154.91913mm"
   height="93.800865mm"
   viewBox="0 0 154.91913 93.800865"
   version="1.1"
   id="svg3762"
   inkscape:version="0.92.3 (2405546, 2018-03-11)"
   sodipodi:docname="square_task.svg">
  <defs
     id="defs3756" />
  <sodipodi:namedview
     id="base"
     pagecolor="#ffffff"
     bordercolor="#666666"
     borderopacity="1.0"
     inkscape:pageopacity="0.0"
     inkscape:pageshadow="2"
     inkscape:zoom="5.02"
     inkscape:cx="477.63222"
     inkscape:cy="107.50304"
     inkscape:document-units="mm"
     inkscape:current-layer="layer1"
     showgrid="true"
     inkscape:window-width="1920"
     inkscape:window-height="1001"
     inkscape:window-x="-9"
     inkscape:window-y="-9"
     inkscape:window-maximized="1"
     fit-margin-top="0"
     fit-margin-left="0"
     fit-margin-right="0"
     fit-margin-bottom="0">
    <inkscape:grid
       type="xygrid"
       id="grid3764"
       originx="-30.42708"
       originy="-130.96875" />
  </sodipodi:namedview>
  <metadata
     id="metadata3759">
    <rdf:RDF>
      <cc:Work
         rdf:about="">
        <dc:format>image/svg+xml</dc:format>
        <dc:type
           rdf:resource="http://purl.org/dc/dcmitype/StillImage" />
        <dc:title />
      </cc:Work>
    </rdf:RDF>
  </metadata>
  <g
     inkscape:groupmode="layer"
     id="layer4"
     inkscape:label="Hintergrund" />
  <g
     inkscape:label="Ebene 1"
     inkscape:groupmode="layer"
     id="layer1"
     transform="translate(-30.42708,-72.230381)">
    <rect
       y="73.798981"
       x="47.625"
       height="28.732264"
       width="37.041668"
       id="rect4632"
       style="fill:none;fill-opacity:1;stroke:#000000;stroke-width:0.27571866;stroke-opacity:1" />
    <rect
       style="fill:none;fill-opacity:1;stroke:#000000;stroke-width:0.27571866;stroke-opacity:1"
       id="rect4634"
       width="37.041668"
       height="28.732264"
       x="97.895836"
       y="73.798981" />
    <rect
       style="fill:#ff2d2d;fill-opacity:1;stroke-width:0.10999999"
       id="rect4599"
       width="1.1"
       height="1.1"
       x="109.80208"
       y="84.23333" />
    <rect
       y="85.556244"
       x="109.80209"
       height="1.1"
       width="1.1"
       id="rect5148"
       style="fill:#ff2d2d;fill-opacity:1;stroke-width:0.10999999" />
    <text
       xml:space="preserve"
       style="font-style:normal;font-weight:normal;font-size:10.58333302px;line-height:1.25;font-family:sans-serif;letter-spacing:0px;word-spacing:0px;fill:#000000;fill-opacity:1;stroke:none;stroke-width:0.26458332"
       x="61.118752"
       y="113.32494"
       id="text5156"><tspan
         sodipodi:role="line"
         id="tspan5154"
         x="61.118752"
         y="113.32494"
         style="font-size:7.05555534px;stroke-width:0.26458332">00</tspan></text>
    <text
       id="text5160"
       y="113.13796"
       x="110.85854"
       style="font-style:normal;font-weight:normal;font-size:10.58333302px;line-height:1.25;font-family:sans-serif;letter-spacing:0px;word-spacing:0px;fill:#000000;fill-opacity:1;stroke:none;stroke-width:0.26458332"
       xml:space="preserve"><tspan
         style="font-size:7.05555534px;stroke-width:0.26458332"
         y="113.13796"
         x="110.85854"
         id="tspan5158"
         sodipodi:role="line">10</tspan></text>
    <text
       xml:space="preserve"
       style="font-style:normal;font-weight:normal;font-size:10.58333302px;line-height:1.25;font-family:sans-serif;letter-spacing:0px;word-spacing:0px;fill:#000000;fill-opacity:1;stroke:none;stroke-width:0.26458332"
       x="161.96091"
       y="112.98677"
       id="text5164"><tspan
         sodipodi:role="line"
         id="tspan5162"
         x="161.96091"
         y="112.98677"
         style="font-size:7.05555534px;stroke-width:0.26458332">20</tspan></text>
    <rect
       y="73.798981"
       x="148.16666"
       height="28.732264"
       width="37.041668"
       id="rect5166"
       style="fill:none;fill-opacity:1;stroke:#000000;stroke-width:0.27571866;stroke-opacity:1" />
    <rect
       style="fill:none;fill-opacity:1;stroke:#000000;stroke-width:0.27571866;stroke-opacity:1"
       id="rect5192"
       width="37.041668"
       height="28.732264"
       x="47.624996"
       y="124.06981" />
    <text
       xml:space="preserve"
       style="font-style:normal;font-weight:normal;font-size:10.58333302px;line-height:1.25;font-family:sans-serif;letter-spacing:0px;word-spacing:0px;fill:#000000;fill-opacity:1;stroke:none;stroke-width:0.26458332"
       x="61.145748"
       y="164.1459"
       id="text5212"><tspan
         sodipodi:role="line"
         id="tspan5210"
         x="61.145748"
         y="164.1459"
         style="font-size:7.05555534px;stroke-width:0.26458332">30</tspan></text>
    <rect
       y="124.06981"
       x="97.895828"
       height="28.732264"
       width="37.041668"
       id="rect5232"
       style="fill:none;fill-opacity:1;stroke:#000000;stroke-width:0.27571866;stroke-opacity:1" />
    <text
       id="text5244"
       y="164.09645"
       x="110.89289"
       style="font-style:normal;font-weight:normal;font-size:10.58333302px;line-height:1.25;font-family:sans-serif;letter-spacing:0px;word-spacing:0px;fill:#000000;fill-opacity:1;stroke:none;stroke-width:0.26458332"
       xml:space="preserve"><tspan
         style="font-size:7.05555534px;stroke-width:0.26458332"
         y="164.09645"
         x="110.89289"
         id="tspan5242"
         sodipodi:role="line">40</tspan></text>
    <rect
       style="fill:none;fill-opacity:1;stroke:#000000;stroke-width:0.27571866;stroke-opacity:1"
       id="rect5264"
       width="37.041668"
       height="28.732264"
       x="148.16666"
       y="124.06982" />
    <text
       xml:space="preserve"
       style="font-style:normal;font-weight:normal;font-size:10.58333302px;line-height:1.25;font-family:sans-serif;letter-spacing:0px;word-spacing:0px;fill:#000000;fill-opacity:1;stroke:none;stroke-width:0.26458332"
       x="161.68742"
       y="164.14589"
       id="text5270"><tspan
         sodipodi:role="line"
         id="tspan5268"
         x="161.68742"
         y="164.14589"
         style="font-size:7.05555534px;stroke-width:0.26458332">50</tspan></text>
    <rect
       style="fill:#f3f2c4;fill-opacity:1;stroke-width:0.21300983"
       id="rect5284"
       width="26.458334"
       height="9.2604189"
       x="77.522911"
       y="105.97083" />
    <rect
       y="105.97083"
       x="127.52917"
       height="9.2604189"
       width="26.458334"
       id="rect5286"
       style="fill:#f3f2c4;fill-opacity:1;stroke-width:0.21300983" />
    <rect
       style="fill:#f3f2c4;fill-opacity:1;stroke-width:0.21300983"
       id="rect5288"
       width="26.458334"
       height="9.2604189"
       x="30.42708"
       y="156.77083" />
    <rect
       y="156.77083"
       x="78.316666"
       height="9.2604189"
       width="26.458334"
       id="rect5290"
       style="fill:#f3f2c4;fill-opacity:1;stroke-width:0.21300983" />
    <rect
       style="fill:#f3f2c4;fill-opacity:1;stroke-width:0.21300983"
       id="rect5292"
       width="26.458334"
       height="9.2604189"
       x="127.79375"
       y="156.77083" />
    <rect
       style="fill:#ff2d2d;fill-opacity:1;stroke-width:0.10999999"
       id="rect4599-9"
       width="1.1"
       height="1.1"
       x="162.71875"
       y="90.847916" />
    <rect
       y="90.847916"
       x="165.36458"
       height="1.1"
       width="1.1"
       id="rect1542"
       style="fill:#ff2d2d;fill-opacity:1;stroke-width:0.10999999" />
    <rect
       y="89.524994"
       x="162.71875"
       height="1.1"
       width="1.1"
       id="rect1544"
       style="fill:#ff2d2d;fill-opacity:1;stroke-width:0.10999999" />
    <rect
       style="fill:#ff2d2d;fill-opacity:1;stroke-width:0.10999999"
       id="rect1546"
       width="1.1"
       height="1.1"
       x="165.36458"
       y="89.524994" />
    <rect
       style="fill:#ff2d2d;fill-opacity:1;stroke-width:0.10999999"
       id="rect4599-9-1"
       width="1.1"
       height="1.1"
       x="63.5"
       y="141.11874" />
    <rect
       y="141.11874"
       x="66.145836"
       height="1.1"
       width="1.1"
       id="rect1542-4"
       style="fill:#ff2d2d;fill-opacity:1;stroke-width:0.10999999" />
    <rect
       y="139.79582"
       x="63.5"
       height="1.1"
       width="1.1"
       id="rect1544-8"
       style="fill:#ff2d2d;fill-opacity:1;stroke-width:0.10999999" />
    <rect
       style="fill:#ff2d2d;fill-opacity:1;stroke-width:0.10999999"
       id="rect1546-9"
       width="1.1"
       height="1.1"
       x="66.145836"
       y="139.79582" />
    <rect
       style="fill:#ff2d2d;fill-opacity:1;stroke-width:0.10999999"
       id="rect1572"
       width="1.1"
       height="1.1"
       x="76.729164"
       y="145.08749" />
    <rect
       y="143.76457"
       x="76.729164"
       height="1.1"
       width="1.1"
       id="rect1574"
       style="fill:#ff2d2d;fill-opacity:1;stroke-width:0.10999999" />
    <rect
       y="145.08749"
       x="78.052086"
       height="1.1"
       width="1.1"
       id="rect1576"
       style="fill:#ff2d2d;fill-opacity:1;stroke-width:0.10999999" />
    <rect
       style="fill:#ff2d2d;fill-opacity:1;stroke-width:0.10999999"
       id="rect1578"
       width="1.1"
       height="1.1"
       x="78.052086"
       y="143.76457" />
    <rect
       style="fill:#ff2d2d;fill-opacity:1;stroke-width:0.10999999"
       id="rect1572-3"
       width="1.1"
       height="1.1"
       x="127"
       y="145.08749" />
    <rect
       y="143.76457"
       x="127"
       height="1.1"
       width="1.1"
       id="rect1574-2"
       style="fill:#ff2d2d;fill-opacity:1;stroke-width:0.10999999" />
    <rect
       y="145.08749"
       x="128.32294"
       height="1.1"
       width="1.1"
       id="rect1576-9"
       style="fill:#ff2d2d;fill-opacity:1;stroke-width:0.10999999" />
    <rect
       style="fill:#ff2d2d;fill-opacity:1;stroke-width:0.10999999"
       id="rect1578-4"
       width="1.1"
       height="1.1"
       x="128.32294"
       y="143.76457" />
    <rect
       y="133.18124"
       x="109.80209"
       height="1.1"
       width="1.1"
       id="rect1604"
       style="fill:#ff2d2d;fill-opacity:1;stroke-width:0.10999999" />
    <rect
       style="fill:#ff2d2d;fill-opacity:1;stroke-width:0.10999999"
       id="rect1606"
       width="1.1"
       height="1.1"
       x="109.80209"
       y="131.85832" />
    <rect
       y="138.4729"
       x="174.625"
       height="1.1"
       width="1.1"
       id="rect1576-9-8"
       style="fill:#ff2d2d;fill-opacity:1;stroke-width:0.10999999" />
    <rect
       style="fill:#ff2d2d;fill-opacity:1;stroke-width:0.10999999"
       id="rect1623"
       width="1.1"
       height="1.1"
       x="170.65625"
       y="134.50415" />
    <rect
       style="fill:#ff2d2d;fill-opacity:1;stroke-width:0.10999999"
       id="rect1625"
       width="1.1"
       height="1.1"
       x="177.27083"
       y="130.5354" />
    <rect
       y="129.21249"
       x="173.30208"
       height="1.1"
       width="1.1"
       id="rect1627"
       style="fill:#ff2d2d;fill-opacity:1;stroke-width:0.10999999" />
    <rect
       style="fill:#ff2d2d;fill-opacity:1;stroke-width:0.10999999"
       id="rect1629"
       width="1.1"
       height="1.1"
       x="171.97917"
       y="133.18124" />
  </g>
  <g
     inkscape:groupmode="layer"
     id="layer2"
     inkscape:label="Ebene 2"
     transform="translate(-30.42708,-72.230381)" />
  <g
     inkscape:groupmode="layer"
     id="layer3"
     inkscape:label="Ebene 3"
     transform="translate(-30.42708,-72.230381)" />
</svg>
