<?xml version="1.0" encoding="UTF-8" standalone="no"?>
<svg
   xmlns:dc="http://purl.org/dc/elements/1.1/"
   xmlns:cc="http://creativecommons.org/ns#"
   xmlns:rdf="http://www.w3.org/1999/02/22-rdf-syntax-ns#"
   xmlns:svg="http://www.w3.org/2000/svg"
   xmlns="http://www.w3.org/2000/svg"
   xmlns:sodipodi="http://sodipodi.sourceforge.net/DTD/sodipodi-0.dtd"
   xmlns:inkscape="http://www.inkscape.org/namespaces/inkscape"
   width="1356"
   height="146.01186"
   viewBox="0 0 358.77502 38.632303"
   version="1.1"
   id="svg1136"
   inkscape:version="1.0 (4035a4fb49, 2020-05-01)"
   sodipodi:docname="2021-CH-07a-answerB.svg">
  <defs
     id="defs1130" />
  <sodipodi:namedview
     id="base"
     pagecolor="#ffffff"
     bordercolor="#666666"
     borderopacity="1.0"
     inkscape:pageopacity="0.0"
     inkscape:pageshadow="2"
     inkscape:zoom="1.1841224"
     inkscape:cx="470.96106"
     inkscape:cy="173.12859"
     inkscape:document-units="mm"
     inkscape:current-layer="g2088-3"
     inkscape:document-rotation="0"
     showgrid="false"
     fit-margin-top="0"
     fit-margin-left="0"
     fit-margin-right="0"
     fit-margin-bottom="0"
     inkscape:window-width="1680"
     inkscape:window-height="987"
     inkscape:window-x="-8"
     inkscape:window-y="222"
     inkscape:window-maximized="1"
     inkscape:snap-global="false"
     units="px" />
  <metadata
     id="metadata1133">
    <rdf:RDF>
      <cc:Work
         rdf:about="">
        <dc:format>image/svg+xml</dc:format>
        <dc:type
           rdf:resource="http://purl.org/dc/dcmitype/StillImage" />
        <dc:title />
      </cc:Work>
    </rdf:RDF>
  </metadata>
  <g
     inkscape:label="Ebene 1"
     inkscape:groupmode="layer"
     id="layer1"
     transform="translate(74.070082,-7.8004974)">
    <g
       id="g2720"
       transform="translate(44.602896,453.34649)">
      <g
         transform="translate(-52.011233,-464.37942)"
         id="g2088-3">
        <path
           sodipodi:nodetypes="ccccc"
           d="M -21.536688,296.26575 H 337.23832 v 18.67448 H -21.536688 Z"
           style="font-variation-settings:normal;vector-effect:none;fill:#4d4d4d;fill-opacity:1;stroke:none;stroke-width:2.53235;stroke-linecap:round;stroke-linejoin:round;stroke-miterlimit:4;stroke-dasharray:none;stroke-dashoffset:0;stroke-opacity:0.725807;paint-order:markers fill stroke;stop-color:#000000"
           id="rect1333-6-3-9-2-3"
           transform="translate(-45.125057,-257.4745)" />
        <g
           transform="translate(54.647038,-30.216928)"
           id="g1136-3-9-4-3-59-3-1">
          <path
             sodipodi:nodetypes="csssssssc"
             d="m 12.815257,71.460079 23.579108,0.492915 c 4.216601,0.08815 1.787915,1.371381 -0.34046,3.073768 l -8.915656,7.131216 c -3.239984,2.591511 -3.250731,2.251644 -7.231149,2.251644 H -5.1207822 c -4.9360978,0 -4.352537,0.04022 -0.590086,-2.538053 l 12.411652,-8.505257 c 2.749226,-1.883945 2.929444,-1.906233 6.1144732,-1.906233 z"
             style="font-variation-settings:normal;opacity:1;vector-effect:none;fill:#8d8d8d;fill-opacity:1;stroke:none;stroke-width:2.53235;stroke-linecap:round;stroke-linejoin:round;stroke-miterlimit:4;stroke-dasharray:none;stroke-dashoffset:0;stroke-opacity:0.725807;paint-order:markers fill stroke;stop-color:#000000;stop-opacity:1"
             id="rect1347-3-2-4-0-7-45-0-36-4-7" />
          <path
             id="path1247-16-9-0-3-5"
             style="color:#000000;font-style:normal;font-variant:normal;font-weight:normal;font-stretch:normal;font-size:medium;line-height:normal;font-family:sans-serif;font-variant-ligatures:normal;font-variant-position:normal;font-variant-caps:normal;font-variant-numeric:normal;font-variant-alternates:normal;font-variant-east-asian:normal;font-feature-settings:normal;font-variation-settings:normal;text-indent:0;text-align:start;text-decoration:none;text-decoration-line:none;text-decoration-style:solid;text-decoration-color:#000000;letter-spacing:normal;word-spacing:normal;text-transform:none;writing-mode:lr-tb;direction:ltr;text-orientation:mixed;dominant-baseline:auto;baseline-shift:baseline;text-anchor:start;white-space:normal;shape-padding:0;shape-margin:0;inline-size:0;clip-rule:nonzero;display:inline;overflow:visible;visibility:visible;opacity:1;isolation:auto;mix-blend-mode:normal;color-interpolation:sRGB;color-interpolation-filters:linearRGB;solid-color:#000000;solid-opacity:1;vector-effect:none;fill:#808080;fill-opacity:1;fill-rule:nonzero;stroke:none;stroke-width:2.53235;stroke-linecap:round;stroke-linejoin:round;stroke-miterlimit:4;stroke-dasharray:none;stroke-dashoffset:0;stroke-opacity:0.725807;paint-order:markers fill stroke;color-rendering:auto;image-rendering:auto;shape-rendering:auto;text-rendering:auto;enable-background:accumulate;stop-color:#000000;stop-opacity:1"
             d="m 28.451569,75.458754 c -0.211381,0.007 -0.422932,0.0111 -0.634593,0.0129 0.402331,0.32893 0.614611,0.675 0.64389,1.03043 0.036,0.43699 -0.197458,0.90721 -0.729668,1.39474 -0.532212,0.48754 -1.348531,0.97244 -2.380731,1.40767 -1.729708,0.72934 -4.068199,1.32084 -6.702949,1.65313 0.003,0.002 0.006,0.005 0.009,0.008 0.196572,0.15878 0.40318,0.29466 0.617011,0.41392 2.441321,-0.34699 4.609761,-0.91444 6.27094,-1.61488 1.06689,-0.44986 1.92715,-0.95202 2.524389,-1.49914 0.520761,-0.47705 0.73456,-1.01982 0.775661,-1.57303 a 0.24999949,0.24999949 0 0 0 0.11421,-0.23099 0.24999949,0.24999949 0 0 0 -0.150379,-0.20929 c -0.0678,-0.27874 -0.18198,-0.54618 -0.357082,-0.79323 z" />
          <path
             id="path1077-2-4-9-1-7-7-2-12-9-4-2-0-1-3"
             style="font-variation-settings:normal;opacity:1;vector-effect:none;fill:#505050;fill-opacity:1;stroke:none;stroke-width:2.53235;stroke-linecap:round;stroke-linejoin:round;stroke-miterlimit:4;stroke-dasharray:none;stroke-dashoffset:0;stroke-opacity:0.725807;paint-order:markers fill stroke;stop-color:#000000;stop-opacity:1"
             d="m 28.338917,77.112915 c -0.11698,0.25447 -0.31568,0.51641 -0.607719,0.78393 -0.532212,0.48754 -1.348531,0.97244 -2.380731,1.407669 -1.729708,0.729341 -4.068199,1.320831 -6.702949,1.653131 0.003,0.002 0.006,0.005 0.009,0.008 0.0998,0.0806 0.20244,0.15445 0.306951,0.22427 a 9.3245154,3.0571464 4.7106144 0 0 0.858869,0.10387 c 2.2161,-0.35106 4.187261,-0.88192 5.722131,-1.5291 1.06689,-0.44986 1.92714,-0.95202 2.524389,-1.49914 0.318072,-0.29137 0.520642,-0.60753 0.640271,-0.93534 a 9.3245154,3.0571464 4.7106144 0 0 -0.37052,-0.21704 z" />
          <path
             sodipodi:nodetypes="csssssssc"
             d="m 12.733238,71.522545 23.57911,0.49291 c 4.216601,0.0882 1.787911,1.371379 -0.340461,3.073769 l -8.915659,7.131221 c -3.239979,2.59151 -3.250729,2.25164 -7.23115,2.25164 H -5.2028008 c -4.9360982,0 -4.352537,0.0402 -0.590086,-2.53805 l 12.411652,-8.50526 c 2.749226,-1.88394 2.929444,-1.90623 6.1144728,-1.90623 z"
             style="font-variation-settings:normal;vector-effect:none;fill:#8d8d8d;fill-opacity:1;stroke:none;stroke-width:2.53235;stroke-linecap:round;stroke-linejoin:round;stroke-miterlimit:4;stroke-dasharray:none;stroke-dashoffset:0;stroke-opacity:0.725807;paint-order:markers fill stroke;stop-color:#000000"
             id="rect1347-3-2-4-0-1-4-8-3-1" />
          <ellipse
             cx="10.324827"
             cy="79.011932"
             rx="11.961854"
             ry="3.9218273"
             id="path1077-0-0-8-0-2-1-7-8"
             style="font-variation-settings:normal;vector-effect:none;fill:#4d4d4d;fill-opacity:1;stroke:none;stroke-width:2.53235;stroke-linecap:round;stroke-linejoin:round;stroke-miterlimit:4;stroke-dasharray:none;stroke-dashoffset:0;stroke-opacity:0.725807;paint-order:markers fill stroke;stop-color:#000000"
             transform="rotate(-4.7106141)" />
          <ellipse
             style="font-variation-settings:normal;vector-effect:none;fill:none;fill-opacity:1;stroke:#2b2a29;stroke-width:0.499999;stroke-linecap:round;stroke-linejoin:round;stroke-miterlimit:4;stroke-dasharray:none;stroke-dashoffset:0;stroke-opacity:1;paint-order:markers fill stroke;stop-color:#000000"
             id="path1077-2-4-9-1-9-0-9-4-8"
             ry="3.9218273"
             rx="11.961854"
             cy="79.011932"
             cx="10.324827"
             transform="rotate(-4.7106141)" />
          <path
             id="rect1347-1-9-3-0-4-3-6-7"
             style="font-variation-settings:normal;vector-effect:none;fill:none;fill-opacity:1;stroke:#2b2a29;stroke-width:0.499999;stroke-linecap:round;stroke-linejoin:round;stroke-miterlimit:4;stroke-dasharray:none;stroke-dashoffset:0;stroke-opacity:1;paint-order:markers fill stroke;stop-color:#000000"
             d="m 12.733238,71.522545 23.646031,0.543599 c 4.216408,0.0969 1.799968,1.386561 -0.340461,3.073771 l -8.98258,7.08053 c -3.258342,2.56839 -3.250729,2.25164 -7.23115,2.25164 H -5.2028008 c -4.9360982,0 -4.352536,0.0402 -0.590085,-2.53805 l 12.411651,-8.50526 c 2.749226,-1.88395 2.929444,-1.90623 6.1144728,-1.90623 z"
             sodipodi:nodetypes="csssssssc" />
          <g
             transform="translate(-0.11439883,0.08698049)"
             id="g1136-3-0-2-9-2-0-0">
            <path
               sodipodi:nodetypes="csssssssc"
               d="m 12.815257,71.460079 23.579108,0.492915 c 4.216601,0.08815 1.787915,1.371381 -0.34046,3.073768 l -8.915656,7.131216 c -3.239984,2.591511 -3.250731,2.251644 -7.231149,2.251644 H -5.1207822 c -4.9360978,0 -4.352537,0.04022 -0.590086,-2.538053 l 12.411652,-8.505257 c 2.749226,-1.883945 2.929444,-1.906233 6.1144732,-1.906233 z"
               style="font-variation-settings:normal;opacity:1;vector-effect:none;fill:#8d8d8d;fill-opacity:1;stroke:none;stroke-width:2.53235;stroke-linecap:round;stroke-linejoin:round;stroke-miterlimit:4;stroke-dasharray:none;stroke-dashoffset:0;stroke-opacity:0.725807;paint-order:markers fill stroke;stop-color:#000000;stop-opacity:1"
               id="rect1347-3-2-4-0-1-7-9-5-2-4" />
            <path
               style="color:#000000;font-style:normal;font-variant:normal;font-weight:normal;font-stretch:normal;font-size:medium;line-height:normal;font-family:sans-serif;font-variant-ligatures:normal;font-variant-position:normal;font-variant-caps:normal;font-variant-numeric:normal;font-variant-alternates:normal;font-variant-east-asian:normal;font-feature-settings:normal;font-variation-settings:normal;text-indent:0;text-align:start;text-decoration:none;text-decoration-line:none;text-decoration-style:solid;text-decoration-color:#000000;letter-spacing:normal;word-spacing:normal;text-transform:none;writing-mode:lr-tb;direction:ltr;text-orientation:mixed;dominant-baseline:auto;baseline-shift:baseline;text-anchor:start;white-space:normal;shape-padding:0;shape-margin:0;inline-size:0;clip-rule:nonzero;display:inline;overflow:visible;visibility:visible;opacity:1;isolation:auto;mix-blend-mode:normal;color-interpolation:sRGB;color-interpolation-filters:linearRGB;solid-color:#000000;solid-opacity:1;vector-effect:none;fill:#b3b3b3;fill-opacity:1;fill-rule:nonzero;stroke:none;stroke-width:0.499999;stroke-linecap:round;stroke-linejoin:round;stroke-miterlimit:4;stroke-dasharray:none;stroke-dashoffset:0;stroke-opacity:1;paint-order:markers fill stroke;color-rendering:auto;image-rendering:auto;shape-rendering:auto;text-rendering:auto;enable-background:accumulate;stop-color:#000000;stop-opacity:1"
               d="m 10.492188,74.332031 c -3.3253238,0 -6.3366686,0.44067 -8.5371099,1.16211 -1.10022061,0.360719 -1.99851385,0.79089 -2.63867185,1.287109 -0.64015805,0.496219 -1.03515605,1.078141 -1.03515625,1.722656 2e-7,0.644515 0.3949982,1.228391 1.03515625,1.72461 0.640158,0.496219 1.53845124,0.926389 2.63867185,1.287109 2.2004413,0.721439 5.2117861,1.160156 8.5371099,1.160156 3.325323,0 6.336668,-0.438717 8.537109,-1.160156 1.10022,-0.36072 1.998514,-0.79089 2.638672,-1.287109 0.558179,-0.432674 0.815943,-0.955948 0.902343,-1.503907 a 0.24999949,0.24999949 0 0 0 0.132813,-0.220703 0.24999949,0.24999949 0 0 0 -0.132813,-0.220703 c -0.08646,-0.54788 -0.344232,-1.069333 -0.902343,-1.501953 -0.640158,-0.496219 -1.538452,-0.92639 -2.638672,-1.287109 -2.200441,-0.72144 -5.211786,-1.16211 -8.537109,-1.16211 z m 0,0.5 c 3.281025,0 6.251961,0.438736 8.380859,1.136719 1.064449,0.348992 1.917833,0.764848 2.488281,1.207031 0.570448,0.442183 0.841797,0.889658 0.841797,1.328125 0,0.438468 -0.271349,0.887895 -0.841797,1.330078 -0.570448,0.442183 -1.423832,0.85804 -2.488281,1.207032 -2.128898,0.697983 -5.099834,1.134765 -8.380859,1.134765 -3.2810265,0 -6.2519615,-0.436782 -8.3808599,-1.134765 C 1.0468789,80.692024 0.19349453,80.276167 -0.37695312,79.833984 -0.94740078,79.391801 -1.2187499,78.942374 -1.21875,78.503906 c 1e-7,-0.438467 0.27134922,-0.885942 0.84179688,-1.328125 C 0.19349453,76.733598 1.0468789,76.317742 2.1113281,75.96875 4.2402265,75.270767 7.2111615,74.832031 10.492188,74.832031 Z"
               id="path1247-4-0-3-2"
               transform="rotate(-4.7106141)" />
            <ellipse
               style="font-variation-settings:normal;opacity:1;vector-effect:none;fill:#6d6d6d;fill-opacity:1;stroke:none;stroke-width:2.53235;stroke-linecap:round;stroke-linejoin:round;stroke-miterlimit:4;stroke-dasharray:none;stroke-dashoffset:0;stroke-opacity:0.725807;paint-order:markers fill stroke;stop-color:#000000;stop-opacity:1"
               id="path1077-2-4-9-1-7-7-2-12-94-9-3-6"
               ry="3.0571463"
               rx="9.3245153"
               cy="76.245438"
               cx="-27.184044"
               transform="matrix(-0.99662219,-0.08212314,-0.08212314,0.99662219,0,0)" />
            <path
               id="path1077-2-4-9-1-7-7-2-12-9-3-6-0-2"
               style="font-variation-settings:normal;opacity:1;vector-effect:none;fill:#464646;fill-opacity:0.283892;stroke:none;stroke-width:9.57109;stroke-linecap:round;stroke-linejoin:round;stroke-miterlimit:4;stroke-dasharray:none;stroke-dashoffset:0;stroke-opacity:0.725807;paint-order:markers fill stroke;stop-color:#000000;stop-opacity:1"
               d="m 287.02539,187.90625 c -4.97817,0.42825 -9.92909,1.09484 -14.78906,2.30469 -8.2275,0.56433 -11.68248,12.72751 -5.18164,17.71484 0.37721,0.30468 0.76514,0.58376 1.16015,0.84766 a 35.242263,11.554569 4.7106144 0 0 5.67578,0.62109 35.242263,11.554569 4.7106144 0 0 36.07032,-8.62109 35.242263,11.554569 4.7106144 0 0 -22.93555,-12.86719 z"
               transform="matrix(0.26458333,0,0,0.26458333,-51.887001,25.864713)" />
            <path
               id="rect1347-1-9-3-0-14-1-0-1-0"
               style="font-variation-settings:normal;opacity:1;vector-effect:none;fill:none;fill-opacity:1;stroke:#2b2a29;stroke-width:0.5;stroke-linecap:round;stroke-linejoin:round;stroke-miterlimit:4;stroke-dasharray:none;stroke-dashoffset:0;stroke-opacity:1;paint-order:markers fill stroke;stop-color:#000000;stop-opacity:1"
               d="m 12.815257,71.460078 23.646028,0.543601 c 4.216408,0.09693 1.799973,1.386567 -0.340461,3.073768 l -8.982575,7.08053 c -3.258341,2.568393 -3.25073,2.251644 -7.23115,2.251644 H -5.1207819 c -4.9360981,0 -4.3525362,0.04022 -0.5900854,-2.538053 L 6.7007844,73.366311 c 2.7492257,-1.883945 2.9294439,-1.906233 6.1144726,-1.906233 z"
               sodipodi:nodetypes="csssssssc" />
            <g
               style="stroke-width:0.203401"
               transform="matrix(8.8771008,0,0,8.8771008,-2902.3706,-782.92652)"
               id="g957-7-6-59-2-8-9">
              <circle
                 style="opacity:1;vector-effect:none;fill:#b9dce5;fill-opacity:1;stroke:none;stroke-width:0.00221334;stroke-linecap:round;stroke-linejoin:round;stroke-miterlimit:4;stroke-dasharray:none;stroke-dashoffset:0;stroke-opacity:1;paint-order:markers stroke fill"
                 id="path1108-4-1-6-9-8-5-2-3"
                 cx="328.86887"
                 cy="96.139786"
                 r="1.0780957" />
              <path
                 style="fill:#ffd52f;fill-opacity:1;stroke:none;stroke-width:0.00792727px;stroke-linecap:butt;stroke-linejoin:miter;stroke-opacity:1"
                 d="m 329.68985,96.185372 c -0.11257,-0.09551 -0.25818,-0.166701 -0.37821,-0.224398 -0.0793,-0.03809 -0.27888,-0.178554 -0.3614,-0.187902 -0.42269,-0.04788 -0.60897,0.253501 -0.73122,0.401333 -0.0116,0.01406 -0.1008,0.546877 -0.074,0.54992 0.10844,0.01228 0.43803,-0.52741 0.5194,-0.577282 0.108,-0.06619 -4.3e-4,-0.203471 0.24617,-0.175545 0.56101,0.06354 0.47331,0.58378 0.77921,0.213871 z"
                 id="path1151-3-7-4-6-7-6-3-8-1-4"
                 inkscape:connector-curvature="0"
                 sodipodi:nodetypes="ccccccccc" />
              <path
                 style="fill:#ccff00;fill-opacity:1;stroke:none;stroke-width:0.00792727px;stroke-linecap:butt;stroke-linejoin:miter;stroke-opacity:1"
                 d="m 329.72477,96.147056 c -0.14193,-0.07716 -0.30793,-0.125893 -0.44443,-0.165094 -0.0901,-0.02588 -0.33211,-0.134509 -0.41577,-0.131877 -0.42854,0.0135 -0.50907,0.334102 -0.5787,0.495766 -0.007,0.01537 -0.13125,0.362192 -0.10402,0.361336 0.10994,-0.0035 0.46685,-0.391226 0.5295,-0.451482 0.0831,-0.07997 -0.0981,-0.217644 0.15189,-0.225514 0.56877,-0.01791 0.6873,0.521382 0.86153,0.116859 z"
                 id="path1151-3-6-1-7-1-2-1-3-7"
                 inkscape:connector-curvature="0"
                 sodipodi:nodetypes="ccccccccc" />
              <circle
                 style="opacity:1;vector-effect:none;fill:#def9ff;fill-opacity:1;stroke:none;stroke-width:0.00431571;stroke-linecap:round;stroke-linejoin:round;stroke-miterlimit:4;stroke-dasharray:none;stroke-dashoffset:0;stroke-opacity:1;paint-order:markers stroke fill"
                 id="path1132-5-9-5-0-04-6-3-0-9"
                 cx="328.39627"
                 cy="95.587608"
                 r="0.24011964" />
              <path
                 style="fill:#aad400;fill-opacity:1;stroke:none;stroke-width:0.00792727px;stroke-linecap:butt;stroke-linejoin:miter;stroke-opacity:1"
                 d="m 329.69022,96.16774 c -0.16227,-0.05771 -0.33966,-0.08447 -0.48526,-0.105629 -0.0962,-0.01397 -0.36596,-0.08986 -0.44723,-0.07668 -0.39126,0.117699 -0.4133,0.511033 -0.58789,0.753711 0.59243,-0.220584 0.0557,-0.392303 1.2113,-0.45858 0.17705,0.06712 0.28742,0.04431 0.30908,-0.112827 z"
                 id="path1151-4-2-8-4-1-9-7-2"
                 inkscape:connector-curvature="0"
                 sodipodi:nodetypes="ccccccc" />
              <ellipse
                 style="opacity:1;vector-effect:none;fill:#eafbff;fill-opacity:1;stroke:none;stroke-width:0.00348996;stroke-linecap:round;stroke-linejoin:round;stroke-miterlimit:4;stroke-dasharray:none;stroke-dashoffset:0;stroke-opacity:1;paint-order:markers stroke fill"
                 id="path1132-5-6-1-5-0-2-0-5-3-1"
                 cx="328.3833"
                 cy="95.555847"
                 rx="0.20267603"
                 ry="0.18603443" />
              <ellipse
                 style="opacity:1;vector-effect:none;fill:#ffffff;fill-opacity:1;stroke:none;stroke-width:0.0010387;stroke-linecap:round;stroke-linejoin:round;stroke-miterlimit:4;stroke-dasharray:none;stroke-dashoffset:0;stroke-opacity:1;paint-order:markers stroke fill"
                 id="path1132-2-0-2-7-7-3-2-5"
                 cx="-183.01581"
                 cy="-288.84195"
                 rx="0.062689751"
                 ry="0.053275842"
                 transform="rotate(138.57471)" />
              <path
                 style="opacity:1;vector-effect:none;fill:#98cbd9;fill-opacity:1;stroke:none;stroke-width:0.00221334;stroke-linecap:round;stroke-linejoin:round;stroke-miterlimit:4;stroke-dasharray:none;stroke-dashoffset:0;stroke-opacity:1;paint-order:markers stroke fill"
                 d="m 328.099,95.386589 a 1.0780956,1.0780956 0 0 0 -0.30823,0.753202 1.0780956,1.0780956 0 0 0 1.07809,1.07809 1.0780956,1.0780956 0 0 0 0.97642,-0.623953 1.0780956,1.0780956 0 0 1 -0.76986,0.324836 1.0780956,1.0780956 0 0 1 -1.07809,-1.07809 1.0780956,1.0780956 0 0 1 0.10167,-0.454085 z"
                 id="path1108-22-7-0-9-5-0-0-3-4"
                 inkscape:connector-curvature="0" />
              <path
                 style="opacity:1;vector-effect:none;fill:#f1fcff;fill-opacity:1;stroke:none;stroke-width:0.00137703;stroke-linecap:round;stroke-linejoin:round;stroke-miterlimit:4;stroke-dasharray:none;stroke-dashoffset:0;stroke-opacity:1;paint-order:markers stroke fill"
                 d="m 329.28767,95.399023 a 0.78557733,0.57269326 88.469871 0 0 -0.40483,-0.06149 0.78557733,0.57269326 88.469871 0 1 0.24728,0.08602 0.78557733,0.57269326 88.469871 0 1 0.26052,1.057764 0.78557733,0.57269326 88.469871 0 1 -0.3623,0.400576 0.78557733,0.57269326 88.469871 0 0 0.51984,-0.425104 0.78557733,0.57269326 88.469871 0 0 -0.26051,-1.057764 z"
                 id="path1108-2-5-5-6-9-39-3-3-4"
                 inkscape:connector-curvature="0" />
            </g>
          </g>
          <path
             id="path1247-1-9-9-9-9"
             style="color:#000000;font-style:normal;font-variant:normal;font-weight:normal;font-stretch:normal;font-size:medium;line-height:normal;font-family:sans-serif;font-variant-ligatures:normal;font-variant-position:normal;font-variant-caps:normal;font-variant-numeric:normal;font-variant-alternates:normal;font-variant-east-asian:normal;font-feature-settings:normal;font-variation-settings:normal;text-indent:0;text-align:start;text-decoration:none;text-decoration-line:none;text-decoration-style:solid;text-decoration-color:#000000;letter-spacing:normal;word-spacing:normal;text-transform:none;writing-mode:lr-tb;direction:ltr;text-orientation:mixed;dominant-baseline:auto;baseline-shift:baseline;text-anchor:start;white-space:normal;shape-padding:0;shape-margin:0;inline-size:0;clip-rule:nonzero;display:inline;overflow:visible;visibility:visible;isolation:auto;mix-blend-mode:normal;color-interpolation:sRGB;color-interpolation-filters:linearRGB;solid-color:#000000;solid-opacity:1;vector-effect:none;fill:#727272;fill-opacity:1;fill-rule:nonzero;stroke:none;stroke-width:2.53235;stroke-linecap:round;stroke-linejoin:round;stroke-miterlimit:4;stroke-dasharray:none;stroke-dashoffset:0;stroke-opacity:0.725807;paint-order:markers fill stroke;color-rendering:auto;image-rendering:auto;shape-rendering:auto;text-rendering:auto;enable-background:accumulate;stop-color:#000000"
             d="m 28.338917,77.112405 c -0.116959,0.25459 -0.315518,0.51677 -0.607719,0.78445 -0.532201,0.48753 -1.348531,0.97243 -2.380731,1.407659 -1.87583,0.790961 -4.46617,1.419951 -7.37629,1.731161 a 9.3245154,3.0571464 4.7106144 0 0 1.85828,0.25942 c 2.21266,-0.35148 4.17916,-0.88419 5.712309,-1.53066 1.066882,-0.44985 1.927151,-0.95202 2.524411,-1.499131 0.318212,-0.291519 0.52061,-0.607909 0.64026,-0.935859 a 9.3245154,3.0571464 4.7106144 0 0 -0.37052,-0.21704 z" />
        </g>
        <g
           id="g1136-3-4-7-8-6-8-7"
           transform="translate(18.315873,-29.971961)">
          <path
             id="rect1347-3-2-4-0-3-7-8-6-6-8"
             style="font-variation-settings:normal;opacity:1;vector-effect:none;fill:#8d8d8d;fill-opacity:1;stroke:none;stroke-width:2.53235;stroke-linecap:round;stroke-linejoin:round;stroke-miterlimit:4;stroke-dasharray:none;stroke-dashoffset:0;stroke-opacity:0.725807;paint-order:markers fill stroke;stop-color:#000000;stop-opacity:1"
             d="m 12.815257,71.460079 23.579108,0.492915 c 4.216601,0.08815 1.787915,1.371381 -0.34046,3.073768 l -8.915656,7.131216 c -3.239984,2.591511 -3.250731,2.251644 -7.231149,2.251644 H -5.1207822 c -4.9360978,0 -4.352537,0.04022 -0.590086,-2.538053 l 12.411652,-8.505257 c 2.749226,-1.883945 2.929444,-1.906233 6.1144732,-1.906233 z"
             sodipodi:nodetypes="csssssssc" />
          <ellipse
             transform="rotate(-4.710614)"
             cx="10.411695"
             cy="78.956421"
             rx="11.961854"
             ry="3.9218273"
             id="path1077-2-4-9-1-71-1-8-6-0-7"
             style="font-variation-settings:normal;opacity:1;vector-effect:none;fill:none;fill-opacity:1;stroke:#b3b3b3;stroke-width:0.499999;stroke-linecap:round;stroke-linejoin:round;stroke-miterlimit:4;stroke-dasharray:none;stroke-dashoffset:0;stroke-opacity:1;paint-order:markers fill stroke;stop-color:#000000;stop-opacity:1" />
          <path
             sodipodi:nodetypes="csssssssc"
             d="m 12.815257,71.460078 23.646028,0.543601 c 4.216408,0.09693 1.799973,1.386567 -0.340461,3.073768 l -8.982575,7.08053 c -3.258341,2.568393 -3.25073,2.251644 -7.23115,2.251644 H -5.1207819 c -4.9360981,0 -4.3525362,0.04022 -0.5900854,-2.538053 L 6.7007844,73.366311 c 2.7492257,-1.883945 2.9294439,-1.906233 6.1144726,-1.906233 z"
             style="font-variation-settings:normal;opacity:1;vector-effect:none;fill:none;fill-opacity:1;stroke:#2b2a29;stroke-width:0.5;stroke-linecap:round;stroke-linejoin:round;stroke-miterlimit:4;stroke-dasharray:none;stroke-dashoffset:0;stroke-opacity:1;paint-order:markers fill stroke;stop-color:#000000;stop-opacity:1"
             id="rect1347-1-9-3-3-7-8-3-8-5" />
        </g>
        <path
           sodipodi:nodetypes="csssssccssc"
           id="path2580"
           d="m 245.62235,47.620496 c -2.39045,0.209815 -4.91947,-0.0217 -7.28697,0.39198 -1.33707,0.233707 -8.17845,2.863797 -7.51075,4.279821 0.54282,1.151175 2.6996,1.006501 3.65048,1.514872 1.12485,0.601398 2.47764,1.233037 3.70642,1.620837 1.01007,0.31877 2.07497,0.39624 3.09102,0.709771 0.42066,0.129805 0.82042,0.56687 1.18885,0.794518 10.04862,0.536103 21.57795,-0.114315 13.88859,-4.86246 -1.00669,-0.667173 -2.23811,-0.894106 -3.28681,-1.525481 -1.29911,-0.782135 -2.66039,-1.350645 -4.04212,-1.959822 -1.17943,-0.520012 -2.05155,-1.328447 -3.39871,-0.964036 z"
           style="font-variation-settings:normal;opacity:1;vector-effect:none;fill:#343434;fill-opacity:1;stroke:none;stroke-width:2.53235;stroke-linecap:round;stroke-linejoin:round;stroke-miterlimit:4;stroke-dasharray:none;stroke-dashoffset:0;stroke-opacity:0.725807;paint-order:markers fill stroke;stop-color:#000000;stop-opacity:1" />
        <g
           id="g1136-3-4-7-8-5"
           transform="translate(-54.029764,-29.971961)">
          <path
             id="rect1347-3-2-4-0-3-7-8-0"
             style="font-variation-settings:normal;opacity:1;vector-effect:none;fill:#8d8d8d;fill-opacity:1;stroke:none;stroke-width:2.53235;stroke-linecap:round;stroke-linejoin:round;stroke-miterlimit:4;stroke-dasharray:none;stroke-dashoffset:0;stroke-opacity:0.725807;paint-order:markers fill stroke;stop-color:#000000;stop-opacity:1"
             d="m 12.815257,71.460079 23.579108,0.492915 c 4.216601,0.08815 1.787915,1.371381 -0.34046,3.073768 l -8.915656,7.131216 c -3.239984,2.591511 -3.250731,2.251644 -7.231149,2.251644 H -5.1207822 c -4.9360978,0 -4.352537,0.04022 -0.590086,-2.538053 l 12.411652,-8.505257 c 2.749226,-1.883945 2.929444,-1.906233 6.1144732,-1.906233 z"
             sodipodi:nodetypes="csssssssc" />
          <ellipse
             transform="rotate(-4.710614)"
             cx="10.411695"
             cy="78.956421"
             rx="11.961854"
             ry="3.9218273"
             id="path1077-2-4-9-1-71-1-8-5"
             style="font-variation-settings:normal;opacity:1;vector-effect:none;fill:none;fill-opacity:1;stroke:#b3b3b3;stroke-width:0.499999;stroke-linecap:round;stroke-linejoin:round;stroke-miterlimit:4;stroke-dasharray:none;stroke-dashoffset:0;stroke-opacity:1;paint-order:markers fill stroke;stop-color:#000000;stop-opacity:1" />
        </g>
        <g
           transform="translate(-17.918291,-29.971961)"
           id="g1136-3-4-7-8-6-9">
          <path
             sodipodi:nodetypes="csssssssc"
             d="m 12.815257,71.460079 23.579108,0.492915 c 4.216601,0.08815 1.787915,1.371381 -0.34046,3.073768 l -8.915656,7.131216 c -3.239984,2.591511 -3.250731,2.251644 -7.231149,2.251644 H -5.1207822 c -4.9360978,0 -4.352537,0.04022 -0.590086,-2.538053 l 12.411652,-8.505257 c 2.749226,-1.883945 2.929444,-1.906233 6.1144732,-1.906233 z"
             style="font-variation-settings:normal;opacity:1;vector-effect:none;fill:#8d8d8d;fill-opacity:1;stroke:none;stroke-width:2.53235;stroke-linecap:round;stroke-linejoin:round;stroke-miterlimit:4;stroke-dasharray:none;stroke-dashoffset:0;stroke-opacity:0.725807;paint-order:markers fill stroke;stop-color:#000000;stop-opacity:1"
             id="rect1347-3-2-4-0-3-7-8-6-5" />
          <ellipse
             style="font-variation-settings:normal;opacity:1;vector-effect:none;fill:none;fill-opacity:1;stroke:#b3b3b3;stroke-width:0.499999;stroke-linecap:round;stroke-linejoin:round;stroke-miterlimit:4;stroke-dasharray:none;stroke-dashoffset:0;stroke-opacity:1;paint-order:markers fill stroke;stop-color:#000000;stop-opacity:1"
             id="path1077-2-4-9-1-71-1-8-6-8"
             ry="3.9218273"
             rx="11.961854"
             cy="78.956421"
             cx="10.411695"
             transform="rotate(-4.710614)" />
          <path
             id="rect1347-1-9-3-3-7-8-3-5"
             style="font-variation-settings:normal;opacity:1;vector-effect:none;fill:none;fill-opacity:1;stroke:#2b2a29;stroke-width:0.5;stroke-linecap:round;stroke-linejoin:round;stroke-miterlimit:4;stroke-dasharray:none;stroke-dashoffset:0;stroke-opacity:1;paint-order:markers fill stroke;stop-color:#000000;stop-opacity:1"
             d="m 12.815257,71.460078 23.646028,0.543601 c 4.216408,0.09693 1.799973,1.386567 -0.340461,3.073768 l -8.982575,7.08053 c -3.258341,2.568393 -3.25073,2.251644 -7.23115,2.251644 H -5.1207819 c -4.9360981,0 -4.3525362,0.04022 -0.5900854,-2.538053 L 6.7007844,73.366311 c 2.7492257,-1.883945 2.9294439,-1.906233 6.1144726,-1.906233 z"
             sodipodi:nodetypes="csssssssc" />
        </g>
        <g
           transform="translate(54.451398,-30.05893)"
           id="g1136-3-9-4-3-59-5-1">
          <g
             transform="translate(35.868951,0.08698049)"
             id="g1136-3-0-2-9-2-3-6">
            <path
               sodipodi:nodetypes="csssssssc"
               d="m 12.815257,71.460079 23.579108,0.492915 c 4.216601,0.08815 1.787915,1.371381 -0.34046,3.073768 l -8.915656,7.131216 c -3.239984,2.591511 -3.250731,2.251644 -7.231149,2.251644 H -5.1207822 c -4.9360978,0 -4.352537,0.04022 -0.590086,-2.538053 l 12.411652,-8.505257 c 2.749226,-1.883945 2.929444,-1.906233 6.1144732,-1.906233 z"
               style="font-variation-settings:normal;opacity:1;vector-effect:none;fill:#8d8d8d;fill-opacity:1;stroke:none;stroke-width:2.53235;stroke-linecap:round;stroke-linejoin:round;stroke-miterlimit:4;stroke-dasharray:none;stroke-dashoffset:0;stroke-opacity:0.725807;paint-order:markers fill stroke;stop-color:#000000;stop-opacity:1"
               id="rect1347-3-2-4-0-1-7-9-5-3-2" />
            <path
               style="color:#000000;font-style:normal;font-variant:normal;font-weight:normal;font-stretch:normal;font-size:medium;line-height:normal;font-family:sans-serif;font-variant-ligatures:normal;font-variant-position:normal;font-variant-caps:normal;font-variant-numeric:normal;font-variant-alternates:normal;font-variant-east-asian:normal;font-feature-settings:normal;font-variation-settings:normal;text-indent:0;text-align:start;text-decoration:none;text-decoration-line:none;text-decoration-style:solid;text-decoration-color:#000000;letter-spacing:normal;word-spacing:normal;text-transform:none;writing-mode:lr-tb;direction:ltr;text-orientation:mixed;dominant-baseline:auto;baseline-shift:baseline;text-anchor:start;white-space:normal;shape-padding:0;shape-margin:0;inline-size:0;clip-rule:nonzero;display:inline;overflow:visible;visibility:visible;opacity:1;isolation:auto;mix-blend-mode:normal;color-interpolation:sRGB;color-interpolation-filters:linearRGB;solid-color:#000000;solid-opacity:1;vector-effect:none;fill:#b3b3b3;fill-opacity:1;fill-rule:nonzero;stroke:none;stroke-width:0.499999;stroke-linecap:round;stroke-linejoin:round;stroke-miterlimit:4;stroke-dasharray:none;stroke-dashoffset:0;stroke-opacity:1;paint-order:markers fill stroke;color-rendering:auto;image-rendering:auto;shape-rendering:auto;text-rendering:auto;enable-background:accumulate;stop-color:#000000;stop-opacity:1"
               d="m 10.492188,74.332031 c -3.3253238,0 -6.3366686,0.44067 -8.5371099,1.16211 -1.10022061,0.360719 -1.99851385,0.79089 -2.63867185,1.287109 -0.64015805,0.496219 -1.03515605,1.078141 -1.03515625,1.722656 2e-7,0.644515 0.3949982,1.228391 1.03515625,1.72461 0.640158,0.496219 1.53845124,0.926389 2.63867185,1.287109 2.2004413,0.721439 5.2117861,1.160156 8.5371099,1.160156 3.325323,0 6.336668,-0.438717 8.537109,-1.160156 1.10022,-0.36072 1.998514,-0.79089 2.638672,-1.287109 0.558179,-0.432674 0.815943,-0.955948 0.902343,-1.503907 a 0.24999949,0.24999949 0 0 0 0.132813,-0.220703 0.24999949,0.24999949 0 0 0 -0.132813,-0.220703 c -0.08646,-0.54788 -0.344232,-1.069333 -0.902343,-1.501953 -0.640158,-0.496219 -1.538452,-0.92639 -2.638672,-1.287109 -2.200441,-0.72144 -5.211786,-1.16211 -8.537109,-1.16211 z m 0,0.5 c 3.281025,0 6.251961,0.438736 8.380859,1.136719 1.064449,0.348992 1.917833,0.764848 2.488281,1.207031 0.570448,0.442183 0.841797,0.889658 0.841797,1.328125 0,0.438468 -0.271349,0.887895 -0.841797,1.330078 -0.570448,0.442183 -1.423832,0.85804 -2.488281,1.207032 -2.128898,0.697983 -5.099834,1.134765 -8.380859,1.134765 -3.2810265,0 -6.2519615,-0.436782 -8.3808599,-1.134765 C 1.0468789,80.692024 0.19349453,80.276167 -0.37695312,79.833984 -0.94740078,79.391801 -1.2187499,78.942374 -1.21875,78.503906 c 1e-7,-0.438467 0.27134922,-0.885942 0.84179688,-1.328125 C 0.19349453,76.733598 1.0468789,76.317742 2.1113281,75.96875 4.2402265,75.270767 7.2111615,74.832031 10.492188,74.832031 Z"
               id="path1247-4-0-1-8"
               transform="rotate(-4.7106141)" />
            <ellipse
               style="font-variation-settings:normal;opacity:1;vector-effect:none;fill:#6d6d6d;fill-opacity:1;stroke:none;stroke-width:2.53235;stroke-linecap:round;stroke-linejoin:round;stroke-miterlimit:4;stroke-dasharray:none;stroke-dashoffset:0;stroke-opacity:0.725807;paint-order:markers fill stroke;stop-color:#000000;stop-opacity:1"
               id="path1077-2-4-9-1-7-7-2-12-94-9-6-8"
               ry="3.0571463"
               rx="9.3245153"
               cy="76.245438"
               cx="-27.184044"
               transform="matrix(-0.99662219,-0.08212314,-0.08212314,0.99662219,0,0)" />
            <path
               id="path1077-2-4-9-1-7-7-2-12-9-3-6-5-3"
               style="font-variation-settings:normal;opacity:1;vector-effect:none;fill:#464646;fill-opacity:0.283892;stroke:none;stroke-width:9.57109;stroke-linecap:round;stroke-linejoin:round;stroke-miterlimit:4;stroke-dasharray:none;stroke-dashoffset:0;stroke-opacity:0.725807;paint-order:markers fill stroke;stop-color:#000000;stop-opacity:1"
               d="m 287.02539,187.90625 c -4.97817,0.42825 -9.92909,1.09484 -14.78906,2.30469 -8.2275,0.56433 -11.68248,12.72751 -5.18164,17.71484 0.37721,0.30468 0.76514,0.58376 1.16015,0.84766 a 35.242263,11.554569 4.7106144 0 0 5.67578,0.62109 35.242263,11.554569 4.7106144 0 0 36.07032,-8.62109 35.242263,11.554569 4.7106144 0 0 -22.93555,-12.86719 z"
               transform="matrix(0.26458333,0,0,0.26458333,-51.887001,25.864713)" />
            <path
               id="rect1347-1-9-3-0-14-1-0-0-6"
               style="font-variation-settings:normal;opacity:1;vector-effect:none;fill:none;fill-opacity:1;stroke:#2b2a29;stroke-width:0.5;stroke-linecap:round;stroke-linejoin:round;stroke-miterlimit:4;stroke-dasharray:none;stroke-dashoffset:0;stroke-opacity:1;paint-order:markers fill stroke;stop-color:#000000;stop-opacity:1"
               d="m 12.815257,71.460078 23.646028,0.543601 c 4.216408,0.09693 1.799973,1.386567 -0.340461,3.073768 l -8.982575,7.08053 c -3.258341,2.568393 -3.25073,2.251644 -7.23115,2.251644 H -5.1207819 c -4.9360981,0 -4.3525362,0.04022 -0.5900854,-2.538053 L 6.7007844,73.366311 c 2.7492257,-1.883945 2.9294439,-1.906233 6.1144726,-1.906233 z"
               sodipodi:nodetypes="csssssssc" />
            <g
               style="stroke-width:0.203401"
               transform="matrix(8.8771008,0,0,8.8771008,-2902.3706,-782.92652)"
               id="g957-7-6-59-2-6-2">
              <circle
                 style="opacity:1;vector-effect:none;fill:#b9dce5;fill-opacity:1;stroke:none;stroke-width:0.00221334;stroke-linecap:round;stroke-linejoin:round;stroke-miterlimit:4;stroke-dasharray:none;stroke-dashoffset:0;stroke-opacity:1;paint-order:markers stroke fill"
                 id="path1108-4-1-6-9-8-5-9-8"
                 cx="328.86887"
                 cy="96.139786"
                 r="1.0780957" />
              <path
                 style="fill:#ffd52f;fill-opacity:1;stroke:none;stroke-width:0.00792727px;stroke-linecap:butt;stroke-linejoin:miter;stroke-opacity:1"
                 d="m 329.68985,96.185372 c -0.11257,-0.09551 -0.25818,-0.166701 -0.37821,-0.224398 -0.0793,-0.03809 -0.27888,-0.178554 -0.3614,-0.187902 -0.42269,-0.04788 -0.60897,0.253501 -0.73122,0.401333 -0.0116,0.01406 -0.1008,0.546877 -0.074,0.54992 0.10844,0.01228 0.43803,-0.52741 0.5194,-0.577282 0.108,-0.06619 -4.3e-4,-0.203471 0.24617,-0.175545 0.56101,0.06354 0.47331,0.58378 0.77921,0.213871 z"
                 id="path1151-3-7-4-6-7-6-3-8-3-9"
                 inkscape:connector-curvature="0"
                 sodipodi:nodetypes="ccccccccc" />
              <path
                 style="fill:#ccff00;fill-opacity:1;stroke:none;stroke-width:0.00792727px;stroke-linecap:butt;stroke-linejoin:miter;stroke-opacity:1"
                 d="m 329.72477,96.147056 c -0.14193,-0.07716 -0.30793,-0.125893 -0.44443,-0.165094 -0.0901,-0.02588 -0.33211,-0.134509 -0.41577,-0.131877 -0.42854,0.0135 -0.50907,0.334102 -0.5787,0.495766 -0.007,0.01537 -0.13125,0.362192 -0.10402,0.361336 0.10994,-0.0035 0.46685,-0.391226 0.5295,-0.451482 0.0831,-0.07997 -0.0981,-0.217644 0.15189,-0.225514 0.56877,-0.01791 0.6873,0.521382 0.86153,0.116859 z"
                 id="path1151-3-6-1-7-1-2-1-2-7"
                 inkscape:connector-curvature="0"
                 sodipodi:nodetypes="ccccccccc" />
              <circle
                 style="opacity:1;vector-effect:none;fill:#def9ff;fill-opacity:1;stroke:none;stroke-width:0.00431571;stroke-linecap:round;stroke-linejoin:round;stroke-miterlimit:4;stroke-dasharray:none;stroke-dashoffset:0;stroke-opacity:1;paint-order:markers stroke fill"
                 id="path1132-5-9-5-0-04-6-3-7-3"
                 cx="328.39627"
                 cy="95.587608"
                 r="0.24011964" />
              <path
                 style="fill:#aad400;fill-opacity:1;stroke:none;stroke-width:0.00792727px;stroke-linecap:butt;stroke-linejoin:miter;stroke-opacity:1"
                 d="m 329.69022,96.16774 c -0.16227,-0.05771 -0.33966,-0.08447 -0.48526,-0.105629 -0.0962,-0.01397 -0.36596,-0.08986 -0.44723,-0.07668 -0.39126,0.117699 -0.4133,0.511033 -0.58789,0.753711 0.59243,-0.220584 0.0557,-0.392303 1.2113,-0.45858 0.17705,0.06712 0.28742,0.04431 0.30908,-0.112827 z"
                 id="path1151-4-2-8-4-1-9-6-0"
                 inkscape:connector-curvature="0"
                 sodipodi:nodetypes="ccccccc" />
              <ellipse
                 style="opacity:1;vector-effect:none;fill:#eafbff;fill-opacity:1;stroke:none;stroke-width:0.00348996;stroke-linecap:round;stroke-linejoin:round;stroke-miterlimit:4;stroke-dasharray:none;stroke-dashoffset:0;stroke-opacity:1;paint-order:markers stroke fill"
                 id="path1132-5-6-1-5-0-2-0-5-5-4"
                 cx="328.3833"
                 cy="95.555847"
                 rx="0.20267603"
                 ry="0.18603443" />
              <ellipse
                 style="opacity:1;vector-effect:none;fill:#ffffff;fill-opacity:1;stroke:none;stroke-width:0.0010387;stroke-linecap:round;stroke-linejoin:round;stroke-miterlimit:4;stroke-dasharray:none;stroke-dashoffset:0;stroke-opacity:1;paint-order:markers stroke fill"
                 id="path1132-2-0-2-7-7-3-5-1"
                 cx="-183.01581"
                 cy="-288.84195"
                 rx="0.062689751"
                 ry="0.053275842"
                 transform="rotate(138.57471)" />
              <path
                 style="opacity:1;vector-effect:none;fill:#98cbd9;fill-opacity:1;stroke:none;stroke-width:0.00221334;stroke-linecap:round;stroke-linejoin:round;stroke-miterlimit:4;stroke-dasharray:none;stroke-dashoffset:0;stroke-opacity:1;paint-order:markers stroke fill"
                 d="m 328.099,95.386589 a 1.0780956,1.0780956 0 0 0 -0.30823,0.753202 1.0780956,1.0780956 0 0 0 1.07809,1.07809 1.0780956,1.0780956 0 0 0 0.97642,-0.623953 1.0780956,1.0780956 0 0 1 -0.76986,0.324836 1.0780956,1.0780956 0 0 1 -1.07809,-1.07809 1.0780956,1.0780956 0 0 1 0.10167,-0.454085 z"
                 id="path1108-22-7-0-9-5-0-0-0-0"
                 inkscape:connector-curvature="0" />
              <path
                 style="opacity:1;vector-effect:none;fill:#f1fcff;fill-opacity:1;stroke:none;stroke-width:0.00137703;stroke-linecap:round;stroke-linejoin:round;stroke-miterlimit:4;stroke-dasharray:none;stroke-dashoffset:0;stroke-opacity:1;paint-order:markers stroke fill"
                 d="m 329.28767,95.399023 a 0.78557733,0.57269326 88.469871 0 0 -0.40483,-0.06149 0.78557733,0.57269326 88.469871 0 1 0.24728,0.08602 0.78557733,0.57269326 88.469871 0 1 0.26052,1.057764 0.78557733,0.57269326 88.469871 0 1 -0.3623,0.400576 0.78557733,0.57269326 88.469871 0 0 0.51984,-0.425104 0.78557733,0.57269326 88.469871 0 0 -0.26051,-1.057764 z"
                 id="path1108-2-5-5-6-9-39-3-7-7"
                 inkscape:connector-curvature="0" />
            </g>
          </g>
        </g>
        <g
           transform="translate(126.70652,-30.05893)"
           id="g1136-3-9-4-3-59-52-9">
          <path
             sodipodi:nodetypes="csssssssc"
             d="m 12.815257,71.460079 23.579108,0.492915 c 4.216601,0.08815 1.787915,1.371381 -0.34046,3.073768 l -8.915656,7.131216 c -3.239984,2.591511 -3.250731,2.251644 -7.231149,2.251644 H -5.1207822 c -4.9360978,0 -4.352537,0.04022 -0.590086,-2.538053 l 12.411652,-8.505257 c 2.749226,-1.883945 2.929444,-1.906233 6.1144732,-1.906233 z"
             style="font-variation-settings:normal;opacity:1;vector-effect:none;fill:#8d8d8d;fill-opacity:1;stroke:none;stroke-width:2.53235;stroke-linecap:round;stroke-linejoin:round;stroke-miterlimit:4;stroke-dasharray:none;stroke-dashoffset:0;stroke-opacity:0.725807;paint-order:markers fill stroke;stop-color:#000000;stop-opacity:1"
             id="rect1347-3-2-4-0-7-45-0-36-6-3" />
          <path
             id="path1247-16-9-0-4-0"
             style="color:#000000;font-style:normal;font-variant:normal;font-weight:normal;font-stretch:normal;font-size:medium;line-height:normal;font-family:sans-serif;font-variant-ligatures:normal;font-variant-position:normal;font-variant-caps:normal;font-variant-numeric:normal;font-variant-alternates:normal;font-variant-east-asian:normal;font-feature-settings:normal;font-variation-settings:normal;text-indent:0;text-align:start;text-decoration:none;text-decoration-line:none;text-decoration-style:solid;text-decoration-color:#000000;letter-spacing:normal;word-spacing:normal;text-transform:none;writing-mode:lr-tb;direction:ltr;text-orientation:mixed;dominant-baseline:auto;baseline-shift:baseline;text-anchor:start;white-space:normal;shape-padding:0;shape-margin:0;inline-size:0;clip-rule:nonzero;display:inline;overflow:visible;visibility:visible;opacity:1;isolation:auto;mix-blend-mode:normal;color-interpolation:sRGB;color-interpolation-filters:linearRGB;solid-color:#000000;solid-opacity:1;vector-effect:none;fill:#808080;fill-opacity:1;fill-rule:nonzero;stroke:none;stroke-width:2.53235;stroke-linecap:round;stroke-linejoin:round;stroke-miterlimit:4;stroke-dasharray:none;stroke-dashoffset:0;stroke-opacity:0.725807;paint-order:markers fill stroke;color-rendering:auto;image-rendering:auto;shape-rendering:auto;text-rendering:auto;enable-background:accumulate;stop-color:#000000;stop-opacity:1"
             d="m 28.451569,75.458754 c -0.211381,0.007 -0.422932,0.0111 -0.634593,0.0129 0.402331,0.32893 0.614611,0.675 0.64389,1.03043 0.036,0.43699 -0.197458,0.90721 -0.729668,1.39474 -0.532212,0.48754 -1.348531,0.97244 -2.380731,1.40767 -1.729708,0.72934 -4.068199,1.32084 -6.702949,1.65313 0.003,0.002 0.006,0.005 0.009,0.008 0.196572,0.15878 0.40318,0.29466 0.617011,0.41392 2.441321,-0.34699 4.609761,-0.91444 6.27094,-1.61488 1.06689,-0.44986 1.92715,-0.95202 2.524389,-1.49914 0.520761,-0.47705 0.73456,-1.01982 0.775661,-1.57303 a 0.24999949,0.24999949 0 0 0 0.11421,-0.23099 0.24999949,0.24999949 0 0 0 -0.150379,-0.20929 c -0.0678,-0.27874 -0.18198,-0.54618 -0.357082,-0.79323 z" />
          <path
             id="path1077-2-4-9-1-7-7-2-12-9-4-2-0-3-4"
             style="font-variation-settings:normal;opacity:1;vector-effect:none;fill:#505050;fill-opacity:1;stroke:none;stroke-width:2.53235;stroke-linecap:round;stroke-linejoin:round;stroke-miterlimit:4;stroke-dasharray:none;stroke-dashoffset:0;stroke-opacity:0.725807;paint-order:markers fill stroke;stop-color:#000000;stop-opacity:1"
             d="m 28.338917,77.112915 c -0.11698,0.25447 -0.31568,0.51641 -0.607719,0.78393 -0.532212,0.48754 -1.348531,0.97244 -2.380731,1.407669 -1.729708,0.729341 -4.068199,1.320831 -6.702949,1.653131 0.003,0.002 0.006,0.005 0.009,0.008 0.0998,0.0806 0.20244,0.15445 0.306951,0.22427 a 9.3245154,3.0571464 4.7106144 0 0 0.858869,0.10387 c 2.2161,-0.35106 4.187261,-0.88192 5.722131,-1.5291 1.06689,-0.44986 1.92714,-0.95202 2.524389,-1.49914 0.318072,-0.29137 0.520642,-0.60753 0.640271,-0.93534 a 9.3245154,3.0571464 4.7106144 0 0 -0.37052,-0.21704 z" />
          <path
             sodipodi:nodetypes="csssssssc"
             d="m 12.733238,71.522545 23.57911,0.49291 c 4.216601,0.0882 1.787911,1.371379 -0.340461,3.073769 l -8.915659,7.131221 c -3.239979,2.59151 -3.250729,2.25164 -7.23115,2.25164 H -5.2028008 c -4.9360982,0 -4.352537,0.0402 -0.590086,-2.53805 l 12.411652,-8.50526 c 2.749226,-1.88394 2.929444,-1.90623 6.1144728,-1.90623 z"
             style="font-variation-settings:normal;vector-effect:none;fill:#8d8d8d;fill-opacity:1;stroke:none;stroke-width:2.53235;stroke-linecap:round;stroke-linejoin:round;stroke-miterlimit:4;stroke-dasharray:none;stroke-dashoffset:0;stroke-opacity:0.725807;paint-order:markers fill stroke;stop-color:#000000"
             id="rect1347-3-2-4-0-1-4-8-4-3" />
          <ellipse
             cx="10.324827"
             cy="79.011932"
             rx="11.961854"
             ry="3.9218273"
             id="path1077-0-0-8-0-2-1-76-4"
             style="font-variation-settings:normal;vector-effect:none;fill:#4d4d4d;fill-opacity:1;stroke:none;stroke-width:2.53235;stroke-linecap:round;stroke-linejoin:round;stroke-miterlimit:4;stroke-dasharray:none;stroke-dashoffset:0;stroke-opacity:0.725807;paint-order:markers fill stroke;stop-color:#000000"
             transform="rotate(-4.7106141)" />
          <ellipse
             style="font-variation-settings:normal;vector-effect:none;fill:none;fill-opacity:1;stroke:#2b2a29;stroke-width:0.499999;stroke-linecap:round;stroke-linejoin:round;stroke-miterlimit:4;stroke-dasharray:none;stroke-dashoffset:0;stroke-opacity:1;paint-order:markers fill stroke;stop-color:#000000"
             id="path1077-2-4-9-1-9-0-9-7-8"
             ry="3.9218273"
             rx="11.961854"
             cy="79.011932"
             cx="10.324827"
             transform="rotate(-4.7106141)" />
          <path
             id="rect1347-1-9-3-0-4-3-5-8"
             style="font-variation-settings:normal;vector-effect:none;fill:none;fill-opacity:1;stroke:#2b2a29;stroke-width:0.499999;stroke-linecap:round;stroke-linejoin:round;stroke-miterlimit:4;stroke-dasharray:none;stroke-dashoffset:0;stroke-opacity:1;paint-order:markers fill stroke;stop-color:#000000"
             d="m 12.733238,71.522545 23.646031,0.543599 c 4.216408,0.0969 1.799968,1.386561 -0.340461,3.073771 l -8.98258,7.08053 c -3.258342,2.56839 -3.250729,2.25164 -7.23115,2.25164 H -5.2028008 c -4.9360982,0 -4.352536,0.0402 -0.590085,-2.53805 l 12.411651,-8.50526 c 2.749226,-1.88395 2.929444,-1.90623 6.1144728,-1.90623 z"
             sodipodi:nodetypes="csssssssc" />
          <g
             transform="translate(-0.11439883,0.08698049)"
             id="g1136-3-0-2-9-2-6-3">
            <path
               sodipodi:nodetypes="csssssssc"
               d="m 12.815257,71.460079 23.579108,0.492915 c 4.216601,0.08815 1.787915,1.371381 -0.34046,3.073768 l -8.915656,7.131216 c -3.239984,2.591511 -3.250731,2.251644 -7.231149,2.251644 H -5.1207822 c -4.9360978,0 -4.352537,0.04022 -0.590086,-2.538053 l 12.411652,-8.505257 c 2.749226,-1.883945 2.929444,-1.906233 6.1144732,-1.906233 z"
               style="font-variation-settings:normal;opacity:1;vector-effect:none;fill:#8d8d8d;fill-opacity:1;stroke:none;stroke-width:2.53235;stroke-linecap:round;stroke-linejoin:round;stroke-miterlimit:4;stroke-dasharray:none;stroke-dashoffset:0;stroke-opacity:0.725807;paint-order:markers fill stroke;stop-color:#000000;stop-opacity:1"
               id="rect1347-3-2-4-0-1-7-9-5-0-9" />
            <path
               style="color:#000000;font-style:normal;font-variant:normal;font-weight:normal;font-stretch:normal;font-size:medium;line-height:normal;font-family:sans-serif;font-variant-ligatures:normal;font-variant-position:normal;font-variant-caps:normal;font-variant-numeric:normal;font-variant-alternates:normal;font-variant-east-asian:normal;font-feature-settings:normal;font-variation-settings:normal;text-indent:0;text-align:start;text-decoration:none;text-decoration-line:none;text-decoration-style:solid;text-decoration-color:#000000;letter-spacing:normal;word-spacing:normal;text-transform:none;writing-mode:lr-tb;direction:ltr;text-orientation:mixed;dominant-baseline:auto;baseline-shift:baseline;text-anchor:start;white-space:normal;shape-padding:0;shape-margin:0;inline-size:0;clip-rule:nonzero;display:inline;overflow:visible;visibility:visible;opacity:1;isolation:auto;mix-blend-mode:normal;color-interpolation:sRGB;color-interpolation-filters:linearRGB;solid-color:#000000;solid-opacity:1;vector-effect:none;fill:#b3b3b3;fill-opacity:1;fill-rule:nonzero;stroke:none;stroke-width:0.499999;stroke-linecap:round;stroke-linejoin:round;stroke-miterlimit:4;stroke-dasharray:none;stroke-dashoffset:0;stroke-opacity:1;paint-order:markers fill stroke;color-rendering:auto;image-rendering:auto;shape-rendering:auto;text-rendering:auto;enable-background:accumulate;stop-color:#000000;stop-opacity:1"
               d="m 10.492188,74.332031 c -3.3253238,0 -6.3366686,0.44067 -8.5371099,1.16211 -1.10022061,0.360719 -1.99851385,0.79089 -2.63867185,1.287109 -0.64015805,0.496219 -1.03515605,1.078141 -1.03515625,1.722656 2e-7,0.644515 0.3949982,1.228391 1.03515625,1.72461 0.640158,0.496219 1.53845124,0.926389 2.63867185,1.287109 2.2004413,0.721439 5.2117861,1.160156 8.5371099,1.160156 3.325323,0 6.336668,-0.438717 8.537109,-1.160156 1.10022,-0.36072 1.998514,-0.79089 2.638672,-1.287109 0.558179,-0.432674 0.815943,-0.955948 0.902343,-1.503907 a 0.24999949,0.24999949 0 0 0 0.132813,-0.220703 0.24999949,0.24999949 0 0 0 -0.132813,-0.220703 c -0.08646,-0.54788 -0.344232,-1.069333 -0.902343,-1.501953 -0.640158,-0.496219 -1.538452,-0.92639 -2.638672,-1.287109 -2.200441,-0.72144 -5.211786,-1.16211 -8.537109,-1.16211 z m 0,0.5 c 3.281025,0 6.251961,0.438736 8.380859,1.136719 1.064449,0.348992 1.917833,0.764848 2.488281,1.207031 0.570448,0.442183 0.841797,0.889658 0.841797,1.328125 0,0.438468 -0.271349,0.887895 -0.841797,1.330078 -0.570448,0.442183 -1.423832,0.85804 -2.488281,1.207032 -2.128898,0.697983 -5.099834,1.134765 -8.380859,1.134765 -3.2810265,0 -6.2519615,-0.436782 -8.3808599,-1.134765 C 1.0468789,80.692024 0.19349453,80.276167 -0.37695312,79.833984 -0.94740078,79.391801 -1.2187499,78.942374 -1.21875,78.503906 c 1e-7,-0.438467 0.27134922,-0.885942 0.84179688,-1.328125 C 0.19349453,76.733598 1.0468789,76.317742 2.1113281,75.96875 4.2402265,75.270767 7.2111615,74.832031 10.492188,74.832031 Z"
               id="path1247-4-0-39-7"
               transform="rotate(-4.7106141)" />
            <ellipse
               style="font-variation-settings:normal;opacity:1;vector-effect:none;fill:#6d6d6d;fill-opacity:1;stroke:none;stroke-width:2.53235;stroke-linecap:round;stroke-linejoin:round;stroke-miterlimit:4;stroke-dasharray:none;stroke-dashoffset:0;stroke-opacity:0.725807;paint-order:markers fill stroke;stop-color:#000000;stop-opacity:1"
               id="path1077-2-4-9-1-7-7-2-12-94-9-60-3"
               ry="3.0571463"
               rx="9.3245153"
               cy="76.245438"
               cx="-27.184044"
               transform="matrix(-0.99662219,-0.08212314,-0.08212314,0.99662219,0,0)" />
            <path
               id="path1077-2-4-9-1-7-7-2-12-9-3-6-06-3"
               style="font-variation-settings:normal;opacity:1;vector-effect:none;fill:#464646;fill-opacity:0.283892;stroke:none;stroke-width:9.57109;stroke-linecap:round;stroke-linejoin:round;stroke-miterlimit:4;stroke-dasharray:none;stroke-dashoffset:0;stroke-opacity:0.725807;paint-order:markers fill stroke;stop-color:#000000;stop-opacity:1"
               d="m 287.02539,187.90625 c -4.97817,0.42825 -9.92909,1.09484 -14.78906,2.30469 -8.2275,0.56433 -11.68248,12.72751 -5.18164,17.71484 0.37721,0.30468 0.76514,0.58376 1.16015,0.84766 a 35.242263,11.554569 4.7106144 0 0 5.67578,0.62109 35.242263,11.554569 4.7106144 0 0 36.07032,-8.62109 35.242263,11.554569 4.7106144 0 0 -22.93555,-12.86719 z"
               transform="matrix(0.26458333,0,0,0.26458333,-51.887001,25.864713)" />
            <path
               id="rect1347-1-9-3-0-14-1-0-4-9"
               style="font-variation-settings:normal;opacity:1;vector-effect:none;fill:none;fill-opacity:1;stroke:#2b2a29;stroke-width:0.5;stroke-linecap:round;stroke-linejoin:round;stroke-miterlimit:4;stroke-dasharray:none;stroke-dashoffset:0;stroke-opacity:1;paint-order:markers fill stroke;stop-color:#000000;stop-opacity:1"
               d="m 12.815257,71.460078 23.646028,0.543601 c 4.216408,0.09693 1.799973,1.386567 -0.340461,3.073768 l -8.982575,7.08053 c -3.258341,2.568393 -3.25073,2.251644 -7.23115,2.251644 H -5.1207819 c -4.9360981,0 -4.3525362,0.04022 -0.5900854,-2.538053 L 6.7007844,73.366311 c 2.7492257,-1.883945 2.9294439,-1.906233 6.1144726,-1.906233 z"
               sodipodi:nodetypes="csssssssc" />
            <g
               style="stroke-width:0.203401"
               transform="matrix(8.8771008,0,0,8.8771008,-2902.3706,-782.92652)"
               id="g957-7-6-59-2-5-5">
              <circle
                 style="opacity:1;vector-effect:none;fill:#b9dce5;fill-opacity:1;stroke:none;stroke-width:0.00221334;stroke-linecap:round;stroke-linejoin:round;stroke-miterlimit:4;stroke-dasharray:none;stroke-dashoffset:0;stroke-opacity:1;paint-order:markers stroke fill"
                 id="path1108-4-1-6-9-8-5-1-8"
                 cx="328.86887"
                 cy="96.139786"
                 r="1.0780957" />
              <path
                 style="fill:#ffd52f;fill-opacity:1;stroke:none;stroke-width:0.00792727px;stroke-linecap:butt;stroke-linejoin:miter;stroke-opacity:1"
                 d="m 329.68985,96.185372 c -0.11257,-0.09551 -0.25818,-0.166701 -0.37821,-0.224398 -0.0793,-0.03809 -0.27888,-0.178554 -0.3614,-0.187902 -0.42269,-0.04788 -0.60897,0.253501 -0.73122,0.401333 -0.0116,0.01406 -0.1008,0.546877 -0.074,0.54992 0.10844,0.01228 0.43803,-0.52741 0.5194,-0.577282 0.108,-0.06619 -4.3e-4,-0.203471 0.24617,-0.175545 0.56101,0.06354 0.47331,0.58378 0.77921,0.213871 z"
                 id="path1151-3-7-4-6-7-6-3-8-0-9"
                 inkscape:connector-curvature="0"
                 sodipodi:nodetypes="ccccccccc" />
              <path
                 style="fill:#ccff00;fill-opacity:1;stroke:none;stroke-width:0.00792727px;stroke-linecap:butt;stroke-linejoin:miter;stroke-opacity:1"
                 d="m 329.72477,96.147056 c -0.14193,-0.07716 -0.30793,-0.125893 -0.44443,-0.165094 -0.0901,-0.02588 -0.33211,-0.134509 -0.41577,-0.131877 -0.42854,0.0135 -0.50907,0.334102 -0.5787,0.495766 -0.007,0.01537 -0.13125,0.362192 -0.10402,0.361336 0.10994,-0.0035 0.46685,-0.391226 0.5295,-0.451482 0.0831,-0.07997 -0.0981,-0.217644 0.15189,-0.225514 0.56877,-0.01791 0.6873,0.521382 0.86153,0.116859 z"
                 id="path1151-3-6-1-7-1-2-1-8-0"
                 inkscape:connector-curvature="0"
                 sodipodi:nodetypes="ccccccccc" />
              <circle
                 style="opacity:1;vector-effect:none;fill:#def9ff;fill-opacity:1;stroke:none;stroke-width:0.00431571;stroke-linecap:round;stroke-linejoin:round;stroke-miterlimit:4;stroke-dasharray:none;stroke-dashoffset:0;stroke-opacity:1;paint-order:markers stroke fill"
                 id="path1132-5-9-5-0-04-6-3-1-3"
                 cx="328.39627"
                 cy="95.587608"
                 r="0.24011964" />
              <path
                 style="fill:#aad400;fill-opacity:1;stroke:none;stroke-width:0.00792727px;stroke-linecap:butt;stroke-linejoin:miter;stroke-opacity:1"
                 d="m 329.69022,96.16774 c -0.16227,-0.05771 -0.33966,-0.08447 -0.48526,-0.105629 -0.0962,-0.01397 -0.36596,-0.08986 -0.44723,-0.07668 -0.39126,0.117699 -0.4133,0.511033 -0.58789,0.753711 0.59243,-0.220584 0.0557,-0.392303 1.2113,-0.45858 0.17705,0.06712 0.28742,0.04431 0.30908,-0.112827 z"
                 id="path1151-4-2-8-4-1-9-76-4"
                 inkscape:connector-curvature="0"
                 sodipodi:nodetypes="ccccccc" />
              <ellipse
                 style="opacity:1;vector-effect:none;fill:#eafbff;fill-opacity:1;stroke:none;stroke-width:0.00348996;stroke-linecap:round;stroke-linejoin:round;stroke-miterlimit:4;stroke-dasharray:none;stroke-dashoffset:0;stroke-opacity:1;paint-order:markers stroke fill"
                 id="path1132-5-6-1-5-0-2-0-5-35-7"
                 cx="328.3833"
                 cy="95.555847"
                 rx="0.20267603"
                 ry="0.18603443" />
              <ellipse
                 style="opacity:1;vector-effect:none;fill:#ffffff;fill-opacity:1;stroke:none;stroke-width:0.0010387;stroke-linecap:round;stroke-linejoin:round;stroke-miterlimit:4;stroke-dasharray:none;stroke-dashoffset:0;stroke-opacity:1;paint-order:markers stroke fill"
                 id="path1132-2-0-2-7-7-3-4-6"
                 cx="-183.01581"
                 cy="-288.84195"
                 rx="0.062689751"
                 ry="0.053275842"
                 transform="rotate(138.57471)" />
              <path
                 style="opacity:1;vector-effect:none;fill:#98cbd9;fill-opacity:1;stroke:none;stroke-width:0.00221334;stroke-linecap:round;stroke-linejoin:round;stroke-miterlimit:4;stroke-dasharray:none;stroke-dashoffset:0;stroke-opacity:1;paint-order:markers stroke fill"
                 d="m 328.099,95.386589 a 1.0780956,1.0780956 0 0 0 -0.30823,0.753202 1.0780956,1.0780956 0 0 0 1.07809,1.07809 1.0780956,1.0780956 0 0 0 0.97642,-0.623953 1.0780956,1.0780956 0 0 1 -0.76986,0.324836 1.0780956,1.0780956 0 0 1 -1.07809,-1.07809 1.0780956,1.0780956 0 0 1 0.10167,-0.454085 z"
                 id="path1108-22-7-0-9-5-0-0-7-0"
                 inkscape:connector-curvature="0" />
              <path
                 style="opacity:1;vector-effect:none;fill:#f1fcff;fill-opacity:1;stroke:none;stroke-width:0.00137703;stroke-linecap:round;stroke-linejoin:round;stroke-miterlimit:4;stroke-dasharray:none;stroke-dashoffset:0;stroke-opacity:1;paint-order:markers stroke fill"
                 d="m 329.28767,95.399023 a 0.78557733,0.57269326 88.469871 0 0 -0.40483,-0.06149 0.78557733,0.57269326 88.469871 0 1 0.24728,0.08602 0.78557733,0.57269326 88.469871 0 1 0.26052,1.057764 0.78557733,0.57269326 88.469871 0 1 -0.3623,0.400576 0.78557733,0.57269326 88.469871 0 0 0.51984,-0.425104 0.78557733,0.57269326 88.469871 0 0 -0.26051,-1.057764 z"
                 id="path1108-2-5-5-6-9-39-3-8-6"
                 inkscape:connector-curvature="0" />
            </g>
          </g>
          <path
             id="path1247-1-9-9-1-1"
             style="color:#000000;font-style:normal;font-variant:normal;font-weight:normal;font-stretch:normal;font-size:medium;line-height:normal;font-family:sans-serif;font-variant-ligatures:normal;font-variant-position:normal;font-variant-caps:normal;font-variant-numeric:normal;font-variant-alternates:normal;font-variant-east-asian:normal;font-feature-settings:normal;font-variation-settings:normal;text-indent:0;text-align:start;text-decoration:none;text-decoration-line:none;text-decoration-style:solid;text-decoration-color:#000000;letter-spacing:normal;word-spacing:normal;text-transform:none;writing-mode:lr-tb;direction:ltr;text-orientation:mixed;dominant-baseline:auto;baseline-shift:baseline;text-anchor:start;white-space:normal;shape-padding:0;shape-margin:0;inline-size:0;clip-rule:nonzero;display:inline;overflow:visible;visibility:visible;isolation:auto;mix-blend-mode:normal;color-interpolation:sRGB;color-interpolation-filters:linearRGB;solid-color:#000000;solid-opacity:1;vector-effect:none;fill:#727272;fill-opacity:1;fill-rule:nonzero;stroke:none;stroke-width:2.53235;stroke-linecap:round;stroke-linejoin:round;stroke-miterlimit:4;stroke-dasharray:none;stroke-dashoffset:0;stroke-opacity:0.725807;paint-order:markers fill stroke;color-rendering:auto;image-rendering:auto;shape-rendering:auto;text-rendering:auto;enable-background:accumulate;stop-color:#000000"
             d="m 28.338917,77.112405 c -0.116959,0.25459 -0.315518,0.51677 -0.607719,0.78445 -0.532201,0.48753 -1.348531,0.97243 -2.380731,1.407659 -1.87583,0.790961 -4.46617,1.419951 -7.37629,1.731161 a 9.3245154,3.0571464 4.7106144 0 0 1.85828,0.25942 c 2.21266,-0.35148 4.17916,-0.88419 5.712309,-1.53066 1.066882,-0.44985 1.927151,-0.95202 2.524411,-1.499131 0.318212,-0.291519 0.52061,-0.607909 0.64026,-0.935859 a 9.3245154,3.0571464 4.7106144 0 0 -0.37052,-0.21704 z" />
        </g>
        <g
           id="g1136-3-4-7-8-6-3-5"
           transform="translate(162.73596,-29.971961)">
          <path
             id="rect1347-3-2-4-0-3-7-8-6-8-8"
             style="font-variation-settings:normal;opacity:1;vector-effect:none;fill:#8d8d8d;fill-opacity:1;stroke:none;stroke-width:2.53235;stroke-linecap:round;stroke-linejoin:round;stroke-miterlimit:4;stroke-dasharray:none;stroke-dashoffset:0;stroke-opacity:0.725807;paint-order:markers fill stroke;stop-color:#000000;stop-opacity:1"
             d="m 12.815257,71.460079 23.579108,0.492915 c 4.216601,0.08815 1.787915,1.371381 -0.34046,3.073768 l -8.915656,7.131216 c -3.239984,2.591511 -3.250731,2.251644 -7.231149,2.251644 H -5.1207822 c -4.9360978,0 -4.352537,0.04022 -0.590086,-2.538053 l 12.411652,-8.505257 c 2.749226,-1.883945 2.929444,-1.906233 6.1144732,-1.906233 z"
             sodipodi:nodetypes="csssssssc" />
          <path
             d="m 9.4931358,75.283087 a 3.9218272,11.961854 85.289386 0 0 -1.6835169,0.655683 9.5703632,9.5703632 0 0 0 0.00229,1.519063 9.5703632,9.5703632 0 0 0 1.2020299,3.915302 3.9218272,11.961854 85.289386 0 0 4.6693832,0.48634 9.5703632,9.5703632 0 0 1 -4.1901812,-6.576388 z"
             style="font-variation-settings:normal;opacity:1;vector-effect:none;fill:#8d8d8d;fill-opacity:1;stroke:none;stroke-width:2.53235;stroke-linecap:round;stroke-linejoin:round;stroke-miterlimit:4;stroke-dasharray:none;stroke-dashoffset:0;stroke-opacity:0.725807;paint-order:markers fill stroke;stop-color:#000000;stop-opacity:1"
             id="path1108-22-7-0-9-7-3-2-29-6-20-2-7-6-5" />
          <ellipse
             transform="rotate(-4.710614)"
             cx="10.411695"
             cy="78.956421"
             rx="11.961854"
             ry="3.9218273"
             id="path1077-2-4-9-1-71-1-8-6-5-9"
             style="font-variation-settings:normal;opacity:1;vector-effect:none;fill:none;fill-opacity:1;stroke:#b3b3b3;stroke-width:0.499999;stroke-linecap:round;stroke-linejoin:round;stroke-miterlimit:4;stroke-dasharray:none;stroke-dashoffset:0;stroke-opacity:1;paint-order:markers fill stroke;stop-color:#000000;stop-opacity:1" />
          <path
             sodipodi:nodetypes="csssssssc"
             d="m 12.815257,71.460078 23.646028,0.543601 c 4.216408,0.09693 1.799973,1.386567 -0.340461,3.073768 l -8.982575,7.08053 c -3.258341,2.568393 -3.25073,2.251644 -7.23115,2.251644 H -5.1207819 c -4.9360981,0 -4.3525362,0.04022 -0.5900854,-2.538053 L 6.7007844,73.366311 c 2.7492257,-1.883945 2.9294439,-1.906233 6.1144726,-1.906233 z"
             style="font-variation-settings:normal;opacity:1;vector-effect:none;fill:none;fill-opacity:1;stroke:#2b2a29;stroke-width:0.5;stroke-linecap:round;stroke-linejoin:round;stroke-miterlimit:4;stroke-dasharray:none;stroke-dashoffset:0;stroke-opacity:1;paint-order:markers fill stroke;stop-color:#000000;stop-opacity:1"
             id="rect1347-1-9-3-3-7-8-3-2-8" />
        </g>
        <g
           id="g1136-3-4-7-8-6-33-7"
           transform="translate(198.84742,-29.971961)">
          <path
             id="rect1347-3-2-4-0-3-7-8-6-65-9"
             style="font-variation-settings:normal;opacity:1;vector-effect:none;fill:#8d8d8d;fill-opacity:1;stroke:none;stroke-width:2.53235;stroke-linecap:round;stroke-linejoin:round;stroke-miterlimit:4;stroke-dasharray:none;stroke-dashoffset:0;stroke-opacity:0.725807;paint-order:markers fill stroke;stop-color:#000000;stop-opacity:1"
             d="m 12.815257,71.460079 23.579108,0.492915 c 4.216601,0.08815 1.787915,1.371381 -0.34046,3.073768 l -8.915656,7.131216 c -3.239984,2.591511 -3.250731,2.251644 -7.231149,2.251644 H -5.1207822 c -4.9360978,0 -4.352537,0.04022 -0.590086,-2.538053 l 12.411652,-8.505257 c 2.749226,-1.883945 2.929444,-1.906233 6.1144732,-1.906233 z"
             sodipodi:nodetypes="csssssssc" />
          <path
             d="m 9.4931358,75.283087 a 3.9218272,11.961854 85.289386 0 0 -1.6835169,0.655683 9.5703632,9.5703632 0 0 0 0.00229,1.519063 9.5703632,9.5703632 0 0 0 1.2020299,3.915302 3.9218272,11.961854 85.289386 0 0 4.6693832,0.48634 9.5703632,9.5703632 0 0 1 -4.1901812,-6.576388 z"
             style="font-variation-settings:normal;opacity:1;vector-effect:none;fill:#8d8d8d;fill-opacity:1;stroke:none;stroke-width:2.53235;stroke-linecap:round;stroke-linejoin:round;stroke-miterlimit:4;stroke-dasharray:none;stroke-dashoffset:0;stroke-opacity:0.725807;paint-order:markers fill stroke;stop-color:#000000;stop-opacity:1"
             id="path1108-22-7-0-9-7-3-2-29-6-20-2-7-2-1" />
          <ellipse
             transform="rotate(-4.710614)"
             cx="10.411695"
             cy="78.956421"
             rx="11.961854"
             ry="3.9218273"
             id="path1077-2-4-9-1-71-1-8-6-58-5"
             style="font-variation-settings:normal;opacity:1;vector-effect:none;fill:none;fill-opacity:1;stroke:#b3b3b3;stroke-width:0.499999;stroke-linecap:round;stroke-linejoin:round;stroke-miterlimit:4;stroke-dasharray:none;stroke-dashoffset:0;stroke-opacity:1;paint-order:markers fill stroke;stop-color:#000000;stop-opacity:1" />
          <path
             sodipodi:nodetypes="csssssssc"
             d="m 12.815257,71.460078 23.646028,0.543601 c 4.216408,0.09693 1.799973,1.386567 -0.340461,3.073768 l -8.982575,7.08053 c -3.258341,2.568393 -3.25073,2.251644 -7.23115,2.251644 H -5.1207819 c -4.9360981,0 -4.3525362,0.04022 -0.5900854,-2.538053 L 6.7007844,73.366311 c 2.7492257,-1.883945 2.9294439,-1.906233 6.1144726,-1.906233 z"
             style="font-variation-settings:normal;opacity:1;vector-effect:none;fill:none;fill-opacity:1;stroke:#2b2a29;stroke-width:0.5;stroke-linecap:round;stroke-linejoin:round;stroke-miterlimit:4;stroke-dasharray:none;stroke-dashoffset:0;stroke-opacity:1;paint-order:markers fill stroke;stop-color:#000000;stop-opacity:1"
             id="rect1347-1-9-3-3-7-8-3-6-7" />
        </g>
        <g
           transform="matrix(-0.93695614,-0.34944697,-0.34944697,0.93695614,225.83942,-0.39734671)"
           id="g1235-6">
          <path
             style="clip-rule:evenodd;fill:#48261c;fill-opacity:1;fill-rule:evenodd;stroke:#2b2a29;stroke-width:0.902831;stroke-linecap:round;stroke-linejoin:round;image-rendering:optimizeQuality;shape-rendering:geometricPrecision;text-rendering:geometricPrecision"
             id="path2985-4"
             d="m -42.329603,40.627487 c -4.414239,1.144446 -13.889668,-1.62968 -17.486539,-4.20554 -7.971478,-5.710392 -14.147164,-14.139595 -12.95452,-24.444484 0.548921,-4.3533078 4.160183,-8.8335116 9.139158,-5.8071918 7.953076,4.8168358 17.617154,13.6531098 20.484412,22.6612258 0.784572,2.4422 3.221581,9.160456 2.183832,11.480532 -0.640617,1.449884 -0.06383,0.0013 -1.366343,0.315458 z"
             class="fil11 str0" />
          <path
             style="clip-rule:evenodd;fill:none;fill-rule:evenodd;stroke:#2b2a29;stroke-width:0.27085;stroke-linecap:round;stroke-linejoin:round;image-rendering:optimizeQuality;shape-rendering:geometricPrecision;text-rendering:geometricPrecision"
             id="path2987-2"
             d="m -67.326841,6.565598 c -3.031844,3.1592822 -0.6972,20.415417 1.959843,19.21137"
             class="fil5 str1" />
          <path
             style="clip-rule:evenodd;fill:none;fill-rule:evenodd;stroke:#2b2a29;stroke-width:0.27085;stroke-linecap:round;stroke-linejoin:round;image-rendering:optimizeQuality;shape-rendering:geometricPrecision;text-rendering:geometricPrecision"
             id="path2989-0"
             d="m -64.210911,7.4911782 c -0.520295,4.1930878 -0.249109,20.4700498 2.446321,22.6813428 l 0.351697,0.02469"
             class="fil5 str1" />
          <path
             style="clip-rule:evenodd;fill:none;fill-rule:evenodd;stroke:#2b2a29;stroke-width:0.27085;stroke-linecap:round;stroke-linejoin:round;image-rendering:optimizeQuality;shape-rendering:geometricPrecision;text-rendering:geometricPrecision"
             id="path2991-2"
             d="m -60.905587,11.413963 c -0.03963,4.278978 1.163719,17.759131 4.373694,20.151395 0.45335,0.309935 0.668194,-0.109526 0.820542,-0.463862"
             class="fil5 str1" />
          <path
             style="clip-rule:evenodd;fill:none;fill-rule:evenodd;stroke:#2b2a29;stroke-width:0.27085;stroke-linecap:round;stroke-linejoin:round;image-rendering:optimizeQuality;shape-rendering:geometricPrecision;text-rendering:geometricPrecision"
             id="path2993-1"
             d="m -55.562049,13.538835 c -0.07717,5.556798 1.279285,15.617659 3.615664,20.550118 0.126336,-0.06645 0.05727,-0.320453 0.08721,-0.416849"
             class="fil5 str1" />
          <path
             style="clip-rule:evenodd;fill:none;fill-rule:evenodd;stroke:#2b2a29;stroke-width:0.27085;stroke-linecap:round;stroke-linejoin:round;image-rendering:optimizeQuality;shape-rendering:geometricPrecision;text-rendering:geometricPrecision"
             id="path2995-4"
             d="m -51.327681,19.16652 c 0.4815,4.779063 2.847063,12.680083 5.389109,16.746274"
             class="fil5 str1" />
          <path
             style="clip-rule:evenodd;fill:none;fill-rule:evenodd;stroke:#2b2a29;stroke-width:0.27085;stroke-linecap:round;stroke-linejoin:round;image-rendering:optimizeQuality;shape-rendering:geometricPrecision;text-rendering:geometricPrecision"
             id="path2997-1"
             d="m -62.063745,32.700885 c 5.81841,-1.173349 14.080877,0.06134 19.127621,3.277817 l 0.518489,0.372447"
             class="fil5 str1" />
          <path
             style="clip-rule:evenodd;fill:none;fill-rule:evenodd;stroke:#2b2a29;stroke-width:0.27085;stroke-linecap:round;stroke-linejoin:round;image-rendering:optimizeQuality;shape-rendering:geometricPrecision;text-rendering:geometricPrecision"
             id="path2999-8"
             d="m -65.486762,26.162545 c 4.638285,-1.117128 14.676324,1.070739 17.965887,4.227607"
             class="fil5 str1" />
          <path
             style="clip-rule:evenodd;fill:none;fill-rule:evenodd;stroke:#2b2a29;stroke-width:0.27085;stroke-linecap:round;stroke-linejoin:round;image-rendering:optimizeQuality;shape-rendering:geometricPrecision;text-rendering:geometricPrecision"
             id="path3001-8"
             d="m -66.63777,21.429185 c 4.502746,-1.497457 13.37512,1.448708 17.349688,3.761389"
             class="fil5 str1" />
          <path
             style="clip-rule:evenodd;fill:none;fill-rule:evenodd;stroke:#2b2a29;stroke-width:0.27085;stroke-linecap:round;stroke-linejoin:round;image-rendering:optimizeQuality;shape-rendering:geometricPrecision;text-rendering:geometricPrecision"
             id="path3003-6"
             d="m -67.505118,14.965946 c 4.561595,-0.189679 9.352759,1.467665 13.506984,3.201963"
             class="fil5 str1" />
          <path
             style="clip-rule:evenodd;fill:none;fill-rule:evenodd;stroke:#2b2a29;stroke-width:0.27085;stroke-linecap:round;stroke-linejoin:round;image-rendering:optimizeQuality;shape-rendering:geometricPrecision;text-rendering:geometricPrecision"
             id="path3005-5"
             d="m -67.731302,10.181619 c 3.893386,-0.08014 9.533998,2.517512 12.832481,4.556766"
             class="fil5 str1" />
          <path
             transform="matrix(-0.24790298,-0.09245784,-0.09245784,0.24790298,88.962544,523.87136)"
             d="m 1118.7383,-1663.2734 c -1.8031,0.024 -3.7802,1.562 -4.0645,5.8945 -0.3715,4.4138 -29.3929,-10.0514 -26.4785,45.1172 0.065,2.7556 0.5415,12.2197 4.416,12.5722 -2.8544,13.8559 -5.2716,27.9189 -7.0332,42.2149 -4.8147,-0.8731 -11.6991,-4.4668 -16.3984,-4.6914 -0.191,-0.058 -0.3984,-0.077 -0.6192,-0.059 -3.3119,0.2709 -9.7485,8.5947 -12.5156,10.2539 -0.8578,0.5144 -9.1154,6.3886 -10.2793,5.0664 -1.2937,-1.4698 -4.6345,-4.1543 -7.1777,-2.6562 -13.6305,8.0296 7.4864,17.7817 15.0098,18.3515 2.5461,0.1929 10.5509,-4.6137 15.3515,-6.4472 -2.0918,6.7815 13.1327,13.3837 19.2832,13.8496 1.4953,0.1132 4.8779,-1.5016 8.3867,-3.2246 4.685,1.1846 10.2339,2.2902 16.211,3.0664 1.039,0.7064 2.366,1.0261 4.2011,0.5918 l -0.01,-0.1075 c 13.9617,1.3928 29.2404,0.779 39.4766,-4.7968 17.1482,-9.341 28.0833,-45.4724 19.5039,-71.7715 -9.0135,-15.3798 -12.0578,-17.1007 -16.1641,-35.3848 -1.571,-7.5054 -6.2244,-8.6962 -8.6465,-11.9668 7.7526,-8.5805 -8.6729,-14.3416 -10.1504,-3.0566 l 0.2403,0.8183 c -2.0126,-8.7627 -27.2649,-4.5241 -21.5801,-8.0488 3.932,-2.4258 1.6684,-5.6218 -0.9668,-5.5859 z"
             style="clip-rule:evenodd;fill:#6f3727;fill-opacity:1;fill-rule:evenodd;stroke:#2b2a29;stroke-width:3.41227;stroke-linecap:round;stroke-linejoin:round;image-rendering:optimizeQuality;shape-rendering:geometricPrecision;text-rendering:geometricPrecision"
             id="path3009-4" />
          <path
             sodipodi:nodetypes="ccsscssc"
             id="path2511"
             d="m -36.620019,37.279657 c 1.180473,0.427371 3.620625,0.04279 4.964084,0.471971 0.843223,0.05303 1.745414,3.030298 2.313468,3.741926 0.165091,0.206832 1.669028,2.426701 2.07981,2.206536 0.456607,-0.244756 1.533453,-0.601511 2.025415,0.0051 2.636633,3.250833 -3.500346,3.716013 -5.418101,3.161671 -0.728831,-0.21066 -2.582859,-2.624466 -3.561104,-3.299909 -1.187275,-0.819735 -1.946599,1.862206 -3.618118,0.74448"
             style="font-variation-settings:normal;opacity:1;vector-effect:none;fill:#6f3727;fill-opacity:1;stroke:#2b2a29;stroke-width:0.303001;stroke-linecap:round;stroke-linejoin:round;stroke-miterlimit:4;stroke-dasharray:none;stroke-dashoffset:0;stroke-opacity:1;paint-order:markers fill stroke;stop-color:#000000;stop-opacity:1" />
          <path
             sodipodi:nodetypes="ccccc"
             style="clip-rule:evenodd;fill:#a05a2c;fill-rule:evenodd;stroke-width:0.0451414;image-rendering:optimizeQuality;shape-rendering:geometricPrecision;text-rendering:geometricPrecision"
             id="path3015-9"
             d="m -35.259204,26.192727 c -1.941094,-0.99311 -1.895935,0.451413 -6.048947,-2.663343 -0.993108,-0.722261 -3.07126,1.722866 -2.258714,6.101581 0.496563,2.573056 2.708481,14.806374 6.680931,7.538608 0.767405,-1.399382 2.348995,-10.615715 1.62673,-10.976846 z"
             class="fil13" />
          <path
             style="clip-rule:evenodd;fill:#a05a2c;fill-opacity:1;fill-rule:evenodd;stroke-width:0.0451414;image-rendering:optimizeQuality;shape-rendering:geometricPrecision;text-rendering:geometricPrecision"
             id="path3017-5"
             d="m -39.141373,9.9869702 c -2.527919,-0.6771212 -3.74673,1.3993828 -1.354232,3.7015928 2.34734,2.211929 7.312897,3.205038 9.118551,0.361132 1.625092,-2.618201 -4.920399,-4.017584 -6.274648,-3.927302 -0.135422,0 -1.444531,-0.135421 -1.489671,-0.135421 z"
             class="fil13" />
          <path
             style="clip-rule:evenodd;fill:#fefefe;fill-rule:evenodd;stroke:#2b2a29;stroke-width:0.27085;stroke-linecap:round;stroke-linejoin:round;image-rendering:optimizeQuality;shape-rendering:geometricPrecision;text-rendering:geometricPrecision"
             id="path3021-49"
             d="m -37.38086,12.334322 c -3.611308,-0.857686 -1.579951,2.211927 0.406282,0.722262 0.180562,-0.135421 0.406264,-0.541696 -0.406282,-0.722262 z"
             class="fil14 str1" />
          <path
             style="clip-rule:evenodd;fill:#2b2a29;fill-rule:evenodd;stroke:#2b2a29;stroke-width:0.27085;stroke-linecap:round;stroke-linejoin:round;image-rendering:optimizeQuality;shape-rendering:geometricPrecision;text-rendering:geometricPrecision"
             id="path3023-3"
             d="m -38.164624,12.330368 c -2.076497,0.225706 0.812546,2.30221 0.902827,0.361131 0.04514,-0.315991 -0.496545,-0.406273 -0.902827,-0.361131 z"
             class="fil6 str1" />
          <path
             style="clip-rule:evenodd;fill:none;fill-rule:evenodd;stroke:#2b2a29;stroke-width:0.27085;stroke-linecap:round;stroke-linejoin:round;image-rendering:optimizeQuality;shape-rendering:geometricPrecision;text-rendering:geometricPrecision"
             id="path3025-7"
             d="m -40.450464,11.928049 c 0.817168,-1.9900255 2.975875,-1.413734 3.682738,-0.307706"
             class="fil5 str1"
             sodipodi:nodetypes="cc" />
          <path
             style="clip-rule:evenodd;fill:#2b2a29;fill-rule:evenodd;stroke:#2b2a29;stroke-width:0.27085;stroke-linecap:round;stroke-linejoin:round;image-rendering:optimizeQuality;shape-rendering:geometricPrecision;text-rendering:geometricPrecision"
             id="path3027-6"
             d="m -35.575206,17.931853 c -0.218136,0.02127 -2.484963,3.53518 1.941094,2.798766 1.399372,-1.354241 0.315983,-3.430745 -1.941094,-2.798766 z"
             class="fil6 str1"
             sodipodi:nodetypes="ccc" />
          <path
             style="clip-rule:evenodd;fill:#fefefe;fill-rule:evenodd;stroke:#2b2a29;stroke-width:0.27085;stroke-linecap:round;stroke-linejoin:round;image-rendering:optimizeQuality;shape-rendering:geometricPrecision;text-rendering:geometricPrecision"
             id="path3029-1"
             d="m -34.304845,18.309719 c -0.567398,2.510126 -1.110347,2.904522 1.333124,2.904816 0.964886,0.01589 1.455454,-1.680239 1.311294,-2.54006 -0.626279,-0.314479 -2.534275,-0.895137 -2.644418,-0.364756 z"
             class="fil14 str1" />
          <path
             style="clip-rule:evenodd;fill:none;fill-rule:evenodd;stroke:#2b2a29;stroke-width:0.27085;stroke-linecap:round;stroke-linejoin:round;image-rendering:optimizeQuality;shape-rendering:geometricPrecision;text-rendering:geometricPrecision"
             id="path3031-5"
             d="m -32.968038,18.310712 c -0.05092,0.911503 -0.414732,2.219097 -0.810127,3.012975"
             class="fil5 str1" />
          <path
             style="clip-rule:evenodd;fill:#cc6f3c;fill-rule:evenodd;stroke:#2b2a29;stroke-width:0.27085;stroke-linecap:round;stroke-linejoin:round;image-rendering:optimizeQuality;shape-rendering:geometricPrecision;text-rendering:geometricPrecision"
             id="path3033-3"
             d="m -31.596491,15.224544 c -5.324008,-3.041166 -6.353481,5.168179 -0.634115,4.038308 1.328592,-0.198672 1.726352,-3.410744 0.634115,-4.038308 z"
             class="fil15 str1" />
          <path
             style="clip-rule:evenodd;fill:none;fill-rule:evenodd;stroke:#2b2a29;stroke-width:0.27085;stroke-linecap:round;stroke-linejoin:round;image-rendering:optimizeQuality;shape-rendering:geometricPrecision;text-rendering:geometricPrecision"
             id="path3035-6"
             d="m -32.545957,14.81066 c -0.01445,1.663718 0.06302,2.979956 -0.862273,3.741324"
             class="fil5 str1"
             sodipodi:nodetypes="cc" />
          <path
             style="clip-rule:evenodd;fill:#2b2a29;fill-rule:evenodd;stroke:#2b2a29;stroke-width:0.27085;stroke-linecap:round;stroke-linejoin:round;image-rendering:optimizeQuality;shape-rendering:geometricPrecision;text-rendering:geometricPrecision"
             id="path3037-0"
             d="m -32.435688,14.623062 c -7.008758,-0.930034 3.053102,3.241057 0.610588,0.255831 -0.160158,-0.182747 -0.366811,-0.190995 -0.610588,-0.255831 z"
             class="fil6 str1" />
          <path
             class="fil14 str1"
             d="m -31.290926,12.299436 c -3.611308,-0.857687 -1.579952,2.211929 0.406264,0.722263 0.18058,-0.135421 0.406282,-0.541696 -0.406264,-0.722263 z"
             id="path3021-4-0"
             style="clip-rule:evenodd;fill:#fefefe;fill-rule:evenodd;stroke:#2b2a29;stroke-width:0.27085;stroke-linecap:round;stroke-linejoin:round;image-rendering:optimizeQuality;shape-rendering:geometricPrecision;text-rendering:geometricPrecision" />
          <path
             class="fil6 str1"
             d="m -32.07469,12.295482 c -2.076515,0.225707 0.812546,2.302211 0.902827,0.36113 0.04514,-0.315988 -0.496563,-0.406271 -0.902827,-0.36113 z"
             id="path3023-2-1"
             style="clip-rule:evenodd;fill:#2b2a29;fill-rule:evenodd;stroke:#2b2a29;stroke-width:0.27085;stroke-linecap:round;stroke-linejoin:round;image-rendering:optimizeQuality;shape-rendering:geometricPrecision;text-rendering:geometricPrecision" />
          <path
             sodipodi:nodetypes="cc"
             class="fil5 str1"
             d="m -30.779539,12.487347 c -0.817168,-1.990026 -2.975875,-1.413734 -3.682738,-0.307707"
             id="path3025-8-5"
             style="clip-rule:evenodd;fill:none;fill-rule:evenodd;stroke:#2b2a29;stroke-width:0.27085;stroke-linecap:round;stroke-linejoin:round;image-rendering:optimizeQuality;shape-rendering:geometricPrecision;text-rendering:geometricPrecision" />
          <path
             sodipodi:nodetypes="cscccc"
             class="fil5 str1"
             d="m -51.707553,21.122516 c -0.948076,2.653413 -3.513191,9.797423 -1.275272,12.731904 1.217944,1.597042 3.224238,2.472709 6.363377,1.796502 3.414477,-1.214343 4.394278,3.965577 5.766223,-1.213168 0.57359,-2.182977 -3.769535,-2.052764 -3.901092,-2.184413 -3.887929,-1.630352 -0.446511,-7.673464 0.761971,-8.12062"
             id="path3013-2-8"
             style="font-variation-settings:normal;clip-rule:evenodd;vector-effect:none;fill:#6f3727;fill-opacity:1;fill-rule:evenodd;stroke:#2b2a29;stroke-width:0.303001;stroke-linecap:round;stroke-linejoin:round;stroke-miterlimit:4;stroke-dasharray:none;stroke-dashoffset:0;stroke-opacity:1;image-rendering:optimizeQuality;shape-rendering:geometricPrecision;text-rendering:geometricPrecision;stop-color:#000000" />
          <path
             sodipodi:nodetypes="ccssscssc"
             style="font-variation-settings:normal;opacity:1;vector-effect:none;fill:#6f3727;fill-opacity:1;stroke:#2b2a29;stroke-width:0.303001;stroke-linecap:round;stroke-linejoin:round;stroke-miterlimit:4;stroke-dasharray:none;stroke-dashoffset:0;stroke-opacity:1;paint-order:markers fill stroke;stop-color:#000000;stop-opacity:1"
             d="m -44.68847,37.267326 c 0.06074,0.0957 1.188064,-0.5167 1.209805,-0.52593 0.763226,-0.32366 1.74411,-0.40767 2.552073,-0.35687 0.843223,0.053 1.745414,3.0303 2.313468,3.74193 0.165091,0.20683 1.669028,2.4267 2.07981,2.20653 0.456607,-0.24475 1.533453,-0.60151 2.025415,0.005 2.636633,3.25084 -3.500346,3.71602 -5.418101,3.16168 -0.728831,-0.21066 -2.582859,-2.62447 -3.561104,-3.29991 -1.187275,-0.81974 -3.480445,1.131847 -5.151964,0.01413"
             id="path2511-7" />
          <path
             id="path2547"
             d="m -24.849736,44.47226 c 0.0328,-0.175386 -0.217882,-0.233298 -0.352415,-0.293329 -0.687057,-0.306537 -0.945067,0.177341 -1.378121,0.617283"
             style="font-variation-settings:normal;opacity:1;vector-effect:none;fill:#6f3727;fill-opacity:1;stroke:#2b2a29;stroke-width:0.303001;stroke-linecap:round;stroke-linejoin:round;stroke-miterlimit:4;stroke-dasharray:none;stroke-dashoffset:0;stroke-opacity:1;paint-order:markers fill stroke;stop-color:#000000;stop-opacity:1" />
          <path
             id="path2549"
             d="m -34.116065,42.997032 c -0.04606,-0.194289 -0.190696,-0.166343 -0.357311,-0.195246 -0.499854,-0.08669 -0.919961,-0.07275 -1.161802,0.490125"
             style="font-variation-settings:normal;opacity:1;vector-effect:none;fill:#6f3727;fill-opacity:1;stroke:#2b2a29;stroke-width:0.303001;stroke-linecap:round;stroke-linejoin:round;stroke-miterlimit:4;stroke-dasharray:none;stroke-dashoffset:0;stroke-opacity:1;paint-order:markers fill stroke;stop-color:#000000;stop-opacity:1" />
        </g>
        <path
           id="rect1347-1-9-3-3-7-8-6"
           style="font-variation-settings:normal;opacity:1;vector-effect:none;fill:none;fill-opacity:1;stroke:#2b2a29;stroke-width:0.499999;stroke-linecap:round;stroke-linejoin:round;stroke-miterlimit:4;stroke-dasharray:none;stroke-dashoffset:0;stroke-opacity:1;paint-order:markers fill stroke;stop-color:#000000;stop-opacity:1"
           d="m -41.214508,41.48812 23.64604,0.5436 c 4.216408,0.0969 1.799974,1.38657 -0.34046,3.07377 l -8.982579,7.08053 c -3.258345,2.56839 -3.250735,2.25164 -7.231155,2.25164 h -25.027885 c -4.936098,0 -4.352537,0.0402 -0.590086,-2.53805 l 12.411652,-8.50526 c 2.749226,-1.88394 2.929444,-1.90623 6.114473,-1.90623 z"
           sodipodi:nodetypes="csssssssc" />
      </g>
    </g>
    <g
       id="g4752"
       transform="translate(-45.125057,-257.4745)" />
  </g>
</svg>
