<?xml version="1.0" encoding="UTF-8" standalone="no"?>
<svg
   xmlns:dc="http://purl.org/dc/elements/1.1/"
   xmlns:cc="http://creativecommons.org/ns#"
   xmlns:rdf="http://www.w3.org/1999/02/22-rdf-syntax-ns#"
   xmlns:svg="http://www.w3.org/2000/svg"
   xmlns="http://www.w3.org/2000/svg"
   xmlns:sodipodi="http://sodipodi.sourceforge.net/DTD/sodipodi-0.dtd"
   xmlns:inkscape="http://www.inkscape.org/namespaces/inkscape"
   version="1.1"
   id="Layer_1"
   x="0px"
   y="0px"
   viewBox="0 0 200 200"
   xml:space="preserve"
   sodipodi:docname="j14-variant-b.svg"
   inkscape:version="1.0.1 (3bc2e813f5, 2020-09-07)"
   width="200"
   height="200"
   inkscape:export-xdpi="150"
   inkscape:export-ydpi="150"><metadata
   id="metadata11972"><rdf:RDF><cc:Work
       rdf:about=""><dc:format>image/svg+xml</dc:format><dc:type
         rdf:resource="http://purl.org/dc/dcmitype/StillImage" /><dc:title /></cc:Work></rdf:RDF></metadata><defs
   id="defs11970" /><sodipodi:namedview
   pagecolor="#ffffff"
   bordercolor="#666666"
   borderopacity="1"
   objecttolerance="10"
   gridtolerance="10"
   guidetolerance="10"
   inkscape:pageopacity="0"
   inkscape:pageshadow="2"
   inkscape:window-width="1920"
   inkscape:window-height="1017"
   id="namedview11968"
   showgrid="false"
   inkscape:zoom="1.4606924"
   inkscape:cx="120.47969"
   inkscape:cy="215.94884"
   inkscape:window-x="-8"
   inkscape:window-y="-8"
   inkscape:window-maximized="1"
   inkscape:current-layer="Layer_1"
   inkscape:document-rotation="0" />
<style
   type="text/css"
   id="style10157">
	.st0{fill:#FFFFFF;stroke:#000000;stroke-miterlimit:10;}
	.st1{stroke:#000000;stroke-miterlimit:10;}
</style>
<g
   id="g10609"
   transform="translate(-18.662225,-11.31839)">
	<rect
   x="34.700001"
   y="29.1"
   class="st0"
   width="11.2"
   height="11.2"
   id="rect10159"
   style="fill:#ffffff;stroke:#000000;stroke-miterlimit:10" />
	<rect
   x="45.900002"
   y="29.1"
   class="st0"
   width="11.2"
   height="11.2"
   id="rect10161"
   style="fill:#ffffff;stroke:#000000;stroke-miterlimit:10" />
	<rect
   x="57.099998"
   y="29.1"
   class="st0"
   width="11.2"
   height="11.2"
   id="rect10163"
   style="fill:#ffffff;stroke:#000000;stroke-miterlimit:10" />
	<rect
   x="68.300003"
   y="29.1"
   class="st0"
   width="11.2"
   height="11.2"
   id="rect10165"
   style="fill:#ffffff;stroke:#000000;stroke-miterlimit:10" />
	<rect
   x="34.700001"
   y="40.299999"
   class="st0"
   width="11.2"
   height="11.2"
   id="rect10167"
   style="fill:#ffffff;stroke:#000000;stroke-miterlimit:10" />
	<rect
   x="45.900002"
   y="40.299999"
   class="st0"
   width="11.2"
   height="11.2"
   id="rect10169"
   style="fill:#ffffff;stroke:#000000;stroke-miterlimit:10" />
	<rect
   x="57.099998"
   y="40.299999"
   class="st0"
   width="11.2"
   height="11.2"
   id="rect10171"
   style="fill:#ffffff;stroke:#000000;stroke-miterlimit:10" />
	<rect
   x="68.300003"
   y="40.299999"
   class="st0"
   width="11.2"
   height="11.2"
   id="rect10173"
   style="fill:#ffffff;stroke:#000000;stroke-miterlimit:10" />
	<rect
   x="34.700001"
   y="51.5"
   class="st0"
   width="11.2"
   height="11.2"
   id="rect10175"
   style="fill:#ffffff;stroke:#000000;stroke-miterlimit:10" />
	<rect
   x="45.900002"
   y="51.5"
   class="st0"
   width="11.2"
   height="11.2"
   id="rect10177"
   style="fill:#ffffff;stroke:#000000;stroke-miterlimit:10" />
	<rect
   x="57.099998"
   y="51.5"
   class="st0"
   width="11.2"
   height="11.2"
   id="rect10179"
   style="fill:#ffffff;stroke:#000000;stroke-miterlimit:10" />
	<rect
   x="68.300003"
   y="51.5"
   class="st0"
   width="11.2"
   height="11.2"
   id="rect10181"
   style="fill:#ffffff;stroke:#000000;stroke-miterlimit:10" />
	<rect
   x="34.700001"
   y="62.700001"
   class="st0"
   width="11.2"
   height="11.2"
   id="rect10183"
   style="fill:#ffffff;stroke:#000000;stroke-miterlimit:10" />
	<rect
   x="45.900002"
   y="62.700001"
   class="st0"
   width="11.2"
   height="11.2"
   id="rect10185"
   style="fill:#ffffff;stroke:#000000;stroke-miterlimit:10" />
	<rect
   x="57.099998"
   y="62.700001"
   class="st0"
   width="11.2"
   height="11.2"
   id="rect10187"
   style="fill:#ffffff;stroke:#000000;stroke-miterlimit:10" />
	<rect
   x="68.300003"
   y="62.700001"
   class="st1"
   width="11.2"
   height="11.2"
   id="rect10189"
   style="stroke:#000000;stroke-miterlimit:10" />
	<rect
   x="79.5"
   y="29.1"
   class="st0"
   width="11.2"
   height="11.2"
   id="rect10191"
   style="fill:#ffffff;stroke:#000000;stroke-miterlimit:10" />
	<rect
   x="90.800003"
   y="29.1"
   class="st0"
   width="11.2"
   height="11.2"
   id="rect10193"
   style="fill:#ffffff;stroke:#000000;stroke-miterlimit:10" />
	<rect
   x="102"
   y="29.1"
   class="st0"
   width="11.2"
   height="11.2"
   id="rect10195"
   style="fill:#ffffff;stroke:#000000;stroke-miterlimit:10" />
	<rect
   x="113.2"
   y="29.1"
   class="st0"
   width="11.2"
   height="11.2"
   id="rect10197"
   style="fill:#ffffff;stroke:#000000;stroke-miterlimit:10" />
	<rect
   x="79.5"
   y="40.299999"
   class="st0"
   width="11.2"
   height="11.2"
   id="rect10199"
   style="fill:#ffffff;stroke:#000000;stroke-miterlimit:10" />
	<rect
   x="90.800003"
   y="40.299999"
   class="st1"
   width="11.2"
   height="11.2"
   id="rect10201"
   style="stroke:#000000;stroke-miterlimit:10" />
	<rect
   x="102"
   y="40.299999"
   class="st1"
   width="11.2"
   height="11.2"
   id="rect10203"
   style="stroke:#000000;stroke-miterlimit:10" />
	<rect
   x="113.2"
   y="40.299999"
   class="st1"
   width="11.2"
   height="11.2"
   id="rect10205"
   style="stroke:#000000;stroke-miterlimit:10" />
	<rect
   x="79.5"
   y="51.5"
   class="st1"
   width="11.2"
   height="11.2"
   id="rect10207"
   style="stroke:#000000;stroke-miterlimit:10" />
	<rect
   x="90.800003"
   y="51.5"
   class="st0"
   width="11.2"
   height="11.2"
   id="rect10209"
   style="fill:#ffffff;stroke:#000000;stroke-miterlimit:10" />
	<rect
   x="102"
   y="51.5"
   class="st0"
   width="11.2"
   height="11.2"
   id="rect10211"
   style="fill:#ffffff;stroke:#000000;stroke-miterlimit:10" />
	<rect
   x="113.2"
   y="51.5"
   class="st0"
   width="11.2"
   height="11.2"
   id="rect10213"
   style="fill:#ffffff;stroke:#000000;stroke-miterlimit:10" />
	<rect
   x="79.5"
   y="62.700001"
   class="st0"
   width="11.2"
   height="11.2"
   id="rect10215"
   style="fill:#ffffff;stroke:#000000;stroke-miterlimit:10" />
	<rect
   x="90.800003"
   y="62.700001"
   class="st0"
   width="11.2"
   height="11.2"
   id="rect10217"
   style="fill:#ffffff;stroke:#000000;stroke-miterlimit:10" />
	<rect
   x="102"
   y="62.700001"
   class="st0"
   width="11.2"
   height="11.2"
   id="rect10219"
   style="fill:#ffffff;stroke:#000000;stroke-miterlimit:10" />
	<rect
   x="113.2"
   y="62.700001"
   class="st0"
   width="11.2"
   height="11.2"
   id="rect10221"
   style="fill:#ffffff;stroke:#000000;stroke-miterlimit:10" />
	<rect
   x="124.4"
   y="29.1"
   class="st0"
   width="11.2"
   height="11.2"
   id="rect10223"
   style="fill:#ffffff;stroke:#000000;stroke-miterlimit:10" />
	<rect
   x="135.60001"
   y="29.1"
   class="st0"
   width="11.2"
   height="11.2"
   id="rect10225"
   style="fill:#ffffff;stroke:#000000;stroke-miterlimit:10" />
	<rect
   x="146.8"
   y="29.1"
   class="st0"
   width="11.2"
   height="11.2"
   id="rect10227"
   style="fill:#ffffff;stroke:#000000;stroke-miterlimit:10" />
	<rect
   x="158"
   y="29.1"
   class="st0"
   width="11.2"
   height="11.2"
   id="rect10229"
   style="fill:#ffffff;stroke:#000000;stroke-miterlimit:10" />
	<rect
   x="124.4"
   y="40.299999"
   class="st0"
   width="11.2"
   height="11.2"
   id="rect10231"
   style="fill:#ffffff;stroke:#000000;stroke-miterlimit:10" />
	<rect
   x="135.60001"
   y="40.299999"
   class="st0"
   width="11.2"
   height="11.2"
   id="rect10233"
   style="fill:#ffffff;stroke:#000000;stroke-miterlimit:10" />
	<rect
   x="146.8"
   y="40.299999"
   class="st0"
   width="11.2"
   height="11.2"
   id="rect10235"
   style="fill:#ffffff;stroke:#000000;stroke-miterlimit:10" />
	<rect
   x="158"
   y="40.299999"
   class="st0"
   width="11.2"
   height="11.2"
   id="rect10237"
   style="fill:#ffffff;stroke:#000000;stroke-miterlimit:10" />
	<rect
   x="124.4"
   y="51.5"
   class="st1"
   width="11.2"
   height="11.2"
   id="rect10239"
   style="stroke:#000000;stroke-miterlimit:10" />
	<rect
   x="135.60001"
   y="51.5"
   class="st0"
   width="11.2"
   height="11.2"
   id="rect10241"
   style="fill:#ffffff;stroke:#000000;stroke-miterlimit:10" />
	<rect
   x="146.8"
   y="51.5"
   class="st0"
   width="11.2"
   height="11.2"
   id="rect10243"
   style="fill:#ffffff;stroke:#000000;stroke-miterlimit:10" />
	<rect
   x="158"
   y="51.5"
   class="st0"
   width="11.2"
   height="11.2"
   id="rect10245"
   style="fill:#ffffff;stroke:#000000;stroke-miterlimit:10" />
	<rect
   x="124.4"
   y="62.700001"
   class="st0"
   width="11.2"
   height="11.2"
   id="rect10247"
   style="fill:#ffffff;stroke:#000000;stroke-miterlimit:10" />
	<rect
   x="135.60001"
   y="62.700001"
   class="st1"
   width="11.2"
   height="11.2"
   id="rect10249"
   style="stroke:#000000;stroke-miterlimit:10" />
	<rect
   x="146.8"
   y="62.700001"
   class="st0"
   width="11.2"
   height="11.2"
   id="rect10251"
   style="fill:#ffffff;stroke:#000000;stroke-miterlimit:10" />
	<rect
   x="158"
   y="62.700001"
   class="st0"
   width="11.2"
   height="11.2"
   id="rect10253"
   style="fill:#ffffff;stroke:#000000;stroke-miterlimit:10" />
	<rect
   x="169.2"
   y="29.1"
   class="st0"
   width="11.2"
   height="11.2"
   id="rect10255"
   style="fill:#ffffff;stroke:#000000;stroke-miterlimit:10" />
	<rect
   x="180.39999"
   y="29.1"
   class="st0"
   width="11.2"
   height="11.2"
   id="rect10257"
   style="fill:#ffffff;stroke:#000000;stroke-miterlimit:10" />
	<rect
   x="191.60001"
   y="29.1"
   class="st0"
   width="11.2"
   height="11.2"
   id="rect10259"
   style="fill:#ffffff;stroke:#000000;stroke-miterlimit:10" />
	<rect
   x="169.2"
   y="40.299999"
   class="st0"
   width="11.2"
   height="11.2"
   id="rect10261"
   style="fill:#ffffff;stroke:#000000;stroke-miterlimit:10" />
	<rect
   x="180.39999"
   y="40.299999"
   class="st0"
   width="11.2"
   height="11.2"
   id="rect10263"
   style="fill:#ffffff;stroke:#000000;stroke-miterlimit:10" />
	<rect
   x="191.60001"
   y="40.299999"
   class="st0"
   width="11.2"
   height="11.2"
   id="rect10265"
   style="fill:#ffffff;stroke:#000000;stroke-miterlimit:10" />
	<rect
   x="169.2"
   y="51.5"
   class="st0"
   width="11.2"
   height="11.2"
   id="rect10267"
   style="fill:#ffffff;stroke:#000000;stroke-miterlimit:10" />
	<rect
   x="180.39999"
   y="51.5"
   class="st0"
   width="11.2"
   height="11.2"
   id="rect10269"
   style="fill:#ffffff;stroke:#000000;stroke-miterlimit:10" />
	<rect
   x="191.60001"
   y="51.5"
   class="st0"
   width="11.2"
   height="11.2"
   id="rect10271"
   style="fill:#ffffff;stroke:#000000;stroke-miterlimit:10" />
	<rect
   x="169.2"
   y="62.700001"
   class="st0"
   width="11.2"
   height="11.2"
   id="rect10273"
   style="fill:#ffffff;stroke:#000000;stroke-miterlimit:10" />
	<rect
   x="180.39999"
   y="62.700001"
   class="st0"
   width="11.2"
   height="11.2"
   id="rect10275"
   style="fill:#ffffff;stroke:#000000;stroke-miterlimit:10" />
	<rect
   x="191.60001"
   y="62.700001"
   class="st0"
   width="11.2"
   height="11.2"
   id="rect10277"
   style="fill:#ffffff;stroke:#000000;stroke-miterlimit:10" />
	<rect
   x="34.700001"
   y="73.900002"
   class="st0"
   width="11.2"
   height="11.2"
   id="rect10279"
   style="fill:#ffffff;stroke:#000000;stroke-miterlimit:10" />
	<rect
   x="45.900002"
   y="73.900002"
   class="st0"
   width="11.2"
   height="11.2"
   id="rect10281"
   style="fill:#ffffff;stroke:#000000;stroke-miterlimit:10" />
	<rect
   x="57.099998"
   y="73.900002"
   class="st1"
   width="11.2"
   height="11.2"
   id="rect10283"
   style="stroke:#000000;stroke-miterlimit:10" />
	<rect
   x="68.300003"
   y="73.900002"
   class="st0"
   width="11.2"
   height="11.2"
   id="rect10285"
   style="fill:#ffffff;stroke:#000000;stroke-miterlimit:10" />
	<rect
   x="34.700001"
   y="85.099998"
   class="st0"
   width="11.2"
   height="11.2"
   id="rect10287"
   style="fill:#ffffff;stroke:#000000;stroke-miterlimit:10" />
	<rect
   x="45.900002"
   y="85.099998"
   class="st1"
   width="11.2"
   height="11.2"
   id="rect10289"
   style="stroke:#000000;stroke-miterlimit:10" />
	<rect
   x="57.099998"
   y="85.099998"
   class="st0"
   width="11.2"
   height="11.2"
   id="rect10291"
   style="fill:#ffffff;stroke:#000000;stroke-miterlimit:10" />
	<rect
   x="68.300003"
   y="85.099998"
   class="st0"
   width="11.2"
   height="11.2"
   id="rect10293"
   style="fill:#ffffff;stroke:#000000;stroke-miterlimit:10" />
	<rect
   x="34.700001"
   y="96.300003"
   class="st0"
   width="11.2"
   height="11.2"
   id="rect10295"
   style="fill:#ffffff;stroke:#000000;stroke-miterlimit:10" />
	<rect
   x="45.900002"
   y="96.300003"
   class="st1"
   width="11.2"
   height="11.2"
   id="rect10297"
   style="stroke:#000000;stroke-miterlimit:10" />
	<rect
   x="57.099998"
   y="96.300003"
   class="st0"
   width="11.2"
   height="11.2"
   id="rect10299"
   style="fill:#ffffff;stroke:#000000;stroke-miterlimit:10" />
	<rect
   x="68.300003"
   y="96.300003"
   class="st0"
   width="11.2"
   height="11.2"
   id="rect10301"
   style="fill:#ffffff;stroke:#000000;stroke-miterlimit:10" />
	<rect
   x="34.700001"
   y="107.6"
   class="st0"
   width="11.2"
   height="11.2"
   id="rect10303"
   style="fill:#ffffff;stroke:#000000;stroke-miterlimit:10" />
	<rect
   x="45.900002"
   y="107.6"
   class="st1"
   width="11.2"
   height="11.2"
   id="rect10305"
   style="stroke:#000000;stroke-miterlimit:10" />
	<rect
   x="57.099998"
   y="107.6"
   class="st0"
   width="11.2"
   height="11.2"
   id="rect10307"
   style="fill:#ffffff;stroke:#000000;stroke-miterlimit:10" />
	<rect
   x="68.300003"
   y="107.6"
   class="st0"
   width="11.2"
   height="11.2"
   id="rect10309"
   style="fill:#ffffff;stroke:#000000;stroke-miterlimit:10" />
	<rect
   x="79.5"
   y="73.900002"
   class="st0"
   width="11.2"
   height="11.2"
   id="rect10311"
   style="fill:#ffffff;stroke:#000000;stroke-miterlimit:10" />
	<rect
   x="90.800003"
   y="73.900002"
   class="st0"
   width="11.2"
   height="11.2"
   id="rect10313"
   style="fill:#ffffff;stroke:#000000;stroke-miterlimit:10" />
	<rect
   x="102"
   y="73.900002"
   class="st0"
   width="11.2"
   height="11.2"
   id="rect10315"
   style="fill:#ffffff;stroke:#000000;stroke-miterlimit:10" />
	<rect
   x="113.2"
   y="73.900002"
   class="st0"
   width="11.2"
   height="11.2"
   id="rect10317"
   style="fill:#ffffff;stroke:#000000;stroke-miterlimit:10" />
	<rect
   x="79.5"
   y="85.099998"
   class="st0"
   width="11.2"
   height="11.2"
   id="rect10319"
   style="fill:#ffffff;stroke:#000000;stroke-miterlimit:10" />
	<rect
   x="90.800003"
   y="85.099998"
   class="st0"
   width="11.2"
   height="11.2"
   id="rect10321"
   style="fill:#ffffff;stroke:#000000;stroke-miterlimit:10" />
	<rect
   x="102"
   y="85.099998"
   class="st1"
   width="11.2"
   height="11.2"
   id="rect10323"
   style="stroke:#000000;stroke-miterlimit:10" />
	<rect
   x="113.2"
   y="85.099998"
   class="st0"
   width="11.2"
   height="11.2"
   id="rect10325"
   style="fill:#ffffff;stroke:#000000;stroke-miterlimit:10" />
	<rect
   x="79.5"
   y="96.300003"
   class="st0"
   width="11.2"
   height="11.2"
   id="rect10327"
   style="fill:#ffffff;stroke:#000000;stroke-miterlimit:10" />
	<rect
   x="90.800003"
   y="96.300003"
   class="st1"
   width="11.2"
   height="11.2"
   id="rect10329"
   style="stroke:#000000;stroke-miterlimit:10" />
	<rect
   x="102"
   y="96.300003"
   class="st1"
   width="11.2"
   height="11.2"
   id="rect10331"
   style="stroke:#000000;stroke-miterlimit:10" />
	<rect
   x="113.2"
   y="96.300003"
   class="st1"
   width="11.2"
   height="11.2"
   id="rect10333"
   style="stroke:#000000;stroke-miterlimit:10" />
	<rect
   x="79.5"
   y="107.6"
   class="st0"
   width="11.2"
   height="11.2"
   id="rect10335"
   style="fill:#ffffff;stroke:#000000;stroke-miterlimit:10" />
	<rect
   x="90.800003"
   y="107.6"
   class="st0"
   width="11.2"
   height="11.2"
   id="rect10337"
   style="fill:#ffffff;stroke:#000000;stroke-miterlimit:10" />
	<rect
   x="102"
   y="107.6"
   class="st1"
   width="11.2"
   height="11.2"
   id="rect10339"
   style="stroke:#000000;stroke-miterlimit:10" />
	<rect
   x="113.2"
   y="107.6"
   class="st0"
   width="11.2"
   height="11.2"
   id="rect10341"
   style="fill:#ffffff;stroke:#000000;stroke-miterlimit:10" />
	<rect
   x="124.4"
   y="73.900002"
   class="st0"
   width="11.2"
   height="11.2"
   id="rect10343"
   style="fill:#ffffff;stroke:#000000;stroke-miterlimit:10" />
	<rect
   x="135.60001"
   y="73.900002"
   class="st0"
   width="11.2"
   height="11.2"
   id="rect10345"
   style="fill:#ffffff;stroke:#000000;stroke-miterlimit:10" />
	<rect
   x="146.8"
   y="73.900002"
   class="st1"
   width="11.2"
   height="11.2"
   id="rect10347"
   style="stroke:#000000;stroke-miterlimit:10" />
	<rect
   x="158"
   y="73.900002"
   class="st0"
   width="11.2"
   height="11.2"
   id="rect10349"
   style="fill:#ffffff;stroke:#000000;stroke-miterlimit:10" />
	<rect
   x="124.4"
   y="85.099998"
   class="st0"
   width="11.2"
   height="11.2"
   id="rect10351"
   style="fill:#ffffff;stroke:#000000;stroke-miterlimit:10" />
	<rect
   x="135.60001"
   y="85.099998"
   class="st0"
   width="11.2"
   height="11.2"
   id="rect10353"
   style="fill:#ffffff;stroke:#000000;stroke-miterlimit:10" />
	<rect
   x="146.8"
   y="85.099998"
   class="st0"
   width="11.2"
   height="11.2"
   id="rect10355"
   style="fill:#ffffff;stroke:#000000;stroke-miterlimit:10" />
	<rect
   x="158"
   y="85.099998"
   class="st1"
   width="11.2"
   height="11.2"
   id="rect10357"
   style="stroke:#000000;stroke-miterlimit:10" />
	<rect
   x="124.4"
   y="96.300003"
   class="st0"
   width="11.2"
   height="11.2"
   id="rect10359"
   style="fill:#ffffff;stroke:#000000;stroke-miterlimit:10" />
	<rect
   x="135.60001"
   y="96.300003"
   class="st0"
   width="11.2"
   height="11.2"
   id="rect10361"
   style="fill:#ffffff;stroke:#000000;stroke-miterlimit:10" />
	<rect
   x="146.8"
   y="96.300003"
   class="st0"
   width="11.2"
   height="11.2"
   id="rect10363"
   style="fill:#ffffff;stroke:#000000;stroke-miterlimit:10" />
	<rect
   x="158"
   y="96.300003"
   class="st1"
   width="11.2"
   height="11.2"
   id="rect10365"
   style="stroke:#000000;stroke-miterlimit:10" />
	<rect
   x="124.4"
   y="107.6"
   class="st0"
   width="11.2"
   height="11.2"
   id="rect10367"
   style="fill:#ffffff;stroke:#000000;stroke-miterlimit:10" />
	<rect
   x="135.60001"
   y="107.6"
   class="st0"
   width="11.2"
   height="11.2"
   id="rect10369"
   style="fill:#ffffff;stroke:#000000;stroke-miterlimit:10" />
	<rect
   x="146.8"
   y="107.6"
   class="st0"
   width="11.2"
   height="11.2"
   id="rect10371"
   style="fill:#ffffff;stroke:#000000;stroke-miterlimit:10" />
	<rect
   x="158"
   y="107.6"
   class="st1"
   width="11.2"
   height="11.2"
   id="rect10373"
   style="stroke:#000000;stroke-miterlimit:10" />
	<rect
   x="169.2"
   y="73.900002"
   class="st0"
   width="11.2"
   height="11.2"
   id="rect10375"
   style="fill:#ffffff;stroke:#000000;stroke-miterlimit:10" />
	<rect
   x="180.39999"
   y="73.900002"
   class="st0"
   width="11.2"
   height="11.2"
   id="rect10377"
   style="fill:#ffffff;stroke:#000000;stroke-miterlimit:10" />
	<rect
   x="191.60001"
   y="73.900002"
   class="st0"
   width="11.2"
   height="11.2"
   id="rect10379"
   style="fill:#ffffff;stroke:#000000;stroke-miterlimit:10" />
	<rect
   x="169.2"
   y="85.099998"
   class="st0"
   width="11.2"
   height="11.2"
   id="rect10381"
   style="fill:#ffffff;stroke:#000000;stroke-miterlimit:10" />
	<rect
   x="180.39999"
   y="85.099998"
   class="st0"
   width="11.2"
   height="11.2"
   id="rect10383"
   style="fill:#ffffff;stroke:#000000;stroke-miterlimit:10" />
	<rect
   x="191.60001"
   y="85.099998"
   class="st0"
   width="11.2"
   height="11.2"
   id="rect10385"
   style="fill:#ffffff;stroke:#000000;stroke-miterlimit:10" />
	<rect
   x="169.2"
   y="96.300003"
   class="st0"
   width="11.2"
   height="11.2"
   id="rect10387"
   style="fill:#ffffff;stroke:#000000;stroke-miterlimit:10" />
	<rect
   x="180.39999"
   y="96.300003"
   class="st0"
   width="11.2"
   height="11.2"
   id="rect10389"
   style="fill:#ffffff;stroke:#000000;stroke-miterlimit:10" />
	<rect
   x="191.60001"
   y="96.300003"
   class="st0"
   width="11.2"
   height="11.2"
   id="rect10391"
   style="fill:#ffffff;stroke:#000000;stroke-miterlimit:10" />
	<rect
   x="169.2"
   y="107.6"
   class="st0"
   width="11.2"
   height="11.2"
   id="rect10393"
   style="fill:#ffffff;stroke:#000000;stroke-miterlimit:10" />
	<rect
   x="180.39999"
   y="107.6"
   class="st0"
   width="11.2"
   height="11.2"
   id="rect10395"
   style="fill:#ffffff;stroke:#000000;stroke-miterlimit:10" />
	<rect
   x="191.60001"
   y="107.6"
   class="st0"
   width="11.2"
   height="11.2"
   id="rect10397"
   style="fill:#ffffff;stroke:#000000;stroke-miterlimit:10" />
	<rect
   x="34.700001"
   y="118.8"
   class="st0"
   width="11.2"
   height="11.2"
   id="rect10399"
   style="fill:#ffffff;stroke:#000000;stroke-miterlimit:10" />
	<rect
   x="45.900002"
   y="118.8"
   class="st0"
   width="11.2"
   height="11.2"
   id="rect10401"
   style="fill:#ffffff;stroke:#000000;stroke-miterlimit:10" />
	<rect
   x="57.099998"
   y="118.8"
   class="st1"
   width="11.2"
   height="11.2"
   id="rect10403"
   style="stroke:#000000;stroke-miterlimit:10" />
	<rect
   x="68.300003"
   y="118.8"
   class="st0"
   width="11.2"
   height="11.2"
   id="rect10405"
   style="fill:#ffffff;stroke:#000000;stroke-miterlimit:10" />
	<rect
   x="34.700001"
   y="130"
   class="st0"
   width="11.2"
   height="11.2"
   id="rect10407"
   style="fill:#ffffff;stroke:#000000;stroke-miterlimit:10" />
	<rect
   x="45.900002"
   y="130"
   class="st0"
   width="11.2"
   height="11.2"
   id="rect10409"
   style="fill:#ffffff;stroke:#000000;stroke-miterlimit:10" />
	<rect
   x="57.099998"
   y="130"
   class="st0"
   width="11.2"
   height="11.2"
   id="rect10411"
   style="fill:#ffffff;stroke:#000000;stroke-miterlimit:10" />
	<rect
   x="68.300003"
   y="130"
   class="st1"
   width="11.2"
   height="11.2"
   id="rect10413"
   style="stroke:#000000;stroke-miterlimit:10" />
	<rect
   x="34.700001"
   y="141.2"
   class="st0"
   width="11.2"
   height="11.2"
   id="rect10415"
   style="fill:#ffffff;stroke:#000000;stroke-miterlimit:10" />
	<rect
   x="45.900002"
   y="141.2"
   class="st0"
   width="11.2"
   height="11.2"
   id="rect10417"
   style="fill:#ffffff;stroke:#000000;stroke-miterlimit:10" />
	<rect
   x="57.099998"
   y="141.2"
   class="st0"
   width="11.2"
   height="11.2"
   id="rect10419"
   style="fill:#ffffff;stroke:#000000;stroke-miterlimit:10" />
	<rect
   x="68.300003"
   y="141.2"
   class="st0"
   width="11.2"
   height="11.2"
   id="rect10421"
   style="fill:#ffffff;stroke:#000000;stroke-miterlimit:10" />
	<rect
   x="34.700001"
   y="152.39999"
   class="st0"
   width="11.2"
   height="11.2"
   id="rect10423"
   style="fill:#ffffff;stroke:#000000;stroke-miterlimit:10" />
	<rect
   x="45.900002"
   y="152.39999"
   class="st0"
   width="11.2"
   height="11.2"
   id="rect10425"
   style="fill:#ffffff;stroke:#000000;stroke-miterlimit:10" />
	<rect
   x="57.099998"
   y="152.39999"
   class="st0"
   width="11.2"
   height="11.2"
   id="rect10427"
   style="fill:#ffffff;stroke:#000000;stroke-miterlimit:10" />
	<rect
   x="68.300003"
   y="152.39999"
   class="st0"
   width="11.2"
   height="11.2"
   id="rect10429"
   style="fill:#ffffff;stroke:#000000;stroke-miterlimit:10" />
	<rect
   x="79.5"
   y="118.8"
   class="st0"
   width="11.2"
   height="11.2"
   id="rect10431"
   style="fill:#ffffff;stroke:#000000;stroke-miterlimit:10" />
	<rect
   x="90.800003"
   y="118.8"
   class="st0"
   width="11.2"
   height="11.2"
   id="rect10433"
   style="fill:#ffffff;stroke:#000000;stroke-miterlimit:10" />
	<rect
   x="102"
   y="118.8"
   class="st0"
   width="11.2"
   height="11.2"
   id="rect10435"
   style="fill:#ffffff;stroke:#000000;stroke-miterlimit:10" />
	<rect
   x="113.2"
   y="118.8"
   class="st0"
   width="11.2"
   height="11.2"
   id="rect10437"
   style="fill:#ffffff;stroke:#000000;stroke-miterlimit:10" />
	<rect
   x="79.5"
   y="130"
   class="st0"
   width="11.2"
   height="11.2"
   id="rect10439"
   style="fill:#ffffff;stroke:#000000;stroke-miterlimit:10" />
	<rect
   x="90.800003"
   y="130"
   class="st0"
   width="11.2"
   height="11.2"
   id="rect10441"
   style="fill:#ffffff;stroke:#000000;stroke-miterlimit:10" />
	<rect
   x="102"
   y="130"
   class="st0"
   width="11.2"
   height="11.2"
   id="rect10443"
   style="fill:#ffffff;stroke:#000000;stroke-miterlimit:10" />
	<rect
   x="113.2"
   y="130"
   class="st0"
   width="11.2"
   height="11.2"
   id="rect10445"
   style="fill:#ffffff;stroke:#000000;stroke-miterlimit:10" />
	<rect
   x="79.5"
   y="141.2"
   class="st1"
   width="11.2"
   height="11.2"
   id="rect10447"
   style="stroke:#000000;stroke-miterlimit:10" />
	<rect
   x="90.800003"
   y="141.2"
   class="st0"
   width="11.2"
   height="11.2"
   id="rect10449"
   style="fill:#ffffff;stroke:#000000;stroke-miterlimit:10" />
	<rect
   x="102"
   y="141.2"
   class="st0"
   width="11.2"
   height="11.2"
   id="rect10451"
   style="fill:#ffffff;stroke:#000000;stroke-miterlimit:10" />
	<rect
   x="113.2"
   y="141.2"
   class="st0"
   width="11.2"
   height="11.2"
   id="rect10453"
   style="fill:#ffffff;stroke:#000000;stroke-miterlimit:10" />
	<rect
   x="79.5"
   y="152.39999"
   class="st0"
   width="11.2"
   height="11.2"
   id="rect10455"
   style="fill:#ffffff;stroke:#000000;stroke-miterlimit:10" />
	<rect
   x="90.800003"
   y="152.39999"
   class="st1"
   width="11.2"
   height="11.2"
   id="rect10457"
   style="stroke:#000000;stroke-miterlimit:10" />
	<rect
   x="102"
   y="152.39999"
   class="st1"
   width="11.2"
   height="11.2"
   id="rect10459"
   style="stroke:#000000;stroke-miterlimit:10" />
	<rect
   x="113.2"
   y="152.39999"
   class="st1"
   width="11.2"
   height="11.2"
   id="rect10461"
   style="stroke:#000000;stroke-miterlimit:10" />
	<rect
   x="124.4"
   y="118.8"
   class="st0"
   width="11.2"
   height="11.2"
   id="rect10463"
   style="fill:#ffffff;stroke:#000000;stroke-miterlimit:10" />
	<rect
   x="135.60001"
   y="118.8"
   class="st0"
   width="11.2"
   height="11.2"
   id="rect10465"
   style="fill:#ffffff;stroke:#000000;stroke-miterlimit:10" />
	<rect
   x="146.8"
   y="118.8"
   class="st1"
   width="11.2"
   height="11.2"
   id="rect10467"
   style="stroke:#000000;stroke-miterlimit:10" />
	<rect
   x="158"
   y="118.8"
   class="st0"
   width="11.2"
   height="11.2"
   id="rect10469"
   style="fill:#ffffff;stroke:#000000;stroke-miterlimit:10" />
	<rect
   x="124.4"
   y="130"
   class="st0"
   width="11.2"
   height="11.2"
   id="rect10471"
   style="fill:#ffffff;stroke:#000000;stroke-miterlimit:10" />
	<rect
   x="135.60001"
   y="130"
   class="st1"
   width="11.2"
   height="11.2"
   id="rect10473"
   style="stroke:#000000;stroke-miterlimit:10" />
	<rect
   x="146.8"
   y="130"
   class="st0"
   width="11.2"
   height="11.2"
   id="rect10475"
   style="fill:#ffffff;stroke:#000000;stroke-miterlimit:10" />
	<rect
   x="158"
   y="130"
   class="st0"
   width="11.2"
   height="11.2"
   id="rect10477"
   style="fill:#ffffff;stroke:#000000;stroke-miterlimit:10" />
	<rect
   x="124.4"
   y="141.2"
   class="st1"
   width="11.2"
   height="11.2"
   id="rect10479"
   style="stroke:#000000;stroke-miterlimit:10" />
	<rect
   x="135.60001"
   y="141.2"
   class="st0"
   width="11.2"
   height="11.2"
   id="rect10481"
   style="fill:#ffffff;stroke:#000000;stroke-miterlimit:10" />
	<rect
   x="146.8"
   y="141.2"
   class="st1"
   width="11.2"
   height="11.2"
   id="rect10483"
   style="stroke:#000000;stroke-miterlimit:10" />
	<rect
   x="158"
   y="141.2"
   class="st0"
   width="11.2"
   height="11.2"
   id="rect10485"
   style="fill:#ffffff;stroke:#000000;stroke-miterlimit:10" />
	<rect
   x="124.4"
   y="152.39999"
   class="st0"
   width="11.2"
   height="11.2"
   id="rect10487"
   style="fill:#ffffff;stroke:#000000;stroke-miterlimit:10" />
	<rect
   x="135.60001"
   y="152.39999"
   class="st0"
   width="11.2"
   height="11.2"
   id="rect10489"
   style="fill:#ffffff;stroke:#000000;stroke-miterlimit:10" />
	<rect
   x="146.8"
   y="152.39999"
   class="st0"
   width="11.2"
   height="11.2"
   id="rect10491"
   style="fill:#ffffff;stroke:#000000;stroke-miterlimit:10" />
	<rect
   x="158"
   y="152.39999"
   class="st1"
   width="11.2"
   height="11.2"
   id="rect10493"
   style="stroke:#000000;stroke-miterlimit:10" />
	<rect
   x="169.2"
   y="118.8"
   class="st0"
   width="11.2"
   height="11.2"
   id="rect10495"
   style="fill:#ffffff;stroke:#000000;stroke-miterlimit:10" />
	<rect
   x="180.39999"
   y="118.8"
   class="st0"
   width="11.2"
   height="11.2"
   id="rect10497"
   style="fill:#ffffff;stroke:#000000;stroke-miterlimit:10" />
	<rect
   x="191.60001"
   y="118.8"
   class="st0"
   width="11.2"
   height="11.2"
   id="rect10499"
   style="fill:#ffffff;stroke:#000000;stroke-miterlimit:10" />
	<rect
   x="169.2"
   y="130"
   class="st0"
   width="11.2"
   height="11.2"
   id="rect10501"
   style="fill:#ffffff;stroke:#000000;stroke-miterlimit:10" />
	<rect
   x="180.39999"
   y="130"
   class="st0"
   width="11.2"
   height="11.2"
   id="rect10503"
   style="fill:#ffffff;stroke:#000000;stroke-miterlimit:10" />
	<rect
   x="191.60001"
   y="130"
   class="st0"
   width="11.2"
   height="11.2"
   id="rect10505"
   style="fill:#ffffff;stroke:#000000;stroke-miterlimit:10" />
	<rect
   x="169.2"
   y="141.2"
   class="st0"
   width="11.2"
   height="11.2"
   id="rect10507"
   style="fill:#ffffff;stroke:#000000;stroke-miterlimit:10" />
	<rect
   x="180.39999"
   y="141.2"
   class="st0"
   width="11.2"
   height="11.2"
   id="rect10509"
   style="fill:#ffffff;stroke:#000000;stroke-miterlimit:10" />
	<rect
   x="191.60001"
   y="141.2"
   class="st0"
   width="11.2"
   height="11.2"
   id="rect10511"
   style="fill:#ffffff;stroke:#000000;stroke-miterlimit:10" />
	<rect
   x="169.2"
   y="152.39999"
   class="st0"
   width="11.2"
   height="11.2"
   id="rect10513"
   style="fill:#ffffff;stroke:#000000;stroke-miterlimit:10" />
	<rect
   x="180.39999"
   y="152.39999"
   class="st0"
   width="11.2"
   height="11.2"
   id="rect10515"
   style="fill:#ffffff;stroke:#000000;stroke-miterlimit:10" />
	<rect
   x="191.60001"
   y="152.39999"
   class="st0"
   width="11.2"
   height="11.2"
   id="rect10517"
   style="fill:#ffffff;stroke:#000000;stroke-miterlimit:10" />
	<rect
   x="34.700001"
   y="163.60001"
   class="st0"
   width="11.2"
   height="11.2"
   id="rect10519"
   style="fill:#ffffff;stroke:#000000;stroke-miterlimit:10" />
	<rect
   x="45.900002"
   y="163.60001"
   class="st0"
   width="11.2"
   height="11.2"
   id="rect10521"
   style="fill:#ffffff;stroke:#000000;stroke-miterlimit:10" />
	<rect
   x="57.099998"
   y="163.60001"
   class="st0"
   width="11.2"
   height="11.2"
   id="rect10523"
   style="fill:#ffffff;stroke:#000000;stroke-miterlimit:10" />
	<rect
   x="68.300003"
   y="163.60001"
   class="st0"
   width="11.2"
   height="11.2"
   id="rect10525"
   style="fill:#ffffff;stroke:#000000;stroke-miterlimit:10" />
	<rect
   x="34.700001"
   y="174.8"
   class="st0"
   width="11.2"
   height="11.2"
   id="rect10527"
   style="fill:#ffffff;stroke:#000000;stroke-miterlimit:10" />
	<rect
   x="45.900002"
   y="174.8"
   class="st0"
   width="11.2"
   height="11.2"
   id="rect10529"
   style="fill:#ffffff;stroke:#000000;stroke-miterlimit:10" />
	<rect
   x="57.099998"
   y="174.8"
   class="st0"
   width="11.2"
   height="11.2"
   id="rect10531"
   style="fill:#ffffff;stroke:#000000;stroke-miterlimit:10" />
	<rect
   x="68.300003"
   y="174.8"
   class="st0"
   width="11.2"
   height="11.2"
   id="rect10533"
   style="fill:#ffffff;stroke:#000000;stroke-miterlimit:10" />
	<rect
   x="34.700001"
   y="186"
   class="st0"
   width="11.2"
   height="11.2"
   id="rect10535"
   style="fill:#ffffff;stroke:#000000;stroke-miterlimit:10" />
	<rect
   x="45.900002"
   y="186"
   class="st0"
   width="11.2"
   height="11.2"
   id="rect10537"
   style="fill:#ffffff;stroke:#000000;stroke-miterlimit:10" />
	<rect
   x="57.099998"
   y="186"
   class="st0"
   width="11.2"
   height="11.2"
   id="rect10539"
   style="fill:#ffffff;stroke:#000000;stroke-miterlimit:10" />
	<rect
   x="68.300003"
   y="186"
   class="st0"
   width="11.2"
   height="11.2"
   id="rect10541"
   style="fill:#ffffff;stroke:#000000;stroke-miterlimit:10" />
	<rect
   x="79.5"
   y="163.60001"
   class="st0"
   width="11.2"
   height="11.2"
   id="rect10543"
   style="fill:#ffffff;stroke:#000000;stroke-miterlimit:10" />
	<rect
   x="90.800003"
   y="163.60001"
   class="st0"
   width="11.2"
   height="11.2"
   id="rect10545"
   style="fill:#ffffff;stroke:#000000;stroke-miterlimit:10" />
	<rect
   x="102"
   y="163.60001"
   class="st0"
   width="11.2"
   height="11.2"
   id="rect10547"
   style="fill:#ffffff;stroke:#000000;stroke-miterlimit:10" />
	<rect
   x="113.2"
   y="163.60001"
   class="st0"
   width="11.2"
   height="11.2"
   id="rect10549"
   style="fill:#ffffff;stroke:#000000;stroke-miterlimit:10" />
	<rect
   x="79.5"
   y="174.8"
   class="st0"
   width="11.2"
   height="11.2"
   id="rect10551"
   style="fill:#ffffff;stroke:#000000;stroke-miterlimit:10" />
	<rect
   x="90.800003"
   y="174.8"
   class="st0"
   width="11.2"
   height="11.2"
   id="rect10553"
   style="fill:#ffffff;stroke:#000000;stroke-miterlimit:10" />
	<rect
   x="102"
   y="174.8"
   class="st0"
   width="11.2"
   height="11.2"
   id="rect10555"
   style="fill:#ffffff;stroke:#000000;stroke-miterlimit:10" />
	<rect
   x="113.2"
   y="174.8"
   class="st0"
   width="11.2"
   height="11.2"
   id="rect10557"
   style="fill:#ffffff;stroke:#000000;stroke-miterlimit:10" />
	<rect
   x="79.5"
   y="186"
   class="st0"
   width="11.2"
   height="11.2"
   id="rect10559"
   style="fill:#ffffff;stroke:#000000;stroke-miterlimit:10" />
	<rect
   x="90.800003"
   y="186"
   class="st0"
   width="11.2"
   height="11.2"
   id="rect10561"
   style="fill:#ffffff;stroke:#000000;stroke-miterlimit:10" />
	<rect
   x="102"
   y="186"
   class="st0"
   width="11.2"
   height="11.2"
   id="rect10563"
   style="fill:#ffffff;stroke:#000000;stroke-miterlimit:10" />
	<rect
   x="113.2"
   y="186"
   class="st0"
   width="11.2"
   height="11.2"
   id="rect10565"
   style="fill:#ffffff;stroke:#000000;stroke-miterlimit:10" />
	<rect
   x="124.4"
   y="163.60001"
   class="st0"
   width="11.2"
   height="11.2"
   id="rect10567"
   style="fill:#ffffff;stroke:#000000;stroke-miterlimit:10" />
	<rect
   x="135.60001"
   y="163.60001"
   class="st0"
   width="11.2"
   height="11.2"
   id="rect10569"
   style="fill:#ffffff;stroke:#000000;stroke-miterlimit:10" />
	<rect
   x="146.8"
   y="163.60001"
   class="st0"
   width="11.2"
   height="11.2"
   id="rect10571"
   style="fill:#ffffff;stroke:#000000;stroke-miterlimit:10" />
	<rect
   x="158"
   y="163.60001"
   class="st0"
   width="11.2"
   height="11.2"
   id="rect10573"
   style="fill:#ffffff;stroke:#000000;stroke-miterlimit:10" />
	<rect
   x="124.4"
   y="174.8"
   class="st0"
   width="11.2"
   height="11.2"
   id="rect10575"
   style="fill:#ffffff;stroke:#000000;stroke-miterlimit:10" />
	<rect
   x="135.60001"
   y="174.8"
   class="st0"
   width="11.2"
   height="11.2"
   id="rect10577"
   style="fill:#ffffff;stroke:#000000;stroke-miterlimit:10" />
	<rect
   x="146.8"
   y="174.8"
   class="st0"
   width="11.2"
   height="11.2"
   id="rect10579"
   style="fill:#ffffff;stroke:#000000;stroke-miterlimit:10" />
	<rect
   x="158"
   y="174.8"
   class="st0"
   width="11.2"
   height="11.2"
   id="rect10581"
   style="fill:#ffffff;stroke:#000000;stroke-miterlimit:10" />
	<rect
   x="124.4"
   y="186"
   class="st0"
   width="11.2"
   height="11.2"
   id="rect10583"
   style="fill:#ffffff;stroke:#000000;stroke-miterlimit:10" />
	<rect
   x="135.60001"
   y="186"
   class="st0"
   width="11.2"
   height="11.2"
   id="rect10585"
   style="fill:#ffffff;stroke:#000000;stroke-miterlimit:10" />
	<rect
   x="146.8"
   y="186"
   class="st0"
   width="11.2"
   height="11.2"
   id="rect10587"
   style="fill:#ffffff;stroke:#000000;stroke-miterlimit:10" />
	<rect
   x="158"
   y="186"
   class="st0"
   width="11.2"
   height="11.2"
   id="rect10589"
   style="fill:#ffffff;stroke:#000000;stroke-miterlimit:10" />
	<rect
   x="169.2"
   y="163.60001"
   class="st1"
   width="11.2"
   height="11.2"
   id="rect10591"
   style="stroke:#000000;stroke-miterlimit:10" />
	<rect
   x="180.39999"
   y="163.60001"
   class="st0"
   width="11.2"
   height="11.2"
   id="rect10593"
   style="fill:#ffffff;stroke:#000000;stroke-miterlimit:10" />
	<rect
   x="191.60001"
   y="163.60001"
   class="st0"
   width="11.2"
   height="11.2"
   id="rect10595"
   style="fill:#ffffff;stroke:#000000;stroke-miterlimit:10" />
	<rect
   x="169.2"
   y="174.8"
   class="st0"
   width="11.2"
   height="11.2"
   id="rect10597"
   style="fill:#ffffff;stroke:#000000;stroke-miterlimit:10" />
	<rect
   x="180.39999"
   y="174.8"
   class="st1"
   width="11.2"
   height="11.2"
   id="rect10599"
   style="stroke:#000000;stroke-miterlimit:10" />
	<rect
   x="191.60001"
   y="174.8"
   class="st0"
   width="11.2"
   height="11.2"
   id="rect10601"
   style="fill:#ffffff;stroke:#000000;stroke-miterlimit:10" />
	<rect
   x="169.2"
   y="186"
   class="st0"
   width="11.2"
   height="11.2"
   id="rect10603"
   style="fill:#ffffff;stroke:#000000;stroke-miterlimit:10" />
	<rect
   x="180.39999"
   y="186"
   class="st0"
   width="11.2"
   height="11.2"
   id="rect10605"
   style="fill:#ffffff;stroke:#000000;stroke-miterlimit:10" />
	<rect
   x="191.60001"
   y="186"
   class="st0"
   width="11.2"
   height="11.2"
   id="rect10607"
   style="fill:#ffffff;stroke:#000000;stroke-miterlimit:10" />
</g>



</svg>
