Nimi,Kool,Klass,Punkte,Lisainfo
Hannes Artur Semper,Gustav Adolfi Gümnaasium,10,45,kutsutud lõppvooru,
Kaisa Aunapuu,Vinni-Pajusti Gümnaasium,10,45,kutsutud lõppvooru,
Karl-Erik Volberg,Pärnu Sütevaka Humanitaargümnaasium,10,45,kutsutud lõppvooru,
Pärtel Koit Kose,Gustav Adolfi Gümnaasium,10,45,kutsutud lõppvooru,
Ranno Valk,Nõo Reaalgümnaasium,10,45,kutsutud lõppvooru,
Linda Maria Pool,Miina Härma Gümnaasium,9,42,kutsutud lõppvooru,
Raul Pata,Gustav Adolfi Gümnaasium,9,42,kutsutud lõppvooru,
Ats Uder,Võru Gümnaasium,10,41,kutsutud lõppvooru,
Georg Kalme,Tallinna Reaalkool,10,41,kutsutud lõppvooru,
Hendrik Pärli,Gustav Adolfi Gümnaasium,10,41,kutsutud lõppvooru,
Jakob Matthias Lindma,Tallinna Reaalkool,10,41,kutsutud lõppvooru,
Jesper Alapert,Tartu Jaan Poska Gümnaasium,10,41,kutsutud lõppvooru,
Kalev Mattias Raussi,Tallinna Reaalkool,10,41,kutsutud lõppvooru,
Kert Kristian Soomre,Gustav Adolfi Gümnaasium,10,41,kutsutud lõppvooru,
Kristofer Põlluste,Tartu Mart Reiniku Kool,9,41,kutsutud lõppvooru,
Leon Galojan,Tallinna Kesklinna Vene Gümnaasium,9,41,kutsutud lõppvooru,
Luisa Kuusik,Gustav Adolfi Gümnaasium,10,41,kutsutud lõppvooru,
Maarja Katherine Link,Gustav Adolfi Gümnaasium,10,41,kutsutud lõppvooru,
Marten Männa,Gustav Adolfi Gümnaasium,10,41,kutsutud lõppvooru,
Mishutka Lutsiv,Tallinna Kesklinna Vene Gümnaasium,9,41,kutsutud lõppvooru,
Radamir Kovalenko,Kohtla-Järve Tammiku Põhikool,9,41,kutsutud lõppvooru,
Ralf-Martin Olev,Gustav Adolfi Gümnaasium,9,41,kutsutud lõppvooru,
Rami Sepp,Tallinna Reaalkool,10,41,kutsutud lõppvooru,
Rasmus Randmäe,Gustav Adolfi Gümnaasium,9,41,kutsutud lõppvooru,
Remo Pihel,Gustav Adolfi Gümnaasium,10,41,kutsutud lõppvooru,
Richard Ründva,Gustav Adolfi Gümnaasium,10,41,kutsutud lõppvooru,
Sander Nemvalts,Tallinna Reaalkool,10,41,kutsutud lõppvooru,
Sebastian Lotman,Gustav Adolfi Gümnaasium,10,41,kutsutud lõppvooru,
Siim Kängsepp,Gustav Adolfi Gümnaasium,10,41,kutsutud lõppvooru,
Tristan Aik Sild,Tallinna Reaalkool,10,41,kutsutud lõppvooru,
Tristan Ruut,Gustav Adolfi Gümnaasium,10,41,kutsutud lõppvooru,
Victor Timoshenko,Tallinna Tõnismäe Reaalkool,9,41,kutsutud lõppvooru,
Daniil Hakkinen,Haabersti Vene Gümnaasium,10,38,kutsutud lõppvooru,
Fabian Laido,Gustav Adolfi Gümnaasium,10,38,kutsutud lõppvooru,
Meriel Vahula,Põltsamaa Ühisgümnaasium,9,38,kutsutud lõppvooru,
Ranno Raud,Gustav Adolfi Gümnaasium,10,38,kutsutud lõppvooru,
Uku Heinamaa,Gustav Adolfi Gümnaasium,10,38,kutsutud lõppvooru,
Agnes Tennisberg,Tartu Herbert Masingu Kool,9,37,
Alex Henri Paugus,Pärnu Sütevaka Humanitaargümnaasium,10,37,
Alex Mihol,Tallinna Juudi Kool,9,37,
Artur Erik Sepp,Gustav Adolfi Gümnaasium,10,37,
Ellinor Usai,Hugo Treffneri Gümnaasium,10,37,
Elon Musk,muu,8,37,
Fred Kõlli,Võru Gümnaasium,10,37,
Hardi-Joosep Kongo,Võru Gümnaasium,10,37,
Herta Hermine Vaske,Saue Gümnaasium,9,37,
Jaan Artur Viirsalu,Hugo Treffneri Gümnaasium,10,37,
Jakob Hiiemets,Hiiumaa Gümnaasium,9,37,
Jürgen Luik,Ülenurme Gümnaasium,9,37,
Kaisa Vaher,Tallinna Reaalkool,10,37,
Karli Sven Uurits,Saue Gümnaasium,9,37,
Karoliina Kärsin,Võru Gümnaasium,10,37,
Kermo Kolsar,Paide Gümnaasium,10,37,
Kirill Kongo,Võru Gümnaasium,10,37,
Kristofer Robin Ahtama,Gustav Adolfi Gümnaasium,10,37,
Marek Müürsepp,Tallinna 53. Keskkool,10,37,
Maria Alas,Miina Härma Gümnaasium,9,37,
Maris Sabre,Ülenurme Gümnaasium,9,37,
Markel Hanimägi,Võru Gümnaasium,10,37,
Mia India Nimmerfeldt,Gustav Adolfi Gümnaasium,9,37,
Mihkel Markus Remmelgas,Tallinna Kuristiku Gümnaasium,10,37,
Oliver Poudel,Laagri Kool,9,37,
Robin Haamer,Gustav Adolfi Gümnaasium,10,37,
Sander Must,Tallinna Reaalkool,10,37,
Sigrid Siinmaa,Gustav Adolfi Gümnaasium,10,37,
Sten Erik Rooba,Gustav Adolfi Gümnaasium,10,37,
Sten-Tristan Romeikis,Gustav Adolfi Gümnaasium,10,37,
Taavo Lippus,Gustav Adolfi Gümnaasium,10,37,
Tuuli Hanson,Kalamaja Põhikool,9,37,
Vlad Verbitski,Tallinna Kesklinna Vene Gümnaasium,9,37,
Lennart Parašin,Gustav Adolfi Gümnaasium,10,35,
Hanna-Leen Keerov,Saue Gümnaasium,9,34,
Liise Lillelaid,Gustav Adolfi Gümnaasium,9,34,
Marie Martine Lupp,Võru Gümnaasium,10,34,
Raikko Udris,Saue Gümnaasium,9,34,
Therese Liseth Vilbre,Gustav Adolfi Gümnaasium,9,34,
Полина Солопхова,Tallinna 53. Keskkool,9,34,
Aleksander Nikitin,Tallinna Tõnismäe Reaalkool,9,33,
Ander Konsap,Räpina Ühisgümnaasium,9,33,
Andreas Leetsar,Tallinna Reaalkool,9,33,
Andreas Rey Hõim,Gustav Adolfi Gümnaasium,10,33,
Anna-Grete Kuusik,Võru Gümnaasium,10,33,
Anna-Liisa Mägi,Hugo Treffneri Gümnaasium,10,33,
Annabel Kipasto,Võru Gümnaasium,10,33,
Artjom Komendantov,Tallinna 53. Keskkool,9,33,
Bert Omann,Hiiumaa Gümnaasium,10,33,
Britten Remmelkoor,Gustav Adolfi Gümnaasium,10,33,
Darja Lakova,Tallinna Kesklinna Vene Gümnaasium,9,33,
Diana Garlukovits,Tallinna Kesklinna Vene Gümnaasium,9,33,
Dominika Mustonen,Tallinna 53. Keskkool,9,33,
Elen Bitsan,Tallinna Kesklinna Vene Gümnaasium,9,33,
Elias Saue,Tallinna Reaalkool,10,33,
Elisabeth Jõgi,Gustav Adolfi Gümnaasium,9,33,
Elsa Valle,Gustav Adolfi Gümnaasium,9,33,
Eneli Semilarski,Tartu Jaan Poska Gümnaasium,10,33,
Georg Kärmas,Tallinna Reaalkool,10,33,
Hannuk Vernik,Gustav Adolfi Gümnaasium,10,33,
Heleryn Vatsk,Saue Gümnaasium,9,33,
Hendrik Värk,Gustav Adolfi Gümnaasium,10,33,
Henri Magnus Linno,Tallinna Reaalkool,9,33,
Iris Papstel,Paide Gümnaasium,10,33,
Janika Mägi,Narva Keeltelütseum,10,33,
Johannes Mattias Toome,Gustav Adolfi Gümnaasium,10,33,
Karl Egert Koemets,Gustav Adolfi Gümnaasium,10,33,
Karmo Karro,Võru Gümnaasium,10,33,
Kaur Kalevik,Tallinna Kuristiku Gümnaasium,10,33,
Kristjan Rosberg,Gustav Adolfi Gümnaasium,9,33,
Marta Pallas,Tallinna Kuristiku Gümnaasium,10,33,
Martin Reimann,Tallinna Reaalkool,10,33,
Martin Saul,Võru Gümnaasium,10,33,
Merit Hass,Võru Gümnaasium,10,33,
Mia Mai Laisaar,Tallinna Reaalkool,10,33,
Oliver Aavik,Gustav Adolfi Gümnaasium,9,33,
Oliver Iida,Gustav Adolfi Gümnaasium,10,33,
Pärviz Mirijev,Tallinna Kuristiku Gümnaasium,9,33,
Rando Leesment,Tõrva Gümnaasium,9,33,
Rasmus Koort,Võru Gümnaasium,10,33,
Sander Punt,Nõo Reaalgümnaasium,10,33,
Sofia Starikova,Tallinna Kesklinna Vene Gümnaasium,9,33,
Tom-Tristan Romeikis,Gustav Adolfi Gümnaasium,9,33,
Triin Aabreldaal,Gustav Adolfi Gümnaasium,10,33,
Trond Herman Meier,Võru Gümnaasium,10,33,
Uljana Kudrjašova,Sillamäe Gümnaasium,10,33,
Vassilina Kondrashova,Tallinna Kesklinna Vene Gümnaasium,9,33,
Veigo Konrad,Paide Gümnaasium,10,33,
Veronika Kiiski,Tallinna Kesklinna Vene Gümnaasium,9,33,
Савва Мячин,Tallinna Kesklinna Vene Gümnaasium,9,33,
Hannes Vaabel,Gustav Adolfi Gümnaasium,9,32,
Anna-Stasia Minkova,Tallinna Kesklinna Vene Gümnaasium,9,30,
Gerdo Kiipus,Põltsamaa Ühisgümnaasium,9,30,
Hans-Jost Martin,Saue Gümnaasium,9,30,
Marta Saare,Gustav Adolfi Gümnaasium,9,30,
Merille Saare,Ülenurme Gümnaasium,9,30,
Nikita Smirnov,Tallinna 53. Keskkool,10,30,
Polina Svintsova,Tallinna 53. Keskkool,9,30,
Rando Kaljuste,Ülenurme Gümnaasium,9,30,
Sulev Jaaniste,Nõo Reaalgümnaasium,10,30,
Uku Nael,Tartu Hansa Kool,9,30,
Airiin Laugus,Vinni-Pajusti Gümnaasium,10,29,
Albert Mosin,Haabersti Vene Gümnaasium,10,29,
Aleks Kolesnik,Tallinna 53. Keskkool,10,29,
Aleksandr Markin,Tallinna Kesklinna Vene Gümnaasium,9,29,
Alissa Ksendzova,Tallinna Kesklinna Vene Gümnaasium,9,29,
Andre Jaanikesing,Ülenurme Gümnaasium,9,29,
Anete Kuuskla,Võru Gümnaasium,10,29,
Anette Arak,Tallinna Reaalkool,9,29,
Anhelina Odintsova,Tallinna 53. Keskkool,10,29,
Annaliisa Rõõm,Võru Gümnaasium,10,29,
Arseni Malovanenko,Narva Keeltelütseum,10,29,
Art Rihard Jorro,Gustav Adolfi Gümnaasium,9,29,
Birgit Leesment,Tõrva Gümnaasium,8,29,
Carl Aleksander Katalsepp,Gustav Adolfi Gümnaasium,9,29,
Celine Sool,Võru Gümnaasium,10,29,
Darja Galaburda,Tallinna Kesklinna Vene Gümnaasium,9,29,
Darja Rogova,Narva Keeltelütseum,10,29,
Eenok Randlepp,Keila Kool,9,29,
Emma Priisaar,Tallinna Reaalkool,10,29,
Eva Lotta Paavel,Gustav Adolfi Gümnaasium,9,29,
Felis Talvik,Gustav Adolfi Gümnaasium,9,29,
Georg Henry Piller,Tallinna Reaalkool,9,29,
German Grigorov,Tartu Jaan Poska Gümnaasium,10,29,
Gruntova Valeria,Tallinna Kesklinna Vene Gümnaasium,9,29,
Hannes Vislapuu,Võru Kreutzwaldi Kool,9,29,
Helar Richard Ekštein,Kohtla-Järve Gümnaasium,10,29,
Hirvo Rannu,Paide Gümnaasium,10,29,
Ivanova Varvara,Tallinna Kesklinna Vene Gümnaasium,9,29,
Jana Kuznetsova,Tallinna Kesklinna Vene Gümnaasium,9,29,
Johan Frederik Velström,Gustav Adolfi Gümnaasium,9,29,
Joonas Sirts,Saue Gümnaasium,9,29,
Kadi Riin Teuli,Kohtla-Järve Gümnaasium,10,29,
Kadri Luurmees,Gustav Adolfi Gümnaasium,10,29,
Karl Hansen Puri,Tallinna Toomkool,9,29,
Karola Kallaste,Gustav Adolfi Gümnaasium,9,29,
Karolin Niido,Parksepa Keskkool,10,29,
Kaspar Mathias Korrol,Gustav Adolfi Gümnaasium,9,29,
Kertu Hordo,Võru Gümnaasium,10,29,
Ketli Saks,Võru Gümnaasium,10,29,
Kira Zaichikova,Tallinna Kesklinna Vene Gümnaasium,9,29,
Koit Matthias Kutsar,Ülenurme Gümnaasium,10,29,
Korneva Valeria,Tallinna 53. Keskkool,9,29,
Krettel Klaus,Võru Gümnaasium,10,29,
Lauri Vaide,Tallinna Toomkool,9,29,
Lene Tinnuri,Paikuse Põhikool,9,29,
Lisette Stalkov,Võru Gümnaasium,10,29,
Lukas S. Coolidge,Gustav Adolfi Gümnaasium,9,29,
Mait Mihkel Toikka,Kohtla-Järve Gümnaasium,10,29,
Maria Matsneva,Tallinna Kesklinna Vene Gümnaasium,9,29,
Mattias Tani,Ülenurme Gümnaasium,9,29,
Matvei Aaron Obolonin,Tallinna Juudi Kool,9,29,
Meelis Sõmer,Hiiumaa Gümnaasium,10,29,
Mia Joanna Koort,Võru Gümnaasium,10,29,
Mike Hideo Kahar,Gustav Adolfi Gümnaasium,9,29,
Nikita Burgas,Haabersti Vene Gümnaasium,10,29,
Nikita Safronov,Narva Keeltelütseum,10,29,
Nikita Sobolev,Tallinna 53. Keskkool,9,29,
Rahel Batsinskaja,Tallinna Juudi Kool,10,29,
Rasmus Märtin,Võru Gümnaasium,10,29,
Reio Allsaar,Paide Gümnaasium,10,29,
Renata Safina,Võru Gümnaasium,10,29,
Renee Veisveer,Võru Kreutzwaldi Kool,9,29,
Reti Reinik,Gustav Adolfi Gümnaasium,10,29,
Richard Tupp,Võru Gümnaasium,10,29,
Roman Strekalov,Tallinna Kesklinna Vene Gümnaasium,9,29,
Siim Eenma,Gustav Adolfi Gümnaasium,10,29,
Sireliis Viiberg,Võru Gümnaasium,10,29,
Säde Noormets,Gustav Adolfi Gümnaasium,10,29,
Tomi Perillus,Gustav Adolfi Gümnaasium,10,29,
Valeria Nazarova,Narva Keeltelütseum,6,29,
Valeriia Bondar,Kohtla-Järve Ahtme Põhikool,9,29,
Villem Lubi,Ülenurme Gümnaasium,9,29,
Vladislav Šuvalov,Tallinna 53. Keskkool,10,29,
Дарья Румянцева,Tallinna Kesklinna Vene Gümnaasium,9,29,
Laura Marii Palo,Gustav Adolfi Gümnaasium,10,28,
Владислав Смирнов,Sillamäe Gümnaasium,10,28,
Andre Priks,Paide Gümnaasium,10,27,
Anja Klimenko,Tallinna 53. Keskkool,10,27,
Hendri Kingisepp,Paide Gümnaasium,10,27,
Kertu Ladva,Saue Gümnaasium,9,27,
Marleen Prants,Võru Kreutzwaldi Kool,9,27,
Marta Kivilo,Võru Gümnaasium,10,27,
Artur Kronk,Narva Kesklinna Gümnaasium,9,26,
Devin Šaduro,Võru Kreutzwaldi Kool,9,26,
Dmitri Shershnev,Tallinna Kesklinna Vene Gümnaasium,9,26,
Helena Täht,Võru Gümnaasium,10,26,
Hugo Uusküla,Põltsamaa Ühisgümnaasium,10,26,
Janek Liiving,Põltsamaa Ühisgümnaasium,10,26,
Juss Vilk,Põltsamaa Ühisgümnaasium,10,26,
Jörgen Järve,Ülenurme Gümnaasium,10,26,
Kaija-Liisa Kuklane,Võru Kreutzwaldi Kool,9,26,
Karl Jeedas,Parksepa Keskkool,10,26,
Karolin Kaiklem,Gustav Adolfi Gümnaasium,10,26,
Liis Lapsanit,Tallinna Toomkool,9,26,
Madleen Olesk,Parksepa Keskkool,9,26,
Matvey Kunevich,Tallinna Õismäe Vene Lütseum,8,26,
Nikita Filipjev,Narva Keeltelütseum,10,26,
Ott-Oliver Saartok,Hiiumaa Gümnaasium,10,26,
Rasmus Erich Varunov,Tallinna Reaalkool,10,26,
Ratmir Bessonov,Tallinna Juudi Kool,10,26,
Riho Mäesaar,Parksepa Keskkool,9,26,
Agris Vill,Parksepa Keskkool,9,25,
Aleksandr Diyachenko,Tallinna Kesklinna Vene Gümnaasium,9,25,
Alexander Soidla,Parksepa Keskkool,9,25,
Alisa Stroganova,Tallinna Kesklinna Vene Gümnaasium,9,25,
Alisia Mozolevskaja,Tallinna Kesklinna Vene Gümnaasium,9,25,
Anastasia Noginova,Narva Vanalinna Riigikool,9,25,
Andra Alliksoo,Võru Gümnaasium,10,25,
Andrei Boiko,Tallinna Kesklinna Vene Gümnaasium,9,25,
Andris Repnau,Kohtla-Järve Gümnaasium,10,25,
Anete Laht,Võru Gümnaasium,10,25,
Anete Pruus,Võru Gümnaasium,10,25,
Anne Saar,Tallinna Kesklinna Vene Gümnaasium,9,25,
Anton Denisov,Tallinna Kesklinna Vene Gümnaasium,9,25,
Arturmudretsov,Tallinna Juudi Kool,10,25,
Daniel Bubin,Tallinna Kesklinna Vene Gümnaasium,9,25,
Daniil Kanev,Tallinna Kesklinna Vene Gümnaasium,9,25,
Delia Tammin,Saue Kool,9,25,
Dominic Osula,Gustav Adolfi Gümnaasium,9,25,
Dominik Lukas Pullisaar,Tallinna Reaalkool,10,25,
Elis Kenk,Parksepa Keskkool,10,25,
Evaliis Raag,Võru Gümnaasium,10,25,
Gayane,Tallinna Kesklinna Vene Gümnaasium,9,25,
Gregor Suleva,Võru Gümnaasium,10,25,
Grete Kärt Jürimäe,Põltsamaa Ühisgümnaasium,9,25,
Hanna Kristiina Hiienõmm,Gustav Adolfi Gümnaasium,10,25,
Harlis Heliste,Võru Gümnaasium,10,25,
Henry,Paide Gümnaasium,10,25,
Ines Markus,Tallinna Kuristiku Gümnaasium,10,25,
Irina Kornysheva,Narva Kesklinna Gümnaasium,9,25,
Jaan Joosep Kuuse,Paide Gümnaasium,10,25,
Jakob Elango,Tõrva Gümnaasium,8,25,
Jakob Kirs,Võru Gümnaasium,10,25,
Jelizaveta Kirsanova,Sillamäe Gümnaasium,10,25,
Jessenia Starokon-Grigorjeva,Tallinna Juudi Kool,10,25,
Joonas Aditya Naestema,Tallinna Reaalkool,10,25,
Julia Ratšinskaja,Tallinna Kesklinna Vene Gümnaasium,,25,väljaspool vanuserühma
Kaiia Tomson,Tallinna Kesklinna Vene Gümnaasium,9,25,
Karl Joosep Jürgen,Paide Gümnaasium,10,25,
Karola Vels,Põltsamaa Ühisgümnaasium,10,25,
Katariina Needo,Võru Gümnaasium,10,25,
Katarina Hirvi,Tallinna Õismäe Vene Lütseum,10,25,
Katrin Kolk,Tallinna 53. Keskkool,9,25,
Kaur Mattias Kimmel,Paide Gümnaasium,10,25,
Keir Mattias Tomperk,Vinni-Pajusti Gümnaasium,10,25,
Kenet Kuusik,Ülenurme Gümnaasium,10,25,
Kertu Kubi,Võru Gümnaasium,10,25,
Kirsika Kaegas,Kadrina Keskkool,9,25,
Kristjan Vaher,Parksepa Keskkool,9,25,
Ksenia Shatilova,Tallinna Kesklinna Vene Gümnaasium,9,25,
Lasse Rihard Sissas,Võru Gümnaasium,10,25,
Leonard Travin,Tallinna Kesklinna Vene Gümnaasium,9,25,
Leonardo Moroz,Põltsamaa Ühisgümnaasium,7,25,
Liis-Loreen Sepp,Võru Gümnaasium,10,25,
Liisi Mäesalu,Gustav Adolfi Gümnaasium,10,25,
Lisete Lepla,Võru Gümnaasium,10,25,
Loviise Tasa,Tallinna Kesklinna Vene Gümnaasium,9,25,
Maksim Potapov,Tallinna 53. Keskkool,10,25,
Mark Jakushev,Tallinna Kesklinna Vene Gümnaasium,9,25,
Markus Kumm,Põltsamaa Ühisgümnaasium,10,25,
Markus Villem,Ülenurme Gümnaasium,10,25,
Marten Võrklaev,Saue kool,9,25,
Maru Männasalu,Tallinna Toomkool,9,25,
Maverik Valend,Keila Kool,9,25,
Mikhail Gladyshev,Narva Keeltelütseum,10,25,
Norbert Feldman,Jõhvi Vene Põhikool,9,25,
Pljut Ramil,Tallinna Kesklinna Vene Gümnaasium,9,25,
Pärle Tehva,Saue kool,9,25,
Pärtel Enok,Põltsamaa Ühisgümnaasium,9,25,
Raiko Alliksaar,Paide Gümnaasium,10,25,
Richard Peitel,Tallinna Toomkool,9,25,
Robin Tambek,Keila Kool,9,25,
Roman Zaitsev,Tallinna Õismäe Vene Lütseum,9,25,
Roman Tirman,Tallinna Juudi Kool,9,25,
Samuel Lubjak,Gustav Adolfi Gümnaasium,9,25,
Siim Maevali,Tallinna Toomkool,9,25,
Sven Pütsep,Võru Gümnaasium,10,25,
Talvi Treiberg,Gustav Adolfi Gümnaasium,9,25,
Timofei Seliverstov,Tallinna Kesklinna Vene Gümnaasium,9,25,
Vadim Lepihhin,Tallinna Kesklinna Vene Gümnaasium,9,25,
Valeria Kregzhdayte,Narva Keeltelütseum,10,25,
Viktoria Ester,Tallinna Kesklinna Vene Gümnaasium,9,25,
Yana Bebra,Tallinna Kesklinna Vene Gümnaasium,9,25,
Александр Качин,Tallinna Õismäe Vene Lütseum,10,25,
Алиса Орган,Tallinna Kesklinna Vene Gümnaasium,8,25,
Матвей Аарон Оболонин,Tallinna Juudi Kool,9,25,
Artjom Rumjantsev,Narva Keeltelütseum,10,24,
Ekaterina Koreshkova,Narva Kesklinna Gümnaasium,10,24,
Karl Eirik Kohava,Ülenurme Gümnaasium,9,24,
Marten Tukk,Emmaste Põhikool,8,24,
Martin Kaldalu,Gustav Adolfi Gümnaasium,9,24,
Sander Talts,Gustav Adolfi Gümnaasium,9,24,
Aleksandr Jegorov,Narva Keeltelütseum,10,23,
Artjom Suhhanov,Tallinna Tõnismäe Reaalkool,9,23,
Artur Ratassepp,Tallinna Kuristiku Gümnaasium,10,23,
Danel Tammin,Saue Gümnaasium,9,23,
Erik Makarov,Narva Keeltelütseum,10,23,
Kirke Kaldoja,Tallinna Toom Kool,9,23,
Rachel Karolin Kunda,Gustav Adolfi Gümnaasium,9,23,
Robin Veskioja,Tallinna Reaalkool,10,23,
Vladislav Krõlov,Narva Kesklinna Gümnaasium,9,23,
Alan Villo,Jõhvi Vene Põhikool,9,22,
Aleksandra Jegorova,Sillamäe Gümnaasium,10,22,
Anastassia Poljakova,Narva Kesklinna Gümnaasium,10,22,
Jaroslav Venson,Narva Kesklinna Gümnaasium,9,22,
Kamilla Mussajeva,Tallinna Kesklinna Vene Gümnaasium,9,22,
Katariina Järvan,Gustav Adolfi Gümnaasium,10,22,
Kendra Tuus,Gustav Adolfi Gümnaasium,9,22,
Marie Aamisepp,Gustav Adolfi Gümnaasium,10,22,
Markus Juhe,Hiiumaa Gümnaasium,10,22,
Aaron Torm Peebo,Gustav Adolfi Gümnaasium,9,21,
Adeele Valb,Võru Gümnaasium,10,21,
Aleksandra Moretskaja,Ülenurme Gümnaasium,10,21,
Aleksandra Shirokova,Narva Keeltelütseum,10,21,
Aleksei Semitsev,Jõhvi Vene Põhikool,9,21,
Alina Dementjeva,Tallinna 53. Keskkool,10,21,
Allan Kuznetsov,Tallinna 53. Keskkool,9,21,
Aminat Sarimova,Tallinna 53. Keskkool,10,21,
Andro Mõttus,Võru Gümnaasium,10,21,
Andro Pall,Võru Gümnaasium,10,21,
Anethe Tops,Põltsamaa Ühisgümnaasium,10,21,
Ani Azarumyan,Tallinna 53. Keskkool,9,21,
Anna Smirnova,Kohtla-Järve Tammiku Põhikool,9,21,
Annaliisa Palm,Põltsamaa Ühisgümnaasium,9,21,
Averiin Haab,Põltsamaa Ühisgümnaasium,9,21,
Berta Elyse Palk,Võru Gümnaasium,10,21,
Bianka Uhtjärv,Tõrva Gümnaasium,10,21,
Birjo Piir,Võru Gümnaasium,10,21,
Carol Lisett Rauba,Võru Gümnaasium,10,21,
Danylo Oliinyk,Tallinna 53. Keskkool,10,21,
Denis Hartsuk,Tallinna Kesklinna Vene Gümnaasium,9,21,
Diana Sidorova,Tallinna 53. Keskkool,10,21,
Dzafar Nurijev,Tallinna 53. Keskkool,10,21,
Edvin Erik,Võru Gümnaasium,10,21,
Edvin Krehov,Ülenurme Gümnaasium,10,21,
Egert Vorms,Parksepa Keskkool,10,21,
Eleri Jõgi,Võru Gümnaasium,10,21,
Greta Busõgina,Haabersti Vene Gümnaasium,10,21,
Heiko Jass,Võru Gümnaasium,10,21,
Helis Keero,Võru Gümnaasium,10,21,
Ivan Antipov,Narva Keeltelütseum,10,21,
Ivan Efimov,Jõhvi Vene Põhikool,9,21,
Joanna Auli,Põltsamaa Ühisgümnaasium,9,21,
Johannes-Külvar Lomp,Põltsamaa Ühisgümnaasium,10,21,
Kailyn Aasa,Võru Gümnaasium,10,21,
Karoliina Puusepp,Gustav Adolfi Gümnaasium,10,21,
Kaspar Kimmel,Võru Gümnaasium,10,21,
Kaur Ilison,Tallinna Rahumäe Põhikool,9,21,
Keir-Kenneth Lumi,Võru Kreutzwaldi Kool,9,21,
Keissy Haava,Ülenurme Gümnaasium,9,21,
Kert Tammesoo,Võru Gümnaasium,10,21,
Krislin Sallo,Ülenurme Gümnaasium,9,21,
Kristen Ove Kons,Võru Gümnaasium,10,21,
Kristiin Heleen Huttunen,Gustav Adolfi Gümnaasium,9,21,
Kristin Soone,Gustav Adolfi Gümnaasium,9,21,
Kristofer Kerno,Saue Gümnaasium,9,21,
Ksenja Ozigina,Tallinna 53. Keskkool,9,21,
Lasse Janson,Võru Gümnaasium,10,21,
Laura Prudnikov,Tallinna 53. Keskkool,10,21,
Leonid Maksimov,Tallinna Kesklinna Vene Gümnaasium,9,21,
Liana Uisk,Haabersti Vene Gümnaasium,10,21,
Lisett Urbanik,Võru Gümnaasium,10,21,
Lisette Suik,Võru Gümnaasium,10,21,
Maksim Kushnir,Tallinna 53. Keskkool,10,21,
Margarita Zahharova,Gustav Adolfi Gümnaasium,9,21,
Mari-Kelli Koltunovskaja,Tallinna 53. Keskkool,10,21,
Maria-Eliise Eilmann,Põltsamaa Ühisgümnaasium,10,21,
Marianna Marjassova,Tallinna Kesklinna Vene Gümnaasium,9,21,
Mario Polshin,Kohtla-Järve Gümnaasium,10,21,
Markus Lehtna,Võru Gümnaasium,10,21,
Martin Linask,Ehte Humanitaargümnaasium,10,21,
Martin Meltsas,Tõrva Gümnaasium,10,21,
Mattias Kuklane,Võru Gümnaasium,10,21,
Matvei Mironov,Kohtla-Järve Gümnaasium,10,21,
Nika Šuvalova,Tallinna 53. Keskkool,10,21,
Oleg Smidt,Kohtla-Järve Gümnaasium,10,21,
Raiko Räbovõitra,Parksepa Keskkool,9,21,
Ralf Simsel,Tallinna Toomkool,9,21,
Randel Rannamägi,Gustav Adolfi Gümnaasium,9,21,
Rebekka Vihurila,Gustav Adolfi Gümnaasium,9,21,
Reiko Suur,Parksepa Keskkool,9,21,
Robert Täri,Tallinna Kesklinna Vene Gümnaasium,9,21,
Robin Mast,Võru Gümnaasium,10,21,
Roland Kuningas,Hiiumaa Gümnaasium,10,21,
Romek Soon,Ülenurme Gümnaasium,10,21,
Sabryna Kuprynovich,Tallinna 53. Keskkool,10,21,
Sander Põdra,Põltsamaa Ühisgümnaasium,10,21,
Sandra Mai Rajasoo,Põltsamaa Ühisgümnaasium,10,21,
Sergei Dobrov,Ehte Humanitaargümnaasium,10,21,
Sofia Zakrevskaja,Tallinna Juudi Kool,10,21,
Taisia Popenko,Sillamäe Gümnaasium,10,21,
Teele Pärnasalu,Võru Kreutzwaldi Kool,9,21,
Triin Lepp,Võru Gümnaasium,10,21,
Udovinchuk Violetta,Tallinna 53. Keskkool,10,21,
Vera Kipus,Tallinna 53. Keskkool,9,21,
Vladimir Gorelikov,Ehte Humanitaargümnaasium,10,21,
Vladimir Martšenko,Tallinna 53. Keskkool,10,21,
Артём Канушин,Tallinna Juudi Kool,10,21,
Виктория Кухарева,Tallinna Kesklinna Vene Gümnaasium,9,21,
Alisa Mironova,Tallinna Kesklinna Vene Gümnaasium,9,20,
Kristelle-Ly Kruuleht,Saue Gümnaasium,9,20,
Mia Victoria Hoomatalo,Pärnu Ülejõe Põhikool,9,20,
Nikita Seljugin,Narva Keeltelütseum,10,20,
Oskar Maripuu,Vinni-Pajusti Gümnaasium,10,20,
Andrei Ostretsov,Jõhvi Vene Põhikool,9,19,
Arina Litvinova,Narva Keeltelütseum,10,19,
Janne-Lisette Tull,Võru Gümnaasium,10,19,
Kert Lestberg,Võru Gümnaasium,10,19,
Kirill Djatko,Tallinna Kesklinna Vene Gümnaasium,9,19,
Rain Aaren,Saue Gümnaasium,9,19,
Rasmus Sirm,Vinni-Pajusti Gümnaasium,10,19,
Zaitsev Jegor,Narva Keeltelütseum,10,19,
Timofei Kolpakov,Jõhvi Vene Põhikool,9,19,
Карина Валетова,Narva Kesklinna Gümnaasium,9,19,
Aleksa Malkova,Tallinna Kuristiku Gümnaasium,10,18,
Andres Kull,Tõrva Gümnaasium,10,18,
Daniel Gaivoronski,Tallinna 53. Keskkool,10,18,
Eleonore Dobrjanskaja,Tallinna Kesklinna Vene Gümnaasium,9,18,
Indrek Kitsing,Põltsamaa Ühisgümnaasium,10,18,
Iti Tõnts,Põltsamaa Ühisgümnaasium,10,18,
Jevgeni Tsaikin,Narva Keeltelütseum,10,18,
Karl Rehe,Võru Gümnaasium,10,18,
Kristina Solomakhina,Sillamäe Gümnaasium,10,18,
Laura Lisanne Paju,Võru Kreutzwaldi Kool,9,18,
Mariliis,Põltsamaa Ühisgümnaasium,9,18,
Naatan Treiman,Hiiumaa Gümnaasium,10,18,
Rasmus Lepik,Ülenurme Gümnaasium,9,18,
Sofia Zaloldinova,Tallinna 53. Keskkool,10,18,
Stefanie Schneider,Gustav Adolfi Gümnaasium,9,18,
Theodor Krull,Parksepa Keskkool,9,18,
Valeria Maksimtsuk,Tallinna 53. Keskkool,10,18,
Aleksander Jarv,Tallinna Kesklinna Vene Gümnaasium,9,17,
Aleksandr Jakovlev,Jõhvi Vene Põhikool,9,17,
Andrei Lartsenko,Haabersti Vene Gümnaasium,10,17,
Anette Lillmaa,Võru Gümnaasium,10,17,
Anni-Roosi Jõe,Põltsamaa Ühisgümnaasium,9,17,
Arina Danilova,Tallinna Kesklinna Vene Gümnaasium,9,17,
Artjom Tšerjkassov,Ehte Humanitaargümnaasium,10,17,
Assol Rostovtseva,Tallinna Kesklinna Vene Gümnaasium,9,17,
Caspar Kõrts,Vinni-Pajusti Gümnaasium,10,17,
Chrislyn Pung,Põltsamaa Ühisgümnaasium,10,17,
Daniel Kärsten,Tallinna Õismäe Vene Lütseum,10,17,
Darina Drazdauskaite,Tallinna 53. Keskkool,9,17,
Denis Grisjuk,Parksepa Keskkool,10,17,
Devis Nool,Põltsamaa Ühisgümnaasium,10,17,
Egert Üksik,Vinni-Pajusti Gümnaasium,10,17,
Eneli Jõesoo,Põltsamaa Ühisgümnaasium,9,17,
Erlend Kullerkupp,Kohtla-Järve Gümnaasium,10,17,
Eva Bekasova,Tallinna 53. Keskkool,9,17,
Geete Liis Kaljurand,Gustav Adolfi Gümnaasium,9,17,
Georg Karl Pook,Põltsamaa Ühisgümnaasium,9,17,
Gleb Vali,Tallinna Kesklinna Vene Gümnaasium,9,17,
Helena Katariina Tõnise,Tallinna Reaalkool,10,17,
Hugo Mikkelsaar,Ülenurme Gümnaasium,9,17,
Ivan Ljasenko,Tallinna 53. Keskkool,9,17,
Jaagup Murd,Hiiumaa Gümnaasium,10,17,
Jaana Rudkovskaja,Tallinna 53. Keskkool,10,17,
Jekaterina Leontjeva,Tallinna 53. Keskkool,10,17,
Karina Soboleva,Parksepa Keskkool,10,17,
Karola Sepp,Võru Gümnaasium,10,17,
Kaspar Koit,Rapla Gümnaasium,10,17,
Keio Anton,Parksepa Keskkool,10,17,
Kennet Pisarev,Kohtla-Järve Gümnaasium,10,17,
Kersti Glaser,Võru Gümnaasium,10,17,
Krete Mäeots,Võru Gümnaasium,10,17,
Kristina Yakovleva,Sillamäe Gümnaasium,10,17,
Kristo Maine,Paide Gümnaasium,10,17,
Ksenija Ulanova,Tallinna 53. Keskkool,9,17,
Kätriin Gavrilov,Ülenurme Gümnaasium,9,17,
Laura Ilves,Võru Gümnaasium,10,17,
Laura Läll,Parksepa Keskkool,9,17,
Laura-Kendre Kõllamägi,Võru Gümnaasium,10,17,
Laura-Liisa Laanemäe,Põltsamaa Ühisgümnaasium,9,17,
Laura-Lotte Ivandi,Ülenurme Gümnaasium,9,17,
Leonid Ionov,Ehte Humanitaargümnaasium,10,17,
Mai Leppik,Tallinna Toomkool,9,17,
Maia Poom,Pärnu Ülejõe Põhikool,9,17,
Mairit Laanesaar,Võru Gümnaasium,10,17,
Marcus Kikerpill,Ülenurme Gümnaasium,9,17,
Mario Mäoma,Vinni-Pajusti Gümnaasium,10,17,
Mark Hasin,Tallinna Juudi Kool,9,17,
Marleen Möller,Räpina Ühisgümnaasium,9,17,
Mathiias Oja,Gustav Adolfi Gümnaasium,9,17,
Mia Mai Huik,Võru Gümnaasium,10,17,
Miikael Metsala,Gustav Adolfi Gümnaasium,10,17,
Mikk Kaspar Piirsalu,Tallinna Reaalkool,10,17,
Mildred Leenurm,Võru Kreutzwaldi Kool,9,17,
Mirtel Oja,Põltsamaa Ühisgümnaasium,9,17,
Natali Žogal,Jõhvi Gümnaasium,10,17,
Naum Levitski,Tallinna Juudi Kool,10,17,
Nikita Kurbatov,Tallinna Toomkool,9,17,
Oskar Kastein,Emmaste Põhikool,8,17,
Oskar Kuningas,Tallinna Toomkool,9,17,
Peeter Kuusik,Põltsamaa Ühisgümnaasium,9,17,
Petra Näpp,Tallinna Kuristiku Gümnaasium,10,17,
Richard Zeno,Parksepa Keskkool,10,17,
Riivo Pippar,Tõrva Gümnaasium,10,17,
Sandra Liisa Aruhein,Ülenurme Gümnaasium,10,17,
Sergei Bürger,Tallinna 53. Keskkool,10,17,
Sten Ivaste,Võru Gümnaasium,10,17,
Sten Sitsmann,Põltsamaa Ühisgümnaasium,10,17,
Teneliis Vahtras,Hiiumaa Gümnaasium,10,17,
Teo Rutenberg,Tallinna Kadaka Põhikool,9,17,
Viktoria Mashtakova,Tallinna 53. Keskkool,10,17,
Анастасия Лебедева,Tallinna 53. Keskkool,9,17,
Вахтанг Шубитидзе,Tallinna Kesklinna Vene Gümnaasium,9,17,
Владимир Носов,Tallinna Kesklinna Vene Gümnaasium,9,17,
Кристина Рохтмаа,Tallinna 53. Keskkool,10,17,
Майя Гильмутдинова,Tallinna Juudi Kool,10,17,
Kristian Gron,Haabersti Vene Gümnaasium,10,16,
Valeria Tolkaciova,Tallinna 53. Keskkool,9,16,
Aleksei Eroma,Narva Kesklinna Gümnaasium,9,15,
Alina Golovats,Tallinna 53. Keskkool,10,15,
Arina Moroz,Sillamäe Gümnaasium,10,15,
Artjom Poršnev,Jõhvi Vene Põhikool,9,15,
Jan Buchmann,Tallinna Kesklinna Vene Gümnaasium,9,15,
Jan-Erik Reinsoo,Põltsamaa Ühisgümnaasium,9,15,
Jegor Kasanov,Tallinna 53. Keskkool,10,15,
Jekaterina Grigorjeva,Tallinna 53. Keskkool,10,15,
Liina Vjushkina,Narva Keeltelütseum,10,15,
Maia Bolshakova,Sillamäe Gümnaasium,10,15,
Marilyn Viiask,Tallinna Kuristiku Gümnaasium,10,15,
Marko Veeranna,Ülenurme Gümnaasium,10,15,
Nikolay Bibikov,Tallinna 53. Keskkool,10,15,
Oleg Russkihh,Tallinna Kuristiku Gümnaasium,10,15,
Renata Tsvetkova,Narva Keeltelütseum,10,15,
Sofja Bulavkina,Narva Kesklinna Gümnaasium,9,15,
Aleksander Nemirski,Haabersti Vene Gümnaasium,10,14,
Aleksandr Krupski,Sillamäe Gümnaasium,10,14,
Aliis Alliksoo,Emmaste Põhikool,9,14,
Anastasia Bernans,Tallinna 53. Keskkool,10,14,
Antonina Yakovleva,Narva Keeltelütseum,10,14,
Arie Shafran,Tallinna Juudi Kool,9,14,
Carolin Teider,Ülenurme Gümnaasium,9,14,
Egle Udras,Tõrva Gümnaasium,10,14,
Elina Liblik,Parksepa Keskkool,9,14,
Grete Vaher,Ülenurme Gümnaasium,9,14,
Hugo Kivi,Põltsamaa Ühisgümnaasium,9,14,
Ivan Kropotin,Tallinna 53. Keskkool,10,14,
Maron Kuur,Võru Gümnaasium,10,14,
Michelle Armon,Tallinna Juudi Kool,10,14,
Roman Zakilov,Narva Kesklinna Gümnaasium,10,14,
Sofja Tomingas,Tallinna Kesklinna Vene Gümnaasium,9,14,
Viktor Guzov,Tallinna Õismäe Vene Lütseum,10,14,
Владислав Белей,Tallinna 53. Keskkool,9,14,
Aari Annus,Vinni-Pajusti Gümnaasium,10,13,
Adrian Serov,Tallinna Kesklinna Vene Gümnaasium,9,13,
Aksel Tähepõld,Saue Kool,9,13,
Aleksandr Ivanov,Tallinna 53. Keskkool,10,13,
Aleksandra Nevent,Tallinna Kesklinna Vene Gümnaasium,9,13,
Alesja Fomenkova,Haabersti Vene Gümnaasium,10,13,
Alex Anderson,Tallinna Juudi Kool,9,13,
Alisa Kirillova,Parksepa Keskkool,10,13,
Anastasia Gorelik,Ehte Humanitaargümnaasium,10,13,
Anastasia Proshko,Tallinna 53. Keskkool,10,13,
Andree,Tallinna Kesklinna Vene Gümnaasium,9,13,
Andri Parts,Parksepa Keskkool,10,13,
Andri Tilsen,Ülenurme Gümnaasium,10,13,
Anzelika Brek,Tallinna Kesklinna Vene Gümnaasium,9,13,
Arina Polegina,Ehte Humanitaargümnaasium,10,13,
Arseni Tokarev,Tallinna 53. Keskkool,10,13,
Bogdan,Tallinna Juudi Kool,9,13,
Daniel Eichfeld,Tallinna Juudi Kool,9,13,
Daniel Ljutkin,Tallinna 53. Keskkool,9,13,
Daniil Lullu,Tallinna 53. Keskkool,10,13,
Darja Buhharmetova,Tallinna Juudi kool,10,13,
Darren Lebedev,Tallinna Õismäe Vene Lütseum,10,13,
Denis Parfjonov,Tallinna 53. Keskkool,10,13,
Desiree Sofie Rosette Tiit,Põltsamaa Ühisgümnaasium,9,13,
Dmitri Dulin,Tallinna 53. Keskkool,9,13,
Dmitri Kanevski,Narva Vanalinna Riigikool,9,13,
Dominik Štšajev,Tallinna 53. Keskkool,10,13,
Edvin Ankipovits,Kohtla-Järve Maleva Põhikool,9,13,
Egor Novozhilov,Narva Kesklinna Gümnaasium,10,13,
Elizabeth Tserel,Tallinna 53. Keskkool,10,13,
Ellen Feldman,Tallinna Kesklinna Vene Gümnaasium,9,13,
German Ionov,Ehte Humanitaargümnaasium,10,13,
Hanna-Liisa Pindis,Põltsamaa Ühisgümnaasium,9,13,
Hardi Veske,Saue Gümnaasium,9,13,
Hendrik Orusalu,Saue Kool,9,13,
Henri Kuus,Põltsamaa Ühisgümnaasium,10,13,
Heorhii Karch,Põltsamaa Ühisgümnaasium,10,13,
Ilona Lesyk,Ülenurme Gümnaasium,10,13,
Inge Heliste,Parksepa Keskkool,10,13,
Ivan Jermakov,Jõhvi Vene Põhikool,9,13,
Ivan Mayorov,Narva Kesklinna Gümnaasium,10,13,
Jana Majak,Haabersti Vene Gümnaasium,10,13,
Jarek Kütt,Põltsamaa Ühisgümnaasium,10,13,
Jaroslava Starovoitova,Tallinna 53. Keskkool,9,13,
Jelizaveta Koroljova,Narva Kesklinna Gümnaasium,10,13,
Jelizaveta Kravtsenko,Vinni-Pajusti Gümnaasium,10,13,
Joonas Nuut,Ülenurme Gümnaasium,9,13,
Karita Kikas,Põltsamaa Ühisgümnaasium,9,13,
Karl Pähna,Hiiumaa Gümnaasium,10,13,
Karolin Keem,Võru Kreutzwaldi Kool,9,13,
Kateryna Yakovenko,Haabersti Vene Gümnaasium,10,13,
Keidi Lpeiste,Põltsamaa Ühisgümnaasium,9,13,
Kenneth Pettinen,Ülenurme Gümnaasium,10,13,
Kermo Kruusmann,Vinni-Pajusti Gümnaasium,10,13,
Kristella Hõrak,Parksepa Keskkool,9,13,
Kristian Sulg,Tallinna Kesklinna Vene Gümnaasium,9,13,
Kristin Altsaar,Ülenurme Gümnaasium,9,13,
Kristin Loodus,Kohtla-Järve Täiskasvanute Gümnaasium,9,13,
Ksenija Pukk,Narva Kesklinna Gümnaasium,10,13,
Käthriin Hein,Ülenurme Gümnaasium,10,13,
Laran Bõkov,Tallinna Kesklinna Vene Gümnaasium,8,13,
Maarja Olesk,Parksepa Keskkool,10,13,
Maarja-Helena Veskimägi,Pärnu Koidula Gümnaasium,10,13,
Maksim Skakun,Haabersti Vene Gümnaasium,10,13,
Marina Segen,Tallinna Kesklinna Vene Gümnaasium,9,13,
Marlee Mark,Võru Kreutzwaldi Kool,9,13,
Marta Eller,Ülenurme Gümnaasium,9,13,
Martin Adamson,Kohtla-Järve Gümnaasium,10,13,
Martin Raidma,Parksepa Keskkool,9,13,
Merild Õunapuu,Hiiumaa Gümnaasium,10,13,
Mia Fedotova,Ehte Humanitaargümnaasium,10,13,
Mia Miree Hääl,Gustav Adolfi Gümnaasium,9,13,
Mihhail Osipchik,Tallinna Juudi Kool,9,13,
Milana Grabovaja,Tallinna 53. Keskkool,10,13,
Milana Sergejeva,Tallinna Kesklinna Vene Gümnaasium,9,13,
Nastja Polina,Haabersti Vene Gümnaasium,10,13,
Neleliis Sibul,Põltsamaa Ühisgümnaasium,9,13,
Nicole Jegorova,Haabersti Vene Gümnaasium,10,13,
Olivia Liselle Tähismaa,Tallinna Toomkool,9,13,
Pavel Mihhailov,Ehte Humanitaargümnaasium,10,13,
Podgurski Aleksander,Ehte Humanitaargümnaasium,10,13,
Ralf Kaasiku,Gustav Adolfi Gümnaasium,9,13,
Rasmus Tähe,Võru Gümnaasium,10,13,
Raul Tubarik,Gustav Adolfi Gümnaasium,9,13,
Rauno Kapsi,Ülenurme Gümnaasium,10,13,
Richard Ränk,Gustav Adolfi Gümnaasium,10,13,
Riko Väster,Põltsamaa Ühisgümnaasium,9,13,
Robert Pakin,Tallinna Juudi Kool,10,13,
Sander Pullisaar,Põltsamaa Ühisgümnaasium,10,13,
Sarah Seljamäe,Kohtla-Järve Gümnaasium,10,13,
Sergei Olovjankin,Narva Kesklinna Gümnaasium,9,13,
Simmo Laanemäe,Põltsamaa Ühisgümnaasium,10,13,
Sofia Fomenko,Ehte Humanitaargümnaasium,10,13,
Stella Kronberg,Võru Gümnaasium,10,13,
Tauri Metsis,Paide Gümnaasium,10,13,
Timo Raudnagel,Parksepa Keskkool,9,13,
Timofei Mihhailov,Tallinna Kesklinna Vene Gümnaasium,9,13,
Uku Pisa,Hiiumaa Gümnaasium,10,13,
Uljana Grunturs,Narva Kesklinna Gümnaasium,9,13,
Виктория Стадниченко,Tallinna Kesklinna Vene Gümnaasium,9,13,
Дебора Аллан Чапковски,Tallinna Juudi Kool,10,13,
Ева Наседкина,Tallinna Juudi Kool,10,13,
Константин Шмаков,Tallinna Kesklinna Vene Gümnaasium,9,13,
Матвей Шабыгин,Tallinna Juudi Kool,9,13,
Alika Tjantova,Narva Kesklinna Gümnaasium,10,12,
Brent Piigli,Võru Gümnaasium,10,12,
Elina Kuritsina,Tallinna Kesklinna Vene Gümnaasium,9,12,
Gulliver Oselin,Paide Gümnaasium,10,12,
Jana Krugljak,Tallinna 53. Keskkool,10,12,
Kadi Erendi,Saue Gümnaasium,9,12,
Marta Nõmmela,Ülenurme Gümnaasium,9,12,
Sergei Jeskov,Tallinna 53. Keskkool,10,12,
Sergei Kirsanov,Narva Kesklinna Gümnaasium,9,12,
Aleksandr Galios,Tallinna Juudi Kool,9,11,
Aleksandr Jakovlev,Haabersti Vene Gümnaasium,10,11,
Daaniel Heidmets,Tallinna Kuristiku Gümnaasium,10,11,
Daniil Permjakov,Kohtla-Järve Täiskasvanute Gümnaasium,10,11,
Daria Zueva,Sillamäe Gümnaasium,10,11,
Luisa Loore Parbo,Saue Gümnaasium,9,11,
Marie Kroon,Võru Gümnaasium,10,11,
Oleg Stserbakov,Tallinna 53. Keskkool,10,11,
Prohor Orlov,Tallinna 53. Keskkool,10,11,
Taisija Kuznetsova,Sillamäe Gümnaasium,10,11,
Viloria Maksimtsuk,Haabersti Vene Gümnaasium,10,11,
Анастасия Шеханина,Jõhvi Vene Põhikool,9,11,
Alina Tsyrkun,Sillamäe Gümnaasium,10,10,
Anastassija Dvoineva,Tallinna 53. Keskkool,10,10,
Azalia Gubaydullina,Narva Keeltelütseum,10,10,
Daniel Derbinov,Sillamäe Gümnaasium,10,10,
Hans Kaiv,Saue Gümnaasium,9,10,
Heleriin Mikkelsaar,Parksepa Keskkool,10,10,
Karl Kristen Ain,Saue Gümnaasium,8,10,
Ksenia Zahharevits,Tallinna 53. Keskkool,10,10,
Lenna Puusepp,Võru Kreutzwaldi Kool,9,10,
Marii Raamets,Tõrva Gümnaasium,10,10,
Marion Vister,Tõrva Gümnaasium,10,10,
Martin Persidski,Tallinna Juudi Kool,10,10,
Miko Allik,Põltsamaa Ühisgümnaasium,9,10,
Platon Rumyantsev,Narva Kesklinna Gümnaasium,10,10,
Ratmir Kirtjanov,Tallinna Pae Gümnaasium,8,10,
Артём Гавалко,Tallinna Juudi Kool,10,10,
Катарина Балабанович,Narva Kesklinna Gümnaasium,10,10,
Adrian Bergen,Kohtla-Järve Gümnaasium,10,9,
Aleks Korpusov,Tallinna Kesklinna Vene Gümnaasium,9,9,
Aleks Petrov,Tallinna 53. Keskkool,10,9,
Aleksander Erlich,Tallinna Juudi Kool,9,9,
Aleksandr Kapustin,Tallinna Kesklinna Vene Gümnaasium,9,9,
Aleskandr Pyshnyi,Tallinna 53 Keskkool,9,9,
Alex Biktimirov,Tallinna Juudi Kool,10,9,
Alisa Novikova,Tallinna Juudi Kool,10,9,
Alisija Pokrovska,Tallinna 53. Keskkool,10,9,
Anastasija Ignatova,Narva Kesklinna Gümnaasium,9,9,
Anastasija Kuzminskaja,Tallinna Juudi Kool,10,9,
Angelina Anissimova,Sillamäe Gümnaasium,10,9,
Anna-Liisa Laasma,Parksepa Keskkool,9,9,
Anton Persitski,Narva Kesklinna Gümnaasium,9,9,
Arina Kuzakhmetova,Ehte Humanitaargümnaasium,10,9,
Arina Laine,Ehte Humanitaargümnaasium,10,9,
Arina Soboleva,Ehte Humanitaargümnaasium,10,9,
Artur Severikov,Tallinna Juudi Kool,9,9,
Aston Aro,Tallinna Toomkool,9,9,
Carl-Marten Leis,Ülenurme Gümnaasium,10,9,
Carmen Mirontsuk,Parksepa Keskkool,9,9,
Dmitri Gorskov,Haabersti Vene Gümnaasium,10,9,
Edward Tõnne,Ülenurme Gümnaasium,10,9,
Egor Zenkovich,Haabersti Vene Gümnaasium,10,9,
Eleriin Mikk,Põltsamaa Ühisgümnaasium,10,9,
Eliina-Erika Lahk,Tallinna Kuristiku Gümnaasium,10,9,
Freia Tiara Reidolf,Põltsamaa Ühisgümnaasium,10,9,
Grete Lemberg,Põltsamaa Ühisgümnaasium,9,9,
Jana Belitskaja,Narva Kesklinna Gümnaasium,10,9,
Jana Safrova,Narva Keeltelütseum,10,9,
Jarmo Alliksaar,Põltsamaa Ühisgümnaasium,9,9,
Jelizaveta Blagova,Narva Keeltelütseum,10,9,
Karel Dapon,Ülenurme Gümnaasium,9,9,
Karl Feliks Kedelauk,Gustav Adolfi Gümnaasium,9,9,
Karoliina Kruuse,Võru Gümnaasium,10,9,
Kaspar Kuusk,Põltsamaa Ühisgümnaasium,9,9,
Keidi Kala,Võru Gümnaasium,10,9,
Kirke Koolman,Ülenurme Gümnaasium,9,9,
Kregor Raudsepp,Ülenurme Gümnaasium,8,9,
Kristel Kalma,Ülenurme Gümnaasium,10,9,
Kärt Kesa,Põltsamaa Ühisgümnaasium,9,9,
Liisa-Marinelli Viik,Pärnu-Jaagupi Põhikool,9,9,
Liora Laidinen,Tallinna Juudi Kool,10,9,
Maik Sirelpuu,Gustav Adolfi Gümnaasium,9,9,
Maksim Polyakov,Tallinna 53. Keskkool,9,9,
Marcus Martson,Tallinna Kuristiku Gümnaasium,10,9,
Mari-Johanna Ruut,Ülenurme Gümnaasium,9,9,
Marian Tooming,Ülenurme Gümnaasium,9,9,
Mariette Tops,Põltsamaa Ühisgümnaasium,10,9,
Markus Saia,Võru Kreutzwaldi Kool,9,9,
Martin Nagovitsõn,Sillamäe Gümnaasium,10,9,
Mattias Aus,Tõrva Gümnaasium,10,9,
Mattias Reemann,Parksepa Keskkool,10,9,
Melanie Kikkas,Parksepa Keskkool,9,9,
Mia Maria Matikainen,Vinni-Pajusti Gümnaasium,10,9,
Nikita Jolkin,Tallinna 53. Keskkool,10,9,
Oliver Paju,Põltsamaa Ühisgümnaasium,9,9,
Oskar Alikas,Tõrva Gümnaasium,10,9,
Oskar Karu,Parksepa Keskkool,10,9,
Otto-Roobert Kangro,Põltsamaa Ühisgümnaasium,9,9,
Polina Smirnova,Tallinna 53. Keskkool,10,9,
Rasmus Purga,Ülenurme Gümnaasium,10,9,
Rebeka Paju,Paide Gümnaasium,10,9,
Renee Kreitsberg,Põltsamaa Ühisgümnaasium,10,9,
Rico-Raien Ilves,Parksepa Keskkool,10,9,
Ron-Mattias Vähi,Parksepa Keskkool,10,9,
Sander Jääger,Kohtla-Järve Maleva Põhikool,7,9,
Saskia Lee Hainsoo,Ülenurme Gümnaasium,9,9,
Semjon Jepisev,TKVG,9,9,
Steven Leppoja,Parksepa Keskkool,10,9,
Tanel Sarapik,Kohtla-Järve Gümnaasium,10,9,
Thereese Saar,Emmaste Põhikool,9,9,
Trevor Marten Lääne,Gustav Adolfi Gümnaasium,9,9,
Uljana,Sillamäe Gümnaasium,10,9,
Uljana Baskakova,Sillamäe Gümnaasium,10,9,
Valeria Yudanova,Haabersti Vene Gümnaasium,10,9,
Valieva Kamilla,Tallinna Juudi Kool,10,9,
Veronica Tsapkina,Tallinna Kesklinna Vene Gümnaasium,9,9,
Veroonika Kulper,Narva Kesklinna Gümnaasium,9,9,
Yevheniia Lastovka,Haabersti Vene Gümnaasium,10,9,
Александра Смекалова,Tallinna 53. Keskkool,9,9,
Ярослав Роот,Tallinna Kesklinna Vene Gümnaasium,9,9,
Ahti Vara,Emmaste Põhikool,9,8,
Anastassia Iljinova,Jõhvi Vene Põhikool,9,8,
Elisabeth Kiitsak,Võru Kreutzwaldi Kool,9,8,
Jelissei Šilin,Tallinna Õismäe Vene Lütseum,9,8,
Karl Pärs,Põltsamaa Ühisgümnaasium,9,8,
Ketlin Mäesaar,Parksepa Keskkool,10,8,
Lola Väljan,Parksepa Keskkool,10,8,
Maarja Pärkna,Gustav Adolfi Gümnaasium,9,8,
Martin-Eric Breedis,Ülenurme Gümnaasium,10,8,
Silver Dukbovski,Ülenurme Gümnaasium,10,8,
Sofija Jelissejeva,Narva Kesklinna Gümnaasium,10,8,
Yulia Sozonkova,Narva Kesklinna Gümnaasium,10,8,
Яна Фурсова,Tallinna Kesklinna Vene Gümnaasium,9,8,
Anita Berezovskaja,Tallinna 53. Keskkool,10,7,
Anna Zholudova,Narva Kesklinna Gümnaasium,10,7,
Chris Uuk,Parksepa Keskkool,10,7,
Eliis Tupits,Ülenurme Gümnaasium,10,7,
Hendrik Mätlik,Põltsamaa Ühisgümnaasium,9,7,
Marina Zahharova,Narva Kesklinna Gümnaasium,10,7,
Mark Erlich,Tallinna Juudi Kool,10,7,
Monika Volkova,Tallinna Kesklinna Vene Gümnaasium,9,7,
Ruuben Rajasoo,Põltsamaa Ühisgümnaasium,10,7,
Aisha Khalil,Võru Kreutzwaldi Kool,9,6,
Aleksandra Bojartsuk,Narva Kesklinna Gümnaasium,9,6,
Aleksandra Karpuhhin,Parksepa Keskkool,10,6,
Alina Lemeštšuk,Tallinna 53. Keskkool,10,6,
Anton Vorobjov,Narva Kesklinna Gümnaasium,10,6,
Caroli Kriisa,Räpina Ühisgümnaasium,9,6,
Georg Kaasik,Vinni-Pajusti Gümnaasium,10,6,
Glent Glenovich,Kohtla-Järve Gümnaasium,10,6,
Kirill Begunov,Tallinna 53. Keskkool,9,6,
Lopianosid,EHTE Humanitaargümnasium,10,6,
Rimigius Korobkov,Tallinna 53. Keskkool,9,6,
Simar Alama,Vinni-Pajusti Gümnaasium,10,6,
Tatjana Oskolkova,Kohtla-Järve Täiskasvanute Gümnaasium,10,6,
Vladislava Zautina,Haabersti Vene Gümnaasium,10,6,
Aleksandra Skromnova,Tallinna 53. Keskkool,10,5,
Alisa,Narva Kesklinna Gümnaasium,10,5,
Alisa Lisienko,Narva Keeltelütseum,10,5,
Anastasia Kivi,Parksepa Keskkool,9,5,
Anastasia Mikhaylik,Tallinna Juudi Kool,10,5,
Anastasia Vlasova,Narva Kesklinna Gümnaasium,9,5,
Anna Jefimova,Ehte Humanitaargümnaasium,10,5,
Anna Kartavina,Tallinna 53. Keskkool,9,5,
Annaliisa Uibo,Ülenurme Gümnaasium,9,5,
Arina Yakupova,Tallinna 53. Keskkool,10,5,
Art Markkus Tamm,Põltsamaa Ühisgümnaasium,10,5,
Artjom Aksjonov,Narva Keeltelütseum,10,5,
Arto Masso,Tallinna Toomkool,9,5,
Carl Markus Kuusk,Vinni-Pajusti Gümnaasium,10,5,
Dajana Strižova,Tallinna 53. Keskkool,10,5,
Dan-Tristjan Müür,Saue Gümnaasium,9,5,
Daniel Kulaga,Parksepa Keskkool,9,5,
Daniil Jelissejev,Narva Kesklinna Gümnaasium,10,5,
Dmitri Izotov,Narva Kesklinna Gümnaasium,10,5,
Egert Mattias Eiche,Võru Kreutzwaldi Kool,9,5,
Ekaterina Pantileeva,Jõhvi Vene Põhikool,9,5,
Elisabet Lilleberg,Haabersti Vene Gümnaasium,10,5,
Evelina Andrejeva,Narva Kesklinna Gümnaasium,10,5,
Gretta Nikolajeva,Ülenurme Gümnaasium,10,5,
Heleri Marion Rüütel,Saue Gümnaasium,9,5,
Iris Kaunissaare,Tallinna Toomkool,9,5,
Jacob Roose,Ülenurme Gümnaasium,10,5,
Janne-Mari Järva,Põltsamaa Ühisgümnaasium,9,5,
Kadi-Liis Mäeots,Võru Gümnaasium,10,5,
Kairi Kauts,Parksepa Keskkool,10,5,
Karina Ivanova,Narva Kesklinna Gümnaasium,10,5,
Karl Kivi,Kohtla-Järve Maleva Põhikool,9,5,
Kevin Kolbin,Tõrva Gümnaasium,10,5,
Kirill Shugurov,Narva Kesklinna Gümnaasium,10,5,
Kristjan Matt,Põltsamaa Ühisgümnaasium,10,5,
Kädi-Liis Mäeots,Võru Gümnaasium,10,5,
Kätriin Nurme,Põltsamaa Ühisgümnaasium,10,5,
Lisette Teppo,Võru Kreutzwaldi Kool,9,5,
Lisette Vidder,Vinni-Pajusti Gümnaasium,10,5,
Loviisa Jaanimägi,Parksepa Keskkool,9,5,
Madlen Mattis,Põltsamaa Ühisgümnaasium,9,5,
Maksim Shuras,Tallinna Juudi kool,8,5,
Marii Vendla,Pärnu-Jaagupi Põhikool,9,5,
Martin Antson,Haabersti Vene Gümnaasium,10,5,
Martin Laurson,Parksepa Keskkool,,5,väljaspool vanuserühma
Martin Mardimae,Võru Gümnaasium,10,5,
Martin Stogov,Haabersti Vene Gümnaasium,10,5,
Mihhail Šur,Sillamäe Gümnaasium,10,5,
Mihkel Tomas Heering,Räpina Ühisgümnaasium,9,5,
Mikk,PÜG,9,5,
Morenko Varvara,Narva Kesklinna Gümnaasium,9,5,
Nikol Tihhonova,Sillamäe Gümnaasium,10,5,
Oliver Žukovitš,Põltsamaa Ühisgümnaasium,9,5,
Rain Pärnasalu,Põltsamaa Ühisgümnaasium,10,5,
Rasmus Miikael Puusepp,Saue Gümnaasium,9,5,
Reivo Väljamaa,Kohtla-Järve Gümnaasium,9,5,
Riccardo Rodriges,Tallinna 53. Keskkool,9,5,
Roman Shitikov,Haabersti Vene Gümnaasium,10,5,
Rostislav Kochergov,Tallinna 53. Keskkool,10,5,
Sandra Loos,Ülenurme Gümnaasium,10,5,
Sandra-Lisell Sulbi,Ülenurme Gümnaasium,9,5,
Timmo Mikk,Põltsamaa Ühisgümnaasium,10,5,
Tristan Saar,Põltsamaa Ühisgümnaasium,10,5,
Tõnis Oja,Põltsamaa Ühisgümnaasium,9,5,
Valerija Milovanova,Tallinna Juudi Kool,9,5,
Victoria Tõnisson,Põltsamaa Ühisgümnaasium,10,5,
Viktor Volkov,Tallinna 53. Keskkool,10,5,
Yeva Liavonava,Haabersti Vene Gümnaasium,10,5,
Александр Левитский,Tallinna Kesklinna Vene Gümnaasium,9,5,
Николь Седлинская,Tallinna Juudi Kool,10,5,
Alice Metsla,Vinni-Pajusti Gümnaasium,10,4,
Daria Lysenko,Tallinna 53. Keskkool,10,4,
Devin Sagadi,Saue Gümnaasium,9,4,
Erik Makarov,Narva Keeltelütseum,10,4,
Maksim Goncharov,Narva Kesklinna Gümnaasium,10,4,
Mariia Nykytenko,Tallinna 53. Keskkool,10,4,
Milana Perets,Ehte Humanitaargümnaasium,10,4,
Sven Lilleväli,Kohtla-Järve Täiskasvanute Gümnaasium,8,4,
Tommi Evert,Kohtla-Järve Täiskasvanute Gümnaasium,10,4,
Valerija Jelufimova,Narva Kesklinna Gümnaasium,10,4,
Anastassia Borissova,Tallinna 53. Keskkool,10,3,
Anastassia Jermolajeva,Kohtla-Järve Täiskasvanute Gümnaasium,10,3,
Anete Seil,Põltsamaa Ühisgümnaasium,9,3,
Anna Pronina,Haabersti Vene Gümnaasium,10,3,
Ekaterina Suhovei,Haabersti Vene Gümnaasium,10,3,
Kirsy Karjama,Saue Gümnaasium,9,3,
Kätryn,Räpina Ühisgümnaasium,9,3,
Olesja Makarova,Narva Kesklinna Gümnaasium,10,3,
Reti Maarja Mõtsmees,Ülenurme Gümnaasium,10,3,
Alo Pähkel,Põltsamaa Ühisgümnaasium,10,2,
Anastassia Bogdanova,Jõhvi Vene Põhikool,9,2,
Anette Gloria Heinsar,Tallinna Toomkool,6,2,
Angelina Pashenina,Ehte Humanitaargümnaasium,10,2,
Darja Jakovleva,Narva Kesklinna Gümnaasium,10,2,
Erik Miller,Põltsamaa Ühisgümnaasium,10,2,
Frank.Soots,Pärnu Kuninga Tänava Põhikool,7,2,
Gloria Taaber,Parksepa Keskkool,10,2,
Hannes Tubin,Kambja Põhikool,8,2,
Harri Pruul,Saue Gümnaasium,9,2,
Katarina Reinhold,Ülenurme Gümnaasium,9,2,
Kathariina Kaseväli,Saue Gümnaasium,9,2,
Laura Korberg,Ülenurme Gümnaasium,9,2,
Raven Rapp,Kohtla-Järve Täiskasvanute Gümnaasium,9,2,
Sandra Sepp,Kohtla-Järve Täiskasvanute Gümnaasium,10,2,
Sandra Tomson,Tallinna Toomkool,9,2,
Victoria Litvinova,Tallinna 53. Keskkool,10,2,
Варвара Павлова,Narva Kesklinna Gümnaasium,9,2,
Давид Петросян,Tallinna 53. Keskkool,9,2,
Akim Zavihhonov,Narva Kesklinna Gümnaasium,10,1,
Albertsorokin,Tallinna Juudi Kool,9,1,
Aleksander Gorelov,Tallinna 53. Keskkool,9,1,
Aleksander Liebenau,Põltsamaa Ühisgümnaasium,9,1,
Aleksandr,Tallinna Juudi Kool,10,1,
Alexander Sagor,Keila Kool,9,1,
Aljona Sekerzitski,Tallinna Kesklinna Vene Gümnaasium,9,1,
Allan Anupõld,Põltsamaa Ühisgümnaasium,9,1,
Allan Gitt,Haabersti Vene Gümnaasium,10,1,
Andrei Gaidai,Sillamäe Gümnaasium,10,1,
Angelina Lanno,Narva Kesklinna Gümnaasium,10,1,
Angelina Russina,Ehte Humanitaargümnaasium,10,1,
Arles Marten Vinni,Vinni-Pajusti Gümnaasium,10,1,
Aron Leppik,Parksepa Keskkool,9,1,
Artjom Švets,Ehte Humanitaargümnaasium,10,1,
Artur Zavjalov,Haabersti Vene Gümnaasium,10,1,
Cristofer Hirs,Parksepa Keskkool,10,1,
Denis Zidzik,Tallinna Kesklinna Vene Gümnaasium,9,1,
Dilara Guljajeva,Tallinna 53. Keskkool,10,1,
Emily Soo,Ülenurme Gümnaasium,9,1,
Ergo Tähnas,Põltsamaa Ühisgümnaasium,9,1,
Gosha Vassiljev,Narva Kesklinna Gümnaasium,9,1,
Henryhaan,Põltsamaa Ühisgümnaasium,9,1,
Iuliana Lozneanu,Tallinna 53. Keskkool,9,1,
Ivan Kudryavtsev,Tallinna Kesklinna Vene Gümnaasium,9,1,
Jaano Onga,Vinni-Pajusti Gümnaasium,10,1,
Jarko Danilov,Põltsamaa Ühisgümnaasium,10,1,
Juhan Markus Männik,Saue Gümnaasium,9,1,
Kaarle Joosep,Pelgulinna Gümnaasium,8,1,
Katerina Jakovleva,Haabersti Vene Gümnaasium,10,1,
Keiu Tomp,Tõrva Gümnaasium,10,1,
Kevin Saarma,Põltsamaa Ühisgümnaasium,10,1,
Kätriin Kauksi,Parksepa Keskkool,10,1,
Lauri Küünal,Ülenurme Gümnaasium,9,1,
Lisete Loigu,Parksepa Keskkool,10,1,
Lisete Tiks,Põltsamaa Ühisgümnaasium,10,1,
Luisa Koor,Mooste Mõisakool,9,1,
Ly-Andra Stokmann,Vinni-Pajusti Gümnaasium,10,1,
Maksim Karaulov,Haabersti Vene Gümnaasium,10,1,
Maria Uhhalova,Tallinna 53. Keskkool,10,1,
Mariette Viiksaar,Võru Kreutzwaldi Kool,9,1,
Marija Lobunitseva,Narva Kesklinna Gümnaasium,9,1,
Mariya Voevoda,Narva Kesklinna Gümnaasium,10,1,
Martin Lambinen,Haabersti Vene Gümnaasium,10,1,
Mathias Look,Ülenurme Gümnaasium,10,1,
Mattias Kütt,Põltsamaa Ühisgümnaasium,10,1,
Nikita Totmjanin,Kohtla-Järve Täiskasvanute Gümnaasium,10,1,
Oliver Kahar,Parksepa Keskkool,10,1,
Polina Lyssenkova,Narva Kesklinna Gümnaasium,10,1,
Rain Liiva,Ülenurme Gümnaasium,10,1,
Rasmus Parts,Ülenurme Gümnaasium,10,1,
Riho Parker,Võru Gümnaasium,10,1,
Ruuben Toomasson,Ülenurme Gümnaasium,10,1,
Simon Levin,Tallinna Juudi Kool,9,1,
Zlata Hadlevska,Ehte Humanitaargümnaasium,10,1,
Timofei Velikanov,Haabersti Vene Gümnaasium,10,1,
Uko Pärt Suurkula,Parksepa Keskkool,10,1,
Uko Thor Kund,Võru Kreutzwaldi Kool,9,1,
Valerija Damaskin,Narva Kesklinna Gümnaasium,9,1,
Vanessa Kuusmik,Vinni-Pajusti Gümnaasium,10,1,
Veronika Khomitskaya,Narva Kesklinna Gümnaasium,10,1,
Кирилл Горохов,Tallinna 53. Keskkool,9,1,
Никита Разведченко,Tallinna Juudi Kool,9,1,
Сухина Лена,Tallinna 53. Keskkool,7,1,
Alina Rikkijeva,Sillamäe Gümnaasium,10,0,
Antuan Gordonelli,kool,9,0,
Brigitta Jarve,Tallinna Kesklinna Vene Gümnaasium,9,0,
Ekaterina  Gruzdeva,Narva Kesklinna Gümnaasium,10,0,
Ekaterina Prošina,Tallinna 53. Keskkool,7,0,
Jevgenia Tkatšova,Tallinna 53. Keskkool,,0,väljaspool vanuserühma
Laur-Jastin Räim,Kohtla-Järve Täiskasvanute Gümnaasium,9,0,
Maarika Virkunen,Kohtla-Järve Gümnaasium,,0,väljaspool vanuserühma
Maksim Holmogortsev,Haabersti Vene Gümnaasium,10,0,
Nikitos Antonov,Narva Kesklinna Gümnaasium,9,0,
Risto Leis,Lähte Ühisgümnaasium,7,0,
Sevastian Rätsep,Tallinna Juudi Kool,10,0,
Veronika Kooppel,Tallinna Pae Gümnaasium,8,0,
Veroonika Kulper,Narva Kesklinna Gümnaasium,9,0,
Роберт Весселов,Tallinna Kesklinna Vene Gümnaasium,7,0,
Anastassia Bogdanova,Jõhvi Vene Põhikool,9,-1,
Jana Semenova,Narva Kesklinna Gümnaasium,9,-1,
Julua Volodina,Haabersti Vene Gümnaasium,10,-1,
Kätriin Vaiksoo,Parksepa Keskkool,10,-1,
Laura Õunapuu,Parksepa Keskkool,10,-1,
Nikas Markovskiy,Haabersti Vene Gümnaasium,10,-1,
Pavel Babuta,Tallinna Kesklinna Vene Gümnaasium,9,-1,
Valerija Botsina,Narva Kesklinna Gümnaasium,10,-1,
Viktoria Novikova,Narva Kesklinna Gümnaasium,10,-1,
Deniss Bulõtsev,Narva Kesklinna Gümnaasium,10,-2,
Eva Tjurina,Tallinna 53. Keskkool,10,-2,
Marleen Luik,Parksepa Keskkool,10,-2,
Sofia Leppik,Tallinna 53. Keskkool,10,-2,
Vikenti Novak,Haabersti Vene Gümnaasium,10,-2,
Энри Вернер,53,9,-2,
Aleksander Santashev,Tallinna Juudi Kool,9,-3,
Alesja Babakova,Narva Kesklinna Gümnaasium,9,-3,
Aljona Savinova,Narva Keeltelütseum,10,-3,
Andreas Videvik,Võru Gümnaasium,10,-3,
Anna Veresinina,Tallinna Kesklinna Vene Gümnaasium,9,-3,
Anzela Turmanasvili,Haabersti Vene Gümnaasium,10,-3,
Carina-Margit Ott,Paide Gümnaasium,10,-3,
Cordelia Liiv,Räpina Ühisgümnaasium,9,-3,
Dana Salanhzii,Ehte Humanitaargümnaasium,10,-3,
Daria Gafina,Tallinna Juudi Kool,10,-3,
Darja Razorenova,Tallinna 53. Keskkool,10,-3,
Denis Godyrev,Haabersti Vene Gümnaasium,10,-3,
Dmitri Jurevits,maleva P}hikool,7,-3,
Hanna-Marie Laul,Võru Kreutzwaldi Kool,9,-3,
Helena Mets,Põltsamaa Ühisgümnaasium,10,-3,
Ivan Lomonossov,Narva Kesklinna Gümnaasium,9,-3,
Jaan Junson,Räpina Ühisgümnaasium,9,-3,
Janette,Parksepa Keskkool,10,-3,
Kaarel Rohtmets,Ülenurme Gümnaasium,10,-3,
Kenneth Kuusk,Põltsamaa Ühisgümnaasium,9,-3,
Marija Kortsagina,Narva Kesklinna Gümnaasium,9,-3,
Markus Laanemaa,Pärnu Ülejõe Põhikool,8,-3,
Marten Aasamets,Põltsamaa Ühisgümnaasium,9,-3,
Martin Pronin,53 keskkool.ee,9,-3,
Rasmus Enders,Põltsamaa Ühisgümnaasium,10,-3,
Rasmus Lumi,Võru Gümnaasium,10,-3,
Rihard Valk,Emmaste Põhikool,9,-3,
Veronika Belaja,Haabersti Vene Gümnaasium,10,-3,
Vitali Kuznetsov,Jõhvi Vene Põhikool,9,-3,
Андрес Михельсон,Таллиннская 53 средняя школа,9,-3,
Karina Trapeznikova,Narva Kesklinna Gümnaasium,10,-4,
Ksenija Mel,Narva Kesklinna Gümnaasium,9,-4,
Zlata Jumaguzina,Haabersti Vene Gümnaasium,10,-4,
Yana Vasilenko,Kohtla-Järve Täiskasvanute Gümnaasium,10,-4,
Алексей Климченко,Tallinna Kesklinna Vene Gümnaasium,9,-4,
Artjom Meluzov,Ehte Humanitaargümnaasium,10,-5,
Maksim Ivanov,Narva Kesklinna Gümnaasium,8,-5,
Aleksandra Jevstafjeva,Narva Kesklinna Gümnaasium,10,-6,
Aljona Skadina,Tallinna 53. Keskkool,9,-6,
Anastasija Staroselskaya,Tallinna 53. Keskkool,8,-6,
Anna Torgasova,53. Keskkool,10,-6,
Artjom Gavrilov,Tallinna 53. Keskkool,9,-6,
Karina Smirnova,Narva Vanalinna Riigikool,9,-6,
Artemi Pavljukovski,Tallinna Juudi Kool,9,-7,
Delia Puksing,Parksepa Keskkool,9,-7,
Elvira Dolina,Ehte Humanitaargümnaasium,10,-7,
Helena Rätsepp,Parksepa Keskkool,10,-7,
Jonatan Saarnak,Emmaste Põhikool,9,-7,
Karina Vlassova,Kesklinna Gümnaasium,10,-7,
Krislin Sõlg,Parksepa Keskkool,10,-7,
Ksenija Sahharova,Narva Kesklinna Gümnaasium,9,-7,
Loore Poll,Ülenurme Gümnaasium,9,-7,
Marite Leppik,Kohtla-Järve Täiskasvanute Gümnaasium,10,-7,
Merlin Keldermäe,Põltsamaa Ühisgümnaasium,9,-7,
Milana Garmashova,Narva Kesklinna Gümnaasium,9,-7,
Nika Shcherbak,Tallinna 53. Keskkool,9,-7,
Ruuben Rannamägi,Parksepa Keskkool,10,-7,
Varvara Mikrjukova,Tallinna 53. Keskkool,9,-7,
Veronika Simakova,Ehte Humanitaargümnaasium,10,-7,
Dmitri Grafov,Haabersti Vene Gümnaasium,10,-9,
Eerik Susi,Põltsamaa Ühisgümnaasium,9,-11,
Erik Pruul,Emmaste Põhikool,9,-11,
Grete Klaos,Põltsamaa Ühisgümnaasium,9,-11,
Kelin Arumae,Lähte Ühisgümnaasium,7,-11,
Marja Jurna,Narva Kesklinna Gümnaasium,9,-11,
Mark Shtertsel,Narva Kesklinna Gümnaasium,8,-11,
Robin Allikhein,Põltsamaa Ühisgümnaasium,9,-11,
Мария Архангельская,Tallinna Kesklinna Vene Gümnaasium,9,-11,
Germans Zabelins,Haabersti Vene Gümnaasium,10,-14,
Mark Zuravski,Tallinna Kesklinna Vene Gümnaasium,9,-15,
Slava Ryvlin,Tallinna Juudi Kool,9,-15,
