Nimi,Kool,Klass,Punkte,Õpetaja,Lisainfo
Jaanika Kiolein,Tallinna Reaalkool,10.a klass,58,Inga Petuhhov,kutsutud lõppvooru
Tuuli Tiivel,Tallinna Reaalkool,10.a klass,58,Inga Petuhhov,kutsutud lõppvooru
Andres Sõmer,Kärdla Põhikool,9.a klass,56,Helis Roosimaa,kutsutud lõppvooru
Daniil Vaino,Narva Pähklimäe Gümnaasium,10.a klass,56,Svetlana Jefimova,kutsutud lõppvooru
Artur Avameri,Hugo Treffneri Gümnaasium,10.a klass,54,Anneli Mägi,kutsutud lõppvooru
Triin Satsi,Rapla Ühisgümnaasium,10. klass,54,Kadri Laup,kutsutud lõppvooru
Kaarel Paal,Tallinna Reaalkool,10.a klass,53,Inga Petuhhov,kutsutud lõppvooru
Ingvar Drikkit,Hugo Treffneri Gümnaasium,10.a klass,52,Anneli Mägi,kutsutud lõppvooru
Kaarel Kivisalu,Tallinna Reaalkool,10.a klass,52,Inga Petuhhov,kutsutud lõppvooru
Vadim Mikhalchenko,Sakala Eragümnaasium,10. klass,52,Rita Izjumskaja,kutsutud lõppvooru
Willem Klaassen,Tallinna Reaalkool,10.a klass,52,Inga Petuhhov,kutsutud lõppvooru
Kadi-Liis Kivi,Rakvere Reaalgümnaasium,10.c klass,51,Reeli Rump,kutsutud lõppvooru
Markus Toom,Gustav Adolfi Gümnaasium,9.c klass,51,Auli Reitel,kutsutud lõppvooru
Kadi Siigur,Hugo Treffneri Gümnaasium,10.a klass,50,Anneli Mägi,kutsutud lõppvooru
Karl Mell,Tallinna Reaalkool,10.a klass,50,Inga Petuhhov,kutsutud lõppvooru
Markus Orav,Gustav Adolfi Gümnaasium,10.d klass,50,Auli Reitel,kutsutud lõppvooru
Paula Timmi,Hugo Treffneri Gümnaasium,10.b klass,50,Anneli Mägi,kutsutud lõppvooru
Artur Tjagunovitš,Sakala Eragümnaasium,10. klass,49,Rita Izjumskaja,kutsutud lõppvooru
Kristina Lukki-Lukin,Tallinna Reaalkool,10.a klass,49,Inga Petuhhov,kutsutud lõppvooru
Liis Liivand,Tallinna Reaalkool,10.a klass,49,Inga Petuhhov,kutsutud lõppvooru
Кирилл Слободянов,Narva Keeltelütseum,10.b klass,49,Valeria Nazarova,kutsutud lõppvooru
Evo Annus,Tallinna Reaalkool,10.a klass,48,Inga Petuhhov,kutsutud lõppvooru
Hannes Kraavi,Hugo Treffneri Gümnaasium,10.b klass,48,Anneli Mägi,kutsutud lõppvooru
Jaagup Tamme,Ilmatsalu Põhikool,9. klass,48,Joosep Norma,kutsutud lõppvooru
Kaarel August Kurik,Tallinna Reaalkool,10.a klass,48,Inga Petuhhov,kutsutud lõppvooru
Kaarel Koido,Võru Gümnaasium,10. klass,48,Krista Kõlli-Raud,kutsutud lõppvooru
Karl Peterson,Jüri Gümnaasium,10.a klass,48,Luisa Pani,kutsutud lõppvooru
Mark-Erik Aan,Tallinna Reaalkool,10.a klass,48,Inga Petuhhov,kutsutud lõppvooru
Nikita Egorov,Narva Keeltelütseum,10.a klass,48,Valeria Nazarova,kutsutud lõppvooru
Ove Üllar Viesemann,Nõo Reaalgümnaasium,10.b klass,48,Kerli Rööpson,kutsutud lõppvooru
Sass Albert Aare,Hugo Treffneri Gümnaasium,10.a klass,48,Anneli Mägi,kutsutud lõppvooru
Teele Tars,Hugo Treffneri Gümnaasium,10.a klass,48,Anneli Mägi,kutsutud lõppvooru
Carmel Uibopuu,Peetri Lasteaed-Põhikool,9.b klass,47,Signe Reidla,
Konstantin Dukats,Narva Keeltelütseum,10.a klass,47,Valeria Nazarova,
Kristi Koitla,Gustav Adolfi Gümnaasium,10.b klass,47,Auli Reitel,
Mihhail Nikolas,Narva Keeltelütseum,10.a klass,47,Valeria Nazarova,
Säde Nelke,Hugo Treffneri Gümnaasium,10.b klass,47,Anneli Mägi,
Karl Vilhelm Valter,Gustav Adolfi Gümnaasium,10.d klass,46,Auli Reitel,
Kathleen Loss,Gustav Adolfi Gümnaasium,9.c klass,46,Auli Reitel,
Oleg Buiko,Narva Keeltelütseum,10.a klass,46,Valeria Nazarova,
Rait Robert Suurmets,Gustav Adolfi Gümnaasium,9.b klass,46,Auli Reitel,
Rasmus Saame,Tallinna Reaalkool,10.a klass,46,Inga Petuhhov,
Raul Zhelnov,Narva Keeltelütseum,10.a klass,46,Valeria Nazarova,
Richard Veelaid,Väike-Maarja Gümnaasium,9. klass,46,Liina Bork,
Yegor Kozlov,Narva Keeltelütseum,10.a klass,46,Valeria Nazarova,
Arseni Kovalchuk,Narva Keeltelütseum,10.a klass,45,Valeria Nazarova,
Hanna Kaerdi,Tallinna Reaalkool,10.a klass,45,Inga Petuhhov,
Hedi-Riin Kivikas,Hugo Treffneri Gümnaasium,10.a klass,45,Anneli Mägi,
Kirill Rogoznikov,Narva Keeltelütseum,10.a klass,45,Valeria Nazarova,
Markus-Aleks Trofimov,Rapla Ühisgümnaasium,10. klass,45,Kadri Laup,
Pihla Järv,Hugo Treffneri Gümnaasium,10.b klass,45,Anneli Mägi,
Riko Piirisild,Hugo Treffneri Gümnaasium,10.b klass,45,Anneli Mägi,
Alar Rõigas,Viljandi Gümnaasium,10. klass,44,Marika Anissimov,
Anette Habanen,Hugo Treffneri Gümnaasium,10.b klass,44,Anneli Mägi,
Anna Celine Kraus,Gustav Adolfi Gümnaasium,9.c klass,44,Auli Reitel,
Artjom Borissov,Narva Keeltelütseum,10. klass,44,Valeria Nazarova,
Artjom Borissov,Narva Keeltelütseum,10.a klass,44,Valeria Nazarova,
Hanna-Riia Allas,Hugo Treffneri Gümnaasium,10.a klass,44,Anneli Mägi,
Hendrik Kangur,Tallinna Reaalkool,10.a klass,44,Inga Petuhhov,
Joonas Paju,Tallinna Reaalkool,10.c klass,44,Kailit Taliaru,
Jüri Kozlik,Tallinna Reaalkool,10.c klass,44,Kailit Taliaru,
Kertu-Carina Kallaste,Hugo Treffneri Gümnaasium,10.a klass,44,Anneli Mägi,
Liisa Lekko,Gustav Adolfi Gümnaasium,9.c klass,44,Auli Reitel,
Maksim Borissov,Narva Keeltelütseum,10.a klass,44,Valeria Nazarova,
Merette Möldre,Kiltsi Põhikool,9. klass,44,Kati Kümnik,
Märten Mikk,Tallinna Reaalkool,10.a klass,44,Inga Petuhhov,
Rachel Kõllo,Hugo Treffneri Gümnaasium,10.a klass,44,Anneli Mägi,
Sander Jaguson,Rakvere Reaalgümnaasium,10.b klass,44,Reeli Rump,
Sander Miller,Hugo Treffneri Gümnaasium,10.b klass,44,Anneli Mägi,
Uko Rasmus Tiidemann,Gustav Adolfi Gümnaasium,10.b klass,44,Auli Reitel,
Villem Susi,Tallinna Reaalkool,10.a klass,44,Inga Petuhhov,
Ehar Kala,Hugo Treffneri Gümnaasium,10.a klass,43,Anneli Mägi,
Elizaveta Tsyganova,Muu asutus,10.a klass,43,Valeria Nazarova,
Ethel Uibo,Hugo Treffneri Gümnaasium,10.b klass,43,Anneli Mägi,
Igor Shuvalov,Sakala Eragümnaasium,9. klass,43,Rita Izjumskaja,
Johannes Kodumäe,Jüri Gümnaasium,10.a klass,43,Luisa Pani,
Robert Valdmaa,Nõo Reaalgümnaasium,10.b klass,43,Kerli Rööpson,
Robin Lõhmus,Tallinna Reaalkool,10.a klass,43,Inga Petuhhov,
Talis Petersell,Hugo Treffneri Gümnaasium,10.b klass,43,Anneli Mägi,
Andres Oitsar,Narva Keeltelütseum,10.a klass,42,Valeria Nazarova,
Annebritt Rell,Hugo Treffneri Gümnaasium,10.b klass,42,Anneli Mägi,
Darja Malõševa,Ehte Humanitaargümnaasium,10.a klass,42,Dmitri Mištšenko,
David Rozenblit,Sakala Eragümnaasium,10. klass,42,Rita Izjumskaja,
Grant Shatil,Narva Keeltelütseum,10.a klass,42,Valeria Nazarova,
Juhan Eerik Perli,Hugo Treffneri Gümnaasium,10.b klass,42,Anneli Mägi,
Kaisa Leidik,Hugo Treffneri Gümnaasium,10.a klass,42,Anneli Mägi,
Katariina Pops,Väike-Maarja Gümnaasium,10. klass,42,Liina Bork,
Kristel Saul,Gustav Adolfi Gümnaasium,10.b klass,42,Auli Reitel,
Martin Vorontsov,Ehte Humanitaargümnaasium,10.a klass,42,Dmitri Mištšenko,
Nikita Sharkova,Tallinna Kesklinna Vene Gümnaasium,9. klass,42,Natalja Erte,
Paul Erik Olli,Hugo Treffneri Gümnaasium,10.a klass,42,Anneli Mägi,
Piibe Volke,Hugo Treffneri Gümnaasium,10.b klass,42,Anneli Mägi,
Rasmus Talioja,Jakob Westholmi Gümnaasium,10.b klass,42,Aet Mikli,
Sander Valt,Tallinna Reaalkool,10.a klass,42,Inga Petuhhov,
Sawa Jurewev,Narva Keeltelütseum,10.a klass,42,Valeria Nazarova,
Taavi Pahk,Hiiumaa Gümnaasium,10. klass,42,Tõnu Soop,
Toomas Roosma,Hugo Treffneri Gümnaasium,10.a klass,42,Anneli Mägi,
Vladislava Jakusenok,Narva Keeltelütseum,10.a klass,42,Valeria Nazarova,
Aleksander Tamm,Hugo Treffneri Gümnaasium,10.b klass,41,Anneli Mägi,
Aleksei Nikolajev,Sillamäe Gümnaasium,10. klass,41,Juulia Devadze,
Elise Mägi,Tallinna Reaalkool,10.a klass,41,Inga Petuhhov,
Henri Tein,Hugo Treffneri Gümnaasium,10.a klass,41,Anneli Mägi,
Iiris-Minda Paemurru,Jakob Westholmi Gümnaasium,9.b klass,41,Aet Mikli,
Jelena Artemjeva,Tallinna 53. Keskkool,9. klass,41,Jevgenia Tkatšova,
Mihkel Plakk,Nõo Reaalgümnaasium,10.b klass,41,Kerli Rööpson,
Tiago Golub,Gustav Adolfi Gümnaasium,10.b klass,41,Auli Reitel,
Aleksandra Panasovskaya,Narva Keeltelütseum,10.a klass,40,Valeria Nazarova,
Andres Sakk,Tallinna Reaalkool,10.a klass,40,Inga Petuhhov,
Anna Katerina Ivanova,Sillamäe Gümnaasium,10. klass,40,Juulia Devadze,
Anna Prela,Tallinna Kesklinna Vene Gümnaasium,9. klass,40,Natalja Erte,
Annabel Pure,Hugo Treffneri Gümnaasium,10.a klass,40,Anneli Mägi,
Annika Arrak,Hugo Treffneri Gümnaasium,10.b klass,40,Anneli Mägi,
Arina Zimina,Narva Keeltelütseum,10.a klass,40,Valeria Nazarova,
Artemi Kurski,Sakala Eragümnaasium,10. klass,40,Rita Izjumskaja,
Artur Salumäe,Gustav Adolfi Gümnaasium,10.b klass,40,Auli Reitel,
Aurora Ruus,Hugo Treffneri Gümnaasium,10.a klass,40,Anneli Mägi,
Betra Käsper,Rapla Ühisgümnaasium,10. klass,40,Kadri Laup,
Carmen Meinson,Tallinna Reaalkool,10.a klass,40,Inga Petuhhov,
Diana Kubarskaja,Tallinna Kesklinna Vene Gümnaasium,9. klass,40,Natalja Erte,
Drevor Andris Rudnevs,Rapla Ühisgümnaasium,10. klass,40,Kadri Laup,
Ege-Ly Petermann,Väike-Maarja Gümnaasium,9. klass,40,Liina Bork,
Elmaz Topalova,Sakala Eragümnaasium,9. klass,40,Rita Izjumskaja,
Erik Hurt,Tallinna Reaalkool,10.a klass,40,Inga Petuhhov,
Erik Laur,Tallinna Reaalkool,10.c klass,40,Kailit Taliaru,
Karl Jörgen Lööper,Võru Gümnaasium,10. klass,40,Krista Kõlli-Raud,
Kristina Neroda,Tallinna Kesklinna Vene Gümnaasium,9. klass,40,Natalja Erte,
Leonid Zinatullin,Hugo Treffneri Gümnaasium,10.a klass,40,Anneli Mägi,
Melvin Sikk,Võru Gümnaasium,10. klass,40,Krista Kõlli-Raud,
Miikael Kibuspuu,Hugo Treffneri Gümnaasium,10.a klass,40,Anneli Mägi,
Robert Unt,Tallinna Kesklinna Vene Gümnaasium,9. klass,40,Natalja Erte,
Sinea Unus,Rakvere Reaalgümnaasium,10.c klass,40,Reeli Rump,
Павел Бирюков,Narva Keeltelütseum,10. klass,40,Valeria Nazarova,
Darja Jemeljanova,Narva Keeltelütseum,10.a klass,39,Valeria Nazarova,
Diana Shramova,Tartu Aleksandr Puškini Kool,9.b klass,39,Olga Kravtšenko,
Eva-Triin Kubpart,Hugo Treffneri Gümnaasium,10.a klass,39,Anneli Mägi,
Georg Elias Humal,Hugo Treffneri Gümnaasium,10.a klass,39,Anneli Mägi,
Jakov Ivanov,Sakala Eragümnaasium,10. klass,39,Rita Izjumskaja,
Kenert Kraavik,Hiiumaa Gümnaasium,10. klass,39,Tõnu Soop,
Lauri Kuresoo,Hugo Treffneri Gümnaasium,10.a klass,39,Anneli Mägi,
Maris Huik,Võru Gümnaasium,10. klass,39,Krista Kõlli-Raud,
Mark Šamarin,Gustav Adolfi Gümnaasium,9.c klass,39,Auli Reitel,
Mark Zelinski,Narva Kesklinna Gümnaasium,10. klass,39,Vladimir Runin,
Marleen Jauk,Jakob Westholmi Gümnaasium,9.b klass,39,Aet Mikli,
Paul Kaasik,Hugo Treffneri Gümnaasium,10.b klass,39,Anneli Mägi,
Rahel Ariel Kaur,Võru Gümnaasium,10. klass,39,Krista Kõlli-Raud,
Ranel Pokker,Võru Gümnaasium,10. klass,39,Krista Kõlli-Raud,
Rinate Paap,Narva Keeltelütseum,10. klass,39,Valeria Nazarova,
Siret Siim,Tallinna Reaalkool,10.c klass,39,Kailit Taliaru,
Valeria Nazarova,Narva Keeltelütseum,Õpetaja,39,Valeria Nazarova,väljaspool vanuserühma
Albert Unn,Hugo Treffneri Gümnaasium,10.a klass,38,Anneli Mägi,
Allar Liivlaid,Gustav Adolfi Gümnaasium,10.b klass,38,Auli Reitel,
Cathrine Erin,Hugo Treffneri Gümnaasium,10.a klass,38,Anneli Mägi,
Ergas-Ever Kask,Hugo Treffneri Gümnaasium,10.b klass,38,Anneli Mägi,
Jakob Haud,Tallinna Reaalkool,10.a klass,38,Inga Petuhhov,
Janeli Toomet,Peetri Lasteaed-Põhikool,9.c klass,38,Signe Reidla,
Johann Saavaste,Tallinna Reaalkool,10.a klass,38,Inga Petuhhov,
Kaarel Kõomägi,Hugo Treffneri Gümnaasium,10.a klass,38,Anneli Mägi,
Karl-Martin Voovere,Hugo Treffneri Gümnaasium,10.a klass,38,Anneli Mägi,
Kati-Marleen Alliksoo,Emmaste Põhikool,9. klass,38,Margus Sõmer,
Kärt Haak,Hugo Treffneri Gümnaasium,10.a klass,38,Anneli Mägi,
Laura Anikina,Sakala Eragümnaasium,9. klass,38,Rita Izjumskaja,
Maare Gloria Tsaskin,Nõo Põhikool,9. klass,38,Katrin Kalamees,
Maksimilian Mironov,Haabersti Vene Gümnaasium,10.a klass,38,Niina Botina,
Marianne Allas,Gustav Adolfi Gümnaasium,9.a klass,38,Auli Reitel,
Maxim Borodin,Sakala Eragümnaasium,10. klass,38,Rita Izjumskaja,
Orm Mõru,Ilmatsalu Põhikool,9. klass,38,Joosep Norma,
Raino Marten Rammo,Hugo Treffneri Gümnaasium,10.b klass,38,Anneli Mägi,
Roosi Tärgla,Nõo Reaalgümnaasium,10.b klass,38,Kerli Rööpson,
Sten Marcus Nelson,Tallinna Reaalkool,10.a klass,38,Inga Petuhhov,
Taavi Õispuu,Gustav Adolfi Gümnaasium,10.d klass,38,Auli Reitel,
Victoria Vlassenko,Võru Gümnaasium,10. klass,38,Krista Kõlli-Raud,
Aditi Toome,Hiiumaa Gümnaasium,10. klass,37,Tõnu Soop,
Artur Kreegipuu,Hugo Treffneri Gümnaasium,10.b klass,37,Anneli Mägi,
Dmitry Baynov,Ehte Humanitaargümnaasium,10.a klass,37,Dmitri Mištšenko,
Dora Stern,Jakob Westholmi Gümnaasium,9.c klass,37,Aet Mikli,
Ekaterina Shevchenko,Tallinna 53. Keskkool,9.e klass,37,Jevgenia Tkatšova,
Gleb Engalychev,Narva Keeltelütseum,10. klass,37,Valeria Nazarova,
Helery Kuld,Peetri Lasteaed-Põhikool,9.b klass,37,Signe Reidla,
Henri Helekivi,Võru Gümnaasium,10. klass,37,Krista Kõlli-Raud,
Kaspar Zimmermann,Tallinna Reaalkool,10.a klass,37,Inga Petuhhov,
Keneli Pohlak,Väike-Maarja Gümnaasium,10. klass,37,Liina Bork,
Maria Aksiim,Jakob Westholmi Gümnaasium,9.b klass,37,Aet Mikli,
Marie Helene Koppel,Jakob Westholmi Gümnaasium,9.a klass,37,Aet Mikli,
Polina Jevsejeva,Narva Keeltelütseum,10.a klass,37,Valeria Nazarova,
Ralf Animägi,Jakob Westholmi Gümnaasium,9.c klass,37,Aet Mikli,
Robert Kiisler,Hugo Treffneri Gümnaasium,10.b klass,37,Anneli Mägi,
Sander Truu,Gustav Adolfi Gümnaasium,10.b klass,37,Auli Reitel,
Sirelin Iiris Sammalpärg,Rakvere Reaalgümnaasium,10.a klass,37,Reeli Rump,
Карина Романенкова,Tartu Aleksandr Puškini Kool,9.b klass,37,Olga Kravtšenko,
Airika Hermi Tammus,Jakob Westholmi Gümnaasium,9.b klass,36,Aet Mikli,
Aleksei Garanin,Narva Kesklinna Gümnaasium,10.a klass,36,Vladimir Runin,
Alex Reitsak,Peetri Lasteaed-Põhikool,9.c klass,36,Signe Reidla,
Alina Maria Viik,Gustav Adolfi Gümnaasium,9.c klass,36,Auli Reitel,
Anette Hannele Näkk,Rapla Ühisgümnaasium,10. klass,36,Kadri Laup,
Artjom Babincev,Narva Keeltelütseum,10.a klass,36,Valeria Nazarova,
Artur Chugai,Sakala Eragümnaasium,10. klass,36,Rita Izjumskaja,
Artur Reitalu,Hiiumaa Gümnaasium,10. klass,36,Tõnu Soop,
Denis Tšikunski,Rakvere Reaalgümnaasium,10.a klass,36,Reeli Rump,
Ekaterina Roost,Tallinna Kesklinna Vene Gümnaasium,10.b klass,36,Julia Ratšinskaja,
Franko Dosugov,Viljandi Gümnaasium,10. klass,36,Marika Anissimov,
Grete Hollo,Võru Gümnaasium,10. klass,36,Krista Kõlli-Raud,
Hanna Mia Sooman,Gustav Adolfi Gümnaasium,9.b klass,36,Auli Reitel,
Hegert Leevit,Viljandi Gümnaasium,10. klass,36,Marika Anissimov,
Helery Luik,Võru Gümnaasium,10. klass,36,Krista Kõlli-Raud,
Jennifer Veismann,Tallinna Reaalkool,10.c klass,36,Kailit Taliaru,
Johanna Aaslepp,Hiiumaa Gümnaasium,10. klass,36,Tõnu Soop,
Karl Eilo,Jakob Westholmi Gümnaasium,9.c klass,36,Aet Mikli,
Kati Allas,Rapla Ühisgümnaasium,10. klass,36,Kadri Laup,
Kati Lõhmus,Gustav Adolfi Gümnaasium,9.b klass,36,Auli Reitel,
Kertu Liisa Lepik,Hugo Treffneri Gümnaasium,10.a klass,36,Anneli Mägi,
Kirill Pavlov,Narva Keeltelütseum,10.b klass,36,Valeria Nazarova,
Kristjan Kuhi,Tallinna Reaalkool,10.c klass,36,Kailit Taliaru,
Kristjan Paavel,Hugo Treffneri Gümnaasium,10.a klass,36,Anneli Mägi,
Maksim Malõsev,Narva Keeltelütseum,10.e klass,36,Valeria Nazarova,
Marcus Lill,Rakvere Reaalgümnaasium,10.c klass,36,Reeli Rump,
Margo Maltis,Jakob Westholmi Gümnaasium,10.b klass,36,Aet Mikli,
Mark Heidmets,Gustav Adolfi Gümnaasium,9.c klass,36,Auli Reitel,
Mark Shafran,Tallinna Juudi Kool,10. klass,36,Niina Botina,
Marleen Marjapuu,Väike-Maarja Gümnaasium,9. klass,36,Liina Bork,
Meril Järvik,Rapla Ühisgümnaasium,10.a klass,36,Kadri Laup,
Mihkel Paal,Tallinna Reaalkool,10.a klass,36,Inga Petuhhov,
Mirjam Jesmin,Hugo Treffneri Gümnaasium,10.b klass,36,Anneli Mägi,
Oskar Pikkov,Jakob Westholmi Gümnaasium,9.b klass,36,Aet Mikli,
Paula Liis Viljamaa,Tallinna Reaalkool,10.a klass,36,Inga Petuhhov,
Rauno Haidla,Gustav Adolfi Gümnaasium,9.c klass,36,Auli Reitel,
Regina Fluss,Võru Gümnaasium,10. klass,36,Krista Kõlli-Raud,
Robert Suigusaar,Tallinna Reaalkool,10.a klass,36,Inga Petuhhov,
Romet Viiber,Rakvere Reaalgümnaasium,10.b klass,36,Reeli Rump,
Sippie Guth,Võru Gümnaasium,10. klass,36,Krista Kõlli-Raud,
Sofia Repina,Sakala Eragümnaasium,10. klass,36,Rita Izjumskaja,
Viktoria Bokarjova,Kohtla-Järve Tammiku Põhikool,9.b klass,36,Irina Gritsinenko,
Villem Sepping,Väike-Maarja Gümnaasium,10. klass,36,Liina Bork,
Aleksandr Skidan,Tallinna Kesklinna Vene Gümnaasium,9. klass,35,Natalja Erte,
Andre Randmaa,Rakvere Reaalgümnaasium,10.b klass,35,Reeli Rump,
Anitra Lukjanov,Türi Põhikool,9.a klass,35,Laine Aluoja,
Carmen Unt,Hugo Treffneri Gümnaasium,10.a klass,35,Anneli Mägi,
Diana Ignatenko,Sillamäe Gümnaasium,10. klass,35,Juulia Devadze,
Eva Margaret Videvik,Rakvere Reaalgümnaasium,10.c klass,35,Reeli Rump,
Gert Loos,Võru Gümnaasium,10. klass,35,Krista Kõlli-Raud,
Jürg Johannes Würtenberg,Gustav Adolfi Gümnaasium,10.b klass,35,Auli Reitel,
Kaidi Raup,Võru Gümnaasium,10. klass,35,Krista Kõlli-Raud,
Karin Vaarandi,Jakob Westholmi Gümnaasium,9.c klass,35,Aet Mikli,
Karl Eerk Rebane,Hugo Treffneri Gümnaasium,10.b klass,35,Anneli Mägi,
Karl Kristjan Sander,Gustav Adolfi Gümnaasium,10.b klass,35,Auli Reitel,
Katarina Stokes,Gustav Adolfi Gümnaasium,10.b klass,35,Auli Reitel,
Katriin Saar,Jakob Westholmi Gümnaasium,9.b klass,35,Aet Mikli,
Kertu-Liis Rannik,Tallinna Reaalkool,10.a klass,35,Inga Petuhhov,
Liza Zazimko,Sakala Eragümnaasium,9. klass,35,Rita Izjumskaja,
Mirko Meerits,Peetri Lasteaed-Põhikool,9.b klass,35,Signe Reidla,
Natalja Sarkova,Narva Keeltelütseum,10.a klass,35,Valeria Nazarova,
Paul Andreas Uuetoa,Tallinna Reaalkool,10.a klass,35,Inga Petuhhov,
Rait Ruut,Rapla Ühisgümnaasium,10.a klass,35,Kadri Laup,
Rudolf Raidma,Nõo Reaalgümnaasium,10.b klass,35,Kerli Rööpson,
Tony Tammiksaar,Rakvere Reaalgümnaasium,10.b klass,35,Reeli Rump,
Veronika Lehmus,Narva Keeltelütseum,10.a klass,35,Valeria Nazarova,
Victoria Ossipova,Jakob Westholmi Gümnaasium,9.b klass,35,Aet Mikli,
Денис Михеенков,Narva Kreenholmi Gümnaasium,9.c klass,35,Tatiana Saukova,
Иван Фёдоров,Narva Kreenholmi Gümnaasium,9.c klass,35,Tatiana Saukova,
Константин Иванов,Sillamäe Gümnaasium,10. klass,35,Juulia Devadze,
Татьяна Мотылёва,Narva Kesklinna Gümnaasium,10. klass,35,Vladimir Runin,
Aleksandra Samal,Ehte Humanitaargümnaasium,10.a klass,34,Dmitri Mištšenko,
Annabel Toom,Võru Gümnaasium,10. klass,34,Krista Kõlli-Raud,
Birgit Hain,Võru Gümnaasium,10. klass,34,Krista Kõlli-Raud,
Denis Andrejev,Tallinna Kesklinna Vene Gümnaasium,10. klass,34,Natalja Erte,
Elisabeth Kangro,Tallinna Reaalkool,10.c klass,34,Kailit Taliaru,
Iris Rebane,Gustav Adolfi Gümnaasium,9.c klass,34,Auli Reitel,
Kadri Reimann,Nõo Reaalgümnaasium,10.b klass,34,Kerli Rööpson,
Kaileen Geidik,Rakvere Reaalgümnaasium,10.c klass,34,Reeli Rump,
Karl-Oskar Pajus,Gustav Adolfi Gümnaasium,9.c klass,34,Auli Reitel,
Karmen Raudsepp,Jüri Gümnaasium,10.c klass,34,Luisa Pani,
Katrin Silde,Rapla Ühisgümnaasium,10. klass,34,Kadri Laup,
Kerstin Ojavee,Hugo Treffneri Gümnaasium,10.b klass,34,Anneli Mägi,
Kiia Maidla,Jakob Westholmi Gümnaasium,9.a klass,34,Aet Mikli,
Kirke Paabo,Gustav Adolfi Gümnaasium,9.b klass,34,Auli Reitel,
Kristjan Nork,Tallinna Reaalkool,10.c klass,34,Kailit Taliaru,
Laura-Maria Kasak,Võru Gümnaasium,10. klass,34,Krista Kõlli-Raud,
Lauri Lepik,Võru Gümnaasium,10. klass,34,Krista Kõlli-Raud,
Maksim Vassin,Narva Keeltelütseum,10.e klass,34,Valeria Nazarova,
Mathias Randrüüt,Gustav Adolfi Gümnaasium,10.b klass,34,Auli Reitel,
Mihhail Redko,Tallinna Kesklinna Vene Gümnaasium,9. klass,34,Natalja Erte,
Patrick Soome,Peetri Lasteaed-Põhikool,9.c klass,34,Signe Reidla,
Richard Friedrichs,Jakob Westholmi Gümnaasium,9.c klass,34,Aet Mikli,
Sergej Kuzmin,Sakala Eragümnaasium,9. klass,34,Rita Izjumskaja,
Simon Fox Kuuse,Tallinna Reaalkool,10.a klass,34,Inga Petuhhov,
Sofia Haug,Gustav Adolfi Gümnaasium,9.a klass,34,Auli Reitel,
Taavi Truumure,Gustav Adolfi Gümnaasium,9.c klass,34,Auli Reitel,
Triinu Ruul,Hugo Treffneri Gümnaasium,10.a klass,34,Anneli Mägi,
Юлия Фомичева,Narva Keeltelütseum,10. klass,34,Valeria Nazarova,
Adelina Kuzmina,Ehte Humanitaargümnaasium,9.c klass,33,Jevgenia Tkatšova,
Aleksandr Bychkov,Haabersti Vene Gümnaasium,10.a klass,33,Niina Botina,
Eliise Ilves,Võru Gümnaasium,10. klass,33,Krista Kõlli-Raud,
Ervin Solodilov,Ehte Humanitaargümnaasium,10.a klass,33,Dmitri Mištšenko,
Gerda Saks,Rapla Ühisgümnaasium,10. klass,33,Kadri Laup,
Gädi Laurimaa,Jüri Gümnaasium,10.c klass,33,Luisa Pani,
Jan-Ivar Ant,Jakob Westholmi Gümnaasium,9.c klass,33,Aet Mikli,
Konstantin Rurik,Sakala Eragümnaasium,9. klass,33,Rita Izjumskaja,
Kris Soo,Ilmatsalu Põhikool,9. klass,33,Joosep Norma,
Liisi Nõojärv,Rapla Ühisgümnaasium,10. klass,33,Kadri Laup,
Lisette Neem,Peetri Lasteaed-Põhikool,9.a klass,33,Signe Reidla,
Marili Kranach,Rapla Ühisgümnaasium,10.a klass,33,Kadri Laup,
Markus Paales,Rakvere Reaalgümnaasium,10.c klass,33,Reeli Rump,
Merelin Azanova,Tallinna 53. Keskkool,9.e klass,33,Jevgenia Tkatšova,
Ostap Skorodko,Haabersti Vene Gümnaasium,10.c klass,33,Aljona Lеокина,
Sandra Rähni,Kambja Põhikool,9. klass,33,Mare Mõisa,
Sevil Ramazanova,Sakala Eragümnaasium,9. klass,33,Rita Izjumskaja,
Vitaliia Lyndina,Tallinna 53. Keskkool,9.e klass,33,Jevgenia Tkatšova,
Volemar Jagomägi,Gustav Adolfi Gümnaasium,9.a klass,33,Auli Reitel,
Даня Иванов,Narva Kesklinna Gümnaasium,10. klass,33,Vladimir Runin,
Agate Tillmann,Võru Gümnaasium,10. klass,32,Krista Kõlli-Raud,
Airelika Tensberg,Nõo Reaalgümnaasium,10.b klass,32,Kerli Rööpson,
Alar Kotkas,Nõo Põhikool,9. klass,32,Katrin Kalamees,
Aleksei Bahmatov,Tartu Aleksandr Puškini Kool,9.b klass,32,Olga Kravtšenko,
Alexandra Golubenko,Kohtla-Järve Tammiku Põhikool,9.c klass,32,Irina Gritsinenko,
Anna-Liisa Niinemets,Gustav Adolfi Gümnaasium,9.c klass,32,Auli Reitel,
Annabel Parkman,Tallinna Reaalkool,10.c klass,32,Kailit Taliaru,
Anneli Virts,Tallinna Juudi Kool,10. klass,32,Niina Botina,
Anu Alver,Jakob Westholmi Gümnaasium,9.a klass,32,Aet Mikli,
Arina Polujanenkova,Sakala Eragümnaasium,10. klass,32,Rita Izjumskaja,
Artjom Bõkov,Rakvere Reaalgümnaasium,10.a klass,32,Reeli Rump,
Darja Somova,Tallinna Kesklinna Vene Gümnaasium,10.a klass,32,Julia Ratšinskaja,
Egert Aava,Rakvere Reaalgümnaasium,10.c klass,32,Reeli Rump,
Elin Alunurm,Jakob Westholmi Gümnaasium,9.c klass,32,Aet Mikli,
Emma Rootalu,Tallinna Reaalkool,10.c klass,32,Kailit Taliaru,
Gerli Kalkun,Võru Gümnaasium,10. klass,32,Krista Kõlli-Raud,
Hanna Ambre,Hugo Treffneri Gümnaasium,10.b klass,32,Anneli Mägi,
Hanna Uibokand,Võru Gümnaasium,10. klass,32,Krista Kõlli-Raud,
Harold Poderat,Võru Gümnaasium,10. klass,32,Krista Kõlli-Raud,
Helery Pikk,Tallinna Reaalkool,10.c klass,32,Kailit Taliaru,
Iris Rand,Jakob Westholmi Gümnaasium,9.c klass,32,Aet Mikli,
Janely Miadzielec,Kiltsi Põhikool,9. klass,32,Kati Kümnik,
Jekaterina Brenner,Tallinna Kesklinna Vene Gümnaasium,9. klass,32,Natalja Erte,
Juss Parek,Rapla Ühisgümnaasium,10. klass,32,Kadri Laup,
Jürgen Joonas Sarapuu,Jakob Westholmi Gümnaasium,9.c klass,32,Aet Mikli,
Kai-Melli Kapten,Türi Põhikool,9.a klass,32,Laine Aluoja,
Kelly Kaldra,Tallinna Reaalkool,10.c klass,32,Kailit Taliaru,
Kirill Seredjuk,Sakala Eragümnaasium,9. klass,32,Rita Izjumskaja,
Kristina Vahemets,Rakvere Reaalgümnaasium,10.a klass,32,Reeli Rump,
Laura Jaguson,Rakvere Reaalgümnaasium,10.c klass,32,Reeli Rump,
Laura-Liis Kähr,Kambja Põhikool,9. klass,32,Mare Mõisa,
Linda Randla,Hugo Treffneri Gümnaasium,10.b klass,32,Anneli Mägi,
Maksim Semjonov,Sakala Eragümnaasium,10. klass,32,Rita Izjumskaja,
Marie Johanson,Jakob Westholmi Gümnaasium,9.b klass,32,Aet Mikli,
Markus Remiküll,Väike-Maarja Gümnaasium,9. klass,32,Liina Bork,
Markus Sulg,Hugo Treffneri Gümnaasium,10.b klass,32,Anneli Mägi,
Marvin Kõomägi,Viljandi Gümnaasium,10. klass,32,Marika Anissimov,
Rein Rannaste,Peetri Lasteaed-Põhikool,9.a klass,32,Signe Reidla,
Ricco Rosin,Jakob Westholmi Gümnaasium,9.a klass,32,Aet Mikli,
Riin Satsi,Rapla Ühisgümnaasium,10. klass,32,Kadri Laup,
Rita Burova,Tallinna 53. Keskkool,9.a klass,32,Anna Surmai,
Saara Denisov,Võru Gümnaasium,10. klass,32,Krista Kõlli-Raud,
Siim Hubert,Rakvere Reaalgümnaasium,10.c klass,32,Reeli Rump,
Zenja Чекин,Tartu Aleksandr Puškini Kool,9.b klass,32,Olga Kravtšenko,
Tristan Saupõld,Gustav Adolfi Gümnaasium,9.c klass,32,Auli Reitel,
Vlad Ivinski,Narva Keeltelütseum,10.a klass,32,Valeria Nazarova,
Aimar Kuiva,Rakvere Reaalgümnaasium,10.b klass,31,Reeli Rump,
Aleksandr Polevikov,Sillamäe Gümnaasium,10. klass,31,Juulia Devadze,
Andre Hõim,Rakvere Reaalgümnaasium,10.c klass,31,Reeli Rump,
Anissa Galimkhanova,Ehte Humanitaargümnaasium,10.a klass,31,Dmitri Mištšenko,
Ann-Ly Kibuspuu,Hiiumaa Gümnaasium,10. klass,31,Tõnu Soop,
Anna Ganina,Tallinna Kesklinna Vene Gümnaasium,9. klass,31,Natalja Erte,
Daniil Dzemesjuk,Tallinna Kesklinna Vene Gümnaasium,10.a klass,31,Julia Ratšinskaja,
Daniil Ennus,Sakala Eragümnaasium,10. klass,31,Rita Izjumskaja,
Edgar Vildt,Sakala Eragümnaasium,9. klass,31,Rita Izjumskaja,
Elina Liibak,Tallinna Reaalkool,10.c klass,31,Kailit Taliaru,
Elisabet Võrk,Rapla Ühisgümnaasium,10.a klass,31,Kadri Laup,
Ellika Stroganova,Tallinna Kesklinna Vene Gümnaasium,10.a klass,31,Julia Ratšinskaja,
Erelin Nurk,Nõo Põhikool,9. klass,31,Katrin Kalamees,
Erik Daniel Gabor,Tallinna Reaalkool,10.c klass,31,Kailit Taliaru,
Gendra-Marleen Aasmaa,Kambja Põhikool,9. klass,31,Mare Mõisa,
Helena Šults,Nõo Põhikool,9. klass,31,Katrin Kalamees,
Ilja Puhilas,Narva Keeltelütseum,10.a klass,31,Valeria Nazarova,
Kaarel Kelgo,Kiltsi Põhikool,9. klass,31,Kati Kümnik,
Karl Adamson,Jüri Gümnaasium,10.a klass,31,Luisa Pani,
Karl-Sander Ruutmann,Rapla Ühisgümnaasium,10. klass,31,Kadri Laup,
Karoliina Kutsar,Nõo Põhikool,9. klass,31,Katrin Kalamees,
Kirill Semashko,Ehte Humanitaargümnaasium,10.a klass,31,Dmitri Mištšenko,
Kirsika Adler,Jüri Gümnaasium,10.b klass,31,Luisa Pani,
Kristjan Murro,Gustav Adolfi Gümnaasium,9.a klass,31,Auli Reitel,
Kristjan Tikkerberi,Rakvere Reaalgümnaasium,10.b klass,31,Reeli Rump,
Kätriin Proosa,Rakvere Reaalgümnaasium,10.a klass,31,Reeli Rump,
Maria Laur,Peetri Lasteaed-Põhikool,9.b klass,31,Signe Reidla,
Marsel Musienko,Narva Keeltelütseum,10.a klass,31,Valeria Nazarova,
Martin Larin,Tallinna Juudi Kool,9. klass,31,Niina Botina,
Mihkel Reinula,Hugo Treffneri Gümnaasium,10.b klass,31,Anneli Mägi,
Mikael Shutov,Narva Kesklinna Gümnaasium,9.b klass,31,Vladimir Runin,
Milina Stserbakova,Tallinna Kesklinna Vene Gümnaasium,9. klass,31,Natalja Erte,
Natalia Tsvetkova,Tallinna Kesklinna Vene Gümnaasium,9. klass,31,Natalja Erte,
Ott Rünkla,Tallinna Reaalkool,10.a klass,31,Inga Petuhhov,
Randar Rikk,Rakvere Reaalgümnaasium,10.c klass,31,Reeli Rump,
Rayan Veia,Väike-Maarja Gümnaasium,9. klass,31,Liina Bork,
Silver Sepp,Nõo Reaalgümnaasium,10.b klass,31,Kerli Rööpson,
Sten Koger,Nõo Reaalgümnaasium,10.b klass,31,Kerli Rööpson,
Triin Sild,Hugo Treffneri Gümnaasium,10.b klass,31,Anneli Mägi,
Triinu Orgmets,Rakvere Reaalgümnaasium,10.c klass,31,Reeli Rump,
Vadim Zolotarenko,Tallinna Juudi Kool,10. klass,31,Niina Botina,
Артем Кольцов,Ehte Humanitaargümnaasium,9.c klass,31,Jevgenia Tkatšova,
Полина Парубок,Haabersti Vene Gümnaasium,10.a klass,31,Niina Botina,
Aleks Seppel,Tallinna Kesklinna Vene Gümnaasium,10.b klass,30,Julia Ratšinskaja,
Artemi Sementsenko,Narva Keeltelütseum,10. klass,30,Valeria Nazarova,
Denis Roštšin,Ehte Humanitaargümnaasium,10.a klass,30,Dmitri Mištšenko,
Dimitri Kollegajev,Tallinna Juudi Kool,9. klass,30,Niina Botina,
Egret Õunaid,Nõo Reaalgümnaasium,10.b klass,30,Kerli Rööpson,
Erik Iida,Gustav Adolfi Gümnaasium,10.b klass,30,Auli Reitel,
Erik Karepanov,Ehte Humanitaargümnaasium,9.c klass,30,Jevgenia Tkatšova,
Gregor Reinberg,Võru Gümnaasium,10. klass,30,Krista Kõlli-Raud,
Jana Belova,Narva Keeltelütseum,10.c klass,30,Valeria Nazarova,
Johannes Sarapuu,Hugo Treffneri Gümnaasium,10.a klass,30,Anneli Mägi,
Jürgen Irve,Peetri Lasteaed-Põhikool,9.a klass,30,Signe Reidla,
Katya Astašova,Sillamäe Gümnaasium,10. klass,30,Juulia Devadze,
Keitlin Sinijärv,Hiiumaa Gümnaasium,10. klass,30,Tõnu Soop,
Kristo Munski,Võru Gümnaasium,10. klass,30,Krista Kõlli-Raud,
Ksenia Šedova,Tapa Vene Põhikool,9.a klass,30,Jelena Jakovleva,
Laura Luks,Rapla Ühisgümnaasium,10. klass,30,Kadri Laup,
Laura Samm,Peetri Lasteaed-Põhikool,9.a klass,30,Signe Reidla,
Magomed Akhmedov,Hugo Treffneri Gümnaasium,10.b klass,30,Anneli Mägi,
Mark Titov,Ehte Humanitaargümnaasium,9.c klass,30,Jevgenia Tkatšova,
Mart Johannes Pariis,Rakvere Reaalgümnaasium,10.c klass,30,Reeli Rump,
Natalja Antonova,Tallinna Kesklinna Vene Gümnaasium,9. klass,30,Natalja Erte,
Rasmus Tannebaum,Gustav Adolfi Gümnaasium,9.a klass,30,Auli Reitel,
Robert Höövel,Hugo Treffneri Gümnaasium,10.b klass,30,Anneli Mägi,
Uljana Prosvetova,Narva Keeltelütseum,10.a klass,30,Valeria Nazarova,
Albert Kostusev,Peetri Lasteaed-Põhikool,9.b klass,29,Signe Reidla,
Anita Vares,Tallinna 53. Keskkool,9.d klass,29,Jevgenia Tkatšova,
Anna Borodulja,Tallinna Kesklinna Vene Gümnaasium,10.a klass,29,Julia Ratšinskaja,
Anti Sults,Rakvere Reaalgümnaasium,10.c klass,29,Reeli Rump,
Antony Loodus,Rapla Ühisgümnaasium,10. klass,29,Kadri Laup,
Daniel Budolin,Tallinna 53. Keskkool,9.a klass,29,Anna Surmai,
Eva-Maria Starostenko,Tallinna 53. Keskkool,9.c klass,29,Anna Surmai,
Jekaterina Aleksandrova,Ehte Humanitaargümnaasium,9.c klass,29,Jevgenia Tkatšova,
Julia Jushkova,Tallinna 53. Keskkool,9.e klass,29,Jevgenia Tkatšova,
Maria Martin,Peetri Lasteaed-Põhikool,9.c klass,29,Signe Reidla,
Marian Eigi,Rakvere Reaalgümnaasium,10.c klass,29,Reeli Rump,
Marie Unt,Hugo Treffneri Gümnaasium,10.b klass,29,Anneli Mägi,
Nikita Aksjonov,Sakala Eragümnaasium,10. klass,29,Rita Izjumskaja,
Pavel Bondarenko,Ehte Humanitaargümnaasium,10.a klass,29,Dmitri Mištšenko,
Polina Gratsjova,Haabersti Vene Gümnaasium,10.a klass,29,Niina Botina,
Robert Rohtmets,Gustav Adolfi Gümnaasium,9.a klass,29,Auli Reitel,
Sander Somelar,Pärnu Ülejõe Põhikool,9.a klass,29,Taimi Dreier,
Sanna Vunk,Nõo Reaalgümnaasium,10.b klass,29,Kerli Rööpson,
Simon Rüsse,Gustav Adolfi Gümnaasium,9.a klass,29,Auli Reitel,
Alfred Sultson,Tallinna Reaalkool,10.a klass,28,Inga Petuhhov,
Alissa Hlebnikova,Tallinna Kesklinna Vene Gümnaasium,10.a klass,28,Julia Ratšinskaja,
Anastasia Krapivko,Tallinna 53. Keskkool,9.e klass,28,Jevgenia Tkatšova,
Anessa Habonen,Kambja Põhikool,9. klass,28,Mare Mõisa,
Anna Perštuk,Ehte Humanitaargümnaasium,10.a klass,28,Dmitri Mištšenko,
Arina Piskunova,Sakala Eragümnaasium,10. klass,28,Rita Izjumskaja,
Carmen Kuntro,Rakvere Reaalgümnaasium,10.b klass,28,Reeli Rump,
Dima Jefremov,Ehte Humanitaargümnaasium,9.c klass,28,Jevgenia Tkatšova,
Eneli Ahman,Võru Gümnaasium,10. klass,28,Krista Kõlli-Raud,
Enri Riim,Rapla Ühisgümnaasium,10.a klass,28,Kadri Laup,
Eva Spelman,Tallinna Kesklinna Vene Gümnaasium,9. klass,28,Natalja Erte,
Georg Artur Urbas,Rakvere Reaalgümnaasium,10.c klass,28,Reeli Rump,
Gerd Kutsko,Tallinna Kesklinna Vene Gümnaasium,9. klass,28,Natalja Erte,
Hanna Liis Tamm,Hugo Treffneri Gümnaasium,10.b klass,28,Anneli Mägi,
Helen Cornelia Kuklane,Võru Gümnaasium,10. klass,28,Krista Kõlli-Raud,
Hiie Leitham,Gustav Adolfi Gümnaasium,9.c klass,28,Auli Reitel,
Ilja Mänd,Tartu Aleksandr Puškini Kool,9.b klass,28,Olga Kravtšenko,
Joel Teras,Võru Gümnaasium,10. klass,28,Krista Kõlli-Raud,
Joonas Meister,Jakob Westholmi Gümnaasium,9.b klass,28,Aet Mikli,
Karmel Ader,Võru Gümnaasium,10. klass,28,Krista Kõlli-Raud,
Ksenija Visnjakova,Narva Keeltelütseum,10.d klass,28,Valeria Nazarova,
Laura Eimre,Võru Gümnaasium,10. klass,28,Krista Kõlli-Raud,
Laura Vilumets,Rapla Ühisgümnaasium,10.a klass,28,Kadri Laup,
Maarja Lomakin,Nõo Põhikool,9. klass,28,Katrin Kalamees,
Madeleine Monika Mandre,Peetri Lasteaed-Põhikool,9.a klass,28,Signe Reidla,
Maido Tihane,Viljandi Gümnaasium,10. klass,28,Marika Anissimov,
Mari-Liis Nurmsalu,Tallinna Reaalkool,10.c klass,28,Kailit Taliaru,
Mariann Bauvald,Rapla Ühisgümnaasium,10. klass,28,Kadri Laup,
Mark Kritski,Tallinna Juudi Kool,9. klass,28,Niina Botina,
Mathias Harujõe,Hugo Treffneri Gümnaasium,10.a klass,28,Anneli Mägi,
Mattias Mäe,Rakvere Reaalgümnaasium,10.c klass,28,Reeli Rump,
Mihkel Tiks,Hugo Treffneri Gümnaasium,10.a klass,28,Anneli Mägi,
Oliver Treilmann,Peetri Lasteaed-Põhikool,9.b klass,28,Signe Reidla,
Ott Kattel,Jüri Gümnaasium,10.a klass,28,Luisa Pani,
Rein Reinu,Hiiumaa Gümnaasium,10. klass,28,Tõnu Soop,
Richard Liibek,Rapla Ühisgümnaasium,10. klass,28,Kadri Laup,
Robin Sapar,Rakvere Reaalgümnaasium,10.c klass,28,Reeli Rump,
Romi Aros,Rakvere Reaalgümnaasium,10.a klass,28,Reeli Rump,
Sander Kangur,Tallinna Reaalkool,10.a klass,28,Inga Petuhhov,
Siim Tamme,Viljandi Gümnaasium,10. klass,28,Marika Anissimov,
Sofia Vassiltsenko,Tallinna 53. Keskkool,9.a klass,28,Anna Surmai,
Sofija Isaevskaja,Tallinna Kesklinna Vene Gümnaasium,9. klass,28,Natalja Erte,
Stanislav Filippov,Tartu Aleksandr Puškini Kool,9.b klass,28,Olga Kravtšenko,
Alexander Kask,Rakvere Reaalgümnaasium,10.b klass,27,Reeli Rump,
Alina Stsukina,Sakala Eragümnaasium,9. klass,27,Rita Izjumskaja,
Anastasija Evnovits,Haabersti Vene Gümnaasium,10.c klass,27,Aljona Lеокина,
Anna Shamarina,Ehte Humanitaargümnaasium,10.a klass,27,Dmitri Mištšenko,
Annabel Tammsaar,Jüri Gümnaasium,10.a klass,27,Luisa Pani,
Camilla Kännola,Rapla Ühisgümnaasium,10. klass,27,Kadri Laup,
Danil Petrov,Ehte Humanitaargümnaasium,10.a klass,27,Dmitri Mištšenko,
Darja Bažulina,Sillamäe Gümnaasium,10. klass,27,Juulia Devadze,
Darja Maslova,Haabersti Vene Gümnaasium,10.a klass,27,Aljona Lеокина,
David Kingsepp,Viljandi Gümnaasium,10. klass,27,Marika Anissimov,
Elina Ganuzina,Tallinna Kesklinna Vene Gümnaasium,10.b klass,27,Julia Ratšinskaja,
Emili Aher,Võru Gümnaasium,10. klass,27,Krista Kõlli-Raud,
Evaliisa Andrejev,Võru Gümnaasium,10. klass,27,Krista Kõlli-Raud,
Evelina Popova,Tartu Aleksandr Puškini Kool,9.b klass,27,Olga Kravtšenko,
Georg Prees,Rakvere Reaalgümnaasium,10.b klass,27,Reeli Rump,
Getriin Meister,Võru Gümnaasium,10. klass,27,Krista Kõlli-Raud,
Grete Eerikson,Jüri Gümnaasium,10.a klass,27,Luisa Pani,
Hanna Naudi,Jüri Gümnaasium,10.c klass,27,Luisa Pani,
Helina Härma,Võru Gümnaasium,10. klass,27,Krista Kõlli-Raud,
Hendrik Püss,Jakob Westholmi Gümnaasium,9.a klass,27,Aet Mikli,
Henri Oad,Surju Põhikool,9. klass,27,Signe Reidla,
Ivan Oleinik,Tallinna 53. Keskkool,9. klass,27,Jevgenia Tkatšova,
Jana Ivankovich,Narva Keeltelütseum,10.a klass,27,Valeria Nazarova,
Jana Lim,Ehte Humanitaargümnaasium,10.a klass,27,Dmitri Mištšenko,
Jane Pelska,Võru Gümnaasium,10. klass,27,Krista Kõlli-Raud,
Jevgeni Jermolajev,Ehte Humanitaargümnaasium,10.a klass,27,Dmitri Mištšenko,
Julia Ermakova,Tallinna Kesklinna Vene Gümnaasium,10.b klass,27,Julia Ratšinskaja,
Karolina Jaanimets,Rapla Ühisgümnaasium,10. klass,27,Kadri Laup,
Kelly Luikoja,Rapla Ühisgümnaasium,10. klass,27,Kadri Laup,
Kirke Ilves,Jakob Westholmi Gümnaasium,9.a klass,27,Aet Mikli,
Kristjan Lepikult,Peetri Lasteaed-Põhikool,9.c klass,27,Signe Reidla,
Kätlin Ilves,Nõo Põhikool,9. klass,27,Katrin Kalamees,
Kätlin Siimson,Ilmatsalu Põhikool,9. klass,27,Joosep Norma,
Maarika Korobova,Rakvere Reaalgümnaasium,10.b klass,27,Reeli Rump,
Marian Ensling,Jakob Westholmi Gümnaasium,9.c klass,27,Aet Mikli,
Marleen Aberut,Jüri Gümnaasium,10.b klass,27,Luisa Pani,
Mattias Sinijärv,Pärnu Ülejõe Põhikool,9.b klass,27,Taimi Dreier,
Niil Sepper,Peetri Lasteaed-Põhikool,9.a klass,27,Signe Reidla,
Nikolai Sokolov,Ehte Humanitaargümnaasium,10.a klass,27,Dmitri Mištšenko,
Paul Pärtli,Rakvere Reaalgümnaasium,10.b klass,27,Reeli Rump,
Sergei Tolbin,Tallinna 53. Keskkool,9.b klass,27,Anna Surmai,
Sofia Kutsko,Tallinna Kesklinna Vene Gümnaasium,9. klass,27,Natalja Erte,
Stene Ilau,Jakob Westholmi Gümnaasium,9.b klass,27,Aet Mikli,
Tomas Dunderdale,Nõo Põhikool,9. klass,27,Katrin Kalamees,
Varvara Grebneva,Haabersti Vene Gümnaasium,10.a klass,27,Niina Botina,
Veronika Talalajeva,Sillamäe Gümnaasium,10. klass,27,Juulia Devadze,
Viktoria Povetkina,Ehte Humanitaargümnaasium,9.c klass,27,Jevgenia Tkatšova,
Валерия Пяткина,Haabersti Vene Gümnaasium,10.a klass,27,Niina Botina,
Жан Демичев,Tartu Aleksandr Puškini Kool,9.b klass,27,Olga Kravtšenko,
Alika Milova,Tallinna 53. Keskkool,9.a klass,26,Anna Surmai,
Anastasia Perova,Tallinna 53. Keskkool,9.d klass,26,Jevgenia Tkatšova,
Andreas Eskor,Hugo Treffneri Gümnaasium,10.b klass,26,Anneli Mägi,
Berit Allikoja,Peetri Lasteaed-Põhikool,9.c klass,26,Signe Reidla,
Birgit Hallikivi,Peetri Lasteaed-Põhikool,9.a klass,26,Signe Reidla,
Celly Vaarik,Väike-Maarja Gümnaasium,9. klass,26,Liina Bork,
Daniil Moshnin,Tallinna Juudi Kool,9. klass,26,Niina Botina,
Danita Grivans,Tartu Aleksandr Puškini Kool,9.b klass,26,Olga Kravtšenko,
Darja Dernovaja,Narva Keeltelütseum,10.e klass,26,Valeria Nazarova,
Dmitri Zhilyaev,Tallinna Kesklinna Vene Gümnaasium,9. klass,26,Natalja Erte,
Erik Loik,Gustav Adolfi Gümnaasium,9.a klass,26,Auli Reitel,
Hanna Visnapuu,Võru Gümnaasium,10. klass,26,Krista Kõlli-Raud,
Jass Reemann,Hugo Treffneri Gümnaasium,10.b klass,26,Anneli Mägi,
Joosep Koido,Võru Gümnaasium,10. klass,26,Krista Kõlli-Raud,
Karl Johannes Sultson,Jakob Westholmi Gümnaasium,9.b klass,26,Aet Mikli,
Kristiine Keren Kotiesen,Rakvere Reaalgümnaasium,10.c klass,26,Reeli Rump,
Liidia Danilov,Sillamäe Gümnaasium,10. klass,26,Juulia Devadze,
Liisi Emilia Eermann,Jakob Westholmi Gümnaasium,9.b klass,26,Aet Mikli,
Madli Maaste,Jakob Westholmi Gümnaasium,9.a klass,26,Aet Mikli,
Mai Ellermäe,Emmaste Põhikool,9. klass,26,Margus Sõmer,
Mailis Kornelt,Väike-Maarja Gümnaasium,10. klass,26,Liina Bork,
Maksim Bulkin,Sillamäe Gümnaasium,10. klass,26,Juulia Devadze,
Nastya Chumakova,Sakala Eragümnaasium,10. klass,26,Rita Izjumskaja,
Nikita Puzakov,Narva Kesklinna Gümnaasium,10.b klass,26,Vladimir Runin,
Polina Nikolajeva,Tallinna Kesklinna Vene Gümnaasium,9. klass,26,Natalja Erte,
Polina Orav,Narva Keeltelütseum,10. klass,26,Valeria Nazarova,
Richard Lehtlaan,Väike-Maarja Gümnaasium,9. klass,26,Liina Bork,
Robin Baiduza,Väike-Maarja Gümnaasium,10. klass,26,Liina Bork,
Robin Suursaar,Gustav Adolfi Gümnaasium,10.b klass,26,Auli Reitel,
Tarvi Tüvist,Rapla Ühisgümnaasium,10.a klass,26,Kadri Laup,
Valeria Karpova,Tallinna Kesklinna Vene Gümnaasium,9. klass,26,Natalja Erte,
Vendo Veia,Väike-Maarja Gümnaasium,10. klass,26,Liina Bork,
Марк Поздеев,Tallinna 53. Keskkool,9. klass,26,Jevgenia Tkatšova,
Никита Стёпин,Tallinna 53. Keskkool,9. klass,26,Jevgenia Tkatšova,
Aleksander Kampus,Gustav Adolfi Gümnaasium,10.b klass,25,Auli Reitel,
Alex Insler,Tallinna 53. Keskkool,9. klass,25,Jevgenia Tkatšova,
Allan Ivanov,Narva Keeltelütseum,10.b klass,25,Valeria Nazarova,
Anna Tsusovlajnova,Sakala Eragümnaasium,10. klass,25,Rita Izjumskaja,
Anna Valjuškina,Sakala Eragümnaasium,9. klass,25,Rita Izjumskaja,
Anna-Liza Kudrjavtseva,Tartu Aleksandr Puškini Kool,9.b klass,25,Olga Kravtšenko,
Annabel Taniel,Rapla Ühisgümnaasium,10. klass,25,Kadri Laup,
Askar Rostovtsev,Tallinna Kesklinna Vene Gümnaasium,10.c klass,25,Julia Ratšinskaja,
Dennis Bykov,Sakala Eragümnaasium,10. klass,25,Rita Izjumskaja,
Elina Matveeva,Tartu Aleksandr Puškini Kool,9.b klass,25,Olga Kravtšenko,
Hanna Maia Tiide,Jakob Westholmi Gümnaasium,9.a klass,25,Aet Mikli,
Hendrik Hergauk,Jüri Gümnaasium,10.a klass,25,Luisa Pani,
Joosep Tiitus,Jüri Gümnaasium,10.b klass,25,Luisa Pani,
Julia Grebstele,Ehte Humanitaargümnaasium,10.a klass,25,Dmitri Mištšenko,
Kaspar Kaabel,Gustav Adolfi Gümnaasium,9.a klass,25,Auli Reitel,
Ketly Iouriev,Jakob Westholmi Gümnaasium,9.b klass,25,Aet Mikli,
Kevin Ibrus,Hugo Treffneri Gümnaasium,10.b klass,25,Anneli Mägi,
Leonard Sannikov,Tallinna Kesklinna Vene Gümnaasium,9. klass,25,Natalja Erte,
Lia Tsugunova,Tallinna 53. Keskkool,9.a klass,25,Anna Surmai,
Maksim Shapovalov,Gustav Adolfi Gümnaasium,9.a klass,25,Auli Reitel,
Morten Karja,Jüri Gümnaasium,10.b klass,25,Luisa Pani,
Nastja Fjodorova,Tallinna 53. Keskkool,9.c klass,25,Anna Surmai,
Ottomartin Valk,Peetri Lasteaed-Põhikool,9.a klass,25,Signe Reidla,
Raiko Apri,Hiiumaa Gümnaasium,10. klass,25,Tõnu Soop,
Raiko Kal,Peetri Lasteaed-Põhikool,9.a klass,25,Signe Reidla,
Riko Tobreluts,Väike-Maarja Gümnaasium,9. klass,25,Liina Bork,
Анастасия Бабыничева,Haabersti Vene Gümnaasium,10.c klass,25,Aljona Lеокина,
Валерия Шпренк,Tartu Aleksandr Puškini Kool,9.b klass,25,Olga Kravtšenko,
Вероника Эйнула,Tartu Aleksandr Puškini Kool,9.b klass,25,Olga Kravtšenko,
Дмитрий Драгунцев,Tallinna Kesklinna Vene Gümnaasium,10.a klass,25,Julia Ratšinskaja,
Каролина Локтева,Tartu Aleksandr Puškini Kool,9.b klass,25,Olga Kravtšenko,
Aleksei Pavlov,Haabersti Vene Gümnaasium,10.a klass,24,Aljona Lеокина,
Alina Krestnikova,Tartu Aleksandr Puškini Kool,9.b klass,24,Olga Kravtšenko,
Alisa Dreljova,Tallinna 53. Keskkool,9. klass,24,Jevgenia Tkatšova,
Alissa Veikkolainen,Tallinna Kesklinna Vene Gümnaasium,10.c klass,24,Julia Ratšinskaja,
Amir Esimbekov,Tartu Aleksandr Puškini Kool,9.b klass,24,Olga Kravtšenko,
Anastasia Sitnikova,Ehte Humanitaargümnaasium,10.a klass,24,Dmitri Mištšenko,
Angeelika Maalmann,Tartu Aleksandr Puškini Kool,9.b klass,24,Olga Kravtšenko,
Annabel Loodus,Rapla Ühisgümnaasium,10.a klass,24,Kadri Laup,
Annaliisa Tohu,Nõo Põhikool,9. klass,24,Katrin Kalamees,
Artjom Ossipov,Haabersti Vene Gümnaasium,10.c klass,24,Aljona Lеокина,
Artur Hussar,Rakvere Reaalgümnaasium,10.a klass,24,Reeli Rump,
Claudia Kõivoste,Võru Gümnaasium,10. klass,24,Krista Kõlli-Raud,
Deniel Konstantinov,Viljandi Gümnaasium,10. klass,24,Marika Anissimov,
Eerik Ääremaa,Gustav Adolfi Gümnaasium,9.a klass,24,Auli Reitel,
Erik Hindpere,Rapla Ühisgümnaasium,10. klass,24,Kadri Laup,
Hanna-Liisa Peerna,Viljandi Gümnaasium,10. klass,24,Marika Anissimov,
Hugo Kadak,Türi Põhikool,9.b klass,24,Laine Aluoja,
Jelena Maratkanova,Ehte Humanitaargümnaasium,10.a klass,24,Dmitri Mištšenko,
Johannes Soonik,Hiiumaa Gümnaasium,10. klass,24,Tõnu Soop,
Juhan Parna,Jakob Westholmi Gümnaasium,9.a klass,24,Aet Mikli,
Kai-Riin Kanarbik,Rakvere Reaalgümnaasium,10.c klass,24,Reeli Rump,
Kaia Kivend,Hugo Treffneri Gümnaasium,10.b klass,24,Anneli Mägi,
Kaia-Marii Varik,Võru Gümnaasium,10. klass,24,Krista Kõlli-Raud,
Kaisa Kangur,Väike-Maarja Gümnaasium,9. klass,24,Liina Bork,
Karl Lepist,Kambja Põhikool,9. klass,24,Mare Mõisa,
Kaur Kristjan Kotšin,Rakvere Reaalgümnaasium,10.a klass,24,Reeli Rump,
Liina Veisveer,Võru Gümnaasium,10. klass,24,Krista Kõlli-Raud,
Liis Laigu,Rakvere Reaalgümnaasium,10.a klass,24,Reeli Rump,
Linda-Terese Makk,Tallinna Reaalkool,10.c klass,24,Kailit Taliaru,
Mari Leito,Hugo Treffneri Gümnaasium,10.a klass,24,Anneli Mägi,
Marian-Liis Kopp,Jüri Gümnaasium,10.a klass,24,Luisa Pani,
Markel Buhalko,Tallinna Kesklinna Vene Gümnaasium,9. klass,24,Natalja Erte,
Marten Lausvee,Rakvere Reaalgümnaasium,10.b klass,24,Reeli Rump,
Martin Mozessov,Peetri Lasteaed-Põhikool,9.c klass,24,Signe Reidla,
Ott Eric Ottender,Hugo Treffneri Gümnaasium,10.a klass,24,Anneli Mägi,
Raul Pastak,Nõo Reaalgümnaasium,10.b klass,24,Kerli Rööpson,
Regita Luukas,Tallinna Reaalkool,10.c klass,24,Kailit Taliaru,
Robin Aloe,Jüri Gümnaasium,10.a klass,24,Luisa Pani,
Rose-Marie Riitsalu,Tõrva Gümnaasium,10.a klass,24,Katrin Kalamees,
Saskia Ruhno,Jakob Westholmi Gümnaasium,9.b klass,24,Aet Mikli,
Vadim Ivory Tower Co.,Tallinna 53. Keskkool,9.c klass,24,Anna Surmai,
Vadim Kuznecov,Tallinna 53. Keskkool,9.c klass,24,Anna Surmai,
Valeria Karhu,Haabersti Vene Gümnaasium,10.c klass,24,Aljona Lеокина,
Viktoria Lupanova,Tallinna Kesklinna Vene Gümnaasium,10.a klass,24,Julia Ratšinskaja,
Аня Николаева,Haabersti Vene Gümnaasium,10.c klass,24,Aljona Lеокина,
Елизавета Бурцева,Haabersti Vene Gümnaasium,10.c klass,24,Aljona Lеокина,
Кирилл Соколов,Haabersti Vene Gümnaasium,10.a klass,24,Niina Botina,
Aleksandr Amosenkov,Haabersti Vene Gümnaasium,10.a klass,23,Niina Botina,
Aleksei Votintsev,Sillamäe Gümnaasium,10. klass,23,Juulia Devadze,
Alex Aasumets,Rakvere Reaalgümnaasium,10.c klass,23,Reeli Rump,
Alex Terentjev,Tallinna Juudi Kool,9. klass,23,Niina Botina,
Alexandra Gorlats,Sakala Eragümnaasium,10. klass,23,Rita Izjumskaja,
Alisa Kostomarova,Rapla Ühisgümnaasium,10.a klass,23,Kadri Laup,
Anastasia Karamõsheva,Haabersti Vene Gümnaasium,10.c klass,23,Aljona Lеокина,
Andre Vara,Emmaste Põhikool,9. klass,23,Margus Sõmer,
Anna-Maria Podolinski,Tallinna Kesklinna Vene Gümnaasium,10.b klass,23,Julia Ratšinskaja,
Daniil Pertsev,Tartu Aleksandr Puškini Kool,9.b klass,23,Olga Kravtšenko,
Daniil Zimgorov,Haabersti Vene Gümnaasium,10.a klass,23,Aljona Lеокина,
Diana Kiriljuk,Ehte Humanitaargümnaasium,10.a klass,23,Dmitri Mištšenko,
Elizabeth Šanin,Jakob Westholmi Gümnaasium,9.a klass,23,Aet Mikli,
Emmeliine Koor,Jüri Gümnaasium,10.a klass,23,Luisa Pani,
Evgeny Sokolov,Tapa Vene Põhikool,9.a klass,23,Jelena Jakovleva,
Galina Malinovskaja,Tallinna Kesklinna Vene Gümnaasium,9. klass,23,Natalja Erte,
Gertrud Helin,Jüri Gümnaasium,10.a klass,23,Luisa Pani,
Ingela Uustal,Rakvere Reaalgümnaasium,10.a klass,23,Reeli Rump,
Jan Joonas Tuuling,Nõo Reaalgümnaasium,10.b klass,23,Kerli Rööpson,
Johanna Kuddi,Väike-Maarja Gümnaasium,9. klass,23,Liina Bork,
Johhana Laane,Nõo Reaalgümnaasium,10.b klass,23,Kerli Rööpson,
Jolanda Pikerpold,Rakvere Reaalgümnaasium,10.a klass,23,Reeli Rump,
Kadi Albrecht,Rakvere Reaalgümnaasium,10.c klass,23,Reeli Rump,
Karl Jaanus Jaanus,Jakob Westholmi Gümnaasium,9.c klass,23,Aet Mikli,
Ken Kõivastik,Peetri Lasteaed-Põhikool,9.c klass,23,Signe Reidla,
Ken-Marten Soo,Jakob Westholmi Gümnaasium,9.c klass,23,Aet Mikli,
Kris Markus Maiste,Gustav Adolfi Gümnaasium,9.c klass,23,Auli Reitel,
Kristel Klaas,Jüri Gümnaasium,10. klass,23,Luisa Pani,
Kristel Kortin,Väike-Maarja Gümnaasium,10. klass,23,Liina Bork,
Kärol Samoson,Võru Gümnaasium,10. klass,23,Krista Kõlli-Raud,
Kärt Ivanov,Ilmatsalu Põhikool,9. klass,23,Joosep Norma,
Laura Koobas,Jakob Westholmi Gümnaasium,9.a klass,23,Aet Mikli,
Liisi Lippasaar,Rakvere Reaalgümnaasium,10.b klass,23,Reeli Rump,
Lilia Prozorova,Sillamäe Gümnaasium,10. klass,23,Juulia Devadze,
Lissel Tanni,Rakvere Reaalgümnaasium,10.b klass,23,Reeli Rump,
Liza Matveeva,Tallinna Juudi Kool,10. klass,23,Niina Botina,
Lore Torrop,Peetri Lasteaed-Põhikool,9.a klass,23,Signe Reidla,
Magnus Veerväli,Rakvere Reaalgümnaasium,10.c klass,23,Reeli Rump,
Markus Kiil,Rapla Ühisgümnaasium,10. klass,23,Kadri Laup,
Martha Kuusküll,Jakob Westholmi Gümnaasium,9.a klass,23,Aet Mikli,
Mattias Muuk,Jakob Westholmi Gümnaasium,9.c klass,23,Aet Mikli,
Mattias Piirsoo,Peetri Lasteaed-Põhikool,9.c klass,23,Signe Reidla,
Mattias Preisfreund,Väike-Maarja Gümnaasium,9. klass,23,Liina Bork,
Merili Oks,Rakvere Reaalgümnaasium,10.b klass,23,Reeli Rump,
Mihhail Movsisjan,Tallinna Juudi Kool,9. klass,23,Niina Botina,
Mirjam Kivimäe,Võru Gümnaasium,10. klass,23,Krista Kõlli-Raud,
Oleg Putintsev,Haabersti Vene Gümnaasium,10.c klass,23,Aljona Lеокина,
Ove Eslon,Jüri Gümnaasium,10.a klass,23,Luisa Pani,
Paul Vossotski,Narva Keeltelütseum,10.a klass,23,Valeria Nazarova,
Pille-Riin Ilistom,Rapla Ühisgümnaasium,10. klass,23,Kadri Laup,
Ragnar Leppikus,Rakvere Reaalgümnaasium,10.b klass,23,Reeli Rump,
Ranet Sikk,Jakob Westholmi Gümnaasium,9.a klass,23,Aet Mikli,
Remi Õunapuu,Nõo Reaalgümnaasium,10.b klass,23,Kerli Rööpson,
Renita Mäesaar,Peetri Lasteaed-Põhikool,9.c klass,23,Signe Reidla,
Robin Remmelgas,Jakob Westholmi Gümnaasium,9.a klass,23,Aet Mikli,
Ruslan Neverov,Haabersti Vene Gümnaasium,10.a klass,23,Niina Botina,
Sigrid Veski,Peetri Lasteaed-Põhikool,9.b klass,23,Signe Reidla,
Tatjana Serebrova,Ehte Humanitaargümnaasium,10.a klass,23,Dmitri Mištšenko,
Teele Lumi,Võru Gümnaasium,10. klass,23,Krista Kõlli-Raud,
Timo Seppern,Väike-Maarja Gümnaasium,10. klass,23,Liina Bork,
Vadim Pozjabin,Haabersti Vene Gümnaasium,10.c klass,23,Aljona Lеокина,
Viktor Skobelev,Tapa Vene Põhikool,9.a klass,23,Jelena Jakovleva,
Violetta Sirelpuu,Kohtla-Järve Tammiku Põhikool,9.b klass,23,Irina Gritsinenko,
Vlad Vladimirov,Narva Kreenholmi Gümnaasium,9.a klass,23,Tatiana Saukova,
Vova Balandin,Sillamäe Gümnaasium,10. klass,23,Juulia Devadze,
Анна Шарина,Tallinna Juudi Kool,10. klass,23,Niina Botina,
Диана Михайлова,Haabersti Vene Gümnaasium,10.a klass,23,Aljona Lеокина,
Илья Пащенко,Tallinna Juudi Kool,9. klass,23,Niina Botina,
Aleksander Baranov,Haabersti Vene Gümnaasium,10.a klass,22,Aljona Lеокина,
Aleksander Kopso,Väike-Maarja Gümnaasium,9. klass,22,Liina Bork,
Anastasia Averyanova,Haabersti Vene Gümnaasium,10.c klass,22,Aljona Lеокина,
Anna Veisman,Tallinna Kesklinna Vene Gümnaasium,9. klass,22,Natalja Erte,
Darja Goleništševa,Tallinna Kesklinna Vene Gümnaasium,10.a klass,22,Julia Ratšinskaja,
Edvin Erdfeldt,Haabersti Vene Gümnaasium,10.c klass,22,Aljona Lеокина,
Hannagreth Urke,Rapla Ühisgümnaasium,10. klass,22,Kadri Laup,
Ilja Zhurba,Tallinna 53. Keskkool,9. klass,22,Jevgenia Tkatšova,
Ivonne Isabel Ilves,Tõrva Gümnaasium,10.a klass,22,Katrin Kalamees,
Jaana Rätsep,Emmaste Põhikool,9. klass,22,Margus Sõmer,
Jago Kadak,Türi Põhikool,9.b klass,22,Laine Aluoja,
Jarko Nassar,Võru Gümnaasium,10. klass,22,Krista Kõlli-Raud,
Karli-Joosep Matrov,Väike-Maarja Gümnaasium,9. klass,22,Liina Bork,
Kaur Rajasaar,Peetri Lasteaed-Põhikool,9.b klass,22,Signe Reidla,
Kevin Vahemets,Rakvere Reaalgümnaasium,10.a klass,22,Reeli Rump,
Kristina Bartosh,Tallinna Kesklinna Vene Gümnaasium,9. klass,22,Natalja Erte,
Mari Jat Pirimov,Tallinna Kesklinna Vene Gümnaasium,10.a klass,22,Julia Ratšinskaja,
Maria-Johanna Vompa,Jakob Westholmi Gümnaasium,9.a klass,22,Aet Mikli,
Rebeka Soots,Rakvere Reaalgümnaasium,10.c klass,22,Reeli Rump,
Reimo Tilk,Surju Põhikool,9. klass,22,Signe Reidla,
Silver Väina,Väike-Maarja Gümnaasium,9. klass,22,Liina Bork,
Valeri Tsernov,Tallinna Kesklinna Vene Gümnaasium,9. klass,22,Natalja Erte,
Valeria Pomerants,Haabersti Vene Gümnaasium,10.c klass,22,Aljona Lеокина,
Üllar Täht,Võru Gümnaasium,10. klass,22,Krista Kõlli-Raud,
Анастасия Лужецкая,Haabersti Vene Gümnaasium,10.c klass,22,Aljona Lеокина,
Даник Вариков,Haabersti Vene Gümnaasium,10.c klass,22,Aljona Lеокина,
Сергей Большаков,Haabersti Vene Gümnaasium,10.c klass,22,Aljona Lеокина,
Татьяна Зенова,Narva Keeltelütseum,10.a klass,22,Valeria Nazarova,
Arlet Suviste,Väike-Maarja Gümnaasium,9. klass,21,Liina Bork,
Daria Petrova,Sillamäe Gümnaasium,10. klass,21,Juulia Devadze,
Darja Patlikova,Ehte Humanitaargümnaasium,10.a klass,21,Dmitri Mištšenko,
Elisabet Landsberg,Jakob Westholmi Gümnaasium,9.c klass,21,Aet Mikli,
Emma Laurimaa,Rapla Ühisgümnaasium,10. klass,21,Kadri Laup,
Hando Allmann,Võru Gümnaasium,10. klass,21,Krista Kõlli-Raud,
Hanna-Grete Kütt,Jakob Westholmi Gümnaasium,9.b klass,21,Aet Mikli,
Ingrid Palm,Võru Gümnaasium,10. klass,21,Krista Kõlli-Raud,
Jarelin Melser,Nõo Põhikool,9. klass,21,Katrin Kalamees,
Kaspar Viin,Kambja Põhikool,9. klass,21,Mare Mõisa,
Ksenia Tsavelidze,Narva Keeltelütseum,10. klass,21,Valeria Nazarova,
Marek Haas,Emmaste Põhikool,9. klass,21,Margus Sõmer,
Markus Siht,Nõo Põhikool,9. klass,21,Katrin Kalamees,
Mihhail Popov,Ehte Humanitaargümnaasium,10.a klass,21,Dmitri Mištšenko,
Olivia Anet Sõrmus,Jakob Westholmi Gümnaasium,9.c klass,21,Aet Mikli,
Pjotr Segedin,Tartu Aleksandr Puškini Kool,9.b klass,21,Olga Kravtšenko,
Sander Kõoleht,Võru Gümnaasium,10. klass,21,Krista Kõlli-Raud,
Sandra Dimbel,Tallinna Kesklinna Vene Gümnaasium,9. klass,21,Natalja Erte,
Saskia Rohtmets,Gustav Adolfi Gümnaasium,9.a klass,21,Auli Reitel,
Sergo Lanno,Surju Põhikool,9. klass,21,Signe Reidla,
Sten Erik Vahl,Jüri Gümnaasium,10.b klass,21,Luisa Pani,
Teele Toom,Rakvere Reaalgümnaasium,10.a klass,21,Reeli Rump,
Valeria Kravtsenko,Haabersti Vene Gümnaasium,10.a klass,21,Aljona Lеокина,
Aleksander Prokopjuk,Tartu Aleksandr Puškini Kool,9.b klass,20,Olga Kravtšenko,
Alice Kardin,Jüri Gümnaasium,10. klass,20,Luisa Pani,
Arabella Strazdin,Rakvere Reaalgümnaasium,10.a klass,20,Reeli Rump,
Artti Vain,Rakvere Reaalgümnaasium,10.b klass,20,Reeli Rump,
Brigitta Uibo,Nõo Reaalgümnaasium,10.b klass,20,Kerli Rööpson,
Darina Chudakova,Sillamäe Gümnaasium,10. klass,20,Juulia Devadze,
Eleriin Kala,Rakvere Reaalgümnaasium,10.a klass,20,Reeli Rump,
Elizabeth Sepp,Rakvere Reaalgümnaasium,10.a klass,20,Reeli Rump,
Geili Vesinurm,Rapla Ühisgümnaasium,10. klass,20,Kadri Laup,
Germo Rebane,Kambja Põhikool,9. klass,20,Mare Mõisa,
Kardo Sõukand,Kambja Põhikool,9. klass,20,Mare Mõisa,
Karmen Kärvet,Rakvere Reaalgümnaasium,10.a klass,20,Reeli Rump,
Karoliine Kivistik,Jüri Gümnaasium,10.a klass,20,Luisa Pani,
Kristo Vassiljev,Kambja Põhikool,9. klass,20,Mare Mõisa,
Laura Kartavina,Tallinna 53. Keskkool,9. klass,20,Jevgenia Tkatšova,
Melissa Toomeoks,Tõrva Gümnaasium,10.a klass,20,Katrin Kalamees,
Merit Üksvärav,Tõrva Gümnaasium,10.a klass,20,Katrin Kalamees,
Olaf Henrik Vaher,Pärnu Ülejõe Põhikool,9.b klass,20,Taimi Dreier,
Oliver Savolainen,Tallinna Reaalkool,10.c klass,20,Kailit Taliaru,
Oliver Varek,Rakvere Reaalgümnaasium,10.a klass,20,Reeli Rump,
Rainer Piil,Emmaste Põhikool,9. klass,20,Margus Sõmer,
Rasmus Kana,Kambja Põhikool,9. klass,20,Mare Mõisa,
Robin Kodasma,Pärnu Ülejõe Põhikool,9.b klass,20,Taimi Dreier,
Romet Ereline,Kambja Põhikool,9. klass,20,Mare Mõisa,
Triinu Liis Linkov,Jakob Westholmi Gümnaasium,9.b klass,20,Aet Mikli,
Victoria Piibemaa,Rakvere Reaalgümnaasium,10.a klass,20,Reeli Rump,
Vladimir Gamtak,Ehte Humanitaargümnaasium,9.c klass,20,Jevgenia Tkatšova,
Елена Старичкова,Ehte Humanitaargümnaasium,9.c klass,20,Jevgenia Tkatšova,
Anastasija Iljukovith,Tallinna Kesklinna Vene Gümnaasium,10.b klass,19,Julia Ratšinskaja,
Anett Kamarik,Rakvere Reaalgümnaasium,10.b klass,19,Reeli Rump,
Angela Häälme,Võru Gümnaasium,10. klass,19,Krista Kõlli-Raud,
Anna Maiorova,Tallinna Kesklinna Vene Gümnaasium,10.a klass,19,Julia Ratšinskaja,
Carlos Notreal,Jakob Westholmi Gümnaasium,9.c klass,19,Aet Mikli,
Dana Bagel,Haabersti Vene Gümnaasium,10.c klass,19,Aljona Lеокина,
David Pogossian,Tallinna Kesklinna Vene Gümnaasium,9. klass,19,Natalja Erte,
Erik Feldberg,Jakob Westholmi Gümnaasium,9.a klass,19,Aet Mikli,
Filipp Aronovits,Tallinna Juudi Kool,9. klass,19,Niina Botina,
Fred Penu,Jakob Westholmi Gümnaasium,9.a klass,19,Aet Mikli,
Georg Aints,Jakob Westholmi Gümnaasium,9.a klass,19,Aet Mikli,
Harry Lomp,Jüri Gümnaasium,10.a klass,19,Luisa Pani,
Igor Smirnov,Narva Kreenholmi Gümnaasium,9.a klass,19,Tatiana Saukova,
Janis Salumaa,Hiiumaa Gümnaasium,10. klass,19,Tõnu Soop,
Kaarel Kaarelson,Jakob Westholmi Gümnaasium,9.b klass,19,Aet Mikli,
Karina Stovman,Tallinna 53. Keskkool,9.e klass,19,Jevgenia Tkatšova,
Karl Sebastian Dremljuga,Võru Gümnaasium,10. klass,19,Krista Kõlli-Raud,
Konstantin Semjonov,Tapa Vene Põhikool,9.a klass,19,Jelena Jakovleva,
Kristjan Jõers,Jakob Westholmi Gümnaasium,9.b klass,19,Aet Mikli,
Liisi Sillamaa,Väike-Maarja Gümnaasium,9. klass,19,Liina Bork,
Mari-Liina Ruusmaa,Tallinna Kesklinna Vene Gümnaasium,9. klass,19,Natalja Erte,
Mark Eerik Lill,Jüri Gümnaasium,10.c klass,19,Luisa Pani,
Mark Morten Tammeveski,Hiiumaa Gümnaasium,10. klass,19,Tõnu Soop,
Markus Nahkur,Jüri Gümnaasium,10.a klass,19,Luisa Pani,
Matvei Andrejev,Narva Kreenholmi Gümnaasium,9.a klass,19,Tatiana Saukova,
Rene Koitjärv,Peetri Lasteaed-Põhikool,9.b klass,19,Signe Reidla,
Renet Einalo,Kambja Põhikool,9. klass,19,Mare Mõisa,
Robin Kare,Viljandi Gümnaasium,10. klass,19,Marika Anissimov,
Sandra Soome,Rakvere Reaalgümnaasium,10.b klass,19,Reeli Rump,
Saveli Naumov,Tallinna 53. Keskkool,9.a klass,19,Anna Surmai,
Sofia Sviridetskaya,Ehte Humanitaargümnaasium,10.a klass,19,Dmitri Mištšenko,
Stiina-Maris Paulus,Rakvere Reaalgümnaasium,10.b klass,19,Reeli Rump,
Toomas Trummal,Nõo Põhikool,9. klass,19,Katrin Kalamees,
Tõnis Põld,Rakvere Reaalgümnaasium,10.b klass,19,Reeli Rump,
Valeria Purask,Haabersti Vene Gümnaasium,10.c klass,19,Aljona Lеокина,
Valeria Ussik,Tartu Aleksandr Puškini Kool,9.b klass,19,Olga Kravtšenko,
Иван Троицкий,Tallinna Juudi Kool,9. klass,19,Niina Botina,
Aleksandra Solomykova,Haabersti Vene Gümnaasium,10.a klass,18,Aljona Lеокина,
Anastassia Ivanova,Narva Keeltelütseum,10.a klass,18,Valeria Nazarova,
Anita Ashihmina,Tallinna 53. Keskkool,9.b klass,18,Anna Surmai,
Anni Kärmik,Rakvere Reaalgümnaasium,10.a klass,18,Reeli Rump,
Arti Oad,Surju Põhikool,9. klass,18,Signe Reidla,
Dmitri Ionishkans,Ehte Humanitaargümnaasium,9.c klass,18,Jevgenia Tkatšova,
Evelyn Kala,Väike-Maarja Gümnaasium,9. klass,18,Liina Bork,
Joosep Joor,Väike-Maarja Gümnaasium,10. klass,18,Liina Bork,
Karl Pikner,Peetri Lasteaed-Põhikool,9.b klass,18,Signe Reidla,
Kerda Blank,Nõo Põhikool,9. klass,18,Katrin Kalamees,
Kirke-Merily Holm,Rakvere Reaalgümnaasium,10.b klass,18,Reeli Rump,
Martin Kiisla,Tallinna Kesklinna Vene Gümnaasium,10.a klass,18,Julia Ratšinskaja,
Märt Uibo,Võru Gümnaasium,10. klass,18,Krista Kõlli-Raud,
Tarvi Läll,Võru Gümnaasium,10. klass,18,Krista Kõlli-Raud,
Анастасия Фоменкова,Ehte Humanitaargümnaasium,9.c klass,18,Jevgenia Tkatšova,
Вероника Артюшина,Haabersti Vene Gümnaasium,10.a klass,18,Aljona Lеокина,
Aare Luhaäär,Väike-Maarja Gümnaasium,9. klass,17,Liina Bork,
Aleksander Laasmägi,Jakob Westholmi Gümnaasium,9.a klass,17,Aet Mikli,
Anastasiaj Selivjorstova,Tallinna Juudi Kool,10. klass,17,Niina Botina,
Anastasija Firsanova,Võru Gümnaasium,10. klass,17,Krista Kõlli-Raud,
Arina Bagdasarjan,Sillamäe Gümnaasium,10. klass,17,Juulia Devadze,
Artjom Ljuboženko,Ehte Humanitaargümnaasium,10.a klass,17,Dmitri Mištšenko,
Brigitta Bachfeldt,Rapla Ühisgümnaasium,10.a klass,17,Kadri Laup,
Carmen Kukk,Rapla Ühisgümnaasium,10.a klass,17,Kadri Laup,
Enriko Pajula,Surju Põhikool,9. klass,17,Signe Reidla,
Germo Mäenurm,Surju Põhikool,9. klass,17,Signe Reidla,
Helena Kastemäe,Peetri Lasteaed-Põhikool,9.a klass,17,Signe Reidla,
Ilja Kaloshin,Tallinna 53. Keskkool,9.d klass,17,Jevgenia Tkatšova,
Jandre Savenkov,Hiiumaa Gümnaasium,10. klass,17,Tõnu Soop,
Keven Abrenkov,Kambja Põhikool,9. klass,17,Mare Mõisa,
Laura Paulus,Võru Gümnaasium,10. klass,17,Krista Kõlli-Raud,
Maksim Kuyvanen,Tallinna 53. Keskkool,9.b klass,17,Anna Surmai,
Mattias Riivik,Võru Gümnaasium,10. klass,17,Krista Kõlli-Raud,
Polina Angelika Talts,Tallinna Kesklinna Vene Gümnaasium,10.b klass,17,Julia Ratšinskaja,
Roger Gryntal,Peetri Lasteaed-Põhikool,9.a klass,17,Signe Reidla,
Vladimir Aleksejenko,Tallinna 53. Keskkool,9.a klass,17,Anna Surmai,
Анастасия Тищенко,Haabersti Vene Gümnaasium,10.c klass,17,Aljona Lеокина,
Ангелина Афанасьева,Tallinna Kesklinna Vene Gümnaasium,10.a klass,17,Julia Ratšinskaja,
Дэниел Супрун,Tallinna 53. Keskkool,9.a klass,17,Anna Surmai,
Егор Бакунин,Narva Kreenholmi Gümnaasium,9.c klass,17,Tatiana Saukova,
Кристина Ценкман,Tallinna 53. Keskkool,9. klass,17,Jevgenia Tkatšova,
Aleksandr Konovalov,Tallinna 53. Keskkool,9.a klass,16,Anna Surmai,
Anastasiya Shevchenko,Tallinna 53. Keskkool,9.c klass,16,Anna Surmai,
Anton Sergejev,Ehte Humanitaargümnaasium,10.a klass,16,Dmitri Mištšenko,
Armo Zirk,Väike-Maarja Gümnaasium,9. klass,16,Liina Bork,
Indrek Niinemets,Väike-Maarja Gümnaasium,10. klass,16,Liina Bork,
Jekaterina Tsernohh,Tallinna 53. Keskkool,9. klass,16,Jevgenia Tkatšova,
Kaja Borissovski,Ehte Humanitaargümnaasium,9.c klass,16,Jevgenia Tkatšova,
Karl Georg Mumm,Viljandi Gümnaasium,10. klass,16,Marika Anissimov,
Karmen Kauss,Võru Gümnaasium,10. klass,16,Krista Kõlli-Raud,
Karmen King,Väike-Maarja Gümnaasium,10. klass,16,Liina Bork,
Kristel Sööt,Rakvere Reaalgümnaasium,10.c klass,16,Reeli Rump,
Kristjan Kilk,Väike-Maarja Gümnaasium,9. klass,16,Liina Bork,
Leonid Rõbakov,Sillamäe Gümnaasium,10. klass,16,Juulia Devadze,
Maria Meidla,Kiltsi Põhikool,9. klass,16,Kati Kümnik,
Olesya Samsonova,Tallinna 53. Keskkool,9.e klass,16,Jevgenia Tkatšova,
Olga Vanjukova,Tartu Aleksandr Puškini Kool,9.b klass,16,Olga Kravtšenko,
Sofia Podgornaja,Tallinna 53. Keskkool,9.e klass,16,Jevgenia Tkatšova,
Sofja Moskovtseva,Ehte Humanitaargümnaasium,10.a klass,16,Dmitri Mištšenko,
Stiven Iwory Towers Co,Tallinna 53. Keskkool,9.c klass,16,Anna Surmai,
Илья Обухов,Tallinna 53. Keskkool,9.c klass,16,Anna Surmai,
Полина Мина,Tallinna Kesklinna Vene Gümnaasium,10.a klass,16,Julia Ratšinskaja,
Aleksei Danilov,Haabersti Vene Gümnaasium,10.a klass,15,Niina Botina,
Anette Kivistu,Peetri Lasteaed-Põhikool,9.a klass,15,Signe Reidla,
Anette-Emilie Küttim,Jakob Westholmi Gümnaasium,9.b klass,15,Aet Mikli,
Anita Luik,Jakob Westholmi Gümnaasium,9.c klass,15,Aet Mikli,
Anna Lekstedt,Jüri Gümnaasium,10. klass,15,Luisa Pani,
Anna-Maria Novak,Tallinna Kesklinna Vene Gümnaasium,10.c klass,15,Julia Ratšinskaja,
Artjom Tsaloi,Sillamäe Gümnaasium,10. klass,15,Juulia Devadze,
Christopher Robin Starkopf,Jakob Westholmi Gümnaasium,9.c klass,15,Aet Mikli,
David Koverda,Tapa Vene Põhikool,9.a klass,15,Jelena Jakovleva,
Georg Salomon,Jakob Westholmi Gümnaasium,9.c klass,15,Aet Mikli,
Gregori Nõmm,Jüri Gümnaasium,10.c klass,15,Luisa Pani,
Ilona Malakhova,Tallinna 53. Keskkool,9.d klass,15,Jevgenia Tkatšova,
Inna Zvonova,Ehte Humanitaargümnaasium,9.c klass,15,Jevgenia Tkatšova,
Ivan Kovaljov,Sillamäe Gümnaasium,10. klass,15,Juulia Devadze,
Jaane Joosepson,Ilmatsalu Põhikool,9. klass,15,Joosep Norma,
Jan Märten Ratas,Rapla Ühisgümnaasium,10. klass,15,Kadri Laup,
Janar Ilves,Võru Gümnaasium,10. klass,15,Krista Kõlli-Raud,
Kertu Blank,Nõo Põhikool,9. klass,15,Katrin Kalamees,
Kirill Šatilov,Narva Kreenholmi Gümnaasium,9.c klass,15,Tatiana Saukova,
Kirke Nilus,Jüri Gümnaasium,10.b klass,15,Luisa Pani,
Laura Näkk,Kambja Põhikool,9. klass,15,Mare Mõisa,
Marcel Malsroos-Väli,Jüri Gümnaasium,10.a klass,15,Luisa Pani,
Mariana Kübe,Kambja Põhikool,9. klass,15,Mare Mõisa,
Marija Smagarinskaja,Tallinna Juudi Kool,10. klass,15,Niina Botina,
Mark Vinogradov,Tallinna 53. Keskkool,9.b klass,15,Anna Surmai,
Marten Kddr,Jüri Gümnaasium,10.b klass,15,Luisa Pani,
Mihhail Pchela,Ehte Humanitaargümnaasium,9.c klass,15,Jevgenia Tkatšova,
Nikita Franko,Ehte Humanitaargümnaasium,10.a klass,15,Dmitri Mištšenko,
Nikolay Dorofeev,Sillamäe Gümnaasium,10. klass,15,Juulia Devadze,
Rasmus Roosleht,Pärnu Ülejõe Põhikool,9.a klass,15,Taimi Dreier,
Rassel Muru,Tallinna 53. Keskkool,9. klass,15,Jevgenia Tkatšova,
Reti Safin,Jakob Westholmi Gümnaasium,9.c klass,15,Aet Mikli,
Ruslan Klinkov,Haabersti Vene Gümnaasium,10.a klass,15,Aljona Lеокина,
Sofia Krasowska,Tallinna 53. Keskkool,9.a klass,15,Anna Surmai,
Triinu Põlismäe,Peetri Lasteaed-Põhikool,9.b klass,15,Signe Reidla,
Valeria Vasilieva,Haabersti Vene Gümnaasium,10.a klass,15,Niina Botina,
Villem Vannik,Jakob Westholmi Gümnaasium,9.b klass,15,Aet Mikli,
Александра Петрова,Sillamäe Gümnaasium,10. klass,15,Juulia Devadze,
Денис Жариков,Tallinna 53. Keskkool,9.c klass,15,Anna Surmai,
Эрик Уйба,Tallinna 53. Keskkool,9.c klass,15,Anna Surmai,
Armen Movsisyan,Tallinna Kesklinna Vene Gümnaasium,10.b klass,14,Julia Ratšinskaja,
Henri Pirksaar,Peetri Lasteaed-Põhikool,9.a klass,14,Signe Reidla,
Mari Maasikas,Jakob Westholmi Gümnaasium,9.a klass,14,Aet Mikli,
Sofiko Tabatadze,Tallinna 53. Keskkool,9.b klass,14,Anna Surmai,
Анатолий Сидоров,Tallinna 53. Keskkool,9.c klass,14,Anna Surmai,
Angelina Tsvetkova,Sillamäe Gümnaasium,10. klass,13,Juulia Devadze,
Anna Kalinina,Tallinna Juudi Kool,10. klass,13,Niina Botina,
Eliis Mätas,Väike-Maarja Gümnaasium,9. klass,13,Liina Bork,
Elizaveta Fjodorova,Ehte Humanitaargümnaasium,10.a klass,13,Dmitri Mištšenko,
Ernest Moltsanov,Haabersti Vene Gümnaasium,10.c klass,13,Aljona Lеокина,
Ervin Nõmmik,Võru Gümnaasium,10. klass,13,Krista Kõlli-Raud,
Katerina Foust,Haabersti Vene Gümnaasium,10.c klass,13,Aljona Lеокина,
Maria Vishnyakova,Sakala Eragümnaasium,10. klass,13,Rita Izjumskaja,
Martin Zukov,Tallinna 53. Keskkool,9.b klass,13,Anna Surmai,
Sander Pabo,Tallinna Juudi Kool,10. klass,13,Niina Botina,
Sten-Erik Priskus,Jüri Gümnaasium,10.b klass,13,Luisa Pani,
Thor Erik Tikand,Gustav Adolfi Gümnaasium,9.b klass,13,Auli Reitel,
Михаил Соловьёв,Ehte Humanitaargümnaasium,9.c klass,13,Jevgenia Tkatšova,
Эдгар Мотягов,Narva Kreenholmi Gümnaasium,9.c klass,13,Tatiana Saukova,
Alissa Tšervjakova,Haabersti Vene Gümnaasium,10.a klass,12,Niina Botina,
Andrei Tralman,Tallinna 53. Keskkool,9.b klass,12,Anna Surmai,
Brigitta Saueauk,Jakob Westholmi Gümnaasium,9.c klass,12,Aet Mikli,
Daniil Uibo,Tallinna Kesklinna Vene Gümnaasium,10.a klass,12,Julia Ratšinskaja,
Emma Laansalu,Väike-Maarja Gümnaasium,9. klass,12,Liina Bork,
Gregori Kuuse,Hiiumaa Gümnaasium,10. klass,12,Tõnu Soop,
Grete Lill,Jakob Westholmi Gümnaasium,9.c klass,12,Aet Mikli,
Iris Kera,Nõo Põhikool,9. klass,12,Katrin Kalamees,
Liisi Lillevald,Nõo Põhikool,9. klass,12,Katrin Kalamees,
Matilde-Marie Loorits,Rakvere Reaalgümnaasium,10.a klass,12,Reeli Rump,
Tairi Tali,Rapla Ühisgümnaasium,10.a klass,12,Kadri Laup,
Даниил Теницкий,Haabersti Vene Gümnaasium,10.c klass,12,Aljona Lеокина,
Angelina Sahnovskaja,Haabersti Vene Gümnaasium,10.a klass,11,Aljona Lеокина,
Anna Fateeva,Haabersti Vene Gümnaasium,10.a klass,11,Niina Botina,
Dmitri Shibin,Haabersti Vene Gümnaasium,10.a klass,11,Aljona Lеокина,
Doris Voevodin,Jüri Gümnaasium,10.c klass,11,Luisa Pani,
Erik Hein,Jüri Gümnaasium,10.b klass,11,Luisa Pani,
Hanna-Liisa Znamenskaja,Jüri Gümnaasium,10.b klass,11,Luisa Pani,
Helene Uusallik,Rapla Ühisgümnaasium,10.a klass,11,Kadri Laup,
Janelle Kuusemets,Rakvere Reaalgümnaasium,10.a klass,11,Reeli Rump,
Karina Zujeva,Haabersti Vene Gümnaasium,10.a klass,11,Niina Botina,
Kelly Tennosaar,Nõo Põhikool,9. klass,11,Katrin Kalamees,
Kevin Pedras,Võru Gümnaasium,10. klass,11,Krista Kõlli-Raud,
Mariann-Doris Tuisk,Jakob Westholmi Gümnaasium,9.b klass,11,Aet Mikli,
Marlin Kohtring,Jüri Gümnaasium,10.c klass,11,Luisa Pani,
Mia Marjette Meldo,Jüri Gümnaasium,10.c klass,11,Luisa Pani,
Mia Piir,Jakob Westholmi Gümnaasium,9.a klass,11,Aet Mikli,
Michel Mae,Tallinna 53. Keskkool,9.c klass,11,Anna Surmai,
Oliver Orgmets,Jüri Gümnaasium,10.b klass,11,Luisa Pani,
Oliver Siem,Jüri Gümnaasium,10. klass,11,Luisa Pani,
Pirgt Õun,Rakvere Reaalgümnaasium,10.b klass,11,Reeli Rump,
Raul Niglas,Jakob Westholmi Gümnaasium,9.b klass,11,Aet Mikli,
Taner Salmann,Nõo Põhikool,9. klass,11,Katrin Kalamees,
Tatjana Beltšenkova,Ehte Humanitaargümnaasium,10.a klass,11,Dmitri Mištšenko,
Triine Ilves,Jüri Gümnaasium,10.b klass,11,Luisa Pani,
Valerija Katõsheva,Haabersti Vene Gümnaasium,10.a klass,11,Aljona Lеокина,
Vanessa Vahtel,Nõo Põhikool,9. klass,11,Katrin Kalamees,
Violetta Stupnikova,Sillamäe Gümnaasium,10. klass,11,Juulia Devadze,
Vytas Kilinskas,Tallinna 53. Keskkool,9.c klass,11,Anna Surmai,
Ангелина Щербачевич,Haabersti Vene Gümnaasium,10.c klass,11,Aljona Lеокина,
Артём Биндасов,Haabersti Vene Gümnaasium,10.c klass,11,Aljona Lеокина,
Кирилл Бурмистров,Tartu Aleksandr Puškini Kool,9.b klass,11,Olga Kravtšenko,
Эля Ищук,Tallinna Kesklinna Vene Gümnaasium,10.a klass,11,Julia Ratšinskaja,
Artur Zelenets,Ehte Humanitaargümnaasium,10.a klass,10,Dmitri Mištšenko,
Daniil Sotsugov,Tallinna Juudi Kool,9. klass,10,Niina Botina,
Elina Lazareva,Haabersti Vene Gümnaasium,10.c klass,10,Aljona Lеокина,
Jana Unru,Haabersti Vene Gümnaasium,10.a klass,10,Niina Botina,
Kailiki Siim,Rakvere Reaalgümnaasium,10.a klass,10,Reeli Rump,
Kristjan Gutmann,Rakvere Reaalgümnaasium,10.a klass,10,Reeli Rump,
Mathias Albrecht,Rakvere Reaalgümnaasium,10.a klass,10,Reeli Rump,
Sofia Iushyna,Sakala Eragümnaasium,9. klass,10,Rita Izjumskaja,
Aleksei Prisvitsin,Sillamäe Gümnaasium,10. klass,9,Juulia Devadze,
Merg Stolin,Tallinna Juudi Kool,9. klass,9,Niina Botina,
Taavi Taavi,Jakob Westholmi Gümnaasium,9.a klass,9,Aet Mikli,
Helen Mändma,Tootsi Lasteaed-Põhikool,9. klass,8,Käde Reinthal,
Artur Blitsõn,Haabersti Vene Gümnaasium,10.a klass,7,Aljona Lеокина,
Daniel Kekkonen,Tallinna 53. Keskkool,9.a klass,7,Anna Surmai,
Monika Bagel,Haabersti Vene Gümnaasium,10.c klass,7,Aljona Lеокина,
Ronald Matvienko,Tallinna Juudi Kool,9. klass,7,Niina Botina,
Sander Kallip,Jakob Westholmi Gümnaasium,9.a klass,7,Aet Mikli,
Svetlana Isanina,Tartu Aleksandr Puškini Kool,9.b klass,7,Olga Kravtšenko,
Nicole Bobrikova,Tallinna 53. Keskkool,9.b klass,6,Anna Surmai,
Анастасия Носанова,Tartu Aleksandr Puškini Kool,9.b klass,6,Olga Kravtšenko,
Tian Tian,Tallinna Kesklinna Vene Gümnaasium,10.b klass,4,Julia Ratšinskaja,
Jens Marten Liivak,Jüri Gümnaasium,10.b klass,3,Luisa Pani,
Aimepille Luik,Kiltsi Põhikool,9. klass,2,Kati Kümnik,
