<?xml version="1.0" encoding="utf-8"?>
<svg viewBox="0 0 288 178" xmlns="http://www.w3.org/2000/svg" xmlns:bx="https://boxy-svg.com">
  <defs>
    <bx:grid x="0" y="0" width="16" height="16"/>
    <marker id="marker-0" viewBox="0 0 64 64" overflow="visible" orient="auto" refX="64" refY="32" markerWidth="4" markerHeight="4" bx:pinned="true">
      <path d="M 32 0 L 64 64 L 0 64 L 32 0 Z" style="fill: rgb(112, 112, 112); stroke: rgb(112, 112, 112);" transform="matrix(0, 1, -1, 0, 64, 0)" bx:shape="triangle 0 0 64 64 0.5 0 1@f6294ff5"/>
    </marker>
  </defs>
  <g transform="matrix(1, 0, 0, 1, -43.98, -73.848106)">
    <circle style="stroke-width: 2px; fill: rgb(247, 244, 177); stroke: rgb(112, 112, 112);" cx="59.98" cy="171.83" r="16"/>
    <text style="fill: rgb(51, 51, 51); font-family: Arial; font-size: 20px; stroke: rgb(112, 112, 112); white-space: pre;" x="54.42" y="178.77">1</text>
  </g>
  <g transform="matrix(1, 0, 0, 1, -49.410004, -94.778099)">
    <circle style="stroke-width: 2px; fill: rgb(247, 244, 177); stroke: rgb(112, 112, 112);" cx="129.41" cy="192.76" r="16"/>
    <text style="fill: rgb(51, 51, 51); font-family: Arial; font-size: 20px; stroke: rgb(112, 112, 112); white-space: pre;" x="123.85" y="199.7">6</text>
  </g>
  <g transform="matrix(1, 0, 0, 1, -49.330002, -85.568108)">
    <circle style="stroke-width: 2px; fill: rgb(247, 244, 177); stroke: rgb(112, 112, 112);" cx="129.33" cy="119.55" r="16"/>
    <text style="fill: rgb(51, 51, 51); font-family: Arial; font-size: 20px; stroke: rgb(112, 112, 112); white-space: pre;" x="123.77" y="126.49">2</text>
  </g>
  <g transform="matrix(1, 0, 0, 1, -35.800003, -96.118111)">
    <circle style="stroke-width: 2px; fill: rgb(247, 244, 177); stroke: rgb(112, 112, 112);" cx="131.8" cy="258.1" r="16"/>
    <text style="fill: rgb(51, 51, 51); font-family: Arial; font-size: 20px; stroke: rgb(112, 112, 112); white-space: pre;" x="126.24" y="265.04">0</text>
  </g>
  <g transform="matrix(1, 0, 0, 1, -56.270004, -84.818108)">
    <circle style="stroke-width: 2px; fill: rgb(247, 244, 177); stroke: rgb(112, 112, 112);" cx="200.27" cy="118.8" r="16"/>
    <text style="fill: rgb(51, 51, 51); font-family: Arial; font-size: 20px; stroke: rgb(112, 112, 112); white-space: pre;" x="194.71" y="125.74">3</text>
  </g>
  <g transform="matrix(1, 0, 0, 1, -76.459991, -83.378105)">
    <circle style="stroke-width: 2px; fill: rgb(247, 244, 177); stroke: rgb(112, 112, 112);" cx="284.46" cy="117.36" r="16"/>
    <text style="fill: rgb(51, 51, 51); font-family: Arial; font-size: 20px; stroke: rgb(112, 112, 112); white-space: pre;" x="278.9" y="124.3">4</text>
  </g>
  <g transform="matrix(1, 0, 0, 1, -48.339996, -104.558098)">
    <circle style="stroke-width: 2px; fill: rgb(247, 244, 177); stroke: rgb(112, 112, 112);" cx="192.34" cy="202.54" r="16"/>
    <text style="fill: rgb(51, 51, 51); font-family: Arial; font-size: 20px; stroke: rgb(112, 112, 112); white-space: pre;" x="186.78" y="209.48">5</text>
  </g>
  <g transform="matrix(1, 0, 0, 1, -60, -104.348106)">
    <circle style="stroke-width: 2px; fill: rgb(247, 244, 177); stroke: rgb(112, 112, 112);" cx="268" cy="202.33" r="16"/>
    <text style="fill: rgb(51, 51, 51); font-family: Arial; font-size: 20px; stroke: rgb(112, 112, 112); white-space: pre;" x="262.44" y="209.27">7</text>
  </g>
  <g transform="matrix(1, 0, 0, 1, -62.240005, -120.898109)">
    <circle style="stroke-width: 2px; fill: rgb(247, 244, 177); stroke: rgb(112, 112, 112);" cx="238.24" cy="282.88" r="16"/>
    <text style="fill: rgb(51, 51, 51); font-family: Arial; font-size: 20px; stroke: rgb(112, 112, 112); white-space: pre;" x="232.68" y="289.82">9</text>
  </g>
  <g transform="matrix(1, 0, 0, 1, -76.540009, -102.198097)">
    <circle style="stroke-width: 2px; fill: rgb(247, 244, 177); stroke: rgb(112, 112, 112);" cx="348.54" cy="200.18" r="16"/>
    <text style="fill: rgb(51, 51, 51); font-family: Arial; font-size: 20px; stroke: rgb(112, 112, 112); white-space: pre;" x="342.98" y="207.12">8</text>
  </g>
  <line style="fill: rgb(216, 216, 216); marker-end: url(#marker-0); stroke-width: 2px; stroke: rgb(112, 112, 112);" x1="32.76" y1="97.71" x2="64" y2="33.98"/>
  <line style="fill: rgb(216, 216, 216); stroke-width: 2px; marker-end: url(#marker-0); stroke: rgb(112, 112, 112);" x1="32" y1="97.98" x2="64" y2="97.98"/>
  <line style="fill: rgb(216, 216, 216); stroke-width: 2px; marker-end: url(#marker-0); stroke: rgb(112, 112, 112);" x1="97" y1="33.98" x2="128" y2="33.98"/>
  <line style="fill: rgb(216, 216, 216); stroke-width: 2px; marker-end: url(#marker-0); stroke: rgb(112, 112, 112);" x1="161.4" y1="33.98" x2="192" y2="33.98"/>
  <line style="fill: rgb(216, 216, 216); stroke-width: 2px; marker-end: url(#marker-0); stroke: rgb(112, 112, 112);" x1="32" y1="97.98" x2="80" y2="161.98"/>
  <line style="fill: rgb(216, 216, 216); stroke-width: 2px; marker-end: url(#marker-0); stroke: rgb(112, 112, 112);" x1="112" y1="161.98" x2="160" y2="161.98"/>
  <line style="fill: rgb(216, 216, 216); stroke-width: 2px; marker-end: url(#marker-0); stroke: rgb(112, 112, 112);" x1="96" y1="97.98" x2="128" y2="97.98"/>
  <line style="fill: rgb(216, 216, 216); stroke-width: 2px; marker-end: url(#marker-0); stroke: rgb(112, 112, 112);" x1="160" y1="97.98" x2="192" y2="97.98"/>
  <polyline style="fill: rgb(216, 216, 216); stroke-width: 2px; marker-end: url(#marker-0); stroke: rgb(112, 112, 112);" points="224.52 97.98 224 98.08 256 98.08"/>
  <line style="fill: rgb(216, 216, 216); marker-end: url(#marker-0); stroke-width: 2px; stroke: rgb(112, 112, 112);" x1="143.74" y1="50.5" x2="144" y2="81.98"/>
  <line style="fill: rgb(216, 216, 216); stroke-width: 2px; marker-end: url(#marker-0); stroke: rgb(112, 112, 112);" x1="176" y1="145.98" x2="208" y2="113.98"/>
  <text style="fill: rgb(238, 0, 0); font-family: Arial; font-size: 16px; font-weight: 700; white-space: pre;" x="7.1" y="78.51">1</text>
  <text style="fill: rgb(238, 0, 0); font-family: Arial; font-size: 16px; font-weight: 700; white-space: pre;" x="80" y="144.48">2</text>
  <text style="fill: rgb(238, 0, 0); font-family: Arial; font-size: 16px; font-weight: 700; white-space: pre;" x="64" y="78.51">6</text>
  <text style="fill: rgb(238, 0, 0); font-family: Arial; font-size: 16px; font-weight: 700; white-space: pre;" x="64" y="14.51">3</text>
  <text style="fill: rgb(238, 0, 0); font-family: Arial; font-size: 16px; font-weight: 700; white-space: pre;" x="126.78" y="14.5">4</text>
  <text style="fill: rgb(238, 0, 0); font-family: Arial; font-size: 16px; font-weight: 700; white-space: pre;" x="119.1" y="80.48">7</text>
  <text style="fill: rgb(238, 0, 0); font-family: Arial; font-size: 16px; font-weight: 700; white-space: pre;" x="160" y="144.48">8</text>
  <text style="fill: rgb(238, 0, 0); font-family: Arial; font-size: 16px; font-weight: 700; white-space: pre;" x="192" y="80.48">9</text>
  <text style="fill: rgb(238, 0, 0); font-family: Arial; font-size: 16px; font-weight: 700; white-space: pre;" x="192" y="14.51">5</text>
  <text style="fill: rgb(238, 0, 0); font-family: Arial; font-size: 16px; font-weight: 700; white-space: pre;" x="256" y="78.51">10</text>
</svg>