<?xml version="1.0" encoding="UTF-8" standalone="no"?>
<svg
   xmlns:dc="http://purl.org/dc/elements/1.1/"
   xmlns:cc="http://creativecommons.org/ns#"
   xmlns:rdf="http://www.w3.org/1999/02/22-rdf-syntax-ns#"
   xmlns:svg="http://www.w3.org/2000/svg"
   xmlns="http://www.w3.org/2000/svg"
   xmlns:sodipodi="http://sodipodi.sourceforge.net/DTD/sodipodi-0.dtd"
   xmlns:inkscape="http://www.inkscape.org/namespaces/inkscape"
   width="31.795053mm"
   height="39.134602mm"
   viewBox="0 0 31.795053 39.134602"
   version="1.1"
   id="svg28024"
   inkscape:version="1.0.2 (e86c8708, 2021-01-15)"
   sodipodi:docname="4.svg">
  <defs
     id="defs28018" />
  <sodipodi:namedview
     id="base"
     pagecolor="#ffffff"
     bordercolor="#666666"
     borderopacity="1.0"
     inkscape:pageopacity="0.0"
     inkscape:pageshadow="2"
     inkscape:zoom="1"
     inkscape:cx="17.969417"
     inkscape:cy="111.43688"
     inkscape:document-units="mm"
     inkscape:current-layer="layer1"
     inkscape:document-rotation="0"
     showgrid="false"
     inkscape:window-width="934"
     inkscape:window-height="982"
     inkscape:window-x="0"
     inkscape:window-y="25"
     inkscape:window-maximized="0" />
  <metadata
     id="metadata28021">
    <rdf:RDF>
      <cc:Work
         rdf:about="">
        <dc:format>image/svg+xml</dc:format>
        <dc:type
           rdf:resource="http://purl.org/dc/dcmitype/StillImage" />
        <dc:title></dc:title>
      </cc:Work>
    </rdf:RDF>
  </metadata>
  <g
     inkscape:label="레이어 1"
     inkscape:groupmode="layer"
     id="layer1"
     transform="translate(-101.07893,-118.68232)">
    <g
       id="g27709"
       transform="translate(44.900985,8.8747379)">
      <path
         d="m 69.377896,139.80865 c 0.06085,0.006 0.138113,-0.12012 0.170392,-0.068 0.114035,0.18203 -0.01826,0.80301 0,1.02288 0.05715,0.68368 0.15584,1.36234 0.204788,2.04629 0.07329,1.02579 0.03466,2.05025 0.204522,3.06916 0.03122,0.18786 0.309034,1.1393 0.204523,1.29593 -0.0426,0.064 -1.876425,0.10557 -2.046022,0.13653 -2.165615,0.3937 -4.278313,1.64147 -6.479567,1.09114 -0.225293,-0.0564 -0.479187,-0.0423 -0.682069,-0.20452 -0.190447,-0.1524 -0.344541,-0.60299 -0.409231,-0.81862 -0.449607,-1.4986 1.008935,-2.52889 2.318887,-2.65986 1.213115,-0.12144 2.429669,0.0447 3.615002,0.34105 0.601928,0.15055 1.121569,0.36063 1.70524,0.47731 0.04974,0.0101 0.108215,0.11059 0.13626,0.0683 0.170921,-0.25612 0.02514,-0.99404 0.06826,-1.29593 0.143933,-1.0078 -0.0063,-2.14577 -0.204523,-3.13743 -0.06667,-0.33232 -0.277812,-0.94271 -0.136525,-1.29593 0.122502,-0.30639 1.09564,-0.0913 1.33006,-0.0683 z"
         fill="#e69628"
         fill-rule="evenodd"
         opacity="1"
         stroke="#000000"
         stroke-linecap="round"
         stroke-linejoin="round"
         stroke-width="0.79375"
         id="path19909"
         style="clip-rule:evenodd" />
      <path
         d="m 72.174278,139.74065 c -0.814652,0.43947 -0.37518,2.41353 -0.37518,3.27369 0,1.06707 -0.204522,2.12143 -0.204522,3.20569 0,0.1397 -0.03942,0.79878 0.13626,0.88662 0.153458,0.0767 0.576262,0.0434 0.750358,0.0683 0.695854,0.0995 1.347788,0.26353 2.046288,0.34105 1.604433,0.17833 3.591454,0.74692 4.978929,-0.40931 0.805921,-0.67151 1.444889,-2.81861 0.13626,-3.34195 -1.213114,-0.48525 -3.226329,0.19394 -4.365095,0.68209 -0.161396,0.0691 -1.907911,0.81968 -1.909763,0.81836 -0.114829,-0.0765 -0.06826,-1.63301 -0.06826,-1.8415 0,-0.95488 -0.132028,-1.85684 0.136525,-2.79638 0.04948,-0.17277 0.292364,-0.66913 0.06826,-0.81862 -0.225425,-0.15002 -1.066006,-0.21061 -1.33006,-0.068 z"
         fill="#e69628"
         fill-rule="evenodd"
         opacity="1"
         stroke="#000000"
         stroke-linecap="round"
         stroke-linejoin="round"
         stroke-width="0.79375"
         id="path19911"
         style="clip-rule:evenodd" />
      <path
         d="m 61.159092,148.26632 c -0.326682,-0.65352 0.881221,-1.15676 1.295982,-1.36419"
         fill="#f1c94c"
         fill-opacity="0.0135135"
         fill-rule="evenodd"
         opacity="1"
         stroke="#000000"
         stroke-linecap="round"
         stroke-linejoin="round"
         stroke-width="0.79375"
         id="path19913"
         style="clip-rule:evenodd" />
      <path
         d="m 79.574673,146.49282 c 0,-0.62468 -0.655637,-1.15941 -1.295929,-1.15941"
         fill="#f1c94c"
         fill-opacity="0.0135135"
         fill-rule="evenodd"
         opacity="1"
         stroke="#000000"
         stroke-linecap="round"
         stroke-linejoin="round"
         stroke-width="0.79375"
         id="path19915"
         style="clip-rule:evenodd" />
      <path
         d="m 67.856542,129.25098 c -0.01058,-0.36195 -3.001168,1.1856 -3.619235,1.52003 -1.448329,0.78396 -1.870895,0.25241 -3.364336,0.0659 -0.181213,-0.0225 -0.55327,0.29131 -0.501994,0.49107 0.10414,0.40614 0.898022,0.56912 0.785971,0.94562 -0.03784,0.127 -0.208597,0.16669 -0.293423,0.26855 -0.463735,0.55695 -1.192159,1.84812 -1.059312,2.60218 0.102262,0.58076 0.812218,0.027 1.012481,-0.0542 0.986737,-0.40031 0.96602,-1.41261 1.727015,-1.9767 1.147233,-0.85064 2.88634,-0.95885 4.112154,-1.62243 0.296598,-0.16033 0.665956,-0.13705 0.959644,-0.3548 0.610658,-0.45271 0.26035,-1.2282 0.241035,-1.88516 z"
         fill="#e69628"
         fill-rule="evenodd"
         opacity="1"
         stroke="#000000"
         stroke-linecap="round"
         stroke-linejoin="round"
         stroke-width="0.79375"
         id="path19917"
         style="clip-rule:evenodd" />
      <path
         d="m 71.969755,129.73093 c 0.564091,-0.27252 1.021291,0.13177 1.602846,0.20453 0.861747,0.10768 1.727993,0.17674 2.591593,0.27278 0.621506,0.0691 1.189038,0.34105 1.841765,0.34105 0.34925,0 1.8923,-0.0775 1.97776,0.13653 0.399786,0.99933 -1.207029,0.7874 -1.500452,1.22766 -0.08017,0.12039 0.08149,0.21775 0.136525,0.27279 0.224631,0.22463 1.601523,2.02089 0.954881,2.18255 -1.087702,0.27199 -2.563548,-1.87907 -3.410479,-2.38707 -0.973931,-0.58447 -2.068248,-0.5723 -3.137429,-0.75036 -0.344487,-0.0574 -0.924719,0.15134 -1.227667,0 -0.443441,-0.22172 -0.14261,-1.34938 0.170657,-1.50046 z"
         fill="#e69628"
         fill-rule="evenodd"
         opacity="1"
         stroke="#000000"
         stroke-linecap="round"
         stroke-linejoin="round"
         stroke-width="0.79375"
         id="path19919"
         style="clip-rule:evenodd" />
      <path
         d="m 73.470207,138.35185 c 2.277268,-0.17462 4.849812,-1.00806 6.581775,-2.52359 1.110456,-0.97182 2.188633,-2.19578 3.478477,-2.93291 1.497277,-0.85566 3.296708,-0.61357 3.887787,1.15941 0.64135,1.92431 -0.763852,4.11083 -2.523596,4.91093 -2.457714,1.11707 -5.621072,0.88662 -8.252883,0.88662 -0.487627,0 -2.869671,-0.31063 -3.273954,-0.61384 -0.231775,-0.17383 -0.08943,-0.87206 0.102394,-0.88662 z"
         fill="#704306"
         fill-rule="evenodd"
         opacity="1"
         stroke="#000000"
         stroke-linecap="round"
         stroke-linejoin="round"
         stroke-width="0.79375"
         id="path19921"
         style="clip-rule:evenodd" />
      <path
         d="m 76.778028,138.10367 c 0.254,0.38074 0.6858,0.68898 0.886883,1.09115"
         fill="none"
         fill-rule="evenodd"
         opacity="1"
         stroke="#000000"
         stroke-linecap="round"
         stroke-linejoin="round"
         stroke-width="0.79375"
         id="path19923"
         style="clip-rule:evenodd" />
      <path
         d="m 79.165363,136.80775 c 0.432329,0.86465 1.413404,1.46288 1.8415,2.31907"
         fill="none"
         fill-rule="evenodd"
         opacity="1"
         stroke="#000000"
         stroke-linecap="round"
         stroke-linejoin="round"
         stroke-width="0.79375"
         id="path19925"
         style="clip-rule:evenodd" />
      <path
         d="m 81.143388,135.58008 c 1.335881,0 2.577835,1.47955 3.273689,2.52359"
         fill="none"
         fill-rule="evenodd"
         opacity="1"
         stroke="#000000"
         stroke-linecap="round"
         stroke-linejoin="round"
         stroke-width="0.79375"
         id="path19927"
         style="clip-rule:evenodd" />
      <path
         d="m 82.984888,133.46579 c 0.938742,0 2.876285,1.45548 3.273689,2.25055"
         fill="none"
         fill-rule="evenodd"
         opacity="1"
         stroke="#000000"
         stroke-linecap="round"
         stroke-linejoin="round"
         stroke-width="0.79375"
         id="path19929"
         style="clip-rule:evenodd" />
      <path
         d="m 85.440221,132.71543 c 0,1.95475 -0.189177,3.9251 -1.091406,5.72929"
         fill="none"
         fill-rule="evenodd"
         opacity="1"
         stroke="#000000"
         stroke-linecap="round"
         stroke-linejoin="round"
         stroke-width="0.79375"
         id="path19931"
         style="clip-rule:evenodd" />
      <path
         d="m 82.848363,133.80658 c 0,1.2147 -0.74004,4.3553 -1.568715,5.18371"
         fill="none"
         fill-rule="evenodd"
         opacity="1"
         stroke="#000000"
         stroke-linecap="round"
         stroke-linejoin="round"
         stroke-width="0.79375"
         id="path19933"
         style="clip-rule:evenodd" />
      <path
         d="m 80.120244,136.12565 c -0.501914,1.00356 -1.297252,2.29711 -2.25081,2.93291"
         fill="none"
         fill-rule="evenodd"
         opacity="1"
         stroke="#000000"
         stroke-linecap="round"
         stroke-linejoin="round"
         stroke-width="0.79375"
         id="path19935"
         style="clip-rule:evenodd" />
      <path
         d="m 67.083694,128.86178 c -0.186266,-0.0701 -0.275695,0.71755 -0.306916,0.92075 -0.157692,1.02447 -0.329936,2.03755 -0.409311,3.06917 -0.274902,3.57372 -1.153848,7.11623 3.205692,8.45767 3.251994,1.00065 5.802312,-1.92458 5.5245,-4.9792 -0.154252,-1.69677 -1.265238,-3.03292 -1.8415,-4.56962 -0.207698,-0.55377 -0.647965,-2.55772 -1.023144,-2.9329 -0.398992,-0.39926 -1.240896,-0.14552 -1.704975,-0.0683 -0.726017,0.12118 -2.790825,0.34846 -3.444346,0.1024 z"
         fill="#e69628"
         fill-rule="evenodd"
         opacity="1"
         stroke="#000000"
         stroke-linecap="round"
         stroke-linejoin="round"
         stroke-width="0.79375"
         id="path19937"
         style="clip-rule:evenodd" />
      <path
         d="m 75.804625,115.25849 c 0.302684,1.21391 1.353344,2.63737 2.449248,3.29486 1.508125,0.90487 2.307961,-3.20702 2.041261,-4.14047 -0.633148,-2.21641 -4.959615,-1.03505 -4.490509,0.84561 z"
         fill="#e69628"
         fill-rule="evenodd"
         opacity="1"
         stroke="#000000"
         stroke-linecap="round"
         stroke-linejoin="round"
         stroke-width="0.79375"
         id="path19939"
         style="clip-rule:evenodd" />
      <path
         d="m 62.916507,115.72495 c 0.370417,-0.17409 -2.316321,-1.91188 -2.91592,-1.837 -1.568,0.19606 -1.632903,1.67481 -1.632903,2.91597 0,0.4789 0.111866,1.00436 0.408226,1.39965 1.589273,2.11905 3.523774,-2.18837 4.140597,-2.47862 z"
         fill="#e69628"
         fill-rule="evenodd"
         opacity="1"
         stroke="#000000"
         stroke-linecap="round"
         stroke-linejoin="round"
         stroke-width="0.79375"
         id="path19941"
         style="clip-rule:evenodd" />
      <path
         d="m 76.958209,115.4982 c 0.634206,-0.6342 1.249098,-0.58314 2.099469,-0.58314"
         fill="#e6b728"
         fill-rule="evenodd"
         opacity="1"
         stroke="#000000"
         stroke-linecap="round"
         stroke-linejoin="round"
         stroke-width="0.79375"
         id="path19943"
         style="clip-rule:evenodd" />
      <path
         d="M 61.750118,116.86213 C 60.896149,116.43536 60.80828,116.1041 59.767304,116.1041"
         fill="none"
         fill-rule="evenodd"
         opacity="1"
         stroke="#000000"
         stroke-linecap="round"
         stroke-linejoin="round"
         stroke-width="0.79375"
         id="path19945"
         style="clip-rule:evenodd" />
      <path
         d="m 66.269836,121.14865 c 0.618331,-0.74269 3.889375,-0.68104 3.644635,0.78713 -0.441589,2.6498 -4.689739,0.46752 -3.644635,-0.78713 z"
         fill="#070400"
         fill-rule="evenodd"
         opacity="1"
         stroke="#000000"
         stroke-linecap="round"
         stroke-linejoin="round"
         stroke-width="0.79375"
         id="path19947"
         style="clip-rule:evenodd" />
      <path
         d="m 66.398953,120.29166 c -0.261144,0 0.27596,-0.0307 0.347662,-0.0407 0.383646,-0.055 0.753534,-0.082 1.145117,-0.082 0.931069,0 2.689225,-0.037 2.085446,1.47241 -0.360098,0.90011 -1.864784,1.7145 -2.780771,1.10411 -0.497946,-0.33206 -1.086115,-1.11919 -1.185863,-1.71768 -0.03413,-0.20479 -0.05979,-0.62918 0.204523,-0.69506 0.01667,-0.004 0.373063,-0.041 0.183886,-0.041 z"
         fill="#000000"
         fill-rule="evenodd"
         opacity="1"
         stroke="#000000"
         stroke-linecap="round"
         stroke-linejoin="round"
         stroke-width="0.79375"
         id="path19949"
         style="clip-rule:evenodd" />
      <path
         d="m 56.574815,119.93103 c 1.095957,0.15717 4.544377,1.78144 4.885769,2.80697"
         fill="none"
         fill-rule="evenodd"
         opacity="1"
         stroke="#000000"
         stroke-linecap="round"
         stroke-linejoin="round"
         stroke-width="0.79375"
         id="path19951"
         style="clip-rule:evenodd" />
      <path
         d="m 76.54784,122.11517 c 0.645319,-1.0033 4.601104,-2.52492 5.795169,-2.22012"
         fill="none"
         fill-rule="evenodd"
         opacity="1"
         stroke="#000000"
         stroke-linecap="round"
         stroke-linejoin="round"
         stroke-width="0.79375"
         id="path19953"
         style="clip-rule:evenodd" />
      <path
         d="m 60.633735,124.81074 c -0.72226,-0.55721 -1.983608,-0.25797 -2.726452,0.0913 -0.174493,0.082 -1.071351,0.74851 -0.98335,0.76571"
         fill="none"
         fill-rule="evenodd"
         opacity="1"
         stroke="#000000"
         stroke-linecap="round"
         stroke-linejoin="round"
         stroke-width="0.79375"
         id="path19955"
         style="clip-rule:evenodd" />
      <path
         d="m 76.822213,124.1477 c -0.346075,0.049 0.793485,-0.313 0.862277,-0.32862 0.376767,-0.0857 0.670719,-0.13626 1.046956,-0.1897 1.569509,-0.22225 2.786857,0.0161 4.186238,0.68739"
         fill="none"
         fill-rule="evenodd"
         opacity="1"
         stroke="#000000"
         stroke-linecap="round"
         stroke-linejoin="round"
         stroke-width="0.79375"
         id="path19957"
         style="clip-rule:evenodd" />
      <g
         opacity="1"
         id="g19963"
         style="clip-rule:evenodd;fill-rule:nonzero;stroke-linecap:round;stroke-linejoin:round"
         transform="matrix(0.26458333,0,0,0.26458333,35.936151,2.2295509)">
        <path
           d="m 115.37,466.039 c -1.587,0.674 2.042,8.286 3.317,9.562 0.769,0.768 8.616,0.934 9.627,0.26 0.851,-0.567 1.249,-9.378 0.651,-9.497 -1.695,-0.339 -12.765,-0.678 -13.595,-0.325 z"
           fill="#fafaf9"
           fill-rule="evenodd"
           opacity="1"
           stroke="#000000"
           stroke-linecap="round"
           stroke-linejoin="round"
           stroke-width="3"
           id="path19959" />
        <path
           d="m 122.07,466.624 c 0,2.13 0.204,6.652 1.171,8.586"
           fill="#fafaf9"
           fill-rule="evenodd"
           opacity="1"
           stroke="#000000"
           stroke-linecap="round"
           stroke-linejoin="round"
           stroke-width="3"
           id="path19961" />
      </g>
      <path
         d="m 64.757742,124.33714 c 0.769938,0.91255 1.786467,1.40229 3.463925,1.42293 1.307306,0.0159 2.566723,-0.20744 3.660511,-1.23799"
         fill="#e69628"
         fill-rule="evenodd"
         opacity="1"
         stroke="#000000"
         stroke-linecap="round"
         stroke-linejoin="round"
         stroke-width="0.79375"
         id="path19965"
         style="clip-rule:evenodd" />
      <path
         d="m 67.748063,122.58639 c -0.04233,0.68554 0.02381,1.38166 0.07752,2.05343 0.01799,0.22331 0.274108,0.98531 0.311679,0.92049"
         fill="#e69628"
         fill-rule="evenodd"
         opacity="1"
         stroke="#000000"
         stroke-linecap="round"
         stroke-linejoin="round"
         stroke-width="0.79375"
         id="path19967"
         style="clip-rule:evenodd" />
      <path
         d="m 63.118913,118.73591 c 0,-0.32015 0.2667,-0.57997 0.595577,-0.57997 0.328877,0 0.595577,0.25982 0.595577,0.57997 0,0.32041 -0.2667,0.58023 -0.595577,0.58023 -0.328877,0 -0.595577,-0.25982 -0.595577,-0.58023 z"
         fill="#000000"
         fill-rule="evenodd"
         opacity="1"
         stroke="#000000"
         stroke-linecap="round"
         stroke-linejoin="round"
         stroke-width="0.79375"
         id="path19969"
         style="clip-rule:evenodd" />
      <path
         d="m 73.872903,118.84571 c 0,-0.32888 0.280723,-0.59558 0.627062,-0.59558 0.34634,0 0.627063,0.2667 0.627063,0.59558 0,0.32914 -0.280723,0.59584 -0.627063,0.59584 -0.346339,0 -0.627062,-0.2667 -0.627062,-0.59584 z"
         fill="#080500"
         fill-rule="evenodd"
         opacity="1"
         stroke="#000000"
         stroke-linecap="round"
         stroke-linejoin="round"
         stroke-width="0.79375"
         id="path19971"
         style="clip-rule:evenodd" />
      <path
         d="m 63.068642,118.48482 c 0,-0.14684 0.119063,-0.26591 0.265907,-0.26591 0.147108,0 0.26617,0.11907 0.26617,0.26591 0,0.14711 -0.119062,0.26617 -0.26617,0.26617 -0.146844,0 -0.265907,-0.11906 -0.265907,-0.26617 z"
         fill="#f4f4f3"
         fill-rule="evenodd"
         opacity="1"
         stroke="none"
         id="path19973"
         style="clip-rule:evenodd;stroke-width:0.264583;stroke-linecap:round;stroke-linejoin:round" />
      <path
         d="m 73.771832,118.51445 c 0,-0.13864 0.119327,-0.25135 0.266171,-0.25135 0.146843,0 0.26617,0.11271 0.26617,0.25135 0,0.13891 -0.119327,0.25136 -0.26617,0.25136 -0.146844,0 -0.266171,-0.11245 -0.266171,-0.25136 z"
         fill="#f4f4f3"
         fill-rule="evenodd"
         opacity="1"
         stroke="none"
         id="path19975"
         style="clip-rule:evenodd;stroke-width:0.264583;stroke-linecap:round;stroke-linejoin:round" />
      <path
         d="m 75.804625,115.25849 c 0.302684,1.21391 1.353344,2.63737 2.449248,3.29486 1.508125,0.90487 2.307961,-3.20702 2.041261,-4.14047 -0.633148,-2.21641 -4.959615,-1.03505 -4.490509,0.84561 z"
         fill="#e69628"
         fill-rule="evenodd"
         opacity="1"
         stroke="#000000"
         stroke-linecap="round"
         stroke-linejoin="round"
         stroke-width="0.79375"
         id="path19977"
         style="clip-rule:evenodd" />
      <path
         d="m 62.916507,115.72495 c 0.370417,-0.17409 -2.316321,-1.91188 -2.91592,-1.837 -1.568,0.19606 -1.632903,1.67481 -1.632903,2.91597 0,0.4789 0.111866,1.00436 0.408226,1.39965 1.589273,2.11905 3.523774,-2.18837 4.140597,-2.47862 z"
         fill="#e69628"
         fill-rule="evenodd"
         opacity="1"
         stroke="#000000"
         stroke-linecap="round"
         stroke-linejoin="round"
         stroke-width="0.79375"
         id="path19979"
         style="clip-rule:evenodd" />
      <path
         d="m 76.958209,115.4982 c 0.634206,-0.6342 1.249098,-0.58314 2.099469,-0.58314"
         fill="#e6b728"
         fill-rule="evenodd"
         opacity="1"
         stroke="#000000"
         stroke-linecap="round"
         stroke-linejoin="round"
         stroke-width="0.79375"
         id="path19981"
         style="clip-rule:evenodd" />
      <path
         d="M 61.750118,116.86213 C 60.896149,116.43536 60.80828,116.1041 59.767304,116.1041"
         fill="none"
         fill-rule="evenodd"
         opacity="1"
         stroke="#000000"
         stroke-linecap="round"
         stroke-linejoin="round"
         stroke-width="0.79375"
         id="path19983"
         style="clip-rule:evenodd" />
      <path
         d="m 66.269836,121.14865 c 0.618331,-0.74269 3.889375,-0.68104 3.644635,0.78713 -0.441589,2.6498 -4.689739,0.46752 -3.644635,-0.78713 z"
         fill="#070400"
         fill-rule="evenodd"
         opacity="1"
         stroke="#000000"
         stroke-linecap="round"
         stroke-linejoin="round"
         stroke-width="0.79375"
         id="path19985"
         style="clip-rule:evenodd" />
      <path
         d="m 69.578451,110.20918 c -0.484453,0.13282 -0.922867,1.57639 -1.072092,1.79943 -0.02778,0.004 -0.0553,0.0103 -0.08308,0.0151 -0.121973,-0.0659 -1.119188,-1.1266 -1.457061,-1.07792 -0.142081,0.0204 -0.03334,1.20677 -0.943768,1.79917 -0.08969,0.0582 -0.183621,0.1143 -0.294482,0.15928 -0.289983,0.14314 -0.579173,0.28231 -0.837935,0.44794 -3.275171,2.09576 -8.704633,10.25684 -5.103865,13.87739 1.687856,1.69731 7.099882,2.44211 9.259675,2.3802 2.356909,-0.0677 9.793288,0.49159 11.789569,-5.53059 1.054894,-3.18241 -2.334419,-8.38438 -4.69609,-10.0285 -0.624945,-0.43524 -1.456266,-0.98028 -2.544233,-1.41976 -0.805656,-0.75538 -1.002242,-1.59596 -0.898525,-1.88251 0.0071,-0.0198 0.215371,-0.39105 0.113242,-0.42518 -0.339725,-0.11377 -0.760413,0.16404 -1.177661,0.50112 -0.459316,0.37042 -0.915193,0.81624 -1.261004,0.90329 -0.472281,0.11879 -0.389731,-1.35202 -0.581289,-1.48035 -0.07223,-0.0484 -0.1397,-0.0577 -0.211402,-0.0381 z"
         fill="#e69628"
         fill-rule="evenodd"
         opacity="1"
         stroke="#000000"
         stroke-linecap="round"
         stroke-linejoin="round"
         stroke-width="0.79375"
         id="path19987"
         style="clip-rule:evenodd" />
      <path
         d="m 66.398953,120.29166 c -0.261144,0 0.27596,-0.0307 0.347662,-0.0407 0.383646,-0.055 0.753534,-0.082 1.145117,-0.082 0.931069,0 2.689225,-0.037 2.085446,1.47241 -0.360098,0.90011 -1.864784,1.7145 -2.780771,1.10411 -0.497946,-0.33206 -1.086115,-1.11919 -1.185863,-1.71768 -0.03413,-0.20479 -0.05979,-0.62918 0.204523,-0.69506 0.01667,-0.004 0.373063,-0.041 0.183886,-0.041 z"
         fill="#000000"
         fill-rule="evenodd"
         opacity="1"
         stroke="#000000"
         stroke-linecap="round"
         stroke-linejoin="round"
         stroke-width="0.79375"
         id="path19989"
         style="clip-rule:evenodd" />
      <path
         d="m 56.574815,119.93103 c 1.095957,0.15717 4.544377,1.78144 4.885769,2.80697"
         fill="none"
         fill-rule="evenodd"
         opacity="1"
         stroke="#000000"
         stroke-linecap="round"
         stroke-linejoin="round"
         stroke-width="0.79375"
         id="path19991"
         style="clip-rule:evenodd" />
      <path
         d="m 76.54784,122.11517 c 0.645319,-1.0033 4.601104,-2.52492 5.795169,-2.22012"
         fill="none"
         fill-rule="evenodd"
         opacity="1"
         stroke="#000000"
         stroke-linecap="round"
         stroke-linejoin="round"
         stroke-width="0.79375"
         id="path19993"
         style="clip-rule:evenodd" />
      <path
         d="m 60.633735,124.81074 c -0.72226,-0.55721 -1.983608,-0.25797 -2.726452,0.0913 -0.174493,0.082 -1.071351,0.74851 -0.98335,0.76571"
         fill="none"
         fill-rule="evenodd"
         opacity="1"
         stroke="#000000"
         stroke-linecap="round"
         stroke-linejoin="round"
         stroke-width="0.79375"
         id="path19995"
         style="clip-rule:evenodd" />
      <path
         d="m 76.822213,124.1477 c -0.346075,0.049 0.793485,-0.313 0.862277,-0.32862 0.376767,-0.0857 0.670719,-0.13626 1.046956,-0.1897 1.569509,-0.22225 2.786857,0.0161 4.186238,0.68739"
         fill="none"
         fill-rule="evenodd"
         opacity="1"
         stroke="#000000"
         stroke-linecap="round"
         stroke-linejoin="round"
         stroke-width="0.79375"
         id="path19997"
         style="clip-rule:evenodd" />
      <g
         opacity="1"
         id="g20003"
         style="clip-rule:evenodd;fill-rule:nonzero;stroke-linecap:round;stroke-linejoin:round"
         transform="matrix(0.26458333,0,0,0.26458333,35.936151,2.2295509)">
        <path
           d="m 115.37,466.039 c -1.587,0.674 2.042,8.286 3.317,9.562 0.769,0.768 8.616,0.934 9.627,0.26 0.851,-0.567 1.249,-9.378 0.651,-9.497 -1.695,-0.339 -12.765,-0.678 -13.595,-0.325 z"
           fill="#fafaf9"
           fill-rule="evenodd"
           opacity="1"
           stroke="#000000"
           stroke-linecap="round"
           stroke-linejoin="round"
           stroke-width="3"
           id="path19999" />
        <path
           d="m 122.07,466.624 c 0,2.13 0.204,6.652 1.171,8.586"
           fill="#fafaf9"
           fill-rule="evenodd"
           opacity="1"
           stroke="#000000"
           stroke-linecap="round"
           stroke-linejoin="round"
           stroke-width="3"
           id="path20001" />
      </g>
      <path
         d="m 64.757742,124.33714 c 0.769938,0.91255 1.786467,1.40229 3.463925,1.42293 1.307306,0.0159 2.566723,-0.20744 3.660511,-1.23799"
         fill="#e69628"
         fill-rule="evenodd"
         opacity="1"
         stroke="#000000"
         stroke-linecap="round"
         stroke-linejoin="round"
         stroke-width="0.79375"
         id="path20005"
         style="clip-rule:evenodd" />
      <path
         d="m 67.748063,122.58639 c -0.04233,0.68554 0.02381,1.38166 0.07752,2.05343 0.01799,0.22331 0.274108,0.98531 0.311679,0.92049"
         fill="#e69628"
         fill-rule="evenodd"
         opacity="1"
         stroke="#000000"
         stroke-linecap="round"
         stroke-linejoin="round"
         stroke-width="0.79375"
         id="path20007"
         style="clip-rule:evenodd" />
      <path
         d="m 63.118913,118.73591 c 0,-0.32015 0.2667,-0.57997 0.595577,-0.57997 0.328877,0 0.595577,0.25982 0.595577,0.57997 0,0.32041 -0.2667,0.58023 -0.595577,0.58023 -0.328877,0 -0.595577,-0.25982 -0.595577,-0.58023 z"
         fill="#000000"
         fill-rule="evenodd"
         opacity="1"
         stroke="#000000"
         stroke-linecap="round"
         stroke-linejoin="round"
         stroke-width="0.79375"
         id="path20009"
         style="clip-rule:evenodd" />
      <path
         d="m 73.872903,118.84571 c 0,-0.32888 0.280723,-0.59558 0.627062,-0.59558 0.34634,0 0.627063,0.2667 0.627063,0.59558 0,0.32914 -0.280723,0.59584 -0.627063,0.59584 -0.346339,0 -0.627062,-0.2667 -0.627062,-0.59584 z"
         fill="#080500"
         fill-rule="evenodd"
         opacity="1"
         stroke="#000000"
         stroke-linecap="round"
         stroke-linejoin="round"
         stroke-width="0.79375"
         id="path20011"
         style="clip-rule:evenodd" />
      <path
         d="m 63.068642,118.48482 c 0,-0.14684 0.119063,-0.26591 0.265907,-0.26591 0.147108,0 0.26617,0.11907 0.26617,0.26591 0,0.14711 -0.119062,0.26617 -0.26617,0.26617 -0.146844,0 -0.265907,-0.11906 -0.265907,-0.26617 z"
         fill="#f4f4f3"
         fill-rule="evenodd"
         opacity="1"
         stroke="none"
         id="path20013"
         style="clip-rule:evenodd;stroke-width:0.264583;stroke-linecap:round;stroke-linejoin:round" />
      <path
         d="m 73.771832,118.51445 c 0,-0.13864 0.119327,-0.25135 0.266171,-0.25135 0.146843,0 0.26617,0.11271 0.26617,0.25135 0,0.13891 -0.119327,0.25136 -0.26617,0.25136 -0.146844,0 -0.266171,-0.11245 -0.266171,-0.25136 z"
         fill="#f4f4f3"
         fill-rule="evenodd"
         opacity="1"
         stroke="none"
         id="path20015"
         style="clip-rule:evenodd;stroke-width:0.264583;stroke-linecap:round;stroke-linejoin:round" />
      <path
         d="m 67.749121,129.7648 c 0.06218,-0.002 0.10795,-0.10319 0.166953,-0.0836 0.0934,0.0312 -0.05556,0.195 -0.04154,0.29237 0.0381,0.26802 0.187854,0.5326 0.333904,0.75194 0.363008,0.54452 0.977635,0.83529 1.62904,0.83529 1.032668,0 1.025525,-1.12051 1.420018,-1.71238 0.04815,-0.072 0.85434,0.0836 1.002507,0.0836 1.07315,0 2.179637,0 3.257814,0 0.150813,0 0.975254,-0.13362 1.044046,-0.0418 0.06641,0.0884 -0.0053,2.55297 -0.08361,2.63129 -0.312738,0.31273 -1.377157,0.0336 -1.754188,-0.0418 -0.06085,-0.0122 -0.139171,-0.13917 -0.166952,-0.0836 -0.01984,0.0394 0.02196,0.086 0.0418,0.12542 0.242623,0.48524 0.523611,0.97604 0.793486,1.46182 0.246856,0.44397 1.302543,2.82443 1.08585,3.25781 -0.316442,0.63315 -1.053042,0.96414 -1.670579,1.21127 -0.514615,0.20584 -1.028436,0.43259 -1.545432,0.62626 -2.017977,0.75671 -4.732602,0.653 -6.849533,0.41778 -0.281517,-0.0312 -1.634067,-0.20029 -1.754187,-0.50112 -0.06218,-0.15505 0.06747,-0.46778 0.08334,-0.62653 0.132292,-1.32186 0.423069,-2.59213 0.710142,-3.88435 0.05688,-0.25638 0.463285,-1.16364 0.292365,-1.42002 -0.06826,-0.10266 -1.408907,0.49689 -1.545432,0.29236 -0.178858,-0.26855 -0.0889,-0.8083 -0.208756,-1.12765 -0.08731,-0.23257 -0.511969,-2.24843 -0.375973,-2.33892 0.265113,-0.177 0.818356,0.01 1.127654,-0.0418 0.993775,-0.16563 1.997075,-0.0572 3.007254,-0.0836 z"
         fill="#fde800"
         fill-rule="evenodd"
         opacity="1"
         stroke="#000000"
         stroke-linecap="round"
         stroke-linejoin="round"
         stroke-width="0.79375"
         id="path20574"
         style="clip-rule:evenodd" />
      <path
         d="m 70.662978,133.78038 c -0.695061,-1.39038 -2.470679,0.23733 -2.709069,1.11152 -0.849577,3.11414 2.231496,4.28969 3.612356,1.52823"
         fill="none"
         fill-rule="evenodd"
         opacity="1"
         stroke="#020003"
         stroke-linecap="round"
         stroke-linejoin="round"
         stroke-width="1.5875"
         id="path20595"
         style="clip-rule:evenodd" />
      <path
         d="m 70.662978,133.78038 c -0.695061,-1.39038 -2.470679,0.23733 -2.709069,1.11152 -0.849577,3.11414 2.231496,4.28969 3.612356,1.52823"
         fill="none"
         fill-rule="evenodd"
         opacity="1"
         stroke="#fefdff"
         stroke-linecap="round"
         stroke-linejoin="round"
         stroke-width="0.79375"
         id="path20628"
         style="clip-rule:evenodd" />
    </g>
  </g>
</svg>
