<?xml version="1.0" encoding="UTF-8" standalone="no"?>
<!-- Created with Inkscape (http://www.inkscape.org/) -->

<svg
   width="7.9851251mm"
   height="9.2220316mm"
   viewBox="0 0 7.9851251 9.2220316"
   version="1.1"
   id="svg4018"
   inkscape:version="1.1.2 (0a00cf5339, 2022-02-04)"
   sodipodi:docname="yellow.svg"
   xmlns:inkscape="http://www.inkscape.org/namespaces/inkscape"
   xmlns:sodipodi="http://sodipodi.sourceforge.net/DTD/sodipodi-0.dtd"
   xmlns="http://www.w3.org/2000/svg"
   xmlns:svg="http://www.w3.org/2000/svg">
  <sodipodi:namedview
     id="namedview4020"
     pagecolor="#ffffff"
     bordercolor="#666666"
     borderopacity="1.0"
     inkscape:pageshadow="2"
     inkscape:pageopacity="0.0"
     inkscape:pagecheckerboard="0"
     inkscape:document-units="mm"
     showgrid="false"
     fit-margin-top="0"
     fit-margin-left="0"
     fit-margin-right="0"
     fit-margin-bottom="0"
     inkscape:zoom="6.0150393"
     inkscape:cx="32.501866"
     inkscape:cy="17.53937"
     inkscape:window-width="1920"
     inkscape:window-height="1016"
     inkscape:window-x="0"
     inkscape:window-y="27"
     inkscape:window-maximized="1"
     inkscape:current-layer="layer1" />
  <defs
     id="defs4015" />
  <g
     inkscape:label="Layer 1"
     inkscape:groupmode="layer"
     id="layer1"
     transform="translate(-50.903172,-110.10699)">
    <g
       id="g1244-6"
       transform="matrix(0.26458333,0,0,0.26458333,-2.7077579,92.225878)">
      <polygon
         class="st3"
         points="75.5,128.64 60.91,137.07 60.91,153.91 75.5,162.34 90.09,153.91 90.09,137.07 "
         id="polygon72-9"
         style="fill:#ffec00;fill-opacity:1"
         transform="translate(142.21399,-60.480368)" />
      <polygon
         class="st0"
         points="75.5,27.57 90.09,35.99 104.68,27.57 104.68,10.72 90.09,2.3 75.5,10.72 "
         id="polygon4-3-3"
         style="fill:none;stroke:#000000;stroke-width:1.5384;stroke-miterlimit:4;stroke-dasharray:none"
         transform="matrix(0.65002711,0,0,0.65002711,159.15305,72.564863)" />
    </g>
    <polygon
       class="st1"
       points="17.14,162.34 31.73,153.91 31.73,137.07 17.14,128.64 2.55,137.07 2.55,153.91 "
       id="polygon66"
       style="fill:none;stroke:#000000;stroke-miterlimit:10"
       transform="matrix(0.26458333,0,0,0.26458333,50.360776,76.223781)" />
  </g>
</svg>
