<?xml version="1.0" standalone="yes"?>
<svg
    xmlns="http://www.w3.org/2000/svg"
    xmlns:xlink="http://www.w3.org/1999/xlink"
    xmlns:svg="http://www.w3.org/2000/svg"
    xmlns:inkscape="http://www.inkscape.org/namespaces/inkscape"
    xmlns:sodipodi="http://sodipodi.sourceforge.net/DTD/sodipodi-0.dtd"
    xmlns:ns1="http://sozi.baierouge.fr"
    xmlns:dc="http://purl.org/dc/elements/1.1/"
    xmlns:cc="http://web.resource.org/cc/"
    xmlns:rdf="http://www.w3.org/1999/02/22-rdf-syntax-ns#"
    version="1.1"
    viewBox="0.0 0.0 203.0 199.0"
    fill="none"
    stroke="none"
    stroke-linecap="square"
    stroke-miterlimit="10"
  >
  <clipPath
      id="p.0"
    >
    <path
        d="m0 0l203.0 0l0 199.0l-203.0 0l0 -199.0z"
        clip-rule="nonzero"
    />
  </clipPath
  >
  <g
      clip-path="url(#p.0)"
    >
    <path
        fill="#000000"
        fill-opacity="0.0"
        d="m0 0l203.97375 0l0 199.23097l-203.97375 0z"
        fill-rule="nonzero"
    />
    <path
        fill="#63f33a"
        d="m62.730923 129.87059c-11.144375 -2.002594 -32.16906 -5.440811 -41.109657 -11.29837c-8.940598 -5.857559 -12.378688 -17.251068 -12.533932 -23.846985c-0.15524292 -6.5959167 7.1021404 -11.631348 11.60247 -15.728516c4.500332 -4.0971756 12.116823 -5.996605 15.399511 -8.854507c3.2826881 -2.8579102 3.2317085 -3.906662 4.2966194 -8.292934c1.0649147 -4.3862724 -0.19549179 -13.366459 2.0928497 -18.024708c2.2883415 -4.658249 6.5277214 -9.035805 11.637199 -9.924789c5.109474 -0.8889885 9.91753 -2.8988876 19.019657 4.590866c9.102119 7.4897575 29.296791 29.519318 35.593086 40.347664c6.2962875 10.828354 5.558197 15.997543 2.1846542 24.62246c-3.3735352 8.624916 -14.395462 22.72541 -22.425873 27.127045c-8.030411 4.401642 -14.612213 1.2853851 -25.756588 -0.7172241z"
        fill-rule="nonzero"
    />
    <path
        fill="#63f33a"
        d="m94.07897 62.190113c2.07872 -11.350868 5.667351 -32.768658 11.500771 -41.830566c5.8334274 -9.061912 17.03444 -12.451298 23.499771 -12.540901c6.4653473 -0.0896039 11.324142 7.368385 15.292252 12.003279c3.9681091 4.6348915 5.7500153 12.426601 8.516388 15.80608c2.766388 3.3794785 3.7946472 3.3384018 8.081909 4.4707985c4.2872467 1.1323967 13.100586 -0.06004715 17.641602 2.323578c4.5410156 2.383625 8.786606 6.755169 9.604477 11.9781685c0.8178711 5.2229996 2.7373352 10.150127 -4.6972656 19.359829c-7.4345856 9.209709 -29.233276 29.586617 -39.910294 35.898415c-10.677002 6.311798 -15.734879 5.504715 -24.151741 1.972374c-8.416855 -3.532341 -22.119759 -14.926247 -26.349403 -23.166428c-4.229645 -8.240173 -1.1071854 -14.923759 0.9715347 -26.274624z"
        fill-rule="nonzero"
    />
    <path
        fill="#63f33a"
        d="m144.3904 97.292465c10.989761 2.7515717 31.744843 7.603546 40.285416 14.052589c8.540573 6.449051 11.231384 18.049843 10.958054 24.6417c-0.2733307 6.591858 -7.841629 11.125565 -12.598038 14.909454c-4.7563934 3.783905 -12.479401 5.1642456 -15.940399 7.793915c-3.4609833 2.6296844 -3.4782104 3.6795654 -4.8255463 7.9841766c-1.3473358 4.304596 -0.6727295 13.350174 -3.2584534 17.843445c-2.5857239 4.493286 -7.0999603 8.574585 -12.255875 9.116196c-5.1559296 0.54159546 -10.083862 2.2220306 -18.679642 -5.8665314c-8.595779 -8.088577 -27.315659 -31.434753 -32.895042 -42.664856c-5.579384 -11.230118 -4.5073166 -16.337997 -0.5812607 -24.715828c3.926056 -8.377823 15.839127 -21.702087 24.137589 -25.551132c8.298462 -3.8490448 14.663422 -0.29470825 25.653198 2.456871z"
        fill-rule="nonzero"
    />
    <path
        fill="#63f33a"
        d="m94.020226 109.25956c-3.9534378 4.372261 -8.832359 25.829842 -15.672493 33.08364c-6.840126 7.253784 -21.690533 5.7549133 -25.368279 10.439102c-3.6777458 4.684204 -1.81921 16.324554 3.3018112 17.666077c5.1210213 1.3415375 19.793129 -0.5604248 27.424309 -9.616882c7.6311874 -9.0564575 16.643677 -36.12652 18.362785 -44.721848c1.7191086 -8.595322 -4.094696 -11.222343 -8.048134 -6.85009z"
        fill-rule="nonzero"
    />
    <path
        fill="#51c52f"
        d="m-203.26874 139.09229c-9.204834 13.435074 -44.667114 33.62288 -60.179993 38.74518c-15.512878 5.122284 -26.26352 -2.3999176 -32.897247 -8.011398c-6.633728 -5.611496 -8.604736 -18.933655 -6.905121 -25.657532c1.6996155 -6.723877 17.180237 -10.660095 17.102814 -14.68573c-0.07739258 -4.0256195 -13.631287 -4.579117 -17.5672 -9.468025c-3.9358826 -4.8889008 -8.414703 -13.446236 -6.0481567 -19.86541c2.3665771 -6.419174 12.315582 -15.523705 20.247559 -18.649635c7.931946 -3.1259308 13.794891 -2.7271729 27.344269 -0.10595703c13.549408 2.6212158 44.134933 6.2168503 53.952118 15.833267c9.817169 9.616417 14.155792 28.430176 4.9509583 41.865242z"
        fill-rule="nonzero"
    />
    <path
        fill="#51c52f"
        d="m-235.30629 129.2361c-13.087158 -10.122185 -30.45375 -45.7639 -34.167953 -60.96119c-3.714203 -15.197285 5.3031616 -24.552761 11.882751 -30.222523c6.5795593 -5.6697655 20.736023 -6.1159306 27.59468 -3.7960625c6.858658 2.31987 9.334595 17.360634 13.557266 17.715279c4.2226562 0.35464096 6.2423096 -12.389168 11.778748 -15.587418c5.536438 -3.1982498 14.971054 -6.5195484 21.43985 -3.6020813c6.468796 2.917469 14.943222 13.282429 17.37294 21.106888c2.4297333 7.824459 1.3892975 13.32003 -2.7945862 25.839874c-4.1838837 12.519836 -11.19809 41.02797 -22.308716 49.279175c-11.110611 8.251205 -31.267822 10.35025 -44.35498 0.22805786z"
        fill-rule="nonzero"
    />
    <path
        fill="#51c52f"
        d="m-217.3141 92.93207c13.126282 -10.076584 53.424133 -18.86808 69.84566 -19.186287c16.421524 -0.31821442 24.199554 9.992348 28.683456 17.277008c4.483902 7.2846603 2.02417 20.534523 -1.7800522 26.430962c-3.804222 5.896446 -19.809135 5.0960083 -21.04528 8.94767c-1.2361298 3.8516617 11.475479 8.35688 13.628456 14.162315c2.1529694 5.805435 3.6288147 15.259445 -0.7106247 20.670288c-4.339447 5.410843 -16.764572 11.150009 -25.326035 11.794769c-8.561478 0.6447754 -14.008209 -1.4555664 -26.0428 -7.9261627c-12.034576 -6.4705963 -39.955933 -18.868958 -46.16472 -30.897385c-6.2088013 -12.028435 -4.214325 -31.196602 8.911942 -41.27318z"
        fill-rule="nonzero"
    />
    <path
        fill="#51c52f"
        d="m-229.28275 120.03033c-3.792923 0.17584991 13.3758545 37.26519 13.176147 50.624336c-0.19970703 13.359146 -16.57042 22.850952 -14.374405 29.530518c2.1960297 6.6795807 21.361893 15.644516 27.550552 10.5469055c6.1886597 -5.097595 13.973434 -26.015564 9.581375 -41.132523c-4.392044 -15.116959 -32.140747 -49.745087 -35.93367 -49.569237z"
        fill-rule="nonzero"
    />
    <path
        fill="#51c52f"
        d="m856.3888 135.95064c11.970459 -66.81337 111.88104 -19.318764 13.965942 80.83385c-125.846985 -61.515076 -47.661194 -139.762 -13.965942 -80.83385z"
        fill-rule="nonzero"
    />
    <path
        fill="#51c52f"
        d="m796.4513 239.38747c-70.09424 -0.17875671 -33.407288 -100.19415 81.35547 -26.06018c-47.94818 126.25435 -137.81409 66.77699 -81.35547 26.06018z"
        fill-rule="nonzero"
    />
    <path
        fill="#51c52f"
        d="m952.7755 207.68695c68.07745 15.326004 9.246887 105.64032 -85.10181 8.01416c75.85498 -113.65447 149.40503 -35.80664 85.10181 -8.01416z"
        fill-rule="nonzero"
    />
    <path
        fill="#51c52f"
        d="m865.725 203.96565c-3.6014404 -0.16642761 7.956726 40.144302 6.095459 54.0746c-1.8612671 13.930298 -18.499084 22.3302 -17.263062 29.507233c1.236023 7.1770325 18.200562 18.306427 24.6792 13.554993c6.4786377 -4.7514343 16.44458 -25.874146 14.192627 -42.06363c-2.2519531 -16.189468 -24.102783 -54.90677 -27.704224 -55.073196z"
        fill-rule="nonzero"
    />
    <path
        fill="#000000"
        fill-opacity="0.0"
        d="m-380.0911 643.39044l0 0c-35.086945 -51.096863 -33.599792 -128.94318 3.3945618 -177.69116c36.994354 -48.748016 96.71857 -51.56076 136.3258 -6.420349c39.607254 45.14041 45.417725 122.64307 13.262909 176.90668l-78.79819 -79.278625z"
        fill-rule="nonzero"
    />
    <path
        fill="#000000"
        fill-opacity="0.0"
        d="m-380.0911 643.39044l0 0c-35.086945 -51.096863 -33.599792 -128.94318 3.3945618 -177.69116c36.994354 -48.748016 96.71857 -51.56076 136.3258 -6.420349c39.607254 45.14041 45.417725 122.64307 13.262909 176.90668"
        fill-rule="nonzero"
    />
    <path
        stroke="#51c52f"
        stroke-width="24.0"
        stroke-linejoin="round"
        stroke-linecap="butt"
        d="m-380.0911 643.39044l0 0c-35.086945 -51.096863 -33.599792 -128.94318 3.3945618 -177.69116c36.994354 -48.748016 96.71857 -51.56076 136.3258 -6.420349c39.607254 45.14041 45.417725 122.64307 13.262909 176.90668"
        fill-rule="nonzero"
    />
    <path
        fill="#000000"
        fill-opacity="0.0"
        d="m-369.9152 641.7864c-37.294342 -42.302612 -39.23578 -112.54718 -4.3581543 -157.68509c34.877625 -45.13794 93.63776 -48.42691 131.90472 -7.3831177c38.266968 41.043793 41.847076 111.196686 8.036606 157.47916l-70.84645 -73.882385z"
        fill-rule="nonzero"
    />
    <path
        fill="#000000"
        fill-opacity="0.0"
        d="m-369.9152 641.7864c-37.294342 -42.302612 -39.23578 -112.54718 -4.3581543 -157.68509c34.877625 -45.13794 93.63776 -48.42691 131.90472 -7.3831177c38.266968 41.043793 41.847076 111.196686 8.036606 157.47916"
        fill-rule="nonzero"
    />
    <path
        stroke="#51c52f"
        stroke-width="24.0"
        stroke-linejoin="round"
        stroke-linecap="butt"
        d="m-369.9152 641.7864c-37.294342 -42.302612 -39.23578 -112.54718 -4.3581543 -157.68509c34.877625 -45.13794 93.63776 -48.42691 131.90472 -7.3831177c38.266968 41.043793 41.847076 111.196686 8.036606 157.47916"
        fill-rule="nonzero"
    />
    <path
        fill="#51c52f"
        d="m-411.63254 633.76117l50.70865 0l0 36.440918l-50.70865 0z"
        fill-rule="nonzero"
    />
    <path
        fill="#51c52f"
        d="m-243.94751 626.9869l50.708664 0l0 36.440918l-50.708664 0z"
        fill-rule="nonzero"
    />
    <path
        fill="#000000"
        fill-opacity="0.0"
        d="m1092.0221 371.14868l0 0c-35.08203 -51.100433 -33.592896 -128.9479 3.3990479 -177.69586c36.991943 -48.747955 96.710815 -51.56038 136.31543 -6.4196625c39.604492 45.1407 45.41638 122.64433 13.266357 176.91103l-78.79663 -79.27753z"
        fill-rule="nonzero"
    />
    <path
        fill="#000000"
        fill-opacity="0.0"
        d="m1092.0221 371.14868l0 0c-35.08203 -51.100433 -33.592896 -128.9479 3.3990479 -177.69586c36.991943 -48.747955 96.710815 -51.56038 136.31543 -6.4196625c39.604492 45.1407 45.41638 122.64433 13.266357 176.91103"
        fill-rule="nonzero"
    />
    <path
        stroke="#51c52f"
        stroke-width="24.0"
        stroke-linejoin="round"
        stroke-linecap="butt"
        d="m1092.0221 371.14868l0 0c-35.08203 -51.100433 -33.592896 -128.9479 3.3990479 -177.69586c36.991943 -48.747955 96.710815 -51.56038 136.31543 -6.4196625c39.604492 45.1407 45.41638 122.64433 13.266357 176.91103"
        fill-rule="nonzero"
    />
    <path
        fill="#000000"
        fill-opacity="0.0"
        d="m1102.2029 369.53964c-37.29431 -42.30258 -39.235718 -112.54718 -4.3581543 -157.68509c34.877686 -45.13791 93.63782 -48.426895 131.90479 -7.3831024c38.266968 41.043793 41.847046 111.19667 8.036621 157.47917l-70.84656 -73.882385z"
        fill-rule="nonzero"
    />
    <path
        fill="#000000"
        fill-opacity="0.0"
        d="m1102.2029 369.53964c-37.29431 -42.30258 -39.235718 -112.54718 -4.3581543 -157.68509c34.877686 -45.13791 93.63782 -48.426895 131.90479 -7.3831024c38.266968 41.043793 41.847046 111.19667 8.036621 157.47917"
        fill-rule="nonzero"
    />
    <path
        stroke="#51c52f"
        stroke-width="24.0"
        stroke-linejoin="round"
        stroke-linecap="butt"
        d="m1102.2029 369.53964c-37.29431 -42.30258 -39.235718 -112.54718 -4.3581543 -157.68509c34.877686 -45.13791 93.63782 -48.426895 131.90479 -7.3831024c38.266968 41.043793 41.847046 111.19667 8.036621 157.47917"
        fill-rule="nonzero"
    />
    <path
        fill="#51c52f"
        d="m1060.4856 361.51443l50.70862 0l0 36.44095l-50.70862 0z"
        fill-rule="nonzero"
    />
    <path
        fill="#51c52f"
        d="m1228.1707 354.74014l50.70862 0l0 36.44095l-50.70862 0z"
        fill-rule="nonzero"
    />
    <path
        fill="#51c52f"
        d="m1208.6395 37.235546c48.894897 -25.170345 67.911865 62.6955 -45.04541 48.812588c-22.866455 -111.50809 66.22107 -99.57294 45.04541 -48.812588z"
        fill-rule="nonzero"
    />
    <path
        fill="#51c52f"
        d="m1112.4069 49.48013c-34.650513 -45.32636 47.850586 -70.89208 57.1062 39.67532c-104.95679 31.216759 -111.2876 -56.066135 -57.1062 -39.67532z"
        fill-rule="nonzero"
    />
    <path
        fill="#51c52f"
        d="m1210.3225 134.76271c23.911255 51.482544 -63.335327 57.98056 -47.361572 -50.97828c110.6969 -7.002266 97.12402 78.795296 47.361572 50.97828z"
        fill-rule="nonzero"
    />
    <path
        fill="#51c52f"
        d="m1169.5398 76.748695c-1.6793213 -2.4063034 -21.864502 24.900536 -31.74414 30.557968c-9.879639 5.657425 -23.53247 -0.94477844 -27.533936 3.3866043c-4.001343 4.331375 -2.74292 20.759827 3.5252686 22.601685c6.2681885 1.8418732 24.791992 -2.126114 34.084106 -11.550491c9.292114 -9.424377 23.3479 -42.58947 21.668701 -44.995766z"
        fill-rule="nonzero"
    />
    <path
        fill="#51c52f"
        d="m1296.1362 582.1779c46.32544 49.606384 -51.555054 101.15204 -73.088745 -37.238342c124.64392 -63.913696 140.45703 45.558228 73.088745 37.238342z"
        fill-rule="nonzero"
    />
    <path
        fill="#51c52f"
        d="m1249.2222 472.2278c42.13379 -56.01535 100.23682 33.269287 -27.870728 80.7493c-72.36609 -114.018555 29.09143 -150.34393 27.870728 -80.7493z"
        fill-rule="nonzero"
    />
    <path
        fill="#51c52f"
        d="m1180.9568 616.38104c-53.05371 45.327087 -90.1239 -55.87616 44.56421 -72.93915c45.559692 128.8153 -60.83264 141.07288 -44.56421 72.93915z"
        fill-rule="nonzero"
    />
    <path
        fill="#51c52f"
        d="m1236.0848 548.9113c2.2907715 -2.7838745 -36.909424 -17.676208 -46.948242 -27.510864c-10.038696 -9.834717 -6.7973633 -28.187775 -13.284302 -31.497253c-6.4870605 -3.3094788 -25.560913 3.606903 -25.637573 11.64032c-0.07678223 8.033417 10.865723 28.665588 25.177368 36.56024c14.311768 7.8945923 58.401978 13.591431 60.69275 10.807556z"
        fill-rule="nonzero"
    />
  </g
  >
  <metadata
    >
    <rdf:RDF
      >
      <cc:Work
        >
        <dc:format
          >image/svg+xml</dc:format
        >
        <dc:type
            rdf:resource="http://purl.org/dc/dcmitype/StillImage"
        />
        <cc:license
            rdf:resource="http://creativecommons.org/licenses/publicdomain/"
        />
        <dc:publisher
          >
          <cc:Agent
              rdf:about="http://openclipart.org/"
            >
            <dc:title
              >Openclipart</dc:title
            >
          </cc:Agent
          >
        </dc:publisher
        >
        <dc:title
          >Light Green Shamrock </dc:title
        >
        <dc:date
          >2014-02-27T18:45:49</dc:date
        >
        <dc:description
          >A drawing of a light green shamrock</dc:description
        >
        <dc:source
          >https://openclipart.org/detail/191357/light-green-shamrock--by-scout-191357</dc:source
        >
        <dc:creator
          >
          <cc:Agent
            >
            <dc:title
              >Scout</dc:title
            >
          </cc:Agent
          >
        </dc:creator
        >
        <dc:subject
          >
          <rdf:Bag
            >
            <rdf:li
              >St. Patrick's Day</rdf:li
            >
            <rdf:li
              >green</rdf:li
            >
            <rdf:li
              >leaf</rdf:li
            >
            <rdf:li
              >luck</rdf:li
            >
            <rdf:li
              >lucky</rdf:li
            >
            <rdf:li
              >shamrock</rdf:li
            >
          </rdf:Bag
          >
        </dc:subject
        >
      </cc:Work
      >
      <cc:License
          rdf:about="http://creativecommons.org/licenses/publicdomain/"
        >
        <cc:permits
            rdf:resource="http://creativecommons.org/ns#Reproduction"
        />
        <cc:permits
            rdf:resource="http://creativecommons.org/ns#Distribution"
        />
        <cc:permits
            rdf:resource="http://creativecommons.org/ns#DerivativeWorks"
        />
      </cc:License
      >
    </rdf:RDF
    >
  </metadata
  >
</svg
>
