<?xml version="1.0" encoding="UTF-8"?>
<!DOCTYPE svg PUBLIC "-//W3C//DTD SVG 1.1//EN" "http://www.w3.org/Graphics/SVG/1.1/DTD/svg11.dtd">
<!-- Creator: CorelDRAW -->
<svg xmlns="http://www.w3.org/2000/svg" xml:space="preserve" width="11.6929in" height="8.26772in" style="shape-rendering:geometricPrecision; text-rendering:geometricPrecision; image-rendering:optimizeQuality; fill-rule:evenodd; clip-rule:evenodd"
viewBox="0 0 11.6929 8.26772"
 xmlns:xlink="http://www.w3.org/1999/xlink">
 <defs>
  <style type="text/css">
   <![CDATA[
    .str3 {stroke:#3CA964;stroke-width:0.00694488}
    .str6 {stroke:#A84724;stroke-width:0.00694488}
    .str5 {stroke:#A84724;stroke-width:0.0104173}
    .str2 {stroke:black;stroke-width:0.0138898}
    .str1 {stroke:#DDDCC0;stroke-width:0.0138898}
    .str4 {stroke:black;stroke-width:0.0208346}
    .str0 {stroke:#4B3814;stroke-width:0.0416654}
    .fil6 {fill:none}
    .fil0 {fill:#A1A1A1}
    .fil3 {fill:#B6B6B7}
    .fil5 {fill:#097023}
    .fil4 {fill:#118A41}
    .fil8 {fill:#7CB41A}
    .fil14 {fill:#8E6C47}
    .fil7 {fill:#92C519}
    .fil13 {fill:#A88661}
    .fil12 {fill:#C19E73}
    .fil1 {fill:#CCCCCC}
    .fil2 {fill:#DDDCC0}
    .fil16 {fill:#DEC4A0}
    .fil9 {fill:#E7361B}
    .fil15 {fill:#ECCFA7}
    .fil10 {fill:#EF7C66}
    .fil11 {fill:#FFCCCC}
   ]]>
  </style>
 </defs>
 <g id="Layer_x0020_1">
  <metadata id="CorelCorpID_0Corel-Layer"/>
  <g id="_309145976">
   <g>
    <ellipse id="_308749112" class="fil0 str0" cx="5.62758" cy="4.33208" rx="3.22344" ry="1.34604"/>
    <ellipse id="_310450816" class="fil1 str0" cx="5.60277" cy="4.05342" rx="3.37053" ry="1.40746"/>
    <ellipse id="_310450936" class="fil2 str1" cx="5.60354" cy="3.99257" rx="3.10904" ry="1.22531"/>
    <ellipse id="_308652840" class="fil3 str1" cx="5.62226" cy="4.0895" rx="2.81197" ry="1.05022"/>
   </g>
   <g>
    <g>
     <polygon id="_308653752" class="fil4 str2" points="2.56107,3.94393 2.0844,4.16214 3.25191,4.3973 3.68369,4.11664 3.31668,4.50524 4.33135,4.78589 4.59042,4.92262 5.30285,4.62757 4.70556,4.973 5.0006,5.08094 5.67706,4.99459 6.03687,4.9586 6.22397,5.08094 7.00117,5.04496 7.80715,5.03056 8.2821,5.27524 8.52677,4.55561 8.865,3.56973 8.39724,3.70645 7.82154,3.15954 7.45794,3.3849 4.55024,2.6387 "/>
     <polygon id="_309146048" class="fil5" points="3.33875,3.80588 3.0353,3.9448 3.77855,4.0945 4.05342,3.91583 3.81978,4.16321 4.46572,4.34188 4.63065,4.42892 5.08418,4.24109 4.70395,4.46099 4.89177,4.52971 5.32241,4.47474 5.55147,4.45183 5.67057,4.52971 6.16534,4.5068 6.67844,4.49764 6.9808,4.6534 7.13656,4.19528 7.35187,3.56766 7.05409,3.6547 6.6876,3.30653 6.45613,3.45 4.60507,2.97496 "/>
     <polygon id="_308642544" class="fil5" points="7.82154,3.15954 8.39724,3.70645 7.30966,4.8259 7.50756,4.10628 7.6095,3.8724 7.36963,4.08229 "/>
     <polygon id="_502188928" class="fil5" points="8.26896,5.25677 7.8222,5.00939 8.197,4.79051 8.5958,4.30776 "/>
    </g>
    <line id="_308641560" class="fil6 str3" x1="5.72384" y1="4.91407" x2="7.29504" y2= "3.4928" />
    <line id="_308656992" class="fil6 str3" x1="5.17636" y1="4.8434" x2="6.74755" y2= "3.42213" />
    <line id="_308749856" class="fil6 str3" x1="3.10537" y1="4.16194" x2="4.84444" y2= "2.95187" />
    <line id="_308643912" class="fil6 str3" x1="8.33296" y1="4.64546" x2="8.85799" y2= "3.60591" />
    <line id="_310451368" class="fil6 str3" x1="2.76326" y1="4.05233" x2="4.56142" y2= "2.93194" />
    <line id="_309171072" class="fil6 str3" x1="7.82791" y1="4.79113" x2="8.5467" y2= "3.75463" />
    <line id="_308643240" class="fil6 str3" x1="4.32015" y1="4.1487" x2="6.04325" y2= "2.916" />
    <line id="_308642400" class="fil6 str3" x1="4.58416" y1="4.43337" x2="6.15535" y2= "3.0121" />
   </g>
   <g>
    <path id="_502187824" class="fil7 str2" d="M3.88532 2.61685l0.0503898 0.0822047c-0.0445669,-0.0334055 -0.334161,-0.0902244 -0.444319,-0.0474685 -0.115618,0.0448701 -0.38439,-0.191425 -0.463992,-0.26337l-0.00948819 -0.00857087c-0.112571,-0.101748 -0.231516,-0.21002 -0.327744,-0.324472 -0.0300866,-0.0357835 -0.177622,-0.204343 -0.183488,-0.235646 -0.00849606,0.000795276 -0.218673,0.269358 -0.222878,0.312799 -0.027189,0.280752 -0.0434213,0.28411 -0.0385787,0.587291 0.000362205,0.0223465 0.0598307,0.200567 0.0699528,0.229803 -0.0561142,0.0677756 -0.118496,0.146134 -0.134055,0.230906 -0.0134764,0.0734016 -0.0264488,-0.0203228 -0.0186024,0.140437 0.00904724,0.185457 0.0788465,0.353626 0.267559,0.425512 0.14737,0.0561339 0.138917,0.0681063 0.297661,0.179016 0.0741102,0.0205984 0.44648,0.0727244 0.503028,0.0471457l0.015315 -0.00692913c0.165213,-0.0747362 0.0828189,-0.0930827 0.263098,-0.083811 0.0243425,0.00125197 0.194811,-0.171622 0.270209,-0.210201 0.0284331,-0.0145472 0.150268,-0.0690472 0.163047,-0.0767835 0.0046378,-0.0588583 0.320787,-0.317913 0.404906,-0.407457 0.0382402,-0.0407087 0.207063,-0.262378 0.246768,-0.276138 -0.00207874,-0.0121535 -0.291169,-0.217358 -0.322642,-0.229807 -0.0717047,-0.0913386 -0.340724,0.0096378 -0.386146,-0.0644606z"/>
    <path id="_309297056" class="fil8" d="M3.53306 3.74079c-0.15613,-0.0342323 -0.355059,0.143319 -0.561606,0.0656614 -0.434961,-0.163547 -0.19135,-0.093378 -0.500961,-0.362201 -0.0139646,-0.012122 -0.205622,-0.19976 -0.0842008,-0.148035 0.0819134,0.0348937 0.0669449,0.0405039 0.193634,0.0828346 0.0295157,0.0098622 0.243217,0.160504 0.298358,0.160504 0.0180197,-0.0580512 0.0663268,-0.00652756 0.00137008,-0.159594 -0.00171654,-0.0133071 -0.0155748,-0.0612283 -0.0131496,-0.0613976 0.0608543,0.0143622 0.227512,0.0795276 0.26226,0.136331 0.100374,0.164051 0.303535,0.139988 0.386362,0.246685 0.00724409,0.00497638 0.0171496,0.0355394 0.0179331,0.0392126z"/>
    <path id="_309641048" class="fil8" d="M3.63069 3.02892c-0.15613,-0.0342323 -0.355055,0.143319 -0.561606,0.0656614 -0.434961,-0.163547 -0.19135,-0.093378 -0.500961,-0.362201 -0.0139606,-0.012122 -0.205618,-0.19976 -0.0842008,-0.148035 0.0819173,0.0348937 0.0669449,0.0405039 0.193638,0.0828346 0.0295118,0.00985827 0.243217,0.160504 0.298358,0.160504 0.0180157,-0.0580512 0.0663228,-0.00652756 0.00137008,-0.159594 -0.00172047,-0.0133071 -0.0155748,-0.0612283 -0.0131496,-0.0613976 0.0608543,0.0143622 0.227508,0.0795276 0.26226,0.136331 0.100374,0.164051 0.303531,0.139988 0.386362,0.246685 0.00724409,0.00497638 0.0171457,0.0355394 0.0179291,0.0392126z"/>
    <path id="_309641000" class="fil8" d="M4.35767 2.95757c-0.23898,0.0180945 -0.512114,0.208181 -0.832854,0.207669 -0.675429,-0.00108268 -0.300177,-0.0166614 -0.802563,-0.132535 -0.0226575,-0.00522441 -0.336657,-0.0929843 -0.147252,-0.0881024 0.127787,0.00329528 0.10613,0.011748 0.30211,0.00805512 0.0456575,-0.000858268 0.387472,0.0527598 0.470161,0.0372362 0.0187874,-0.0489094 0.0985315,-0.0235984 -0.0205709,-0.120913 -0.00446457,-0.00956693 -0.0320354,-0.0418583 -0.0284213,-0.0426693 0.0932874,-0.00628346 0.352437,-0.00397638 0.412598,0.0291417 0.173772,0.0956417 0.475012,0.0202835 0.614339,0.0775512 0.0115709,0.00171654 0.0307559,0.0220118 0.0324528,0.0245669z"/>
   </g>
   <g>
    <g>
     <path id="_309146520" class="fil9 str4" d="M5.04403 2.20895l-0.319004 1.9498c-1.41789,-1.04678 -0.533209,-2.0145 0.319004,-1.9498z"/>
     <path id="_304940160" class="fil10 str5" d="M5.00822 2.38873l-0.22876 1.3982c-1.01677,-0.75065 -0.382366,-1.44461 0.22876,-1.3982z"/>
     <polygon id="_309296672" class="fil11" points="4.46287,3.17335 4.61017,3.11886 4.47509,3.12674 "/>
     <polygon id="_309625664" class="fil11" points="4.50919,2.9285 4.65419,2.92565 4.53729,2.8852 "/>
     <polygon id="_308653200" class="fil11" points="4.6,2.69589 4.68799,2.73096 4.6287,2.67148 "/>
     <polygon id="_309146184" class="fil11" points="4.62987,3.34746 4.67188,3.26256 4.60784,3.3169 "/>
     <polygon id="_308653776" class="fil11" points="4.75895,2.56467 4.80262,2.61315 4.78302,2.55413 "/>
    </g>
    <g>
     <path id="_309641072" class="fil9 str4" d="M3.53936 2.66622l1.15065 1.591c-1.36649,0.0247717 -1.37948,-0.954535 -1.15065,-1.591z"/>
     <path id="_309146304" class="fil10 str6" d="M3.73934 2.96337l0.689894 0.953906c-0.819303,0.0148543 -0.827087,-0.572303 -0.689894,-0.953906z"/>
     <polygon id="_308645784" class="fil11" points="4.05843,3.78941 4.12866,3.66333 4.02971,3.7527 "/>
     <polygon id="_308645736" class="fil11" points="3.89356,3.60777 4.00437,3.51533 3.87993,3.5632 "/>
     <polygon id="_308653680" class="fil11" points="3.77344,3.40595 3.87091,3.3728 3.7758,3.37278 "/>
     <polygon id="_502187920" class="fil11" points="3.78976,3.22474 3.86364,3.22767 3.79989,3.20312 "/>
    </g>
    <g>
     <path id="_308652384" class="fil12 str4" d="M6.36057 3.2276c0.0681496,-0.0498976 0.125539,-0.082437 0.169024,-0.218181 7.87402e-006,-1.9685e-005 0.00927559,-0.023185 0.00978346,-0.0240394 -0.0189173,-0.086874 0.107791,-0.100413 0.00855118,-0.307362 -0.0226378,-0.0472087 -0.111823,-0.120346 -0.171394,-0.11687 -0.0513189,0.00298819 -0.140606,-0.0338307 -0.218472,0.0250236 -0.0275709,0.115252 -0.0982165,0.142732 -0.0577795,0.317339l0.00188976 0.00815354c0.0242441,0.104709 -0.0637835,0.221614 0.0357323,0.304409 0.00955512,0.00794488 0.15452,0.0614252 0.222665,0.0115276z"/>
     <path id="_308653032" class="fil12 str4" d="M5.64552 2.92672c-0.0681024,0.104362 -0.126933,0.175366 -0.0987441,0.311319 0,1.1811e-005 0.00219291,0.0249134 0.00203543,0.0259882 0.0844173,0.0440945 -0.0865118,0.17 0.191492,0.225303 0.0634094,0.0126142 0.166299,-0.156031 0.258063,-0.219531 0.0786024,-0.0543898 0.190539,0.0561969 0.356319,-0.073437 -0.0372087,-0.106846 -0.149846,-0.0352677 -0.128201,-0.277555l0.00672835 -0.0753425c0.0118976,-0.133126 -0.0710906,-0.144028 -0.267224,-0.111244 -0.0188189,0.00314567 -0.252366,0.0901378 -0.320469,0.1945z"/>
     <path id="_309663968" class="fil12 str4" d="M5.78522 3.39462c0.0681024,-0.104362 0.126933,-0.175366 0.0987441,-0.311323 0,-1.1811e-005 -0.00219291,-0.0249134 -0.00203543,-0.0259882 -0.0844173,-0.0440906 0.0865118,-0.169996 -0.191488,-0.225299 -0.0634134,-0.0126142 -0.166299,0.156028 -0.258063,0.219528 -0.0786063,0.0543937 -0.190543,-0.0561929 -0.356319,0.073437 0.0372087,0.10685 -0.0448898,0.191154 0.128201,0.277555l0.00808268 0.00403937c0.103799,0.051815 0.0562717,0.215339 0.252409,0.182551 0.0188228,-0.00314567 0.252366,-0.0901378 0.320469,-0.1945z"/>
     <path id="_309171264" class="fil12 str4" d="M4.78976 3.30407c0.0721693,-0.0942165 0.122335,-0.174138 0.28474,-0.227925 2.3622e-005,-7.87402e-006 0.0281772,-0.0118189 0.0292598,-0.0124961 0.0927598,0.0322953 0.13822,-0.147709 0.346236,0.00653543 0.0474488,0.035185 0.10802,0.166925 0.0898858,0.251728 -0.0156181,0.0730591 0.00426378,0.202732 -0.0802638,0.310272 -0.135654,0.0323228 -0.183319,0.131469 -0.369173,0.0631181l-0.00868504 -0.00319291c-0.111457,-0.0409882 -0.263417,0.0775118 -0.332335,-0.0695591 -0.00661417,-0.0141181 -0.0318346,-0.224264 0.0403346,-0.31848z"/>
     <path id="_309663680" class="fil13" d="M4.80921 3.30977l0.0482244 -0.0400433c0.0118858,-0.00299213 0.0150157,0.0243268 0.0176102,0.035252l0.000574803 0.00240945c0.00440157,0.0185551 0.011189,0.0163543 0.0154331,0.0395197 0.00347638,0.0189449 0.0353346,0.0729016 0.0602008,0.077378l0.00461024 0.000826772c0.0215118,0.00386614 0.0309921,0.0108504 0.0545748,0.0153937 0.0607953,0.0117126 0.0236496,0.103528 0.100315,0.0614646 0.0446535,-0.0245039 0.14915,-0.0638701 0.201953,-0.0878465 0.0661614,-0.0300315 0.0728819,-0.00877953 0.132165,-0.0245354 0.00558661,-0.00148425 0.0584055,-0.0148583 0.0601063,-0.0158189l-0.0165866 0.163728 -0.0459606 0.0814291 -0.0931575 0.0267126 -0.106016 0.0381496 -0.169606 -0.0301142 -0.105776 0.000145669 -0.115858 0.0113268 -0.0625748 -0.0695709 -0.000437008 -0.0994449 -0.011752 -0.130953 0.0319567 -0.0554094z"/>
     <polygon id="_305003056" class="fil14" points="4.74478,3.43236 4.77725,3.36518 4.8514,3.55601 4.9495,3.60661 5.06931,3.60336 5.22983,3.62045 5.47872,3.55462 5.45907,3.60586 5.33144,3.67315 5.25014,3.70117 5.14143,3.69194 5.0523,3.66764 4.95193,3.6691 4.83916,3.68798 4.76424,3.64849 4.75128,3.51945 "/>
     <polygon id="_309662848" class="fil15" points="5.16073,3.10828 5.10546,3.1327 5.23119,3.1711 5.33169,3.15637 5.23437,3.14246 "/>
     <polygon id="_308749688" class="fil15" points="5.76595,2.96463 5.81795,2.94438 5.70636,2.88798 5.61394,2.89245 5.70143,2.91885 "/>
     <polygon id="_308642760" class="fil15" points="6.46536,2.70359 6.51594,2.69139 6.42416,2.61089 6.33954,2.59889 6.4145,2.64297 "/>
     <polygon id="_308642736" class="fil15" points="4.85039,3.28835 4.90589,3.22593 4.97942,3.17993 4.94809,3.16897 4.90498,3.2025 4.79323,3.33747 "/>
     <polygon id="_308750168" class="fil15" points="6.03697,2.77462 6.09861,2.77094 6.14603,2.80114 6.15436,2.75905 6.12043,2.74762 5.98763,2.76392 "/>
     <polygon id="_308750216" class="fil13" points="5.54677,3.23804 5.54959,3.30038 5.54596,3.3747 5.54098,3.47284 5.51943,3.54206 5.71959,3.40626 5.80488,3.30431 5.84841,3.2014 5.84085,3.08724 5.72776,3.19177 5.62399,3.21313 "/>
     <polygon id="_309145712" class="fil14" points="5.69447,3.38848 5.55049,3.42411 5.54098,3.47284 5.51943,3.54206 5.51419,3.56374 5.59694,3.52322 5.70327,3.4576 5.75698,3.41796 5.80515,3.34356 5.85974,3.25198 5.84767,3.15995 5.80485,3.28902 "/>
     <polygon id="_309296864" class="fil13" points="5.79975,3.39282 5.73234,3.46629 5.76213,3.47348 5.80751,3.44606 5.90969,3.33983 5.9853,3.26169 6.04692,3.2382 6.17049,3.24574 6.27105,3.23011 6.33734,3.19412 6.30188,3.154 6.23215,3.09353 6.09532,3.12006 6.04635,3.1463 5.9074,3.12389 5.89373,3.22735 5.85734,3.30398 "/>
     <polygon id="_309145760" class="fil13" points="6.3329,2.91822 6.2423,2.89496 6.23604,2.96276 6.24507,3.03489 6.28489,3.10144 6.36155,3.14981 6.37572,3.18588 6.44458,3.10565 6.51466,3.0042 6.51268,2.9477 6.56175,2.84428 6.56143,2.81929 6.39618,2.9205 "/>
     <polygon id="_310451632" class="fil14" points="6.19281,3.21935 6.14794,3.22111 6.03231,3.2137 5.95439,3.2571 5.86952,3.34213 5.94719,3.23183 5.94757,3.19201 6.06475,3.18719 6.1832,3.15452 "/>
     <polygon id="_309641120" class="fil14" points="6.2624,3.08326 6.3236,3.11769 6.34645,3.14028 6.36228,3.19881 6.43468,3.11718 6.49804,3.02825 6.50285,2.98472 6.43792,3.05012 6.38476,3.07102 6.28551,3.08172 "/>
    </g>
    <polygon id="_308653440" class="fil16 str4" points="6.65194,3.06507 6.76084,3.10309 8.22231,2.18734 8.19125,2.08489 "/>
    <polygon id="_308654592" class="fil16 str4" points="6.66375,3.40513 6.77424,3.43826 8.19337,2.45819 8.15777,2.35722 "/>
    <g>
     <g>
      <path id="_305003704" class="fil12 str4" d="M6.51905 3.47207c0.0725394,-0.072315 0.135913,-0.123106 0.157165,-0.280075 3.93701e-006,-1.9685e-005 0.00592126,-0.0273228 0.00635039,-0.028378 -0.0444055,-0.0873543 0.109555,-0.137307 -0.0634409,-0.330213 -0.0394606,-0.0440039 -0.167748,-0.0970079 -0.240823,-0.0766063 -0.0629606,0.0175748 -0.182622,0.00333071 -0.265063,0.0879291 -0.00644488,0.130646 -0.0874803,0.179756 0.00475591,0.354642l0.00431102 0.00816929c0.055311,0.104882 -0.025752,0.254236 0.117677,0.31465 0.0137717,0.00579528 0.206528,0.0222008 0.279067,-0.0501181z"/>
      <path id="_309171192" class="fil12 str4" d="M5.55929 3.35159c-0.0593622,0.130394 -0.115252,0.22261 -0.0475197,0.359713 3.93701e-006,1.1811e-005 0.00872441,0.0259567 0.0087874,0.0271457 0.115366,0.0233661 -0.0663898,0.205559 0.291886,0.186622 0.0817205,-0.00432283 0.168756,-0.213024 0.267323,-0.306469 0.0844291,-0.0800433 0.249969,0.00652756 0.424437,-0.178197 -0.0719094,-0.103528 -0.194429,0.00438583 -0.225941,-0.260087l-0.00979921 -0.082248c-0.017311,-0.145315 -0.122913,-0.133681 -0.358386,-0.0437441 -0.0225906,0.00863386 -0.291421,0.16687 -0.350787,0.297264z"/>
      <path id="_305003032" class="fil12 str4" d="M5.84536 3.81147c0.0593622,-0.130394 0.115256,-0.22261 0.0475236,-0.359713 -3.93701e-006,-1.1811e-005 -0.00872441,-0.0259528 -0.0087874,-0.0271457 -0.11537,-0.0233661 0.0663898,-0.205555 -0.291886,-0.186618 -0.0817205,0.0043189 -0.16876,0.21302 -0.267323,0.306469 -0.0844331,0.0800433 -0.249969,-0.0065315 -0.424437,0.178193 0.0719094,0.103528 -0.00964567,0.216453 0.225941,0.260091l0.0110039 0.00203543c0.14128,0.0261732 0.121705,0.213898 0.357177,0.123953 0.0225984,-0.00862992 0.291425,-0.16687 0.350787,-0.297264z"/>
      <path id="_309171648" class="fil12 str4" d="M4.58835 3.99391c0.0668543,-0.120713 0.109843,-0.220016 0.298406,-0.322902 2.3622e-005,-1.5748e-005 0.0321142,-0.0205039 0.0332953,-0.0215276 0.122878,0.00844488 0.135917,-0.19628 0.431189,-0.0900748 0.0673583,0.0242244 0.174256,0.147756 0.172185,0.243283 -0.00178346,0.0822953 0.054126,0.215028 -0.0248504,0.353413 -0.160531,0.0724921 -0.195791,0.191598 -0.442874,0.170791l-0.0115433 -0.000972441c-0.148173,-0.0124764 -0.308181,0.156504 -0.42913,0.0189646 -0.0116063,-0.0132047 -0.0935315,-0.230264 -0.0266772,-0.350976z"/>
      <polygon id="_305003752" class="fil14" points="4.56344,4.14335 4.58756,4.06259 4.72554,4.24533 4.85945,4.27181 5.00734,4.23476 5.21063,4.208 5.50361,4.06802 5.49156,4.12819 5.34941,4.23572 5.25528,4.2884 5.11816,4.30903 5.0017,4.30809 4.87752,4.33777 4.74214,4.38952 4.63967,4.36841 4.5925,4.23441 "/>
      <polygon id="_309171912" class="fil15" points="5.0015,3.68112 4.9388,3.72265 5.10406,3.72836 5.22521,3.68449 5.10111,3.69693 "/>
      <polygon id="_305003200" class="fil15" points="5.71787,3.35827 5.77751,3.3221 5.62546,3.29322 5.51185,3.3239 5.62678,3.32753 "/>
      <polygon id="_309171840" class="fil15" points="6.52283,2.88383 6.58265,2.85664 6.44937,2.79651 6.34148,2.80743 6.44511,2.83343 "/>
      <polygon id="_305003608" class="fil15" points="4.6598,3.96015 4.71364,3.87802 4.79379,3.80836 4.75227,3.80544 4.70686,3.85329 4.60071,4.02856 "/>
      <polygon id="_309172008" class="fil15" points="6.00838,3.07965 6.08398,3.05845 6.15009,3.07737 6.15029,3.03015 6.10544,3.02746 5.94458,3.08207 "/>
      <polygon id="_305003728" class="fil13" points="5.51177,3.7113 5.53028,3.777 5.54369,3.85729 5.56115,3.96335 5.55109,4.04322 5.76674,3.84229 5.84801,3.70964 5.87722,3.58769 5.84034,3.46805 5.7252,3.61122 5.60159,3.6631 "/>
      <polygon id="_309171552" class="fil14" points="5.73128,3.83035 5.56121,3.90872 5.56115,3.96335 5.55109,4.04322 5.5498,4.06781 5.64272,4.00139 5.75886,3.90161 5.81595,3.84428 5.8578,3.75143 5.90346,3.63846 5.86633,3.54369 5.84429,3.69334 "/>
      <polygon id="_305003344" class="fil13" points="5.86296,3.80548 5.79702,3.90272 5.83571,3.90205 5.88542,3.86009 5.98662,3.71815 6.0616,3.61361 6.13241,3.57129 6.28756,3.5447 6.40856,3.49984 6.48215,3.44288 6.42848,3.41002 6.32739,3.36508 6.164,3.43173 6.10956,3.47344 5.93175,3.48848 5.93971,3.60267 5.91302,3.69459 "/>
      <polygon id="_309171888" class="fil13" points="6.41017,3.14987 6.29215,3.15045 6.30072,3.22452 6.32929,3.29891 6.39474,3.35873 6.50151,3.38883 6.52779,3.42333 6.59391,3.31846 6.65642,3.19062 6.64035,3.13092 6.67632,3.00687 6.6699,2.9803 6.48924,3.13457 "/>
      <polygon id="_305003104" class="fil14" points="6.30889,3.5103 6.25364,3.52475 6.10838,3.54926 6.02215,3.61738 5.93732,3.73186 6.00713,3.59246 5.998,3.54987 6.14224,3.51189 6.28135,3.44384 "/>
      <polygon id="_305003800" class="fil14" points="6.36245,3.34565 6.44669,3.3652 6.48048,3.3829 6.51422,3.4409 6.58439,3.33354 6.64159,3.22093 6.63707,3.17316 6.57226,3.26111 6.51134,3.2983 6.39076,3.33752 "/>
      <path id="_305003896" class="fil13" d="M4.61386 3.99454l0.050189 -0.0562244c0.0140315,-0.00652362 0.0244961,0.0217362 0.0303465,0.0326614l0.00129528 0.00240945c0.00993307,0.0185551 0.0178228,0.0143071 0.0286693,0.0378228 0.00887402,0.0192323 0.0614055,0.0678504 0.0933386,0.0656535l0.0059252 -0.000409449c0.027622,-0.00190551 0.0410709,0.00288583 0.0714252,0.00111811 0.0782598,-0.00454724 0.0542835,0.103791 0.13928,0.037437 0.0495,-0.0386457 0.169681,-0.109925 0.229425,-0.150291 0.0748622,-0.0505787 0.0883189,-0.0297913 0.158083,-0.0632126 0.0065748,-0.00315354 0.0688898,-0.0322205 0.0707717,-0.0337165l0.0188622 0.179268 -0.0374094 0.0997323 -0.109157 0.0545984 -0.122354 0.0704055 -0.217713 0.0154173 -0.131213 0.0297992 -0.141031 0.0445591 -0.0944016 -0.0566614 -0.0245039 -0.105941 -0.0461299 -0.136374 0.0263031 -0.0680512z"/>
     </g>
     <polygon id="_309171408" class="fil16 str4" points="6.7339,2.91145 6.84555,2.94043 8.22706,1.90799 8.18771,1.80843 "/>
     <g>
      <polygon id="_305003416" class="fil16 str4" points="6.95442,2.64708 7.06816,2.66622 8.38316,1.09279 8.31613,1.03216 "/>
      <g>
       <path id="_305003656" class="fil12 str4" d="M7.00176 3.25014c0.0500748,-0.0907913 0.0956339,-0.157102 0.0904528,-0.326283 0,-2.3622e-005 0.000952756,-0.0299055 0.00115748,-0.0311024 -0.0498976,-0.0826378 0.0715197,-0.166614 -0.101319,-0.333768 -0.0394252,-0.0381299 -0.154429,-0.0675236 -0.212543,-0.0311378 -0.0500669,0.0313425 -0.152197,0.0408858 -0.208748,0.146598 0.0137126,0.138512 -0.0468583,0.206673 0.0558268,0.371441l0.00479921 0.00769685c0.0615787,0.0988071 0.0156417,0.272244 0.14439,0.306319 0.0123583,0.00326772 0.175913,-0.0189724 0.225984,-0.109764z"/>
       <path id="_309296792" class="fil12 str4" d="M6.18174 3.32012c-0.0305669,0.149083 -0.063811,0.257362 0.0128622,0.387465 3.93701e-006,1.1811e-005 0.0110866,0.0254685 0.011315,0.0267087 0.0998701,0.000913386 -0.0254528,0.229445 0.271319,0.136209 0.0676929,-0.0212677 0.109945,-0.258248 0.178689,-0.376555 0.0588858,-0.101339 0.209941,-0.0443189 0.328799,-0.27402 -0.0752598,-0.0939921 -0.161913,0.0444094 -0.226929,-0.226862l-0.0202165 -0.0843583c-0.0357205,-0.149051 -0.122307,-0.115217 -0.306024,0.027437 -0.0176299,0.013689 -0.219252,0.234898 -0.249815,0.383976z"/>
       <path id="_309296720" class="fil12 str4" d="M6.48815 3.74447c0.0305669,-0.149083 0.063815,-0.257362 -0.0128622,-0.387465 -3.93701e-006,-1.1811e-005 -0.0110866,-0.0254685 -0.011315,-0.0267087 -0.0998701,-0.000913386 0.0254528,-0.229445 -0.271319,-0.136209 -0.0676929,0.0212677 -0.109945,0.258248 -0.178685,0.376551 -0.0588858,0.101343 -0.209945,0.0443228 -0.328803,0.274024 0.0752598,0.0939921 0.0235866,0.229272 0.226929,0.226862l0.0095 -0.000114173c0.121941,-0.00144094 0.133024,0.199697 0.316744,0.0570354 0.0176299,-0.013689 0.219248,-0.234898 0.249811,-0.383976z"/>
       <path id="_309625688" class="fil12 str4" d="M5.46389 4.19341c0.0382441,-0.140449 0.0596654,-0.253528 0.202272,-0.400173 1.9685e-005,-1.9685e-005 0.0238543,-0.0281063 0.024689,-0.0294252 0.103969,-0.0162874 0.084937,-0.233941 0.347331,-0.18287 0.0598543,0.0116496 0.167287,0.119484 0.179524,0.22022 0.0105433,0.0867874 0.0766929,0.21472 0.0308976,0.376209 -0.123614,0.108996 -0.135677,0.241283 -0.345295,0.270024l-0.00979134 0.00133858c-0.125705,0.0172402 -0.234776,0.227445 -0.356004,0.107776 -0.0116378,-0.0114921 -0.111866,-0.22265 -0.073622,-0.363098z"/>
       <path id="_305003680" class="fil13" d="M5.48531 4.18884l0.0337441 -0.069315c0.0107756,-0.00972441 0.0236575,0.017811 0.0301457,0.0280866l0.00143307 0.00226378c0.0110157,0.0174488 0.0169921,0.011374 0.0295,0.0338465 0.0102323,0.0183819 0.0612598,0.0586772 0.0876339,0.0498307l0.0048937 -0.00164173c0.022815,-0.00765354 0.0347598,-0.00537795 0.059878,-0.0134449 0.0647638,-0.0207992 0.060563,0.097874 0.121921,0.0107953 0.0357362,-0.0507165 0.125791,-0.150173 0.169839,-0.204795 0.0551929,-0.068437 0.0694843,-0.0493661 0.122925,-0.098748 0.0050315,-0.00464961 0.0528819,-0.0479331 0.0542362,-0.0498937l0.0419843 0.18439 -0.0166969 0.112386 -0.0832795 0.079685 -0.092 0.0989803 -0.179764 0.0607638 -0.105346 0.0581614 -0.111394 0.0756654 -0.0872126 -0.0401772 -0.0359724 -0.106228 -0.0585079 -0.133764 0.0120394 -0.0768465z"/>
       <polygon id="_309663920" class="fil14" points="5.46492,4.35543 5.47327,4.26569 5.61535,4.42934 5.73118,4.42973 5.8494,4.36054 6.01546,4.29081 6.23993,4.08385 6.23866,4.14949 6.13554,4.29151 6.06454,4.3661 5.95292,4.41584 5.85542,4.4387 5.75593,4.49529 5.65031,4.57734 5.56155,4.57616 5.50252,4.44511 "/>
       <polygon id="_309171864" class="fil15" points="5.76357,3.78035 5.71723,3.8368 5.85623,3.80897 5.9511,3.73809 5.84917,3.77657 "/>
       <polygon id="_310450840" class="fil15" points="6.31529,3.29466 6.35986,3.24447 6.22852,3.24528 6.13803,3.30075 6.23464,3.28103 "/>
       <polygon id="_305003272" class="fil15" points="6.91891,2.63165 6.96495,2.59085 6.84473,2.55499 6.75613,2.58855 6.84657,2.59463 "/>
       <polygon id="_309197960" class="fil15" points="5.51869,4.14333 5.55169,4.04606 5.60852,3.9565 5.57338,3.96194 5.54241,4.02148 5.47929,4.22727 "/>
       <polygon id="_309146112" class="fil15" points="6.51744,2.94261 6.57755,2.90487 6.63559,2.9112 6.62885,2.86157 6.59095,2.86794 6.46445,2.95821 "/>
       <polygon id="_309625568" class="fil13" points="6.1946,3.70758 6.21969,3.77278 6.24263,3.85435 6.27274,3.96215 6.276,4.04808 6.42692,3.79293 6.47547,3.637 6.48206,3.50295 6.43374,3.38487 6.35841,3.55879 6.26264,3.63857 "/>
       <polygon id="_309199248" class="fil14" points="6.39553,3.78765 6.2648,3.90477 6.27274,3.96215 6.276,4.04808 6.27852,4.07416 6.3465,3.9854 6.429,3.85683 6.46836,3.78494 6.48977,3.67887 6.51143,3.55089 6.46652,3.45898 6.46998,3.62064 "/>
       <polygon id="_310450768" class="fil13" points="6.50199,3.73457 6.46107,3.85019 6.49332,3.84156 6.52875,3.78732 6.5926,3.61755 6.64,3.49243 6.69302,3.43348 6.81884,3.3738 6.91345,3.30191 6.96665,3.22704 6.91697,3.20352 6.82588,3.17702 6.69903,3.28046 6.65961,3.33541 6.51315,3.38761 6.5365,3.50588 6.52762,3.60788 "/>
       <polygon id="_309198984" class="fil13" points="6.86363,2.93409 6.76504,2.95885 6.78303,3.03489 6.8178,3.10715 6.88126,3.15657 6.97493,3.16632 7.00194,3.19717 7.04189,3.0735 7.07546,2.92646 7.0533,2.86706 7.06524,2.72943 7.05598,2.70285 6.92749,2.90183 "/>
       <polygon id="_309145808" class="fil14" points="6.83165,3.3333 6.78757,3.3598 6.6697,3.41528 6.60757,3.50446 6.55339,3.64204 6.59137,3.48137 6.57751,3.43852 6.69255,3.36909 6.79891,3.26916 "/>
       <polygon id="_309199080" class="fil14" points="6.85235,3.14944 6.92564,3.15273 6.95648,3.1644 6.99317,3.21839 7.03614,3.09128 7.0675,2.96133 7.05673,2.91208 7.0154,3.01771 6.96991,3.06923 6.87483,3.13511 "/>
      </g>
     </g>
     <g>
      <g>
       <polygon id="_308653344" class="fil16 str4" points="7.21785,3.38084 7.3316,3.39997 8.61787,2.25106 8.57,2.15531 "/>
       <path id="_309641096" class="fil12 str4" d="M7.49956 3.78798c0.0358268,-0.0756024 0.0752283,-0.131339 -0.00305906,-0.266516 -7.87402e-006,-1.9685e-005 -0.0110827,-0.0240039 -0.0112874,-0.0249764 -0.108,-0.0632913 0.035748,-0.137559 -0.288622,-0.261421 -0.0739961,-0.0282559 -0.25565,-0.0451457 -0.326043,-0.0126496 -0.0606496,0.0279921 -0.207079,0.0415354 -0.246224,0.129461 0.0780472,0.110126 0.0173071,0.168213 0.237362,0.29422l0.0102795 0.00588583c0.131965,0.0755669 0.136748,0.21711 0.340598,0.236953 0.0195709,0.00190551 0.251165,-0.0253583 0.286996,-0.100957z"/>
       <path id="_502188136" class="fil12 str4" d="M6.32104 3.89142c0.017248,0.12115 0.0135079,0.209783 0.180772,0.309535 1.5748e-005,1.1811e-005 0.0269685,0.0197559 0.0278228,0.0207362 0.147472,-0.00503937 0.0583425,0.185213 0.456492,0.0933937 0.090815,-0.0209449 0.0540709,-0.213157 0.105902,-0.311874 0.0444055,-0.0845551 0.290697,-0.047626 0.369819,-0.238437 -0.150102,-0.0709213 -0.219921,0.0449213 -0.428976,-0.168555l-0.0650118 -0.0663858c-0.114858,-0.117295 -0.228256,-0.0851969 -0.43926,0.0396614 -0.0202402,0.0119803 -0.224807,0.200776 -0.207559,0.321925z"/>
       <path id="_502188352" class="fil12 str4" d="M6.94956 4.21352c-0.017248,-0.12115 -0.0135039,-0.20978 -0.180772,-0.309535 -1.1811e-005,-7.87402e-006 -0.0269685,-0.0197559 -0.0278228,-0.0207323 -0.147472,0.00503937 -0.0583425,-0.185213 -0.456488,-0.0933937 -0.0908189,0.0209449 -0.0540709,0.213157 -0.105906,0.31187 -0.0444016,0.0845591 -0.290697,0.0476299 -0.369815,0.238441 0.150098,0.0709213 0.130492,0.182236 0.428976,0.168555l0.0139409 -0.000641732c0.178996,-0.00820079 0.279327,0.152228 0.490327,0.0273661 0.020248,-0.0119843 0.224807,-0.200776 0.207559,-0.321929z"/>
       <path id="_309146448" class="fil12 str4" d="M5.62852 4.63223c-0.00233465,-0.114681 -0.0180118,-0.206472 0.130776,-0.33215 1.5748e-005,-1.5748e-005 0.0233898,-0.0238858 0.0240709,-0.0249882 0.146323,-0.0190551 0.0273898,-0.192248 0.435177,-0.16652 0.0930236,0.00587008 0.296291,0.0860157 0.356386,0.165976 0.0517756,0.0688898 0.202634,0.167512 0.202634,0.29948 -0.136539,0.0944291 -0.0990591,0.201063 -0.395783,0.236193l-0.0138583 0.0016378c-0.177945,0.0210709 -0.250787,0.195709 -0.479319,0.106882 -0.021937,-0.00852756 -0.257748,-0.171831 -0.260083,-0.286512z"/>
      </g>
      <path id="_309296744" class="fil13" d="M5.65816 4.62734l0.0207441 -0.0574606c0.011811,-0.00840551 0.0422835,0.0128976 0.0561299,0.020752l0.00305906 0.00172835c0.0235118,0.0133386 0.0297795,0.00812598 0.0575866,0.0254016 0.0227441,0.014126 0.114728,0.0434449 0.149882,0.0348386l0.00651969 -0.00159843c0.0304055,-0.00744882 0.0489488,-0.00631496 0.0825748,-0.0142283 0.0867008,-0.0204016 0.130075,0.074878 0.184075,0.00159843 0.0314488,-0.0426811 0.122547,-0.127528 0.164606,-0.173819 0.0527047,-0.0579921 0.0817165,-0.0435472 0.139803,-0.0861811 0.00547244,-0.00401575 0.0578701,-0.0414409 0.0590433,-0.0430906l0.138846 0.145232 0.0223465 0.0909646 -0.0893701 0.068626 -0.0941614 0.0845827 -0.239382 0.0590472 -0.130866 0.0526654 -0.132461 0.0670315 -0.145228 -0.0271339 -0.0973504 -0.0829882 -0.142035 -0.103736 -0.0143622 -0.0622323z"/>
      <polygon id="_308652792" class="fil14" points="5.6977,4.76192 5.67252,4.68957 5.95013,4.81241 6.12089,4.80603 6.26611,4.74379 6.48156,4.67836 6.72573,4.49964 6.75127,4.55228 6.6587,4.67198 6.58529,4.73581 6.44167,4.78209 6.30761,4.80603 6.18472,4.8571 6.06343,4.92892 5.93221,4.93309 5.79054,4.83156 "/>
      <polygon id="_309198704" class="fil15" points="5.89738,4.28414 5.8527,4.33202 6.0458,4.3017 6.15592,4.23946 6.02186,4.27616 "/>
      <polygon id="_308643336" class="fil15" points="6.50711,3.86331 6.55179,3.82054 6.35869,3.82878 6.24857,3.87843 6.38263,3.85706 "/>
      <polygon id="_309664664" class="fil15" points="7.11922,3.29748 7.16999,3.26215 6.97794,3.24038 6.86146,3.27237 6.99721,3.27202 "/>
      <polygon id="_308642592" class="fil15" points="5.68831,4.58896 5.6963,4.50917 5.74257,4.43416 5.6931,4.44054 5.67235,4.49002 5.66534,4.65846 "/>
      <polygon id="_308645400" class="fil15" points="6.6578,3.5697 6.73056,3.53601 6.81869,3.53772 6.78803,3.49837 6.73488,3.50565 6.58627,3.58526 "/>
      <polygon id="_308651256" class="fil13" points="6.50181,4.20095 6.56599,4.25172 6.63385,4.3157 6.72322,4.40029 6.76392,4.46892 6.87962,4.25587 6.886,4.12819 6.83972,4.02046 6.71923,3.9287 6.68093,4.07233 6.5732,4.14176 "/>
      <polygon id="_308652528" class="fil14" points="6.83119,4.25346 6.68756,4.3548 6.72322,4.40029 6.76392,4.46892 6.77852,4.48965 6.84156,4.41465 6.90938,4.30693 6.93731,4.24708 6.92455,4.1609 6.903,4.05716 6.79847,3.98615 6.87108,4.11541 "/>
      <polygon id="_308651496" class="fil13" points="6.96581,4.2048 6.95384,4.29975 6.99773,4.29098 7.02726,4.24549 7.05039,4.10585 7.06795,4.00291 7.12141,3.95265 7.2818,3.89758 7.39112,3.83454 7.4382,3.7715 7.35521,3.75555 7.20999,3.73959 7.06635,3.82976 7.03124,3.87604 6.83734,3.92631 6.92113,4.01967 6.95065,4.10186 "/>
      <polygon id="_308750096" class="fil13" points="7.16411,3.54287 7.02925,3.5684 7.08751,3.62825 7.16889,3.68411 7.283,3.72001 7.42504,3.72241 7.4777,3.74555 7.48488,3.6442 7.47292,3.52451 7.41546,3.47823 7.37556,3.36732 7.35083,3.34657 7.2447,3.51334 "/>
      <polygon id="_308642808" class="fil14" points="7.28375,3.86441 7.22989,3.88817 7.07947,3.93941 7.02521,4.01442 7.00287,4.12773 6.9917,3.99686 6.9534,3.96335 7.09383,3.90111 7.20874,3.81493 "/>
      <polygon id="_308642952" class="fil14" points="7.23745,3.71597 7.34677,3.71437 7.39706,3.72193 7.47365,3.76305 7.48385,3.65878 7.47575,3.5529 7.43933,3.51408 7.42257,3.60106 7.37709,3.64495 7.26458,3.7032 "/>
     </g>
    </g>
    <polyline id="_308750696" class="fil6 str4" points="4.76225,3.99863 4.8447,4.07842 4.92799,4.17534 4.99648,4.27842 5.16133,4.32728 "/>
    <polyline id="_309198224" class="fil6 str4" points="6.74722,3.64463 6.82815,3.72597 6.92622,3.80791 7.03023,3.87496 7.08138,4.03912 "/>
   </g>
  </g>
 </g>
</svg>
