<?xml version="1.0" encoding="UTF-8" standalone="no"?>
<svg
   id="Layer_1"
   data-name="Layer 1"
   viewBox="0 0 504.19999 300.29765"
   version="1.1"
   sodipodi:docname="2022-AU-06-FootballPatterns-02.svg"
   width="504.20001"
   height="300.29764"
   inkscape:version="1.1.2 (08b2f3d93c, 2022-04-05)"
   xmlns:inkscape="http://www.inkscape.org/namespaces/inkscape"
   xmlns:sodipodi="http://sodipodi.sourceforge.net/DTD/sodipodi-0.dtd"
   xmlns="http://www.w3.org/2000/svg"
   xmlns:svg="http://www.w3.org/2000/svg">
  <sodipodi:namedview
     id="namedview151"
     pagecolor="#ffffff"
     bordercolor="#666666"
     borderopacity="1.0"
     inkscape:pageshadow="2"
     inkscape:pageopacity="0.0"
     inkscape:pagecheckerboard="0"
     showgrid="false"
     fit-margin-top="0"
     fit-margin-left="0"
     fit-margin-right="0"
     fit-margin-bottom="0"
     inkscape:zoom="1.2712504"
     inkscape:cx="260.76688"
     inkscape:cy="79.842649"
     inkscape:window-width="1848"
     inkscape:window-height="1016"
     inkscape:window-x="72"
     inkscape:window-y="27"
     inkscape:window-maximized="1"
     inkscape:current-layer="Layer_1" />
  <defs
     id="defs4">
    <style
       id="style2">.cls-1,.cls-3{fill:#fff;}.cls-1,.cls-2{stroke:#000;stroke-miterlimit:10;}</style>
  </defs>
  <rect
     style="fill:#cccccc;fill-opacity:1;stroke-width:4.67256"
     id="rect1300"
     width="504.20001"
     height="300.29764"
     x="0"
     y="0"
     ry="8.6330092e-06" />
  <g
     id="polygon12"
     class="cls-2"
     transform="translate(14.424692,-5.6922677)">
    <path
       style="color:#000000;fill:#000000;stroke-miterlimit:10;-inkscape-stroke:none"
       d="m 154.8,88.1 h 21.7 L 187.4,69.3 176.5,50.4 h -21.7 l -10.9,18.9 z"
       id="path2754" />
    <path
       style="color:#000000;fill:#000000;stroke-miterlimit:10;-inkscape-stroke:none"
       d="m 154.51172,49.900391 -11.18945,19.40039 11.18945,19.298828 h 0.28906 21.98633 l 11.19141,-19.298828 -11.18946,-19.40039 z m 0.57617,1 h 21.12305 l 10.61133,18.398437 -10.60938,18.300781 h -21.125 L 144.47852,69.298828 Z"
       id="path2756" />
  </g>
  <g
     id="polygon16"
     class="cls-2"
     transform="translate(14.424692,-5.6922677)">
    <path
       style="color:#000000;fill:#000000;stroke-miterlimit:10;-inkscape-stroke:none"
       d="M 220.3,88.1 H 242 L 252.9,69.3 242,50.4 h -21.7 l -10.9,18.9 z"
       id="path2760" />
    <path
       style="color:#000000;fill:#000000;stroke-miterlimit:10;-inkscape-stroke:none"
       d="m 220.01172,49.900391 -11.18945,19.40039 11.18945,19.298828 h 0.28906 21.98633 l 11.19141,-19.298828 -11.18946,-19.40039 z m 0.57617,1 h 21.12305 l 10.61133,18.398437 -10.60938,18.300781 h -21.125 L 209.97852,69.298828 Z"
       id="path2762" />
  </g>
  <g
     id="polygon20"
     class="cls-2"
     transform="translate(14.424692,-5.6922677)">
    <path
       style="color:#000000;fill:#000000;stroke-miterlimit:10;-inkscape-stroke:none"
       d="m 286.1,88.1 h 21.8 L 318.8,69.3 307.9,50.4 h -21.8 l -10.9,18.9 z"
       id="path2766" />
    <path
       style="color:#000000;fill:#000000;stroke-miterlimit:10;-inkscape-stroke:none"
       d="m 285.81055,49.900391 -11.1875,19.40039 11.18945,19.298828 h 0.28711 22.08789 l 11.18945,-19.298828 -11.1875,-19.40039 z m 0.57812,1 h 21.22266 l 10.61133,18.398437 -10.61133,18.300781 H 286.38867 L 275.77734,69.298828 Z"
       id="path2768" />
  </g>
  <g
     id="polygon34"
     class="cls-1"
     transform="translate(14.424692,-5.6922677)">
    <path
       style="color:#000000;fill:#ffffff;stroke-miterlimit:10;-inkscape-stroke:none"
       d="m 89,125.8 h 21.7 L 121.6,107 110.7,88.1 H 89 L 78.1,107 Z"
       id="path2700" />
    <path
       style="color:#000000;fill:#000000;stroke-miterlimit:10;-inkscape-stroke:none"
       d="M 88.710937,87.599609 77.521484,107 88.712891,126.30078 H 89 110.98828 L 122.17773,107 110.98828,87.599609 Z m 0.578125,1 H 110.41211 L 121.02148,107 110.41211,125.30078 H 89.287109 L 78.677734,107 Z"
       id="path2702" />
  </g>
  <g
     id="polygon36"
     class="cls-1"
     transform="translate(14.424692,-5.6922677)">
    <path
       style="color:#000000;fill:#ffffff;stroke-miterlimit:10;-inkscape-stroke:none"
       d="m 121.7,107 h 21.8 L 154.4,88.1 143.5,69.3 h -21.8 l -10.8,18.8 z"
       id="path2706" />
    <path
       style="color:#000000;fill:#000000;stroke-miterlimit:10;-inkscape-stroke:none"
       d="M 121.41016,68.800781 110.32422,88.099609 121.41016,107.5 h 0.28906 22.08984 L 154.97852,88.099609 143.78711,68.800781 Z m 0.58007,1 h 21.22266 L 153.82227,88.101562 143.21094,106.5 H 121.99023 L 111.47656,88.101562 Z"
       id="path2708" />
  </g>
  <g
     id="polygon38"
     class="cls-1"
     transform="translate(14.424692,-5.6922677)">
    <path
       style="color:#000000;fill:#ffffff;stroke-miterlimit:10;-inkscape-stroke:none"
       d="m 154.8,125.8 h 21.7 L 187.4,107 176.5,88.1 H 154.8 L 143.9,107 Z"
       id="path2712" />
    <path
       style="color:#000000;fill:#000000;stroke-miterlimit:10;-inkscape-stroke:none"
       d="M 154.51172,87.599609 143.32227,107 l 11.18945,19.30078 h 0.28906 21.98633 L 187.97852,107 176.78906,87.599609 Z m 0.57617,1 h 21.12305 L 186.82227,107 176.21289,125.30078 h -21.125 L 144.47852,107 Z"
       id="path2714" />
  </g>
  <g
     id="polygon40"
     class="cls-1"
     transform="translate(14.424692,-5.6922677)">
    <path
       style="color:#000000;fill:#ffffff;stroke-miterlimit:10;-inkscape-stroke:none"
       d="m 187.5,107 h 21.8 L 220.2,88.1 209.3,69.3 h -21.8 l -10.8,18.8 z"
       id="path2718" />
    <path
       style="color:#000000;fill:#000000;stroke-miterlimit:10;-inkscape-stroke:none"
       d="M 187.21094,68.800781 176.12305,88.099609 187.20898,107.5 H 187.5 209.58789 L 220.77734,88.099609 209.58789,68.800781 Z m 0.57812,1 h 21.22266 L 219.62305,88.101562 209.01172,106.5 H 187.78906 L 177.27539,88.101562 Z"
       id="path2720" />
  </g>
  <g
     id="polygon42"
     class="cls-1"
     transform="translate(14.424692,-5.6922677)">
    <path
       style="color:#000000;fill:#ffffff;stroke-miterlimit:10;-inkscape-stroke:none"
       d="M 220.3,125.8 H 242 L 252.9,107 242,88.1 H 220.3 L 209.4,107 Z"
       id="path2724" />
    <path
       style="color:#000000;fill:#000000;stroke-miterlimit:10;-inkscape-stroke:none"
       d="M 220.01172,87.599609 208.82227,107 l 11.18945,19.30078 h 0.28906 21.98633 L 253.47852,107 242.28906,87.599609 Z m 0.57617,1 h 21.12305 L 252.32227,107 241.71289,125.30078 h -21.125 L 209.97852,107 Z"
       id="path2726" />
  </g>
  <g
     id="polygon44"
     class="cls-1"
     transform="translate(14.424692,-5.6922677)">
    <path
       style="color:#000000;fill:#ffffff;stroke-miterlimit:10;-inkscape-stroke:none"
       d="m 253,107 h 21.8 L 285.7,88.1 274.8,69.3 H 253 l -10.8,18.8 z"
       id="path2730" />
    <path
       style="color:#000000;fill:#000000;stroke-miterlimit:10;-inkscape-stroke:none"
       d="M 252.71094,68.800781 241.62305,88.099609 252.70898,107.5 H 253 275.08789 L 286.27734,88.099609 275.08789,68.800781 Z m 0.57812,1 h 21.22266 L 285.12305,88.101562 274.51172,106.5 H 253.28906 L 242.77539,88.101562 Z"
       id="path2732" />
  </g>
  <g
     id="polygon46"
     class="cls-1"
     transform="translate(14.424692,-5.6922677)">
    <path
       style="color:#000000;fill:#ffffff;stroke-miterlimit:10;-inkscape-stroke:none"
       d="m 286.1,125.8 h 21.8 L 318.8,107 307.9,88.1 H 286.1 L 275.2,107 Z"
       id="path2736" />
    <path
       style="color:#000000;fill:#000000;stroke-miterlimit:10;-inkscape-stroke:none"
       d="M 285.81055,87.599609 274.62305,107 285.8125,126.30078 h 0.28711 22.08789 L 319.37695,107 308.18945,87.599609 Z m 0.57812,1 h 21.22266 L 318.22266,107 307.61133,125.30078 H 286.38867 L 275.77734,107 Z"
       id="path2738" />
  </g>
  <g
     id="polygon48"
     class="cls-1"
     transform="translate(14.424692,-5.6922677)">
    <path
       style="color:#000000;fill:#ffffff;stroke-miterlimit:10;-inkscape-stroke:none"
       d="m 318.9,107 h 21.8 L 351.6,88.1 340.7,69.3 H 318.9 L 308,88.1 Z"
       id="path2742" />
    <path
       style="color:#000000;fill:#000000;stroke-miterlimit:10;-inkscape-stroke:none"
       d="M 318.61133,68.800781 307.42187,88.099609 318.61133,107.5 h 0.28906 22.08789 L 352.17773,88.099609 340.98828,68.800781 Z m 0.57617,1 h 21.22461 L 351.02148,88.101562 340.41211,106.5 H 319.18945 L 308.57812,88.101562 Z"
       id="path2744" />
  </g>
  <g
     id="polygon50"
     class="cls-1"
     transform="translate(14.424692,-5.6922677)">
    <path
       style="color:#000000;fill:#ffffff;stroke-miterlimit:10;-inkscape-stroke:none"
       d="m 351.6,125.8 h 21.8 L 384.3,107 373.4,88.1 H 351.6 L 340.8,107 Z"
       id="path2748" />
    <path
       style="color:#000000;fill:#000000;stroke-miterlimit:10;-inkscape-stroke:none"
       d="M 351.31055,87.599609 340.22461,107 l 11.08594,19.30078 h 0.28906 22.08789 L 384.87695,107 373.68945,87.599609 Z m 0.58007,1 h 21.22071 L 383.72266,107 373.11133,125.30078 H 351.88867 L 341.37695,107 Z"
       id="path2750" />
  </g>
  <g
     id="polygon60"
     class="cls-1"
     transform="translate(14.424692,-5.6922677)">
    <path
       style="color:#000000;fill:#ffffff;stroke-miterlimit:10;-inkscape-stroke:none"
       d="m 89,163.5 h 21.7 l 10.9,-18.8 -10.9,-18.9 H 89 l -10.9,18.9 z"
       id="path2796" />
    <path
       style="color:#000000;fill:#000000;stroke-miterlimit:10;-inkscape-stroke:none"
       d="M 88.710937,125.30078 77.521484,144.70117 88.712891,164 H 89 110.98828 l 11.18945,-19.29883 -11.18945,-19.40039 z m 0.578125,1 H 110.41211 L 121.02148,144.69922 110.41211,163 H 89.287109 L 78.677734,144.69922 Z"
       id="path2798" />
  </g>
  <g
     id="polygon62"
     class="cls-2"
     transform="translate(14.424692,-5.6922677)">
    <path
       style="color:#000000;fill:#000000;stroke-miterlimit:10;-inkscape-stroke:none"
       d="m 121.7,144.7 h 21.8 L 154.4,125.8 143.5,107 h -21.8 l -10.8,18.8 z"
       id="path2772" />
    <path
       style="color:#000000;fill:#000000;stroke-miterlimit:10;-inkscape-stroke:none"
       d="m 121.41016,106.5 -11.08594,19.29883 11.08594,19.40039 h 0.28906 22.08984 L 154.97852,125.79883 143.78711,106.5 Z m 0.58007,1 h 21.22266 l 10.60938,18.30078 -10.61133,18.39844 h -21.22071 l -10.51367,-18.39844 z"
       id="path2774" />
  </g>
  <g
     id="polygon64"
     class="cls-1"
     transform="translate(14.424692,-5.6922677)">
    <path
       style="color:#000000;fill:#ffffff;stroke-miterlimit:10;-inkscape-stroke:none"
       d="m 154.8,163.5 h 21.7 l 10.9,-18.8 -10.9,-18.9 h -21.7 l -10.9,18.9 z"
       id="path2802" />
    <path
       style="color:#000000;fill:#000000;stroke-miterlimit:10;-inkscape-stroke:none"
       d="M 154.51172,125.30078 143.32227,144.70117 154.51172,164 h 0.28906 21.98633 l 11.19141,-19.29883 -11.18946,-19.40039 z m 0.57617,1 h 21.12305 L 186.82227,144.69922 176.21289,163 h -21.125 l -10.60937,-18.30078 z"
       id="path2804" />
  </g>
  <g
     id="polygon66"
     class="cls-2"
     transform="translate(14.424692,-5.6922677)">
    <path
       style="color:#000000;fill:#000000;stroke-miterlimit:10;-inkscape-stroke:none"
       d="m 187.5,144.7 h 21.8 L 220.2,125.8 209.3,107 h -21.8 l -10.8,18.8 z"
       id="path2778" />
    <path
       style="color:#000000;fill:#000000;stroke-miterlimit:10;-inkscape-stroke:none"
       d="m 187.21094,106.5 -11.08789,19.29883 11.08593,19.40039 H 187.5 209.58789 L 220.77734,125.79883 209.58789,106.5 Z m 0.57812,1 h 21.22266 l 10.61133,18.30078 -10.61133,18.39844 h -21.22266 l -10.51367,-18.39844 z"
       id="path2780" />
  </g>
  <g
     id="polygon68"
     class="cls-1"
     transform="translate(14.424692,-5.6922677)">
    <path
       style="color:#000000;fill:#ffffff;stroke-miterlimit:10;-inkscape-stroke:none"
       d="M 220.3,163.5 H 242 L 252.9,144.7 242,125.8 h -21.7 l -10.9,18.9 z"
       id="path2808" />
    <path
       style="color:#000000;fill:#000000;stroke-miterlimit:10;-inkscape-stroke:none"
       d="M 220.01172,125.30078 208.82227,144.70117 220.01172,164 h 0.28906 21.98633 l 11.19141,-19.29883 -11.18946,-19.40039 z m 0.57617,1 h 21.12305 L 252.32227,144.69922 241.71289,163 h -21.125 l -10.60937,-18.30078 z"
       id="path2810" />
  </g>
  <g
     id="polygon70"
     class="cls-2"
     transform="translate(14.424692,-5.6922677)">
    <path
       style="color:#000000;fill:#000000;stroke-miterlimit:10;-inkscape-stroke:none"
       d="m 253,144.7 h 21.8 L 285.7,125.8 274.8,107 H 253 l -10.8,18.8 z"
       id="path2784" />
    <path
       style="color:#000000;fill:#000000;stroke-miterlimit:10;-inkscape-stroke:none"
       d="m 252.71094,106.5 -11.08789,19.29883 11.08593,19.40039 H 253 275.08789 L 286.27734,125.79883 275.08789,106.5 Z m 0.57812,1 h 21.22266 l 10.61133,18.30078 -10.61133,18.39844 h -21.22266 l -10.51367,-18.39844 z"
       id="path2786" />
  </g>
  <g
     id="polygon72"
     class="cls-1"
     transform="translate(14.424692,-5.6922677)">
    <path
       style="color:#000000;fill:#ffffff;stroke-miterlimit:10;-inkscape-stroke:none"
       d="m 286.1,163.5 h 21.8 l 10.9,-18.8 -10.9,-18.9 h -21.8 l -10.9,18.9 z"
       id="path2814" />
    <path
       style="color:#000000;fill:#000000;stroke-miterlimit:10;-inkscape-stroke:none"
       d="M 285.81055,125.30078 274.62305,144.70117 285.8125,164 h 0.28711 22.08789 l 11.18945,-19.29883 -11.1875,-19.40039 z m 0.57812,1 h 21.22266 L 318.22266,144.69922 307.61133,163 h -21.22266 l -10.61133,-18.30078 z"
       id="path2816" />
  </g>
  <g
     id="polygon74"
     class="cls-2"
     transform="translate(14.424692,-5.6922677)">
    <path
       style="color:#000000;fill:#000000;stroke-miterlimit:10;-inkscape-stroke:none"
       d="m 318.9,144.7 h 21.8 L 351.6,125.8 340.7,107 H 318.9 L 308,125.8 Z"
       id="path2790" />
    <path
       style="color:#000000;fill:#000000;stroke-miterlimit:10;-inkscape-stroke:none"
       d="m 318.61133,106.5 -11.18946,19.29883 11.18946,19.40039 h 0.28906 22.08789 L 352.17773,125.79883 340.98828,106.5 Z m 0.57617,1 h 21.22461 l 10.60937,18.30078 -10.60937,18.39844 h -21.22266 l -10.61133,-18.39844 z"
       id="path2792" />
  </g>
  <g
     id="polygon76"
     class="cls-1"
     transform="translate(14.424692,-5.6922677)">
    <path
       style="color:#000000;fill:#ffffff;stroke-miterlimit:10;-inkscape-stroke:none"
       d="m 351.6,163.5 h 21.8 l 10.9,-18.8 -10.9,-18.9 h -21.8 l -10.8,18.9 z"
       id="path2820" />
    <path
       style="color:#000000;fill:#000000;stroke-miterlimit:10;-inkscape-stroke:none"
       d="M 351.31055,125.30078 340.22461,144.70117 351.31055,164 h 0.28906 22.08789 l 11.18945,-19.29883 -11.1875,-19.40039 z m 0.58007,1 h 21.22071 L 383.72266,144.69922 373.11133,163 h -21.22266 l -10.51172,-18.30078 z"
       id="path2822" />
  </g>
  <g
     id="polygon82"
     class="cls-2"
     transform="translate(14.424692,-5.6922677)">
    <path
       style="color:#000000;fill:#000000;stroke-miterlimit:10;-inkscape-stroke:none"
       d="m 187.5,258 h 21.8 l 10.9,-18.9 -10.9,-18.9 h -21.8 l -10.8,18.9 z"
       id="path2910" />
    <path
       style="color:#000000;fill:#000000;stroke-miterlimit:10;-inkscape-stroke:none"
       d="M 187.20898,219.69922 176.125,239.09961 187.20898,258.5 H 187.5 209.58789 l 11.18945,-19.40039 -11.18945,-19.40039 z m 0.58204,1 h 21.2207 L 219.62305,239.09961 209.01172,257.5 h -21.22266 l -10.51367,-18.40039 z"
       id="path2912" />
  </g>
  <g
     id="polygon84"
     class="cls-2"
     transform="translate(14.424692,-5.6922677)">
    <path
       style="color:#000000;fill:#000000;stroke-miterlimit:10;-inkscape-stroke:none"
       d="m 253,258 h 21.8 l 10.9,-18.9 -10.9,-18.9 H 253 l -10.8,18.9 z"
       id="path2916" />
    <path
       style="color:#000000;fill:#000000;stroke-miterlimit:10;-inkscape-stroke:none"
       d="M 252.70898,219.69922 241.625,239.09961 252.70898,258.5 H 253 275.08789 l 11.18945,-19.40039 -11.18945,-19.40039 z m 0.58204,1 h 21.2207 L 285.12305,239.09961 274.51172,257.5 h -21.22266 l -10.51367,-18.40039 z"
       id="path2918" />
  </g>
  <g
     id="polygon98"
     class="cls-1"
     transform="translate(14.424692,-5.6922677)">
    <path
       style="color:#000000;fill:#ffffff;stroke-miterlimit:10;-inkscape-stroke:none"
       d="m 121.7,182.4 h 21.8 l 10.9,-18.9 -10.9,-18.8 h -21.8 l -10.8,18.8 z"
       id="path2826" />
    <path
       style="color:#000000;fill:#000000;stroke-miterlimit:10;-inkscape-stroke:none"
       d="M 121.41016,144.19922 110.32422,163.5 l 11.08594,19.40039 h 0.28906 22.08984 L 154.97852,163.5 143.78711,144.19922 Z m 0.58007,1 h 21.22266 L 153.82227,163.5 143.21094,181.90039 H 121.99023 L 111.47656,163.5 Z"
       id="path2828" />
  </g>
  <g
     id="polygon100"
     class="cls-2"
     transform="translate(14.424692,-5.6922677)">
    <path
       style="color:#000000;fill:#000000;stroke-miterlimit:10;-inkscape-stroke:none"
       d="m 154.8,201.2 h 21.7 l 10.9,-18.8 -10.9,-18.9 h -21.7 l -10.9,18.9 z"
       id="path2850" />
    <path
       style="color:#000000;fill:#000000;stroke-miterlimit:10;-inkscape-stroke:none"
       d="m 154.51172,163 -11.18945,19.40039 11.18945,19.29883 h 0.28906 21.98633 L 187.97852,182.40039 176.78906,163 Z m 0.57617,1 h 21.12305 l 10.61133,18.39844 -10.60938,18.30078 h -21.125 l -10.60937,-18.30078 z"
       id="path2852" />
  </g>
  <g
     id="polygon102"
     class="cls-1"
     transform="translate(14.424692,-5.6922677)">
    <path
       style="color:#000000;fill:#ffffff;stroke-miterlimit:10;-inkscape-stroke:none"
       d="m 187.5,182.4 h 21.8 l 10.9,-18.9 -10.9,-18.8 h -21.8 l -10.8,18.8 z"
       id="path2832" />
    <path
       style="color:#000000;fill:#000000;stroke-miterlimit:10;-inkscape-stroke:none"
       d="M 187.21094,144.19922 176.12305,163.5 187.20898,182.90039 H 187.5 209.58789 L 220.77734,163.5 209.58789,144.19922 Z m 0.57812,1 h 21.22266 L 219.62305,163.5 209.01172,181.90039 H 187.78906 L 177.27539,163.5 Z"
       id="path2834" />
  </g>
  <g
     id="polygon104"
     class="cls-2"
     transform="translate(14.424692,-5.6922677)">
    <path
       style="color:#000000;fill:#000000;stroke-miterlimit:10;-inkscape-stroke:none"
       d="M 220.3,201.2 H 242 L 252.9,182.4 242,163.5 h -21.7 l -10.9,18.9 z"
       id="path2856" />
    <path
       style="color:#000000;fill:#000000;stroke-miterlimit:10;-inkscape-stroke:none"
       d="m 220.01172,163 -11.18945,19.40039 11.18945,19.29883 h 0.28906 21.98633 L 253.47852,182.40039 242.28906,163 Z m 0.57617,1 h 21.12305 l 10.61133,18.39844 -10.60938,18.30078 h -21.125 l -10.60937,-18.30078 z"
       id="path2858" />
  </g>
  <g
     id="polygon106"
     class="cls-1"
     transform="translate(14.424692,-5.6922677)">
    <path
       style="color:#000000;fill:#ffffff;stroke-miterlimit:10;-inkscape-stroke:none"
       d="m 253,182.4 h 21.8 l 10.9,-18.9 -10.9,-18.8 H 253 l -10.8,18.8 z"
       id="path2838" />
    <path
       style="color:#000000;fill:#000000;stroke-miterlimit:10;-inkscape-stroke:none"
       d="M 252.71094,144.19922 241.62305,163.5 252.70898,182.90039 H 253 275.08789 L 286.27734,163.5 275.08789,144.19922 Z m 0.57812,1 h 21.22266 L 285.12305,163.5 274.51172,181.90039 H 253.28906 L 242.77539,163.5 Z"
       id="path2840" />
  </g>
  <g
     id="polygon108"
     class="cls-2"
     transform="translate(14.424692,-5.6922677)">
    <path
       style="color:#000000;fill:#000000;stroke-miterlimit:10;-inkscape-stroke:none"
       d="m 286.1,201.2 h 21.8 l 10.9,-18.8 -10.9,-18.9 h -21.8 l -10.9,18.9 z"
       id="path2862" />
    <path
       style="color:#000000;fill:#000000;stroke-miterlimit:10;-inkscape-stroke:none"
       d="m 285.81055,163 -11.1875,19.40039 11.18945,19.29883 h 0.28711 22.08789 L 319.37695,182.40039 308.18945,163 Z m 0.57812,1 h 21.22266 l 10.61133,18.39844 -10.61133,18.30078 h -21.22266 l -10.61133,-18.30078 z"
       id="path2864" />
  </g>
  <g
     id="polygon110"
     class="cls-1"
     transform="translate(14.424692,-5.6922677)">
    <path
       style="color:#000000;fill:#ffffff;stroke-miterlimit:10;-inkscape-stroke:none"
       d="m 318.9,182.4 h 21.8 l 10.9,-18.9 -10.9,-18.8 H 318.9 L 308,163.5 Z"
       id="path2844" />
    <path
       style="color:#000000;fill:#000000;stroke-miterlimit:10;-inkscape-stroke:none"
       d="M 318.61133,144.19922 307.42187,163.5 l 11.18946,19.40039 h 0.28906 22.08789 L 352.17773,163.5 340.98828,144.19922 Z m 0.57617,1 h 21.22461 L 351.02148,163.5 340.41211,181.90039 H 319.18945 L 308.57812,163.5 Z"
       id="path2846" />
  </g>
  <g
     id="polygon124"
     class="cls-1"
     transform="translate(14.424692,-5.6922677)">
    <path
       style="color:#000000;fill:#ffffff;stroke-miterlimit:10;-inkscape-stroke:none"
       d="m 121.7,220.1 h 21.8 l 10.9,-18.9 -10.9,-18.8 h -21.8 l -10.8,18.8 z"
       id="path2868" />
    <path
       style="color:#000000;fill:#000000;stroke-miterlimit:10;-inkscape-stroke:none"
       d="m 121.41016,181.90039 -11.08594,19.29883 11.08594,19.40039 h 0.28906 22.08984 l 11.18946,-19.40039 -11.19141,-19.29883 z m 0.58007,1 h 21.22266 l 10.60938,18.30078 -10.61133,18.39844 h -21.22071 l -10.51367,-18.39844 z"
       id="path2870" />
  </g>
  <g
     id="polygon126"
     class="cls-1"
     transform="translate(14.424692,-5.6922677)">
    <path
       style="color:#000000;fill:#ffffff;stroke-miterlimit:10;-inkscape-stroke:none"
       d="m 154.8,238.9 h 21.7 l 10.9,-18.8 -10.9,-18.9 h -21.7 l -10.9,18.9 z"
       id="path2892" />
    <path
       style="color:#000000;fill:#000000;stroke-miterlimit:10;-inkscape-stroke:none"
       d="m 154.51172,200.69922 -11.18945,19.40234 11.18945,19.29883 h 0.28906 21.98633 l 11.19141,-19.29883 -11.18946,-19.40234 z m 0.57617,1 h 21.12305 l 10.61133,18.40039 -10.60938,18.30078 h -21.125 l -10.60937,-18.30078 z"
       id="path2894" />
  </g>
  <g
     id="polygon128"
     class="cls-1"
     transform="translate(14.424692,-5.6922677)">
    <path
       style="color:#000000;fill:#ffffff;stroke-miterlimit:10;-inkscape-stroke:none"
       d="m 187.5,220.1 h 21.8 l 10.9,-18.9 -10.9,-18.8 h -21.8 l -10.8,18.8 z"
       id="path2874" />
    <path
       style="color:#000000;fill:#000000;stroke-miterlimit:10;-inkscape-stroke:none"
       d="m 187.21094,181.90039 -11.08789,19.29883 11.08593,19.40039 H 187.5 209.58789 l 11.18945,-19.40039 -11.18945,-19.29883 z m 0.57812,1 h 21.22266 l 10.61133,18.30078 -10.61133,18.39844 h -21.22266 l -10.51367,-18.39844 z"
       id="path2876" />
  </g>
  <g
     id="polygon130"
     class="cls-1"
     transform="translate(14.424692,-5.6922677)">
    <path
       style="color:#000000;fill:#ffffff;stroke-miterlimit:10;-inkscape-stroke:none"
       d="M 220.3,238.9 H 242 L 252.9,220.1 242,201.2 h -21.7 l -10.9,18.9 z"
       id="path2898" />
    <path
       style="color:#000000;fill:#000000;stroke-miterlimit:10;-inkscape-stroke:none"
       d="m 220.01172,200.69922 -11.18945,19.40234 11.18945,19.29883 h 0.28906 21.98633 l 11.19141,-19.29883 -11.18946,-19.40234 z m 0.57617,1 h 21.12305 l 10.61133,18.40039 -10.60938,18.30078 h -21.125 l -10.60937,-18.30078 z"
       id="path2900" />
  </g>
  <g
     id="polygon132"
     class="cls-1"
     transform="translate(14.424692,-5.6922677)">
    <path
       style="color:#000000;fill:#ffffff;stroke-miterlimit:10;-inkscape-stroke:none"
       d="m 253,220.1 h 21.8 l 10.9,-18.9 -10.9,-18.8 H 253 l -10.8,18.8 z"
       id="path2880" />
    <path
       style="color:#000000;fill:#000000;stroke-miterlimit:10;-inkscape-stroke:none"
       d="m 252.71094,181.90039 -11.08789,19.29883 11.08593,19.40039 H 253 275.08789 l 11.18945,-19.40039 -11.18945,-19.29883 z m 0.57812,1 h 21.22266 l 10.61133,18.30078 -10.61133,18.39844 h -21.22266 l -10.51367,-18.39844 z"
       id="path2882" />
  </g>
  <g
     id="polygon134"
     class="cls-1"
     transform="translate(14.424692,-5.6922677)">
    <path
       style="color:#000000;fill:#ffffff;stroke-miterlimit:10;-inkscape-stroke:none"
       d="m 286.1,238.9 h 21.8 l 10.9,-18.8 -10.9,-18.9 h -21.8 l -10.9,18.9 z"
       id="path2904" />
    <path
       style="color:#000000;fill:#000000;stroke-miterlimit:10;-inkscape-stroke:none"
       d="m 285.81055,200.69922 -11.1875,19.40234 11.18945,19.29883 h 0.28711 22.08789 l 11.18945,-19.29883 -11.1875,-19.40234 z m 0.57812,1 h 21.22266 l 10.61133,18.40039 -10.61133,18.30078 h -21.22266 l -10.61133,-18.30078 z"
       id="path2906" />
  </g>
  <g
     id="polygon136"
     class="cls-1"
     transform="translate(14.424692,-5.6922677)">
    <path
       style="color:#000000;fill:#ffffff;stroke-miterlimit:10;-inkscape-stroke:none"
       d="m 318.9,220.1 h 21.8 l 10.9,-18.9 -10.9,-18.8 H 318.9 L 308,201.2 Z"
       id="path2886" />
    <path
       style="color:#000000;fill:#000000;stroke-miterlimit:10;-inkscape-stroke:none"
       d="m 318.61133,181.90039 -11.18946,19.29883 11.18946,19.40039 h 0.28906 22.08789 l 11.18945,-19.40039 -11.18945,-19.29883 z m 0.57617,1 h 21.22461 l 10.60937,18.30078 -10.60937,18.39844 h -21.22266 l -10.61133,-18.39844 z"
       id="path2888" />
  </g>
</svg>
