<?xml version="1.0" encoding="UTF-8" standalone="no"?>
<svg
   xmlns:dc="http://purl.org/dc/elements/1.1/"
   xmlns:cc="http://creativecommons.org/ns#"
   xmlns:rdf="http://www.w3.org/1999/02/22-rdf-syntax-ns#"
   xmlns:svg="http://www.w3.org/2000/svg"
   xmlns="http://www.w3.org/2000/svg"
   xmlns:sodipodi="http://sodipodi.sourceforge.net/DTD/sodipodi-0.dtd"
   xmlns:inkscape="http://www.inkscape.org/namespaces/inkscape"
   inkscape:export-ydpi="90"
   inkscape:export-xdpi="90"
   inkscape:export-filename="/Users/mike/ml14a004@oecu.jp/work/JOI/2020Bebras/2020-JP-002/2020-JP-02.png"
   sodipodi:docname="b08-sol3.svg"
   inkscape:version="0.92.4 (5da689c313, 2019-01-14)"
   id="svg2"
   xml:space="preserve"
   enable-background="new 0 0 670.7 330.5"
   viewBox="0 0 670.7 330.5"
   y="0px"
   x="0px"
   version="1.1"><metadata
     id="metadata116"><rdf:RDF><cc:Work
         rdf:about=""><dc:format>image/svg+xml</dc:format><dc:type
           rdf:resource="http://purl.org/dc/dcmitype/StillImage" /><dc:title /></cc:Work></rdf:RDF></metadata><defs
     id="defs114" /><sodipodi:namedview
     inkscape:document-rotation="0"
     inkscape:snap-grids="false"
     inkscape:snap-to-guides="false"
     inkscape:current-layer="レイヤー_1"
     inkscape:window-maximized="1"
     inkscape:window-y="-8"
     inkscape:window-x="-8"
     inkscape:cy="205.2053"
     inkscape:cx="283.23374"
     inkscape:zoom="1.9528717"
     showgrid="true"
     id="namedview112"
     inkscape:window-height="1017"
     inkscape:window-width="1920"
     inkscape:pageshadow="2"
     inkscape:pageopacity="0"
     guidetolerance="10"
     gridtolerance="10"
     objecttolerance="10"
     borderopacity="1"
     bordercolor="#666666"
     pagecolor="#ffffff"><inkscape:grid
       id="grid3775"
       type="xygrid" /></sodipodi:namedview><g
     transform="matrix(0.98611882,0,0,0.98271078,8.1847865,4.9118669)"
     id="レイヤー_3"><rect
       style="fill:#c9bc9c"
       id="rect5"
       height="146.60001"
       width="680.90002"
       y="137.5"
       x="-8.3000002" /></g><g
     id="レイヤー_1"><rect
   style="fill:#e83828;stroke:#000000;stroke-width:2;stroke-linecap:round;stroke-linejoin:round;stroke-miterlimit:10"
   id="rect8"
   height="54.599998"
   width="73.199997"
   stroke-miterlimit="10"
   y="84.499992"
   x="50.300003" /><polygon
   style="fill:#e83828;stroke:#000000;stroke-width:2;stroke-linecap:round;stroke-linejoin:round;stroke-miterlimit:10"
   transform="translate(-43.599998,2.4999924)"
   id="polygon10"
   points="173.5,87.9 86.9,87.9 130.2,12.9 "
   stroke-miterlimit="10" /><rect
   style="fill:#64e278;fill-opacity:1;stroke:#000000;stroke-width:2;stroke-linecap:round;stroke-linejoin:round;stroke-miterlimit:10"
   id="rect12"
   height="54.599998"
   width="73.199997"
   stroke-miterlimit="10"
   y="84.637917"
   x="176.01042" /><polygon
   style="fill:#ffffff;stroke:#000000;stroke-width:2;stroke-linecap:round;stroke-linejoin:round;stroke-miterlimit:10"
   transform="translate(-36.489575,2.5379159)"
   id="polygon14"
   points="205.5,88 248.8,40 292.1,88 "
   stroke-miterlimit="10" /><rect
   style="fill:#04096d;fill-opacity:1;stroke:#000000;stroke-width:2;stroke-linecap:round;stroke-linejoin:round;stroke-miterlimit:10"
   id="rect16"
   height="54.599998"
   width="73.199997"
   stroke-miterlimit="10"
   y="84.562088"
   x="300.92419" /><polygon
   style="fill:#04096d;fill-opacity:1;stroke:#000000;stroke-width:2;stroke-linecap:round;stroke-linejoin:round;stroke-miterlimit:10"
   transform="translate(-28.775829,1.7620871)"
   id="polygon18"
   points="322.7,88.7 366,13.7 409.3,88.7 "
   stroke-miterlimit="10" /><rect
   style="fill:#e83828;fill-opacity:1;stroke:#000000;stroke-width:2;stroke-linecap:round;stroke-linejoin:round;stroke-miterlimit:10"
   id="rect20"
   height="54.599998"
   width="73.199997"
   stroke-miterlimit="10"
   y="84.700005"
   x="425.69998" /><polygon
   style="fill:#e83828;fill-opacity:1;stroke:#000000;stroke-width:2;stroke-linecap:round;stroke-linejoin:round;stroke-miterlimit:10"
   transform="translate(-30.800018,1.9000015)"
   id="polygon22"
   points="536.2,88.7 449.6,88.7 492.9,13.7 "
   stroke-miterlimit="10" /><rect
   style="fill:#64e278;fill-opacity:1;stroke:#000000;stroke-width:2;stroke-linecap:round;stroke-linejoin:round;stroke-miterlimit:10"
   id="rect24"
   height="54.599998"
   width="73.199997"
   stroke-miterlimit="10"
   y="85.099998"
   x="550.90002" /><rect
   style="fill:#04096d;fill-opacity:1;stroke:#000000;stroke-width:2;stroke-linecap:round;stroke-linejoin:round;stroke-miterlimit:10"
   id="rect26"
   height="54.599998"
   width="73.199997"
   stroke-miterlimit="10"
   y="228.06871"
   x="50.300003" /><rect
   style="fill:#e83828;fill-opacity:1;stroke:#000000;stroke-width:2;stroke-linecap:round;stroke-linejoin:round;stroke-miterlimit:10"
   id="rect28"
   height="54.599998"
   width="73.199997"
   stroke-miterlimit="10"
   y="228.64122"
   x="175.88957" /><rect
   style="fill:#64e278;fill-opacity:1;stroke:#000000;stroke-width:2;stroke-linecap:round;stroke-linejoin:round;stroke-miterlimit:10"
   id="rect32"
   height="54.599998"
   width="73.199997"
   stroke-miterlimit="10"
   y="228.87915"
   x="301.71375" /><rect
   style="fill:#ffffff;stroke:#000000;stroke-width:2;stroke-linecap:round;stroke-linejoin:round;stroke-miterlimit:10"
   id="rect34"
   height="54.599998"
   width="73.199997"
   stroke-miterlimit="10"
   y="228.44455"
   x="426.51373" /><polygon
   style="fill:#ffffff;stroke:#000000;stroke-width:2;stroke-linecap:round;stroke-linejoin:round;stroke-miterlimit:10"
   transform="translate(33.913743,-11.155456)"
   id="polygon36"
   points="428.9,170.5 472.2,245.5 385.6,245.5 "
   stroke-miterlimit="10" /><rect
   style="fill:#e83828;stroke:#000000;stroke-width:2;stroke-linecap:round;stroke-linejoin:round;stroke-miterlimit:10"
   id="rect38"
   height="54.599998"
   width="73.199997"
   stroke-miterlimit="10"
   y="227.79288"
   x="551.14838" /><polygon
   style="fill:#e83828;stroke:#000000;stroke-width:2;stroke-linecap:round;stroke-linejoin:round;stroke-miterlimit:10"
   transform="translate(41.348367,-12.507132)"
   id="polygon40"
   points="546.1,191.4 589.4,246.2 502.8,246.2 "
   stroke-miterlimit="10" /><rect
   style="fill:#64e278;fill-opacity:1;stroke:#000000;stroke-width:1.9344;stroke-linecap:round;stroke-linejoin:round;stroke-miterlimit:10"
   id="rect42"
   height="39.400002"
   width="94.099998"
   stroke-miterlimit="10"
   y="56.699997"
   x="539.70001" /><rect
   style="fill:#64e278;fill-opacity:1;stroke:#000000;stroke-width:2;stroke-linecap:round;stroke-linejoin:round;stroke-miterlimit:10"
   id="rect44"
   height="39.400002"
   width="94.099998"
   stroke-miterlimit="10"
   y="196.97914"
   x="290.41373" /><polygon
   style="fill:#04096d;fill-opacity:1;stroke:#000000;stroke-width:2;stroke-linecap:round;stroke-linejoin:round;stroke-miterlimit:10"
   transform="translate(20.300003,-10.731303)"
   id="polygon46"
   points="104.5,208.7 28.5,208.7 18.5,248.1 112.5,248.1 "
   stroke-miterlimit="10" /><rect
   style="fill:#7a6a56;stroke:#000000;stroke-width:2;stroke-linecap:round;stroke-linejoin:round;stroke-miterlimit:10"
   id="rect48"
   height="33.200001"
   width="22.6"
   stroke-miterlimit="10"
   y="105.5"
   x="62.400002" /><rect
   style="fill:#7a6a56;stroke:#000000;stroke-width:2;stroke-linecap:round;stroke-linejoin:round;stroke-miterlimit:10"
   id="rect50"
   height="33.200001"
   width="22.6"
   stroke-miterlimit="10"
   y="105.13792"
   x="186.81042" /><rect
   style="fill:#7a6a56;stroke:#000000;stroke-width:2;stroke-linecap:round;stroke-linejoin:round;stroke-miterlimit:10"
   id="rect52"
   height="33.200001"
   width="22.6"
   stroke-miterlimit="10"
   y="105.5"
   x="437.39999" /><rect
   style="fill:#7a6a56;stroke:#000000;stroke-width:2;stroke-linecap:round;stroke-linejoin:round;stroke-miterlimit:10"
   id="rect54"
   height="33.200001"
   width="22.6"
   stroke-miterlimit="10"
   y="105.36208"
   x="337.32419" /><rect
   style="fill:#7a6a56;stroke:#000000;stroke-width:2;stroke-linecap:round;stroke-linejoin:round;stroke-miterlimit:10"
   id="rect56"
   height="33.200001"
   width="22.6"
   stroke-miterlimit="10"
   y="105.5"
   x="562.40002" /><rect
   style="fill:#00a0e9;stroke:#000000;stroke-width:2;stroke-linecap:round;stroke-linejoin:round;stroke-miterlimit:10"
   id="rect58"
   height="22.700001"
   width="26.700001"
   stroke-miterlimit="10"
   y="247.36871"
   x="63.300003" /><rect
   style="fill:#00a0e9;stroke:#000000;stroke-width:2;stroke-linecap:round;stroke-linejoin:round;stroke-miterlimit:10"
   id="rect60"
   height="22.700001"
   width="26.700001"
   stroke-miterlimit="10"
   y="244.54123"
   x="213.18958" /><rect
   style="fill:#00a0e9;stroke:#000000;stroke-width:2;stroke-linecap:round;stroke-linejoin:round;stroke-miterlimit:10"
   id="rect62"
   height="22.700001"
   width="26.700001"
   stroke-miterlimit="10"
   y="246.87915"
   x="312.21375" /><rect
   style="fill:#00a0e9;stroke:#000000;stroke-width:2;stroke-linecap:round;stroke-linejoin:round;stroke-miterlimit:10"
   id="rect64"
   height="22.700001"
   width="26.700001"
   stroke-miterlimit="10"
   y="243.09288"
   x="586.44836" /><rect
   style="fill:none"
   id="rect66"
   height="32.099998"
   width="49.099998"
   y="59.799992"
   x="64.599998" /><text
   y="80.003494"
   x="76.856796"
   style="font-size:23px;line-height:0%;font-family:KozGoPr6N-Regular-83pv-RKSJ-H;fill:#ffffff;-inkscape-font-specification:'KozGoPr6N-Regular-83pv-RKSJ-H, Normal';font-weight:normal;font-style:normal;font-stretch:normal;font-variant:normal;text-anchor:start;text-align:start;writing-mode:lr;font-variant-ligatures:normal;font-variant-caps:normal;font-variant-numeric:normal;font-feature-settings:normal;"
   id="text68"
   font-size="23"><tspan
     sodipodi:role="line"
     id="tspan86">К</tspan></text>






<rect
   style="fill:none"
   id="rect70"
   height="32.099998"
   width="49.099998"
   y="207.59288"
   x="565.74841" />

<rect
   style="fill:none"
   id="rect74"
   height="32.099998"
   width="49.099998"
   y="60.862087"
   x="315.72418" /><text
   style="font-size:23px;line-height:0%;font-family:KozGoPr6N-Regular-83pv-RKSJ-H;fill:#ffffff;-inkscape-font-specification:'KozGoPr6N-Regular-83pv-RKSJ-H, Normal';font-weight:normal;font-style:normal;font-stretch:normal;font-variant:normal;text-anchor:start;text-align:start;writing-mode:lr;font-variant-ligatures:normal;font-variant-caps:normal;font-variant-numeric:normal;font-feature-settings:normal;"
   y="80.126953"
   x="329.63303"
   id="text76"
   font-size="23"><tspan
     sodipodi:role="line"
     id="tspan100">С</tspan></text>






<rect
   style="fill:none"
   id="rect78"
   height="32.099998"
   width="49.099998"
   y="206.9687"
   x="63.600002" /><text
   style="font-size:23px;line-height:0%;font-family:KozGoPr6N-Regular-83pv-RKSJ-H;fill:#ffffff;-inkscape-font-specification:'KozGoPr6N-Regular-83pv-RKSJ-H, Normal';font-weight:normal;font-style:normal;font-stretch:normal;font-variant:normal;text-anchor:start;text-align:start;writing-mode:lr;font-variant-ligatures:normal;font-variant-caps:normal;font-variant-numeric:normal;font-feature-settings:normal;"
   y="227.67578"
   x="77.00386"
   id="text80"
   font-size="23"><tspan
     sodipodi:role="line"
     id="tspan102">С</tspan></text>






<rect
   style="fill:none"
   id="rect82"
   height="32.099998"
   width="78.199997"
   y="63.799999"
   x="552.60004" /><text
   style="font-size:23px;line-height:0%;font-family:KozGoPr6N-Regular-83pv-RKSJ-H;fill:#ffffff;-inkscape-font-specification:'KozGoPr6N-Regular-83pv-RKSJ-H, Normal';font-weight:normal;font-style:normal;font-stretch:normal;font-variant:normal;text-anchor:start;text-align:start;writing-mode:lr;font-variant-ligatures:normal;font-variant-caps:normal;font-variant-numeric:normal;font-feature-settings:normal;"
   y="85.567299"
   x="575.68774"
   id="text84"
   font-size="23"><tspan
     sodipodi:role="line"
     id="tspan96">З</tspan></text>






<rect
   fill="none"
   id="rect86"
   height="32.099998"
   width="101.4"
   y="298"
   x="392.70001" /><text
   y="307.06393"
   x="397.38181"
   style="font-style:normal;font-variant:normal;font-weight:normal;font-stretch:normal;font-size:23px;line-height:0%;font-family:KozGoPr6N-Regular-83pv-RKSJ-H;-inkscape-font-specification:'KozGoPr6N-Regular-83pv-RKSJ-H, Normal';font-variant-ligatures:normal;font-variant-caps:normal;font-variant-numeric:normal;font-feature-settings:normal;text-align:start;writing-mode:lr-tb;text-anchor:start"
   id="text88"
   font-size="23"><tspan
     sodipodi:role="line"
     id="tspan84"
     x="397.38181"
     y="307.06393">Бобр Саша</tspan></text>






<polygon
   style="fill:#e83828;fill-opacity:1;stroke:#000000;stroke-width:2;stroke-linecap:round;stroke-linejoin:round;stroke-miterlimit:10"
   transform="translate(27.389569,-10.258771)"
   id="polygon30"
   points="141.5,244.8 184.9,169.8 228.2,244.8 "
   stroke-miterlimit="10" /><polygon
   style="fill:#64e278;fill-opacity:1;stroke:#000000;stroke-width:2;stroke-linecap:round;stroke-linejoin:round;stroke-miterlimit:10"
   transform="translate(-333.78957,-155.66208)"
   id="polygon40-5"
   points="502.8,246.2 546.1,191.4 589.4,246.2 "
   stroke-miterlimit="10" />



<text
   y="225.2048"
   x="203.71973"
   style="font-size:23px;line-height:0%;font-family:KozGoPr6N-Regular-83pv-RKSJ-H;fill:#ffffff;-inkscape-font-specification:'KozGoPr6N-Regular-83pv-RKSJ-H, Normal';font-weight:normal;font-style:normal;font-stretch:normal;font-variant:normal;text-anchor:start;text-align:start;writing-mode:lr;font-variant-ligatures:normal;font-variant-caps:normal;font-variant-numeric:normal;font-feature-settings:normal;"
   id="text68-3"
   font-size="23"><tspan
     sodipodi:role="line"
     id="tspan90">К</tspan></text>




<text
   y="80.290001"
   x="453.60812"
   style="font-size:23px;line-height:0%;font-family:KozGoPr6N-Regular-83pv-RKSJ-H;fill:#ffffff;-inkscape-font-specification:'KozGoPr6N-Regular-83pv-RKSJ-H, Normal';font-weight:normal;font-style:normal;font-stretch:normal;font-variant:normal;text-anchor:start;text-align:start;writing-mode:lr;font-variant-ligatures:normal;font-variant-caps:normal;font-variant-numeric:normal;font-feature-settings:normal;"
   id="text68-6"
   font-size="23"><tspan
     sodipodi:role="line"
     id="tspan88">К</tspan></text>




<text
   y="225.2048"
   x="578.55231"
   style="font-size:23px;line-height:0%;font-family:KozGoPr6N-Regular-83pv-RKSJ-H;fill:#ffffff;-inkscape-font-specification:'KozGoPr6N-Regular-83pv-RKSJ-H, Normal';font-weight:normal;font-style:normal;font-stretch:normal;font-variant:normal;text-anchor:start;text-align:start;writing-mode:lr;font-variant-ligatures:normal;font-variant-caps:normal;font-variant-numeric:normal;font-feature-settings:normal;"
   id="text68-7"
   font-size="23"><tspan
     sodipodi:role="line"
     id="tspan92">К</tspan></text>




<text
   style="font-size:23px;line-height:0%;font-family:KozGoPr6N-Regular-83pv-RKSJ-H;fill:#ffffff;-inkscape-font-specification:'KozGoPr6N-Regular-83pv-RKSJ-H, Normal';font-weight:normal;font-style:normal;font-stretch:normal;font-variant:normal;text-anchor:start;text-align:start;writing-mode:lr;font-variant-ligatures:normal;font-variant-caps:normal;font-variant-numeric:normal;font-feature-settings:normal;"
   y="79.766701"
   x="202.86964"
   id="text84-5"
   font-size="23"><tspan
     sodipodi:role="line"
     id="tspan94">З</tspan></text>




<text
   style="font-size:23px;line-height:0%;font-family:KozGoPr6N-Regular-83pv-RKSJ-H;fill:#ffffff;-inkscape-font-specification:'KozGoPr6N-Regular-83pv-RKSJ-H, Normal';font-weight:normal;font-style:normal;font-stretch:normal;font-variant:normal;text-anchor:start;text-align:start;writing-mode:lr;font-variant-ligatures:normal;font-variant-caps:normal;font-variant-numeric:normal;font-feature-settings:normal;"
   y="225.70564"
   x="328.83801"
   id="text84-3"
   font-size="23"><tspan
     sodipodi:role="line"
     id="tspan98">З</tspan></text>




</g><g
     transform="translate(34.905269,-13.514477)"
     id="レイヤー_2"><g
       style="stroke-width:0.66989118;stroke-miterlimit:4;stroke-dasharray:none"
       transform="matrix(2.9855595,0,0,2.9855595,-1330.9821,-313.72797)"
       id="g3282_2_"><path
         style="fill:#dd8c56;stroke:#040000;stroke-width:0.66989118;stroke-linecap:round;stroke-linejoin:round;stroke-miterlimit:4;stroke-dasharray:none"
         d="m 593.2,184.7 c 0,0 1.7,-5 3.1,-2.1 0.4,0.8 -1.7,2.6 -1.7,2.6 z"
         inkscape:connector-curvature="0"
         sodipodi:nodetypes="cscc"
         id="path3874-0-0-6_2_" /><path
         style="fill:#dd8c56;stroke:#040000;stroke-width:0.66989118;stroke-linecap:round;stroke-linejoin:round;stroke-miterlimit:4;stroke-dasharray:none"
         d="m 585.7,184.7 c 0,0 -1.8,-4.9 -3.3,-2.1 -0.4,0.8 1.8,2.6 1.8,2.6 z"
         inkscape:connector-curvature="0"
         sodipodi:nodetypes="cscc"
         id="path3874-7-7-2-3_2_" /><path
         style="fill:#dd8c56;stroke:#040000;stroke-width:0.66989118;stroke-linecap:round;stroke-linejoin:round;stroke-miterlimit:4;stroke-dasharray:none"
         d="m 582.1,191 c 0,0 -1.7,-7.2 6.7,-7.6 5.8,-0.2 9.1,1.3 7.8,8 0,0 5.5,7.5 -2.9,9.8 0,0 -4.1,0.9 -8.9,0 0,0 -8.2,-1.8 -2.7,-10.2 z"
         inkscape:connector-curvature="0"
         sodipodi:nodetypes="cscccc"
         id="path3801-6-3-0_2_" /><path
         style="fill:#ffffff;stroke:#040000;stroke-width:0.66989118;stroke-linecap:round;stroke-linejoin:round;stroke-miterlimit:4;stroke-dasharray:none"
         d="m 586.4,195.5 c 0,0 0.4,4.4 0.7,4.6 0.2,0.2 4.2,0.3 4.4,-0.1 0.2,-0.4 0.6,-4.6 0.6,-4.6"
         inkscape:connector-curvature="0"
         sodipodi:nodetypes="cssc"
         id="path3830-7-9-8_2_" /><path
         style="fill:none;stroke:#040000;stroke-width:0.66989118;stroke-linecap:round;stroke-linejoin:round;stroke-miterlimit:4;stroke-dasharray:none"
         d="m 589.2,200 c 0,0 0,-4.9 0.1,-4.9"
         inkscape:connector-curvature="0"
         id="path3850-83-9-4_2_" /><path
         style="fill:#040000;stroke:#040000;stroke-width:0.66989118;stroke-linecap:round;stroke-linejoin:round;stroke-miterlimit:4;stroke-dasharray:none"
         d="m 586.9,189.7 c 0,0 0.9,0.2 1,-0.9 0.1,-1 -0.1,-1.6 -0.9,-1.6 -0.9,0 -0.7,1.4 -0.7,1.4 0,0 0.1,1.1 0.6,1.1 z"
         inkscape:connector-curvature="0"
         sodipodi:nodetypes="csscc"
         id="path3853-64-7-0_2_" /><path
         style="fill:#040000;stroke:#040000;stroke-width:0.66989118;stroke-linecap:round;stroke-linejoin:round;stroke-miterlimit:4;stroke-dasharray:none"
         d="m 591.5,187.3 c 0,0 1,-0.5 1,0.9 0,0.9 -0.1,1.6 -0.9,1.5 -0.9,0 -0.7,-1.4 -0.7,-1.4 0,0 0.1,-1 0.6,-1 z"
         inkscape:connector-curvature="0"
         sodipodi:nodetypes="csscc"
         id="path3853-1-4-0-4_2_" /><path
         style="fill:#f4a876;stroke:#040000;stroke-width:0.66989118;stroke-linecap:square;stroke-linejoin:round;stroke-miterlimit:4;stroke-dasharray:none"
         d="m 589.2,195.3 c 0,0 -5.5,4.4 -7.1,-0.7"
         inkscape:connector-curvature="0"
         sodipodi:nodetypes="cc"
         id="path3812-1-3-6_2_" /><path
         style="fill:#f4a876;stroke:#040000;stroke-width:0.66989118;stroke-linecap:square;stroke-linejoin:round;stroke-miterlimit:4;stroke-dasharray:none"
         d="m 589.3,195.3 c 0,0 5.5,4.4 7.1,-0.7"
         inkscape:connector-curvature="0"
         sodipodi:nodetypes="cc"
         id="path3827-9-9-4_2_" /><path
         style="fill:#f4a876;stroke-width:0.66989118;stroke-miterlimit:4;stroke-dasharray:none"
         d="m 582.2,194.7 c 0,0 -0.2,-2.8 2.2,-2.7 0,0 2.8,-0.1 3.9,1.7 1.2,2 1,1.6 1,1.6"
         inkscape:connector-curvature="0"
         sodipodi:nodetypes="ccsc"
         id="path3977-2-5-8-6_2_" /><path
         style="fill:#f4a876;stroke-width:0.66989118;stroke-miterlimit:4;stroke-dasharray:none"
         d="m 596.2,194.8 c 0,0 1,-2.9 -2.9,-2.5 0,0 -2.7,0.8 -3.1,1.6 -1.1,2 -1,1.6 -1,1.6"
         inkscape:connector-curvature="0"
         sodipodi:nodetypes="ccsc"
         id="path3977-2-7-5-6-4_2_" /><path
         style="fill:none;stroke:#040000;stroke-width:0.66989118;stroke-linecap:round;stroke-linejoin:round;stroke-miterlimit:4;stroke-dasharray:none"
         d="m 594.1,191.3 c 0,0 4.8,-1 9.3,-0.9"
         inkscape:connector-curvature="0"
         id="path3895-7-5-3_2_" /><path
         style="fill:none;stroke:#040000;stroke-width:0.66989118;stroke-linecap:round;stroke-linejoin:round;stroke-miterlimit:4;stroke-dasharray:none"
         d="m 594.2,192.8 c 0,0 8.7,-0.3 9,-0.2"
         inkscape:connector-curvature="0"
         id="path3897-4-7-8_2_" /><path
         style="fill:none;stroke:#040000;stroke-width:0.66989118;stroke-linecap:round;stroke-linejoin:round;stroke-miterlimit:4;stroke-dasharray:none"
         d="m 594,194 9,0.9"
         inkscape:connector-curvature="0"
         id="path3899-7-6-4_2_" /><path
         style="fill:none;stroke:#040000;stroke-width:0.66989118;stroke-linecap:round;stroke-miterlimit:4;stroke-dasharray:none"
         d="m 584.5,191 c 0,0 -4.5,-1 -8.6,-1"
         inkscape:connector-curvature="0"
         id="path3895-4-3-2-0_2_" /><path
         style="fill:none;stroke:#040000;stroke-width:0.66989118;stroke-linecap:round;stroke-miterlimit:4;stroke-dasharray:none"
         d="m 584.4,192.5 c 0,0 -8.1,-0.3 -8.4,-0.2"
         inkscape:connector-curvature="0"
         id="path3897-0-4-7-0_2_" /><path
         style="fill:none;stroke:#040000;stroke-width:0.66989118;stroke-linecap:round;stroke-miterlimit:4;stroke-dasharray:none"
         d="m 584.5,193.7 -8.4,1"
         inkscape:connector-curvature="0"
         id="path3899-9-0-0-9_2_" /><g
         style="stroke-width:0.75425202;stroke-miterlimit:4;stroke-dasharray:none"
         transform="matrix(1.0348806,0,0,0.76222869,41.321228,-126.80683)"
         id="g3808-8-3-3_2_"><path
           style="fill:#0f0f0f;stroke:#040000;stroke-width:0.75425202;stroke-linecap:round;stroke-linejoin:round;stroke-miterlimit:4;stroke-dasharray:none"
           d="m 528.8,422.6 c 0,0 -5.1,-5.5 -0.1,-5.5"
           inkscape:connector-curvature="0"
           sodipodi:nodetypes="cc"
           id="path3804-8-9-7_2_" /><path
           style="fill:#0f0f0f;stroke:#040000;stroke-width:0.75425202;stroke-linecap:round;stroke-linejoin:round;stroke-miterlimit:4;stroke-dasharray:none"
           d="m 528.2,417 h 2.2 -0.6 0.6 c 4.9,0 -0.3,5.5 -0.3,5.5 0,0 -0.7,0.9 -1.6,-0.1"
           inkscape:connector-curvature="0"
           sodipodi:nodetypes="cccccc"
           id="path3806-1-9-5_2_" /></g></g><path
       inkscape:connector-curvature="0"
       id="path3796"
       d="m 189.04359,-8.1047071 c 9.67954,-11.0295449 38.55868,-42.6430679 38.8476,-42.5258259 0.41435,0.16814 39.10837,42.9578409 39.6747,43.8741809 0.25914,0.419297 -10.39451,0.571894 -39.92703,0.571894 h -40.28048 z"
       style="fill:#ffffff;fill-opacity:1;stroke-width:0.51206642" /><path
       transform="translate(-34.905269,13.514477)"
       inkscape:connector-curvature="0"
       id="path3804"
       d="m 173.0719,87.880658 c 3.03595,-3.864078 39.05407,-43.177299 39.43449,-43.042134 0.65884,0.23409 39.92788,43.702675 39.92788,44.197882 0,0.138839 -18.10547,0.252434 -40.23438,0.252434 h -40.23438 z"
       style="fill:#22ac38;fill-opacity:0;stroke-width:0.51206642" /><path
       transform="translate(-34.905269,13.514477)"
       inkscape:connector-curvature="0"
       id="path3806"
       d="m 172.60975,88.392724 c 3.00856,-3.877467 39.49341,-43.698068 39.90104,-43.549131 0.67171,0.245425 38.79292,42.378838 39.56487,43.729024 0.34933,0.610988 -5.50968,0.716223 -39.87586,0.716223 -38.29051,0 -40.25093,-0.04437 -39.59005,-0.896116 z"
       style="fill:#22ac38;fill-opacity:0;stroke-width:0.51206642;opacity:0" /><path
       transform="translate(-34.905269,13.514477)"
       inkscape:connector-curvature="0"
       id="path4613"
       d="m 172.50086,88.572853 c 0.22522,-0.393794 8.9354,-10.098775 19.35595,-21.566625 10.42055,-11.46785 19.2921,-21.264623 19.71456,-21.770605 0.71575,-0.857273 1.18367,-0.460603 6.86609,5.820582 12.86292,14.21833 32.85011,36.480002 33.52184,37.336519 0.66803,0.851806 -1.28922,0.896116 -39.58258,0.896116 -34.35991,0 -40.22512,-0.105312 -39.87586,-0.715987 z"
       style="opacity:0;fill:#22ac38;fill-opacity:0;stroke-width:0.51206642" /><path
       transform="translate(-34.905269,13.514477)"
       inkscape:connector-curvature="0"
       id="path4615"
       d="m 172.50086,88.572853 c 0.22522,-0.393794 8.9354,-10.098775 19.35595,-21.566625 10.42055,-11.46785 19.2921,-21.264623 19.71456,-21.770605 0.71575,-0.857273 1.18367,-0.460603 6.86609,5.820582 12.86292,14.21833 32.85011,36.480002 33.52184,37.336519 0.66803,0.851806 -1.28922,0.896116 -39.58258,0.896116 -34.35991,0 -40.22512,-0.105312 -39.87586,-0.715987 z"
       style="opacity:0;fill:#22ac38;fill-opacity:0;stroke-width:0.51206642" /><path
       transform="translate(-34.905269,13.514477)"
       inkscape:connector-curvature="0"
       id="path4617"
       d="m 172.50086,88.572853 c 0.22522,-0.393794 8.9354,-10.098775 19.35595,-21.566625 10.42055,-11.46785 19.2921,-21.264623 19.71456,-21.770605 0.71575,-0.857273 1.18367,-0.460603 6.86609,5.820582 12.86292,14.21833 32.85011,36.480002 33.52184,37.336519 0.66803,0.851806 -1.28922,0.896116 -39.58258,0.896116 -34.35991,0 -40.22512,-0.105312 -39.87586,-0.715987 z"
       style="opacity:0;fill:#22ac38;fill-opacity:0;stroke-width:0.51206642" /></g></svg>