Nimi,Kool,Klass,Punkte,Lisainfo
Kirke Kisand,Hugo Treffneri Gümnaasium,10,38,
Sonja Tõnisberg,Gustav Adolfi Gümnaasium,9,38,
Kaur Huko Käämbre,Hugo Treffneri Gümnaasium,10,35,
Aleksei Jemeljanov,Narva Keeltelütseum,10,34,
Cathleen Marie Allmann,Gustav Adolfi Gümnaasium,10,34,
William Henry Gates III,Muu,8,34,väljaspool vanuserühma
Arthur Lauk,Hugo Treffneri Gümnaasium,10,33,
Ragnar Sarapuu,Hugo Treffneri Gümnaasium,10,33,
Rain Piiber,Gustav Adolfi Gümnaasium,10,33,
Annika Aho,Hugo Treffneri Gümnaasium,10,32,
Liisi Mäesalu,Gustav Adolfi Gümnaasium,9,32,
Sten-Tristan Romeikis,Gustav Adolfi Gümnaasium,9,32,
Aleksandr Kirijenko,Tallinna Kesklinna Vene Gümnaasium,9,31,
Hanna Hiienõmm,Gustav Adolfi Gümnaasium,9,31,
Kert Lelov,Hugo Treffneri Gümnaasium,10,31,
Marten Laasu,Pärnu Mai Kool,9,31,
Marvin Kask,Hugo Treffneri Gümnaasium,10,31,
Grete Liis Reimand,Gustav Adolfi Gümnaasium,10,30,
Jürgen Güsson,Hugo Treffneri Gümnaasium,10,30,
Kristjan Kukk,Tartu Tamme Gümnaasium,10,30,
Madis Roosma,Le Gymanse Jean Sturm,9,30,
Maksim Manuilov,Narva Vanalinna Riigikool,10,30,
Toomas Kaasik,Gustav Adolfi Gümnaasium,10,30,
Илья Михалёв,Tallinna Kesklinna Vene Gümnaasium,10,30,
Andreas Rey Hõim,Gustav Adolfi Gümnaasium,9,29,
Annabel Rüütel,Hugo Treffneri Gümnaasium,10,29,
Elsa Maria Peep,Gustav Adolfi Gümnaasium,10,29,
Georgii Taranenko,Tallinna Kesklinna Vene Gümnaasium,10,29,
Kirill Tserevko,Tallinna Kesklinna Vene Gümnaasium,10,29,
Kirjanov David,Tallinna Kesklinna Vene Gümnaasium,10,29,
Sander Kaal,Gustav Adolfi Gümnaasium,10,29,
Sander Tiks,Tallinna Kuristiku Gümnaasium,10,29,
Siim Ilison,Tallinna Reaalkool,10,29,
Vassili Luzin,Haabersti Vene Gümnaasium,10,29,
Katariina Järvan,Gustav Adolfi Gümnaasium,9,28,
Leon Tammel,Gustav Adolfi Gümnaasium,10,28,
Maia Serv,Hugo Treffneri Gümnaasium,10,28,
Mikk Javoiš,Tartu Tamme Kool,10,28,
Rokko Kippus,Pärnu Mai Kool,9,28,
Sebastian Lotman,Gustav Adolfi Gümnaasium,9,28,
Simon Hallimäe,Võru Gümnaasium,10,28,
Sofia Vassiljeva,Narva Kesklinna Gümnaasium,9,28,
Kristofer Närep,Gustav Adolfi Gümnaasium,10,27,
Martin Hindre,Hugo Treffneri Gümnaasium,10,27,
Nikolai Suhhov,Narva Keeltelütseum,10,27,
Svetlana Sankova,Narva Kesklinna Gümnaasium,9,27,
Triin-Elis Kuum,Hugo Treffneri Gümnaasium,10,27,
Anastassia Otsabrik,Tallinna Kesklinna Vene Gümnaasium,10,26,
Diana Merzlikina,Tallinna Kesklinna Vene Gümnaasium,10,26,
Jegor Vassiljev,Narva Vanalinna Riigikool,10,26,
Jenny-Ly Hillak,Võru Gümnaasium,10,26,
Jonas Oliveira,Gustav Adolfi Gümnaasium,10,26,
Kaur Ruben Ragis,Hugo Treffneri Gümnaasium,10,26,
Laur Lepik,Gustav Adolfi Gümnaasium,10,26,
Marat Oguren,Tallinna Kesklinna Vene Gümnaasium,10,26,
Markus Munski,Võru Gümnaasium,10,26,
Orm Kaarel Kübarsepp,Hugo Treffneri Gümnaasium,10,26,
Steven Markus Paumere,Jõhvi Gümnaasium,10,26,
Aistis Zabarauskas,Tallinna Kesklinna Vene Gümnaasium,10,25,
Antonina Sokolova,Tallinna Kesklinna Vene Gümnaasium,10,25,
Carol Rand,Hugo Treffneri Gümnaasium,10,25,
Daniel Javorski,Tallinna Õismäe Vene Lütseum,10,25,
Danila Lugovoi,Tallinna Õismäe Vene Lütseum,10,25,
Heidi Tõnisson,Hugo Treffneri Gümnaasium,10,25,
Heiki Talis Toom,Tallinna Inglise Kolledž,10,25,
Heliisa Theadora Sunts,Hugo Treffneri Gümnaasium,10,25,
Henrik Kreinin,Hugo Treffneri Gümnaasium,10,25,
Ivan Gulla,Sakala Eragümnaasium,10,25,
Jelizaveta Vassina,Narva Pähklimäe Gümnaasium,9,25,
Julia Land,Tallinna Kesklinna Vene Gümnaasium,9,25,
Kelli Nõmmeloo,Jõhvi Gümnaasium,10,25,
Kerttu Lisette Kadajane,Tartu Tamme Gümnaasium,10,25,
Kira Hasjanova,Narva Pähklimäe Gümnaasium,9,25,
Laura Klimenko,Tallinna 53. Keskkool,10,25,
Leonid Gatilov,Jõhvi Gümnaasium,10,25,
Maria Kozõreva,Hugo Treffneri Gümnaasium,10,25,
Maria Mishatova,Tallinna Kesklinna Vene Gümnaasium,9,25,
Mark Drozdov,Tallinna Kesklinna Vene Gümnaasium,10,25,
Rauno Roosna,Tallinna Kesklinna Põhikool,9,25,
Richard Tupp,Võru Kreutzwaldi Kool,9,25,
Sabina Kirin,Narva Pähklimäe Gümnaasium,9,25,
Sander Punt,Võru Kreutzwaldi Kool,9,25,
Sevastyan Ehin,Tallinna Kesklinna Vene Gümnaasium,10,25,
Егор Дидух,Tallinna Õismäe Vene Lütseum,10,25,
Эвелин Ширай,Tallinna Kesklinna Vene Gümnaasium,10,25,
Aleksander Puolakainen,Võru Gümnaasium,10,24,
Aleksander Vähk,Tartu Jaan Poska Gümnaasium,10,24,
Annette Annok,Hugo Treffneri Gümnaasium,10,24,
Anri Ilves,Gustav Adolfi Gümnaasium,10,24,
Darja Dobrjakova,Tallinna Juudi Kool,10,24,
Marten Ojapõld,Saue Gümnaasium,9,24,
Miia Anipai,Hugo Treffneri Gümnaasium,10,24,
Sofia Dronik,Narva Pähklimäe Gümnaasium,9,24,
Tregert Värv,Hugo Treffneri Gümnaasium,10,24,
Cathy Välimets,Pärnu Mai Kool,9,23,
Heddy Ploom,Hugo Treffneri Gümnaasium,10,23,
Jegor Astapov,Sakala Eragümnaasium,10,23,
Johanna-Jeta Rauhala,Väike-Maarja Gümnaasium,10,23,
Joonas Teder,Hugo Treffneri Gümnaasium,10,23,
Kaarel Eik Kasemets,Gustav Adolfi Gümnaasium,9,23,
Katrina Padur,Võru Gümnaasium,10,23,
Kirill Tankman,Sakala Eragümnaasium,9,23,
Marcos Toompuu,Tallinna Kuristiku Gümnaasium,10,23,
Maria Terep,Hugo Treffneri Gümnaasium,10,23,
Mathis Zubarev,Kadrina Keskkool,10,23,
Reti Eedra,Gustav Adolfi Gümnaasium,10,23,
Säbina Mirieva,Tallinna Kuristiku Gümnaasium,10,23,
Vladisalv Braslavski,Jõhvi Gümnaasium,10,23,
Aleksandr Ratsep,Narva Keeltelütseum,10,22,
Alina Dementjeva,Tallinna 53. Keskkool,9,22,
Artur Türna,Hugo Treffneri Gümnaasium,10,22,
Diana Garlukovits,Tallinna Kesklinna Vene Gümnaasium,8,22,
Diana Torkunova,Tallinna Kesklinna Vene Gümnaasium,10,22,
Edvin Erik,Võru Kreutzwaldi Kool,9,22,
Elina Kahar,Võru Gümnaasium,10,22,
Georg Sebastian Järvet,Gustav Adolfi Gümnaasium,9,22,
Ivar Peeling,Hugo Treffneri Gümnaasium,10,22,
Jegor Kasanov,Tallinna 53. Keskkool,9,22,
Karl Gregor Urmet,Tartu Tamme Gümnaasium,10,22,
Karl Jan Riisaar,Hugo Treffneri Gümnaasium,10,22,
Kirill_,Tallinna Kesklinna Vene Gümnaasium,9,22,
Kristin Sõber,Hugo Treffneri Gümnaasium,10,22,
Laura Kompus,Hugo Treffneri Gümnaasium,10,22,
Mark Johan Järg,Tartu Katoliku Hariduskeskus,10,22,
Markos Soodla,Hugo Treffneri Gümnaasium,10,22,
Martti Segasaar,Võru Gümnaasium,10,22,
Ott-Marti Vainura,Jõhvi Gümnaasium,10,22,
Regina Kapp,Võru Gümnaasium,10,22,
Siim Kaasik,Gustav Adolfi Gümnaasium,9,22,
Vladislav Mulgatšov,Kohtla-Järve Gümnaasium,10,22,
Adelina Pavlova,Narva Pähklimäe Gümnaasium,9,21,
Aleksandr Dorofejev,Jõhvi Vene Põhikool,9,21,
Aleksandra,Sakala Eragümnaasium,10,21,
Angela Laanemets,Pärnu Mai Kool,9,21,
Edvard Malikov,Tallinna Kesklinna Vene Gümnaasium,8,21,
Ekaterina Lukjanenko,Tallinna Kesklinna Vene Gümnaasium,10,21,
Eva-Maria Raudsepp,Hugo Treffneri Gümnaasium,10,21,
Jaan Artur Viirsalu,Tartu Mart Reiniku Kool,9,21,
Joosep Tekku,Tartu Tamme Gümnaasium,10,21,
Karl Pärn,Hugo Treffneri Gümnaasium,10,21,
Kaspar Kõks,Kadrina Keskkool,10,21,
Konstantin Pavlov,Kohtla-Järve Gümnaasium,10,21,
Markus Sooväli,Pärnu Mai Kool,9,21,
Martina Juhansoo,Pärnu Mai Kool,9,21,
Marttin Piir,Jõhvi Gümnaasium,10,21,
Mihkel Markus Remmelgas,Tallinna Kuristiku Gümnaasium,9,21,
Milana Avdashova,Võru Gümnaasium,10,21,
Naum Levitski,Sakala Eragümnaasium,9,21,
Nika Shuvalova,Tallinna 53. Keskkool,9,21,
Olivia Peegel,Võru Gümnaasium,10,21,
Platon Nikiforov,Tallinna 53. Keskkool,10,21,
Robert Mattias Leopard,Tartu Katoliku Hariduskeskus,10,21,
Simona Raag,Võru Gümnaasium,10,21,
Sofia Zaloldinova,Tallinna 53. Keskkool,9,21,
Tavid-Markus Trolla,Hugo Treffneri Gümnaasium,10,21,
Valerija Rapkauskaite,Haabersti Vene Gümnaasium,10,21,
Veronika Vingissaar,Haabersti Vene Gümnaasium,10,21,
Viktor Fainstein,Tallinna Kesklinna Vene Gümnaasium,10,21,
Vladislav Shuvalov,Tallinna 53. Keskkool,9,21,
Михаил Дудник,Tallinna Kesklinna Vene Gümnaasium,10,21,
София Серова,Tallinna 53. Keskkool,9,21,
Aleksandr Iospa,Sakala Eragümnaasium,10,20,
Andrei Lebedev,Haabersti Vene Gümnaasium,10,20,
Darja Kornilova,Haabersti Vene Gümnaasium,10,20,
Ekaterina Koreshkova,Narva Kesklinna Gümnaasium,9,20,
Francesca Traksler,Sakala Eragümnaasium,10,20,
Ilia Kapelin,Sakala Eragümnaasium,9,20,
Karoliina Enkvist,Hugo Treffneri Gümnaasium,10,20,
Kädi Rõõmus,Hugo Treffneri Gümnaasium,10,20,
Laura Marii Palo,Gustav Adolfi Gümnaasium,9,20,
Liivika Paas,Võru Gümnaasium,10,20,
Maria Helena Lõhmus,Hugo Treffneri Gümnaasium,10,20,
Polina Andrejeva,Sakala Eragümnaasium,10,20,
Pärviz Mirijev,Tallinna Kuristiku Gümnaasium,9,20,
Alisia Loiko,Tallinna Laagna Gümnaasium,10,19,
Anastasia Marinets,Haabersti Vene Gümnaasium,10,19,
Anton Vorobjov,Narva Kesklinna Gümnaasium,9,19,
Egor Vesselov,Tallinna Õismäe Vene Lütseum,10,19,
Elenor Tõrva,Hugo Treffneri Gümnaasium,10,19,
Emili Lõiv,Tallinna Kuristiku Gümnaasium,10,19,
Jegor Shchukin,Narva Keeltelütseum,10,19,
Jekaterina Butakova,Tallinna 53. Keskkool,10,19,
Nikolai Kharkhan,Tallinna Kesklinna Vene Gümnaasium,9,19,
Robin Tint,Kaali Kool,9,19,
Alina Hadijeva,Tartu Annelinna Gümnaasium,9,18,
Arseni Popov,Tallinna Kesklinna Vene Gümnaasium,9,18,
Artjom Nikonov,Narva Keeltelütseum,10,18,
Christian Leis,Kadrina Keskkool,10,18,
Daniella Amirova,Tallinna 53. Keskkool,9,18,
Deniss Bulõtsev,Narva Kesklinna Gümnaasium,9,18,
Eric Vaho,Tallinna Laagna Gümnaasium,10,18,
Grete Grünmann,Tallinna Kuristiku Gümnaasium,10,18,
Henri Eljandi,Pärnu Mai Kool,9,18,
Henry Vinkler,Kohtla-Järve Gümnaasium,10,18,
Jan Marten Sikkar,Tallinna Kuristiku Gümnaasium,10,18,
Kirke Linda Kuuse,Hugo Treffneri Gümnaasium,10,18,
Kirke Vain,Gustav Adolfi Gümnaasium,9,18,
Kristina Sofia Jermakova,Sakala Eragümnaasium,9,18,
Lennart Parašin,Gustav Adolfi Gümnaasium,9,18,
Liisa Laugesaar,Hugo Treffneri Gümnaasium,10,18,
Markus Smit,Võru Gümnaasium,10,18,
Mattias Rihard Vain,Pärnu Mai Kool,9,18,
Nastya Gritsuk,Haabersti Vene Gümnaasium,10,18,
Ragnar Reino,Hugo Treffneri Gümnaasium,10,18,
Sergei Bürger,Tallinna 53. Keskkool,9,18,
Siim Tõnisson,Rakvere Eragümnaasium,10,18,
Sireli Püvi,Tallinna Laagna Gümnaasium,10,18,
Stanley Klein,Kohtla-Järve Gümnaasium,10,18,
Teodor Ruus,Hugo Treffneri Gümnaasium,10,18,
Villiam Muller,Narva Keeltelütseum,10,18,
Ева Гопич,Narva Keeltelütseum,10,18,
Agnes Ots,Saue Gümnaasium,9,17,
Albert Boitsov,Tallinna Õismäe Vene Lütseum,10,17,
Aleksandr Leonov,Narva Pähklimäe Gümnaasium,9,17,
Alisa Melkumjan,Tallinna Kesklinna Vene Gümnaasium,10,17,
Anastasia Katrits,Tallinna Õismäe Vene Lütseum,10,17,
Anastasija Naumova,Narva Kesklinna Gümnaasium,9,17,
Andri Kuusk,Kadrina Keskkool,10,17,
Andri Pilv,Võru Gümnaasium,10,17,
Anett Kaupmees,Võru Gümnaasium,10,17,
Arina Efimova,Sakala Eragümnaasium,10,17,
Artem Gusev,Kohtla-Järve Gümnaasium,10,17,
Ave Mitt,Saue Gümnaasium,,17,väljaspool vanuserühma
Bianca Tõnuri,Tallinna Kuristiku Gümnaasium,9,17,
Carmen Krihvel,Vinni-Pajusti Gümnaasium,10,17,
Claudia Järve,Tallinna Kuristiku Gümnaasium,9,17,
Darja Goljaševits,Kohtla-Järve Gümnaasium,10,17,
Darja Podgornaja,Tallinna Õismäe Vene Lütseum,10,17,
Darja Viktorova,Tallinna 53. Keskkool,10,17,
Dzafar Nurijev,Tallinna 53. Keskkool,9,17,
Egor Kravtsov,Kohtla-Järve Gümnaasium,10,17,
Elise-Helene Pohla,Kadrina Keskkool,10,17,
Elvira Shareeva,Sakala Eragümnaasium,9,17,
Ervin Põder,Tallinna Kuristiku Gümnaasium,10,17,
Ignat Lugin,Tallinna Kesklinna Vene Gümnaasium,9,17,
Ilja Bitsuts,Tallinna 53. Keskkool,9,17,
Isabel Rihkrand,Tallinna Kuristiku Gümnaasium,9,17,
Joel Kaarel Kant,Võru Gümnaasium,10,17,
Julia Fomina,Kohtla-Järve Tammiku Põhikool,9,17,
Karl Nukka,Vinni-Pajusti Gümnaasium,10,17,
Karl-Eerik Ints,Tallinna Laagna Gümnaasium,10,17,
Kaspar Kesamaa,Saue Gümnaasium,9,17,
Kermo Rea,Saue Gümnaasium,9,17,
Kirill Janovski,Jõhvi Gümnaasium,10,17,
Kristina Jeršova,Jõhvi Gümnaasium,10,17,
Magnar Käärik,Hugo Treffneri Gümnaasium,10,17,
Maksim Djomin,Tallinna Õismäe Vene Lütseum,10,17,
Marleen Kadak,Tallinna Kuristiku Gümnaasium,10,17,
Mart Nikopensius,Hugo Treffneri Gümnaasium,10,17,
Marta Pallas,Tallinna Kuristiku Gümnaasium,9,17,
Merian Rööpson,Tallinna Kuristiku Gümnaasium,10,17,
Rasmus Raie,Hugo Treffneri Gümnaasium,10,17,
Reio Metsla,Võru Gümnaasium,10,17,
Reneli Nugis,Väike-Maarja Gümnaasium,10,17,
Richard Vaaks,Gustav Adolfi Gümnaasium,10,17,
Rihard Press,Pärnu Mai Kool,9,17,
Robert Kask,Tartu Katoliku Hariduskeskus,10,17,
Sergei Markov,Narva Vanalinna Riigikool,10,17,
Sten Schneider,Vinni-Pajusti Gümnaasium,10,17,
Timofii Slitenko,Sakala Eragümnaasium,9,17,
Triin Trampärk,Saue Gümnaasium,9,17,
Vera Hovrjakov,Haabersti Vene Gümnaasium,10,17,
Veronika Karotam,Tallinna Õismäe Vene Lütseum,10,17,
Viktor Kirejev,Tallinna Laagna Gümnaasium,10,17,
Виталий Безруков,Tallinna Kesklinna Vene Gümnaasium,9,17,
Елизавета Куропаткина,Tallinna Kesklinna Vene Gümnaasium,9,17,
Aleksa Malkova,Tallinna Kuristiku Gümnaasium,9,16,
Andre Nurkma,Jõhvi Gümnaasium,10,16,
Anna Kravets,Tallinna 53. Keskkool,9,16,
Anna Latõševa,Tallinna Õismäe Vene Lütseum,10,16,
Anna Zholudova,Narva Kesklinna Gümnaasium,9,16,
Dajana Strižova,Tallinna 53. Keskkool,9,16,
Ilja Gornov,Jõhvi Gümnaasium,10,16,
Jegor Poludetkin,Jõhvi Gümnaasium,10,16,
Jekaterina Grigorjeva,Tallinna 53. Keskkool,9,16,
Jevgeni Golosov,Tartu Tamme Gümnaasium,10,16,
Karel Kristjan Leedo,Gustav Adolfi Gümnaasium,9,16,
Karoliina Puusepp,Gustav Adolfi Gümnaasium,9,16,
Kirill Sobolev,Kohtla-Järve Gümnaasium,10,16,
Kristofer Põldme,Pärnu Mai Kool,9,16,
Kristofer Robin Verev,Hugo Treffneri Gümnaasium,10,16,
Lucas Lausing,Hugo Treffneri Gümnaasium,10,16,
Martin Riimaa,Saue Gümnaasium,9,16,
Nikita Smirnov,Tallinna 53. Keskkool,9,16,
Ralf Ellermann,Kadrina Keskkool,10,16,
Robert Nirk,Hugo Treffneri Gümnaasium,10,16,
Robin Laiv,Võru Gümnaasium,10,16,
Sander Lepik,Hugo Treffneri Gümnaasium,10,16,
Sulev Jaaniste,Tallinna Toomkool,9,16,
Uku Mihkel Kolka,Hugo Treffneri Gümnaasium,10,16,
Aleksandra Kundeleva,Võru Gümnaasium,10,15,
Brita Mia Marran,Võru Gümnaasium,10,15,
Elisabet Petlenkova,Sakala Eragümnaasium,9,15,
Eric Vassiljev,Tallinna Kesklinna Vene Gümnaasium,9,15,
Georg Kurjama,Hugo Treffneri Gümnaasium,10,15,
Hans Henrik Rebane,Hugo Treffneri Gümnaasium,10,15,
Heliise Doris Teekivi,Võru Gümnaasium,10,15,
Ksenia Stashkova,Tallinna 53. Keskkool,9,15,
Liisa Viktooria Puurand,Hugo Treffneri Gümnaasium,10,15,
Loviise Liiv,Võru Gümnaasium,10,15,
Markus Rüütli,Hugo Treffneri Gümnaasium,10,15,
Melika Nedjel Benhafssa,Tallinna Laagna Gümnaasium,10,15,
Mia Roosileht,Gustav Adolfi Gümnaasium,10,15,
Mikk Otsla,Pärnu Mai Kool,9,15,
Mirtel Natur,Tallinna Kuristiku Gümnaasium,10,15,
Nikita Kazakov,Jõhvi Vene Põhikool,9,15,
Polina Kazatšok,Sakala Eragümnaasium,9,15,
Vanessa Maribel Mägi,Tallinna Kuristiku Gümnaasium,9,15,
Varvara Fedossova,Jõhvi Vene Põhikool,9,15,
Vitali Bulygin,Jõhvi Gümnaasium,10,15,
Alina Aleksandrova,Sakala Eragümnaasium,10,14,
Aljona Tyslenko,Tallinna Õismäe Vene Lütseum,10,14,
Anastassija Dvoineva,Tallinna 53. Keskkool,9,14,
Andreas Glen Ainlo,Kadrina Keskkool,10,14,
Annely Vossotskaja,Narva Keeltelütseum,10,14,
Antoni Müütnik,Kohtla-Järve Gümnaasium,10,14,
Artur-Mihk Peterson,Emmaste Põhikool,9,14,
Daniel Bogovits,Tallinna Juudi Kool,10,14,
Darja Fedorenko,Haabersti Vene Gümnaasium,10,14,
Greta Süvaorg,Võru Gümnaasium,10,14,
Inna Melnychenko,Tallinna 53. Keskkool,9,14,
Ivan Nikanorov,Narva Kesklinna Gümnaasium,9,14,
Jan-Jüri Lehtmets,Kadrina Keskkool,10,14,
Jane Mustrik,Võru Gümnaasium,10,14,
Jekaterina Mikhaylova,Tallinna Õismäe Vene Lütseum,10,14,
Kairi Pärnamäe,Kadrina Keskkool,10,14,
Katarina Ojaperv,Hugo Treffneri Gümnaasium,10,14,
Klaus Jõela,Hugo Treffneri Gümnaasium,10,14,
Kristin Vardja,Võru Gümnaasium,10,14,
Mairika Kerge,Võru Gümnaasium,10,14,
Megatimur,Tallinna Kesklinna Vene Gümnaasium,9,14,
Milana Blitsona,Haabersti Vene Gümnaasium,10,14,
Oleg Poltev,Narva Keeltelütseum,10,14,
Oskar Araste,Kohtla-Järve Gümnaasium,10,14,
Rasmus Koort,Võru Kreutzwaldi Kool,9,14,
Romi Aljes,Võru Gümnaasium,10,14,
Sebastian Sepp,Tallinna Kuristiku Gümnaasium,10,14,
Sten Ott,Tallinna Kuristiku Gümnaasium,10,14,
Stivert Parvei,Tallinna Laagna Gümnaasium,10,14,
Timofei Gurjanov,Tallinna Kuristiku Gümnaasium,9,14,
Tristan Paas,Saue Gümnaasium,9,14,
Аминчикова Ева,Narva Keeltelütseum,10,14,
Арсений Зайцев,Sakala Eragümnaasium,9,14,
Alari Nõmmik,Pärnu Mai Kool,9,13,
Aleksander Sokov,Tallinna Õismäe Vene Lütseum,10,13,
Aleksandr Jaskov,Tallinna Õismäe Vene Lütseum,10,13,
Aleksandra Kozubenko,Haabersti Vene Gümnaasium,10,13,
Alisa Bogdanova,Narva Kesklinna Gümnaasium,9,13,
Anastassia Bondar,Tallinna Õismäe Vene Lütseum,10,13,
Anna-Sofie Aaslaid,Gustav Adolfi Gümnaasium,10,13,
Arden-Joosep Lippasaar,Vinni-Pajusti Gümnaasium,10,13,
Artur Ratassepp,Tallinna Kuristiku Gümnaasium,9,13,
Artur Ruul,Hugo Treffneri Gümnaasium,10,13,
Bessy Sivadi,Tallinna Kuristiku Gümnaasium,9,13,
Daniel Paju,Võru Gümnaasium,10,13,
Darina Lyubchenko,Tallinna 53. Keskkool,9,13,
Deisi-Ly Mägi,Tallinna Kuristiku Gümnaasium,9,13,
Denis Sterlikov,Jõhvi Gümnaasium,10,13,
Ekaterina Mõsljajeva,Tallinna 53. Keskkool,9,13,
Ellen Krutto,Tallinna Laagna Gümnaasium,10,13,
Elmira Fakhrutdinova,Hugo Treffneri Gümnaasium,10,13,
Erik Tobias,Tallinna Laagna Gümnaasium,10,13,
Georg Käkenen,Sakala Eragümnaasium,10,13,
Ilja Aleksejev,Jõhvi Gümnaasium,10,13,
Indrek Tomp,Tartu Katoliku Hariduskeskus,10,13,
Ivanov Aleksandr,Narva Pähklimäe Gümnaasium,9,13,
Jekaterina Prohhorova,Tallinna Kesklinna Vene Gümnaasium,9,13,
Jekaterina Vorobjova,Narva Pähklimäe Gümnaasium,9,13,
Jete Marie Helekivi,Võru Gümnaasium,10,13,
Jevtjuskin Artjom,Narva Keeltelütseum,10,13,
Johanna Martinson,Gustav Adolfi Gümnaasium,10,13,
Joseph Zilberberg,Sakala Eragümnaasium,10,13,
Julia Somova,Sakala Eragümnaasium,10,13,
Karl Vincent Grahv,Tallinna Laagna Gümnaasium,10,13,
Karmen Silm,Tallinna Kuristiku Gümnaasium,10,13,
Karolina Ljutova,Sakala Eragümnaasium,9,13,
Kaspar Merivald,Vinni-Pajusti Gümnaasium,10,13,
Kerret Vaske,Pärnu Mai Kool,9,13,
Kirill Jakovlev,Narva Pähklimäe Gümnaasium,9,13,
Kristjan Bondar,Tallinna Kuristiku Gümnaasium,9,13,
Kristjan Taniel,Haabneeme Kool,9,13,
Kristjan Tiido,Hugo Treffneri Gümnaasium,10,13,
Kärt Lisanna Oras,Tallinna Laagna Gümnaasium,10,13,
Leon Krestin,Haabersti Vene Gümnaasium,10,13,
Lotta Hõrak,Võru Gümnaasium,10,13,
Mairon Mihkelsoo,Tõrva Gümnaasium,10,13,
Maksim Potapov,Tallinna 53. Keskkool,9,13,
Maksim Shabunov,Sakala Eragümnaasium,9,13,
Marem Uzhakhova,Tallinna Kesklinna Vene Gümnaasium,9,13,
Mariette Leheroo,Pärnu Mai Kool,9,13,
Mark Kostjutsenko,Haabersti Vene Gümnaasium,10,13,
Marten Lõhmus,Hugo Treffneri Gümnaasium,10,13,
Milana Trussova,Tallinna Kesklinna Vene Gümnaasium,9,13,
Natalja-Anne Ruzu,Rakvere Reaalgümnaasium,10,13,
Nicole Lambing,Jõhvi Vene Põhikool,9,13,
Nikita Vangonen,Tallinna Õismäe Vene Lütseum,10,13,
Rasmus Ründva,Gustav Adolfi Gümnaasium,10,13,
Renaldo Alla,Võru Gümnaasium,10,13,
Robert Jermakov,Tallinna Õismäe Vene Lütseum,10,13,
Robert Vari,Tartu Katoliku Hariduskeskus,10,13,
Roman Vorotilov,Tallinna Õismäe Vene Lütseum,10,13,
Rudolf Pae,Tartu Jaan Poska Gümnaasium,10,13,
Sandor Pulk,Pärnu Mai Kool,9,13,
Sandra Eosaar,Võru Gümnaasium,10,13,
Zlata Podolskaja,Haabersti Vene Gümnaasium,10,13,
Valerija Vilnikova,Jõhvi Vene Põhikool,9,13,
Vlad Larionov,Haabersti Vene Gümnaasium,10,13,
Vladimir Bolhovitin,Tallinna Õismäe Vene Lütseum,10,13,
William Aruvee,Tallinna Kuristiku Gümnaasium,10,13,
Дарья Бугаева,Tallinna Kesklinna Vene Gümnaasium,9,13,
Юлия Охрименко,Narva Pähklimäe Gümnaasium,9,13,
Andri Sults,Saue Gümnaasium,9,12,
Argo Rõõmusoks,Tartu Katoliku Hariduskeskus,10,12,
Aurelia Kumm,Võru Gümnaasium,10,12,
Darja Kisseljova,Tallinna Kuristiku Gümnaasium,10,12,
Darja Preobrazenskaja,Sakala Eragümnaasium,9,12,
Eva Harkina,Tallinna Juudi Kool,10,12,
Eva Vlassova,Saue Gümnaasium,9,12,
Indrek Salo,Hugo Treffneri Gümnaasium,10,12,
Karolina Vlassenko,Kohtla-Järve Tammiku Põhikool,9,12,
Kirill Shugurov,Narva Kesklinna Gümnaasium,9,12,
Laura-Liis Rull,Hugo Treffneri Gümnaasium,10,12,
Liisa-Lotte Vesk,Saue Gümnaasium,9,12,
Maria Burovenko,Tallinna Kesklinna Vene Gümnaasium,9,12,
Maria Judin,Haabersti Vene Gümnaasium,10,12,
Marika Shutova,Narva Kesklinna Gümnaasium,9,12,
Oliver Andreson,Tartu Herbert Masingu Kool,9,12,
Petra Näpp,Tallinna Kuristiku Gümnaasium,9,12,
Rasmus Tähe,Võru Kreutzwaldi Kool,9,12,
Regina Kostjukevits,Haabersti Vene Gümnaasium,10,12,
Rick Sisask,Tallinna Kuristiku Gümnaasium,9,12,
Riko Remi Mitt,Väike-Maarja Gümnaasium,10,12,
Rogert Hollo,Võru Gümnaasium,10,12,
Vadim Jakovlev,Jõhvi Gümnaasium,10,12,
Adrian Koroljov,Sakala Eragümnaasium,10,11,
Aleksandra Shvetcova,Sillamäe Gümnaasium,10,11,
Anastassia Smirnova,Tallinna Laagna Gümnaasium,10,11,
Anastassia Teterina,Tallinna Laagna Gümnaasium,10,11,
Anna Lobanova,Tallinna Kesklinna Vene Gümnaasium,9,11,
Annika Juse,Jõhvi Gümnaasium,10,11,
Anton Belosapkin,Tallinna Kesklinna Vene Gümnaasium,10,11,
Arto Reinik,Tartu Tamme Gümnaasium,10,11,
Artur Matskevits,Jõhvi Gümnaasium,10,11,
Artur Zvorovski,Sakala Eragümnaasium,10,11,
Ekaterina Panfilova,Tallinna Kesklinna Vene Gümnaasium,9,11,
Greta Kovalenko,Tallinna Kesklinna Vene Gümnaasium,9,11,
Ilja-Maksimilian Piljukov,Sakala Eragümnaasium,10,11,
Jelizaveta,Tallinna 53. Keskkool,10,11,
Kaarel Leppsalu,Gustav Adolfi Gümnaasium,9,11,
Kaspar Kalk,Tallinna Kuristiku Gümnaasium,10,11,
Kenneth Leonard,Saue Gümnaasium,9,11,
Kevin Peekmann,Gustav Adolfi Gümnaasium,10,11,
Liisbet Reinsalu,Gustav Adolfi Gümnaasium,10,11,
Marianne Leheroo,Pärnu Mai Kool,9,11,
Mathias Laaniste,Tallinna Kuristiku Gümnaasium,9,11,
Rait Pedassaar,Võru Gümnaasium,10,11,
Randel Kõlu,Saue Gümnaasium,9,11,
Renata Aksjonova,Jõhvi Gümnaasium,10,11,
Rostislav Karandash Blin,Jõhvi Gümnaasium,10,11,
Sander Mäting,Tallinna Õismäe Vene Lütseum,10,11,
Sofia Blant,Tallinna Kesklinna Vene Gümnaasium,9,11,
Taniel Vain,Väike-Maarja Gümnaasium,10,11,
Viktor Mettus,Sakala Eragümnaasium,9,11,
Viktoria Anton,Vinni-Pajusti Gümnaasium,10,11,
Vjatseslav Gorbunov,Jõhvi Vene Põhikool,9,11,
Vlad Juzakov,Tallinna Õismäe Vene Lütseum,10,11,
Эвелина Ермакова,Sakala Eragümnaasium,9,11,
Aksel Kerem,Tallinna Kuristiku Gümnaasium,9,10,
Alexander Muugamäe,Tallinna Õismäe Vene Lütseum,10,10,
Alexander Oliver Tammela,Tallinna Kuristiku Gümnaasium,10,10,
Anastasia Olekhneva,Tallinna Kesklinna Vene Gümnaasium,9,10,
Anete Hani,Võru Gümnaasium,10,10,
Berit Pihlak,Saue Gümnaasium,9,10,
Daniel Buzoverja,Narva Keeltelütseum,10,10,
Denis Parfjonov,Tallinna 53. Keskkool,9,10,
Eerik Hudilainen,Jõhvi Gümnaasium,10,10,
Eliise Meho,Võru Gümnaasium,10,10,
Emma Luht,Hugo Treffneri Gümnaasium,10,10,
Fred Vessin,Tallinna Kuristiku Gümnaasium,10,10,
Grete Hollo,Võru Gümnaasium,10,10,
Hanna-Liisa Stroo,Saue Gümnaasium,9,10,
Jegor Musenko,Narva Pähklimäe Gümnaasium,9,10,
Jelizaveta Stepanova,Tallinna Kesklinna Vene Gümnaasium,9,10,
Julia Tammemägi,Võru Gümnaasium,10,10,
Kelin Tasso,Võru Gümnaasium,10,10,
Kertu Käosaar,Saue Gümnaasium,9,10,
Ksenija Pavlenko,Tallinna Kesklinna Vene Gümnaasium,10,10,
Lauri Törmikoski,Tallinna Kuristiku Gümnaasium,9,10,
Leen Vallikivi,Hugo Treffneri Gümnaasium,10,10,
Lisanne Kulikova,Võru Gümnaasium,10,10,
Mark Tron,Tallinna 53. Keskkool,10,10,
Melani Väits,Võru Gümnaasium,10,10,
Mihkel Pauklin,Hugo Treffneri Gümnaasium,10,10,
Milena Kabatsenkova,Tallinna 53. Keskkool,10,10,
Nora Peri,Võru Gümnaasium,10,10,
Patrisija,Haabersti Vene Gümnaasium,10,10,
Rander Möldre,Kiltsi Põhikool,9,10,
Reelika Ader,Tallinna Kuristiku Gümnaasium,9,10,
Rostislav Kochergov,Tallinna 53. Keskkool,9,10,
Timur Štšurikov,Tallinna 53. Keskkool,9,10,
Uko Ruusmaa,Tallinna Kuristiku Gümnaasium,10,10,
Viktoria Bugaeva,Tallinna Õismäe Vene Lütseum,10,10,
Артемий Поташев,Narva Pähklimäe Gümnaasium,9,10,
Alina Hutnjak,Haabersti Vene Gümnaasium,10,9,
Anastassija Perovskaja,Haabersti Vene Gümnaasium,10,9,
Andreas Agasild,Gustav Adolfi Gümnaasium,9,9,
Andreas Sepp,Kadrina Keskkool,10,9,
Andreeva Anastassia,Tallinna Kesklinna Vene Gümnaasium,10,9,
Andrei Khaustov,Sakala Eragümnaasium,9,9,
Anja Klimenko,Tallinna 53. Keskkool,9,9,
Artjom Smorgulenko,Tallinna 53. Keskkool,10,9,
Cyrus Gilani,Saue Gümnaasium,9,9,
Dana Kurapova,Tallinna Õismäe Vene Lütseum,10,9,
Daria Soroka,Tallinna Kesklinna Vene Gümnaasium,9,9,
Diana Ponomarenko,Sakala Eragümnaasium,9,9,
Dmitri Ivanov,Kohtla-Järve Gümnaasium,10,9,
Dominic Laine,Haabersti Vene Gümnaasium,10,9,
Doren Taits,Võru Gümnaasium,10,9,
Egert Kohal,Saue Gümnaasium,9,9,
Egert Nilbe,Väike-Maarja Gümnaasium,10,9,
Etheli Võssar,Tallinna Kuristiku Gümnaasium,9,9,
Fred Erik Sarna,Saue Gümnaasium,9,9,
Hendri Alliksoo,Emmaste Põhikool,9,9,
Jarek Rootsma,Tallinna Laagna Gümnaasium,10,9,
Jekaterina Sidorkina,Narva Keeltelütseum,10,9,
Jessenia Starokon-Grigorjeva,Tallinna 53. Keskkool,9,9,
Juri Kitt,Tallinna Juudi Kool,10,9,
Kaili Terve,Võru Gümnaasium,10,9,
Kaisa Kangro,Võru Kreutzwaldi Kool,9,9,
Karl-Kevin Tigason,Jakob Westholmi Gümnaasium,9,9,
Kregor Kottise,Saue Gümnaasium,9,9,
Kristina Tsuprova,Narva Kesklinna Gümnaasium,9,9,
Ksenija Obonitskaja,Tallinna Õismäe Vene Lütseum,10,9,
Ksenija Zueva,Narva Pähklimäe Gümnaasium,9,9,
Lauri Ruuder,Võru Gümnaasium,10,9,
Liis Pajuste,Tallinna Kuristiku Gümnaasium,10,9,
Liisa Ratas,Pärnu Mai Kool,9,9,
Liisbet Sepp,Pärnu Mai Kool,9,9,
Liisi Riivik,Võru Gümnaasium,10,9,
Marcus Muska,Tallinna Kuristiku Gümnaasium,9,9,
Marie Nirgi,Vinni-Pajusti Gümnaasium,10,9,
Mehis Paar,Emmaste Põhikool,9,9,
Mia Vatsk,Tallinna Laagna Gümnaasium,10,9,
Nikita Gapotska,Tallinna Õismäe Vene Lütseum,10,9,
Nikita Smirnov,Tallinna Kuristiku Gümnaasium,9,9,
Olga Skljarova,Tallinna 53. Keskkool,9,9,
Pert Paigelkaln,Võru Gümnaasium,10,9,
Rannar Robin Laast,Tallinna Laagna Gümnaasium,10,9,
Rasmus Heyoan Mölder,Võru Gümnaasium,10,9,
Raul Anton Lõpp,Tartu Katoliku Hariduskeskus,10,9,
Rebeca Baumann,Pärnu Mai Kool,9,9,
Rene Peltser,Võru Gümnaasium,10,9,
Renna Täht,Võru Gümnaasium,10,9,
Richard Sikora,Jõhvi Gümnaasium,10,9,
Rico Romet Peterson,Tallinna Kuristiku Gümnaasium,9,9,
Robert Aun,Tallinna Kuristiku Gümnaasium,9,9,
Saskia Jalajas,Võru Gümnaasium,10,9,
Seva Dorofejev,Narva Keeltelütseum,10,9,
Tanel Peramets,Väike-Maarja Gümnaasium,10,9,
Teili Poka,Tallinna Laagna Gümnaasium,10,9,
Vera Murnikova,Sakala Eragümnaasium,9,9,
Veronika Mozberg,Tallinna Kesklinna Vene Gümnaasium,9,9,
Vlada Tihhonova,Narva Keeltelütseum,10,9,
Амелия Емельянова,Haabersti Vene Gümnaasium,10,9,
Арина Шарыпова,Tallinna Kesklinna Vene Gümnaasium,10,9,
Aleksandr Ivanov,Tallinna 53. Keskkool,9,8,
Anastasia Nikiforova,Sakala Eragümnaasium,10,8,
Anastassia Smirnova,Tallinna Õismäe Vene Lütseum,10,8,
Angelina Bunina,Tallinna 53. Keskkool,9,8,
Arturmudretsov,Tallinna Juudi Kool,9,8,
Ats Raal,Võru Gümnaasium,10,8,
Chris-Taimar Kõlu,Võru Gümnaasium,10,8,
Daria Zhuravskaia,Narva Kesklinna Gümnaasium,9,8,
Deisy Jõõger,Võru Gümnaasium,10,8,
Dmitri Tsasovskih,Tallinna Kesklinna Vene Gümnaasium,9,8,
Gethe Carmen Urgard,Tallinna Laagna Gümnaasium,10,8,
Ines Markus,Tallinna Kuristiku Gümnaasium,9,8,
Jeva Korosteljova,Sakala Eragümnaasium,10,8,
Katrin Stsepalkina,Haabersti Vene Gümnaasium,10,8,
Kirke Kuusk,Saue Gümnaasium,9,8,
Lavr Reinberg,Sakala Eragümnaasium,9,8,
Renata Sõtsjova,Tallinna Kuristiku Gümnaasium,10,8,
Timofei Kartashov,Tallinna 53. Keskkool,9,8,
Agapova Valentina,Tallinna 53. Keskkool,9,7,
Aleksandra Parinskaja,Jõhvi Vene Põhikool,9,7,
Anastassia Rjabušenko,Jõhvi Gümnaasium,10,7,
Anfisa Hartõkainen,Jõhvi Gümnaasium,10,7,
Anna Varavin,Tallinna Kesklinna Vene Gümnaasium,8,7,
Annabel Lepik,Vinni-Pajusti Gümnaasium,10,7,
Daniel Pill,Ehte Humanitaargümnaasium,8,7,
Darja Holostohh,Narva Keeltelütseum,10,7,
Diana Gontsarevits,Tallinna Juudi Kool,10,7,
Dorean Lunev,Saue Gümnaasium,9,7,
Ines Varjola,Tallinna Laagna Gümnaasium,10,7,
Izabella Ushakova,Tallinna Juudi Kool,10,7,
Johanna Saavaste,Hugo Treffneri Gümnaasium,10,7,
Karoliina Kurosu,Tallinna Juudi Kool,10,7,
Kassandra Elbre,Väike-Maarja Gümnaasium,10,7,
Kendra Tamm,Tallinna Laagna Gümnaasium,10,7,
Marco Kask,Tallinna Kuristiku Gümnaasium,9,7,
Mark Larkov,Haabersti Vene Gümnaasium,10,7,
Nele Kadarik,Pärnu Mai Kool,9,7,
Nele Sumre,Väike-Maarja Gümnaasium,10,7,
Zlata Berezina,Jõhvi Vene Põhikool,9,7,
Varvara Panina,Tallinna Kesklinna Vene Gümnaasium,9,7,
Adelina Ulitina,Tallinna Õismäe Vene Lütseum,10,6,
Anastassia Võsa,Tallinna Kuristiku Gümnaasium,10,6,
Anett Sinijärv,Vinni-Pajusti Gümnaasium,10,6,
Artur Pobjarzin,Tallinna Kesklinna Vene Gümnaasium,9,6,
Ats Tori,Tartu Herbert Masingu Kool,9,6,
Camellia Lemarinje,Tallinna 53. Keskkool,10,6,
Egor Smirnov,Tallinna 53. Keskkool,9,6,
Elysee Martina Morel,Võru Gümnaasium,10,6,
Georg Zokov,Tallinna Kesklinna Vene Gümnaasium,9,6,
Ingrid Pocius,Sakala Eragümnaasium,9,6,
Kirke Viktoria Plaado,Võru Kreutzwaldi Kool,9,6,
Kristi Arumäe,Väike-Maarja Gümnaasium,10,6,
Kristjan Oliver Saul,Tallinna Kuristiku Gümnaasium,9,6,
Ksenia Semjonova,Tallinna Kesklinna Vene Gümnaasium,9,6,
Leon Kovaljov,Tallinna Kesklinna Vene Gümnaasium,9,6,
Liisi Parm,Võru Gümnaasium,10,6,
Nikita Bazovoi,Haabersti Vene Gümnaasium,10,6,
Rasmus Jaakson,Emmaste Põhikool,9,6,
Roman Efros,Tallinna 53. Keskkool,9,6,
Vesta Manuyko,Tallinna Juudi Kool,10,6,
Albert Bers,Narva Pähklimäe Gümnaasium,9,5,
Alisa Jogi,Haabersti Vene Gümnaasium,10,5,
Anastasia Proshko,Tallinna 53. Keskkool,9,5,
Anastassia Barsukova,Kohtla-Järve Gümnaasium,10,5,
Anastassia Skalikova,Narva Keeltelütseum,10,5,
Andris Vahula,Vinni-Pajusti Gümnaasium,10,5,
Annabel Mustasaar,Tallinna Kuristiku Gümnaasium,10,5,
Arseniy Tsyro,Kohtla-Järve Gümnaasium,10,5,
Boris Kurnassov,Tallinna Laagna Gümnaasium,10,5,
Claudia Heero,Tallinna Laagna Gümnaasium,10,5,
Daniel Malkov,Tallinna Kesklinna Vene Gümnaasium,10,5,
Daniel Vilenski,Tallinna Kuristiku Gümnaasium,9,5,
Daniil Jantšuk,Narva Pähklimäe Gümnaasium,9,5,
Danila Võssotski,Tallinna Õismäe Vene Lütseum,10,5,
David Shterenberg,Tallinna Juudi Kool,10,5,
Dmitry Moroz,Kohtla-Järve Tammiku Põhikool,9,5,
Edgar-Adrian Bojev,Tallinna Õismäe Vene Lütseum,10,5,
Elisa Laura Saaron,Võru Gümnaasium,10,5,
Erika Tsebanjuk,Tallinna 53. Keskkool,10,5,
Evelin Junanen,Tallinna Juudi Kool,10,5,
Evelina Blohhina,Narva Keeltelütseum,10,5,
Gerit Eessaar,Pärnu Mai Kool,8,5,
Heiko Lahe,Kadrina Keskkool,10,5,
Henri Markus Takkis,Tallinna Kuristiku Gümnaasium,9,5,
Henri Vink,Võru Gümnaasium,10,5,
Ilona Brilon,Tallinna Juudi Kool,10,5,
Ilya Peterson,Haabersti Vene Gümnaasium,10,5,
Ivan Kropotin,Tallinna 53. Keskkool,9,5,
Julia Grigorjeva,Jõhvi Vene Põhikool,9,5,
Kristina Sviridenkova,Sillamäe Gümnaasium,10,5,
Ksenija Pukk,Narva Kesklinna Gümnaasium,9,5,
Laura Kääpakaust,Võru Gümnaasium,10,5,
Laura-Liis Nõlvik,Võru Gümnaasium,10,5,
Lisett Meltsa,Kadrina Keskkool,10,5,
Marcel Johannes Ainlo,Kadrina Keskkool,10,5,
Marilyn Viiask,Tallinna Kuristiku Gümnaasium,9,5,
Markus Luik,Võru Gümnaasium,10,5,
Martin Paiba,Tallinna Kuristiku Gümnaasium,10,5,
Nikita Dasin,Tallinna Kesklinna Vene Gümnaasium,9,5,
Olha Kyrychenko,Haabersti Vene Gümnaasium,10,5,
Polina Baibuza,Tallinna 53. Keskkool,10,5,
Puusta Elina,Narva Pähklimäe Gümnaasium,9,5,
Reio Vissel,Võru Gümnaasium,10,5,
Renata Liblik,Tartu Forseliuse Kool,9,5,
Renet Riitsalu,Tõrva Gümnaasium,8,5,
Risto Parv,Võru Gümnaasium,10,5,
Robert Padrik,Vinni-Pajusti Gümnaasium,10,5,
Siim Eenma,Gustav Adolfi Gümnaasium,9,5,
Snezana Sorokinskaja,Tallinna 53. Keskkool,9,5,
Sofia Haljaste,Tallinna Juudi Kool,10,5,
Sofia Pavljukevits,Tallinna Juudi Kool,10,5,
Stella-Mia Meidla,Kiltsi Põhikool,9,5,
Tair Linnas,Võru Gümnaasium,10,5,
Timofei Kamenev,Narva Keeltelütseum,10,5,
Uko Nõulik,Saue Gümnaasium,9,5,
Veniamin Shapkin,Haabersti Vene Gümnaasium,10,5,
Vladislav Jakovlev,Tallinna Õismäe Vene Lütseum,10,5,
Дарья Бондарь,Tallinna 53. Keskkool,10,5,
Aleksander Vassiljev,Haabersti Vene Gümnaasium,10,4,
Alicia Osadtši,Sakala Eragümnaasium,10,4,
Alina Lemeštšuk,Tallinna 53. Keskkool,9,4,
Anna-Liisa Kaja,Tallinna Kuristiku Gümnaasium,9,4,
Egle Norma Paas,Saue Gümnaasium,9,4,
Georgi Baljura,Tallinna Kesklinna Vene Gümnaasium,9,4,
Henri Isok,Saue Gümnaasium,9,4,
Mattis Vaher,Tartu Herbert Masingu Kool,9,4,
Nikita Doronin,Tallinna Kesklinna Vene Gümnaasium,10,4,
Rebecka Doskovskaja,Tallinna Juudi Kool,10,4,
Катарина Балабанович,Narva Kesklinna Gümnaasium,9,4,
Aiki Leola,Tallinna Kuristiku Gümnaasium,10,3,
Aleksandr,Tallinna Juudi Kool,9,3,
Anett Jeedas,Võru Gümnaasium,10,3,
Artur Karu,Haabersti Vene Gümnaasium,10,3,
Camilla Kuzmitsjova,Sakala Eragümnaasium,9,3,
Daniel Mättiik,Tallinna Juudi Kool,9,3,
Daniil Lullu,Tallinna 53. Keskkool,9,3,
Edgar Skuratovski,Tallinna Kesklinna Vene Gümnaasium,9,3,
Kaspar Nurmet,Tallinna Kuristiku Gümnaasium,9,3,
Konstantin Kirillov,Tallinna Kesklinna Vene Gümnaasium,10,3,
Lupe Topkin,Kiltsi Põhikool,9,3,
Mahmudov,Tallinna 53. Keskkool,9,3,
Martin,Tallinna Juudi Kool,9,3,
Nikita Karpovski,Tallinna 53. Keskkool,9,3,
Nikita Kotenkov,Haabersti Vene Gümnaasium,10,3,
Raphael Van Den Bosch,Jõhvi Vene Põhikool,9,3,
Stefan Salevic,Tartu Herbert Masingu Kool,9,3,
Егор Лапатько,Narva Keeltelütseum,10,3,
Марк Шапиро,Tallinna 53. Keskkool,9,3,
Николай Бибиков,Tallinna 53. Keskkool,9,3,
Anastassia Tsusovljanova,Sakala Eragümnaasium,10,2,
Annamai Arro,Saue Gümnaasium,9,2,
Eleriin Raag,Võru Gümnaasium,10,2,
Grete-Liis Velks,Tallinna Kuristiku Gümnaasium,9,2,
Ingrid Järve,Hugo Treffneri Gümnaasium,10,2,
Jegor Voronin,Tallinna Kesklinna Vene Gümnaasium,9,2,
Kamila Kopshil,Tallinna 53. Keskkool,9,2,
Kärolin Koort,Võru Gümnaasium,10,2,
Maria Gorelova,Ehte Humanitaargümnaasium,7,2,
Maria Justsenko,Tallinna 53. Keskkool,10,2,
Marius-Daniel Vähk,Jõhvi Gümnaasium,10,2,
Martin Shults,Haabersti Vene Gümnaasium,10,2,
Nikita Boiko,Tallinna 53. Keskkool,9,2,
Nikolas Lahno,Jõhvi Gümnaasium,10,2,
Ott Aas,Tõrva Gümnaasium,10,2,
Sofiia Ostrovska,Tallinna Kesklinna Vene Gümnaasium,10,2,
Valerija Botsina,Narva Kesklinna Gümnaasium,9,2,
Victoria Maria Mändma,Gustav Adolfi Gümnaasium,10,2,
Анастасия Соколова,Narva Keeltelütseum,10,2,
Кристина Рохтмаа,Tallinna 53. Keskkool,9,2,
Максим Осьминко,Tallinna 53. Keskkool,6,2,
Aleks Mägi,Pärnu Mai Kool,9,1,
Alina Golovats,Tallinna 53. Keskkool,9,1,
Alina Nikokoseva,Tallinna Õismäe Vene Lütseum,10,1,
Alisa Firsova,Kohtla-Järve Tammiku Põhikool,9,1,
Alisa Vassilevski,Tallinna Kesklinna Vene Gümnaasium,9,1,
Alisija Pokrovska,Tallinna 53. Keskkool,9,1,
Amelia Naidenkova,Tallinna Juudi Kool,10,1,
Anastasija Prossevits,Tallinna Juudi Kool,10,1,
Anna Belorusova,Tallinna Juudi Kool,10,1,
Anna Liis Norre,Võru Gümnaasium,10,1,
Ariadna Pavlenko,Tallinna 53. Keskkool,10,1,
Arseni Kopolov,Narva Kesklinna Gümnaasium,9,1,
Damir Ahmednov,Haabersti Vene Gümnaasium,10,1,
Daniel Steinert,Tallinna Juudi Kool,123454321,1,väljaspool vanuserühma
Daniella Tarassova,Jõhvi Vene Põhikool,9,1,
Darya Kuzmina,Haabersti Vene Gümnaasium,10,1,
Egor Novozhilov,Narva Kesklinna Gümnaasium,9,1,
Elmira Kashieva,Haabersti Vene Gümnaasium,10,1,
Ingeli Uri,Tartu Forseliuse Kool,9,1,
Kalev Kallaste,Tartu Herbert Masingu Kool,9,1,
Kamilla Solonko,Tallinna 53. Keskkool,10,1,
Karina Fatehova,Tallinna 53. Keskkool,10,1,
Karl Paju,Türi Põhikool,9,1,
Kaspar Kukk,Türi Põhikool,9,1,
Kristjan Hunt,Tallinna Kuristiku Gümnaasium,10,1,
Liza Logusova,Haabersti Vene Gümnaasium,10,1,
Marko Orastu,Saue Gümnaasium,9,1,
Mia Generalov,Tallinna Kuristiku Gümnaasium,9,1,
Mihhail Kurnassov,Tallinna Laagna Gümnaasium,10,1,
Nele Riin Vahelaan,Hugo Treffneri Gümnaasium,10,1,
Nikita Kuznetsov,Haabersti Vene Gümnaasium,7,1,
Romet Karm,Tõrva Gümnaasium,10,1,
Sevastian Rätsep,Tallinna Juudi Kool,9,1,
Tatjana Goldberg,Tallinna Juudi Kool,10,1,
Valentin Makedonski,Tallinna 53. Keskkool,10,1,
Valentin Zaporoztsev,Tallinna Kesklinna Vene Gümnaasium,10,1,
Verner Ellermae,Emmaste Põhikool,9,1,
Vlad Zainullin,Narva Keeltelütseum,10,1,
Вадим Гайсенюк,Haabersti Vene Gümnaasium,10,1,
Макарцев Павел,Haabersti Vene Gümnaasium,10,1,
Ника Шамарина,Haabersti Vene Gümnaasium,10,1,
София Иванова,Tallinna Kesklinna Vene Gümnaasium,9,1,
Alan Puusepp,Tartu Herbert Masingu Kool,9,0,
Alika Tjantova,Narva Kesklinna Gümnaasium,9,0,
Andrei Tsubarev,Tallinna 53. Keskkool,10,0,
Anna Kotova,Tallinna Kesklinna Vene Gümnaasium,9,0,
Dalia Rud,Tallinna 53. Keskkool,10,0,
Egor Golovteev,Tallinna Juudi Kool,10,0,
Goro Kass,Kodu,10,0,väljaspool vanuserühma
Hanna Osypenko,Tallinna Kesklinna Vene Gümnaasium,,0,väljaspool vanuserühma
Helerin Türk,Pelgulinna Gümnaasium,9,0,
Ivan Mihhailov,Tallinna Kesklinna Vene Gümnaasium,8,0,
Jan Rõžikov,Jõhvi Vene Põhikool,9,0,
Jasper Männi,Lüganuse Kool,4,0,
Kadi Mäeots,Tallinna Kuristiku Gümnaasium,10,0,
Karina Brinzei,Tallinna Kesklinna Vene Gümnaasium,9,0,
Karl-Marten,Tallinna Kuristiku Gümnaasium,9,0,
Kelin Meidla,Väike-Maarja Gümnaasium,10,0,
Laura Kuusemets,Jõhvi Gümnaasium,,0,väljaspool vanuserühma
Laura Tammik,Tallinna Kuristiku Gümnaasium,10,0,
Makarova Jelizaveta,Ehte Humanitaargümnaasium,7,0,
Maksim Goncharov,Narva Kesklinna Gümnaasium,9,0,
Maksim Kushnir,Tallinna 53. Keskkool,9,0,
Mirjam Kesküla,Vinni-Pajusti Gümnaasium,10,0,
Prohor Orlov,Tallinna 53. Keskkool,9,0,
Robin Väljak,Tallinna Kuristiku Gümnaasium,9,0,
Siim Kalinkin,Vinni-Pajusti Gümnaasium,10,0,
Артём Канушин,Tallinna Juudi Kool,9,0,
Кирилл Новиков,Kohtla-Järve Tammiku Põhikool,9,0,
1,Hargla Kool,9,-1,
Arina Yakupova,Tallinna 53. Keskkool,9,-1,
Caroline Velsberg,Tallinna Laagna Gümnaasium,10,-1,
Nikita Sitikov,Haabersti Vene Gümnaasium,10,-1,
Аня Плеханова,Tallinna 53. Keskkool,9,-1,
Aleksander Poljakov,Tallinna Kesklinna Vene Gümnaasium,9,-2,
Angelika Kolk,Tallinna Kuristiku Gümnaasium,9,-2,
Jekaterina Leontjeva,Tallinna 53. Keskkool,9,-2,
Juri Antsma,Tallinna Kesklinna Vene Gümnaasium,9,-2,
Maria Kovaljova,Tallinna Juudi Kool,10,-2,
Mark Erlich,Tallinna Juudi Kool,9,-2,
Sabina Lomovski,Tallinna Juudi Kool,10,-2,
Sofja Postusenko,Tallinna Kesklinna Vene Gümnaasium,9,-2,
Stukalo Valeria,Haabersti Vene Gümnaasium,10,-2,
Aleksander Sergejenko,Tallinna Kesklinna Põhikool,9,-3,
Andriana Ingeroinen,Väike-Maarja Gümnaasium,10,-3,
Anna Krikuhhina,Tallinna Kuristiku Gümnaasium,10,-3,
Dominik Stsajev,Kohtla-Järve Tammiku Põhikool,9,-3,
Egor Zabortsuk,Tallinna Juudi Kool,9,-3,
Elizaveta Morozova,Sakala Eragümnaasium,8,-3,
Evelina Shaluhhina,Tallinna 53. Keskkool,9,-3,
Iakov Kofman,Tallinna Juudi Kool,10,-3,
Juri Damaskin,Tallinna Juudi Kool,10,-3,
Karl Kasekamp,Väike-Maarja Gümnaasium,10,-3,
Katrin Kuznetsov,Haabersti Vene Gümnaasium,10,-3,
Kenneth Leppik,Tallinna Kuristiku Gümnaasium,9,-3,
Ketriin Tobre,Võru Gümnaasium,10,-3,
Martin Landing,Narva Kesklinna Gümnaasium,9,-3,
Mattias Müür,Rakvere Eragümnaasium,10,-3,
Melania Breganova,Tallinna Juudi Kool,10,-3,
Märten Kohl,Saue Gümnaasium,9,-3,
Pro10pro20,Haabersti Vene Gümnaasium,10,-3,
Raigo Kana,Tartu Herbert Masingu Kool,9,-3,
Rico Tugim,Pärnu Mai Kool,9,-3,
Ron Berg,Tallinna Juudi Kool,9,-3,
Simon Tobre,Puiga Põhikool,5,-3,
Sten Täheväli,Tallinna Kuristiku Gümnaasium,9,-3,
Taavi Kippar,Tallinna Inglise Kolledž,9,-3,
Uljana Kozevnikova,Haabersti Vene Gümnaasium,10,-3,
Uljana Malinova,Tallinna Juudi Kool,10,-3,
Varvara Podlipski,Sakala Eragümnaasium,9,-3,
Varvara Turbina,Narva Pähklimäe Gümnaasium,9,-3,
Александр Надворный,Tallinna Kesklinna Vene Gümnaasium,9,-3,
Aleksandra Karpuhhin,Võru Gümnaasium,10,-4,
Anna Tarnarutskaja,Tallinna Juudi Kool,10,-5,
Marleen Hütsi,Võru Gümnaasium,10,-5,
Sofia Koppel,Tallinna Kuristiku Gümnaasium,9,-5,
Tamilla Sinani,Sakala Eragümnaasium,10,-5,
Andrei Sarantsin,Tallinna Juudi Kool,10,-6,
Oleg Stserbakov,Tallinna 53. Keskkool,9,-6,
Лаас Анна-Лиза,Tallinna Juudi Kool,10,-6,
Anastassia Andrijenko,Kohtla-Järve Gümnaasium,10,-7,
Andrei Krotov,Tallinna Kuristiku Gümnaasium,10,-7,
Daniil Pareiko,Sakala Eragümnaasium,10,-7,
Darja Kovaljova,Haabersti Vene Gümnaasium,10,-7,
Eldar Moroz,Tallinna Juudi Kool,10,-7,
Hendrik Rohtoja,Saue Gümnaasium,9,-7,
Jonatan Beškins,Tallinna Juudi Kool,10,-7,
Kristjan Jürgens,Tallinna Laagna Gümnaasium,10,-7,
Maksim Pogiba,Tallinna Juudi Kool,9,-7,
Maksim Rjumkin,Tallinna 53. Keskkool,10,-7,
Nika Vodolazski,Tallinna Juudi Kool,10,-7,
Nikita Artamonov,Haabersti Vene Gümnaasium,10,-7,
Olger Orumets,Tallinna Kuristiku Gümnaasium,10,-7,
Sofja Mostovaja,Tallinna Juudi Kool,,-7,väljaspool vanuserühma
София Крижановская,Haabersti Vene Gümnaasium,10,-7,
Jelizaveta Koroljova,Narva Kesklinna Gümnaasium,9,-8,
John Kadakas,Emmaste Põhikool,9,-8,
Anisimov Maksim,Haabersti Vene Gümnaasium,10,-11,
Artjom Sheng,Tallinna Juudi Kool,10,-11,
Artjom Solodovnik,Tallinna 53. Keskkool,9,-11,
Axel Vara,Emmaste Põhikool,9,-11,
Erik Kapinski,Narva Kesklinna Gümnaasium,9,-11,
Marija Randmaa,Haabersti Vene Gümnaasium,10,-11,
Milena Skorodumova,Tallinna Juudi Kool,11,-11,väljaspool vanuserühma
Nicole Maslova,Tallinna Juudi Kool,10,-11,
Nicole Vomm,Tallinna Juudi Kool,10,-11,
Sasha,Tallinna Juudi Kool,10,-11,
Uljana Tshagina,Narva Kesklinna Gümnaasium,9,-11,
