<?xml version="1.0" encoding="utf-8"?>
<!-- Generator: Adobe Illustrator 23.0.0, SVG Export Plug-In . SVG Version: 6.00 Build 0)  -->
<svg version="1.1" id="Layer_1" xmlns="http://www.w3.org/2000/svg" xmlns:xlink="http://www.w3.org/1999/xlink" x="0px" y="0px"
	 viewBox="0 0 284 346.67" style="enable-background:new 0 0 284 346.67;" xml:space="preserve">
<style type="text/css">
	.st0{fill:#DACA25;}
	.st1{fill:#19181B;}
	.st2{fill-rule:evenodd;clip-rule:evenodd;fill:#FFCB05;stroke:#010101;stroke-miterlimit:10;}
</style>
<g>
	<g>
		<circle class="st0" cx="147.8" cy="173.11" r="129.43"/>
		<g>
			<path class="st1" d="M215.35,88.87c-4.6-3.83-9.56-7.16-14.79-10.07c-32.68-17.75-72.68-16.14-104.72,2.3
				c-15.58,8.97-29.07,21.62-38.7,36.83c-10.94,17.27-16.05,36.96-16.67,57.3c-0.4,13.37,0.75,27.54,6.01,39.98
				c4.82,11.4,12.3,21.81,20.82,30.73c17.08,17.89,39.51,30.42,64.07,34.1c24.3,3.64,49.6-1.12,70.76-13.69
				c18.55-11.02,33.56-27.47,43.05-46.83c10.34-21.1,13.65-45.88,9.08-68.94c-2.58-13.01-8.22-24.22-15.6-35.13
				C232.04,105.65,224.46,96.45,215.35,88.87z M247.06,205.05c-6.15,19.62-18.3,37.27-34.45,49.98
				c-18.36,14.44-41.57,22.03-64.91,21.62c-23.76-0.42-46.52-9.13-64.98-23.99c-9.49-7.64-17.97-16.71-24.59-26.95
				c-6.88-10.63-11.09-21.98-12.53-34.59c-2.39-21.01,0.19-43.11,9.4-62.27c7.4-15.38,18.86-28.58,32.75-38.45
				c28.13-20,65.53-25.31,97.81-12.73c4.14,1.62,8.16,3.51,12.06,5.63c10.31,5.73,19.26,13.51,26.93,22.44
				c7.45,8.68,14.49,18.55,19.35,28.94C253.96,156.14,254.09,182.63,247.06,205.05z"/>
			<path class="st1" d="M277.91,154.07c-3.64-25.55-14.69-48.85-31.35-68.46c-9.23-10.86-19.8-20.93-31.9-28.54
				c-11.71-7.37-25.04-11.5-38.65-13.67c-26.37-4.21-54.11-1.2-78.72,9.29c-49.7,21.19-82.6,72.18-80.84,126.24
				c0.83,25.5,9.1,50.6,23.8,71.47c14.75,20.94,36.13,39.45,61.06,46.73c26.84,7.84,56.49,10.94,83.55,2.49
				c25.23-7.88,47.79-24.8,64.81-44.77c4.08-4.79,7.87-9.82,11.33-15.08c2.36-3.59-2.09-4.04-3.91-1.26
				c-13.78,21-33.48,38.74-56.05,49.83c-24.91,12.23-52.67,12.92-79.49,7.53c-12.59-2.53-24.82-5.89-36.06-12.26
				c-10.86-6.16-20.57-14.35-29.06-23.48c-16.98-18.24-28.55-40.99-32.86-65.58c-4.3-24.57-1.51-50.19,8.61-73.04
				c10.56-23.83,28.63-43.98,51.19-57.06c22.29-12.93,48.17-18.43,73.83-17.3c12.86,0.57,25.67,2.87,37.79,7.24
				c13.23,4.76,24.63,13.2,34.76,22.82c18.28,17.34,32.48,38.49,39.4,62.85c6.63,23.36,6.48,48.58-0.52,71.84
				c-1.75,5.83-4,11.5-6.59,17.01c-0.55,1.17-0.26,2.54,1.17,2.65c1.5,0.11,2.94-1.59,3.5-2.78
				C277.58,205.6,281.51,179.41,277.91,154.07z"/>
		</g>
	</g>
	<path class="st2" d="M182.09,201.08l31.15-26.41l-6.39-3.09c-2.89-1.04-2.06-2.89-1.04-6.81l4.74-18.15l-18.15,4.13
		c-1.65,0.21-2.89-1.04-3.1-2.06l-2.27-8.46l-14.44,16.72c-2.06,2.68-6.19,2.68-4.95-3.51l6.19-34.04l-8.25,4.54
		c-2.27,1.24-5.78-0.83-5.78-0.83l-11.35-22.07l-11.35,22.07c-1.24,2.27-3.71,2.06-5.98,0.83l-8.05-4.54l5.98,34.04
		c1.24,6.19-2.89,6.19-4.74,3.51l-14.44-16.72l-2.27,8.46c-0.2,1.03-1.45,2.27-3.3,2.06l-18.16-4.13l4.95,18.15
		c0.83,3.92,1.65,5.78-1.03,6.81l-6.6,3.09l31.15,26.41c1.24,1.03,1.86,2.88,1.45,4.54l-2.68,9.28c10.73-1.24,20.42-2.47,31.15-3.71
		c0.82,0,2.48,0.83,2.48,2.06l-0.2,33.21c0.21,0.09,3.77,0.09,3.77,0.09l-0.68-33.3c0-1.04,1.44-2.06,2.47-2.06
		c10.73,1.24,20.43,2.47,31.16,3.71l-2.89-9.28C180.23,203.96,180.85,202.1,182.09,201.08L182.09,201.08z"/>
</g>
</svg>
