<?xml version="1.0" encoding="utf-8"?>
<svg viewBox="100 598.898 902.285 201.102" xmlns="http://www.w3.org/2000/svg">
  <defs>
    <clipPath id="clip-0">
      <rect x="100" y="100" width="902.285" height="201.103" style="fill: rgb(248, 229, 194);" rx="17.342" ry="17.342"/>
    </clipPath>
    <mask id="mask-1">
      <rect x="100" y="100" width="902.285" height="445.988" style="fill: rgb(248, 229, 194);" rx="17.342" ry="17.342"/>
    </mask>
  </defs>
  <g style="" transform="matrix(1, 0, 0, 0.450915, 0, 553.806039)">
    <rect x="100" y="100" width="902.285" height="445.988" style="fill: rgb(248, 229, 194);" rx="17.342" ry="17.342"/>
  </g>
  <g style="mask: url(#mask-1); clip-path: url(#clip-0);" transform="matrix(1, 0, 0, 1, 0, 498.897499)">
    <path d="M 633.73 149.988 C 633.135 149.869 614.295 149.277 615.992 150.973 C 618.264 153.246 648.478 151.948 630.774 146.046" style="fill: rgb(237, 214, 171);"/>
    <path d="M 80.698 215.028 C 87.496 201.432 88.582 187.894 88.582 172.653 C 88.582 170.248 83.582 157.944 84.64 156.886 C 87.982 153.544 100.191 149.434 102.378 145.06 C 103.884 142.048 100.109 133.533 102.378 131.264 C 104.257 129.385 110.541 131.691 112.233 128.308 C 116.682 119.409 108.379 116.453 120.117 112.54 C 127.798 109.98 130.531 121.88 140.811 118.453 C 149.199 115.657 150.369 111.654 159.535 108.598 C 160.65 108.227 166.166 106.36 167.419 107.613 C 175.54 115.734 177.303 113.535 189.099 117.468 C 192.083 118.462 192.185 122.952 195.012 124.366 C 200.243 126.981 210.668 129.293 216.692 129.293 C 236.091 129.293 245.243 102.672 268.921 114.511 C 272.071 116.086 272.502 120.063 273.849 121.409 C 274.836 122.397 281.053 116.686 283.703 118.453 C 291.442 123.612 294.444 136.117 302.427 142.104 C 306.887 145.449 321.562 143.501 323.122 145.06 C 329.036 150.975 324.574 165.254 334.947 168.712 C 365.749 178.979 339.742 126.95 364.511 135.206 C 374.927 138.678 368.373 150.655 370.424 158.857 C 373.256 170.187 380.467 181.292 383.235 192.363 C 383.739 194.379 379.031 167.988 381.264 165.755 C 384.386 162.633 395.44 190.687 396.046 186.45 C 397.868 173.692 397.031 172.74 397.031 154.915 C 397.031 152.458 394.856 133.83 398.017 132.249 C 409.412 126.552 405.83 156.429 414.77 151.959 C 418.619 150.034 416.741 139.148 416.741 139.148 C 416.741 139.148 429.199 152.311 431.523 149.988 C 436.367 145.143 432.415 125.977 439.406 128.308 C 447.964 131.16 443.189 143.996 449.261 147.031 C 454.108 149.455 463.807 142.383 462.072 137.177 C 461.52 135.52 452.63 123.666 453.203 123.38 C 456.575 121.694 477.112 121.925 478.825 125.351 C 480.399 128.5 478.5 132.58 481.781 134.22 C 487.288 136.974 498.692 125.956 503.461 124.366 C 508.594 122.655 510.792 127.178 516.272 125.351 C 519.136 124.397 529.083 119.438 529.083 119.438 C 529.083 119.438 531.566 126.848 532.04 127.322 C 535.129 130.412 544.371 122.155 548.792 124.366 C 554.03 126.984 558.664 132.746 564.56 134.22 C 585.079 139.35 588.328 120.858 601.022 114.511 C 604.409 112.818 612.62 116.672 615.804 117.468 C 620.182 118.562 627.543 115.453 631.571 117.468 C 637.172 120.268 641.445 123.371 649.31 119.438 C 651.234 118.476 663.047 107.554 663.106 107.613 C 666.754 111.261 666.198 116.258 674.932 114.511 C 678.599 113.778 690.587 106.079 693.655 107.613 C 696.497 109.034 693.088 112.958 694.641 114.511 C 697.872 117.742 708.196 111.675 710.408 110.569 C 712.669 109.439 717.065 117.548 723.219 115.497 C 741.811 109.299 758.607 101.722 778.405 96.773 C 785.71 94.946 792.984 98.744 800.085 98.744 C 809.551 98.744 817.185 95.468 825.707 99.729 C 830.404 102.078 839.609 98.052 843.446 96.773 C 857.975 91.93 873.259 98.126 887.791 90.86 C 893.868 87.822 901.846 85.981 899.617 77.064 C 895.842 61.965 867.178 57.169 855.271 55.383 C 804.332 47.743 750.905 49.471 699.568 49.471 C 651.601 49.471 603.647 47.5 555.691 47.5 C 515.029 47.5 474.088 46.097 433.493 48.485 C 402.647 50.3 371.678 50.226 340.86 52.427 C 305.251 54.971 268.181 56.099 232.459 54.398 C 195.839 52.654 159.143 49.625 123.073 57.354 C 103.196 61.614 60.552 62.089 46.207 80.02 C 26.037 105.232 37.186 142.636 46.207 169.697" style="fill: rgb(237, 214, 171);"/>
    <path d="M 550.886 297.548 C 565.645 297.548 577.851 299.788 592.276 293.606 C 600.105 290.251 608.898 278.01 617.898 279.81 C 627.456 281.722 636.681 296.551 646.476 294.592 C 656.358 292.615 656.789 277.862 664.214 272.912 C 671.876 267.803 680.597 293.073 690.822 289.665 C 694.682 288.378 695.168 283.55 698.705 281.781 C 705.11 278.579 715.001 289.489 723.342 286.708 C 745.888 279.193 771.91 285.958 793.31 278.824 C 799.189 276.865 805.665 284.965 812.034 281.781 C 828.237 273.679 850.11 279.988 866.234 271.926 C 868.683 270.702 872.913 273.167 875.103 273.897 C 879.569 275.386 886.408 273.377 889.885 276.854 C 892.99 279.958 886.564 285.358 887.914 286.708 C 888.843 287.637 902.951 287.566 904.667 286.708 C 907.245 285.419 914.002 275.403 915.507 273.897 C 918.767 270.637 909.911 260.101 914.522 260.101 C 924.448 260.101 925.406 274.927 930.289 279.81 C 932.177 281.698 937.991 280.432 939.158 282.766 C 939.7 283.85 939.494 289.014 940.144 289.665 C 940.988 290.509 947.694 289.665 949.013 289.665 C 961.123 289.665 964.861 281.781 977.591 281.781 C 993.406 281.781 998.927 286.364 1006.17 293.606 C 1008.251 295.687 1015.819 288.238 1017.995 287.694 C 1026.006 285.691 1032.363 293.018 1040.661 291.635 C 1045.685 290.798 1068.029 282.991 1071.21 279.81 C 1072.955 278.065 1076.981 273.195 1078.108 270.941 C 1079.703 267.752 1070.127 266.046 1076.137 264.043 C 1097.062 257.067 1098.258 281.271 1111.614 285.723 C 1120.522 288.692 1128.249 282.477 1136.251 279.81 C 1140.189 278.497 1144.985 285.163 1148.076 286.708 C 1151.098 288.219 1160.453 279.041 1162.858 277.839 C 1166.353 276.092 1169.021 285.968 1175.669 283.752 C 1178.911 282.671 1191.431 278.83 1193.407 276.854 C 1198.037 272.224 1195.616 263.244 1204.247 261.086 C 1216.848 257.936 1214.44 266.351 1220.015 271.926 C 1221.205 273.117 1223.631 267.487 1223.957 266.999 C 1226.767 262.784 1230.858 258.127 1233.811 255.173 C 1236.618 252.367 1227.629 248.099 1228.884 244.333 C 1229.735 241.781 1238.966 232.736 1237.753 231.522 C 1235.679 229.448 1227.814 226.763 1230.855 220.682 C 1232.093 218.205 1237.375 220.228 1238.739 220.682 C 1243.269 222.192 1261.358 234.571 1265.346 226.595 C 1271.932 213.423 1247.144 188.394 1261.404 181.264 C 1262.547 180.692 1262.533 183.235 1264.361 183.235 C 1266.279 183.235 1271.928 179.963 1273.23 181.264 C 1276.493 184.527 1268.899 194.373 1276.186 198.017 C 1277.242 198.545 1276.791 215.15 1282.099 209.842 C 1288.824 203.117 1276.371 168.053 1294.91 177.322 C 1296.134 177.934 1295.489 190.073 1295.895 192.104 C 1301.12 218.23 1297.351 237.194 1294.91 264.043 C 1293.32 281.531 1296.429 295.373 1298.852 312.33 C 1299.658 317.971 1302.083 323.652 1295.895 326.127 C 1262.958 339.302 1218.264 338.016 1183.553 340.909 C 1131.011 345.287 1078.41 341.869 1025.879 339.923 C 977.946 338.148 929.891 339.174 882.001 335.981 C 799.005 330.448 715.411 334.633 632.679 327.112 C 613.23 325.344 593.592 321.31 575.523 315.287 C 563.218 311.185 561.146 295.577 548.915 295.577" style="fill: rgb(237, 214, 171);"/>
    <path d="M 73.002 235.755 C 80.597 239.13 99.321 244.793 102.566 231.813 C 103.946 226.293 97.639 225.36 97.639 222.944 C 97.639 222.466 110.816 218.101 112.421 217.031 C 118.006 213.307 113.07 208.835 115.377 204.22 C 119.437 196.101 135.332 199.663 138.043 198.308 C 140.86 196.899 144.979 193.399 148.883 195.351 C 153.309 197.564 144.475 204.077 142.97 205.206 C 134.135 211.832 123.939 216.968 120.304 227.871 C 117.164 237.293 130.159 234.77 130.159 234.77 C 130.159 234.77 122.866 236.543 122.275 236.741 C 118.841 237.885 116.278 246.342 117.348 249.552 C 119.352 255.562 135.549 255.525 133.115 260.392 C 127.366 271.891 95.948 265.878 104.537 283.057 C 106.726 287.435 117.86 293.641 123.261 290.941 C 126.023 289.56 127.135 284.11 125.232 286.014 C 122.992 288.253 132.697 287.985 133.115 287.985 C 135.002 287.985 149.667 283.64 149.868 284.043 C 160.964 306.235 118.461 307.438 113.406 317.548 C 107.549 329.263 135.13 322.99 138.043 324.447 C 142.059 326.455 136.72 332.792 134.101 333.316 C 111.217 337.892 84.859 319.774 81.871 295.868 C 78.697 270.477 88.819 250.587 73.002 234.77" style="fill: rgb(237, 214, 171);"/>
    <path d="M 162.679 206.191 C 160.124 208.108 158.269 209.46 155.781 211.119 C 154.515 211.962 152.875 214.024 151.839 215.06 C 135.639 231.26 180.345 215.974 169.577 205.206 C 165.152 200.78 151.839 208.945 151.839 214.075" style="fill: rgb(237, 214, 171);"/>
    <path d="M 149.868 165.787 C 148.567 161.883 135.347 169.859 139.028 171.7 C 145.924 175.148 156.047 154.681 142.97 167.758" style="fill: rgb(237, 214, 171);"/>
    <path d="M 160.708 265.319 C 150.734 266.566 147.403 273.696 154.795 271.232 C 159.467 269.675 162.354 262.444 154.795 264.333 C 151.598 265.133 150.158 269.116 147.897 270.246" style="fill: rgb(237, 214, 171);"/>
    <path d="M 1039.9 91.021 C 1034.808 111.389 992.054 99.007 982.743 117.629 C 979.381 124.354 1008.525 116.963 1010.336 120.585 C 1012.773 125.458 1008.469 130.077 1004.423 131.425 C 993.803 134.965 984.379 130.125 977.816 143.251 C 973.613 151.657 991.255 144.951 988.656 150.149 C 985.782 155.897 973.163 157.403 967.961 160.004 C 958.872 164.548 950.381 170.686 943.325 177.742 C 941.905 179.162 958.725 170.476 962.049 173.8 C 972.596 184.347 965.606 182.469 973.874 179.713 C 982.173 176.947 980.343 194.924 989.641 185.626 C 992.106 183.161 1007.171 162.751 1010.336 165.917 C 1018.347 173.928 998.804 196.12 1013.292 203.364 C 1022.585 208.01 1039.595 182.974 1044.827 177.742 C 1050.627 171.943 1058.468 172.971 1063.551 167.887 C 1077.02 154.418 1073.406 115.252 1073.406 97.92 C 1073.406 91.781 1076.384 83.204 1074.391 77.225 C 1071.658 69.027 1058.35 58.592 1049.755 61.458 C 1046.094 62.678 1036.231 65.536 1032.016 63.428 C 1028.724 61.782 1016.727 52.11 1013.292 55.545 C 1003.512 65.325 1028.369 70.033 1022.162 76.239 C 1021.392 77.01 998.924 75.667 1007.38 84.123 C 1012.455 89.198 1025.966 82.015 1030.045 86.094 C 1032.547 88.596 1030.449 95.949 1033.987 95.949" style="fill: rgb(237, 214, 171);"/>
    <path d="M 958.932 138.162 C 953.395 135.947 955.774 136.191 952.034 136.191 C 929.57 136.191 956.48 149.966 962.874 137.177 C 965.828 131.269 947.49 133.454 945.136 138.162" style="fill: rgb(237, 214, 171);"/>
    <path d="M 920.499 126.337 C 916.401 125.654 905.736 127.34 908.674 130.279 C 915.164 136.769 922.82 115.481 909.659 125.351 C 902.572 130.667 911.739 124.257 906.703 129.293" style="fill: rgb(237, 214, 171);"/>
    <path d="M 957.947 316.531 C 953.505 318.012 948.422 320.139 947.107 325.4 C 946.565 327.569 946.004 334.637 950.063 333.284 C 953.516 332.133 961.932 322.487 957.947 318.502 C 953.891 314.446 949.023 322.471 947.107 323.429" style="fill: rgb(237, 214, 171);"/>
  </g>
  <line style="stroke: rgb(123, 73, 57); stroke-linejoin: round; stroke-linecap: round; stroke-width: 5px;" x1="216.336" y1="624.404" x2="216.336" y2="698.919" transform="matrix(0, 1, -1, 0, 877.997511, 445.325507)"/>
  <line style="stroke: rgb(123, 73, 57); stroke-linejoin: round; stroke-linecap: round; stroke-width: 5px;" x1="141.82" y1="698.92" x2="216.336" y2="698.92" transform="matrix(0, 1, -1, 0, 877.997999, 519.841988)"/>
  <line style="stroke: rgb(123, 73, 57); stroke-linecap: round; stroke-linejoin: round; stroke-width: 5px;" x1="309.472" y1="624.404" x2="309.472" y2="698.919" transform="matrix(0, 1, -1, 0, 971.133498, 352.189519)"/>
  <line style="stroke: rgb(123, 73, 57); stroke-linecap: round; stroke-linejoin: round; stroke-width: 5px;" x1="234.956" y1="698.92" x2="309.472" y2="698.92" transform="matrix(0, 1, -1, 0, 971.133987, 426.706)"/>
  <line style="stroke: rgb(123, 73, 57); stroke-linecap: round; stroke-linejoin: round; stroke-width: 5px;" x1="309.472" y1="698.92" x2="309.472" y2="773.435" transform="matrix(0, -1, 1, 0, -426.705512, 1045.64943)"/>
  <line style="stroke: rgb(123, 73, 57); stroke-linecap: round; stroke-linejoin: round; stroke-width: 5px;" x1="309.472" y1="698.92" x2="383.987" y2="698.92" transform="matrix(0, -1, 1, 0, -352.190496, 1045.64943)"/>
  <circle style="fill: rgb(123, 73, 57);" cx="331.216" cy="720.957" r="6.06"/>
  <line style="stroke: rgb(123, 73, 57); stroke-linecap: round; stroke-linejoin: round; stroke-width: 5px;" x1="330.681" y1="698.92" x2="405.197" y2="698.92" transform="matrix(0, 1, -1, 0, 1066.859025, 330.980992)"/>
  <line style="stroke: rgb(123, 73, 57); stroke-linecap: round; stroke-linejoin: round; stroke-width: 5px;" x1="405.197" y1="698.919" x2="405.197" y2="773.435" transform="matrix(0, -1, 1, 0, -330.980016, 1141.37404)"/>
  <line style="stroke: rgb(123, 73, 57); stroke-linecap: round; stroke-linejoin: round; stroke-width: 5px;" x1="405.197" y1="698.92" x2="479.711" y2="698.92" transform="matrix(0, -1, 1, 0, -256.465977, 1141.37404)"/>
  <circle style="fill: rgb(123, 73, 57);" cx="426.941" cy="720.957" r="6.06"/>
  <circle style="fill: rgb(123, 73, 57);" cx="408.314" cy="720.957" r="6.06"/>
  <line style="stroke: rgb(123, 73, 57); stroke-linecap: round; stroke-linejoin: round; stroke-width: 5px;" x1="504.436" y1="624.404" x2="504.436" y2="698.919" transform="matrix(0, 1, -1, 0, 1166.097552, 157.225497)"/>
  <line style="stroke: rgb(123, 73, 57); stroke-linecap: round; stroke-linejoin: round; stroke-width: 5px;" x1="429.92" y1="698.92" x2="504.436" y2="698.92" transform="matrix(0, 1, -1, 0, 1166.09804, 231.741977)"/>
  <line style="stroke: rgb(123, 73, 57); stroke-linecap: round; stroke-linejoin: round; stroke-width: 5px;" x1="504.436" y1="698.92" x2="504.436" y2="773.435" transform="matrix(0, -1, 1, 0, -231.741489, 1240.613544)"/>
  <line style="stroke: rgb(123, 73, 57); stroke-linecap: round; stroke-linejoin: round; stroke-width: 5px;" x1="504.436" y1="698.92" x2="578.951" y2="698.92" transform="matrix(0, -1, 1, 0, -157.226489, 1240.613544)"/>
  <line style="stroke: rgb(123, 73, 57); stroke-linejoin: round; stroke-linecap: round; stroke-width: 5px;" x1="601.297" y1="624.404" x2="601.297" y2="698.919" transform="matrix(0, 1, -1, 0, 1262.958515, 60.364503)"/>
  <line style="stroke: rgb(123, 73, 57); stroke-linejoin: round; stroke-linecap: round; stroke-width: 5px;" x1="526.781" y1="698.92" x2="601.297" y2="698.92" transform="matrix(0, 1, -1, 0, 1262.959003, 134.880983)"/>
  <circle style="fill: rgb(123, 73, 57);" cx="579.683" cy="677.494" r="6.06"/>
  <line style="stroke: rgb(123, 73, 57); stroke-linecap: round; stroke-linejoin: round; stroke-width: 5px;" x1="694.433" y1="624.404" x2="694.433" y2="698.919" transform="matrix(0, 1, -1, 0, 1356.094503, -32.771485)"/>
  <line style="stroke: rgb(123, 73, 57); stroke-linecap: round; stroke-linejoin: round; stroke-width: 5px;" x1="694.433" y1="698.92" x2="694.433" y2="773.435" transform="matrix(0, -1, 1, 0, -41.744507, 1430.610495)"/>
  <line style="stroke: rgb(123, 73, 57); stroke-linecap: round; stroke-linejoin: round; stroke-width: 5px;" x1="694.433" y1="698.92" x2="768.947" y2="698.92" transform="matrix(0, -1, 1, 0, 32.77002, 1430.610007)"/>
  <circle style="fill: rgb(123, 73, 57);" cx="716.177" cy="720.957" r="6.06"/>
  <line style="stroke: rgb(123, 73, 57); stroke-linecap: round; stroke-linejoin: round; stroke-width: 5px;" x1="619.924" y1="698.92" x2="694.439" y2="698.92" transform="matrix(0, -1, 1, 0, -41.738465, 1356.101461)"/>
  <line style="stroke: rgb(123, 73, 57); stroke-linecap: round; stroke-linejoin: round; stroke-width: 5px;" x1="790.052" y1="624.404" x2="790.052" y2="698.919" transform="matrix(0, 1, -1, 0, 1451.713523, -128.390505)"/>
  <line style="stroke: rgb(123, 73, 57); stroke-linecap: round; stroke-linejoin: round; stroke-width: 5px;" x1="790.052" y1="698.92" x2="790.052" y2="773.435" transform="matrix(0, -1, 1, 0, 53.874513, 1526.229515)"/>
  <line style="stroke: rgb(123, 73, 57); stroke-linecap: round; stroke-linejoin: round; stroke-width: 5px;" x1="790.052" y1="698.92" x2="864.567" y2="698.92" transform="matrix(0, -1, 1, 0, 128.389528, 1526.229515)"/>
  <line style="stroke: rgb(123, 73, 57); stroke-linecap: round; stroke-linejoin: round; stroke-width: 5px;" x1="715.543" y1="698.92" x2="790.058" y2="698.92" transform="matrix(0, -1, 1, 0, 53.880524, 1451.720481)"/>
  <line style="stroke: rgb(123, 73, 57); stroke-linecap: round; stroke-linejoin: round; stroke-width: 5px;" x1="810.019" y1="698.92" x2="884.535" y2="698.92" transform="matrix(0, 1, -1, 0, 1546.196922, -148.356997)"/>
  <line style="stroke: rgb(123, 73, 57); stroke-linecap: round; stroke-linejoin: round; stroke-width: 5px;" x1="884.535" y1="698.92" x2="884.535" y2="773.435" transform="matrix(0, -1, 1, 0, 148.357485, 1620.712426)"/>
  <line style="stroke: rgb(123, 73, 57); stroke-linecap: round; stroke-linejoin: round; stroke-width: 5px;" x1="884.535" y1="698.92" x2="959.05" y2="698.92" transform="matrix(0, -1, 1, 0, 222.872501, 1620.712426)"/>
  <circle style="fill: rgb(123, 73, 57);" cx="906.279" cy="720.957" r="6.06"/>
  <circle style="fill: rgb(123, 73, 57);" cx="887.652" cy="720.957" r="6.06"/>
</svg>