<?xml version="1.0" encoding="UTF-8" standalone="no"?>
<svg
   xmlns:dc="http://purl.org/dc/elements/1.1/"
   xmlns:cc="http://creativecommons.org/ns#"
   xmlns:rdf="http://www.w3.org/1999/02/22-rdf-syntax-ns#"
   xmlns:svg="http://www.w3.org/2000/svg"
   xmlns="http://www.w3.org/2000/svg"
   xmlns:sodipodi="http://sodipodi.sourceforge.net/DTD/sodipodi-0.dtd"
   xmlns:inkscape="http://www.inkscape.org/namespaces/inkscape"
   sodipodi:docname="b02-c.svg"
   inkscape:version="1.0 (4035a4fb49, 2020-05-01)"
   id="svg5138"
   version="1.1"
   viewBox="0 0 18.552429 87.31318"
   height="87.313179mm"
   width="18.552429mm">
  <defs
     id="defs5132" />
  <sodipodi:namedview
     inkscape:document-rotation="0"
     inkscape:window-maximized="1"
     inkscape:window-y="-8"
     inkscape:window-x="-8"
     inkscape:window-height="1001"
     inkscape:window-width="1216"
     fit-margin-bottom="0"
     fit-margin-right="0"
     fit-margin-left="0"
     fit-margin-top="0"
     showgrid="false"
     inkscape:current-layer="layer1"
     inkscape:document-units="mm"
     inkscape:cy="165.00128"
     inkscape:cx="35.059709"
     inkscape:zoom="1"
     inkscape:pageshadow="2"
     inkscape:pageopacity="0.0"
     borderopacity="1.0"
     bordercolor="#666666"
     pagecolor="#ffffff"
     id="base" />
  <metadata
     id="metadata5135">
    <rdf:RDF>
      <cc:Work
         rdf:about="">
        <dc:format>image/svg+xml</dc:format>
        <dc:type
           rdf:resource="http://purl.org/dc/dcmitype/StillImage" />
        <dc:title />
      </cc:Work>
    </rdf:RDF>
  </metadata>
  <g
     transform="translate(604.96669,320.42445)"
     id="layer1"
     inkscape:groupmode="layer"
     inkscape:label="Layer 1">
    <g
       id="g901"
       transform="matrix(0.45738977,0,0,0.45738977,-527.2707,-304.7553)">
      <path
         style="opacity:1;vector-effect:none;fill:#93a7ac;fill-opacity:1;stroke:none;stroke-width:1px;stroke-linecap:butt;stroke-linejoin:miter;stroke-miterlimit:4;stroke-dasharray:none;stroke-dashoffset:0;stroke-opacity:1"
         d="m -542.68945,-128.72433 c -11.08094,-0.17636 -23.87011,-0.9808 -36.69141,1.69699 -22.19276,4.63459 -40.18989,13.89557 -49.82979,23.00897 -3.51628,5.049885 -6.55056,7.5949 -4.65487,18.602354 l 0.11497,8.293806 c -7.23253,6.329556 -5.51494,6.692373 -7.67718,9.641741 v 84.285157 c -0.87264,48.556122 4.55312,86.820302 15.71289,132.857422 l 4.28711,41.42969 1.42773,38.57031 c -25.25376,129.65437 -21.36461,230.5713 -12.61288,361.84727 h 141.18515 L -492.85742,536.80469 -490,438.23438 c 2.73952,-72.9635 -10.08501,-139.73659 -21.67578,-207.75974 -9.42029,-34.54956 -6.95158,-58.8742 0.24805,-93.66995 7.05822,-43.117814 7.62451,-86.467675 8.57031,-130.0000025 l -4.3139,-97.2173485 c 1.4197,-1.873901 -4.8852,-8.287099 -7.53102,-8.962659 -1.46734,-0.374656 -1.13581,-10.85198 -1.31357,-11.75023 0.69662,-7.63854 -8.52187,-17.30917 -26.67354,-17.59878 z"
         id="path826"
         inkscape:connector-curvature="0"
         sodipodi:nodetypes="ccccccccccccccccccscc"
         transform="scale(0.26458333)" />
      <path
         style="opacity:1;vector-effect:none;fill:#a6bcc2;fill-opacity:1;stroke:none;stroke-width:0.264583px;stroke-linecap:butt;stroke-linejoin:miter;stroke-miterlimit:4;stroke-dasharray:none;stroke-dashoffset:0;stroke-opacity:1"
         d="m -160.36172,-1.0055233 c 17.4712,12.5631023 8.80771,45.9091743 22.18337,60.4029123 1.33873,0.82613 2.64873,3.596257 3.19103,4.181818 -0.58151,-1.128204 -5.13497,-4.78902 -7.20007,-6.854512 -13.44788,-9.414185 -37.91753,-42.395494 -18.17433,-57.7302183 z"
         id="path833"
         inkscape:connector-curvature="0"
         sodipodi:nodetypes="ccccc" />
      <path
         style="opacity:1;vector-effect:none;fill:#889a9f;fill-opacity:1;stroke:none;stroke-width:0.264583px;stroke-linecap:butt;stroke-linejoin:miter;stroke-miterlimit:4;stroke-dasharray:none;stroke-dashoffset:0;stroke-opacity:1"
         d="m -160.62897,127.55112 c 2.14752,-15.53185 1.94206,-25.52455 3.43517,-36.692658 1.87365,-13.631913 10.21522,-29.257503 4.85019,-44.290025 -3.93805,-7.08212 -8.66529,-10.449589 -10.95607,-19.045862 -1.97279,-15.180134 7.99781,-35.4532525 -2.4074,-48.840597 l -1.97275,0.912755 c -1.91361,1.674695 -1.45916,1.770691 -2.03126,2.551044 V 4.4462269 c -0.23088,12.8471391 1.20468,22.9712031 4.15737,35.1518581 l 1.1343,10.961605 0.37775,10.205061 c -6.68172,34.304391 -5.65272,61.005339 -3.33715,95.738769 h 6.93793 c 2.70022,-8.83018 0.16304,-20.26662 -0.18808,-28.9524 z"
         id="path869"
         inkscape:connector-curvature="0" />
      <path
         style="opacity:1;vector-effect:none;fill:#e6e6e6;fill-opacity:1;stroke:none;stroke-width:0.264583px;stroke-linecap:butt;stroke-linejoin:miter;stroke-miterlimit:4;stroke-dasharray:none;stroke-dashoffset:0;stroke-opacity:1"
         d="m -136.22311,-26.202107 c -0.38823,-0.0991 -0.30052,-2.87126 -0.34755,-3.10892 0.18432,-2.02103 -2.25474,-4.57972 -7.05737,-4.65634 h 5e-5 c -2.93183,-0.0467 -6.31564,-0.25951 -9.70794,0.44899 -5.87183,1.22624 -10.63357,3.67654 -13.18413,6.08779 -0.93035,1.33612 -1.73317,2.00949 -1.2316,4.92187 l 0.0304,2.19441 c 9.62041,-4.89249 19.63277,-8.47851 31.49814,-5.8878 z"
         id="path826-4"
         inkscape:connector-curvature="0"
         sodipodi:nodetypes="ccccccccc" />
      <path
         style="opacity:1;vector-effect:none;fill:#acc3c9;fill-opacity:1;stroke:none;stroke-width:0.264583px;stroke-linecap:butt;stroke-linejoin:miter;stroke-miterlimit:4;stroke-dasharray:none;stroke-dashoffset:0;stroke-opacity:1"
         d="m -158.72335,-32.020473 c -3.40672,1.275697 -6.14274,2.924166 -7.86756,4.554778 -0.93035,1.336119 -1.73317,2.009489 -1.2316,4.921869 l 0.0304,2.194409 c 4.48285,-2.279769 4.4206,-2.574969 9.22149,-3.794627 0.17128,-6.106965 5.57247,-10.00297 -0.15273,-7.876429 z"
         id="path826-4-2"
         inkscape:connector-curvature="0"
         sodipodi:nodetypes="cccccc" />
      <path
         style="color:#000000;font-style:normal;font-variant:normal;font-weight:normal;font-stretch:normal;font-size:medium;line-height:normal;font-family:sans-serif;font-variant-ligatures:normal;font-variant-position:normal;font-variant-caps:normal;font-variant-numeric:normal;font-variant-alternates:normal;font-feature-settings:normal;text-indent:0;text-align:start;text-decoration:none;text-decoration-line:none;text-decoration-style:solid;text-decoration-color:#000000;letter-spacing:normal;word-spacing:normal;text-transform:none;writing-mode:lr-tb;direction:ltr;text-orientation:mixed;dominant-baseline:auto;baseline-shift:baseline;text-anchor:start;white-space:normal;shape-padding:0;clip-rule:nonzero;display:inline;overflow:visible;visibility:visible;opacity:1;isolation:auto;mix-blend-mode:normal;color-interpolation:sRGB;color-interpolation-filters:linearRGB;solid-color:#000000;solid-opacity:1;vector-effect:none;fill:#000000;fill-opacity:1;fill-rule:nonzero;stroke:none;stroke-width:0.264583px;stroke-linecap:butt;stroke-linejoin:miter;stroke-miterlimit:4;stroke-dasharray:none;stroke-dashoffset:0;stroke-opacity:1;color-rendering:auto;image-rendering:auto;shape-rendering:auto;text-rendering:auto;enable-background:accumulate"
         d="m -148.26953,-34.25 c -1.64155,0.02962 -3.34537,0.155128 -5.05274,0.511719 -5.89234,1.230518 -10.67026,3.684108 -13.24804,6.121093 l -0.01,0.0098 -0.008,0.0098 c -0.46093,0.661966 -0.90413,1.174751 -1.16797,1.90039 -0.26384,0.725639 -0.33706,1.649632 -0.084,3.119141 l -0.002,-0.01953 0.0293,2.142578 c -0.90028,0.794885 -1.29882,1.25602 -1.5,1.59375 -0.20728,0.347967 -0.23122,0.555068 -0.50586,0.929687 l -0.0254,0.0332 V 4.4453125 c -0.23079,12.8508655 1.20701,22.9873445 4.1582,35.1660155 l 1.13477,10.957031 0.37695,10.185547 c -6.68168,34.312821 -5.65326,61.027194 -3.33789,95.757814 l 0.01,0.125 h 37.61328 l -0.38086,-14.60742 0.75586,-26.07422 v -0.002 c 0.72521,-19.32264 -2.67002,-37.000708 -5.73633,-54.996089 l -0.002,-0.0059 -0.002,-0.0059 c -2.48676,-9.120374 -1.83524,-15.522384 0.0684,-24.722656 v -0.002 -0.0039 c 1.86959,-11.421091 2.01931,-22.896894 2.26953,-34.4140626 v -0.00391 l -1.14062,-25.7265624 -0.0273,0.08594 c 0.0721,-0.09523 0.0918,-0.215382 0.0781,-0.332031 -0.0137,-0.116649 -0.0575,-0.236676 -0.11914,-0.361328 -0.12326,-0.249305 -0.32434,-0.518975 -0.55859,-0.779297 -0.23425,-0.260322 -0.50146,-0.50937 -0.75782,-0.707031 -0.25636,-0.197661 -0.49561,-0.346409 -0.70703,-0.400391 0.0237,0.006 -0.007,-0.0041 -0.0352,-0.07422 -0.0285,-0.07015 -0.0574,-0.179021 -0.0801,-0.3125 -0.0453,-0.266958 -0.0718,-0.627219 -0.0879,-0.992187 -0.0161,-0.364969 -0.0209,-0.73638 -0.0254,-1.03125 -0.002,-0.147435 -0.005,-0.276639 -0.008,-0.376953 -0.002,-0.08332 -0.007,-0.131833 -0.0137,-0.181641 0.0974,-1.068105 -0.49505,-2.251526 -1.70898,-3.173828 -1.21394,-0.922302 -3.05212,-1.588271 -5.47656,-1.626953 -6.1e-4,-1e-5 -10e-4,9e-6 -0.002,0 -1.46301,-0.02332 -3.04273,-0.0882 -4.68359,-0.05859 z m 0.004,0.265625 c 1.63138,-0.02942 3.20942,0.03523 4.67773,0.05859 7.3e-4,1.1e-5 10e-4,-1.2e-5 0.002,0 2.3771,0.03831 4.15854,0.691079 5.31836,1.572265 1.16018,0.881456 1.69433,1.986528 1.60742,2.939454 l -0.002,0.01953 0.004,0.01758 c 3.6e-4,0.0018 0.007,0.07862 0.01,0.175781 0.003,0.09716 0.004,0.225625 0.006,0.373047 0.004,0.294843 0.011,0.668901 0.0274,1.039063 0.0163,0.370161 0.0429,0.735315 0.0918,1.023437 0.0245,0.144061 0.0526,0.267783 0.0937,0.369141 0.0412,0.101357 0.0941,0.2016 0.21485,0.232422 0.1386,0.03539 0.36975,0.165303 0.61132,0.351562 0.24158,0.186259 0.49932,0.425625 0.72266,0.673828 0.22334,0.248203 0.41378,0.506823 0.51953,0.720703 0.0529,0.106941 0.0834,0.203647 0.0918,0.275391 0.008,0.07174 -0.004,0.111908 -0.0254,0.140625 l -0.0293,0.03906 1.14453,25.7695316 c -0.25013,11.5153984 -0.40076,22.9769484 -2.26562,34.3691404 -1.90517,9.209261 -2.56009,15.677797 -0.0625,24.837891 l -0.004,-0.01172 c 3.06703,17.999593 6.45851,35.656923 5.73438,54.943353 l -0.75782,26.08399 0.375,14.34179 h -37.09375 c -2.30935,-34.66847 -3.32869,-61.333407 3.3418,-95.58007 l 0.004,-0.01563 -0.37891,-10.22461 -1.13672,-10.974609 -0.002,-0.0098 c -2.95105,-12.173885 -4.38304,-22.281146 -4.15234,-35.1171872 v -0.00195 -22.2695318 c 0.25923,-0.370037 0.31641,-0.605939 0.49414,-0.904296 0.18692,-0.313793 0.54023,-0.746974 1.49218,-1.580079 l 0.0449,-0.03906 -0.0312,-2.265625 -0.002,-0.01172 c -0.24849,-1.44288 -0.1725,-2.311203 0.0723,-2.984375 0.24317,-0.668789 0.6651,-1.158751 1.13086,-1.826172 2.52546,-2.383008 7.26455,-4.82628 13.10937,-6.046875 1.68494,-0.351908 3.37057,-0.474486 5.00196,-0.503906 z"
         id="path826-8"
         inkscape:connector-curvature="0" />
      <path
         style="color:#000000;font-style:normal;font-variant:normal;font-weight:normal;font-stretch:normal;font-size:medium;line-height:normal;font-family:sans-serif;font-variant-ligatures:normal;font-variant-position:normal;font-variant-caps:normal;font-variant-numeric:normal;font-variant-alternates:normal;font-feature-settings:normal;text-indent:0;text-align:start;text-decoration:none;text-decoration-line:none;text-decoration-style:solid;text-decoration-color:#000000;letter-spacing:normal;word-spacing:normal;text-transform:none;writing-mode:lr-tb;direction:ltr;text-orientation:mixed;dominant-baseline:auto;baseline-shift:baseline;text-anchor:start;white-space:normal;shape-padding:0;clip-rule:nonzero;display:inline;overflow:visible;visibility:visible;opacity:1;isolation:auto;mix-blend-mode:normal;color-interpolation:sRGB;color-interpolation-filters:linearRGB;solid-color:#000000;solid-opacity:1;vector-effect:none;fill:#000000;fill-opacity:1;fill-rule:nonzero;stroke:none;stroke-width:2.66697px;stroke-linecap:butt;stroke-linejoin:miter;stroke-miterlimit:4;stroke-dasharray:none;stroke-dashoffset:0;stroke-opacity:1;color-rendering:auto;image-rendering:auto;shape-rendering:auto;text-rendering:auto;enable-background:accumulate"
         d="m 8315.543,975.30664 c -24.8514,0.0317 -49.5964,1.13617 -73.7422,4.4375 -61.1647,8.36274 -118.5411,30.94236 -163.7676,85.85546 v 4.1973 c 45.0656,-56.1919 102.4325,-78.97858 164.1152,-87.41213 63.4991,-8.6819 131.5007,-2.06196 194.836,-0.84961 -1.3427,-1.07774 -2.6488,-2.0168 -3.877,-2.77149 -30.1579,-0.67745 -61.3677,-2.46687 -92.6953,-3.17187 -8.2888,-0.18655 -16.5854,-0.29573 -24.8691,-0.28516 z"
         transform="matrix(0.0954465,0,0,0.0954465,-940.73103,-119.54252)"
         id="path993"
         inkscape:connector-curvature="0" />
      <path
         style="color:#000000;font-style:normal;font-variant:normal;font-weight:normal;font-stretch:normal;font-size:medium;line-height:normal;font-family:sans-serif;font-variant-ligatures:normal;font-variant-position:normal;font-variant-caps:normal;font-variant-numeric:normal;font-variant-alternates:normal;font-feature-settings:normal;text-indent:0;text-align:start;text-decoration:none;text-decoration-line:none;text-decoration-style:solid;text-decoration-color:#000000;letter-spacing:normal;word-spacing:normal;text-transform:none;writing-mode:lr-tb;direction:ltr;text-orientation:mixed;dominant-baseline:auto;baseline-shift:baseline;text-anchor:start;white-space:normal;shape-padding:0;clip-rule:nonzero;display:inline;overflow:visible;visibility:visible;opacity:1;isolation:auto;mix-blend-mode:normal;color-interpolation:sRGB;color-interpolation-filters:linearRGB;solid-color:#000000;solid-opacity:1;vector-effect:none;fill:#000000;fill-opacity:1;fill-rule:nonzero;stroke:none;stroke-width:2.67207px;stroke-linecap:butt;stroke-linejoin:miter;stroke-miterlimit:4;stroke-dasharray:none;stroke-dashoffset:0;stroke-opacity:1;color-rendering:auto;image-rendering:auto;shape-rendering:auto;text-rendering:auto;enable-background:accumulate"
         d="m 8328.7891,1056.8301 c -86.4357,0.6167 -177.0762,21.3212 -250.7559,58.4394 v 2.9942 c 110.4607,-56.053 260.1615,-74.8119 375.3867,-43.8535 l -0.125,-2.8086 c -38.6468,-10.306 -81.0407,-15.0817 -124.5058,-14.7715 z"
         transform="matrix(0.0954465,0,0,0.0954465,-940.73103,-119.54252)"
         id="path995"
         inkscape:connector-curvature="0" />
      <path
         style="color:#000000;font-style:normal;font-variant:normal;font-weight:normal;font-stretch:normal;font-size:medium;line-height:normal;font-family:sans-serif;font-variant-ligatures:normal;font-variant-position:normal;font-variant-caps:normal;font-variant-numeric:normal;font-variant-alternates:normal;font-feature-settings:normal;text-indent:0;text-align:start;text-decoration:none;text-decoration-line:none;text-decoration-style:solid;text-decoration-color:#000000;letter-spacing:normal;word-spacing:normal;text-transform:none;writing-mode:lr-tb;direction:ltr;text-orientation:mixed;dominant-baseline:auto;baseline-shift:baseline;text-anchor:start;white-space:normal;shape-padding:0;clip-rule:nonzero;display:inline;overflow:visible;visibility:visible;opacity:1;isolation:auto;mix-blend-mode:normal;color-interpolation:sRGB;color-interpolation-filters:linearRGB;solid-color:#000000;solid-opacity:1;vector-effect:none;fill:#000000;fill-opacity:1;fill-rule:nonzero;stroke:none;stroke-width:2.77206px;stroke-linecap:butt;stroke-linejoin:miter;stroke-miterlimit:4;stroke-dasharray:none;stroke-dashoffset:0;stroke-opacity:1;color-rendering:auto;image-rendering:auto;shape-rendering:auto;text-rendering:auto;enable-background:accumulate"
         d="m 8334.5918,1118.8789 c -3.4702,0.01 -6.9465,0.046 -10.4277,0.1172 -83.8074,1.7149 -170.5404,21.8244 -246.1309,48.9863 v 2.9512 c 116.8323,-42.1057 260.5684,-67.2693 378.1777,-33.6504 l -0.1308,-2.9336 c -38.4144,-10.8786 -79.5075,-15.5559 -121.4883,-15.4707 z"
         transform="matrix(0.0954465,0,0,0.0954465,-940.73103,-119.54252)"
         id="path997"
         inkscape:connector-curvature="0" />
      <path
         style="color:#000000;font-style:normal;font-variant:normal;font-weight:normal;font-stretch:normal;font-size:medium;line-height:normal;font-family:sans-serif;font-variant-ligatures:normal;font-variant-position:normal;font-variant-caps:normal;font-variant-numeric:normal;font-variant-alternates:normal;font-feature-settings:normal;text-indent:0;text-align:start;text-decoration:none;text-decoration-line:none;text-decoration-style:solid;text-decoration-color:#000000;letter-spacing:normal;word-spacing:normal;text-transform:none;writing-mode:lr-tb;direction:ltr;text-orientation:mixed;dominant-baseline:auto;baseline-shift:baseline;text-anchor:start;white-space:normal;shape-padding:0;clip-rule:nonzero;display:inline;overflow:visible;visibility:visible;opacity:1;isolation:auto;mix-blend-mode:normal;color-interpolation:sRGB;color-interpolation-filters:linearRGB;solid-color:#000000;solid-opacity:1;vector-effect:none;fill:#000000;fill-opacity:1;fill-rule:nonzero;stroke:none;stroke-width:2.77206px;stroke-linecap:butt;stroke-linejoin:miter;stroke-miterlimit:4;stroke-dasharray:none;stroke-dashoffset:0;stroke-opacity:1;color-rendering:auto;image-rendering:auto;shape-rendering:auto;text-rendering:auto;enable-background:accumulate"
         d="m 8262.0898,1198.752 c -13.1735,-0.03 -26.2246,0.1984 -38.9062,0.746 v 0 c -40.5811,1.7526 -77.3483,6.774 -102.1113,17.086 l 0.084,-0.041 c -14.1059,4.7019 -28.9252,5.1005 -43.1191,9.1445 v 2.9219 c 14.0114,-4.0805 29.118,-4.4658 43.998,-9.4258 l 0.043,-0.022 0.062,-0.02 c 48.3062,-20.116 145.9826,-19.8741 225.8086,-14.3457 39.9131,2.7642 75.412,6.8099 98.1426,10.1914 5.4488,0.8106 9.9757,1.5642 13.6699,2.2519 l -0.1269,-2.8574 c -3.7283,-0.669 -8.0545,-1.3809 -13.1348,-2.1367 -22.8271,-3.3959 -58.3791,-7.4417 -98.3652,-10.2109 -27.4905,-1.9039 -57.0593,-3.2176 -86.0411,-3.2832 z"
         transform="matrix(0.0954465,0,0,0.0954465,-940.73103,-119.54252)"
         id="path999"
         inkscape:connector-curvature="0" />
      <path
         style="color:#000000;font-style:normal;font-variant:normal;font-weight:normal;font-stretch:normal;font-size:medium;line-height:normal;font-family:sans-serif;font-variant-ligatures:normal;font-variant-position:normal;font-variant-caps:normal;font-variant-numeric:normal;font-variant-alternates:normal;font-feature-settings:normal;text-indent:0;text-align:start;text-decoration:none;text-decoration-line:none;text-decoration-style:solid;text-decoration-color:#000000;letter-spacing:normal;word-spacing:normal;text-transform:none;writing-mode:lr-tb;direction:ltr;text-orientation:mixed;dominant-baseline:auto;baseline-shift:baseline;text-anchor:start;white-space:normal;shape-padding:0;clip-rule:nonzero;display:inline;overflow:visible;visibility:visible;opacity:1;isolation:auto;mix-blend-mode:normal;color-interpolation:sRGB;color-interpolation-filters:linearRGB;solid-color:#000000;solid-opacity:1;vector-effect:none;fill:#000000;fill-opacity:1;fill-rule:nonzero;stroke:none;stroke-width:2.77206px;stroke-linecap:butt;stroke-linejoin:miter;stroke-miterlimit:4;stroke-dasharray:none;stroke-dashoffset:0;stroke-opacity:1;color-rendering:auto;image-rendering:auto;shape-rendering:auto;text-rendering:auto;enable-background:accumulate"
         d="m 8286.668,1243.002 c -8.0734,0.013 -16.14,0.098 -24.1992,0.2656 -62.3029,1.2965 -124.1181,7.513 -184.4356,23.0801 v 2.8652 c 122.3936,-31.738 251.304,-24.7596 378.0977,-16.3067 l 0.1836,-2.7636 c -56.327,-3.7552 -113.1326,-7.2294 -169.6465,-7.1406 z"
         transform="matrix(0.0954465,0,0,0.0954465,-940.73103,-119.54252)"
         id="path1001"
         inkscape:connector-curvature="0" />
      <path
         style="color:#000000;font-style:normal;font-variant:normal;font-weight:normal;font-stretch:normal;font-size:medium;line-height:normal;font-family:sans-serif;font-variant-ligatures:normal;font-variant-position:normal;font-variant-caps:normal;font-variant-numeric:normal;font-variant-alternates:normal;font-feature-settings:normal;text-indent:0;text-align:start;text-decoration:none;text-decoration-line:none;text-decoration-style:solid;text-decoration-color:#000000;letter-spacing:normal;word-spacing:normal;text-transform:none;writing-mode:lr-tb;direction:ltr;text-orientation:mixed;dominant-baseline:auto;baseline-shift:baseline;text-anchor:start;white-space:normal;shape-padding:0;clip-rule:nonzero;display:inline;overflow:visible;visibility:visible;opacity:1;isolation:auto;mix-blend-mode:normal;color-interpolation:sRGB;color-interpolation-filters:linearRGB;solid-color:#000000;solid-opacity:1;vector-effect:none;fill:#000000;fill-opacity:1;fill-rule:nonzero;stroke:none;stroke-width:2.77206px;stroke-linecap:butt;stroke-linejoin:miter;stroke-miterlimit:4;stroke-dasharray:none;stroke-dashoffset:0;stroke-opacity:1;color-rendering:auto;image-rendering:auto;shape-rendering:auto;text-rendering:auto;enable-background:accumulate"
         d="m 8271.5957,1316.8867 c -44.7159,0.1414 -89.5144,1.8524 -132.2129,2.5449 h -0.022 -0.041 c -20.1156,1.3411 -41.7698,2.3854 -61.5312,7.1465 -1e-4,0.9544 0.01,1.9019 0.01,2.8535 19.5458,-4.7903 41.2879,-5.8604 61.6445,-7.2168 105.6016,-1.7127 223.7385,-9.5694 321.2656,15.1914 0.023,-0.9495 0.044,-1.8999 0.066,-2.8496 -45.0315,-11.366 -94.2841,-15.8418 -144.5703,-17.1914 v 0 c -14.8052,-0.3973 -29.7008,-0.5256 -44.6055,-0.4785 z"
         transform="matrix(0.0954465,0,0,0.0954465,-940.73103,-119.54252)"
         id="path1003"
         inkscape:connector-curvature="0" />
      <path
         style="color:#000000;font-style:normal;font-variant:normal;font-weight:normal;font-stretch:normal;font-size:medium;line-height:normal;font-family:sans-serif;font-variant-ligatures:normal;font-variant-position:normal;font-variant-caps:normal;font-variant-numeric:normal;font-variant-alternates:normal;font-feature-settings:normal;text-indent:0;text-align:start;text-decoration:none;text-decoration-line:none;text-decoration-style:solid;text-decoration-color:#000000;letter-spacing:normal;word-spacing:normal;text-transform:none;writing-mode:lr-tb;direction:ltr;text-orientation:mixed;dominant-baseline:auto;baseline-shift:baseline;text-anchor:start;white-space:normal;shape-padding:0;clip-rule:nonzero;display:inline;overflow:visible;visibility:visible;opacity:1;isolation:auto;mix-blend-mode:normal;color-interpolation:sRGB;color-interpolation-filters:linearRGB;solid-color:#000000;solid-opacity:1;vector-effect:none;fill:#000000;fill-opacity:1;fill-rule:nonzero;stroke:none;stroke-width:2.77206px;stroke-linecap:butt;stroke-linejoin:miter;stroke-miterlimit:4;stroke-dasharray:none;stroke-dashoffset:0;stroke-opacity:1;color-rendering:auto;image-rendering:auto;shape-rendering:auto;text-rendering:auto;enable-background:accumulate"
         d="m 8203.2402,1370.5996 c -13.1555,0.065 -26.3699,0.5114 -39.6484,1.3809 v 0 c -27.9251,1.8284 -56.1336,5.5346 -84.666,11.5078 0.039,0.9361 0.085,1.8646 0.125,2.7988 131.8671,-27.7215 256.8504,-6.6565 379.4727,23.6699 0.036,-0.9429 0.08,-1.8851 0.1152,-2.8281 -83.432,-20.613 -168.1095,-36.9609 -255.3965,-36.5293 z"
         transform="matrix(0.0954465,0,0,0.0954465,-940.73103,-119.54252)"
         id="path1005"
         inkscape:connector-curvature="0" />
      <path
         style="color:#000000;font-style:normal;font-variant:normal;font-weight:normal;font-stretch:normal;font-size:medium;line-height:normal;font-family:sans-serif;font-variant-ligatures:normal;font-variant-position:normal;font-variant-caps:normal;font-variant-numeric:normal;font-variant-alternates:normal;font-feature-settings:normal;text-indent:0;text-align:start;text-decoration:none;text-decoration-line:none;text-decoration-style:solid;text-decoration-color:#000000;letter-spacing:normal;word-spacing:normal;text-transform:none;writing-mode:lr-tb;direction:ltr;text-orientation:mixed;dominant-baseline:auto;baseline-shift:baseline;text-anchor:start;white-space:normal;shape-padding:0;clip-rule:nonzero;display:inline;overflow:visible;visibility:visible;opacity:1;isolation:auto;mix-blend-mode:normal;color-interpolation:sRGB;color-interpolation-filters:linearRGB;solid-color:#000000;solid-opacity:1;vector-effect:none;fill:#000000;fill-opacity:1;fill-rule:nonzero;stroke:none;stroke-width:2.77206px;stroke-linecap:butt;stroke-linejoin:miter;stroke-miterlimit:4;stroke-dasharray:none;stroke-dashoffset:0;stroke-opacity:1;color-rendering:auto;image-rendering:auto;shape-rendering:auto;text-rendering:auto;enable-background:accumulate"
         d="m 8179.9609,1419.3105 c -32.9982,-0.037 -66.0965,0.5817 -98.9902,0.9922 0.065,0.9285 0.138,1.8524 0.2051,2.7793 128.6474,-1.6057 260.1732,-6.413 374.9551,37.9668 0.055,-0.9731 0.1084,-1.9466 0.1621,-2.9199 -85.7765,-32.9784 -180.5775,-38.7104 -276.3321,-38.8184 z"
         transform="matrix(0.0954465,0,0,0.0954465,-940.73103,-119.54252)"
         id="path1007"
         inkscape:connector-curvature="0" />
      <path
         style="color:#000000;font-style:normal;font-variant:normal;font-weight:normal;font-stretch:normal;font-size:medium;line-height:normal;font-family:sans-serif;font-variant-ligatures:normal;font-variant-position:normal;font-variant-caps:normal;font-variant-numeric:normal;font-variant-alternates:normal;font-feature-settings:normal;text-indent:0;text-align:start;text-decoration:none;text-decoration-line:none;text-decoration-style:solid;text-decoration-color:#000000;letter-spacing:normal;word-spacing:normal;text-transform:none;writing-mode:lr-tb;direction:ltr;text-orientation:mixed;dominant-baseline:auto;baseline-shift:baseline;text-anchor:start;white-space:normal;shape-padding:0;clip-rule:nonzero;display:inline;overflow:visible;visibility:visible;opacity:1;isolation:auto;mix-blend-mode:normal;color-interpolation:sRGB;color-interpolation-filters:linearRGB;solid-color:#000000;solid-opacity:1;vector-effect:none;fill:#000000;fill-opacity:1;fill-rule:nonzero;stroke:none;stroke-width:2.77206px;stroke-linecap:butt;stroke-linejoin:miter;stroke-miterlimit:4;stroke-dasharray:none;stroke-dashoffset:0;stroke-opacity:1;color-rendering:auto;image-rendering:auto;shape-rendering:auto;text-rendering:auto;enable-background:accumulate"
         d="m 8263.0215,1466.3438 c -58.8558,-0.3953 -120.9394,5.9002 -177.7735,1.6914 0.1018,0.9333 0.2048,1.8662 0.3086,2.7988 60.8866,4.4415 127.3455,-3.0062 189.209,-1.5528 62.4351,1.4669 120.0537,11.9674 162.6817,52.5293 l 1.9043,-2.0058 c -43.3584,-41.257 -101.8181,-51.812 -164.5235,-53.2852 -3.9191,-0.092 -7.8558,-0.1492 -11.8066,-0.1757 z"
         transform="matrix(0.0954465,0,0,0.0954465,-940.73103,-119.54252)"
         id="path1009"
         inkscape:connector-curvature="0" />
      <path
         style="color:#000000;font-style:normal;font-variant:normal;font-weight:normal;font-stretch:normal;font-size:medium;line-height:normal;font-family:sans-serif;font-variant-ligatures:normal;font-variant-position:normal;font-variant-caps:normal;font-variant-numeric:normal;font-variant-alternates:normal;font-feature-settings:normal;text-indent:0;text-align:start;text-decoration:none;text-decoration-line:none;text-decoration-style:solid;text-decoration-color:#000000;letter-spacing:normal;word-spacing:normal;text-transform:none;writing-mode:lr-tb;direction:ltr;text-orientation:mixed;dominant-baseline:auto;baseline-shift:baseline;text-anchor:start;white-space:normal;shape-padding:0;clip-rule:nonzero;display:inline;overflow:visible;visibility:visible;opacity:1;isolation:auto;mix-blend-mode:normal;color-interpolation:sRGB;color-interpolation-filters:linearRGB;solid-color:#000000;solid-opacity:1;vector-effect:none;fill:#000000;fill-opacity:1;fill-rule:nonzero;stroke:none;stroke-width:2.77206px;stroke-linecap:butt;stroke-linejoin:miter;stroke-miterlimit:4;stroke-dasharray:none;stroke-dashoffset:0;stroke-opacity:1;color-rendering:auto;image-rendering:auto;shape-rendering:auto;text-rendering:auto;enable-background:accumulate"
         d="m 8091.2227,1514.7188 c 0.1372,0.9361 0.2688,1.8723 0.4082,2.8085 15.0137,0.8567 36.7921,0.9917 62.4238,1.0508 35.1527,0.081 77.2994,0.01 118.0098,1.3496 40.7103,1.343 79.9937,4.1034 109.375,9.8633 14.6905,2.88 26.9195,6.5336 35.5234,11.0293 8.604,4.4957 13.4424,9.7033 14.1211,15.7774 l 2.7617,-0.3067 c -0.8204,-7.3405 -6.6027,-13.2371 -15.6133,-17.9453 -9.0107,-4.7082 -21.4035,-8.3668 -36.2402,-11.2754 -29.6734,-5.8172 -69.0687,-8.5806 -109.8457,-9.9258 -40.7771,-1.3451 -82.9291,-1.249 -118.0723,-1.33 -25.907,-0.059 -48.007,-0.2295 -62.8515,-1.0957 z"
         transform="matrix(0.0954465,0,0,0.0954465,-940.73103,-119.54252)"
         id="path1011"
         inkscape:connector-curvature="0" />
      <path
         style="color:#000000;font-style:normal;font-variant:normal;font-weight:normal;font-stretch:normal;font-size:medium;line-height:normal;font-family:sans-serif;font-variant-ligatures:normal;font-variant-position:normal;font-variant-caps:normal;font-variant-numeric:normal;font-variant-alternates:normal;font-feature-settings:normal;text-indent:0;text-align:start;text-decoration:none;text-decoration-line:none;text-decoration-style:solid;text-decoration-color:#000000;letter-spacing:normal;word-spacing:normal;text-transform:none;writing-mode:lr-tb;direction:ltr;text-orientation:mixed;dominant-baseline:auto;baseline-shift:baseline;text-anchor:start;white-space:normal;shape-padding:0;clip-rule:nonzero;display:inline;overflow:visible;visibility:visible;opacity:1;isolation:auto;mix-blend-mode:normal;color-interpolation:sRGB;color-interpolation-filters:linearRGB;solid-color:#000000;solid-opacity:1;vector-effect:none;fill:#000000;fill-opacity:1;fill-rule:nonzero;stroke:none;stroke-width:2.77206px;stroke-linecap:butt;stroke-linejoin:miter;stroke-miterlimit:4;stroke-dasharray:none;stroke-dashoffset:0;stroke-opacity:1;color-rendering:auto;image-rendering:auto;shape-rendering:auto;text-rendering:auto;enable-background:accumulate"
         d="m 8161.6055,1557.5918 c -21.1693,-0.066 -42.229,0.6954 -62.9825,2.3027 0.1653,0.9157 0.3231,1.8296 0.4903,2.7461 116.0065,-8.9431 241.6843,8.6118 342.2539,49.9414 0.1395,-0.9428 0.2864,-1.8852 0.4238,-2.8281 -75.7518,-31.0311 -165.4527,-48.6213 -254.6074,-51.6836 -8.5354,-0.2932 -17.065,-0.4519 -25.5781,-0.4785 z"
         transform="matrix(0.0954465,0,0,0.0954465,-940.73103,-119.54252)"
         id="path1013"
         inkscape:connector-curvature="0" />
      <path
         style="color:#000000;font-style:normal;font-variant:normal;font-weight:normal;font-stretch:normal;font-size:medium;line-height:normal;font-family:sans-serif;font-variant-ligatures:normal;font-variant-position:normal;font-variant-caps:normal;font-variant-numeric:normal;font-variant-alternates:normal;font-feature-settings:normal;text-indent:0;text-align:start;text-decoration:none;text-decoration-line:none;text-decoration-style:solid;text-decoration-color:#000000;letter-spacing:normal;word-spacing:normal;text-transform:none;writing-mode:lr-tb;direction:ltr;text-orientation:mixed;dominant-baseline:auto;baseline-shift:baseline;text-anchor:start;white-space:normal;shape-padding:0;clip-rule:nonzero;display:inline;overflow:visible;visibility:visible;opacity:1;isolation:auto;mix-blend-mode:normal;color-interpolation:sRGB;color-interpolation-filters:linearRGB;solid-color:#000000;solid-opacity:1;vector-effect:none;fill:#000000;fill-opacity:1;fill-rule:nonzero;stroke:none;stroke-width:2.77206px;stroke-linecap:butt;stroke-linejoin:miter;stroke-miterlimit:4;stroke-dasharray:none;stroke-dashoffset:0;stroke-opacity:1;color-rendering:auto;image-rendering:auto;shape-rendering:auto;text-rendering:auto;enable-background:accumulate"
         d="m 8174.5273,1610.6523 c -20.6919,0.01 -41.7375,2.27 -63.1796,7.8047 l 0.6972,2.7012 c 56.5192,-14.589 110.3852,-6.2641 162.5156,6.2832 52.1304,12.5473 102.4695,29.3248 151.8985,31.3691 l 0.1211,-2.7617 c -48.8791,-2.0216 -99.1035,-18.7249 -151.3848,-31.3086 -26.1406,-6.2918 -52.8104,-11.5422 -80.0918,-13.3828 -6.8203,-0.4601 -13.6789,-0.7079 -20.5762,-0.7051 z"
         transform="matrix(0.0954465,0,0,0.0954465,-940.73103,-119.54252)"
         id="path1015"
         inkscape:connector-curvature="0" />
      <path
         style="color:#000000;font-style:normal;font-variant:normal;font-weight:normal;font-stretch:normal;font-size:medium;line-height:normal;font-family:sans-serif;font-variant-ligatures:normal;font-variant-position:normal;font-variant-caps:normal;font-variant-numeric:normal;font-variant-alternates:normal;font-feature-settings:normal;text-indent:0;text-align:start;text-decoration:none;text-decoration-line:none;text-decoration-style:solid;text-decoration-color:#000000;letter-spacing:normal;word-spacing:normal;text-transform:none;writing-mode:lr-tb;direction:ltr;text-orientation:mixed;dominant-baseline:auto;baseline-shift:baseline;text-anchor:start;white-space:normal;shape-padding:0;clip-rule:nonzero;display:inline;overflow:visible;visibility:visible;opacity:1;isolation:auto;mix-blend-mode:normal;color-interpolation:sRGB;color-interpolation-filters:linearRGB;solid-color:#000000;solid-opacity:1;vector-effect:none;fill:#000000;fill-opacity:1;fill-rule:nonzero;stroke:none;stroke-width:2.77206px;stroke-linecap:butt;stroke-linejoin:miter;stroke-miterlimit:4;stroke-dasharray:none;stroke-dashoffset:0;stroke-opacity:1;color-rendering:auto;image-rendering:auto;shape-rendering:auto;text-rendering:auto;enable-background:accumulate"
         d="m 8138.1465,1660.791 c -6.6816,-0.024 -12.7407,0.036 -18.084,0.168 0.2209,0.9222 0.4414,1.8431 0.6641,2.7676 13.1034,-0.3105 30.5955,-0.1977 50.5996,0.5078 32.3519,1.1409 71.2875,3.8165 108.9238,8.6953 37.6364,4.8788 73.9858,11.975 101.1074,21.875 13.5609,4.95 24.8011,10.6121 32.7207,16.9648 4.0009,3.2093 7.1399,6.5683 9.3418,10.0996 0.1468,-1.3898 0.3032,-2.7842 0.461,-4.1796 -2.175,-2.8433 -4.884,-5.5402 -8.0625,-8.0899 -8.2896,-6.6495 -19.7848,-12.4005 -33.5196,-17.4141 -27.4698,-10.027 -63.9515,-17.1045 -101.7011,-21.998 -37.7498,-4.8935 -76.7435,-7.5732 -109.17,-8.7168 -12.1598,-0.4288 -23.3869,-0.6444 -33.2812,-0.6797 z"
         transform="matrix(0.0954465,0,0,0.0954465,-940.73103,-119.54252)"
         id="path1017"
         inkscape:connector-curvature="0" />
      <path
         style="color:#000000;font-style:normal;font-variant:normal;font-weight:normal;font-stretch:normal;font-size:medium;line-height:normal;font-family:sans-serif;font-variant-ligatures:normal;font-variant-position:normal;font-variant-caps:normal;font-variant-numeric:normal;font-variant-alternates:normal;font-feature-settings:normal;text-indent:0;text-align:start;text-decoration:none;text-decoration-line:none;text-decoration-style:solid;text-decoration-color:#000000;letter-spacing:normal;word-spacing:normal;text-transform:none;writing-mode:lr-tb;direction:ltr;text-orientation:mixed;dominant-baseline:auto;baseline-shift:baseline;text-anchor:start;white-space:normal;shape-padding:0;clip-rule:nonzero;display:inline;overflow:visible;visibility:visible;opacity:1;isolation:auto;mix-blend-mode:normal;color-interpolation:sRGB;color-interpolation-filters:linearRGB;solid-color:#000000;solid-opacity:1;vector-effect:none;fill:#000000;fill-opacity:1;fill-rule:nonzero;stroke:none;stroke-width:2.77206px;stroke-linecap:butt;stroke-linejoin:miter;stroke-miterlimit:4;stroke-dasharray:none;stroke-dashoffset:0;stroke-opacity:1;color-rendering:auto;image-rendering:auto;shape-rendering:auto;text-rendering:auto;enable-background:accumulate"
         d="m 8277.9844,1711.2969 c -3.239,-0.022 -6.4889,-0.013 -9.7461,0.022 -48.9292,0.5238 -99.4646,7.1964 -140.7598,12.9218 l 0.2871,2.7559 c 41.3026,-5.7267 91.7778,-12.3923 140.5137,-12.9141 51.8675,-0.5553 101.5935,5.9259 135.7109,27.6856 l 1.4942,-2.3535 c -32.7501,-20.8876 -78.9158,-27.7951 -127.5,-28.1172 z"
         transform="matrix(0.0954465,0,0,0.0954465,-940.73103,-119.54252)"
         id="path1019"
         inkscape:connector-curvature="0" />
      <path
         style="color:#000000;font-style:normal;font-variant:normal;font-weight:normal;font-stretch:normal;font-size:medium;line-height:normal;font-family:sans-serif;font-variant-ligatures:normal;font-variant-position:normal;font-variant-caps:normal;font-variant-numeric:normal;font-variant-alternates:normal;font-feature-settings:normal;text-indent:0;text-align:start;text-decoration:none;text-decoration-line:none;text-decoration-style:solid;text-decoration-color:#000000;letter-spacing:normal;word-spacing:normal;text-transform:none;writing-mode:lr-tb;direction:ltr;text-orientation:mixed;dominant-baseline:auto;baseline-shift:baseline;text-anchor:start;white-space:normal;shape-padding:0;clip-rule:nonzero;display:inline;overflow:visible;visibility:visible;opacity:1;isolation:auto;mix-blend-mode:normal;color-interpolation:sRGB;color-interpolation-filters:linearRGB;solid-color:#000000;solid-opacity:1;vector-effect:none;fill:#000000;fill-opacity:1;fill-rule:nonzero;stroke:none;stroke-width:2.77206px;stroke-linecap:butt;stroke-linejoin:miter;stroke-miterlimit:4;stroke-dasharray:none;stroke-dashoffset:0;stroke-opacity:1;color-rendering:auto;image-rendering:auto;shape-rendering:auto;text-rendering:auto;enable-background:accumulate"
         d="m 8261.6367,1764.5039 c -14.7331,-0.071 -29.4542,0.3935 -44.1055,1.3691 -28.5951,1.9043 -56.9244,5.7675 -84.5664,11.3711 l 0.2852,2.7579 c 93.5795,-19.0046 195.0868,-17.7979 287.8789,10.9863 -0.046,-0.9765 -0.08,-1.951 -0.1191,-2.9258 -51.4425,-15.853 -105.4892,-23.2987 -159.3731,-23.5586 z"
         transform="matrix(0.0954465,0,0,0.0954465,-940.73103,-119.54252)"
         id="path1021"
         inkscape:connector-curvature="0" />
      <path
         style="color:#000000;font-style:normal;font-variant:normal;font-weight:normal;font-stretch:normal;font-size:medium;line-height:normal;font-family:sans-serif;font-variant-ligatures:normal;font-variant-position:normal;font-variant-caps:normal;font-variant-numeric:normal;font-variant-alternates:normal;font-feature-settings:normal;text-indent:0;text-align:start;text-decoration:none;text-decoration-line:none;text-decoration-style:solid;text-decoration-color:#000000;letter-spacing:normal;word-spacing:normal;text-transform:none;writing-mode:lr-tb;direction:ltr;text-orientation:mixed;dominant-baseline:auto;baseline-shift:baseline;text-anchor:start;white-space:normal;shape-padding:0;clip-rule:nonzero;display:inline;overflow:visible;visibility:visible;opacity:1;isolation:auto;mix-blend-mode:normal;color-interpolation:sRGB;color-interpolation-filters:linearRGB;solid-color:#000000;solid-opacity:1;vector-effect:none;fill:#000000;fill-opacity:1;fill-rule:nonzero;stroke:none;stroke-width:2.77206px;stroke-linecap:butt;stroke-linejoin:miter;stroke-miterlimit:4;stroke-dasharray:none;stroke-dashoffset:0;stroke-opacity:1;color-rendering:auto;image-rendering:auto;shape-rendering:auto;text-rendering:auto;enable-background:accumulate"
         d="m 8177.2773,1865.8867 c -14.0309,0 -27.6015,0.074 -40.6992,0.1289 l 0.1016,2.7696 c 48.3307,-0.1902 104.12,-0.7815 157.668,4.0703 55.0128,4.9845 107.4998,15.7718 146.7929,38.455 -0.2048,-1.194 -0.4105,-2.3857 -0.6152,-3.58 -39.6162,-22.2441 -91.6582,-32.7015 -145.9336,-37.6192 -34.84,-3.1567 -70.6291,-4.0325 -104.6484,-4.1953 v 0 c -4.2524,-0.02 -8.4782,-0.03 -12.67,-0.031 z"
         transform="matrix(0.0954465,0,0,0.0954465,-940.73103,-119.54252)"
         id="path1025"
         inkscape:connector-curvature="0" />
      <path
         style="color:#000000;font-style:normal;font-variant:normal;font-weight:normal;font-stretch:normal;font-size:medium;line-height:normal;font-family:sans-serif;font-variant-ligatures:normal;font-variant-position:normal;font-variant-caps:normal;font-variant-numeric:normal;font-variant-alternates:normal;font-feature-settings:normal;text-indent:0;text-align:start;text-decoration:none;text-decoration-line:none;text-decoration-style:solid;text-decoration-color:#000000;letter-spacing:normal;word-spacing:normal;text-transform:none;writing-mode:lr-tb;direction:ltr;text-orientation:mixed;dominant-baseline:auto;baseline-shift:baseline;text-anchor:start;white-space:normal;shape-padding:0;clip-rule:nonzero;display:inline;overflow:visible;visibility:visible;opacity:1;isolation:auto;mix-blend-mode:normal;color-interpolation:sRGB;color-interpolation-filters:linearRGB;solid-color:#000000;solid-opacity:1;vector-effect:none;fill:#000000;fill-opacity:1;fill-rule:nonzero;stroke:none;stroke-width:2.77206px;stroke-linecap:butt;stroke-linejoin:miter;stroke-miterlimit:4;stroke-dasharray:none;stroke-dashoffset:0;stroke-opacity:1;color-rendering:auto;image-rendering:auto;shape-rendering:auto;text-rendering:auto;enable-background:accumulate"
         d="m 8214.0547,1923.3418 c -12.2013,0.066 -23.803,0.5622 -34.4199,1.5293 v 0 c -16.974,1.5462 -33.7199,2.0773 -49.9453,5.5351 -0.1783,0.9872 -0.358,1.975 -0.5352,2.961 16.2639,-3.6009 33.2585,-4.1412 50.7481,-5.7344 56.1079,-5.111 140.7703,3.1077 194.1523,18.582 16.534,4.7929 40.8894,10.885 58.0938,16.3086 8.6022,2.7118 15.489,5.3343 18.3769,7.2637 0.3092,0.2066 0.541,0.4019 0.7461,0.584 -0.2131,-1.2455 -0.4233,-2.4908 -0.6367,-3.7363 -3.8046,-2.1185 -10.0125,-4.3454 -17.6465,-6.752 -17.3515,-5.47 -41.7377,-11.5631 -58.1758,-16.3281 -43.7778,-12.6903 -107.8837,-20.498 -160.7558,-20.2129 z m 237.3613,47.8887 c -0.1074,0.062 -0.1821,0.1171 -0.3613,0.1933 -0.6747,0.2869 -1.7275,0.5787 -3.1504,0.8399 l 0.4902,2.7207 c 1.4261,-0.2618 2.5695,-0.5603 3.5039,-0.9297 -0.1609,-0.9415 -0.3213,-1.8827 -0.4824,-2.8242 z"
         transform="matrix(0.0954465,0,0,0.0954465,-940.73103,-119.54252)"
         id="path1027"
         inkscape:connector-curvature="0" />
      <path
         style="color:#000000;font-style:normal;font-variant:normal;font-weight:normal;font-stretch:normal;font-size:medium;line-height:normal;font-family:sans-serif;font-variant-ligatures:normal;font-variant-position:normal;font-variant-caps:normal;font-variant-numeric:normal;font-variant-alternates:normal;font-feature-settings:normal;text-indent:0;text-align:start;text-decoration:none;text-decoration-line:none;text-decoration-style:solid;text-decoration-color:#000000;letter-spacing:normal;word-spacing:normal;text-transform:none;writing-mode:lr-tb;direction:ltr;text-orientation:mixed;dominant-baseline:auto;baseline-shift:baseline;text-anchor:start;white-space:normal;shape-padding:0;clip-rule:nonzero;display:inline;overflow:visible;visibility:visible;opacity:1;isolation:auto;mix-blend-mode:normal;color-interpolation:sRGB;color-interpolation-filters:linearRGB;solid-color:#000000;solid-opacity:1;vector-effect:none;fill:#000000;fill-opacity:1;fill-rule:nonzero;stroke:none;stroke-width:2.77206px;stroke-linecap:butt;stroke-linejoin:miter;stroke-miterlimit:4;stroke-dasharray:none;stroke-dashoffset:0;stroke-opacity:1;color-rendering:auto;image-rendering:auto;shape-rendering:auto;text-rendering:auto;enable-background:accumulate"
         d="m 8208.3574,1985.123 c -3.4775,-0.011 -6.9538,0.01 -10.4297,0.053 -26.3305,0.3533 -52.6148,2.4253 -78.748,7.0937 -0.1539,0.9689 -0.3043,1.9345 -0.457,2.9024 53.6751,-9.7212 108.0519,-8.3413 162.5097,-3.7149 22.6551,1.9246 48.1536,0.076 69.4512,7.2657 38.4442,12.9792 76.2608,31.3515 113.293,47.541 -0.1769,-1.0915 -0.3558,-2.1822 -0.5332,-3.2735 -36.4357,-15.9815 -73.7613,-34.0243 -111.8594,-46.8867 -22.063,-7.4487 -47.8039,-5.5118 -70.127,-7.4082 -24.3772,-2.0709 -48.7571,-3.4978 -73.0996,-3.5723 z"
         transform="matrix(0.0954465,0,0,0.0954465,-940.73103,-119.54252)"
         id="path1029"
         inkscape:connector-curvature="0" />
      <path
         style="color:#000000;font-style:normal;font-variant:normal;font-weight:normal;font-stretch:normal;font-size:medium;line-height:normal;font-family:sans-serif;font-variant-ligatures:normal;font-variant-position:normal;font-variant-caps:normal;font-variant-numeric:normal;font-variant-alternates:normal;font-feature-settings:normal;text-indent:0;text-align:start;text-decoration:none;text-decoration-line:none;text-decoration-style:solid;text-decoration-color:#000000;letter-spacing:normal;word-spacing:normal;text-transform:none;writing-mode:lr-tb;direction:ltr;text-orientation:mixed;dominant-baseline:auto;baseline-shift:baseline;text-anchor:start;white-space:normal;shape-padding:0;clip-rule:nonzero;display:inline;overflow:visible;visibility:visible;opacity:1;isolation:auto;mix-blend-mode:normal;color-interpolation:sRGB;color-interpolation-filters:linearRGB;solid-color:#000000;solid-opacity:1;vector-effect:none;fill:#000000;fill-opacity:1;fill-rule:nonzero;stroke:none;stroke-width:2.77206px;stroke-linecap:butt;stroke-linejoin:miter;stroke-miterlimit:4;stroke-dasharray:none;stroke-dashoffset:0;stroke-opacity:1;color-rendering:auto;image-rendering:auto;shape-rendering:auto;text-rendering:auto;enable-background:accumulate"
         d="m 8177.8535,2057.0215 c -23.1662,-0.04 -46.0649,0.3971 -68.373,1.2695 -0.1262,0.9354 -0.2519,1.8701 -0.377,2.8047 121.2156,-4.7806 260.3264,3.5178 361.9043,29.8574 -0.1514,-0.9946 -0.301,-1.9899 -0.4531,-2.9843 -83.0117,-21.362 -190.3676,-30.7723 -292.7012,-30.9473 z"
         transform="matrix(0.0954465,0,0,0.0954465,-940.73103,-119.54252)"
         id="path1031"
         inkscape:connector-curvature="0" />
      <path
         style="color:#000000;font-style:normal;font-variant:normal;font-weight:normal;font-stretch:normal;font-size:medium;line-height:normal;font-family:sans-serif;font-variant-ligatures:normal;font-variant-position:normal;font-variant-caps:normal;font-variant-numeric:normal;font-variant-alternates:normal;font-feature-settings:normal;text-indent:0;text-align:start;text-decoration:none;text-decoration-line:none;text-decoration-style:solid;text-decoration-color:#000000;letter-spacing:normal;word-spacing:normal;text-transform:none;writing-mode:lr-tb;direction:ltr;text-orientation:mixed;dominant-baseline:auto;baseline-shift:baseline;text-anchor:start;white-space:normal;shape-padding:0;clip-rule:nonzero;display:inline;overflow:visible;visibility:visible;opacity:1;isolation:auto;mix-blend-mode:normal;color-interpolation:sRGB;color-interpolation-filters:linearRGB;solid-color:#000000;solid-opacity:1;vector-effect:none;fill:#000000;fill-opacity:1;fill-rule:nonzero;stroke:none;stroke-width:2.77206px;stroke-linecap:butt;stroke-linejoin:miter;stroke-miterlimit:4;stroke-dasharray:none;stroke-dashoffset:0;stroke-opacity:1;color-rendering:auto;image-rendering:auto;shape-rendering:auto;text-rendering:auto;enable-background:accumulate"
         d="m 8260.3691,2112.4375 c -53.6928,0.1941 -107.3015,5.5649 -159.5781,17.1289 -0.1058,0.9732 -0.2098,1.9455 -0.3144,2.918 85.946,-19.1393 175.5804,-21.4503 263.3046,-11.4746 34.81,3.9584 67.6613,17.5064 101.4356,24.0019 2.0117,0.3869 7.9342,2.1186 14.1602,4.1074 -0.1369,-1.0151 -0.2743,-2.0301 -0.4122,-3.0449 -5.6752,-1.8041 -10.9249,-3.342 -13.2187,-3.7832 -33.3965,-6.4229 -66.3201,-20.0286 -101.6387,-24.0449 -23.4149,-2.6627 -46.9686,-4.4478 -70.5566,-5.2793 -11.0569,-0.3898 -22.1208,-0.5693 -33.1817,-0.5293 z"
         transform="matrix(0.0954465,0,0,0.0954465,-940.73103,-119.54252)"
         id="path1033"
         inkscape:connector-curvature="0" />
      <path
         style="color:#000000;font-style:normal;font-variant:normal;font-weight:normal;font-stretch:normal;font-size:medium;line-height:normal;font-family:sans-serif;font-variant-ligatures:normal;font-variant-position:normal;font-variant-caps:normal;font-variant-numeric:normal;font-variant-alternates:normal;font-feature-settings:normal;text-indent:0;text-align:start;text-decoration:none;text-decoration-line:none;text-decoration-style:solid;text-decoration-color:#000000;letter-spacing:normal;word-spacing:normal;text-transform:none;writing-mode:lr-tb;direction:ltr;text-orientation:mixed;dominant-baseline:auto;baseline-shift:baseline;text-anchor:start;white-space:normal;shape-padding:0;clip-rule:nonzero;display:inline;overflow:visible;visibility:visible;opacity:1;isolation:auto;mix-blend-mode:normal;color-interpolation:sRGB;color-interpolation-filters:linearRGB;solid-color:#000000;solid-opacity:1;vector-effect:none;fill:#000000;fill-opacity:1;fill-rule:nonzero;stroke:none;stroke-width:2.77206px;stroke-linecap:butt;stroke-linejoin:miter;stroke-miterlimit:4;stroke-dasharray:none;stroke-dashoffset:0;stroke-opacity:1;color-rendering:auto;image-rendering:auto;shape-rendering:auto;text-rendering:auto;enable-background:accumulate"
         d="m 8268.4238,2157.8027 c -56.2872,0.055 -114.2909,7.1701 -171.9687,14.8653 -0.088,0.9419 -0.1792,1.8867 -0.2656,2.8281 137.0407,-18.2811 275.2407,-33.2146 387.6269,41.1172 l 1.5352,-2.3125 c -59.9084,-39.6232 -126.9744,-54.0819 -197.1211,-56.2129 -6.5763,-0.1998 -13.1794,-0.2916 -19.8067,-0.2852 z"
         transform="matrix(0.0954465,0,0,0.0954465,-940.73103,-119.54252)"
         id="path1035"
         inkscape:connector-curvature="0" />
      <path
         style="color:#000000;font-style:normal;font-variant:normal;font-weight:normal;font-stretch:normal;font-size:medium;line-height:normal;font-family:sans-serif;font-variant-ligatures:normal;font-variant-position:normal;font-variant-caps:normal;font-variant-numeric:normal;font-variant-alternates:normal;font-feature-settings:normal;text-indent:0;text-align:start;text-decoration:none;text-decoration-line:none;text-decoration-style:solid;text-decoration-color:#000000;letter-spacing:normal;word-spacing:normal;text-transform:none;writing-mode:lr-tb;direction:ltr;text-orientation:mixed;dominant-baseline:auto;baseline-shift:baseline;text-anchor:start;white-space:normal;shape-padding:0;clip-rule:nonzero;display:inline;overflow:visible;visibility:visible;opacity:1;isolation:auto;mix-blend-mode:normal;color-interpolation:sRGB;color-interpolation-filters:linearRGB;solid-color:#000000;solid-opacity:1;vector-effect:none;fill:#000000;fill-opacity:1;fill-rule:nonzero;stroke:none;stroke-width:2.77206px;stroke-linecap:butt;stroke-linejoin:miter;stroke-miterlimit:4;stroke-dasharray:none;stroke-dashoffset:0;stroke-opacity:1;color-rendering:auto;image-rendering:auto;shape-rendering:auto;text-rendering:auto;enable-background:accumulate"
         d="m 8258.9512,2215.7012 c -71.3459,-0.1374 -137.8912,4.7939 -166.6895,6.9218 -0.07,0.9313 -0.1345,1.8602 -0.2031,2.7911 35.3382,-2.6104 129.0909,-9.5677 217.6367,-5.875 44.9732,1.8755 88.5228,6.5144 122.1445,15.8379 16.811,4.6617 31.1517,10.4997 41.9082,17.6796 9.3628,6.2496 15.988,13.4772 19.3711,21.8477 -0.1927,-2.4007 -0.3826,-4.8017 -0.5839,-7.1992 -3.9909,-6.3935 -9.8614,-12.0277 -17.252,-16.961 -11.1232,-7.4246 -25.6921,-13.3345 -42.6855,-18.0468 -33.9867,-9.4246 -77.6908,-14.0611 -122.7793,-15.9414 -16.9083,-0.7052 -34.0118,-1.0223 -50.8672,-1.0547 z"
         transform="matrix(0.0954465,0,0,0.0954465,-940.73103,-119.54252)"
         id="path1037"
         inkscape:connector-curvature="0" />
      <path
         style="color:#000000;font-style:normal;font-variant:normal;font-weight:normal;font-stretch:normal;font-size:medium;line-height:normal;font-family:sans-serif;font-variant-ligatures:normal;font-variant-position:normal;font-variant-caps:normal;font-variant-numeric:normal;font-variant-alternates:normal;font-feature-settings:normal;text-indent:0;text-align:start;text-decoration:none;text-decoration-line:none;text-decoration-style:solid;text-decoration-color:#000000;letter-spacing:normal;word-spacing:normal;text-transform:none;writing-mode:lr-tb;direction:ltr;text-orientation:mixed;dominant-baseline:auto;baseline-shift:baseline;text-anchor:start;white-space:normal;shape-padding:0;clip-rule:nonzero;display:inline;overflow:visible;visibility:visible;opacity:1;isolation:auto;mix-blend-mode:normal;color-interpolation:sRGB;color-interpolation-filters:linearRGB;solid-color:#000000;solid-opacity:1;vector-effect:none;fill:#000000;fill-opacity:1;fill-rule:nonzero;stroke:none;stroke-width:2.77206px;stroke-linecap:butt;stroke-linejoin:miter;stroke-miterlimit:4;stroke-dasharray:none;stroke-dashoffset:0;stroke-opacity:1;color-rendering:auto;image-rendering:auto;shape-rendering:auto;text-rendering:auto;enable-background:accumulate"
         d="m 8089.4629,2264.3047 c -0.055,0.9195 -0.1137,1.8406 -0.168,2.7598 140.0533,4.5266 270.5834,28.6739 402.6446,55.5253 l 0.5507,-2.7207 c -132.0687,-26.853 -262.7413,-51.0242 -403.0273,-55.5644 z"
         transform="matrix(0.0954465,0,0,0.0954465,-940.73103,-119.54252)"
         id="path1039"
         inkscape:connector-curvature="0" />
      <path
         style="color:#000000;font-style:normal;font-variant:normal;font-weight:normal;font-stretch:normal;font-size:medium;line-height:normal;font-family:sans-serif;font-variant-ligatures:normal;font-variant-position:normal;font-variant-caps:normal;font-variant-numeric:normal;font-variant-alternates:normal;font-feature-settings:normal;text-indent:0;text-align:start;text-decoration:none;text-decoration-line:none;text-decoration-style:solid;text-decoration-color:#000000;letter-spacing:normal;word-spacing:normal;text-transform:none;writing-mode:lr-tb;direction:ltr;text-orientation:mixed;dominant-baseline:auto;baseline-shift:baseline;text-anchor:start;white-space:normal;shape-padding:0;clip-rule:nonzero;display:inline;overflow:visible;visibility:visible;opacity:1;isolation:auto;mix-blend-mode:normal;color-interpolation:sRGB;color-interpolation-filters:linearRGB;solid-color:#000000;solid-opacity:1;vector-effect:none;fill:#000000;fill-opacity:1;fill-rule:nonzero;stroke:none;stroke-width:2.77206px;stroke-linecap:butt;stroke-linejoin:miter;stroke-miterlimit:4;stroke-dasharray:none;stroke-dashoffset:0;stroke-opacity:1;color-rendering:auto;image-rendering:auto;shape-rendering:auto;text-rendering:auto;enable-background:accumulate"
         d="m 8125.8379,2316.8359 c -13.1278,0.027 -26.1645,0.217 -39.0723,0.5235 -0.039,0.9253 -0.075,1.8502 -0.1133,2.7754 113.7641,-2.6742 238.0045,4.3003 336.6582,42.0312 22.6154,8.9567 52.6375,10.3878 75.2325,19.336 -0.019,-1.0073 -0.043,-2.013 -0.065,-3.0196 -23.1346,-8.9267 -52.5731,-10.3504 -74.1465,-18.8945 h -0.02 c -81.2079,-31.0593 -179.3115,-41.3743 -274.6953,-42.625 v 0 c -7.9487,-0.1043 -15.8765,-0.1433 -23.7754,-0.127 z"
         transform="matrix(0.0954465,0,0,0.0954465,-940.73103,-119.54252)"
         id="path1041"
         inkscape:connector-curvature="0" />
      <path
         style="color:#000000;font-style:normal;font-variant:normal;font-weight:normal;font-stretch:normal;font-size:medium;line-height:normal;font-family:sans-serif;font-variant-ligatures:normal;font-variant-position:normal;font-variant-caps:normal;font-variant-numeric:normal;font-variant-alternates:normal;font-feature-settings:normal;text-indent:0;text-align:start;text-decoration:none;text-decoration-line:none;text-decoration-style:solid;text-decoration-color:#000000;letter-spacing:normal;word-spacing:normal;text-transform:none;writing-mode:lr-tb;direction:ltr;text-orientation:mixed;dominant-baseline:auto;baseline-shift:baseline;text-anchor:start;white-space:normal;shape-padding:0;clip-rule:nonzero;display:inline;overflow:visible;visibility:visible;opacity:1;isolation:auto;mix-blend-mode:normal;color-interpolation:sRGB;color-interpolation-filters:linearRGB;solid-color:#000000;solid-opacity:1;vector-effect:none;fill:#000000;fill-opacity:1;fill-rule:nonzero;stroke:none;stroke-width:0.286315px;stroke-linecap:butt;stroke-linejoin:miter;stroke-miterlimit:4;stroke-dasharray:none;stroke-dashoffset:0;stroke-opacity:1;color-rendering:auto;image-rendering:auto;shape-rendering:auto;text-rendering:auto;enable-background:accumulate"
         d="m -162.11523,106.25781 c -2.34162,0.008 -4.68975,0.13406 -7.04102,0.38477 l 0.0312,0.28515 c 9.36512,-0.99858 18.67679,0.002 27.76953,2.46094 3.94365,1.06661 7.9318,2.43525 12.01172,2.97266 l 0.0371,-0.28516 c -4.04144,-0.53233 -8.01846,-1.8929 -11.97461,-2.96289 -6.84105,-1.85027 -13.80914,-2.87993 -20.83398,-2.85547 z"
         id="path1043"
         inkscape:connector-curvature="0" />
      <path
         style="color:#000000;font-style:normal;font-variant:normal;font-weight:normal;font-stretch:normal;font-size:medium;line-height:normal;font-family:sans-serif;font-variant-ligatures:normal;font-variant-position:normal;font-variant-caps:normal;font-variant-numeric:normal;font-variant-alternates:normal;font-feature-settings:normal;text-indent:0;text-align:start;text-decoration:none;text-decoration-line:none;text-decoration-style:solid;text-decoration-color:#000000;letter-spacing:normal;word-spacing:normal;text-transform:none;writing-mode:lr-tb;direction:ltr;text-orientation:mixed;dominant-baseline:auto;baseline-shift:baseline;text-anchor:start;white-space:normal;shape-padding:0;clip-rule:nonzero;display:inline;overflow:visible;visibility:visible;opacity:1;isolation:auto;mix-blend-mode:normal;color-interpolation:sRGB;color-interpolation-filters:linearRGB;solid-color:#000000;solid-opacity:1;vector-effect:none;fill:#000000;fill-opacity:1;fill-rule:nonzero;stroke:none;stroke-width:2.77206px;stroke-linecap:butt;stroke-linejoin:miter;stroke-miterlimit:4;stroke-dasharray:none;stroke-dashoffset:0;stroke-opacity:1;color-rendering:auto;image-rendering:auto;shape-rendering:auto;text-rendering:auto;enable-background:accumulate"
         d="m 8166.9883,2435.7109 c -28.2346,0.037 -56.0188,0.3986 -82.9414,0.5625 0,0.9228 -0.01,1.8466 -0.01,2.7696 136.2516,-0.7873 295.0215,-6.61 413.1152,50.5215 l 0.088,-3.045 c -95.3108,-45.7059 -216.1433,-50.954 -330.2519,-50.8086 z"
         transform="matrix(0.0954465,0,0,0.0954465,-940.73103,-119.54252)"
         id="path1045"
         inkscape:connector-curvature="0" />
      <path
         style="color:#000000;font-style:normal;font-variant:normal;font-weight:normal;font-stretch:normal;font-size:medium;line-height:normal;font-family:sans-serif;font-variant-ligatures:normal;font-variant-position:normal;font-variant-caps:normal;font-variant-numeric:normal;font-variant-alternates:normal;font-feature-settings:normal;text-indent:0;text-align:start;text-decoration:none;text-decoration-line:none;text-decoration-style:solid;text-decoration-color:#000000;letter-spacing:normal;word-spacing:normal;text-transform:none;writing-mode:lr-tb;direction:ltr;text-orientation:mixed;dominant-baseline:auto;baseline-shift:baseline;text-anchor:start;white-space:normal;shape-padding:0;clip-rule:nonzero;display:inline;overflow:visible;visibility:visible;opacity:1;isolation:auto;mix-blend-mode:normal;color-interpolation:sRGB;color-interpolation-filters:linearRGB;solid-color:#000000;solid-opacity:1;vector-effect:none;fill:#000000;fill-opacity:1;fill-rule:nonzero;stroke:none;stroke-width:2.77206px;stroke-linecap:butt;stroke-linejoin:miter;stroke-miterlimit:4;stroke-dasharray:none;stroke-dashoffset:0;stroke-opacity:1;color-rendering:auto;image-rendering:auto;shape-rendering:auto;text-rendering:auto;enable-background:accumulate"
         d="m 8290.4277,2497.1367 c -69.4599,0.1238 -141.0175,6.2423 -206.1328,3.2403 0.011,0.9235 0.023,1.8475 0.035,2.7714 69.8324,3.2047 146.732,-3.986 220.3535,-3.164 69.5404,0.7761 136.0926,8.7191 191.0332,39.1152 l 0.09,-3.1289 c -55.3215,-30.1775 -121.883,-37.997 -191.082,-38.7695 -4.7539,-0.053 -9.5203,-0.073 -14.2969,-0.064 z"
         transform="matrix(0.0954465,0,0,0.0954465,-940.73103,-119.54252)"
         id="path1047"
         inkscape:connector-curvature="0" />
      <path
         style="color:#000000;font-style:normal;font-variant:normal;font-weight:normal;font-stretch:normal;font-size:medium;line-height:normal;font-family:sans-serif;font-variant-ligatures:normal;font-variant-position:normal;font-variant-caps:normal;font-variant-numeric:normal;font-variant-alternates:normal;font-feature-settings:normal;text-indent:0;text-align:start;text-decoration:none;text-decoration-line:none;text-decoration-style:solid;text-decoration-color:#000000;letter-spacing:normal;word-spacing:normal;text-transform:none;writing-mode:lr-tb;direction:ltr;text-orientation:mixed;dominant-baseline:auto;baseline-shift:baseline;text-anchor:start;white-space:normal;shape-padding:0;clip-rule:nonzero;display:inline;overflow:visible;visibility:visible;opacity:1;isolation:auto;mix-blend-mode:normal;color-interpolation:sRGB;color-interpolation-filters:linearRGB;solid-color:#000000;solid-opacity:1;vector-effect:none;fill:#000000;fill-opacity:1;fill-rule:nonzero;stroke:none;stroke-width:2.77206px;stroke-linecap:butt;stroke-linejoin:miter;stroke-miterlimit:4;stroke-dasharray:none;stroke-dashoffset:0;stroke-opacity:1;color-rendering:auto;image-rendering:auto;shape-rendering:auto;text-rendering:auto;enable-background:accumulate"
         d="m 8140.1289,2539.168 c -18.4646,0.074 -36.8559,0.9941 -55.1191,2.8789 0.02,0.9247 0.043,1.8521 0.064,2.7773 118.8044,-12.2987 243.4751,16.8316 357.7754,49.9649 5.2215,1.5136 23.0255,5.8082 39.8223,10.9277 3.7905,1.1553 7.4949,2.3541 11.0097,3.5644 l 0.086,-2.9023 c -3.3196,-1.1304 -6.7688,-2.2463 -10.2988,-3.3223 -16.9068,-5.1531 -34.904,-9.4963 -39.8418,-10.9277 -89.3887,-25.9119 -185.2484,-49.4528 -279.8731,-52.6094 -7.8854,-0.263 -15.7614,-0.3831 -23.625,-0.3515 z"
         transform="matrix(0.0954465,0,0,0.0954465,-940.73103,-119.54252)"
         id="path1049"
         inkscape:connector-curvature="0" />
      <path
         style="color:#000000;font-style:normal;font-variant:normal;font-weight:normal;font-stretch:normal;font-size:medium;line-height:normal;font-family:sans-serif;font-variant-ligatures:normal;font-variant-position:normal;font-variant-caps:normal;font-variant-numeric:normal;font-variant-alternates:normal;font-feature-settings:normal;text-indent:0;text-align:start;text-decoration:none;text-decoration-line:none;text-decoration-style:solid;text-decoration-color:#000000;letter-spacing:normal;word-spacing:normal;text-transform:none;writing-mode:lr-tb;direction:ltr;text-orientation:mixed;dominant-baseline:auto;baseline-shift:baseline;text-anchor:start;white-space:normal;shape-padding:0;clip-rule:nonzero;display:inline;overflow:visible;visibility:visible;opacity:1;isolation:auto;mix-blend-mode:normal;color-interpolation:sRGB;color-interpolation-filters:linearRGB;solid-color:#000000;solid-opacity:1;vector-effect:none;fill:#000000;fill-opacity:1;fill-rule:nonzero;stroke:none;stroke-width:2.77206px;stroke-linecap:butt;stroke-linejoin:miter;stroke-miterlimit:4;stroke-dasharray:none;stroke-dashoffset:0;stroke-opacity:1;color-rendering:auto;image-rendering:auto;shape-rendering:auto;text-rendering:auto;enable-background:accumulate"
         d="m 8163.1367,2590.2891 c -24.5459,0.1 -49.7321,1.4764 -75.75,4.3574 l 0.3067,2.7422 c 150.0621,-16.6178 272.282,17.0479 404.6875,56.7949 l 0.084,-2.875 c -98.9053,-29.6822 -192.4289,-55.998 -296.2363,-60.3867 -10.9107,-0.4613 -21.9345,-0.6783 -33.0918,-0.6328 z"
         transform="matrix(0.0954465,0,0,0.0954465,-940.73103,-119.54252)"
         id="path1051"
         inkscape:connector-curvature="0" />
      <path
         style="color:#000000;font-style:normal;font-variant:normal;font-weight:normal;font-stretch:normal;font-size:medium;line-height:normal;font-family:sans-serif;font-variant-ligatures:normal;font-variant-position:normal;font-variant-caps:normal;font-variant-numeric:normal;font-variant-alternates:normal;font-feature-settings:normal;text-indent:0;text-align:start;text-decoration:none;text-decoration-line:none;text-decoration-style:solid;text-decoration-color:#000000;letter-spacing:normal;word-spacing:normal;text-transform:none;writing-mode:lr-tb;direction:ltr;text-orientation:mixed;dominant-baseline:auto;baseline-shift:baseline;text-anchor:start;white-space:normal;shape-padding:0;clip-rule:nonzero;display:inline;overflow:visible;visibility:visible;opacity:1;isolation:auto;mix-blend-mode:normal;color-interpolation:sRGB;color-interpolation-filters:linearRGB;solid-color:#000000;solid-opacity:1;vector-effect:none;fill:#000000;fill-opacity:1;fill-rule:nonzero;stroke:none;stroke-width:2.77206px;stroke-linecap:butt;stroke-linejoin:miter;stroke-miterlimit:4;stroke-dasharray:none;stroke-dashoffset:0;stroke-opacity:1;color-rendering:auto;image-rendering:auto;shape-rendering:auto;text-rendering:auto;enable-background:accumulate"
         d="m 8111.125,2635.6816 c -7.7123,-0.025 -15.4206,0.083 -23.1211,0.336 0.038,0.9201 0.081,1.8487 0.1191,2.7695 113.2406,-3.7077 228.6351,23.6537 326.7129,55.0039 24.3466,7.8644 46.6456,21.8185 71.8243,29.1172 0.5442,0.1579 2.309,0.66 3.6992,1.0527 l 0.082,-2.8554 c -1.0393,-0.2906 -2.617,-0.7396 -3.0234,-0.8575 -24.6871,-7.1562 -46.9389,-21.092 -71.7227,-29.0976 -79.9356,-25.5512 -171.4175,-48.4952 -264.0137,-54.1465 v 0 c -13.5036,-0.8242 -27.0349,-1.2807 -40.5566,-1.3243 z"
         transform="matrix(0.0954465,0,0,0.0954465,-940.73103,-119.54252)"
         id="path1053"
         inkscape:connector-curvature="0" />
      <path
         style="color:#000000;font-style:normal;font-variant:normal;font-weight:normal;font-stretch:normal;font-size:medium;line-height:normal;font-family:sans-serif;font-variant-ligatures:normal;font-variant-position:normal;font-variant-caps:normal;font-variant-numeric:normal;font-variant-alternates:normal;font-feature-settings:normal;text-indent:0;text-align:start;text-decoration:none;text-decoration-line:none;text-decoration-style:solid;text-decoration-color:#000000;letter-spacing:normal;word-spacing:normal;text-transform:none;writing-mode:lr-tb;direction:ltr;text-orientation:mixed;dominant-baseline:auto;baseline-shift:baseline;text-anchor:start;white-space:normal;shape-padding:0;clip-rule:nonzero;display:inline;overflow:visible;visibility:visible;opacity:1;isolation:auto;mix-blend-mode:normal;color-interpolation:sRGB;color-interpolation-filters:linearRGB;solid-color:#000000;solid-opacity:1;vector-effect:none;fill:#000000;fill-opacity:1;fill-rule:nonzero;stroke:none;stroke-width:2.77206px;stroke-linecap:butt;stroke-linejoin:miter;stroke-miterlimit:4;stroke-dasharray:none;stroke-dashoffset:0;stroke-opacity:1;color-rendering:auto;image-rendering:auto;shape-rendering:auto;text-rendering:auto;enable-background:accumulate"
         d="m 8096.1348,2708.4609 c -1.5908,0 -3.1721,0.029 -4.7598,0.039 0.047,0.921 0.095,1.8438 0.1426,2.7656 121.7197,-0.7576 252.9487,23.3405 358.289,47.7617 14.2589,3.3523 27.6906,7.4197 40.8711,12.0411 l -0.078,-2.9512 c -12.9414,-4.5079 -26.1521,-8.5001 -40.1582,-11.793 -104.1113,-24.1369 -233.517,-48.001 -354.3066,-47.8633 z"
         transform="matrix(0.0954465,0,0,0.0954465,-940.73103,-119.54252)"
         id="path1055"
         inkscape:connector-curvature="0" />
      <path
         style="color:#000000;font-style:normal;font-variant:normal;font-weight:normal;font-stretch:normal;font-size:medium;line-height:normal;font-family:sans-serif;font-variant-ligatures:normal;font-variant-position:normal;font-variant-caps:normal;font-variant-numeric:normal;font-variant-alternates:normal;font-feature-settings:normal;text-indent:0;text-align:start;text-decoration:none;text-decoration-line:none;text-decoration-style:solid;text-decoration-color:#000000;letter-spacing:normal;word-spacing:normal;text-transform:none;writing-mode:lr-tb;direction:ltr;text-orientation:mixed;dominant-baseline:auto;baseline-shift:baseline;text-anchor:start;white-space:normal;shape-padding:0;clip-rule:nonzero;display:inline;overflow:visible;visibility:visible;opacity:1;isolation:auto;mix-blend-mode:normal;color-interpolation:sRGB;color-interpolation-filters:linearRGB;solid-color:#000000;solid-opacity:1;vector-effect:none;fill:#000000;fill-opacity:1;fill-rule:nonzero;stroke:none;stroke-width:3.07335px;stroke-linecap:butt;stroke-linejoin:miter;stroke-miterlimit:4;stroke-dasharray:none;stroke-dashoffset:0;stroke-opacity:1;color-rendering:auto;image-rendering:auto;shape-rendering:auto;text-rendering:auto;enable-background:accumulate"
         d="m 8111.0195,2767.7969 c -5.3874,-0.01 -10.86,0.5698 -16.3066,1.334 0.06,1.0327 0.1229,2.0715 0.1836,3.1054 8.3682,-1.1816 16.6401,-1.9184 24.3496,-0.8301 l 0.062,0.022 h 0.043 c 126.725,8.1875 248.9129,9.0502 371.9785,24.5938 l -0.082,-3.1113 c -123.137,-15.5162 -245.2324,-16.382 -371.6777,-24.5508 l 0.1055,0.02 c -2.8478,-0.402 -5.7387,-0.5768 -8.6563,-0.582 z m 8.5508,0.5625 h -0.016 v 0 c 0,3e-4 0.01,-3e-4 0.014,0 z"
         transform="matrix(0.0954465,0,0,0.0954465,-940.73103,-119.54252)"
         id="path1057"
         inkscape:connector-curvature="0" />
      <path
         style="color:#000000;font-style:normal;font-variant:normal;font-weight:normal;font-stretch:normal;font-size:medium;line-height:normal;font-family:sans-serif;font-variant-ligatures:normal;font-variant-position:normal;font-variant-caps:normal;font-variant-numeric:normal;font-variant-alternates:normal;font-feature-settings:normal;text-indent:0;text-align:start;text-decoration:none;text-decoration-line:none;text-decoration-style:solid;text-decoration-color:#000000;letter-spacing:normal;word-spacing:normal;text-transform:none;writing-mode:lr-tb;direction:ltr;text-orientation:mixed;dominant-baseline:auto;baseline-shift:baseline;text-anchor:start;white-space:normal;shape-padding:0;clip-rule:nonzero;display:inline;overflow:visible;visibility:visible;opacity:1;isolation:auto;mix-blend-mode:normal;color-interpolation:sRGB;color-interpolation-filters:linearRGB;solid-color:#000000;solid-opacity:1;vector-effect:none;fill:#000000;fill-opacity:1;fill-rule:nonzero;stroke:none;stroke-width:3.07335px;stroke-linecap:butt;stroke-linejoin:miter;stroke-miterlimit:4;stroke-dasharray:none;stroke-dashoffset:0;stroke-opacity:1;color-rendering:auto;image-rendering:auto;shape-rendering:auto;text-rendering:auto;enable-background:accumulate"
         d="m 8119.9414,2831.6992 c -7.0319,0 -14.2077,0.9719 -21.2773,2.084 0.066,1.0319 0.1332,2.0723 0.1992,3.1055 10.0783,-1.5765 20.1467,-2.8836 29.4082,-1.5762 h 0.062 0.062 c 124.1919,8.0238 244.0086,9.0373 364.5801,23.7051 l -0.082,-3.1094 c -120.6021,-14.6371 -240.31,-15.6454 -364.1894,-23.6445 h -0.127 c -2.8415,-0.3946 -5.7263,-0.5633 -8.6367,-0.5645 z"
         transform="matrix(0.0954465,0,0,0.0954465,-940.73103,-119.54252)"
         id="path1057-2"
         inkscape:connector-curvature="0" />
    </g>
  </g>
</svg>
