<?xml version="1.0" encoding="UTF-8"?>
<svg xmlns="http://www.w3.org/2000/svg" xmlns:xlink="http://www.w3.org/1999/xlink" width="54pt" height="252pt" viewBox="0 0 54 252" version="1.1">
<defs>
<g>
<symbol overflow="visible" id="glyph0-0">
<path style="stroke:none;" d="M 1.125 3.984375 L 1.125 -15.921875 L 12.40625 -15.921875 L 12.40625 3.984375 Z M 2.390625 2.734375 L 11.15625 2.734375 L 11.15625 -14.65625 L 2.390625 -14.65625 Z M 2.390625 2.734375 "/>
</symbol>
<symbol overflow="visible" id="glyph0-1">
<path style="stroke:none;" d="M 2.390625 -16.453125 L 12.9375 -16.453125 L 12.9375 -13.34375 L 5.78125 -13.34375 L 5.78125 -10.796875 C 6.101562 -10.878906 6.425781 -10.941406 6.75 -10.984375 C 7.082031 -11.035156 7.421875 -11.0625 7.765625 -11.0625 C 9.773438 -11.0625 11.335938 -10.5625 12.453125 -9.5625 C 13.578125 -8.5625 14.140625 -7.164062 14.140625 -5.375 C 14.140625 -3.59375 13.53125 -2.195312 12.3125 -1.1875 C 11.09375 -0.1875 9.40625 0.3125 7.25 0.3125 C 6.3125 0.3125 5.382812 0.222656 4.46875 0.046875 C 3.550781 -0.128906 2.640625 -0.398438 1.734375 -0.765625 L 1.734375 -4.109375 C 2.640625 -3.597656 3.492188 -3.210938 4.296875 -2.953125 C 5.097656 -2.691406 5.859375 -2.5625 6.578125 -2.5625 C 7.597656 -2.5625 8.40625 -2.8125 9 -3.3125 C 9.59375 -3.820312 9.890625 -4.507812 9.890625 -5.375 C 9.890625 -6.238281 9.59375 -6.921875 9 -7.421875 C 8.40625 -7.921875 7.597656 -8.171875 6.578125 -8.171875 C 5.960938 -8.171875 5.304688 -8.085938 4.609375 -7.921875 C 3.921875 -7.765625 3.179688 -7.523438 2.390625 -7.203125 Z M 2.390625 -16.453125 "/>
</symbol>
<symbol overflow="visible" id="glyph0-2">
<path style="stroke:none;" d="M 10.515625 -8.875 C 11.628906 -8.582031 12.472656 -8.082031 13.046875 -7.375 C 13.617188 -6.664062 13.90625 -5.765625 13.90625 -4.671875 C 13.90625 -3.046875 13.28125 -1.804688 12.03125 -0.953125 C 10.789062 -0.109375 8.972656 0.3125 6.578125 0.3125 C 5.722656 0.3125 4.867188 0.242188 4.015625 0.109375 C 3.171875 -0.0234375 2.335938 -0.226562 1.515625 -0.5 L 1.515625 -3.765625 C 2.304688 -3.367188 3.09375 -3.066406 3.875 -2.859375 C 4.65625 -2.660156 5.425781 -2.5625 6.1875 -2.5625 C 7.3125 -2.5625 8.171875 -2.753906 8.765625 -3.140625 C 9.367188 -3.535156 9.671875 -4.097656 9.671875 -4.828125 C 9.671875 -5.578125 9.363281 -6.144531 8.75 -6.53125 C 8.132812 -6.914062 7.226562 -7.109375 6.03125 -7.109375 L 4.328125 -7.109375 L 4.328125 -9.84375 L 6.125 -9.84375 C 7.1875 -9.84375 7.976562 -10.007812 8.5 -10.34375 C 9.019531 -10.675781 9.28125 -11.1875 9.28125 -11.875 C 9.28125 -12.507812 9.023438 -13 8.515625 -13.34375 C 8.015625 -13.6875 7.300781 -13.859375 6.375 -13.859375 C 5.6875 -13.859375 4.992188 -13.78125 4.296875 -13.625 C 3.597656 -13.46875 2.90625 -13.238281 2.21875 -12.9375 L 2.21875 -16.046875 C 3.050781 -16.285156 3.878906 -16.460938 4.703125 -16.578125 C 5.523438 -16.691406 6.335938 -16.75 7.140625 -16.75 C 9.273438 -16.75 10.875 -16.398438 11.9375 -15.703125 C 13 -15.003906 13.53125 -13.945312 13.53125 -12.53125 C 13.53125 -11.570312 13.273438 -10.785156 12.765625 -10.171875 C 12.253906 -9.554688 11.503906 -9.125 10.515625 -8.875 Z M 10.515625 -8.875 "/>
</symbol>
<symbol overflow="visible" id="glyph0-3">
<path style="stroke:none;" d="M 8.171875 -8.125 C 7.429688 -8.125 6.875 -7.882812 6.5 -7.40625 C 6.125 -6.925781 5.9375 -6.203125 5.9375 -5.234375 C 5.9375 -4.273438 6.125 -3.550781 6.5 -3.0625 C 6.875 -2.582031 7.429688 -2.34375 8.171875 -2.34375 C 8.921875 -2.34375 9.476562 -2.582031 9.84375 -3.0625 C 10.21875 -3.550781 10.40625 -4.273438 10.40625 -5.234375 C 10.40625 -6.203125 10.21875 -6.925781 9.84375 -7.40625 C 9.476562 -7.882812 8.921875 -8.125 8.171875 -8.125 Z M 13.421875 -16.03125 L 13.421875 -12.984375 C 12.722656 -13.316406 12.0625 -13.5625 11.4375 -13.71875 C 10.820312 -13.875 10.222656 -13.953125 9.640625 -13.953125 C 8.367188 -13.953125 7.378906 -13.597656 6.671875 -12.890625 C 5.972656 -12.191406 5.566406 -11.15625 5.453125 -9.78125 C 5.929688 -10.132812 6.453125 -10.398438 7.015625 -10.578125 C 7.585938 -10.765625 8.207031 -10.859375 8.875 -10.859375 C 10.5625 -10.859375 11.921875 -10.363281 12.953125 -9.375 C 13.984375 -8.394531 14.5 -7.109375 14.5 -5.515625 C 14.5 -3.742188 13.921875 -2.328125 12.765625 -1.265625 C 11.609375 -0.210938 10.0625 0.3125 8.125 0.3125 C 5.988281 0.3125 4.332031 -0.40625 3.15625 -1.84375 C 1.988281 -3.289062 1.40625 -5.34375 1.40625 -8 C 1.40625 -10.71875 2.085938 -12.851562 3.453125 -14.40625 C 4.828125 -15.957031 6.707031 -16.734375 9.09375 -16.734375 C 9.851562 -16.734375 10.585938 -16.671875 11.296875 -16.546875 C 12.015625 -16.429688 12.722656 -16.257812 13.421875 -16.03125 Z M 13.421875 -16.03125 "/>
</symbol>
<symbol overflow="visible" id="glyph0-4">
<path style="stroke:none;" d="M 8.3125 -12.96875 L 3.65625 -6.078125 L 8.3125 -6.078125 Z M 7.609375 -16.453125 L 12.328125 -16.453125 L 12.328125 -6.078125 L 14.671875 -6.078125 L 14.671875 -3 L 12.328125 -3 L 12.328125 0 L 8.3125 0 L 8.3125 -3 L 1.015625 -3 L 1.015625 -6.640625 Z M 7.609375 -16.453125 "/>
</symbol>
<symbol overflow="visible" id="glyph0-5">
<path style="stroke:none;" d="M 1.515625 -16.453125 L 13.90625 -16.453125 L 13.90625 -14.0625 L 7.5 0 L 3.359375 0 L 9.4375 -13.34375 L 1.515625 -13.34375 Z M 1.515625 -16.453125 "/>
</symbol>
</g>
</defs>
<g id="surface475375">
<rect x="0" y="0" width="54" height="252" style="fill:rgb(100%,100%,100%);fill-opacity:1;stroke:none;"/>
<path style="fill-rule:evenodd;fill:rgb(70.588237%,89.019608%,93.333334%);fill-opacity:1;stroke-width:0.1;stroke-linecap:butt;stroke-linejoin:miter;stroke:rgb(0%,0%,0%);stroke-opacity:1;stroke-miterlimit:10;" d="M 8 13 L 8.5 12.5 L 10.45 12.5 L 10.45 14.45 L 9.95 14.95 L 8 14.95 Z M 8 13 " transform="matrix(20,0,0,20,-158,-48)"/>
<path style="fill:none;stroke-width:0.1;stroke-linecap:butt;stroke-linejoin:miter;stroke:rgb(0%,0%,0%);stroke-opacity:1;stroke-miterlimit:10;" d="M 8 13 L 9.95 13 " transform="matrix(20,0,0,20,-158,-48)"/>
<path style="fill:none;stroke-width:0.1;stroke-linecap:butt;stroke-linejoin:miter;stroke:rgb(0%,0%,0%);stroke-opacity:1;stroke-miterlimit:10;" d="M 9.95 13 L 10.45 12.5 " transform="matrix(20,0,0,20,-158,-48)"/>
<path style="fill:none;stroke-width:0.1;stroke-linecap:butt;stroke-linejoin:miter;stroke:rgb(0%,0%,0%);stroke-opacity:1;stroke-miterlimit:10;" d="M 9.95 13 L 9.95 14.95 " transform="matrix(20,0,0,20,-158,-48)"/>
<path style="fill:none;stroke-width:0.05;stroke-linecap:butt;stroke-linejoin:miter;stroke:rgb(0%,0%,0%);stroke-opacity:1;stroke-miterlimit:10;" d="M 8.5 14.247461 L 8.5 14.247461 " transform="matrix(20,0,0,20,-158,-48)"/>
<path style="fill-rule:evenodd;fill:rgb(98.431373%,72.156864%,73.333335%);fill-opacity:1;stroke-width:0.1;stroke-linecap:butt;stroke-linejoin:miter;stroke:rgb(0%,0%,0%);stroke-opacity:1;stroke-miterlimit:10;" d="M 8 11 L 8.5 10.5 L 10.45 10.5 L 10.45 12.45 L 9.95 12.95 L 8 12.95 Z M 8 11 " transform="matrix(20,0,0,20,-158,-48)"/>
<path style="fill:none;stroke-width:0.1;stroke-linecap:butt;stroke-linejoin:miter;stroke:rgb(0%,0%,0%);stroke-opacity:1;stroke-miterlimit:10;" d="M 8 11 L 9.95 11 " transform="matrix(20,0,0,20,-158,-48)"/>
<path style="fill:none;stroke-width:0.1;stroke-linecap:butt;stroke-linejoin:miter;stroke:rgb(0%,0%,0%);stroke-opacity:1;stroke-miterlimit:10;" d="M 9.95 11 L 10.45 10.5 " transform="matrix(20,0,0,20,-158,-48)"/>
<path style="fill:none;stroke-width:0.1;stroke-linecap:butt;stroke-linejoin:miter;stroke:rgb(0%,0%,0%);stroke-opacity:1;stroke-miterlimit:10;" d="M 9.95 11 L 9.95 12.95 " transform="matrix(20,0,0,20,-158,-48)"/>
<path style="fill:none;stroke-width:0.05;stroke-linecap:butt;stroke-linejoin:miter;stroke:rgb(0%,0%,0%);stroke-opacity:1;stroke-miterlimit:10;" d="M 8.5 12.247461 L 8.5 12.247461 " transform="matrix(20,0,0,20,-158,-48)"/>
<path style="fill-rule:evenodd;fill:rgb(72.156864%,98.431373%,76.862746%);fill-opacity:1;stroke-width:0.1;stroke-linecap:butt;stroke-linejoin:miter;stroke:rgb(0%,0%,0%);stroke-opacity:1;stroke-miterlimit:10;" d="M 8 9 L 8.5 8.5 L 10.5 8.5 L 10.5 10.45 L 10 10.95 L 8 10.95 Z M 8 9 " transform="matrix(20,0,0,20,-158,-48)"/>
<path style="fill:none;stroke-width:0.1;stroke-linecap:butt;stroke-linejoin:miter;stroke:rgb(0%,0%,0%);stroke-opacity:1;stroke-miterlimit:10;" d="M 8 9 L 10 9 " transform="matrix(20,0,0,20,-158,-48)"/>
<path style="fill:none;stroke-width:0.1;stroke-linecap:butt;stroke-linejoin:miter;stroke:rgb(0%,0%,0%);stroke-opacity:1;stroke-miterlimit:10;" d="M 10 9 L 10.5 8.5 " transform="matrix(20,0,0,20,-158,-48)"/>
<path style="fill:none;stroke-width:0.1;stroke-linecap:butt;stroke-linejoin:miter;stroke:rgb(0%,0%,0%);stroke-opacity:1;stroke-miterlimit:10;" d="M 10 9 L 10 10.95 " transform="matrix(20,0,0,20,-158,-48)"/>
<path style="fill:none;stroke-width:0.05;stroke-linecap:butt;stroke-linejoin:miter;stroke:rgb(0%,0%,0%);stroke-opacity:1;stroke-miterlimit:10;" d="M 8.5 10.247461 L 8.5 10.247461 " transform="matrix(20,0,0,20,-158,-48)"/>
<path style="fill-rule:evenodd;fill:rgb(100%,85.09804%,64.313728%);fill-opacity:1;stroke-width:0.1;stroke-linecap:butt;stroke-linejoin:miter;stroke:rgb(0%,0%,0%);stroke-opacity:1;stroke-miterlimit:10;" d="M 8 7 L 8.5 6.5 L 10.5 6.5 L 10.5 8.45 L 10 8.95 L 8 8.95 Z M 8 7 " transform="matrix(20,0,0,20,-158,-48)"/>
<path style="fill:none;stroke-width:0.1;stroke-linecap:butt;stroke-linejoin:miter;stroke:rgb(0%,0%,0%);stroke-opacity:1;stroke-miterlimit:10;" d="M 8 7 L 10 7 " transform="matrix(20,0,0,20,-158,-48)"/>
<path style="fill:none;stroke-width:0.1;stroke-linecap:butt;stroke-linejoin:miter;stroke:rgb(0%,0%,0%);stroke-opacity:1;stroke-miterlimit:10;" d="M 10 7 L 10.5 6.5 " transform="matrix(20,0,0,20,-158,-48)"/>
<path style="fill:none;stroke-width:0.1;stroke-linecap:butt;stroke-linejoin:miter;stroke:rgb(0%,0%,0%);stroke-opacity:1;stroke-miterlimit:10;" d="M 10 7 L 10 8.95 " transform="matrix(20,0,0,20,-158,-48)"/>
<path style="fill:none;stroke-width:0.05;stroke-linecap:butt;stroke-linejoin:miter;stroke:rgb(0%,0%,0%);stroke-opacity:1;stroke-miterlimit:10;" d="M 8.5 8.247461 L 8.5 8.247461 " transform="matrix(20,0,0,20,-158,-48)"/>
<path style="fill-rule:evenodd;fill:rgb(99.607843%,100%,76.078433%);fill-opacity:1;stroke-width:0.1;stroke-linecap:butt;stroke-linejoin:miter;stroke:rgb(0%,0%,0%);stroke-opacity:1;stroke-miterlimit:10;" d="M 8 5 L 8.5 4.5 L 10.5 4.5 L 10.5 6.45 L 10 6.95 L 8 6.95 Z M 8 5 " transform="matrix(20,0,0,20,-158,-48)"/>
<path style="fill:none;stroke-width:0.1;stroke-linecap:butt;stroke-linejoin:miter;stroke:rgb(0%,0%,0%);stroke-opacity:1;stroke-miterlimit:10;" d="M 8 5 L 10 5 " transform="matrix(20,0,0,20,-158,-48)"/>
<path style="fill:none;stroke-width:0.1;stroke-linecap:butt;stroke-linejoin:miter;stroke:rgb(0%,0%,0%);stroke-opacity:1;stroke-miterlimit:10;" d="M 10 5 L 10.5 4.5 " transform="matrix(20,0,0,20,-158,-48)"/>
<path style="fill:none;stroke-width:0.1;stroke-linecap:butt;stroke-linejoin:miter;stroke:rgb(0%,0%,0%);stroke-opacity:1;stroke-miterlimit:10;" d="M 10 5 L 10 6.95 " transform="matrix(20,0,0,20,-158,-48)"/>
<path style="fill:none;stroke-width:0.05;stroke-linecap:butt;stroke-linejoin:miter;stroke:rgb(0%,0%,0%);stroke-opacity:1;stroke-miterlimit:10;" d="M 8.5 6.247461 L 8.5 6.247461 " transform="matrix(20,0,0,20,-158,-48)"/>
<path style=" stroke:none;fill-rule:evenodd;fill:rgb(100%,100%,100%);fill-opacity:1;" d="M 14.078125 99 L 29.777344 99 L 29.777344 125.351562 L 14.078125 125.351562 Z M 14.078125 99 "/>
<g style="fill:rgb(0%,0%,0%);fill-opacity:1;">
  <use xlink:href="#glyph0-1" x="14.078125" y="119.999457"/>
</g>
<path style=" stroke:none;fill-rule:evenodd;fill:rgb(100%,100%,100%);fill-opacity:1;" d="M 13.75 219.5 L 29.449219 219.5 L 29.449219 245.851562 L 13.75 245.851562 Z M 13.75 219.5 "/>
<g style="fill:rgb(0%,0%,0%);fill-opacity:1;">
  <use xlink:href="#glyph0-1" x="13.75" y="240.518989"/>
</g>
<path style=" stroke:none;fill-rule:evenodd;fill:rgb(100%,100%,100%);fill-opacity:1;" d="M 13.75 137.5 L 29.449219 137.5 L 29.449219 163.851562 L 13.75 163.851562 Z M 13.75 137.5 "/>
<g style="fill:rgb(0%,0%,0%);fill-opacity:1;">
  <use xlink:href="#glyph0-2" x="13.75" y="158.518989"/>
</g>
<path style=" stroke:none;fill-rule:evenodd;fill:rgb(100%,100%,100%);fill-opacity:1;" d="M 13.75 178.5 L 29.449219 178.5 L 29.449219 204.851562 L 13.75 204.851562 Z M 13.75 178.5 "/>
<g style="fill:rgb(0%,0%,0%);fill-opacity:1;">
  <use xlink:href="#glyph0-3" x="13.75" y="199.518989"/>
</g>
<path style="fill-rule:evenodd;fill:rgb(100%,85.09804%,96.862745%);fill-opacity:1;stroke-width:0.1;stroke-linecap:butt;stroke-linejoin:miter;stroke:rgb(0%,0%,0%);stroke-opacity:1;stroke-miterlimit:10;" d="M 8 3 L 8.5 2.5 L 10.45 2.5 L 10.45 4.45 L 9.95 4.95 L 8 4.95 Z M 8 3 " transform="matrix(20,0,0,20,-158,-48)"/>
<path style="fill:none;stroke-width:0.1;stroke-linecap:butt;stroke-linejoin:miter;stroke:rgb(0%,0%,0%);stroke-opacity:1;stroke-miterlimit:10;" d="M 8 3 L 9.95 3 " transform="matrix(20,0,0,20,-158,-48)"/>
<path style="fill:none;stroke-width:0.1;stroke-linecap:butt;stroke-linejoin:miter;stroke:rgb(0%,0%,0%);stroke-opacity:1;stroke-miterlimit:10;" d="M 9.95 3 L 10.45 2.5 " transform="matrix(20,0,0,20,-158,-48)"/>
<path style="fill:none;stroke-width:0.1;stroke-linecap:butt;stroke-linejoin:miter;stroke:rgb(0%,0%,0%);stroke-opacity:1;stroke-miterlimit:10;" d="M 9.95 3 L 9.95 4.95 " transform="matrix(20,0,0,20,-158,-48)"/>
<path style="fill:none;stroke-width:0.05;stroke-linecap:butt;stroke-linejoin:miter;stroke:rgb(0%,0%,0%);stroke-opacity:1;stroke-miterlimit:10;" d="M 8.5 4.247461 L 8.5 4.247461 " transform="matrix(20,0,0,20,-158,-48)"/>
<path style=" stroke:none;fill-rule:evenodd;fill:rgb(100%,100%,100%);fill-opacity:1;" d="M 13.75 60.5 L 29.449219 60.5 L 29.449219 86.851562 L 13.75 86.851562 Z M 13.75 60.5 "/>
<g style="fill:rgb(0%,0%,0%);fill-opacity:1;">
  <use xlink:href="#glyph0-4" x="13.75" y="81.518989"/>
</g>
<path style=" stroke:none;fill-rule:evenodd;fill:rgb(100%,100%,100%);fill-opacity:1;" d="M 13.75 19 L 29.449219 19 L 29.449219 45.351562 L 13.75 45.351562 Z M 13.75 19 "/>
<g style="fill:rgb(0%,0%,0%);fill-opacity:1;">
  <use xlink:href="#glyph0-5" x="13.75" y="40.018989"/>
</g>
</g>
</svg>
