<?xml version="1.0" encoding="UTF-8" standalone="no"?>
<svg
   xmlns:dc="http://purl.org/dc/elements/1.1/"
   xmlns:cc="http://creativecommons.org/ns#"
   xmlns:rdf="http://www.w3.org/1999/02/22-rdf-syntax-ns#"
   xmlns:svg="http://www.w3.org/2000/svg"
   xmlns="http://www.w3.org/2000/svg"
   xmlns:sodipodi="http://sodipodi.sourceforge.net/DTD/sodipodi-0.dtd"
   xmlns:inkscape="http://www.inkscape.org/namespaces/inkscape"
   sodipodi:docname="b05-selgitus.svg"
   inkscape:version="1.0 (4035a4fb49, 2020-05-01)"
   id="svg1605"
   version="1.1"
   viewBox="0 0 121.79776 91.16631"
   height="91.166313mm"
   width="121.79776mm">
  <defs
     id="defs1599" />
  <sodipodi:namedview
     inkscape:document-rotation="0"
     fit-margin-bottom="0"
     fit-margin-right="0"
     fit-margin-left="0"
     fit-margin-top="0"
     inkscape:snap-global="false"
     inkscape:window-maximized="1"
     inkscape:window-y="-8"
     inkscape:window-x="-8"
     inkscape:window-height="1001"
     inkscape:window-width="1216"
     showgrid="false"
     inkscape:current-layer="layer1"
     inkscape:document-units="mm"
     inkscape:cy="132.85693"
     inkscape:cx="-54.062168"
     inkscape:zoom="0.70710678"
     inkscape:pageshadow="2"
     inkscape:pageopacity="0.0"
     borderopacity="1.0"
     bordercolor="#666666"
     pagecolor="#ffffff"
     id="base" />
  <metadata
     id="metadata1602">
    <rdf:RDF>
      <cc:Work
         rdf:about="">
        <dc:format>image/svg+xml</dc:format>
        <dc:type
           rdf:resource="http://purl.org/dc/dcmitype/StillImage" />
        <dc:title />
      </cc:Work>
    </rdf:RDF>
  </metadata>
  <g
     transform="translate(-44.952118,-113.70723)"
     id="layer1"
     inkscape:groupmode="layer"
     inkscape:label="Ebene 1">
    <path
       sodipodi:nodetypes="sccss"
       inkscape:connector-curvature="0"
       id="path2268"
       d="m 48.622191,113.9375 c -1.312135,0.003 -3.524146,1.19143 -3.48709,2.58853 l 121.582049,-0.13158 c 0.001,-1.39759 -1.418,-2.68984 -2.73013,-2.68722 z"
       style="opacity:1;vector-effect:none;fill:#755541;fill-opacity:1;stroke:none;stroke-width:1.32845;stroke-linecap:round;stroke-linejoin:round;stroke-miterlimit:4;stroke-dasharray:none;stroke-dashoffset:0;stroke-opacity:1;paint-order:markers fill stroke" />
    <path
       sodipodi:nodetypes="cccssc"
       inkscape:connector-curvature="0"
       id="path2268-0"
       d="m 165.76557,114.48568 c -7.90346,8.24203 -9.96408,6.07649 -16.40418,14.6633 l 14.02277,75.62209 c 1.31201,0.0182 3.36571,-2.31228 3.36571,-3.70986 l 1e-5,-84.33795 c 0,-0.86152 -0.36908,-1.78285 -0.98431,-2.23758 z"
       style="opacity:1;vector-effect:none;fill:#5b4232;fill-opacity:1;stroke:none;stroke-width:1.32845;stroke-linecap:round;stroke-linejoin:round;stroke-miterlimit:4;stroke-dasharray:none;stroke-dashoffset:0;stroke-opacity:1;paint-order:markers fill stroke" />
    <path
       sodipodi:nodetypes="sssssssss"
       inkscape:connector-curvature="0"
       id="path2220"
       d="m 51.054608,116.99953 c -1.228384,0 -2.21745,1.05333 -2.21745,2.36171 v 80.67964 c 0,1.30838 0.989066,2.36172 2.21745,2.36172 H 159.45603 c 1.22838,0 2.21712,-1.05334 2.21712,-2.36172 v -80.67964 c 0,-1.30838 -0.98874,-2.36171 -2.21712,-2.36171 z"
       style="opacity:1;vector-effect:none;fill:#1a1a1a;fill-opacity:1;stroke:none;stroke-width:1.24365;stroke-linecap:round;stroke-linejoin:round;stroke-miterlimit:4;stroke-dasharray:none;stroke-dashoffset:0;stroke-opacity:1;paint-order:markers fill stroke" />
    <path
       inkscape:connector-curvature="0"
       id="rect2150-1-3"
       d="m 157.94482,144.28085 c -0.47952,0.0121 -0.78836,0.088 -1.0248,0.15374 -0.94577,0.26278 -1.1926,0.49734 -1.60755,0.74843 -0.82991,0.5022 -1.81925,1.13929 -1.89549,1.17527 -1.76912,0.83492 -3.47148,1.64958 -5.19488,2.49055 -0.53491,0.2 -1.11229,0.40879 -1.48203,0.57227 -18.0058,7.96132 -36.24241,15.73587 -52.522478,25.48712 -4.57253,2.17024 -9.165055,4.31424 -13.839257,6.36726 l 1.121016,1.04722 c -1.594448,0.97027 -3.208057,1.95502 -4.37193,2.76583 -0.732445,0.51026 -1.331922,0.95518 -1.802886,1.40281 -0.235471,0.22382 -0.449428,0.43555 -0.629419,0.77773 -0.09002,0.17109 -0.19238,0.44959 -0.156631,0.76579 0.03572,0.3162 0.209397,0.6704 0.675358,0.99225 0.764623,0.52812 1.815474,0.71673 2.649348,0.74589 0.341694,0.0121 0.630008,-0.0538 0.945937,-0.076 -0.163058,0.18265 -0.34982,0.33276 -0.470979,0.58855 -0.108584,0.22919 -0.223664,0.52289 -0.09803,0.94594 0.125608,0.42304 0.689167,0.95144 1.339506,1.1778 0.935004,0.32546 1.86683,0.39677 2.768357,0.34655 -0.707183,0.46195 -1.617298,1.06051 -2.512249,1.66868 -0.904235,0.61447 -1.783402,1.22841 -2.447861,1.73742 -0.332216,0.2545 -0.601909,0.46844 -0.85876,0.726 -0.128316,0.12877 -0.267848,0.23697 -0.418526,0.56575 -0.07544,0.16439 -0.206219,0.40858 -0.03473,0.85008 0.171517,0.44152 1.006688,0.98925 1.684238,1.11306 1.261328,0.23046 2.232272,0.0561 3.190864,-0.14469 0.958594,-0.20083 1.922821,-0.49413 2.946694,-0.85117 2.047733,-0.71408 4.315239,-1.69 6.544872,-2.71736 1.405519,-0.64764 1.835686,-0.90083 3.130817,-1.53701 -0.598407,0.36845 -1.183637,0.76361 -1.792037,1.12247 -0.861356,0.50803 -1.64833,1.14285 -2.354895,1.65313 -0.07699,0.003 -0.06453,-0.0167 -0.151928,-0.0105 -0.429067,0.0307 -1.101108,0.15163 -1.644085,0.50281 -0.542964,0.35119 -0.749969,0.83005 -0.772667,1.14634 -0.02411,0.33618 -0.148163,0.94833 0.998751,1.52471 0.573449,0.28819 1.366308,0.37298 1.871617,0.33822 0.505307,-0.0348 0.811762,-0.12897 1.05301,-0.20944 0.05184,-0.0173 0.04763,-0.0335 0.09586,-0.0507 0.30115,0.0111 0.505185,0.0564 0.966918,0.001 3.398135,-0.40578 6.106652,-1.89927 7.87895,-2.59437 0.928515,-0.36415 1.821815,-0.7645 2.743045,-1.1362 -0.42996,0.32168 -0.82597,0.62373 -1.13405,0.91338 -0.17826,0.1676 -0.34069,0.32477 -0.50389,0.57371 -0.1632,0.24894 -0.66518,0.72762 0.12516,1.55763 0.73658,0.77352 2.02845,0.87029 2.69999,0.85369 0.67154,-0.0166 1.17699,-0.10867 1.70848,-0.21812 1.063,-0.2189 2.16544,-0.54638 3.25633,-0.89711 2.18176,-0.70143 4.30529,-1.52295 4.47177,-1.58657 3.09351,-1.18223 6.14473,-2.45032 9.15624,-3.77216 -0.53122,0.40894 -1.14409,0.83359 -1.67592,1.22917 0.17164,-0.12766 -0.31062,0.20388 -0.74698,0.50498 -0.43637,0.30109 -0.98264,0.69099 -1.51604,1.12463 -0.53342,0.43364 -1.05591,0.89706 -1.45996,1.44767 -0.40406,0.55061 -0.94582,1.38961 -0.0384,2.34259 0.3795,0.39854 1.09169,0.67723 1.63794,0.76543 0.54623,0.0882 0.95073,0.0627 1.28271,0.0293 0.66397,-0.0667 1.11683,-0.19513 1.59489,-0.33822 0.95613,-0.28618 1.92553,-0.67569 2.88773,-1.08593 0.25407,-0.10831 0.44235,-0.20186 0.68838,-0.31073 -0.0931,0.15855 -0.19195,0.31983 -0.21161,0.58602 -0.024,0.32296 0.12375,0.84203 0.68693,1.23098 0.65753,0.45417 1.58616,0.54991 2.11507,0.5332 0.52892,-0.0167 0.86215,-0.0933 1.17094,-0.16966 0.61759,-0.1526 1.12624,-0.34593 1.71028,-0.58529 1.16805,-0.47869 2.54855,-1.14805 4.09846,-1.93636 0.51685,-0.26288 1.11027,-0.596 1.65602,-0.88083 -0.0603,0.13211 -0.11516,0.28515 -0.0539,0.62544 0.0727,0.40614 0.80409,1.08808 1.56848,1.26173 0.5086,0.11555 0.69759,0.0533 0.95173,0.0264 -1.01598,0.61065 -2.07785,1.2296 -2.61824,1.65205 l 3.71429,1.92154 c 0.12304,-0.0962 1.5351,-1.00291 3.22343,-2.01125 1.68834,-1.00834 3.78752,-2.23922 5.82936,-3.44191 2.04183,-1.2027 4.02382,-2.37534 5.50452,-3.29142 0.74035,-0.45804 1.34993,-0.84799 1.81627,-1.17239 0.23317,-0.16221 0.42614,-0.29998 0.62653,-0.47496 0.10019,-0.0875 0.20515,-0.17722 0.34003,-0.35775 0.1349,-0.18053 0.63108,-0.51466 0.0477,-1.34747 -0.49965,-0.71336 -1.84103,-1.2622 -2.92933,-1.32937 -1.06455,-0.0657 -1.90552,0.10531 -2.72495,0.31109 0.094,-0.12364 0.2329,-0.20926 0.31471,-0.37512 0.12328,-0.24993 0.45278,-0.70323 -0.23332,-1.41366 -0.34306,-0.35522 -1.00541,-0.62119 -1.50916,-0.7014 -0.50375,-0.0802 -0.85358,-0.0506 -1.11378,-0.0214 -0.1162,0.0132 -0.0985,0.041 -0.19607,0.0557 0.0318,-0.0186 0.0786,-0.0464 0.11034,-0.0648 2.54658,-1.47462 4.60522,-2.61965 4.8892,-2.76329 -0.1485,0.0751 -0.0134,0.006 0.0253,-0.0127 0.0382,-0.0186 0.094,-0.0454 0.1635,-0.0792 0.13921,-0.0676 0.33535,-0.16238 0.56902,-0.27601 0.46735,-0.22723 1.08398,-0.52908 1.69979,-0.83162 0.6158,-0.30254 1.22874,-0.60494 1.69907,-0.84357 0.23515,-0.11933 0.43057,-0.22109 0.59759,-0.31146 0.0834,-0.0452 0.15397,-0.0823 0.2608,-0.14795 0.0534,-0.0328 0.10884,-0.0624 0.24346,-0.16893 0.0673,-0.0533 0.15883,-0.10956 0.31253,-0.31615 0.0384,-0.0517 0.0817,-0.11475 0.12336,-0.19896 0.0418,-0.0842 0.10259,-0.33248 0.10273,-0.33279 3e-5,-3.2e-4 -0.074,-0.53621 -0.0742,-0.53646 -1.1e-4,-3.2e-4 -0.54524,-0.62815 -0.5455,-0.62833 -0.94307,-0.65138 -1.89005,-0.50418 -2.23515,-0.46266 -0.34512,0.0415 -0.48519,0.088 -0.61279,0.12407 -0.25519,0.0721 -0.39598,0.12788 -0.55743,0.191 -0.32292,0.12624 -0.66676,0.27787 -1.09244,0.47134 -0.85136,0.38696 -1.99136,0.93307 -3.35183,1.59815 -2.72097,1.33014 -6.30684,3.12933 -9.94736,4.96988 -3.6405,1.84054 -7.33335,3.72138 -10.25157,5.20319 -1.43377,0.72805 -1.74154,0.8747 -2.71446,1.36338 1.18668,-0.89794 2.37359,-1.86705 3.62387,-2.66273 1.90634,-1.21318 8.18897,-4.23036 14.02338,-7.17321 2.9172,-1.47143 5.76133,-2.95188 8.04787,-4.29343 2.28658,-1.34153 4.03333,-2.35332 4.88198,-3.76566 0.0657,-0.10921 0.14246,-0.24198 0.17689,-0.47242 0.0343,-0.23044 0.0308,-0.62669 -0.4178,-1.04325 -0.4487,-0.41656 -1.27796,-0.63239 -1.77142,-0.6627 -0.49345,-0.0303 -0.76897,0.0222 -0.97487,0.0601 -0.82364,0.15145 -0.93438,0.27169 -1.21326,0.39285 -0.55778,0.2423 -1.13907,0.53567 -1.25703,0.58782 -4.2748,1.8901 -2.55398,1.08569 -7.60223,3.58804 -10.79953,5.35318 -21.93544,11.08703 -33.40876,15.60091 1.61,-1.0082 3.66492,-2.3031 3.85393,-2.41458 10.87868,-6.41646 23.99968,-11.49604 36.18652,-17.37919 1.05717,-0.51034 3.97373,-1.4742 6.72972,-2.5383 1.90141,-0.73415 3.85581,-1.46879 5.27735,-2.50573 v -3.96426 c -0.17925,-0.0396 -0.35003,-0.0662 -0.49666,-0.0767 -0.53348,-0.0381 -0.86463,0.0157 -1.13512,0.0626 -1.08196,0.18741 -1.59282,0.45478 -2.32885,0.7629 -1.47209,0.61624 -3.2393,1.46189 -3.89589,1.71282 -5.59905,2.13974 -10.3229,4.8973 -15.17262,7.15113 -12.75429,5.92735 -25.35322,12.06198 -38.45387,17.49459 2.59914,-1.64723 5.20332,-3.24455 8.01785,-4.6841 17.07304,-8.73229 36.46051,-16.44704 53.46516,-25.74938 v -4.49782 c -0.30199,0.13082 -0.61289,0.26546 -0.87974,0.38742 -0.17789,0.0813 -0.33519,0.15525 -0.48653,0.23079 -0.0758,0.0378 -0.14859,0.0736 -0.24453,0.12805 -0.0269,0.0153 -0.12752,0.11288 -0.15736,0.12263 -0.89833,0.40578 -0.95881,0.44509 -2.7387,1.23207 -1.47134,0.65055 -2.90393,1.31025 -4.3618,1.96675 -0.14497,-0.25067 -0.2216,-0.51995 -0.53898,-0.69055 -1.0029,-0.53906 -1.66488,-0.37679 -1.98954,-0.34654 -0.32466,0.0302 -0.49944,0.0707 -0.66813,0.10925 -1.34934,0.30855 -2.63031,0.8451 -4.4913,1.56594 -3.72195,1.44168 -8.64356,3.48967 -8.93883,3.60759 -6.64249,2.65272 -13.19101,5.39043 -19.72433,8.14084 4.59154,-2.09135 9.20172,-4.19389 13.71771,-6.24246 0.0351,-0.0159 0.52124,-0.23058 0.59651,-0.26443 1.51511,-0.5432 3.02969,-1.0816 4.70617,-1.70992 2.39124,-0.89621 4.71672,-1.80378 6.42911,-2.56904 0.85619,-0.38263 1.54216,-0.70736 2.13605,-1.09099 0.29695,-0.19182 0.6082,-0.35863 0.89892,-0.8367 0.14529,-0.23902 0.29205,-0.61707 0.0973,-1.06928 -0.19469,-0.45221 -0.77852,-0.83536 -1.2469,-0.9984 -0.85551,-0.29778 -1.29065,-0.19271 -1.54352,-0.16712 -0.25288,0.0256 -0.37633,0.0552 -0.47966,0.0789 -0.20666,0.0473 -0.3097,0.0817 -0.41456,0.11576 -0.20974,0.068 -0.38872,0.13541 -0.60264,0.21776 -0.42786,0.16468 -0.96088,0.38294 -1.59236,0.64787 -1.26298,0.52987 -2.89967,1.23848 -4.55569,1.96422 -2.93597,1.28667 -5.36258,2.3745 -6.36835,2.8266 -0.56398,0.20191 -1.27103,0.46599 -1.76707,0.64171 -0.92792,0.32875 -1.71655,0.60436 -2.28653,0.80378 -0.56997,0.19942 -0.65003,0.21876 -1.05156,0.3715 -12.84161,4.88483 -25.31414,10.54814 -37.126319,16.42928 -0.07493,0.0274 -0.147903,0.0592 -0.222829,0.0865 -0.542166,0.19707 -1.260513,0.50219 -2.322701,0.91809 -0.677277,0.2652 -1.520438,0.55942 -2.325594,0.84935 0.7724,-0.4811 1.348794,-0.87969 2.188859,-1.38255 2.011469,-1.20408 4.108984,-2.41487 5.779441,-3.3721 1.670469,-0.95724 2.783286,-1.57787 3.301554,-1.89947 0.702852,-0.43611 1.470807,-0.81646 2.18271,-1.24473 15.832689,-7.51437 31.114689,-15.46879 47.054859,-22.73287 2.30744,-1.05152 4.47812,-2.12758 6.68884,-3.20642 0.22011,-0.0838 0.22659,-0.0883 0.47206,-0.18087 1.00391,-0.37875 2.24389,-0.85001 3.46723,-1.34601 1.22337,-0.496 2.42309,-1.00945 3.41587,-1.52255 0.49641,-0.25655 0.93997,-0.50782 1.34819,-0.81029 0.4082,-0.30247 0.93906,-0.63327 0.99585,-1.42487 0.0225,-0.3124 0.0918,-0.90959 -0.951,-1.45165 -0.52132,-0.27102 -1.2308,-0.37246 -1.71028,-0.36028 z m -40.04081,34.69075 c -5.11416,2.37163 -10.27633,4.69727 -15.35276,7.08639 5.02769,-2.43414 10.13525,-4.80169 15.35276,-7.08639 z m -22.872151,5.45497 c -0.625719,0.26834 -1.254568,0.5356 -1.8803,0.80377 -1.303279,0.55853 -3.488945,1.69535 -5.761353,2.70289 0.06809,-0.0429 0.159964,-0.10692 0.224998,-0.14759 0.354128,-0.2215 0.659192,-0.40795 0.87974,-0.54079 0.154471,-0.093 0.3711,-0.20928 0.381992,-0.21777 0.772652,-0.38513 1.598672,-0.74434 2.372259,-1.13006 1.277282,-0.46783 2.518457,-0.98438 3.782664,-1.47045 z"
       style="opacity:1;vector-effect:none;fill:#1d1d1d;fill-opacity:1;stroke:none;stroke-width:1.32845;stroke-linecap:round;stroke-linejoin:round;stroke-miterlimit:4;stroke-dasharray:none;stroke-dashoffset:0;stroke-opacity:1;paint-order:markers fill stroke" />
    <path
       inkscape:connector-curvature="0"
       id="rect2150-1-3-9"
       d="m 68.442102,137.6627 c -0.201465,0.42446 -0.280042,0.87164 -0.288302,1.25341 -0.0054,0.249 0.07668,0.4552 0.109606,0.68368 -0.212036,-0.10899 -0.387861,-0.23709 -0.682232,-0.31182 -0.263755,-0.067 -0.601156,-0.13508 -1.08014,-0.0217 -0.478986,0.11334 -1.067586,0.55041 -1.309844,1.03493 -0.348308,0.69661 -0.407031,1.37773 -0.328092,2.03041 -0.54338,-0.48995 -1.247545,-1.1204 -1.962051,-1.73922 -0.721903,-0.62522 -1.442408,-1.23214 -2.038377,-1.68857 -0.297985,-0.22822 -0.547907,-0.41311 -0.847546,-0.58638 -0.149819,-0.0866 -0.276862,-0.18252 -0.655101,-0.27492 -0.189122,-0.0462 -0.470166,-0.12849 -0.96909,0.0192 -0.498923,0.1477 -1.102989,0.7834 -1.227727,1.28236 -0.232214,0.92885 -0.0099,1.62554 0.242001,2.31184 0.251905,0.68631 0.608877,1.37173 1.04035,2.09734 0.862943,1.45123 2.029537,3.04864 3.253804,4.61574 0.771766,0.98788 1.070716,1.28751 1.826764,2.19573 -0.434214,-0.41575 -0.89862,-0.82085 -1.322143,-1.24437 -0.599606,-0.5996 -1.34156,-1.13829 -1.939985,-1.62527 -0.0052,-0.0558 0.01718,-0.0478 0.008,-0.11106 -0.0453,-0.31028 -0.199203,-0.7924 -0.612418,-1.16876 -0.413212,-0.37635 -0.963743,-0.50172 -1.324673,-0.50172 -0.383612,0 -1.084076,-0.0585 -1.713177,0.80521 -0.314552,0.43187 -0.392162,1.01273 -0.340392,1.37821 0.05177,0.36548 0.166213,0.58343 0.263705,0.75458 0.02096,0.0368 0.03973,0.0328 0.06041,0.0669 -0.0054,0.21948 -0.05224,0.37011 0.02171,0.70285 0.544193,2.44887 2.311343,4.3397 3.146008,5.5917 0.437286,0.65593 0.91442,1.28432 1.360124,1.93456 -0.376875,-0.29576 -0.730034,-0.56782 -1.06748,-0.77665 -0.195247,-0.12083 -0.378379,-0.2304 -0.665953,-0.33605 -0.287577,-0.10564 -0.845115,-0.44558 -1.771779,0.17219 -0.863602,0.57574 -0.943026,1.51964 -0.907954,2.00691 0.03507,0.48726 0.152239,0.84999 0.289749,1.23062 0.275021,0.76125 0.674879,1.54551 1.100759,2.32017 0.85176,1.5493 1.838893,3.05002 1.915388,3.16771 1.42153,2.18697 2.939788,4.33834 4.518431,6.45841 -0.478741,-0.3648 -0.977268,-0.78799 -1.440789,-1.15393 0.14958,0.11809 -0.240034,-0.21506 -0.593607,-0.51656 -0.353575,-0.30149 -0.810871,-0.67813 -1.317802,-1.04324 -0.50693,-0.36511 -1.047148,-0.72074 -1.684239,-0.98573 -0.637089,-0.26499 -1.606358,-0.6149 -2.670327,0.0944 -0.444939,0.29662 -0.745379,0.8286 -0.832714,1.23025 -0.08734,0.40166 -0.04855,0.69444 -0.0025,0.93401 0.09203,0.47915 0.249404,0.8016 0.423953,1.14163 0.349097,0.68007 0.816358,1.36434 1.306949,2.04236 0.129534,0.17902 0.240455,0.31083 0.370417,0.484 -0.182879,-0.0594 -0.368708,-0.12259 -0.672466,-0.12299 -0.368563,-5e-4 -0.956927,0.13361 -1.386531,0.56322 -0.50164,0.50163 -0.588123,1.182 -0.556347,1.56559 0.03177,0.38359 0.127007,0.62164 0.221381,0.84212 0.18875,0.44095 0.421499,0.8005 0.708277,1.21253 0.573556,0.82407 1.369447,1.79248 2.304976,2.87796 0.311969,0.36199 0.705567,0.77644 1.043243,1.15829 -0.151976,-0.037 -0.327446,-0.0691 -0.713702,-0.007 -0.460993,0.074 -1.220466,0.64134 -1.399916,1.20602 -0.119398,0.37571 -0.04371,0.50977 -0.0069,0.69308 -0.72024,-0.70665 -1.451062,-1.44623 -1.945412,-1.81699 l -2.100233,2.79983 c 0.112602,0.0845 1.179803,1.06379 2.369363,2.23842 1.189562,1.17462 2.642408,2.63613 4.061924,4.05758 1.419515,1.42144 2.80343,2.80118 3.882864,3.82969 0.539718,0.51425 0.998801,0.93714 1.379657,1.2592 0.190428,0.16102 0.352148,0.29394 0.556348,0.43046 0.102101,0.0683 0.206685,0.13963 0.415633,0.22825 0.20895,0.0886 0.601805,0.43199 1.536651,-0.0354 0.80076,-0.40038 1.393371,-1.40371 1.443685,-2.19826 0.04922,-0.77723 -0.165421,-1.38005 -0.419612,-1.96494 0.143135,0.062 0.243858,0.15864 0.434804,0.20944 0.287747,0.0765 0.812077,0.29232 1.605019,-0.24345 0.39647,-0.26788 0.683639,-0.76297 0.762899,-1.13331 0.07926,-0.37035 0.03705,-0.6234 -0.0029,-0.81101 -0.01784,-0.0838 -0.04917,-0.0692 -0.06837,-0.13927 0.02185,0.0223 0.05499,0.0546 0.07669,0.0767 1.741495,1.77415 3.095594,3.21078 3.266104,3.40971 -0.08917,-0.10403 -0.0068,-0.009 0.01519,0.0177 0.022,0.0267 0.05426,0.0659 0.09441,0.11466 0.0803,0.0977 0.193007,0.23543 0.328092,0.39936 0.270173,0.32785 0.628718,0.76044 0.988261,1.19228 0.359543,0.43183 0.719132,0.86141 1.002368,1.19083 0.141618,0.16471 0.261977,0.30148 0.36897,0.41816 0.05349,0.0583 0.09768,0.10773 0.17508,0.18196 0.0387,0.0371 0.07362,0.076 0.19823,0.16821 0.06231,0.0461 0.128781,0.10957 0.367885,0.21053 0.05978,0.0252 0.132768,0.0533 0.229701,0.0792 0.09694,0.026 0.380906,0.0575 0.381269,0.0575 3.64e-4,1e-5 0.609606,-0.082 0.609886,-0.0821 2.78e-4,-9e-5 0.702293,-0.42919 0.70249,-0.42938 0.719467,-0.71947 0.528766,-1.4001 0.473147,-1.64879 -0.05562,-0.24869 -0.111734,-0.34792 -0.155906,-0.43879 -0.08835,-0.18173 -0.154977,-0.28094 -0.230788,-0.39501 -0.151621,-0.22815 -0.332883,-0.47045 -0.563584,-0.76977 -0.461396,-0.59867 -1.111096,-1.39887 -1.901639,-2.35309 -1.581088,-1.90844 -3.717289,-4.42112 -5.902069,-6.97136 -2.184782,-2.55022 -4.416897,-5.13651 -6.17554,-7.18044 -0.864059,-1.00422 -1.038538,-1.21993 -1.618766,-1.90164 1.051687,0.81575 2.184355,1.62794 3.121052,2.49525 1.428206,1.32241 5.017316,5.7315 8.5109,9.81893 1.746793,2.04373 3.50239,4.03398 5.085995,5.62607 1.583604,1.59209 2.778088,2.80899 4.407742,3.3522 0.126008,0.042 0.279579,0.0908 0.542964,0.10382 0.263383,0.0129 0.714356,-0.0103 1.178171,-0.35812 0.463815,-0.34787 0.689957,-0.96187 0.712617,-1.32214 0.02266,-0.36027 -0.04378,-0.55769 -0.09188,-0.70538 -0.192393,-0.59079 -0.332367,-0.6649 -0.477128,-0.8613 -0.289522,-0.3928 -0.637697,-0.79997 -0.699958,-0.88299 -2.256523,-3.0087 -1.298259,-1.80023 -4.271006,-5.33921 -6.359465,-7.57079 -13.160741,-15.36613 -18.580157,-23.47045 1.187515,1.11769 2.712385,2.54418 2.843961,2.67575 7.57287,7.57287 13.676424,16.84512 20.673155,25.39669 0.606945,0.74182 1.775321,2.81157 3.05413,4.75935 0.271836,0.41404 0.545848,0.83007 0.82765,1.23858 h 6.132131 c -0.128299,-0.19099 -0.263368,-0.37389 -0.409484,-0.5795 -0.73759,-1.03789 -1.743535,-2.2785 -2.045249,-2.74267 -2.572866,-3.95825 -5.828637,-7.24836 -8.513434,-10.65599 -7.060753,-8.96172 -14.354061,-17.79932 -20.859449,-27.03862 1.939438,1.80337 3.822572,3.61263 5.530565,5.58339 9.758874,11.26024 18.5383,24.0605 28.724655,35.43339 H 105.206 c -0.20372,-0.26339 -0.45118,-0.58662 -0.99659,-1.31383 -0.77666,-1.03555 -1.56308,-2.04241 -2.34621,-3.06786 0.28213,-0.11845 0.58702,-0.18835 0.77375,-0.42794 0.59005,-0.7571 0.38955,-1.22989 0.34727,-1.4643 -0.0423,-0.23441 -0.0927,-0.35943 -0.14072,-0.48002 -0.38406,-0.96473 -1.02609,-1.86743 -1.89223,-3.18255 -1.732285,-2.63023 -4.184174,-6.10128 -4.325631,-6.30975 -3.182468,-4.68995 -6.45978,-9.30682 -9.75093,-13.91232 2.493453,3.22843 5.000184,6.46955 7.44306,9.6453 0.01893,0.0246 0.275414,0.36704 0.315795,0.41998 0.655395,1.07296 1.305615,2.14574 2.061889,3.33158 1.07872,1.69142 2.168456,3.33425 3.08162,4.53904 0.456587,0.60239 0.843237,1.08411 1.294657,1.49578 0.2257,0.20583 0.42316,0.4235 0.97487,0.60989 0.27585,0.0932 0.71031,0.17991 1.22086,0.0148 0.51055,-0.1651 0.93279,-0.60928 1.10727,-0.95824 0.31868,-0.63737 0.18864,-0.94831 0.15338,-1.13079 -0.0353,-0.18247 -0.0719,-0.27049 -0.10129,-0.34437 -0.0589,-0.14775 -0.10089,-0.22072 -0.14216,-0.29518 -0.0826,-0.14891 -0.16365,-0.27564 -0.26262,-0.42684 -0.19794,-0.30241 -0.45957,-0.67835 -0.77665,-1.12355 -0.63415,-0.89039 -1.48051,-2.04306 -2.3473,-3.20896 -1.536733,-2.06698 -2.834927,-3.77403 -3.374263,-4.48153 -0.243643,-0.3994 -0.561574,-0.89985 -0.773752,-1.25124 -0.396907,-0.65734 -0.729951,-1.21594 -0.970896,-1.61985 -0.240947,-0.4039 -0.264486,-0.46127 -0.448191,-0.74517 -5.87501,-9.07956 -12.628219,-17.85024 -19.613634,-26.12957 -0.03293,-0.053 -0.07134,-0.10431 -0.10418,-0.15736 -0.237591,-0.3838 -0.602384,-0.89043 -1.101843,-1.64082 -0.318475,-0.47848 -0.674344,-1.07577 -1.024073,-1.6459 0.566766,0.53635 1.035343,0.93453 1.628532,1.51892 1.420359,1.39932 2.850356,2.86073 3.981255,4.02503 1.130898,1.16431 1.864575,1.94104 2.24348,2.301 0.513834,0.48814 0.965696,1.02632 1.470815,1.52146 8.943135,11.11659 18.37445,21.80995 27.03499,33.01772 1.25367,1.6224 2.53202,3.14429 3.8145,4.69496 0.10082,0.15561 0.10596,0.15992 0.2174,0.33352 0.45572,0.70996 1.02271,1.58667 1.61732,2.45003 0.5946,0.86337 1.20847,1.70849 1.81699,2.40337 0.30427,0.34744 0.60125,0.65703 0.95571,0.93798 0.35446,0.28094 0.74405,0.64931 1.64734,0.64931 0.35649,0 1.03857,0.0193 1.63107,-0.76688 0.29624,-0.39307 0.39474,-0.91382 0.36932,-1.26173 -0.0254,-0.34789 -0.11912,-0.56877 -0.19967,-0.73721 -0.3222,-0.67376 -0.5956,-0.84045 -0.89168,-1.12898 -0.59218,-0.57704 -1.3419,-1.26318 -1.38472,-1.31671 -0.99391,-1.24239 -1.96292,-2.43744 -2.96261,-3.64629 -0.24076,-0.37839 -0.49285,-0.78699 -0.68803,-1.04723 -9.50474,-12.673 -18.802157,-25.52344 -30.304756,-36.84857 -2.582877,-3.21051 -5.136346,-6.43689 -7.588115,-9.72742 l -1.166235,0.86961 c -1.143911,-1.10836 -2.304464,-2.23015 -3.256338,-3.03387 -0.201287,-0.16996 -0.392049,-0.32535 -0.578776,-0.47423 z m 2.037292,8.0826 c 0.05056,0.0473 0.125725,0.11076 0.173633,0.15591 0.260899,0.24586 0.480703,0.45759 0.637377,0.61097 0.110387,0.10807 0.249557,0.26128 0.257918,0.26696 0.457282,0.54142 0.886196,1.12302 1.344207,1.66507 0.563806,0.90404 1.182081,1.77928 1.766352,2.67286 -0.32081,-0.44083 -0.640508,-0.88419 -0.961129,-1.32504 -0.667773,-0.91819 -2.015646,-2.44751 -3.218358,-4.04673 z m 2.502122,10.92259 c 2.894528,3.5276 5.714788,7.11648 8.443618,10.78983 -2.82539,-3.59369 -5.599213,-7.22445 -8.443618,-10.78983 z"
       style="opacity:1;vector-effect:none;fill:#1c1c1c;fill-opacity:1;stroke:none;stroke-width:1.32845;stroke-linecap:round;stroke-linejoin:round;stroke-miterlimit:4;stroke-dasharray:none;stroke-dashoffset:0;stroke-opacity:1;paint-order:markers fill stroke" />
    <path
       sodipodi:nodetypes="ssssssssssssssssss"
       inkscape:connector-curvature="0"
       id="rect2150"
       d="m 47.359101,114.63104 c -1.312138,0 -2.368641,1.12516 -2.368641,2.52274 v 85.09455 c 0,1.39759 1.056503,2.52274 2.368641,2.52274 H 163.15157 c 1.31213,0 2.36828,-1.12515 2.36828,-2.52274 v -85.09455 c 0,-1.39758 -1.05615,-2.52274 -2.36828,-2.52274 z m 6.012759,6.84222 h 103.76695 c 0.74663,0 1.34746,0.58559 1.34746,1.3131 v 73.82939 c 0,0.72751 -0.60083,1.3131 -1.34746,1.3131 H 53.37186 c -0.746632,0 -1.347824,-0.58559 -1.347824,-1.3131 v -73.82939 c 0,-0.72751 0.601192,-1.3131 1.347824,-1.3131 z"
       style="opacity:1;vector-effect:none;fill:#a7683f;fill-opacity:1;stroke:none;stroke-width:1.32845;stroke-linecap:round;stroke-linejoin:round;stroke-miterlimit:4;stroke-dasharray:none;stroke-dashoffset:0;stroke-opacity:1;paint-order:markers fill stroke" />
    <path
       sodipodi:nodetypes="cccccssc"
       inkscape:connector-curvature="0"
       id="path2912-0"
       d="m 163.29899,204.82702 c -20.31261,-2.52935 -83.833752,-1.05265 -114.213504,-1.05265 -1.312136,0 -2.368275,-1.12515 -2.368275,-2.52274 l -1.644853,-83.17677 -0.07369,4.18621 -0.04655,80.08973 c -7e-4,1.39759 1.056146,2.52327 2.368282,2.52274 z"
       style="opacity:1;vector-effect:none;fill:#8d5d3d;fill-opacity:1;stroke:none;stroke-width:1.32845;stroke-linecap:round;stroke-linejoin:round;stroke-miterlimit:4;stroke-dasharray:none;stroke-dashoffset:0;stroke-opacity:1;paint-order:markers fill stroke" />
    <path
       sodipodi:nodetypes="cccccssc"
       inkscape:connector-curvature="0"
       id="path2912"
       d="m 47.246365,114.69033 c 20.312612,2.52934 83.833745,1.05265 114.213495,1.05265 1.31214,0 2.36828,1.12515 2.36828,2.52274 l 1.64485,83.17676 0.0737,-4.1862 0.0465,-80.08973 c 7e-4,-1.39759 -1.05615,-2.52327 -2.36828,-2.52274 z"
       style="opacity:1;vector-effect:none;fill:#916549;fill-opacity:1;stroke:none;stroke-width:1.32845;stroke-linecap:round;stroke-linejoin:round;stroke-miterlimit:4;stroke-dasharray:none;stroke-dashoffset:0;stroke-opacity:1;paint-order:markers fill stroke" />
    <path
       sodipodi:nodetypes="sccccssss"
       inkscape:connector-curvature="0"
       id="rect2150-5"
       d="m 53.190696,121.45416 c -0.230462,5.5e-4 -0.418196,0.10301 -0.563559,0.22893 32.681534,0.878 69.732343,0.38547 103.853673,0.514 0.74663,0 1.34746,0.58559 1.34746,1.3131 l 0.49605,73.76226 c 0.1815,-0.22334 0.28055,-0.58827 0.28142,-0.89678 l 0.20935,-73.85265 c 0.002,-0.72751 -0.60084,-1.31485 -1.34747,-1.3131 z"
       style="opacity:1;vector-effect:none;fill:#c08158;fill-opacity:1;stroke:none;stroke-width:1.32845;stroke-linecap:round;stroke-linejoin:round;stroke-miterlimit:4;stroke-dasharray:none;stroke-dashoffset:0;stroke-opacity:1;paint-order:markers fill stroke" />
    <path
       sodipodi:nodetypes="sccccssss"
       inkscape:connector-curvature="0"
       id="rect2150-5-3"
       d="m 157.19477,197.93912 c 0.23046,-4.7e-4 0.62379,-0.1359 0.76915,-0.26182 -32.68153,-0.87801 -69.56786,-0.38548 -103.68919,-0.51401 -0.746627,0 -1.347465,-0.58559 -1.347465,-1.3131 l -0.718092,-73.72936 c -0.181496,0.22333 -0.30625,0.45669 -0.306094,0.76519 l 0.03737,73.95135 c 3.68e-4,0.72751 0.600837,1.31461 1.347458,1.31309 z"
       style="opacity:1;vector-effect:none;fill:#3d3129;fill-opacity:1;stroke:none;stroke-width:1.32845;stroke-linecap:round;stroke-linejoin:round;stroke-miterlimit:4;stroke-dasharray:none;stroke-dashoffset:0;stroke-opacity:1;paint-order:markers fill stroke" />
    <path
       sodipodi:nodetypes="cccccccsccscccccccsccscccccscssccssccsscscccsccccscscccccccccccscccccccccsscccccccccssssccccccccccccscccsc"
       inkscape:connector-curvature="0"
       id="path2270"
       d="m 49.921966,121.78468 c -0.894329,7.16991 0.692912,14.9983 1.478438,22.06805 l 0.184486,-0.0206 c -0.783933,-7.05538 -2.352812,-14.83775 -1.488612,-21.94352 z M 53.6195,118.4641 c 5.183453,-0.055 7.510181,-0.37267 12.718028,-0.84005 4.662689,0.0803 9.297351,0.33048 13.831301,0.78388 6.778918,0.67789 13.514574,2.22193 20.315041,3.06534 h 1.61225 c -7.326601,-0.77938 -14.584918,-2.51773 -21.909567,-3.25019 -4.009506,-0.40095 -8.097073,-0.6435 -12.212535,-0.75096 7.175343,-0.69281 14.336892,-1.69913 21.402777,-2.84107 l -1.169852,-1e-5 c -7.223686,1.15017 -14.540819,2.14935 -21.864712,2.80707 -2.19435,-0.0379 -4.394153,-0.0416 -6.593706,-0.005 -3.117943,-0.24525 -16.826923,1.10223 -6.320021,1.03323 m 110.170166,-2.22805 c -5.40253,0.0997 -10.84568,0.64286 -15.27281,1.19626 -17.77448,2.22181 -36.98012,-1.90903 -54.997835,-0.26407 l 0.01628,0.18448 c 17.977845,-1.64132 37.185955,2.48997 55.004705,0.26262 4.20154,-0.52519 9.32036,-1.03785 14.44461,-1.17282 z m -2.2294,2.40079 c -5.88649,0.65937 -11.83466,1.14939 -17.77816,1.68971 -4.50692,0.40972 -9.14288,0.82324 -13.81756,1.14453 h 2.57664 c 3.80657,-0.28815 7.57646,-0.6253 11.25864,-0.96004 5.95715,-0.54156 11.91361,-1.03337 17.80349,-1.69297 1.9387,8.12397 0.11455,16.68548 1.30733,25.035 0.99013,6.93086 2.46913,30.09808 1.57898,37.21928 -0.79228,6.33821 -2.66023,12.64619 -3.38008,18.82393 -0.33504,0.004 0.17878,-0.21094 -0.15697,-0.20181 -0.26741,-4.48786 0.0373,-9.10632 0.0373,-13.61028 0,-11.47023 -0.52632,-38.6829 -0.52632,-50.139 v -12.8955 l -0.1863,3.7e-4 v 12.89513 c 0,11.46178 0.52633,38.67445 0.52633,50.13901 0,4.49351 -0.30409,9.11417 -0.0362,13.61607 -6.52119,0.19384 -13.15473,1.25458 -19.35319,1.81808 -27.91656,3.22003 -40.7428,-1.3539 -51.696221,0.55456 l 0.01556,0.0908 h 0.586735 c 16.916216,0 34.205356,1.07633 51.110566,-0.4605 6.20928,-0.56448 12.84173,-1.62417 19.34813,-1.81772 l 0.1852,-0.005 0.33205,0.0141 c 0.71912,-6.16374 2.58491,-12.46335 3.37682,-18.79861 0.8952,-7.16153 -0.59031,-30.34534 -1.57933,-37.26847 -1.13917,-7.97416 0.47056,-16.50909 -1.12793,-24.41528 -0.0649,-0.32085 -0.10213,-0.29525 -0.17796,-0.61394 l -0.042,-0.18159 M 53.47806,118.28033 c -4.516733,0.0604 -3.502096,-0.0688 0.07597,-0.28432 v 0 l 0.193528,-0.0112 c 3.801421,-0.22443 4.750825,-0.37773 8.580506,-0.39187 0.712172,-0.003 1.424144,9.3e-4 2.135683,0.006 -4.567619,0.37298 -6.24999,0.62953 -10.794686,0.67909 z m -6.466271,84.77339 c 0.270741,-4.28204 -0.164184,-10.34456 -0.164184,-12.7564 0,-16.74552 1.33868,-49.64279 -1.052649,-66.20619 l -0.183038,0.0275 c 2.387376,16.53602 1.051202,49.42332 1.051202,66.1787 0,2.41435 0.434146,8.47312 0.163823,12.74664 l -0.0123,0.18521 0.184847,0.01 m 0.754261,-1.55239 0.184846,0.01 c 6.456504,0.31372 12.864012,0.31641 18.563882,-0.25357 8.108079,-0.81081 16.390779,-0.83229 24.476799,-1.84304 4.303812,-0.53797 8.8123,-1.31527 13.146902,-1.31527 10.83111,0 21.86152,-0.10791 32.62379,0.78894 5.30802,0.44235 10.73802,0.52777 16.0614,0.52777 h 5.78884 c 0.10253,0 0.32811,0.0581 0.5115,0.0904 0.0917,0.0162 0.17228,0.0295 0.2514,0.0108 0.0395,-0.009 0.0871,-0.0327 0.11214,-0.0807 0.025,-0.048 0.0174,-0.10042 0.001,-0.14505 -0.28313,-0.78858 -0.71668,-1.50389 -1.06929,-2.24348 l -0.10996,0.0521 c -0.0129,0.0211 -0.0251,0.0426 -0.0391,0.0629 0.35118,0.73099 0.76432,1.42671 1.03492,2.17222 -0.0293,0.002 -0.0789,10e-4 -0.15048,-0.0109 -0.1678,-0.0296 -0.38197,-0.0944 -0.5426,-0.0944 h -5.78885 c -5.32142,0 -10.74556,-0.0847 -16.04512,-0.52632 -10.77394,-0.89781 -21.81022,-0.78893 -32.6401,-0.78893 -4.356713,0 -8.87261,0.77949 -13.170412,1.31672 -8.070874,1.00885 -16.352279,1.02958 -24.47246,1.84159 -5.684524,0.56846 -12.080777,0.5658 -18.529153,0.25285 1.502775,-17.90912 3.48335,-52.62725 -0.05498,-70.31875 -0.497892,-2.48947 0.323945,-5.30558 0.0011,-7.88872 -0.07908,-0.6326 -0.453353,-1.18672 -0.91736,-1.70883 -0.464006,-0.52211 -1.021577,-1.01575 -1.487454,-1.52182 -0.188042,-0.20427 -0.359137,-0.41028 -0.504982,-0.62002 h -8e-6 v 0.31362 c 0.114414,0.14657 0.237751,0.29052 0.368246,0.43227 0.47505,0.51604 1.032952,1.00873 1.486369,1.51893 0.453417,0.5102 0.798933,1.03488 0.870697,1.60899 0.315953,2.52763 -0.509289,5.3475 0.0014,7.90102 3.531125,17.65562 1.555101,52.36025 0.05209,70.2739"
       style="color:#000000;font-style:normal;font-variant:normal;font-weight:normal;font-stretch:normal;font-size:medium;line-height:normal;font-family:sans-serif;font-variant-ligatures:normal;font-variant-position:normal;font-variant-caps:normal;font-variant-numeric:normal;font-variant-alternates:normal;font-feature-settings:normal;text-indent:0;text-align:start;text-decoration:none;text-decoration-line:none;text-decoration-style:solid;text-decoration-color:#000000;letter-spacing:normal;word-spacing:normal;text-transform:none;writing-mode:lr-tb;direction:ltr;text-orientation:mixed;dominant-baseline:auto;baseline-shift:baseline;text-anchor:start;white-space:normal;shape-padding:0;clip-rule:nonzero;display:inline;overflow:visible;visibility:visible;opacity:1;isolation:auto;mix-blend-mode:normal;color-interpolation:sRGB;color-interpolation-filters:linearRGB;solid-color:#000000;solid-opacity:1;vector-effect:none;fill:#d8b197;fill-opacity:1;fill-rule:nonzero;stroke:none;stroke-width:1.32845;stroke-linecap:round;stroke-linejoin:round;stroke-miterlimit:4;stroke-dasharray:none;stroke-dashoffset:0;stroke-opacity:1;paint-order:markers fill stroke;color-rendering:auto;image-rendering:auto;shape-rendering:auto;text-rendering:auto;enable-background:accumulate" />
    <path
       inkscape:connector-curvature="0"
       id="path2350"
       d="m 158.33627,197.3892 -0.15175,0.0971 c 0.001,0.003 0.005,0.005 0.007,0.008 l -0.001,10e-4 c 0.006,0.007 0.0137,0.0132 0.0191,0.0205 0.22086,0.38531 0.57186,0.71409 0.88594,1.0705 0.006,0.01 0.009,0.0148 0.0151,0.0246 0.0482,0.0745 0.12838,0.15943 0.18457,0.24063 0.008,0.0125 0.0184,0.0291 0.026,0.041 0.0617,0.0968 0.10202,0.16076 0.13535,0.19961 0.86553,1.00892 1.7413,2.07441 2.52109,3.12675 0.1975,0.26798 0.35905,0.53738 0.50723,0.81758 0.0534,0.10298 0.13277,0.21339 0.175,0.30489 0.0482,0.10446 0.0794,0.18165 0.11075,0.25839 -1.1e-4,0.0239 7e-4,0.033 0.001,0.0601 7e-4,0.0383 0.004,0.0805 0.0246,0.12442 0.0206,0.0439 0.0661,0.0859 0.12031,0.10117 5e-5,2e-5 0.0423,0.001 0.0424,0.001 4e-5,-2e-5 0.0437,-0.0218 0.0438,-0.0218 3e-5,-4e-5 0.0205,-0.0286 0.0205,-0.0287 2e-5,-6e-5 0.007,-0.019 0.007,-0.0191 3e-5,-1.8e-4 0.001,-0.0202 0.001,-0.0205 0,-2.8e-4 2.9e-4,-0.007 0,-0.01 -0.001,-0.0104 -0.003,-0.0155 -0.004,-0.0205 -0.003,-0.0101 -0.005,-0.0198 -0.01,-0.0328 -0.009,-0.026 -0.0221,-0.0617 -0.0396,-0.10665 -0.007,-0.0188 -0.024,-0.0534 -0.0328,-0.0752 7e-4,-0.0394 0.008,-0.0711 -0.007,-0.11758 -0.0462,-0.14365 -0.17719,-0.26014 -0.24746,-0.40058 -0.12281,-0.24479 -0.2498,-0.50441 -0.42657,-0.74649 -0.0134,-0.0183 -0.0302,-0.0363 -0.0438,-0.0547 0.34568,0.39854 0.7257,0.78064 1.04727,1.17441 0.003,0.005 0.0647,0.0915 0.13808,0.19688 0.0733,0.10538 0.16621,0.23794 0.26114,0.36777 0.0949,0.12983 0.19145,0.25609 0.27343,0.35 0.041,0.047 0.0779,0.0868 0.11348,0.11621 0.0178,0.0147 0.0351,0.0265 0.0574,0.0369 0.0223,0.0104 0.0571,0.0236 0.0998,0.006 0.0222,-0.009 0.0429,-0.0303 0.0533,-0.0506 0.0104,-0.0203 0.012,-0.0382 0.0123,-0.0533 5.1e-4,-0.0303 -0.006,-0.0529 -0.0137,-0.0766 -0.0164,-0.0475 -0.0442,-0.0987 -0.0793,-0.15996 -0.0702,-0.12261 -0.17314,-0.27791 -0.28301,-0.43614 -0.10986,-0.15823 -0.22676,-0.3199 -0.32129,-0.45117 -0.0945,-0.13127 -0.16973,-0.23913 -0.18594,-0.2666 -1.06665,-1.80842 -2.88768,-3.22295 -4.31074,-4.80977 -0.006,-0.0102 -0.0157,-0.026 -0.0218,-0.0356 -0.028,-0.0437 -0.0515,-0.0812 -0.0697,-0.108 -0.009,-0.0134 -0.0175,-0.0234 -0.0246,-0.0328 -0.004,-0.005 -0.006,-0.01 -0.0109,-0.0151 -0.002,-0.003 -0.006,-0.005 -0.0109,-0.01 -0.003,-0.002 -0.009,-0.008 -0.01,-0.008 -2.4e-4,-1.7e-4 -0.0244,-0.0109 -0.0246,-0.0109 h -0.001 c -8e-5,-2e-5 -0.0286,-0.004 -0.0287,-0.004 -1e-5,0 -0.006,0.002 -0.008,0.003 -0.16574,-0.19372 -0.38806,-0.36445 -0.53594,-0.56602 z m 1.73497,2.09591 c 1.18433,1.1461 2.38905,2.2764 3.1664,3.59433 0.0124,0.021 0.054,0.0777 0.0779,0.11211 -0.78172,-0.95162 -1.65852,-1.89929 -2.52246,-2.82871 -0.12981,-0.1556 -0.25736,-0.31502 -0.38418,-0.47031 -0.10956,-0.13416 -0.21823,-0.27378 -0.33769,-0.40742 z"
       style="color:#000000;font-style:normal;font-variant:normal;font-weight:normal;font-stretch:normal;font-size:medium;line-height:normal;font-family:sans-serif;font-variant-ligatures:normal;font-variant-position:normal;font-variant-caps:normal;font-variant-numeric:normal;font-variant-alternates:normal;font-feature-settings:normal;text-indent:0;text-align:start;text-decoration:none;text-decoration-line:none;text-decoration-style:solid;text-decoration-color:#000000;letter-spacing:normal;word-spacing:normal;text-transform:none;writing-mode:lr-tb;direction:ltr;text-orientation:mixed;dominant-baseline:auto;baseline-shift:baseline;text-anchor:start;white-space:normal;shape-padding:0;clip-rule:nonzero;display:inline;overflow:visible;visibility:visible;opacity:1;isolation:auto;mix-blend-mode:normal;color-interpolation:sRGB;color-interpolation-filters:linearRGB;solid-color:#000000;solid-opacity:1;vector-effect:none;fill:#4d301d;fill-opacity:1;fill-rule:nonzero;stroke:none;stroke-width:1.32845;stroke-linecap:round;stroke-linejoin:round;stroke-miterlimit:4;stroke-dasharray:none;stroke-dashoffset:0;stroke-opacity:1;paint-order:markers fill stroke;color-rendering:auto;image-rendering:auto;shape-rendering:auto;text-rendering:auto;enable-background:accumulate" />
    <path
       inkscape:connector-curvature="0"
       id="path2350-4"
       d="m 158.49169,122.04926 0.11633,0.13754 c 0.003,-0.002 0.004,-0.006 0.007,-0.008 l 0.001,0.001 c 0.006,-0.006 0.0112,-0.0153 0.0178,-0.0216 0.35264,-0.26999 0.63198,-0.66147 0.94361,-1.02003 0.009,-0.008 0.0136,-0.0106 0.0224,-0.0182 0.0674,-0.0576 0.141,-0.14838 0.21403,-0.21484 0.0113,-0.01 0.0264,-0.0221 0.0372,-0.0311 0.0877,-0.074 0.14583,-0.12243 0.17992,-0.16062 0.88527,-0.99163 1.82526,-2.00092 2.76494,-2.91334 0.23943,-0.23128 0.48504,-0.42711 0.74313,-0.61112 0.095,-0.0666 0.1939,-0.15989 0.27899,-0.21388 0.0971,-0.0617 0.16953,-0.10279 0.24144,-0.14402 0.0237,-0.003 0.0325,-0.005 0.0594,-0.009 0.0379,-0.006 0.0792,-0.0148 0.12004,-0.0409 0.0408,-0.0262 0.0764,-0.077 0.0843,-0.13266 0,-6e-5 -0.004,-0.0421 -0.004,-0.0422 -2e-5,-5e-5 -0.0274,-0.0404 -0.0274,-0.0405 -4e-5,-3e-5 -0.0311,-0.0165 -0.0311,-0.0165 -6e-5,-2e-5 -0.0198,-0.004 -0.0199,-0.004 -1.8e-4,-10e-6 -0.0202,0.001 -0.0205,0.001 -2.8e-4,4e-5 -0.007,6.3e-4 -0.01,0.001 -0.0101,0.003 -0.015,0.005 -0.0197,0.007 -0.01,0.004 -0.019,0.007 -0.0313,0.0139 -0.0246,0.0121 -0.0582,0.0301 -0.10046,0.0534 -0.0177,0.01 -0.0498,0.0309 -0.0702,0.0425 -0.0391,0.004 -0.0716,0.001 -0.11562,0.0225 -0.13625,0.0648 -0.23436,0.2101 -0.36424,0.29837 -0.22635,0.15418 -0.46684,0.31446 -0.68336,0.52176 -0.0164,0.0157 -0.032,0.0348 -0.0484,0.0506 0.34921,-0.39546 0.67756,-0.82277 1.02522,-1.19371 0.004,-0.004 0.0821,-0.0763 0.17683,-0.16296 0.0947,-0.0867 0.21382,-0.19628 0.32991,-0.30759 0.1161,-0.1113 0.22845,-0.2237 0.31066,-0.31741 0.0411,-0.0469 0.0757,-0.0888 0.10015,-0.12788 0.0122,-0.0196 0.0216,-0.0384 0.029,-0.0618 0.007,-0.0234 0.0158,-0.0597 -0.008,-0.0997 -0.0122,-0.0207 -0.0357,-0.0385 -0.0573,-0.0461 -0.0215,-0.008 -0.0394,-0.007 -0.0545,-0.005 -0.0301,0.003 -0.0517,0.0125 -0.0741,0.0237 -0.0449,0.0226 -0.0919,0.0568 -0.14804,0.0998 -0.1122,0.0859 -0.25249,0.20844 -0.39475,0.33832 -0.14228,0.12987 -0.28703,0.26716 -0.4046,0.37826 -0.1176,0.11111 -0.21454,0.19996 -0.23961,0.21966 -1.65107,1.29698 -2.8117,3.28945 -4.19587,4.9103 -0.009,0.008 -0.0237,0.019 -0.0323,0.0264 -0.0395,0.0335 -0.0736,0.0618 -0.0978,0.0834 -0.0121,0.0108 -0.0209,0.0204 -0.0293,0.0288 -0.004,0.004 -0.009,0.008 -0.0134,0.0128 -0.003,0.003 -0.004,0.006 -0.008,0.0121 -0.001,0.003 -0.007,0.0103 -0.007,0.0106 -1.3e-4,2.7e-4 -0.007,0.0257 -0.008,0.0258 l 1.9e-4,0.001 c -1e-5,9e-5 -3.7e-4,0.0289 -3.6e-4,0.029 0,2e-5 0.003,0.006 0.004,0.008 -0.17003,0.18996 -0.30978,0.43295 -0.48998,0.60625 z m 1.84741,-1.9975 c 0.97898,-1.32581 1.9396,-2.66974 3.14285,-3.61494 0.0192,-0.0151 0.0699,-0.0638 0.10079,-0.0921 -0.83959,0.90097 -1.66266,1.89566 -2.46936,2.87518 -0.13701,0.1493 -0.27812,0.29685 -0.41522,0.44314 -0.11846,0.12638 -0.24244,0.2526 -0.35906,0.38872 z"
       style="color:#000000;font-style:normal;font-variant:normal;font-weight:normal;font-stretch:normal;font-size:medium;line-height:normal;font-family:sans-serif;font-variant-ligatures:normal;font-variant-position:normal;font-variant-caps:normal;font-variant-numeric:normal;font-variant-alternates:normal;font-feature-settings:normal;text-indent:0;text-align:start;text-decoration:none;text-decoration-line:none;text-decoration-style:solid;text-decoration-color:#000000;letter-spacing:normal;word-spacing:normal;text-transform:none;writing-mode:lr-tb;direction:ltr;text-orientation:mixed;dominant-baseline:auto;baseline-shift:baseline;text-anchor:start;white-space:normal;shape-padding:0;clip-rule:nonzero;display:inline;overflow:visible;visibility:visible;opacity:1;isolation:auto;mix-blend-mode:normal;color-interpolation:sRGB;color-interpolation-filters:linearRGB;solid-color:#000000;solid-opacity:1;vector-effect:none;fill:#4d301d;fill-opacity:1;fill-rule:nonzero;stroke:none;stroke-width:1.32845;stroke-linecap:round;stroke-linejoin:round;stroke-miterlimit:4;stroke-dasharray:none;stroke-dashoffset:0;stroke-opacity:1;paint-order:markers fill stroke;color-rendering:auto;image-rendering:auto;shape-rendering:auto;text-rendering:auto;enable-background:accumulate" />
    <path
       sodipodi:nodetypes="csccccccccccccccccccccccccccccccccccccccccccccccccccccccccccccccccccc"
       inkscape:connector-curvature="0"
       id="path2383"
       d="m 46.426588,114.8668 c -0.0087,0 -0.01809,0.002 -0.02871,0.005 -0.01063,0.003 -0.03081,0.0146 -0.03144,0.015 -6.29e-4,4.7e-4 -0.01755,0.016 -0.02324,0.0246 -0.0057,0.009 -0.0098,0.0171 -0.01231,0.0246 -0.0099,0.03 -0.0051,0.0459 -0.0027,0.0602 0.0048,0.0285 0.0134,0.0512 0.02461,0.0779 0.02241,0.0536 0.05551,0.11745 0.0916,0.1832 0.03609,0.0658 0.07525,0.13292 0.106641,0.18457 0.01569,0.0258 0.02979,0.047 0.04101,0.0643 0.0056,0.009 0.01048,0.0168 0.01504,0.0232 0.0046,0.007 0.005,0.009 0.01777,0.0219 0.458601,0.4586 0.868515,0.9594 1.3125,1.44375 0.04978,0.0543 0.32395,0.33488 0.542773,0.55918 0.523483,0.59937 1.048952,1.21566 1.524414,1.87031 -0.535637,-0.50046 -1.146419,-0.87536 -1.598242,-1.43145 C 47.641037,117.05172 46.9379,116.05 46.09983,115.15938 l -0.135352,0.12714 c 0.825994,0.8778 1.527571,1.87473 2.298242,2.82325 0.572748,0.70491 1.353113,1.06342 1.909961,1.71308 0.03114,0.0363 0.07954,0.0793 0.155859,0.14492 0.07632,0.0657 0.176428,0.14925 0.291212,0.24336 0.229565,0.18822 0.519922,0.4202 0.80664,0.64805 0.286718,0.22784 0.256928,0.48314 0.469523,0.6495 0.106297,0.0832 0.195186,0.15345 0.258399,0.20234 0.0316,0.0244 0.05722,0.0437 0.0752,0.0574 0.009,0.007 0.0163,0.0123 0.02188,0.0164 0.0028,0.002 0.0044,0.004 0.0069,0.006 0.0025,0.001 0.01462,0.008 0.01504,0.008 0.03877,0.0194 0.05746,0.0326 0.103906,0.0369 0.0058,5.4e-4 0.01221,0.002 0.02051,0.001 0.0083,-7e-4 0.02926,-0.008 0.03008,-0.008 8.4e-4,-3.4e-4 0.03643,-0.0267 0.03691,-0.0274 4.87e-4,-5.7e-4 0.02171,-0.043 0.02188,-0.0438 8e-5,-4.1e-4 0.0014,-0.0133 0.0014,-0.0191 -9e-6,-0.006 -6.46e-4,-0.0104 -0.0014,-0.0151 -0.0015,-0.009 -0.0032,-0.0174 -0.0055,-0.0232 -0.0045,-0.0117 -0.0092,-0.019 -0.01367,-0.026 -0.0359,-0.0555 -0.0885,-0.0989 -0.173633,-0.17363 -0.05038,-0.0442 -0.153293,-0.12489 -0.220117,-0.18047 -0.106141,-0.11059 -0.212442,-0.22028 -0.363671,-0.37598 -0.409808,-0.42192 -0.649462,-1.01893 -1.210539,-1.59149 -0.561077,-0.57257 -1.131928,-1.15373 -1.580469,-1.61191 -0.16132,-0.16479 -0.179599,-0.18601 -0.303515,-0.31309 -0.320586,-0.36686 -0.594941,-0.75825 -0.935157,-1.14707 -0.0335,-0.0383 -0.111506,-0.15242 -0.205078,-0.29121 -0.09357,-0.13879 -0.205988,-0.30545 -0.324023,-0.46758 -0.118035,-0.16212 -0.240888,-0.31891 -0.359571,-0.43887 -0.118682,-0.11995 -0.227467,-0.21601 -0.365039,-0.21601 z m 0.188672,0.31582 c 0.01916,0.0164 0.02366,0.01 0.04375,0.0301 0.106769,0.10792 0.226523,0.25866 0.341797,0.41699 0.06427,0.0883 0.119674,0.17151 0.179101,0.2584 -0.141022,-0.15519 -0.272859,-0.31512 -0.42246,-0.46484 0.0025,0.004 0.007,0.007 -0.0027,-0.003 -0.0024,-0.004 -0.0043,-0.009 -0.0082,-0.015 -0.0096,-0.0148 -0.02193,-0.0355 -0.03691,-0.0602 -0.02762,-0.0455 -0.0622,-0.1047 -0.09434,-0.16269 z m 3.290821,3.82949 c 0.162011,0.16525 0.297122,0.30334 0.460742,0.47032 0.313143,0.31956 0.564937,0.57875 0.849023,0.86953 -0.0689,-0.0542 -0.153153,-0.12099 -0.214648,-0.16953 -0.123016,-0.0971 -0.22748,-0.18128 -0.303516,-0.24336 -0.03802,-0.031 -0.06896,-0.0566 -0.09023,-0.0752 -0.01064,-0.009 -0.01954,-0.017 -0.02461,-0.0218 -0.207206,-0.31076 -0.461825,-0.54674 -0.676757,-0.82988 z"
       style="color:#000000;font-style:normal;font-variant:normal;font-weight:normal;font-stretch:normal;font-size:medium;line-height:normal;font-family:sans-serif;font-variant-ligatures:normal;font-variant-position:normal;font-variant-caps:normal;font-variant-numeric:normal;font-variant-alternates:normal;font-feature-settings:normal;text-indent:0;text-align:start;text-decoration:none;text-decoration-line:none;text-decoration-style:solid;text-decoration-color:#000000;letter-spacing:normal;word-spacing:normal;text-transform:none;writing-mode:lr-tb;direction:ltr;text-orientation:mixed;dominant-baseline:auto;baseline-shift:baseline;text-anchor:start;white-space:normal;shape-padding:0;clip-rule:nonzero;display:inline;overflow:visible;visibility:visible;opacity:1;isolation:auto;mix-blend-mode:normal;color-interpolation:sRGB;color-interpolation-filters:linearRGB;solid-color:#000000;solid-opacity:1;vector-effect:none;fill:#4d301d;fill-opacity:1;fill-rule:nonzero;stroke:none;stroke-width:1.32845;stroke-linecap:round;stroke-linejoin:round;stroke-miterlimit:4;stroke-dasharray:none;stroke-dashoffset:0;stroke-opacity:1;paint-order:markers fill stroke;color-rendering:auto;image-rendering:auto;shape-rendering:auto;text-rendering:auto;enable-background:accumulate" />
    <path
       inkscape:connector-curvature="0"
       id="path2401"
       d="m 52.064869,197.46444 c -0.09093,-0.007 -0.166407,0.0342 -0.266602,0.0916 -0.100193,0.0574 -0.216601,0.13832 -0.347265,0.23652 -0.261327,0.19641 -0.575069,0.46213 -0.88457,0.73692 -0.06433,0.0571 -0.07745,0.0767 -0.14082,0.13398 -0.243457,0.18268 -0.492918,0.35903 -0.72461,0.55234 -0.296542,0.24743 -0.475568,0.54333 -0.716406,0.80938 -0.408615,0.40146 -0.871505,0.7639 -1.28789,1.19766 -0.190533,0.19848 -0.284991,0.40352 -0.367774,0.59883 -0.02678,0.0632 -0.0708,0.12179 -0.09844,0.1832 -0.09792,0.11003 -0.182789,0.21695 -0.288477,0.32539 -0.283054,0.29041 -0.490574,0.62756 -0.792968,0.84766 -0.08037,0.0585 -0.169093,0.1265 -0.246093,0.17773 -0.06103,0.0283 -0.111358,0.0376 -0.169532,0.0861 -0.0041,0.004 -0.0093,0.007 -0.01641,0.0164 -0.0036,0.005 -0.01219,0.0202 -0.01231,0.0205 -5.6e-5,1.3e-4 -0.0055,0.019 -0.0055,0.0191 -2.2e-5,1.2e-4 -1.3e-5,0.0286 0,0.0287 1.3e-5,10e-5 0.0095,0.0314 0.0096,0.0314 4.6e-5,9e-5 0.01906,0.0246 0.01914,0.0246 1.55e-4,1.4e-4 0.03527,0.019 0.03555,0.0191 2.77e-4,8e-5 0.01552,0.004 0.02051,0.004 0.005,3.4e-4 0.0091,1.6e-4 0.01231,0 0.02539,-0.001 0.03015,-0.005 0.04101,-0.008 0.02173,-0.006 0.0432,-0.0148 0.05742,-0.0205 0.03966,-0.0157 0.0624,-0.0464 0.0998,-0.0711 0.0938,-0.0422 0.188484,-0.0858 0.296679,-0.14766 -0.0076,0.0187 -0.02818,0.0293 -0.03008,0.0533 -2.66e-4,0.003 -0.0015,0.006 -0.0014,0.0109 1.51e-4,0.005 0.0027,0.0174 0.0027,0.0178 8.4e-5,4e-4 0.0081,0.023 0.0082,0.0232 1.45e-4,2.8e-4 0.0244,0.0299 0.02461,0.0301 2.05e-4,1.7e-4 0.03665,0.0177 0.03691,0.0178 2.6e-4,6e-5 0.0325,0.001 0.03281,0.001 3.12e-4,-4e-5 0.02015,-0.006 0.02051,-0.006 3.61e-4,-1.3e-4 0.01028,-0.004 0.01367,-0.006 0.0271,-0.015 0.02856,-0.0226 0.03555,-0.0301 0.01397,-0.0149 0.03146,-0.0314 0.02324,-0.0246 v -0.001 c 0.01875,-0.0157 0.0817,-0.037 0.154492,-0.0561 0.07279,-0.0191 0.155607,-0.0359 0.225587,-0.0943 0.05893,-0.0491 0.09252,-0.108 0.105273,-0.16407 0.01275,-0.0561 0.0072,-0.10388 0.0041,-0.13945 -0.0031,-0.0356 -0.0031,-0.0575 0.0014,-0.0711 0.0043,-0.0132 0.0126,-0.0274 0.04922,-0.0506 9.8e-4,-6.4e-4 3.18e-4,-7e-4 0.0014,-0.001 0.006,-0.007 0.02072,-0.0174 0.02598,-0.0246 0.0013,-0.001 0.0029,-0.004 0.0041,-0.006 0.337304,-0.22454 0.560789,-0.5729 0.810743,-0.81621 0.61144,-0.59518 1.210591,-1.21593 1.822461,-1.81152 0.565867,-0.55083 0.967787,-1.2172 1.592773,-1.6625 0.227609,-0.16217 0.466067,-0.33299 0.705469,-0.42793 h 0.0014 c -0.01747,0.007 -0.0053,0.002 0.0041,0 0.0094,-0.002 0.0228,-0.006 0.03691,-0.01 0.01411,-0.004 0.02915,-0.008 0.04785,-0.0178 0.0187,-0.01 0.05689,-0.0283 0.06152,-0.0861 v -0.001 c 0.0016,-0.0203 -10e-4,-0.0534 -0.02734,-0.0807 -0.02631,-0.0273 -0.06032,-0.0323 -0.0793,-0.0314 -0.03795,0.001 -0.05323,0.0125 -0.07109,0.0205 -0.03573,0.0162 -0.07775,0.0318 -0.06699,0.0301 -0.09181,0.0152 -0.180975,0.0715 -0.278907,0.11074 2e-6,-4e-5 2e-6,-0.001 0,-0.001 -1.24e-4,-1e-5 -0.0039,3e-5 -0.0055,0 -0.0061,-1.3e-4 -0.0083,-1.5e-4 -0.01094,0 -0.0031,1.8e-4 -0.0076,0.001 -0.01094,0.001 0,0 -0.0014,0.001 -0.0014,0.001 -1.92e-4,5e-5 -0.0011,-0.001 -0.0014,-0.001 -3.25e-4,-0.001 -9.8e-4,-0.013 -0.0014,-0.0109 -0.0037,0.0178 5.08e-4,-0.002 0.01641,-0.0205 0.0159,-0.0183 0.04012,-0.0412 0.06562,-0.0643 0.051,-0.0461 0.107324,-0.0903 0.136719,-0.11484 0.07071,-0.059 0.152815,-0.11264 0.216015,-0.15039 0.0632,-0.0377 0.106641,-0.0588 0.106641,-0.0588 z m -0.835352,0.89141 c -0.02416,0.0172 -0.05422,0.0296 -0.07793,0.0465 -0.663593,0.47281 -1.070899,1.15098 -1.614648,1.68027 -0.614585,0.59824 -1.21375,1.21764 -1.822461,1.81016 -0.03253,0.0316 -0.06196,0.061 -0.09297,0.0943 0.01519,-0.0224 0.03123,-0.0431 0.04649,-0.0656 0.840376,-0.68746 1.549574,-1.52874 2.212109,-2.35157 0.356516,-0.44277 0.841641,-0.81873 1.286524,-1.18672 0.01899,-0.01 0.04369,-0.0188 0.06289,-0.0274 z m -4.461132,4.7332 c -1.33e-4,6.5e-4 1.46e-4,0.002 0,0.003 -0.0046,0.0199 -0.01198,0.0368 -0.04649,0.0656 -0.0051,0.004 -0.03046,0.0101 -0.04101,0.0151 0.03378,-0.0303 0.05399,-0.0542 0.0875,-0.0834 z"
       style="color:#000000;font-style:normal;font-variant:normal;font-weight:normal;font-stretch:normal;font-size:medium;line-height:normal;font-family:sans-serif;font-variant-ligatures:normal;font-variant-position:normal;font-variant-caps:normal;font-variant-numeric:normal;font-variant-alternates:normal;font-feature-settings:normal;text-indent:0;text-align:start;text-decoration:none;text-decoration-line:none;text-decoration-style:solid;text-decoration-color:#000000;letter-spacing:normal;word-spacing:normal;text-transform:none;writing-mode:lr-tb;direction:ltr;text-orientation:mixed;dominant-baseline:auto;baseline-shift:baseline;text-anchor:start;white-space:normal;shape-padding:0;clip-rule:nonzero;display:inline;overflow:visible;visibility:visible;opacity:1;isolation:auto;mix-blend-mode:normal;color-interpolation:sRGB;color-interpolation-filters:linearRGB;solid-color:#000000;solid-opacity:1;vector-effect:none;fill:#4d301d;fill-opacity:1;fill-rule:nonzero;stroke:none;stroke-width:1.32845;stroke-linecap:round;stroke-linejoin:round;stroke-miterlimit:4;stroke-dasharray:none;stroke-dashoffset:0;stroke-opacity:1;paint-order:markers fill stroke;color-rendering:auto;image-rendering:auto;shape-rendering:auto;text-rendering:auto;enable-background:accumulate" />
    <path
       sodipodi:nodetypes="ccccccccccsccccccccccsccccsccccscccccccccccccccccccccccccccccccccccccsccccc"
       inkscape:connector-curvature="0"
       id="path2621"
       d="m 113.79308,135.12761 c -0.18624,0.001 -0.37257,0.005 -0.55888,0.01 -3.57713,0.0939 -7.1619,0.79454 -10.56845,1.97688 -1.62174,0.56288 -3.210508,1.23489 -4.751751,2.00293 -0.472183,-0.33459 -1.036434,-0.51467 -1.615146,-0.51547 v 3.5e-4 c -1.649861,10e-4 -2.940895,1.42175 -2.785361,3.06427 -2.298103,1.53186 -4.427016,3.29383 -6.318786,5.24913 -3.393202,-0.35463 -6.563464,-0.1891 -9.241968,1.418 -1.534206,0.92053 -2.744781,2.4255 -3.091388,4.11257 -0.346608,1.68706 0.07414,3.26917 0.726002,4.64974 0.401585,0.85051 1.048529,1.61877 1.62419,2.4106 -0.410129,-0.14234 -0.798668,-0.31059 -1.212535,-0.44855 -3.571865,-1.24093 -5.372837,4.16273 -1.770693,5.31281 1.510559,0.50351 2.998967,1.04818 4.471406,1.62455 -0.0341,1.21339 0.07721,2.4316 0.499555,3.65424 0.326288,0.94456 0.892897,1.93156 1.830742,2.67286 0.937845,0.7413 2.19143,1.12392 3.38801,1.12392 1.990452,0.0692 3.414922,-1.90294 2.723504,-3.77073 0.278577,0.1318 0.556688,0.2651 0.834884,0.39827 0.0389,0.075 0.07613,0.15007 0.116479,0.225 3.038202,5.64237 8.508302,8.82674 14.433586,9.97628 5.92529,1.14955 12.40838,0.42915 18.34467,-1.60103 19.32862,-6.2625 51.87172,-16.02073 9.32843,-38.36707 -11.55368,-5.57786 -10.63298,-5.2283 -16.4065,-5.17932 z m 0.24888,5.58302 c 4.60591,-0.005 9.03726,1.25652 12.7971,4.07639 24.45109,37.85339 5.43761,-7.33168 -23.63034,-0.84429 -0.27979,-0.23659 -0.55809,-0.47442 -0.83453,-0.71406 0.7015,-0.29947 1.41136,-0.57467 2.12773,-0.8233 3.15534,-1.09517 6.38862,-1.69139 9.54004,-1.69474 z m -16.920522,5.32113 c 0.192899,0.17325 0.384449,0.34862 0.578776,0.51981 -0.961963,0.57977 -1.887751,1.21055 -2.768357,1.88644 -0.273331,-0.0744 -0.547595,-0.15129 -0.819692,-0.22173 0.957701,-0.77672 1.963933,-1.50719 3.009273,-2.18452 z m 5.173172,4.32056 c 0.15701,0.12323 0.31463,0.24533 0.47206,0.36788 -0.10442,0.065 -0.20795,0.13197 -0.31181,0.19824 -0.23261,-0.094 -0.46615,-0.18695 -0.69815,-0.27999 0.17823,-0.0974 0.35725,-0.19316 0.5379,-0.28613 z m -19.522477,2.1932 c -0.511735,0.82016 -0.986493,1.66009 -1.416555,2.52021 -0.07365,0.14731 -0.149383,0.30896 -0.225722,0.47712 -0.198006,-0.30301 -0.360027,-0.58476 -0.479661,-0.83813 -0.328477,-0.69569 -0.316819,-1.06914 -0.303858,-1.13223 0.01296,-0.0631 -0.06979,-0.10188 0.486897,-0.43589 0.428225,-0.25694 1.091247,-0.46342 1.938899,-0.59108 z m 6.63422,0.35088 c 0.268726,0.0507 0.541725,0.10573 0.816798,0.16314 -1.938057,2.48376 -3.27697,5.25722 -3.738532,8.15894 -0.306433,-0.26145 -0.610998,-0.52509 -0.910124,-0.7922 -0.05384,-0.0481 -0.103981,-0.0968 -0.157356,-0.14506 0.411793,-1.3678 0.813806,-2.44586 0.9463,-2.71084 0.810798,-1.6216 1.840319,-3.1896 3.042914,-4.67398 z m 6.929034,1.79168 c 0.318936,0.0999 0.637686,0.20029 0.958237,0.30457 -2.604811,2.5146 -4.645255,5.39706 -5.231774,8.67948 -0.03468,-3.16287 1.653761,-6.32713 4.273537,-8.98405 z m 7.003913,2.46414 c 3.71557,1.4289 7.22684,2.93833 10.14812,4.2095 -0.63879,0.94375 -1.39316,1.72909 -2.18922,2.26917 -1.20219,0.8156 -2.35867,1.09456 -3.47664,0.88625 -1.11797,-0.20832 -2.41024,-0.91788 -3.80075,-2.91486 -2.11685,-3.15427 -6.819622,0.12099 -4.59512,3.20027 1.38071,1.98289 3.0428,3.41225 4.83278,4.30935 -0.30929,-0.0419 -0.62861,-0.0528 -0.93219,-0.10635 -2.76771,-0.48843 -4.378672,-1.29781 -5.125787,-1.95663 -0.747114,-0.65881 -0.851107,-1.04307 -0.81318,-1.82242 0.07585,-1.5587 2.01154,-4.74768 5.039327,-7.3349 0.29547,-0.25248 0.60172,-0.49807 0.91266,-0.73938 z m 3.56201,18.01765 c 0.002,-0.0737 0.001,-0.14527 -10e-4,-0.21378 26.03377,-17.01418 24.88495,1.30234 10e-4,0.21378 z"
       style="color:#000000;font-style:normal;font-variant:normal;font-weight:normal;font-stretch:normal;font-size:medium;line-height:normal;font-family:sans-serif;font-variant-ligatures:normal;font-variant-position:normal;font-variant-caps:normal;font-variant-numeric:normal;font-variant-alternates:normal;font-feature-settings:normal;text-indent:0;text-align:start;text-decoration:none;text-decoration-line:none;text-decoration-style:solid;text-decoration-color:#000000;letter-spacing:normal;word-spacing:normal;text-transform:none;writing-mode:lr-tb;direction:ltr;text-orientation:mixed;dominant-baseline:auto;baseline-shift:baseline;text-anchor:start;white-space:normal;shape-padding:0;clip-rule:nonzero;display:inline;overflow:visible;visibility:visible;opacity:1;isolation:auto;mix-blend-mode:normal;color-interpolation:sRGB;color-interpolation-filters:linearRGB;solid-color:#000000;solid-opacity:1;vector-effect:none;fill:#222222;fill-opacity:1;fill-rule:nonzero;stroke:none;stroke-width:1.32845;stroke-linecap:round;stroke-linejoin:round;stroke-miterlimit:4;stroke-dasharray:none;stroke-dashoffset:0;stroke-opacity:1;paint-order:markers fill stroke;color-rendering:auto;image-rendering:auto;shape-rendering:auto;text-rendering:auto;enable-background:accumulate" />
    <path
       sodipodi:nodetypes="cc"
       inkscape:connector-curvature="0"
       id="path2511"
       d="m 71.577583,128.0325 c -0.525137,21.29113 1.019245,44.01419 -1.488683,65.1299"
       style="fill:none;stroke:#ffffff;stroke-width:0.3255;stroke-linecap:round;stroke-linejoin:round;stroke-miterlimit:4;stroke-dasharray:none;stroke-opacity:1" />
    <path
       inkscape:connector-curvature="0"
       id="path2513"
       d="M 58.365516,137.70894 151.40824,136.9646"
       style="fill:none;stroke:#ffffff;stroke-width:0.3255;stroke-linecap:round;stroke-linejoin:round;stroke-miterlimit:4;stroke-dasharray:none;stroke-opacity:1" />
    <path
       sodipodi:nodetypes="ccscccsccccccccccc"
       d="m 80.504942,147.70787 -2.984981,-7.03577 c -0.03373,-0.10118 -0.134903,-0.17986 -0.247322,-0.17986 -0.112419,0 -0.213595,0.0787 -0.247321,0.17986 l -2.32707,6.96997 c -0.04496,0.13491 0.03373,0.28105 0.168629,0.32601 0.02248,0.0112 0.05621,0.0112 0.07869,0.0112 0.112419,0 0.213596,-0.0675 0.24732,-0.16863 l 0.843142,-2.54066 2.73377,-0.0977 1.240496,2.70417 c 0.04497,0.1349 0.191113,0.20235 0.326015,0.15738 0.134903,-0.045 0.213596,-0.19111 0.168629,-0.32601 z m -4.28904,-2.95496 1.056737,-3.18145 1.067979,3.18145 z"
       style="font-style:normal;font-variant:normal;font-weight:normal;font-stretch:normal;font-size:17.6389px;line-height:1.25;font-family:DCHBasisschrift;-inkscape-font-specification:'DCHBasisschrift, Normal';font-variant-ligatures:normal;font-variant-caps:normal;font-variant-numeric:normal;font-feature-settings:normal;text-align:start;letter-spacing:0px;word-spacing:0px;writing-mode:lr-tb;text-anchor:start;fill:#ffffff;fill-opacity:1;stroke:#ffffff;stroke-width:0.286929"
       id="path2580"
       inkscape:connector-curvature="0" />
    <path
       sodipodi:nodetypes="cccccssssccccsccccsccsss"
       d="m 89.73087,144.21202 c -0.146145,-0.14614 -0.314773,-0.2698 -0.494643,-0.37098 0.17987,-0.0899 0.348498,-0.2136 0.494643,-0.35975 0.370982,-0.35973 0.573336,-0.85437 0.573336,-1.38275 0.113448,-1.10491 -0.925722,-1.59454 -1.896937,-1.6063 h -1.393994 c -0.146144,0 -0.258563,0.12366 -0.258563,0.25856 v 6.96996 c 0,0.14615 0.112419,0.25857 0.258563,0.25857 h 1.405236 c 1.630164,-0.0407 1.896218,-0.98591 1.885695,-2.3958 0,-0.51713 -0.202354,-1.01177 -0.573336,-1.37151 z m -2.459031,-3.20266 h 1.13543 c 1.169156,0 1.37981,0.38094 1.37981,1.08918 -0.0785,0.73115 -0.935513,1.86166 -1.37981,1.87868 h -1.13543 z m 1.146672,6.45284 h -1.146672 v -2.96786 h 1.146672 c 1.157914,0 1.368568,0.38095 1.368568,1.08919 0,0.71948 -0.210654,1.87867 -1.368568,1.87867 z"
       style="font-style:normal;font-variant:normal;font-weight:normal;font-stretch:normal;font-size:17.6389px;line-height:1.25;font-family:DCHBasisschrift;-inkscape-font-specification:'DCHBasisschrift, Normal';font-variant-ligatures:normal;font-variant-caps:normal;font-variant-numeric:normal;font-feature-settings:normal;text-align:start;letter-spacing:0px;word-spacing:0px;writing-mode:lr-tb;text-anchor:start;fill:#ffffff;fill-opacity:1;stroke:#ffffff;stroke-width:0.286929"
       id="path2582"
       inkscape:connector-curvature="0" />
    <path
       sodipodi:nodetypes="cccccsccccccscccc"
       d="m 100.30485,147.97933 c 0.42719,0 0.91059,-0.0787 1.42771,-0.24732 0.13491,-0.0449 0.20236,-0.19111 0.15739,-0.32601 -0.0449,-0.13491 -0.19111,-0.21359 -0.32601,-0.16863 -1.03426,0.33726 -2.063531,0.5009 -2.648108,0.0737 -0.966802,-0.697 -1.067978,-2.23713 -1.067978,-2.86668 0,-1.16916 0.337255,-2.07975 0.966801,-2.6306 0.618304,-0.52836 1.692545,-0.90561 2.805495,-0.73699 0.14614,0.0112 0.28104,-0.0787 0.30353,-0.22483 0.0113,-0.1349 -0.0787,-0.26981 -0.22484,-0.29229 -0.62955,-0.0899 -1.21412,-0.0787 -1.731251,0.0337 -0.494643,0.11241 -1.13045,0.52338 -1.49019,0.83816 -0.753207,0.64078 -1.146673,1.68628 -1.146673,3.01282 0,0.66327 0.08994,1.29282 0.269806,1.80994 0.213596,0.65203 0.562094,1.14668 1.011769,1.47269 0.41595,0.30353 1.119208,0.25231 1.692549,0.25231 z"
       style="font-style:normal;font-variant:normal;font-weight:normal;font-stretch:normal;font-size:17.6389px;line-height:1.25;font-family:DCHBasisschrift;-inkscape-font-specification:'DCHBasisschrift, Normal';font-variant-ligatures:normal;font-variant-caps:normal;font-variant-numeric:normal;font-feature-settings:normal;text-align:start;letter-spacing:0px;word-spacing:0px;writing-mode:lr-tb;text-anchor:start;fill:#ffffff;fill-opacity:1;stroke:#ffffff;stroke-width:0.286929"
       id="path2584"
       inkscape:connector-curvature="0" />
    <path
       d="m 109.24672,147.97933 c 0.55085,0 1.00053,-0.0337 1.41648,-0.10118 0.53961,-0.10117 0.98929,-0.2698 1.37151,-0.50588 0.44968,-0.28104 0.79817,-0.6745 1.03426,-1.15791 0.25855,-0.52837 0.39346,-1.20289 0.39346,-1.97857 0,-0.77569 -0.13491,-1.43896 -0.39346,-1.96734 -0.23609,-0.4834 -0.58458,-0.87686 -1.02302,-1.1579 -0.38222,-0.23608 -0.8319,-0.40471 -1.36027,-0.50589 -0.41595,-0.0787 -0.86562,-0.11242 -1.41648,-0.11242 -0.0562,0 -0.12366,0 -0.19111,0 -0.14614,0.0112 -0.25856,0.12367 -0.25856,0.25856 v 6.96997 c 0,0.14614 0.11242,0.25856 0.25856,0.25856 0.0562,0 0.11242,0 0.16863,0 z m 0.0899,-6.96996 c 0.70824,0.0112 1.69752,0.0787 2.42825,0.5396 0.79817,0.50589 1.18039,1.38276 1.18039,2.68682 0,1.3153 -0.39347,2.19216 -1.19163,2.69805 -0.73073,0.46092 -1.70877,0.52837 -2.41701,0.52837 z"
       style="font-style:normal;font-variant:normal;font-weight:normal;font-stretch:normal;font-size:17.6389px;line-height:1.25;font-family:DCHBasisschrift;-inkscape-font-specification:'DCHBasisschrift, Normal';font-variant-ligatures:normal;font-variant-caps:normal;font-variant-numeric:normal;font-feature-settings:normal;text-align:start;letter-spacing:0px;word-spacing:0px;writing-mode:lr-tb;text-anchor:start;fill:#ffffff;fill-opacity:1;stroke:#ffffff;stroke-width:0.286929"
       id="path2586"
       inkscape:connector-curvature="0" />
    <path
       sodipodi:nodetypes="sccsssccssssssssss"
       d="m 123.7187,147.46221 h -2.8442 v -3.22842 h 2.58563 c 0.14615,0 0.25857,-0.11242 0.25857,-0.25856 0,-0.1349 -0.11242,-0.25856 -0.25857,-0.25856 h -2.58563 v -2.7073 l 2.74649,-0.13028 c 0.14598,-0.007 0.25857,-0.11242 0.25857,-0.25856 0,-0.1349 -0.11256,-0.26489 -0.25857,-0.25856 l -3.00506,0.13027 c -0.146,0.006 -0.25856,0.12367 -0.25856,0.25856 v 6.96997 c 0,0.14614 0.11242,0.25856 0.25856,0.25856 h 3.10277 c 0.14614,0 0.25856,-0.11242 0.25856,-0.25856 0,-0.1349 -0.11242,-0.25856 -0.25856,-0.25856 z"
       style="font-style:normal;font-variant:normal;font-weight:normal;font-stretch:normal;font-size:17.6389px;line-height:1.25;font-family:DCHBasisschrift;-inkscape-font-specification:'DCHBasisschrift, Normal';font-variant-ligatures:normal;font-variant-caps:normal;font-variant-numeric:normal;font-feature-settings:normal;text-align:start;letter-spacing:0px;word-spacing:0px;writing-mode:lr-tb;text-anchor:start;fill:#ffffff;fill-opacity:1;stroke:#ffffff;stroke-width:0.286929"
       id="path2588"
       inkscape:connector-curvature="0" />
    <path
       sodipodi:nodetypes="sssssscsssccsss"
       d="m 134.23351,140.49224 h -3.10275 c -0.14615,0 -0.26784,0.12398 -0.25857,0.25856 0.16526,2.39721 -0.0998,4.68683 -0.26055,7.00254 -0.0101,0.14579 0.11242,0.25856 0.25856,0.25856 0.1349,0 0.24691,-0.11289 0.25856,-0.25856 l 0.26056,-3.25899 2.48793,-0.0325 c 0.13488,-0.002 0.25855,-0.11242 0.25855,-0.25856 0,-0.13491 -0.12367,-0.26033 -0.25855,-0.25857 l -2.48793,0.0325 v -2.96785 h 2.84419 c 0.1349,0 0.25856,-0.11242 0.25856,-0.25857 0,-0.13489 -0.12366,-0.25856 -0.25856,-0.25856 z"
       style="font-style:normal;font-variant:normal;font-weight:normal;font-stretch:normal;font-size:17.6389px;line-height:1.25;font-family:DCHBasisschrift;-inkscape-font-specification:'DCHBasisschrift, Normal';font-variant-ligatures:normal;font-variant-caps:normal;font-variant-numeric:normal;font-feature-settings:normal;text-align:start;letter-spacing:0px;word-spacing:0px;writing-mode:lr-tb;text-anchor:start;fill:#ffffff;fill-opacity:1;stroke:#ffffff;stroke-width:0.286929"
       id="path2590"
       inkscape:connector-curvature="0" />
    <path
       sodipodi:nodetypes="csccccsssccccccsccccsccsccscc"
       d="m 145.46429,144.17264 c -0.13491,0 -0.25857,0.12366 -0.25857,0.25857 0,1.47268 -0.1577,2.42394 -0.97836,2.86237 -0.44967,0.24732 -0.95556,0.22484 -1.36027,-0.045 -0.32601,-0.21359 -0.58458,-0.56209 -0.74196,-1.02301 -0.19112,-0.53961 -0.25857,-1.20288 -0.19112,-1.95608 0.24733,-2.68682 1.61832,-3.19501 3.2484,-3.19501 0.1349,0 0.25856,-0.11242 0.25856,-0.25857 0,-0.13489 -0.12366,-0.25856 -0.25856,-0.25856 -0.33726,0 -0.73021,-0.0652 -1.69702,0.40702 -0.55085,0.25857 -1.00053,0.64079 -1.33778,1.11294 -0.40471,0.57335 -0.65203,1.29282 -0.73072,2.1472 -0.0787,0.83191 0,1.56263 0.21359,2.18093 0.32556,1.01023 1.71779,1.93351 2.51853,1.54447 0.42719,-0.23608 0.78693,-0.61831 1.05674,-1.13544 v 2.23714 c 0,0.82066 0.0896,1.28851 -0.36006,1.69322 -0.40471,0.37098 -0.95556,0.52836 -1.60759,0.46092 -0.14615,-0.0112 -0.2698,0.0899 -0.28105,0.23608 -0.0225,0.1349 0.0899,0.2698 0.22484,0.28104 0.11242,0.0112 0.22484,0.0112 0.32602,0.0112 0.2698,0 0.52836,-0.0337 0.76444,-0.10118 0.35974,-0.10117 0.66328,-0.2698 0.92184,-0.50589 0.56209,-0.50588 0.52868,-1.09739 0.52868,-2.07544 v -4.60916 0 -0.0112 c 0,-0.13491 -0.11242,-0.25857 -0.25856,-0.25857 z"
       style="font-style:normal;font-variant:normal;font-weight:normal;font-stretch:normal;font-size:17.6389px;line-height:1.25;font-family:DCHBasisschrift;-inkscape-font-specification:'DCHBasisschrift, Normal';font-variant-ligatures:normal;font-variant-caps:normal;font-variant-numeric:normal;font-feature-settings:normal;text-align:start;letter-spacing:0px;word-spacing:0px;writing-mode:lr-tb;text-anchor:start;fill:#ffffff;fill-opacity:1;stroke:#ffffff;stroke-width:0.286929"
       id="path2592"
       inkscape:connector-curvature="0" />
    <path
       sodipodi:nodetypes="ssccssssssccsssss"
       d="m 79.335524,154.5223 c -0.146144,0 -0.258563,0.12366 -0.258563,0.25856 l 0.04606,3.50278 -3.654704,-0.27636 v -3.22642 c 0,-0.1349 -0.123661,-0.25856 -0.258564,-0.25856 -0.146144,0 -0.258563,0.12366 -0.258563,0.25856 v 6.96996 c 0,0.14615 0.112419,0.25857 0.258563,0.25857 0.134903,0 0.258564,-0.11242 0.258564,-0.25857 v -3.22641 l 3.654704,0.27636 -0.04606,2.95005 c -0.0023,0.14613 0.112419,0.25857 0.258563,0.25857 0.134903,0 0.258564,-0.11242 0.258564,-0.25857 v -6.96996 c 0,-0.1349 -0.123661,-0.25856 -0.258564,-0.25856 z"
       style="font-style:normal;font-variant:normal;font-weight:normal;font-stretch:normal;font-size:17.6389px;line-height:1.25;font-family:DCHBasisschrift;-inkscape-font-specification:'DCHBasisschrift, Normal';font-variant-ligatures:normal;font-variant-caps:normal;font-variant-numeric:normal;font-feature-settings:normal;text-align:start;letter-spacing:0px;word-spacing:0px;writing-mode:lr-tb;text-anchor:start;fill:#ffffff;fill-opacity:1;stroke:#ffffff;stroke-width:0.286929"
       id="path2541"
       inkscape:connector-curvature="0" />
    <path
       d="m 88.693937,162.00939 c 0.146144,0 0.258563,-0.11242 0.258563,-0.25857 v -6.96996 c 0,-0.1349 -0.112419,-0.25856 -0.258563,-0.25856 -0.146144,0 -0.258563,0.12366 -0.258563,0.25856 v 6.96996 c 0,0.14615 0.112419,0.25857 0.258563,0.25857 z"
       style="font-style:normal;font-variant:normal;font-weight:normal;font-stretch:normal;font-size:17.6389px;line-height:1.25;font-family:DCHBasisschrift;-inkscape-font-specification:'DCHBasisschrift, Normal';font-variant-ligatures:normal;font-variant-caps:normal;font-variant-numeric:normal;font-feature-settings:normal;text-align:start;letter-spacing:0px;word-spacing:0px;writing-mode:lr-tb;text-anchor:start;fill:#ffffff;fill-opacity:1;stroke:#ffffff;stroke-width:0.286929"
       id="path2543"
       inkscape:connector-curvature="0" />
    <path
       sodipodi:nodetypes="ccccssssscccccc"
       d="m 98.851152,165.76418 c 0.247321,0 0.472158,-0.0225 0.674512,-0.0787 0.303531,-0.0899 0.584576,-0.23608 0.809416,-0.43844 0.26981,-0.24732 0.47216,-0.57333 0.60706,-0.9668 0.1349,-0.39347 0.22635,-0.86617 0.20236,-1.39399 l -0.36848,-8.1054 c -0.006,-0.13476 -0.11242,-0.25856 -0.25857,-0.25856 -0.1349,0 -0.26469,0.1238 -0.25856,0.25856 l 0.36848,8.1054 c 0.0413,0.90965 -0.22484,1.59634 -0.640788,1.97857 -0.337257,0.30353 -0.809416,0.42719 -1.393994,0.37098 -0.146144,-0.0112 -0.269805,0.0899 -0.281047,0.23608 -0.02248,0.1349 0.08993,0.26981 0.224837,0.28105 0.11242,0.0112 0.213596,0.0112 0.314774,0.0112 z"
       style="font-style:normal;font-variant:normal;font-weight:normal;font-stretch:normal;font-size:17.6389px;line-height:1.25;font-family:DCHBasisschrift;-inkscape-font-specification:'DCHBasisschrift, Normal';font-variant-ligatures:normal;font-variant-caps:normal;font-variant-numeric:normal;font-feature-settings:normal;text-align:start;letter-spacing:0px;word-spacing:0px;writing-mode:lr-tb;text-anchor:start;fill:#ffffff;fill-opacity:1;stroke:#ffffff;stroke-width:0.286929"
       id="path2545"
       inkscape:connector-curvature="0" />
    <path
       sodipodi:nodetypes="cccccssssssccsccc"
       d="m 109.95203,158.26585 3.36569,-2.9827 c 0.10118,-0.10117 0.10118,-0.25856 0,-0.35974 -0.10117,-0.10118 -0.2698,-0.10118 -0.37098,0 l -3.35445,2.97146 v -3.11401 c 0,-0.1349 -0.11242,-0.25856 -0.25857,-0.25856 -0.14614,0 -0.26168,0.12369 -0.25856,0.25856 0.057,2.4688 0.0324,4.88322 -0.27636,7.10814 -0.0201,0.14476 0.11242,0.25857 0.25856,0.25857 0.14615,0 0.24619,-0.11294 0.25857,-0.25857 l 0.27636,-3.25217 3.17021,3.29387 c 0.0562,0.0562 0.12366,0.0787 0.19111,0.0787 0.0675,0 0.12366,-0.0225 0.17987,-0.0675 0.10118,-0.10118 0.10118,-0.25857 0,-0.37099 z"
       style="font-style:normal;font-variant:normal;font-weight:normal;font-stretch:normal;font-size:17.6389px;line-height:1.25;font-family:DCHBasisschrift;-inkscape-font-specification:'DCHBasisschrift, Normal';font-variant-ligatures:normal;font-variant-caps:normal;font-variant-numeric:normal;font-feature-settings:normal;text-align:start;letter-spacing:0px;word-spacing:0px;writing-mode:lr-tb;text-anchor:start;fill:#ffffff;fill-opacity:1;stroke:#ffffff;stroke-width:0.286929"
       id="path2547"
       inkscape:connector-curvature="0" />
    <path
       sodipodi:nodetypes="ssscssssss"
       d="m 123.71869,162.00939 c 0.14615,0 0.25857,-0.11242 0.25857,-0.25857 0,-0.13489 -0.11242,-0.25855 -0.25857,-0.25855 h -2.84419 l -0.0921,-6.57323 c -0.002,-0.13489 -0.11242,-0.25856 -0.25857,-0.25856 -0.14614,0 -0.26038,0.12367 -0.25856,0.25856 l 0.0921,6.83178 c 0.002,0.14614 0.11242,0.25857 0.25856,0.25857 z"
       style="font-style:normal;font-variant:normal;font-weight:normal;font-stretch:normal;font-size:17.6389px;line-height:1.25;font-family:DCHBasisschrift;-inkscape-font-specification:'DCHBasisschrift, Normal';font-variant-ligatures:normal;font-variant-caps:normal;font-variant-numeric:normal;font-feature-settings:normal;text-align:start;letter-spacing:0px;word-spacing:0px;writing-mode:lr-tb;text-anchor:start;fill:#ffffff;fill-opacity:1;stroke:#ffffff;stroke-width:0.286929"
       id="path2549"
       inkscape:connector-curvature="0" />
    <path
       sodipodi:nodetypes="cscccccccccsscccsccccc"
       d="m 136.73819,161.96334 c 0.14615,0 0.2698,-0.11242 0.2698,-0.25857 0,-0.0112 -0.0112,-0.0337 -0.0112,-0.0562 l -2.14688,-6.92391 c -0.0225,-0.11242 -0.12366,-0.19111 -0.24731,-0.20235 -0.11242,0 -0.2136,0.0787 -0.24733,0.19111 l -1.59416,5.70104 -1.78964,-5.70104 c -0.0337,-0.11242 -0.13491,-0.19111 -0.24732,-0.19111 -0.12366,0.0112 -0.22484,0.0899 -0.24733,0.20235 l -1.68628,6.96997 c -0.0112,0.0225 -0.0112,0.045 -0.0112,0.0562 0,0.13491 0.11242,0.26981 0.25856,0.26981 0.11242,0 0.22484,-0.0899 0.25856,-0.20236 l 1.45021,-6.00316 1.75591,5.58862 c 0.0337,0.11242 0.13491,0.19112 0.25858,0.19112 0.11241,0 0.21359,-0.0787 0.24731,-0.19112 l 1.57168,-5.58862 1.9108,5.9571 c 0.0337,0.11242 0.13491,0.19112 0.24733,0.19112 z"
       style="font-style:normal;font-variant:normal;font-weight:normal;font-stretch:normal;font-size:17.6389px;line-height:1.25;font-family:DCHBasisschrift;-inkscape-font-specification:'DCHBasisschrift, Normal';font-variant-ligatures:normal;font-variant-caps:normal;font-variant-numeric:normal;font-feature-settings:normal;text-align:start;letter-spacing:0px;word-spacing:0px;writing-mode:lr-tb;text-anchor:start;fill:#ffffff;fill-opacity:1;stroke:#ffffff;stroke-width:0.286929"
       id="path2551"
       inkscape:connector-curvature="0" />
    <path
       sodipodi:nodetypes="ccsssscccsssscccc"
       d="m 145.79007,162.00935 c 0.0225,0 0.0449,0 0.0675,-0.0112 0.11242,-0.0225 0.18729,-0.12372 0.19112,-0.24733 l 0.2303,-7.43056 c 0.004,-0.13484 -0.12366,-0.25856 -0.25856,-0.25856 -0.14615,0 -0.25379,0.12374 -0.25857,0.25856 l -0.2303,6.48625 -3.6761,-6.14931 c -0.0562,-0.10117 -0.16863,-0.15739 -0.28105,-0.12366 -0.11242,0.0337 -0.1911,0.1349 -0.1911,0.24732 v 6.96996 c 0,0.14615 0.11242,0.25857 0.25856,0.25857 0.1349,0 0.25856,-0.11242 0.25856,-0.25857 v -6.02564 l 3.66486,6.16055 c 0.0449,0.0787 0.1349,0.12366 0.22484,0.12366 z"
       style="font-style:normal;font-variant:normal;font-weight:normal;font-stretch:normal;font-size:17.6389px;line-height:1.25;font-family:DCHBasisschrift;-inkscape-font-specification:'DCHBasisschrift, Normal';font-variant-ligatures:normal;font-variant-caps:normal;font-variant-numeric:normal;font-feature-settings:normal;text-align:start;letter-spacing:0px;word-spacing:0px;writing-mode:lr-tb;text-anchor:start;fill:#ffffff;fill-opacity:1;stroke:#ffffff;stroke-width:0.286929"
       id="path2553"
       inkscape:connector-curvature="0" />
    <path
       sodipodi:nodetypes="scscscscsscscscscs"
       d="m 77.272639,176.0375 c 0.820658,0 1.240202,-0.30135 1.757328,-1.03208 0.494644,-0.68575 0.764448,-1.60758 0.764448,-2.61936 0,-1.00052 -0.269804,-1.92236 -0.764448,-2.60811 -0.517126,-0.73072 -0.93667,-1.22755 -1.757328,-1.22755 -0.820657,0 -1.562621,0.40471 -2.090991,1.13543 -0.4834,0.68575 -0.753205,1.60759 -0.753205,2.60811 0,1.01178 0.269805,1.93361 0.753205,2.61936 0.52837,0.73073 1.270334,1.1242 2.090991,1.1242 z m 0,-6.96997 c 0.8319,0 1.037848,0.598 1.341379,1.01395 0.427191,0.59582 0.663271,1.41648 0.663271,2.30458 0,0.89936 -0.23608,1.72002 -0.663271,2.31584 -0.303531,0.41594 -0.509479,0.81846 -1.341379,0.81846 -0.831899,0 -1.37151,-0.49464 -1.663799,-0.91058 -0.427192,-0.59582 -0.66327,-1.41648 -0.66327,-2.31584 0,-0.8881 0.236078,-1.70876 0.66327,-2.30458 0.292289,-0.41595 0.8319,-0.92183 1.663799,-0.92183 z"
       style="font-style:normal;font-variant:normal;font-weight:normal;font-stretch:normal;font-size:17.6389px;line-height:1.25;font-family:DCHBasisschrift;-inkscape-font-specification:'DCHBasisschrift, Normal';font-variant-ligatures:normal;font-variant-caps:normal;font-variant-numeric:normal;font-feature-settings:normal;text-align:start;letter-spacing:0px;word-spacing:0px;writing-mode:lr-tb;text-anchor:start;fill:#ffffff;fill-opacity:1;stroke:#ffffff;stroke-width:0.286929"
       id="path2555"
       inkscape:connector-curvature="0" />
    <path
       sodipodi:nodetypes="ssssssscccscccscc"
       d="m 89.829526,168.9384 c -0.404707,-0.4047 -0.747744,-0.388 -1.422257,-0.388 h -1.393993 c -0.146145,0 -0.258564,0.12366 -0.258564,0.25856 v 6.96998 c 0,0.14614 0.112419,0.25856 0.258564,0.25856 0.134902,0 0.258563,-0.11242 0.258563,-0.25856 v -3.22643 h 1.13543 c 1.081695,-0.14123 1.981519,-1.26576 1.995593,-2.23135 0,-0.51713 -0.202354,-1.01178 -0.573336,-1.38276 z m -1.422257,3.09699 h -1.13543 v -2.96786 h 1.13543 c 1.169156,0 1.478466,0.54539 1.478466,1.25363 -0.08318,0.80936 -0.854013,1.69742 -1.478466,1.71423 z"
       style="font-style:normal;font-variant:normal;font-weight:normal;font-stretch:normal;font-size:17.6389px;line-height:1.25;font-family:DCHBasisschrift;-inkscape-font-specification:'DCHBasisschrift, Normal';font-variant-ligatures:normal;font-variant-caps:normal;font-variant-numeric:normal;font-feature-settings:normal;text-align:start;letter-spacing:0px;word-spacing:0px;writing-mode:lr-tb;text-anchor:start;fill:#ffffff;fill-opacity:1;stroke:#ffffff;stroke-width:0.286929"
       id="path2557"
       inkscape:connector-curvature="0" />
    <path
       sodipodi:nodetypes="ccsccccsccscccsccccsccccccs"
       d="m 101.33394,175.44167 c 0.16862,-0.15739 0.32601,-0.32601 0.47216,-0.52837 0.49464,-0.68575 0.76444,-1.60759 0.76444,-2.61936 0,-1.00052 -0.2698,-1.92236 -0.76444,-2.60811 -0.51713,-0.73072 -1.25909,-1.13543 -2.079752,-1.13543 -1.776938,0.33302 -2.55301,2.52778 -2.567837,3.97384 0,1.01177 0.269805,1.93361 0.753206,2.61936 0.528369,0.73073 0.993973,0.89389 1.814631,0.89389 0.415952,0 0.809412,-0.10117 1.169152,-0.29229 l 0.8319,0.79818 c 0.0562,0.045 0.12367,0.0675 0.17987,0.0675 0.0675,0 0.14615,-0.0225 0.19111,-0.0787 0.10118,-0.10118 0.10118,-0.26981 -0.0112,-0.37098 z m -1.607592,0.0787 c -0.8319,0 -1.09515,-0.26434 -1.38744,-0.68029 -0.427191,-0.59582 -0.66327,-1.41647 -0.66327,-2.31583 0.03751,-1.33926 0.967129,-3.42097 2.05071,-3.45671 0.831902,0 1.360262,0.50588 1.663802,0.92183 0.42719,0.59582 0.66327,1.41647 0.66327,2.30458 0,0.89936 -0.23608,1.72001 -0.66327,2.31583 -0.11242,0.15739 -0.25857,0.32602 -0.43844,0.47216 l -0.66327,-0.62954 c -0.11242,-0.10118 -0.2698,-0.10118 -0.37098,0 -0.101177,0.11242 -0.08994,0.2698 0.01124,0.37098 l 0.5621,0.53961 c -0.2136,0.10118 -0.47216,0.15738 -0.764454,0.15738 z"
       style="font-style:normal;font-variant:normal;font-weight:normal;font-stretch:normal;font-size:17.6389px;line-height:1.25;font-family:DCHBasisschrift;-inkscape-font-specification:'DCHBasisschrift, Normal';font-variant-ligatures:normal;font-variant-caps:normal;font-variant-numeric:normal;font-feature-settings:normal;text-align:start;letter-spacing:0px;word-spacing:0px;writing-mode:lr-tb;text-anchor:start;fill:#ffffff;fill-opacity:1;stroke:#ffffff;stroke-width:0.286929"
       id="path2559"
       inkscape:connector-curvature="0" />
    <path
       sodipodi:nodetypes="ccscccsssssccsccccsscsccc"
       d="M 112.38747,175.41482 110.133,172.5525 h 0.53961 c 0.67451,0 1.24785,-0.21359 1.65256,-0.61829 0.35973,-0.35975 0.56209,-0.85439 0.56209,-1.38276 0.0911,-1.15061 -1.16666,-1.77743 -2.30677,-1.72469 h -1.40524 c -0.14615,0 -0.26042,0.12368 -0.25857,0.25856 l 0.0921,6.69361 c 0.002,0.14612 0.11242,0.25856 0.25857,0.25856 0.14615,0 0.25857,-0.11242 0.25857,-0.25856 v -3.11401 l 2.49055,3.10964 c 0.0449,0.0562 0.11242,0.0787 0.17987,0.0787 0.0675,0 0.1349,-0.0225 0.17986,-0.0675 0.10118,-0.10118 0.10118,-0.25857 0.0112,-0.37099 z m -2.95365,-6.07093 h 1.14667 c 1.16915,0 1.78964,0.49932 1.78964,1.20756 0,0.39347 -0.14614,0.75321 -0.41595,1.02301 -0.30353,0.30353 -0.7532,0.46093 -1.28157,0.46093 h -1.13543 -0.0112 z"
       style="font-style:normal;font-variant:normal;font-weight:normal;font-stretch:normal;font-size:17.6389px;line-height:1.25;font-family:DCHBasisschrift;-inkscape-font-specification:'DCHBasisschrift, Normal';font-variant-ligatures:normal;font-variant-caps:normal;font-variant-numeric:normal;font-feature-settings:normal;text-align:start;letter-spacing:0px;word-spacing:0px;writing-mode:lr-tb;text-anchor:start;fill:#ffffff;fill-opacity:1;stroke:#ffffff;stroke-width:0.286929"
       id="path2561"
       inkscape:connector-curvature="0" />
    <path
       sodipodi:nodetypes="ccssccsccccccccsccsccccccc"
       d="m 121.30444,176.22091 c 0.14616,0 0.2923,0 0.4272,-0.0112 0.71948,-0.0562 1.40852,-0.43156 1.79074,-0.76882 0.38222,-0.33726 0.58458,-0.80941 0.58458,-1.40523 0,-0.52837 -0.20236,-0.96681 -0.60706,-1.34903 -0.33726,-0.31478 -0.78694,-0.53962 -1.21413,-0.77569 -0.82065,-0.43843 -1.54014,-0.82065 -1.54014,-1.6638 0,-0.33725 0.10118,-0.58457 0.30353,-0.77569 0.59582,-0.53961 1.84148,-0.49682 2.41482,-0.42938 h 0.0112 c 0.14615,0.0112 0.26981,-0.0899 0.28105,-0.23607 0.0112,-0.14615 -0.0899,-0.26981 -0.22484,-0.28105 h -0.0225 c -0.31478,-0.0337 -0.84314,-0.0899 -1.3715,-0.0562 -0.67452,0.0449 -1.09953,0.31696 -1.42554,0.62049 -0.32602,0.29229 -0.48341,0.67451 -0.48341,1.15791 0,0.52837 0.20236,0.96681 0.60707,1.34903 0.33726,0.31477 0.78693,0.55085 1.21412,0.77568 0.82066,0.43844 1.54014,0.82066 1.54014,1.66381 0,0.43843 -0.13491,0.77569 -0.41595,1.01177 -0.29229,0.25856 -0.88014,0.60019 -1.47597,0.64515 -0.39346,0.0337 -0.84314,0.0112 -1.3153,-0.0562 -0.1349,-0.0112 -0.2698,0.0899 -0.29229,0.22484 -0.0112,0.14614 0.0787,0.26981 0.22484,0.2923 0.33726,0.0449 0.67451,0.0675 0.98929,0.0675 z"
       style="font-style:normal;font-variant:normal;font-weight:normal;font-stretch:normal;font-size:17.6389px;line-height:1.25;font-family:DCHBasisschrift;-inkscape-font-specification:'DCHBasisschrift, Normal';font-variant-ligatures:normal;font-variant-caps:normal;font-variant-numeric:normal;font-feature-settings:normal;text-align:start;letter-spacing:0px;word-spacing:0px;writing-mode:lr-tb;text-anchor:start;fill:#ffffff;fill-opacity:1;stroke:#ffffff;stroke-width:0.286929"
       id="path2563"
       inkscape:connector-curvature="0" />
    <path
       sodipodi:nodetypes="ssssccsssccsss"
       d="m 134.72622,168.73464 -4.12578,-0.18424 c -0.14599,-0.006 -0.25855,0.12366 -0.25855,0.25856 0,0.14615 0.11241,0.25857 0.25855,0.25857 h 1.7987 v 0.0112 6.70016 c 0,0.14614 0.12367,0.25856 0.25857,0.25856 0.14614,0 0.25856,-0.11242 0.25856,-0.25856 v -6.70016 -0.0112 l 1.80995,0.18424 c 0.13421,0.0137 0.25856,-0.11242 0.25856,-0.25857 0,-0.1349 -0.12379,-0.25254 -0.25856,-0.25856 z"
       style="font-style:normal;font-variant:normal;font-weight:normal;font-stretch:normal;font-size:17.6389px;line-height:1.25;font-family:DCHBasisschrift;-inkscape-font-specification:'DCHBasisschrift, Normal';font-variant-ligatures:normal;font-variant-caps:normal;font-variant-numeric:normal;font-feature-settings:normal;text-align:start;letter-spacing:0px;word-spacing:0px;writing-mode:lr-tb;text-anchor:start;fill:#ffffff;fill-opacity:1;stroke:#ffffff;stroke-width:0.286929"
       id="path2565"
       inkscape:connector-curvature="0" />
    <path
       sodipodi:nodetypes="sssscssccsscsccsssss"
       d="m 145.78629,168.5504 c -0.1349,0 -0.25856,0.12366 -0.25856,0.25856 v 1.4502 c 0,3.29388 -0.87686,5.2612 -2.34955,5.2612 -0.41595,0 -0.71948,-0.14614 -0.93308,-0.47215 -0.21359,-0.31477 -0.30258,-0.7874 -0.32601,-1.37151 l -0.18424,-4.59138 c -0.006,-0.13479 -0.11242,-0.25856 -0.25856,-0.25856 v 0 c -0.13491,0 -0.26399,0.12377 -0.25857,0.25856 l 0.18424,4.59138 c 0.0275,0.6852 0.14615,1.24784 0.40471,1.65256 0.31477,0.47215 0.78692,0.70823 1.37151,0.70823 0.60706,0 1.47269,-0.25856 2.10223,-1.49517 0.0899,-0.17987 0.17987,-0.37098 0.24732,-0.58457 v 1.82118 c 0,0.14615 0.12366,0.25856 0.25856,0.25856 0.14614,0 0.25856,-0.11241 0.25856,-0.25856 v -6.96997 c 0,-0.1349 -0.11242,-0.25856 -0.25856,-0.25856 z"
       style="font-style:normal;font-variant:normal;font-weight:normal;font-stretch:normal;font-size:17.6389px;line-height:1.25;font-family:DCHBasisschrift;-inkscape-font-specification:'DCHBasisschrift, Normal';font-variant-ligatures:normal;font-variant-caps:normal;font-variant-numeric:normal;font-feature-settings:normal;text-align:start;letter-spacing:0px;word-spacing:0px;writing-mode:lr-tb;text-anchor:start;fill:#ffffff;fill-opacity:1;stroke:#ffffff;stroke-width:0.286929"
       id="path2567"
       inkscape:connector-curvature="0" />
    <path
       sodipodi:nodetypes="scccccccccs"
       d="m 77.278261,190.06089 c 0.101177,0 0.202354,-0.0675 0.236079,-0.16862 0.7462,-2.30159 1.284482,-4.64476 2.60343,-6.83179 0.04497,-0.13491 -0.02248,-0.28105 -0.157386,-0.32602 -0.134903,-0.0562 -0.281047,0.0225 -0.326015,0.15739 -1.08818,1.65517 -1.752659,3.83997 -2.356108,6.10106 l -2.090991,-6.23924 c -0.04496,-0.1349 -0.191112,-0.2136 -0.326014,-0.15739 -0.134902,0.0449 -0.202354,0.19111 -0.157386,0.32602 l 2.327069,6.96997 c 0.03373,0.10117 0.134903,0.16862 0.247322,0.16862 z"
       style="font-style:normal;font-variant:normal;font-weight:normal;font-stretch:normal;font-size:17.6389px;line-height:1.25;font-family:DCHBasisschrift;-inkscape-font-specification:'DCHBasisschrift, Normal';font-variant-ligatures:normal;font-variant-caps:normal;font-variant-numeric:normal;font-feature-settings:normal;text-align:start;letter-spacing:0px;word-spacing:0px;writing-mode:lr-tb;text-anchor:start;fill:#ffffff;fill-opacity:1;stroke:#ffffff;stroke-width:0.286929"
       id="path2569"
       inkscape:connector-curvature="0" />
    <path
       sodipodi:nodetypes="ssccccccsccccccccccs"
       d="m 90.633241,190.06089 h 0.01124 c 0.112418,0 0.213595,-0.0787 0.247321,-0.19111 l 1.67504,-6.96997 c 0.03373,-0.14614 -0.04496,-0.28104 -0.191112,-0.31477 -0.134902,-0.0337 -0.281047,0.0562 -0.314773,0.19111 l -1.43896,6.00317 -1.905341,-5.32351 c -0.03373,-0.11242 -0.134903,-0.19112 -0.247321,-0.19112 -0.123661,0 -0.224838,0.0787 -0.247321,0.19112 l -1.444742,5.32351 -1.450202,-6.00317 c -0.03373,-0.1349 -0.168629,-0.22484 -0.314773,-0.19111 -0.134902,0.0337 -0.224838,0.16863 -0.191112,0.31477 l 1.686282,6.96997 c 0.02248,0.11242 0.123662,0.19111 0.247322,0.19111 0.112419,0.0112 0.224837,-0.0675 0.258563,-0.19111 l 1.455983,-5.37971 1.916582,5.37971 c 0.03373,0.11242 0.134903,0.19111 0.247322,0.19111 z"
       style="font-style:normal;font-variant:normal;font-weight:normal;font-stretch:normal;font-size:17.6389px;line-height:1.25;font-family:DCHBasisschrift;-inkscape-font-specification:'DCHBasisschrift, Normal';font-variant-ligatures:normal;font-variant-caps:normal;font-variant-numeric:normal;font-feature-settings:normal;text-align:start;letter-spacing:0px;word-spacing:0px;writing-mode:lr-tb;text-anchor:start;fill:#ffffff;fill-opacity:1;stroke:#ffffff;stroke-width:0.286929"
       id="path2571"
       inkscape:connector-curvature="0" />
    <path
       sodipodi:nodetypes="ccccccccccccscccscc"
       d="m 102.01424,189.67867 -1.98981,-3.36132 2.25492,-3.21191 c 0.0787,-0.12365 0.0337,-0.28105 -0.0899,-0.34849 -0.12366,-0.0787 -0.28104,-0.0337 -0.3485,0.0899 l -2.120025,2.96457 -1.832427,-3.10275 c -0.07869,-0.12367 -0.23608,-0.16864 -0.35974,-0.0899 -0.12366,0.0675 -0.157386,0.22484 -0.08994,0.34849 l 1.989814,3.35009 -1.989814,3.36132 c -0.06745,0.12366 -0.03373,0.28104 0.08994,0.3485 0.04496,0.0225 0.08993,0.0337 0.134902,0.0337 0.08994,0 0.168629,-0.0449 0.224838,-0.12366 l 1.832427,-3.114 1.843675,3.114 c 0.0449,0.0787 0.13489,0.12366 0.22483,0.12366 0.045,0 0.0899,-0.0112 0.1349,-0.0337 0.11242,-0.0675 0.1574,-0.22484 0.0899,-0.3485 z"
       style="font-style:normal;font-variant:normal;font-weight:normal;font-stretch:normal;font-size:17.6389px;line-height:1.25;font-family:DCHBasisschrift;-inkscape-font-specification:'DCHBasisschrift, Normal';font-variant-ligatures:normal;font-variant-caps:normal;font-variant-numeric:normal;font-feature-settings:normal;text-align:start;letter-spacing:0px;word-spacing:0px;writing-mode:lr-tb;text-anchor:start;fill:#ffffff;fill-opacity:1;stroke:#ffffff;stroke-width:0.286929"
       id="path2573"
       inkscape:connector-curvature="0" />
    <path
       sodipodi:nodetypes="ccsssscsssccsscsccsccccsccccc"
       d="m 113.75003,184.32862 v 0 -1.45019 c 0,-0.13491 -0.11242,-0.25858 -0.25857,-0.25858 -0.14613,0 -0.25855,0.12367 -0.25855,0.25858 v 1.45019 c 0,1.74249 -0.52369,3.10167 -0.9846,4.01226 -0.41596,0.79818 -0.96681,1.20288 -1.65256,1.20288 -1.0455,0 -1.27034,-0.98928 -1.27034,-1.83242 v -4.87897 c 0,-0.13491 -0.11242,-0.25858 -0.25856,-0.25858 v 0 c -0.14614,0 -0.25856,0.12367 -0.25856,0.25858 v 4.87897 c 0,0.697 0.14614,1.25909 0.41595,1.65255 0.30353,0.46092 0.77569,0.697 1.37151,0.697 0.60706,0 1.47268,-0.25856 2.11347,-1.48392 0.0899,-0.17988 0.16863,-0.38222 0.24733,-0.58458 v 2.94538 c 0,0.91058 -0.36302,2.01088 -0.77898,2.3931 -0.34849,0.30353 -0.80941,0.4272 -1.40523,0.37098 -0.13491,-0.0112 -0.26981,0.0899 -0.28105,0.23608 -0.0112,0.1349 0.0899,0.26981 0.23608,0.28105 0.10118,0.0112 0.2136,0.0112 0.31477,0.0112 0.23609,0 0.46093,-0.0225 0.67452,-0.0787 1.26296,-0.4196 1.73751,-2.07404 1.75701,-3.21377 l 0.27636,-6.59787 v -0.0112 z"
       style="font-style:normal;font-variant:normal;font-weight:normal;font-stretch:normal;font-size:17.6389px;line-height:1.25;font-family:DCHBasisschrift;-inkscape-font-specification:'DCHBasisschrift, Normal';font-variant-ligatures:normal;font-variant-caps:normal;font-variant-numeric:normal;font-feature-settings:normal;text-align:start;letter-spacing:0px;word-spacing:0px;writing-mode:lr-tb;text-anchor:start;fill:#ffffff;fill-opacity:1;stroke:#ffffff;stroke-width:0.286929"
       id="path2575"
       inkscape:connector-curvature="0" />
    <path
       sodipodi:nodetypes="scccsssscccssss"
       d="m 124.23018,189.54376 h -3.67609 l 3.90093,-6.5765 c 0.045,-0.0787 0.045,-0.17987 0,-0.25855 -0.045,-0.0787 -0.13493,-0.13712 -0.22484,-0.13492 l -3.75729,0.0921 c -0.14611,0.004 -0.25856,0.12367 -0.25856,0.25858 0,0.14614 0.11247,0.26262 0.25856,0.25856 l 3.30762,-0.0921 -3.90094,6.58774 c -0.0449,0.0787 -0.0449,0.17987 0,0.25856 0.045,0.0787 0.13491,0.12366 0.22484,0.12366 h 4.12577 c 0.14614,0 0.25856,-0.11242 0.25856,-0.25856 0,-0.1349 -0.11242,-0.25857 -0.25856,-0.25857 z"
       style="font-style:normal;font-variant:normal;font-weight:normal;font-stretch:normal;font-size:17.6389px;line-height:1.25;font-family:DCHBasisschrift;-inkscape-font-specification:'DCHBasisschrift, Normal';font-variant-ligatures:normal;font-variant-caps:normal;font-variant-numeric:normal;font-feature-settings:normal;text-align:start;letter-spacing:0px;word-spacing:0px;writing-mode:lr-tb;text-anchor:start;fill:#ffffff;fill-opacity:1;stroke:#ffffff;stroke-width:0.286929"
       id="path2577"
       inkscape:connector-curvature="0" />
    <rect
       ry="0"
       rx="0"
       y="141.80283"
       x="58.737686"
       height="5.5825634"
       width="9.8625278"
       id="rect2644"
       style="opacity:1;vector-effect:none;fill:none;fill-opacity:1;stroke:#ffffff;stroke-width:0.7;stroke-linecap:round;stroke-linejoin:round;stroke-miterlimit:4;stroke-dasharray:none;stroke-dashoffset:0;stroke-opacity:1;paint-order:markers fill stroke" />
    <path
       sodipodi:nodetypes="ccccc"
       inkscape:connector-curvature="0"
       id="rect2644-4"
       d="m 59.061635,155.7444 c 3.28751,0 6.575019,0 9.862529,0 0.03571,2.81356 -1.308176,4.24584 -2.605456,4.95641 -1.793055,0.96122 -3.554164,0.69203 -4.956043,-0.25906 -1.048019,-0.73537 -2.04117,-2.10609 -2.30103,-4.69735 z"
       style="opacity:1;vector-effect:none;fill:none;fill-opacity:1;stroke:#ffffff;stroke-width:0.7;stroke-linecap:round;stroke-linejoin:round;stroke-miterlimit:4;stroke-dasharray:none;stroke-dashoffset:0;stroke-opacity:1;paint-order:markers fill stroke" />
    <rect
       ry="0"
       rx="0"
       y="169.93321"
       x="58.666946"
       height="5.5825634"
       width="9.8625278"
       id="rect2644-7"
       style="opacity:1;vector-effect:none;fill:none;fill-opacity:1;stroke:#ffffff;stroke-width:0.7;stroke-linecap:round;stroke-linejoin:round;stroke-miterlimit:4;stroke-dasharray:none;stroke-dashoffset:0;stroke-opacity:1;paint-order:markers fill stroke" />
    <path
       sodipodi:nodetypes="cc"
       inkscape:connector-curvature="0"
       id="path2679"
       d="m 63.59821,170.08554 v 5.40218"
       style="opacity:1;vector-effect:none;fill:none;fill-opacity:1;stroke:#ffffff;stroke-width:0.7;stroke-linecap:round;stroke-linejoin:round;stroke-miterlimit:4;stroke-dasharray:none;stroke-dashoffset:0;stroke-opacity:1;paint-order:markers fill stroke" />
    <path
       sodipodi:nodetypes="cccccc"
       inkscape:connector-curvature="0"
       id="rect2644-9"
       d="m 58.666948,184.34146 h 9.862528 l -2.465631,5.58257 -2.465633,-5.55625 -2.465631,5.55625 z"
       style="opacity:1;vector-effect:none;fill:none;fill-opacity:1;stroke:#ffffff;stroke-width:0.7;stroke-linecap:round;stroke-linejoin:round;stroke-miterlimit:4;stroke-dasharray:none;stroke-dashoffset:0;stroke-opacity:1;paint-order:markers fill stroke" />
    <path
       sodipodi:nodetypes="cc"
       inkscape:connector-curvature="0"
       id="path2699"
       d="m 78.342561,128.81861 c -0.03985,1.56369 -0.138845,5.86902 -0.131243,6.98631"
       style="opacity:1;vector-effect:none;fill:none;fill-opacity:1;stroke:#ffffff;stroke-width:0.7;stroke-linecap:round;stroke-linejoin:round;stroke-miterlimit:4;stroke-dasharray:none;stroke-dashoffset:0;stroke-opacity:1;paint-order:markers fill stroke" />
    <path
       inkscape:connector-curvature="0"
       id="path2701"
       d="m 86.464418,128.40467 c 0.144364,1.92577 0.08465,3.91694 0.279129,5.8617 0.04332,0.43314 0.09304,1.7379 0.09304,1.30259 0,-0.18609 0,-0.37217 0,-0.55825"
       style="opacity:1;vector-effect:none;fill:none;fill-opacity:1;stroke:#ffffff;stroke-width:0.7;stroke-linecap:round;stroke-linejoin:round;stroke-miterlimit:4;stroke-dasharray:none;stroke-dashoffset:0;stroke-opacity:1;paint-order:markers fill stroke" />
    <path
       inkscape:connector-curvature="0"
       id="path2703"
       d="m 88.976572,128.40467 c 0,0.4342 0,0.86839 0,1.3026 0,1.33361 0,2.66722 0,4.00083 0,0.58473 -0.02135,1.19586 0.09304,1.76782 0.01924,0.0962 0.09304,0.3772 0.09304,0.27912 0,-0.18608 0,-0.37217 0,-0.55825"
       style="opacity:1;vector-effect:none;fill:none;fill-opacity:1;stroke:#ffffff;stroke-width:0.7;stroke-linecap:round;stroke-linejoin:round;stroke-miterlimit:4;stroke-dasharray:none;stroke-dashoffset:0;stroke-opacity:1;paint-order:markers fill stroke" />
    <path
       sodipodi:nodetypes="cc"
       inkscape:connector-curvature="0"
       id="path2699-4"
       d="m 97.588749,128.28194 c -0.03985,1.56369 -0.138845,5.86902 -0.131243,6.98631"
       style="opacity:1;vector-effect:none;fill:none;fill-opacity:1;stroke:#ffffff;stroke-width:0.7;stroke-linecap:round;stroke-linejoin:round;stroke-miterlimit:4;stroke-dasharray:none;stroke-dashoffset:0;stroke-opacity:1;paint-order:markers fill stroke" />
    <path
       inkscape:connector-curvature="0"
       id="path2701-2"
       d="m 99.413499,128.23842 c 0.144359,1.92577 0.08465,3.91694 0.279123,5.8617 0.04333,0.43314 0.09304,1.7379 0.09304,1.30259 0,-0.18609 0,-0.37217 0,-0.55825"
       style="opacity:1;vector-effect:none;fill:none;fill-opacity:1;stroke:#ffffff;stroke-width:0.7;stroke-linecap:round;stroke-linejoin:round;stroke-miterlimit:4;stroke-dasharray:none;stroke-dashoffset:0;stroke-opacity:1;paint-order:markers fill stroke" />
    <path
       inkscape:connector-curvature="0"
       id="path2703-1"
       d="m 101.92564,128.23842 c 0,0.4342 0,0.86839 0,1.3026 0,1.33361 0,2.66722 0,4.00083 0,0.58473 -0.0213,1.19586 0.093,1.76782 0.0192,0.0962 0.093,0.3772 0.093,0.27912 0,-0.18608 0,-0.37217 0,-0.55825"
       style="opacity:1;vector-effect:none;fill:none;fill-opacity:1;stroke:#ffffff;stroke-width:0.7;stroke-linecap:round;stroke-linejoin:round;stroke-miterlimit:4;stroke-dasharray:none;stroke-dashoffset:0;stroke-opacity:1;paint-order:markers fill stroke" />
    <path
       sodipodi:nodetypes="cccc"
       inkscape:connector-curvature="0"
       id="rect2644-40"
       d="m 111.46182,131.72803 3.25156,3.68102 h -6.50312 z"
       style="opacity:1;vector-effect:none;fill:none;fill-opacity:1;stroke:#ffffff;stroke-width:0.7;stroke-linecap:round;stroke-linejoin:round;stroke-miterlimit:4;stroke-dasharray:none;stroke-dashoffset:0;stroke-opacity:1;paint-order:markers fill stroke" />
    <path
       sodipodi:nodetypes="cccc"
       inkscape:connector-curvature="0"
       id="rect2644-40-0"
       d="m 122.93717,131.49542 3.25155,3.68101 h -6.50312 z"
       style="opacity:1;vector-effect:none;fill:none;fill-opacity:1;stroke:#ffffff;stroke-width:0.7;stroke-linecap:round;stroke-linejoin:round;stroke-miterlimit:4;stroke-dasharray:none;stroke-dashoffset:0;stroke-opacity:1;paint-order:markers fill stroke" />
    <path
       sodipodi:nodetypes="cccc"
       inkscape:connector-curvature="0"
       id="rect2644-40-03"
       d="m 132.70666,131.40238 3.25156,3.68101 h -6.50312 z"
       style="opacity:1;vector-effect:none;fill:none;fill-opacity:1;stroke:#ffffff;stroke-width:0.7;stroke-linecap:round;stroke-linejoin:round;stroke-miterlimit:4;stroke-dasharray:none;stroke-dashoffset:0;stroke-opacity:1;paint-order:markers fill stroke" />
    <path
       sodipodi:nodetypes="cccc"
       inkscape:connector-curvature="0"
       id="rect2644-40-8"
       d="m 144.337,131.03021 3.25156,3.68101 h -6.50312 z"
       style="opacity:1;vector-effect:none;fill:none;fill-opacity:1;stroke:#ffffff;stroke-width:0.7;stroke-linecap:round;stroke-linejoin:round;stroke-miterlimit:4;stroke-dasharray:none;stroke-dashoffset:0;stroke-opacity:1;paint-order:markers fill stroke" />
    <path
       sodipodi:nodetypes="cc"
       inkscape:connector-curvature="0"
       id="path2703-6"
       d="m 122.93822,127.88696 c 0,0.58472 -0.11439,2.96367 0,3.53563"
       style="opacity:1;vector-effect:none;fill:none;fill-opacity:1;stroke:#ffffff;stroke-width:0.7;stroke-linecap:round;stroke-linejoin:round;stroke-miterlimit:4;stroke-dasharray:none;stroke-dashoffset:0;stroke-opacity:1;paint-order:markers fill stroke" />
    <path
       inkscape:connector-curvature="0"
       d="m 134.80644,128.1085 c -0.63101,0.97537 -1.32083,1.91493 -1.88351,2.93293 -0.0319,0.061 -0.0617,0.12346 -0.0869,0.18767"
       style="opacity:1;vector-effect:none;fill:none;fill-opacity:1;stroke:#ffffff;stroke-width:0.730682;stroke-linecap:round;stroke-linejoin:round;stroke-miterlimit:4;stroke-dasharray:none;stroke-dashoffset:0;stroke-opacity:1;paint-order:markers fill stroke"
       id="path2703-6-2" />
    <path
       inkscape:connector-curvature="0"
       d="m 130.79004,128.1085 c 0.63101,0.97537 1.32083,1.91493 1.8835,2.93293 0.0319,0.061 0.0617,0.12346 0.0869,0.18767"
       style="opacity:1;vector-effect:none;fill:none;fill-opacity:1;stroke:#ffffff;stroke-width:0.730682;stroke-linecap:round;stroke-linejoin:round;stroke-miterlimit:4;stroke-dasharray:none;stroke-dashoffset:0;stroke-opacity:1;paint-order:markers fill stroke"
       id="path2703-6-2-6" />
    <path
       inkscape:connector-curvature="0"
       d="m 146.53128,127.8676 c -0.63101,0.97537 -1.32083,1.91493 -1.88351,2.93293 -0.0319,0.061 -0.0617,0.12346 -0.0869,0.18767"
       style="opacity:1;vector-effect:none;fill:none;fill-opacity:1;stroke:#ffffff;stroke-width:0.730682;stroke-linecap:round;stroke-linejoin:round;stroke-miterlimit:4;stroke-dasharray:none;stroke-dashoffset:0;stroke-opacity:1;paint-order:markers fill stroke"
       id="path2703-6-2-69" />
    <path
       inkscape:connector-curvature="0"
       d="m 141.86358,127.96065 c 0.63101,0.97536 1.32083,1.91493 1.8835,2.93292 0.0319,0.061 0.0617,0.12347 0.0869,0.18768"
       style="opacity:1;vector-effect:none;fill:none;fill-opacity:1;stroke:#ffffff;stroke-width:0.730682;stroke-linecap:round;stroke-linejoin:round;stroke-miterlimit:4;stroke-dasharray:none;stroke-dashoffset:0;stroke-opacity:1;paint-order:markers fill stroke"
       id="path2703-6-2-6-8" />
    <path
       sodipodi:nodetypes="cc"
       inkscape:connector-curvature="0"
       id="path2703-6-9"
       d="m 144.1777,126.72994 c 0,0.58473 -0.11439,3.70802 0,4.27998"
       style="opacity:1;vector-effect:none;fill:none;fill-opacity:1;stroke:#ffffff;stroke-width:0.7;stroke-linecap:round;stroke-linejoin:round;stroke-miterlimit:4;stroke-dasharray:none;stroke-dashoffset:0;stroke-opacity:1;paint-order:markers fill stroke" />
  </g>
</svg>
