<?xml version="1.0" encoding="UTF-8" standalone="no"?>
<svg
   xmlns:dc="http://purl.org/dc/elements/1.1/"
   xmlns:cc="http://creativecommons.org/ns#"
   xmlns:rdf="http://www.w3.org/1999/02/22-rdf-syntax-ns#"
   xmlns:svg="http://www.w3.org/2000/svg"
   xmlns="http://www.w3.org/2000/svg"
   xmlns:xlink="http://www.w3.org/1999/xlink"
   xmlns:sodipodi="http://sodipodi.sourceforge.net/DTD/sodipodi-0.dtd"
   xmlns:inkscape="http://www.inkscape.org/namespaces/inkscape"
   height="218.33858"
   width="188.55573"
   inkscape:version="1.0 (4035a4fb49, 2020-05-01)"
   sodipodi:docname="b06-vastusc.svg"
   xml:space="preserve"
   viewBox="0 0 188.55572 218.33858"
   y="0px"
   x="0px"
   id="圖層_1"
   version="1.1"><metadata
   id="metadata221"><rdf:RDF><cc:Work
       rdf:about=""><dc:format>image/svg+xml</dc:format><dc:type
         rdf:resource="http://purl.org/dc/dcmitype/StillImage" /><dc:title /></cc:Work></rdf:RDF></metadata><defs
   id="defs219">
	<defs
   id="defs55">
		<rect
   y="0"
   x="0"
   id="SVGID_3_"
   width="1228"
   height="449.79999" />
	</defs>
	<clipPath
   id="SVGID_4_">
		<use
   height="100%"
   width="100%"
   y="0"
   x="0"
   xlink:href="#SVGID_3_"
   style="overflow:visible"
   id="use57" />
	</clipPath>
	
	
	
	
	
	
	
	
	
	
	
	
	
<linearGradient
   gradientUnits="userSpaceOnUse"
   gradientTransform="matrix(2.7809127,0,0,0.35959417,55.892513,-485.64516)"
   xlink:href="#a"
   spreadMethod="repeat"
   y2="232.12668"
   y1="236.83119"
   x2="88.033997"
   x1="88.033997"
   id="d" /><linearGradient
   id="a"><stop
     id="stop2"
     offset="0" /><stop
     id="stop4"
     offset="1"
     stop-color="#fff" /></linearGradient><linearGradient
   gradientUnits="userSpaceOnUse"
   gradientTransform="matrix(0.39000644,0,0,2.5640603,55.892513,-485.64516)"
   xlink:href="#a"
   spreadMethod="repeat"
   y2="93.122879"
   y1="93.122879"
   x2="1087.3295"
   x1="1096.6199"
   id="e" /><clipPath
   id="SVGID_4_-2"><use
     height="100%"
     width="100%"
     y="0"
     x="0"
     xlink:href="#SVGID_3_"
     style="overflow:visible"
     id="use57-7" /></clipPath><clipPath
   id="SVGID_4_-3"><use
     height="100%"
     width="100%"
     y="0"
     x="0"
     xlink:href="#SVGID_3_"
     style="overflow:visible"
     id="use57-8" /></clipPath><clipPath
   id="clipPath1221"><use
     height="100%"
     width="100%"
     y="0"
     x="0"
     xlink:href="#SVGID_3_"
     style="overflow:visible"
     id="use1219" /></clipPath><clipPath
   id="SVGID_4_-1"><use
     height="100%"
     width="100%"
     y="0"
     x="0"
     xlink:href="#SVGID_3_"
     style="overflow:visible"
     id="use57-3" /></clipPath><clipPath
   id="clipPath1261"><use
     height="100%"
     width="100%"
     y="0"
     x="0"
     xlink:href="#SVGID_3_"
     style="overflow:visible"
     id="use1259" /></clipPath><clipPath
   id="clipPath1265"><use
     height="100%"
     width="100%"
     y="0"
     x="0"
     xlink:href="#SVGID_3_"
     style="overflow:visible"
     id="use1263" /></clipPath>
	<defs
   id="defs37">
		<rect
   y="0"
   x="0"
   id="SVGID_1_"
   width="1228"
   height="449.79999" />
	</defs>
	<clipPath
   id="SVGID_2_">
		<use
   height="100%"
   width="100%"
   y="0"
   x="0"
   xlink:href="#SVGID_1_"
   style="overflow:visible"
   id="use39" />
	</clipPath>
	
	
	
	
	
<clipPath
   id="SVGID_2_-4"><use
     height="100%"
     width="100%"
     y="0"
     x="0"
     xlink:href="#SVGID_1_"
     style="overflow:visible"
     id="use39-1" /></clipPath><linearGradient
   gradientUnits="userSpaceOnUse"
   gradientTransform="matrix(2.7809127,0,0,0.35959417,-366.74458,-481.80301)"
   xlink:href="#a"
   spreadMethod="repeat"
   y2="232.12668"
   y1="236.83119"
   x2="88.033997"
   x1="88.033997"
   id="d-3" /><linearGradient
   gradientUnits="userSpaceOnUse"
   gradientTransform="matrix(0.39000644,0,0,2.5640603,-366.74458,-481.80301)"
   xlink:href="#a"
   spreadMethod="repeat"
   y2="93.122879"
   y1="93.122879"
   x2="1087.3295"
   x1="1096.6199"
   id="e-9" /><linearGradient
   gradientUnits="userSpaceOnUse"
   gradientTransform="matrix(2.7809127,0,0,0.35959417,55.892533,33.515147)"
   xlink:href="#a"
   spreadMethod="repeat"
   y2="232.12668"
   y1="236.83119"
   x2="88.033997"
   x1="88.033997"
   id="d-2" /><linearGradient
   gradientUnits="userSpaceOnUse"
   gradientTransform="matrix(0.39000644,0,0,2.5640603,55.892533,33.515147)"
   xlink:href="#a"
   spreadMethod="repeat"
   y2="93.122879"
   y1="93.122879"
   x2="1087.3295"
   x1="1096.6199"
   id="e-8" /><linearGradient
   gradientUnits="userSpaceOnUse"
   gradientTransform="matrix(2.7809127,0,0,0.35959417,-1236.3524,-470.27654)"
   xlink:href="#a"
   spreadMethod="repeat"
   y2="232.12668"
   y1="236.83119"
   x2="88.033997"
   x1="88.033997"
   id="d-29" /><linearGradient
   gradientUnits="userSpaceOnUse"
   gradientTransform="matrix(0.39000644,0,0,2.5640603,-1236.3524,-470.27654)"
   xlink:href="#a"
   spreadMethod="repeat"
   y2="93.122879"
   y1="93.122879"
   x2="1087.3295"
   x1="1096.6199"
   id="e-7" /><linearGradient
   gradientUnits="userSpaceOnUse"
   gradientTransform="matrix(2.7809127,0,0,0.35959417,-1698.6917,-461.31151)"
   xlink:href="#a"
   spreadMethod="repeat"
   y2="232.12668"
   y1="236.83119"
   x2="88.033997"
   x1="88.033997"
   id="d-37" /><linearGradient
   gradientUnits="userSpaceOnUse"
   gradientTransform="matrix(0.39000644,0,0,2.5640603,-1698.6917,-461.31151)"
   xlink:href="#a"
   spreadMethod="repeat"
   y2="93.122879"
   y1="93.122879"
   x2="1087.3295"
   x1="1096.6199"
   id="e-87" /><clipPath
   id="SVGID_4_-5"><use
     height="100%"
     width="100%"
     y="0"
     x="0"
     xlink:href="#SVGID_3_"
     style="overflow:visible"
     id="use57-32" /></clipPath><clipPath
   id="clipPath7262"><use
     height="100%"
     width="100%"
     y="0"
     x="0"
     xlink:href="#SVGID_3_"
     style="overflow:visible"
     id="use7260" /></clipPath><clipPath
   id="SVGID_2_-9"><use
     height="100%"
     width="100%"
     y="0"
     x="0"
     xlink:href="#SVGID_1_"
     style="overflow:visible"
     id="use39-9" /></clipPath><clipPath
   id="SVGID_4_-36"><use
     height="100%"
     width="100%"
     y="0"
     x="0"
     xlink:href="#SVGID_3_"
     style="overflow:visible"
     id="use57-2" /></clipPath><clipPath
   id="clipPath7318"><use
     height="100%"
     width="100%"
     y="0"
     x="0"
     xlink:href="#SVGID_3_"
     style="overflow:visible"
     id="use7316" /></clipPath><clipPath
   id="clipPath7322"><use
     height="100%"
     width="100%"
     y="0"
     x="0"
     xlink:href="#SVGID_3_"
     style="overflow:visible"
     id="use7320" /></clipPath><clipPath
   id="SVGID_4_-9"><use
     height="100%"
     width="100%"
     y="0"
     x="0"
     xlink:href="#SVGID_3_"
     style="overflow:visible"
     id="use57-75" /></clipPath><clipPath
   id="clipPath7364"><use
     height="100%"
     width="100%"
     y="0"
     x="0"
     xlink:href="#SVGID_3_"
     style="overflow:visible"
     id="use7362" /></clipPath><clipPath
   id="clipPath7368"><use
     height="100%"
     width="100%"
     y="0"
     x="0"
     xlink:href="#SVGID_3_"
     style="overflow:visible"
     id="use7366" /></clipPath><clipPath
   id="SVGID_4_-99"><use
     height="100%"
     width="100%"
     y="0"
     x="0"
     xlink:href="#SVGID_3_"
     style="overflow:visible"
     id="use57-5" /></clipPath><clipPath
   id="SVGID_4_-6"><use
     height="100%"
     width="100%"
     y="0"
     x="0"
     xlink:href="#SVGID_3_"
     style="overflow:visible"
     id="use57-23" /></clipPath><clipPath
   id="SVGID_4_-20"><use
     height="100%"
     width="100%"
     y="0"
     x="0"
     xlink:href="#SVGID_3_"
     style="overflow:visible"
     id="use57-50" /></clipPath><clipPath
   id="SVGID_4_-4"><use
     height="100%"
     width="100%"
     y="0"
     x="0"
     xlink:href="#SVGID_3_"
     style="overflow:visible"
     id="use57-88" /></clipPath><clipPath
   id="clipPath7534"><use
     height="100%"
     width="100%"
     y="0"
     x="0"
     xlink:href="#SVGID_3_"
     style="overflow:visible"
     id="use7532" /></clipPath><clipPath
   id="clipPath7538"><use
     height="100%"
     width="100%"
     y="0"
     x="0"
     xlink:href="#SVGID_3_"
     style="overflow:visible"
     id="use7536" /></clipPath><clipPath
   id="SVGID_2_-7"><use
     height="100%"
     width="100%"
     y="0"
     x="0"
     xlink:href="#SVGID_1_"
     style="overflow:visible"
     id="use39-10" /></clipPath><clipPath
   id="SVGID_4_-7"><use
     height="100%"
     width="100%"
     y="0"
     x="0"
     xlink:href="#SVGID_3_"
     style="overflow:visible"
     id="use57-6" /></clipPath><clipPath
   id="clipPath7589"><use
     height="100%"
     width="100%"
     y="0"
     x="0"
     xlink:href="#SVGID_3_"
     style="overflow:visible"
     id="use7587" /></clipPath><clipPath
   id="SVGID_4_-8"><use
     height="100%"
     width="100%"
     y="0"
     x="0"
     xlink:href="#SVGID_3_"
     style="overflow:visible"
     id="use57-9" /></clipPath><clipPath
   id="clipPath7624"><use
     height="100%"
     width="100%"
     y="0"
     x="0"
     xlink:href="#SVGID_3_"
     style="overflow:visible"
     id="use7622" /></clipPath><clipPath
   id="SVGID_4_-44"><use
     height="100%"
     width="100%"
     y="0"
     x="0"
     xlink:href="#SVGID_3_"
     style="overflow:visible"
     id="use57-4" /></clipPath><clipPath
   id="clipPath7659"><use
     height="100%"
     width="100%"
     y="0"
     x="0"
     xlink:href="#SVGID_3_"
     style="overflow:visible"
     id="use7657" /></clipPath><clipPath
   id="clipPath7663"><use
     height="100%"
     width="100%"
     y="0"
     x="0"
     xlink:href="#SVGID_3_"
     style="overflow:visible"
     id="use7661" /></clipPath><clipPath
   id="SVGID_4_-440"><use
     height="100%"
     width="100%"
     y="0"
     x="0"
     xlink:href="#SVGID_3_"
     style="overflow:visible"
     id="use57-756" /></clipPath><clipPath
   id="clipPath7705"><use
     height="100%"
     width="100%"
     y="0"
     x="0"
     xlink:href="#SVGID_3_"
     style="overflow:visible"
     id="use7703" /></clipPath><clipPath
   id="clipPath7709"><use
     height="100%"
     width="100%"
     y="0"
     x="0"
     xlink:href="#SVGID_3_"
     style="overflow:visible"
     id="use7707" /></clipPath></defs><sodipodi:namedview
   inkscape:document-rotation="0"
   inkscape:current-layer="圖層_1"
   inkscape:window-maximized="1"
   inkscape:window-y="-8"
   inkscape:window-x="-8"
   inkscape:cy="387.30262"
   inkscape:cx="-2.1095185"
   inkscape:zoom="0.55211726"
   showgrid="false"
   id="namedview217"
   inkscape:window-height="1001"
   inkscape:window-width="1216"
   inkscape:pageshadow="2"
   inkscape:pageopacity="0"
   guidetolerance="10"
   gridtolerance="10"
   objecttolerance="10"
   borderopacity="1"
   bordercolor="#666666"
   pagecolor="#ffffff" />
<style
   id="style2"
   type="text/css">
	.st0{fill:none;stroke:#1A1A1A;stroke-miterlimit:10;}
	.st1{fill:none;stroke:#000000;stroke-miterlimit:10;}
	.st2{fill:none;stroke:#1A1A1A;stroke-width:2;stroke-miterlimit:10;}
	.st3{clip-path:url(#SVGID_2_);fill:none;stroke:#1A1A1A;stroke-width:2;stroke-miterlimit:10;}
	.st4{clip-path:url(#SVGID_2_);fill:#253138;}
	.st5{clip-path:url(#SVGID_4_);fill:none;stroke:#1A1A1A;stroke-width:2;stroke-miterlimit:10;}
</style>


















<g
   transform="matrix(0.5,0,0,0.5,-218.74793,-272.61872)"
   id="g94">
	<defs
   id="defs89">
		<rect
   y="0"
   x="0"
   height="449.79999"
   width="1228"
   id="SVGID_5_" />
	</defs>
	<clipPath
   id="SVGID_6_">
		<use
   height="100%"
   width="100%"
   y="0"
   x="0"
   id="use91"
   style="overflow:visible"
   xlink:href="#SVGID_5_" />
	</clipPath>
</g>




















<g
   transform="matrix(0.5,0,0,0.5,-216.93672,-272.61872)"
   id="g7795"><g
     transform="translate(377.98091,511.7223)"
     id="g2207"><path
       d="m 126.58,38.766 299.05,1.5823 2.374,386.87 -303.01,1.582 1.5822,-390.03 h -2e-5 z"
       id="path11-2"
       inkscape:connector-curvature="0"
       style="fill:#5f8dd3;fill-rule:evenodd;stroke:#000000;stroke-width:10;stroke-linejoin:round" /><path
       d="M 128.96,38.766 C 118.675,37.1837 70.415,43.5129 70.415,75.95 79.1175,107.596 133.707,65.665 134.498,55.38 135.289,45.095 128.96,37.975 128.96,38.766 Z"
       id="path13-6"
       inkscape:connector-curvature="0"
       style="fill:#12242b;fill-rule:evenodd;stroke:#000000;stroke-width:10;stroke-linejoin:round" /><path
       d="m 71.203,64.873 c -12.658,4.7468 -11.867,379.75 -7.1203,390.03 4.7468,10.285 3.9557,10.285 3.9557,10.285 l 3.1645,-390.82 1e-4,-9.4937 v -8e-6 z"
       id="path15-5"
       inkscape:connector-curvature="0"
       style="fill:#122466;fill-rule:evenodd;stroke:#000000;stroke-width:10;stroke-linejoin:round" /><path
       d="m 125.79,42.721 281.65,3.9557 c 0,0 -15.031,7.1202 -30.064,11.867 -11.076,6.3291 -25.316,18.987 -25.316,18.196 L 76.74,74.3663 c 0,0 3.9557,-11.867 19.778,-20.57 17.405,-10.285 28.481,-10.285 29.272,-11.076 h 4e-5 z"
       id="path17-6"
       style="fill:url(#d-2);fill-rule:evenodd;stroke:#000000;stroke-width:10;stroke-linejoin:round"
       inkscape:connector-curvature="0" /><path
       inkscape:connector-curvature="0"
       style="fill:url(#e-8);fill-rule:evenodd;stroke:#000000;stroke-width:9.905;stroke-linejoin:round"
       id="path21-6"
       d="m 408.23,45.886 v 380.6 c -0.79098,0.80624 -15.823,0 -27.69,8.0642 -11.076,4.8373 -22.943,24.997 -26.899,30.641 l -0.791,-389.47 c 0,0 21.361,-19.352 27.69,-20.159 6.329,-0.80631 28.482,-9.6762 27.69,-9.6763 v 1.9e-5 -1.9e-5 z" /><path
       style="fill:#5f8dd3;fill-rule:evenodd;stroke:#000000;stroke-width:10;stroke-linejoin:round"
       inkscape:connector-curvature="0"
       id="path25-4"
       d="m 71.202,75.158 299.05,1.5823 2.374,386.87 -303.01,1.582 1.5822,-390.03 h 4.6e-5 z" /><path
       style="fill-opacity:0.498;fill-rule:evenodd;stroke-width:10;stroke-linejoin:round"
       inkscape:connector-curvature="0"
       id="path27-5"
       d="m 167.72,458.86 c 0,0 184.92,0.61456 194.42,-5.7145 9.4937,-6.3291 0.2049,-253.78 0.2049,-253.78 0,0 31.646,264.24 -194.62,259.49 z" /></g><rect
     style="opacity:0.465;fill:#ffffff;fill-opacity:1;stroke:#200b13;stroke-width:4.09471;stroke-miterlimit:10;stroke-dasharray:none;stroke-dashoffset:0;stroke-opacity:1"
     id="rect1186-5-7-8"
     width="268.72745"
     height="81.871269"
     x="465.14655"
     y="664.43365"
     rx="16.99975"
     ry="16.198561" /><rect
     style="fill:none;stroke:#1a1a1a;stroke-width:1.69227;stroke-miterlimit:10"
     x="-160.26924"
     y="833.91119"
     transform="rotate(-45)"
     class="st2"
     width="35.876137"
     height="35.876137"
     id="rect30-5" /><polygon
     style="fill:none;stroke:#1a1a1a;stroke-width:1.29761;stroke-miterlimit:10;stroke-dasharray:none"
     id="polygon74-9-8-0"
     clip-path="url(#SVGID_4_)"
     points="353.2,262.1 353.2,252.1 340.2,252.1 340.2,262.1 330.2,262.1 330.2,275.1 340.2,275.1 340.2,285.1 353.2,285.1 353.2,275.1 363.2,275.1 363.2,262.1 "
     class="st5"
     transform="matrix(1.7491183,0,0,1.6688648,-42.485535,255.88704)" /><circle
     style="fill:none;stroke:#1a1a1a;stroke-width:1.57118;stroke-miterlimit:10;stroke-dasharray:none"
     id="circle42-4-6-6"
     clip-path="url(#SVGID_2_)"
     r="15"
     cy="77.300003"
     cx="685.20001"
     class="st3"
     transform="matrix(1.4002245,0,0,1.4002245,-333.30654,595.13195)" /><g
     id="g1247-1-6-0"
     transform="translate(-232.74721,438.42695)"><path
       class="st5"
       d="m 890.2,268.6 c 0,0 6.8,-10.2 22.1,0 15.3,10.2 23.9,-2.6 23.9,-2.6"
       clip-path="url(#SVGID_4_)"
       id="path76-0-5-5"
       inkscape:connector-curvature="0"
       style="fill:none;stroke:#1a1a1a;stroke-width:2;stroke-miterlimit:10" /><path
       class="st5"
       d="m 890.2,278.8 c 0,0 6.8,-10.2 22.1,0 15.3,10.2 23.9,-2.6 23.9,-2.6"
       clip-path="url(#SVGID_4_)"
       id="path78-7-8-9"
       inkscape:connector-curvature="0"
       style="fill:none;stroke:#1a1a1a;stroke-width:2;stroke-miterlimit:10" /><path
       class="st5"
       d="m 890.2,258.8 c 0,0 6.8,-10.2 22.1,0 15.3,10.2 23.9,-2.6 23.9,-2.6"
       clip-path="url(#SVGID_4_)"
       id="path80-3-4-3"
       inkscape:connector-curvature="0"
       style="fill:none;stroke:#1a1a1a;stroke-width:2;stroke-miterlimit:10" /></g></g></svg>
