<?xml version="1.0" encoding="UTF-8" standalone="no"?>
<svg
   xmlns:dc="http://purl.org/dc/elements/1.1/"
   xmlns:cc="http://creativecommons.org/ns#"
   xmlns:rdf="http://www.w3.org/1999/02/22-rdf-syntax-ns#"
   xmlns:svg="http://www.w3.org/2000/svg"
   xmlns="http://www.w3.org/2000/svg"
   xmlns:sodipodi="http://sodipodi.sourceforge.net/DTD/sodipodi-0.dtd"
   xmlns:inkscape="http://www.inkscape.org/namespaces/inkscape"
   sodipodi:docname="b08-tekst.svg"
   inkscape:version="1.0 (4035a4fb49, 2020-05-01)"
   inkscape:export-ydpi="164"
   inkscape:export-xdpi="164"
   id="svg8"
   version="1.1"
   viewBox="0 0 160.74998 121.1847"
   height="121.1847mm"
   width="160.74998mm">
  <defs
     id="defs2">
    <marker
       inkscape:isstock="true"
       style="overflow:visible"
       id="Arrow2Lend"
       refX="0"
       refY="0"
       orient="auto"
       inkscape:stockid="Arrow2Lend">
      <path
         transform="matrix(-1.1,0,0,-1.1,-1.1,0)"
         d="M 8.7185878,4.0337352 -2.2072895,0.01601326 8.7185884,-4.0017078 c -1.7454984,2.3720609 -1.7354408,5.6174519 -6e-7,8.035443 z"
         style="fill:#c50000;fill-opacity:1;fill-rule:evenodd;stroke:#c50000;stroke-width:0.625;stroke-linejoin:round;stroke-opacity:1"
         id="path1558" />
    </marker>
    <inkscape:path-effect
       lpeversion="0"
       only_selected="false"
       apply_with_weight="true"
       apply_no_weight="true"
       helper_size="0"
       steps="2"
       weight="33.333333"
       is_visible="true"
       id="path-effect1010"
       effect="bspline" />
    <inkscape:path-effect
       lpeversion="0"
       is_visible="true"
       id="path-effect1004"
       effect="spiro" />
    <inkscape:path-effect
       lpeversion="0"
       is_visible="true"
       id="path-effect1000"
       effect="spiro" />
    <inkscape:path-effect
       lpeversion="0"
       only_selected="false"
       apply_with_weight="true"
       apply_no_weight="true"
       helper_size="0"
       steps="2"
       weight="33.333333"
       is_visible="true"
       id="path-effect961"
       effect="bspline" />
    <inkscape:path-effect
       lpeversion="0"
       only_selected="false"
       apply_with_weight="true"
       apply_no_weight="true"
       helper_size="0"
       steps="2"
       weight="33.333333"
       is_visible="true"
       id="path-effect957"
       effect="bspline" />
    <inkscape:path-effect
       lpeversion="0"
       only_selected="false"
       apply_with_weight="true"
       apply_no_weight="true"
       helper_size="0"
       steps="2"
       weight="33.333333"
       is_visible="true"
       id="path-effect1010-3"
       effect="bspline" />
    <inkscape:path-effect
       lpeversion="0"
       only_selected="false"
       apply_with_weight="true"
       apply_no_weight="true"
       helper_size="0"
       steps="2"
       weight="33.333333"
       is_visible="true"
       id="path-effect1010-4"
       effect="bspline" />
    <inkscape:path-effect
       lpeversion="0"
       only_selected="false"
       apply_with_weight="true"
       apply_no_weight="true"
       helper_size="0"
       steps="2"
       weight="33.333333"
       is_visible="true"
       id="path-effect1010-9"
       effect="bspline" />
    <inkscape:path-effect
       lpeversion="0"
       only_selected="false"
       apply_with_weight="true"
       apply_no_weight="true"
       helper_size="0"
       steps="2"
       weight="33.333333"
       is_visible="true"
       id="path-effect1010-2"
       effect="bspline" />
    <marker
       inkscape:isstock="true"
       style="overflow:visible"
       id="Arrow2Mend-9-7"
       refX="0"
       refY="0"
       orient="auto"
       inkscape:stockid="Arrow2Mend">
      <path
         transform="scale(-0.6)"
         d="M 8.7185878,4.0337352 -2.2072895,0.01601326 8.7185884,-4.0017078 c -1.7454984,2.3720609 -1.7354408,5.6174519 -6e-7,8.035443 z"
         style="fill:#1a39a9;fill-opacity:1;fill-rule:evenodd;stroke:#1a39a9;stroke-width:0.625;stroke-linejoin:round;stroke-opacity:1"
         id="path1085-9-7"
         inkscape:connector-curvature="0" />
    </marker>
    <marker
       inkscape:isstock="true"
       style="overflow:visible"
       id="Arrow2Mend-9"
       refX="0"
       refY="0"
       orient="auto"
       inkscape:stockid="Arrow2Mend">
      <path
         transform="scale(-0.6)"
         d="M 8.7185878,4.0337352 -2.2072895,0.01601326 8.7185884,-4.0017078 c -1.7454984,2.3720609 -1.7354408,5.6174519 -6e-7,8.035443 z"
         style="fill:#1a39a9;fill-opacity:1;fill-rule:evenodd;stroke:#1a39a9;stroke-width:0.625;stroke-linejoin:round;stroke-opacity:1"
         id="path1085-9"
         inkscape:connector-curvature="0" />
    </marker>
    <marker
       inkscape:isstock="true"
       style="overflow:visible"
       id="Arrow2Mend"
       refX="0"
       refY="0"
       orient="auto"
       inkscape:stockid="Arrow2Mend">
      <path
         transform="scale(-0.6)"
         d="M 8.7185878,4.0337352 -2.2072895,0.01601326 8.7185884,-4.0017078 c -1.7454984,2.3720609 -1.7354408,5.6174519 -6e-7,8.035443 z"
         style="fill:#1a39a9;fill-opacity:1;fill-rule:evenodd;stroke:#1a39a9;stroke-width:0.625;stroke-linejoin:round;stroke-opacity:1"
         id="path1085"
         inkscape:connector-curvature="0" />
    </marker>
    <marker
       inkscape:isstock="true"
       style="overflow:visible"
       id="Arrow2Mend-9-7-3-8-5-1-5"
       refX="0"
       refY="0"
       orient="auto"
       inkscape:stockid="Arrow2Mend">
      <path
         transform="scale(-0.6)"
         d="M 8.7185878,4.0337352 -2.2072895,0.01601326 8.7185884,-4.0017078 c -1.7454984,2.3720609 -1.7354408,5.6174519 -6e-7,8.035443 z"
         style="fill:#1a39a9;fill-opacity:1;fill-rule:evenodd;stroke:#1a39a9;stroke-width:0.625;stroke-linejoin:round;stroke-opacity:1"
         id="path1085-9-7-0-6-5-1-3"
         inkscape:connector-curvature="0" />
    </marker>
    <marker
       inkscape:isstock="true"
       style="overflow:visible"
       id="Arrow2Mend-9-7-3-8-5-1"
       refX="0"
       refY="0"
       orient="auto"
       inkscape:stockid="Arrow2Mend">
      <path
         transform="scale(-0.6)"
         d="M 8.7185878,4.0337352 -2.2072895,0.01601326 8.7185884,-4.0017078 c -1.7454984,2.3720609 -1.7354408,5.6174519 -6e-7,8.035443 z"
         style="fill:#1a39a9;fill-opacity:1;fill-rule:evenodd;stroke:#1a39a9;stroke-width:0.625;stroke-linejoin:round;stroke-opacity:1"
         id="path1085-9-7-0-6-5-1"
         inkscape:connector-curvature="0" />
    </marker>
    <marker
       inkscape:isstock="true"
       style="overflow:visible"
       id="Arrow2Mend-9-7-3-8-5"
       refX="0"
       refY="0"
       orient="auto"
       inkscape:stockid="Arrow2Mend">
      <path
         transform="scale(-0.6)"
         d="M 8.7185878,4.0337352 -2.2072895,0.01601326 8.7185884,-4.0017078 c -1.7454984,2.3720609 -1.7354408,5.6174519 -6e-7,8.035443 z"
         style="fill:#1a39a9;fill-opacity:1;fill-rule:evenodd;stroke:#1a39a9;stroke-width:0.625;stroke-linejoin:round;stroke-opacity:1"
         id="path1085-9-7-0-6-5"
         inkscape:connector-curvature="0" />
    </marker>
    <marker
       inkscape:isstock="true"
       style="overflow:visible"
       id="Arrow2Mend-9-7-3"
       refX="0"
       refY="0"
       orient="auto"
       inkscape:stockid="Arrow2Mend">
      <path
         transform="scale(-0.6)"
         d="M 8.7185878,4.0337352 -2.2072895,0.01601326 8.7185884,-4.0017078 c -1.7454984,2.3720609 -1.7354408,5.6174519 -6e-7,8.035443 z"
         style="fill:#1a39a9;fill-opacity:1;fill-rule:evenodd;stroke:#1a39a9;stroke-width:0.625;stroke-linejoin:round;stroke-opacity:1"
         id="path1085-9-7-0"
         inkscape:connector-curvature="0" />
    </marker>
    <marker
       inkscape:isstock="true"
       style="overflow:visible"
       id="Arrow2Mend-9-7-3-8"
       refX="0"
       refY="0"
       orient="auto"
       inkscape:stockid="Arrow2Mend">
      <path
         transform="scale(-0.6)"
         d="M 8.7185878,4.0337352 -2.2072895,0.01601326 8.7185884,-4.0017078 c -1.7454984,2.3720609 -1.7354408,5.6174519 -6e-7,8.035443 z"
         style="fill:#1a39a9;fill-opacity:1;fill-rule:evenodd;stroke:#1a39a9;stroke-width:0.625;stroke-linejoin:round;stroke-opacity:1"
         id="path1085-9-7-0-6"
         inkscape:connector-curvature="0" />
    </marker>
    <marker
       inkscape:isstock="true"
       style="overflow:visible"
       id="Arrow2Mend-9-7-38"
       refX="0"
       refY="0"
       orient="auto"
       inkscape:stockid="Arrow2Mend">
      <path
         transform="scale(-0.6)"
         d="M 8.7185878,4.0337352 -2.2072895,0.01601326 8.7185884,-4.0017078 c -1.7454984,2.3720609 -1.7354408,5.6174519 -6e-7,8.035443 z"
         style="fill:#1a39a9;fill-opacity:1;fill-rule:evenodd;stroke:#1a39a9;stroke-width:0.625;stroke-linejoin:round;stroke-opacity:1"
         id="path1085-9-7-3"
         inkscape:connector-curvature="0" />
    </marker>
    <marker
       inkscape:isstock="true"
       style="overflow:visible"
       id="Arrow2Mend-9-2"
       refX="0"
       refY="0"
       orient="auto"
       inkscape:stockid="Arrow2Mend">
      <path
         transform="scale(-0.6)"
         d="M 8.7185878,4.0337352 -2.2072895,0.01601326 8.7185884,-4.0017078 c -1.7454984,2.3720609 -1.7354408,5.6174519 -6e-7,8.035443 z"
         style="fill:#1a39a9;fill-opacity:1;fill-rule:evenodd;stroke:#1a39a9;stroke-width:0.625;stroke-linejoin:round;stroke-opacity:1"
         id="path1085-9-5"
         inkscape:connector-curvature="0" />
    </marker>
    <marker
       inkscape:isstock="true"
       style="overflow:visible"
       id="Arrow2Mend-96"
       refX="0"
       refY="0"
       orient="auto"
       inkscape:stockid="Arrow2Mend">
      <path
         transform="scale(-0.6)"
         d="M 8.7185878,4.0337352 -2.2072895,0.01601326 8.7185884,-4.0017078 c -1.7454984,2.3720609 -1.7354408,5.6174519 -6e-7,8.035443 z"
         style="fill:#1a39a9;fill-opacity:1;fill-rule:evenodd;stroke:#1a39a9;stroke-width:0.625;stroke-linejoin:round;stroke-opacity:1"
         id="path1085-5"
         inkscape:connector-curvature="0" />
    </marker>
    <marker
       inkscape:isstock="true"
       style="overflow:visible"
       id="Arrow2Mend-9-7-3-8-5-1-5-7"
       refX="0"
       refY="0"
       orient="auto"
       inkscape:stockid="Arrow2Mend">
      <path
         transform="scale(-0.6)"
         d="M 8.7185878,4.0337352 -2.2072895,0.01601326 8.7185884,-4.0017078 c -1.7454984,2.3720609 -1.7354408,5.6174519 -6e-7,8.035443 z"
         style="fill:#1a39a9;fill-opacity:1;fill-rule:evenodd;stroke:#1a39a9;stroke-width:0.625;stroke-linejoin:round;stroke-opacity:1"
         id="path1085-9-7-0-6-5-1-3-1"
         inkscape:connector-curvature="0" />
    </marker>
    <marker
       inkscape:isstock="true"
       style="overflow:visible"
       id="Arrow2Mend-9-7-3-8-5-1-9"
       refX="0"
       refY="0"
       orient="auto"
       inkscape:stockid="Arrow2Mend">
      <path
         transform="scale(-0.6)"
         d="M 8.7185878,4.0337352 -2.2072895,0.01601326 8.7185884,-4.0017078 c -1.7454984,2.3720609 -1.7354408,5.6174519 -6e-7,8.035443 z"
         style="fill:#1a39a9;fill-opacity:1;fill-rule:evenodd;stroke:#1a39a9;stroke-width:0.625;stroke-linejoin:round;stroke-opacity:1"
         id="path1085-9-7-0-6-5-1-2"
         inkscape:connector-curvature="0" />
    </marker>
    <marker
       inkscape:isstock="true"
       style="overflow:visible"
       id="Arrow2Mend-9-7-3-8-5-8"
       refX="0"
       refY="0"
       orient="auto"
       inkscape:stockid="Arrow2Mend">
      <path
         transform="scale(-0.6)"
         d="M 8.7185878,4.0337352 -2.2072895,0.01601326 8.7185884,-4.0017078 c -1.7454984,2.3720609 -1.7354408,5.6174519 -6e-7,8.035443 z"
         style="fill:#1a39a9;fill-opacity:1;fill-rule:evenodd;stroke:#1a39a9;stroke-width:0.625;stroke-linejoin:round;stroke-opacity:1"
         id="path1085-9-7-0-6-5-5"
         inkscape:connector-curvature="0" />
    </marker>
    <marker
       inkscape:isstock="true"
       style="overflow:visible"
       id="Arrow2Mend-9-7-3-2"
       refX="0"
       refY="0"
       orient="auto"
       inkscape:stockid="Arrow2Mend">
      <path
         transform="scale(-0.6)"
         d="M 8.7185878,4.0337352 -2.2072895,0.01601326 8.7185884,-4.0017078 c -1.7454984,2.3720609 -1.7354408,5.6174519 -6e-7,8.035443 z"
         style="fill:#1a39a9;fill-opacity:1;fill-rule:evenodd;stroke:#1a39a9;stroke-width:0.625;stroke-linejoin:round;stroke-opacity:1"
         id="path1085-9-7-0-3"
         inkscape:connector-curvature="0" />
    </marker>
    <marker
       inkscape:isstock="true"
       style="overflow:visible"
       id="Arrow2Mend-9-7-3-8-9"
       refX="0"
       refY="0"
       orient="auto"
       inkscape:stockid="Arrow2Mend">
      <path
         transform="scale(-0.6)"
         d="M 8.7185878,4.0337352 -2.2072895,0.01601326 8.7185884,-4.0017078 c -1.7454984,2.3720609 -1.7354408,5.6174519 -6e-7,8.035443 z"
         style="fill:#1a39a9;fill-opacity:1;fill-rule:evenodd;stroke:#1a39a9;stroke-width:0.625;stroke-linejoin:round;stroke-opacity:1"
         id="path1085-9-7-0-6-1"
         inkscape:connector-curvature="0" />
    </marker>
    <marker
       inkscape:isstock="true"
       style="overflow:visible"
       id="Arrow2Lend-6"
       refX="0"
       refY="0"
       orient="auto"
       inkscape:stockid="Arrow2Lend">
      <path
         transform="matrix(-1.1,0,0,-1.1,-1.1,0)"
         d="M 8.7185878,4.0337352 -2.2072895,0.01601326 8.7185884,-4.0017078 c -1.7454984,2.3720609 -1.7354408,5.6174519 -6e-7,8.035443 z"
         style="fill:#c50000;fill-opacity:1;fill-rule:evenodd;stroke:#c50000;stroke-width:0.625;stroke-linejoin:round;stroke-opacity:1"
         id="path1558-6"
         inkscape:connector-curvature="0" />
    </marker>
    <marker
       inkscape:isstock="true"
       style="overflow:visible"
       id="Arrow2Lend-8"
       refX="0"
       refY="0"
       orient="auto"
       inkscape:stockid="Arrow2Lend">
      <path
         transform="matrix(-1.1,0,0,-1.1,-1.1,0)"
         d="M 8.7185878,4.0337352 -2.2072895,0.01601326 8.7185884,-4.0017078 c -1.7454984,2.3720609 -1.7354408,5.6174519 -6e-7,8.035443 z"
         style="fill:#c50000;fill-opacity:1;fill-rule:evenodd;stroke:#c50000;stroke-width:0.625;stroke-linejoin:round;stroke-opacity:1"
         id="path1558-7"
         inkscape:connector-curvature="0" />
    </marker>
    <marker
       inkscape:isstock="true"
       style="overflow:visible"
       id="Arrow2Lend-2"
       refX="0"
       refY="0"
       orient="auto"
       inkscape:stockid="Arrow2Lend">
      <path
         transform="matrix(-1.1,0,0,-1.1,-1.1,0)"
         d="M 8.7185878,4.0337352 -2.2072895,0.01601326 8.7185884,-4.0017078 c -1.7454984,2.3720609 -1.7354408,5.6174519 -6e-7,8.035443 z"
         style="fill:#c50000;fill-opacity:1;fill-rule:evenodd;stroke:#c50000;stroke-width:0.625;stroke-linejoin:round;stroke-opacity:1"
         id="path1558-3"
         inkscape:connector-curvature="0" />
    </marker>
    <marker
       inkscape:isstock="true"
       style="overflow:visible"
       id="Arrow2Lend-23"
       refX="0"
       refY="0"
       orient="auto"
       inkscape:stockid="Arrow2Lend">
      <path
         transform="matrix(-1.1,0,0,-1.1,-1.1,0)"
         d="M 8.7185878,4.0337352 -2.2072895,0.01601326 8.7185884,-4.0017078 c -1.7454984,2.3720609 -1.7354408,5.6174519 -6e-7,8.035443 z"
         style="fill:#c50000;fill-opacity:1;fill-rule:evenodd;stroke:#c50000;stroke-width:0.625;stroke-linejoin:round;stroke-opacity:1"
         id="path1558-65"
         inkscape:connector-curvature="0" />
    </marker>
    <marker
       inkscape:isstock="true"
       style="overflow:visible"
       id="Arrow2Lend-7"
       refX="0"
       refY="0"
       orient="auto"
       inkscape:stockid="Arrow2Lend">
      <path
         transform="matrix(-1.1,0,0,-1.1,-1.1,0)"
         d="M 8.7185878,4.0337352 -2.2072895,0.01601326 8.7185884,-4.0017078 c -1.7454984,2.3720609 -1.7354408,5.6174519 -6e-7,8.035443 z"
         style="fill:#c50000;fill-opacity:1;fill-rule:evenodd;stroke:#c50000;stroke-width:0.625;stroke-linejoin:round;stroke-opacity:1"
         id="path1558-4"
         inkscape:connector-curvature="0" />
    </marker>
    <marker
       inkscape:isstock="true"
       style="overflow:visible"
       id="Arrow2Lend-72"
       refX="0"
       refY="0"
       orient="auto"
       inkscape:stockid="Arrow2Lend">
      <path
         transform="matrix(-1.1,0,0,-1.1,-1.1,0)"
         d="M 8.7185878,4.0337352 -2.2072895,0.01601326 8.7185884,-4.0017078 c -1.7454984,2.3720609 -1.7354408,5.6174519 -6e-7,8.035443 z"
         style="fill:#c50000;fill-opacity:1;fill-rule:evenodd;stroke:#c50000;stroke-width:0.625;stroke-linejoin:round;stroke-opacity:1"
         id="path1558-2"
         inkscape:connector-curvature="0" />
    </marker>
    <marker
       inkscape:isstock="true"
       style="overflow:visible"
       id="Arrow2Lend-86"
       refX="0"
       refY="0"
       orient="auto"
       inkscape:stockid="Arrow2Lend">
      <path
         transform="matrix(-1.1,0,0,-1.1,-1.1,0)"
         d="M 8.7185878,4.0337352 -2.2072895,0.01601326 8.7185884,-4.0017078 c -1.7454984,2.3720609 -1.7354408,5.6174519 -6e-7,8.035443 z"
         style="fill:#c50000;fill-opacity:1;fill-rule:evenodd;stroke:#c50000;stroke-width:0.625;stroke-linejoin:round;stroke-opacity:1"
         id="path1558-47"
         inkscape:connector-curvature="0" />
    </marker>
  </defs>
  <sodipodi:namedview
     inkscape:document-rotation="0"
     inkscape:snap-to-guides="true"
     inkscape:snap-grids="true"
     inkscape:bbox-nodes="false"
     inkscape:snap-bbox="true"
     inkscape:snap-global="true"
     inkscape:snap-nodes="false"
     inkscape:object-nodes="false"
     inkscape:snap-others="false"
     inkscape:window-maximized="1"
     inkscape:window-y="-8"
     inkscape:window-x="-8"
     inkscape:window-height="1001"
     inkscape:window-width="1216"
     fit-margin-bottom="1"
     fit-margin-right="1"
     fit-margin-left="1"
     fit-margin-top="1"
     showgrid="false"
     inkscape:current-layer="layer1"
     inkscape:document-units="mm"
     inkscape:cy="229.01046"
     inkscape:cx="303.77952"
     inkscape:zoom="1"
     inkscape:pageshadow="2"
     inkscape:pageopacity="0.0"
     borderopacity="1.0"
     bordercolor="#666666"
     pagecolor="#ffffff"
     id="base" />
  <metadata
     id="metadata5">
    <rdf:RDF>
      <cc:Work
         rdf:about="">
        <dc:format>image/svg+xml</dc:format>
        <dc:type
           rdf:resource="http://purl.org/dc/dcmitype/StillImage" />
        <dc:title />
      </cc:Work>
    </rdf:RDF>
  </metadata>
  <g
     transform="translate(-85.359978,-68.969383)"
     id="layer1"
     inkscape:groupmode="layer"
     inkscape:label="Vrstva 1">
    <rect
       ry="0"
       y="109.78959"
       x="126.20116"
       height="19.772154"
       width="19.772154"
       id="rect817"
       style="opacity:1;fill:#ffffff;fill-opacity:1;stroke:#001700;stroke-width:0.551758;stroke-linecap:butt;stroke-linejoin:bevel;stroke-miterlimit:4;stroke-dasharray:none;stroke-dashoffset:0;stroke-opacity:0.964706;paint-order:stroke markers fill" />
    <rect
       ry="0"
       y="109.78958"
       x="145.97331"
       height="19.772154"
       width="19.772154"
       id="rect817-8"
       style="opacity:1;fill:#ffffff;fill-opacity:1;stroke:#001700;stroke-width:0.551758;stroke-linecap:butt;stroke-linejoin:bevel;stroke-miterlimit:4;stroke-dasharray:none;stroke-dashoffset:0;stroke-opacity:0.964706;paint-order:stroke markers fill" />
    <rect
       ry="0"
       y="109.78958"
       x="86.656853"
       height="19.772154"
       width="19.772154"
       id="rect817-9"
       style="opacity:1;fill:#ffffff;fill-opacity:1;stroke:#001700;stroke-width:0.551758;stroke-linecap:butt;stroke-linejoin:bevel;stroke-miterlimit:4;stroke-dasharray:none;stroke-dashoffset:0;stroke-opacity:0.964706;paint-order:stroke markers fill" />
    <rect
       ry="0"
       y="109.78958"
       x="106.42901"
       height="19.772154"
       width="19.772154"
       id="rect817-8-1"
       style="opacity:1;fill:#ffffff;fill-opacity:1;stroke:#001700;stroke-width:0.551758;stroke-linecap:butt;stroke-linejoin:bevel;stroke-miterlimit:4;stroke-dasharray:none;stroke-dashoffset:0;stroke-opacity:0.964706;paint-order:stroke markers fill" />
    <rect
       ry="0"
       y="109.78958"
       x="165.74547"
       height="19.772154"
       width="19.772154"
       id="rect817-8-3"
       style="opacity:1;fill:#c0c0c0;fill-opacity:1;stroke:#001700;stroke-width:0.551758;stroke-linecap:butt;stroke-linejoin:bevel;stroke-miterlimit:4;stroke-dasharray:none;stroke-dashoffset:0;stroke-opacity:0.964706;paint-order:stroke markers fill" />
    <rect
       ry="0"
       y="129.56174"
       x="126.20116"
       height="19.772154"
       width="19.772154"
       id="rect817-94"
       style="opacity:1;fill:#c0c0c0;fill-opacity:1;stroke:#001700;stroke-width:0.551758;stroke-linecap:butt;stroke-linejoin:bevel;stroke-miterlimit:4;stroke-dasharray:none;stroke-dashoffset:0;stroke-opacity:0.964706;paint-order:stroke markers fill" />
    <rect
       ry="0"
       y="129.56174"
       x="145.97331"
       height="19.772154"
       width="19.772154"
       id="rect817-8-4"
       style="opacity:1;fill:#ffffff;fill-opacity:1;stroke:#001700;stroke-width:0.551758;stroke-linecap:butt;stroke-linejoin:bevel;stroke-miterlimit:4;stroke-dasharray:none;stroke-dashoffset:0;stroke-opacity:0.964706;paint-order:stroke markers fill" />
    <rect
       ry="0"
       y="129.56174"
       x="86.656853"
       height="19.772154"
       width="19.772154"
       id="rect817-9-6"
       style="opacity:1;fill:#c0c0c0;fill-opacity:1;stroke:#001700;stroke-width:0.551758;stroke-linecap:butt;stroke-linejoin:bevel;stroke-miterlimit:4;stroke-dasharray:none;stroke-dashoffset:0;stroke-opacity:0.964706;paint-order:stroke markers fill" />
    <rect
       ry="0"
       y="129.56174"
       x="106.42901"
       height="19.772154"
       width="19.772154"
       id="rect817-8-1-6"
       style="opacity:1;fill:#c0c0c0;fill-opacity:1;stroke:#001700;stroke-width:0.551758;stroke-linecap:butt;stroke-linejoin:bevel;stroke-miterlimit:4;stroke-dasharray:none;stroke-dashoffset:0;stroke-opacity:0.964706;paint-order:stroke markers fill" />
    <rect
       ry="0"
       y="129.56174"
       x="165.74547"
       height="19.772154"
       width="19.772154"
       id="rect817-8-3-1"
       style="opacity:1;fill:#c0c0c0;fill-opacity:1;stroke:#001700;stroke-width:0.551758;stroke-linecap:butt;stroke-linejoin:bevel;stroke-miterlimit:4;stroke-dasharray:none;stroke-dashoffset:0;stroke-opacity:0.964706;paint-order:stroke markers fill" />
    <rect
       ry="0"
       y="149.33389"
       x="126.20116"
       height="19.772154"
       width="19.772154"
       id="rect817-7"
       style="opacity:1;fill:#ffffff;fill-opacity:1;stroke:#001700;stroke-width:0.551758;stroke-linecap:butt;stroke-linejoin:bevel;stroke-miterlimit:4;stroke-dasharray:none;stroke-dashoffset:0;stroke-opacity:0.964706;paint-order:stroke markers fill" />
    <rect
       ry="0"
       y="149.33389"
       x="145.97331"
       height="19.772154"
       width="19.772154"
       id="rect817-8-9"
       style="opacity:1;fill:#ffffff;fill-opacity:1;stroke:#001700;stroke-width:0.551758;stroke-linecap:butt;stroke-linejoin:bevel;stroke-miterlimit:4;stroke-dasharray:none;stroke-dashoffset:0;stroke-opacity:0.964706;paint-order:stroke markers fill" />
    <rect
       ry="0"
       y="149.33389"
       x="165.74547"
       height="19.772154"
       width="19.772154"
       id="rect817-8-3-5"
       style="opacity:1;fill:#ffffff;fill-opacity:1;stroke:#001700;stroke-width:0.551758;stroke-linecap:butt;stroke-linejoin:bevel;stroke-miterlimit:4;stroke-dasharray:none;stroke-dashoffset:0;stroke-opacity:0.964706;paint-order:stroke markers fill" />
    <rect
       ry="0"
       y="169.10605"
       x="126.20116"
       height="19.772154"
       width="19.772154"
       id="rect817-2"
       style="opacity:1;fill:#ffff80;fill-opacity:1;stroke:#001700;stroke-width:0.551758;stroke-linecap:butt;stroke-linejoin:bevel;stroke-miterlimit:4;stroke-dasharray:none;stroke-dashoffset:0;stroke-opacity:0.964706;paint-order:stroke markers fill" />
    <rect
       ry="0"
       y="169.10605"
       x="145.97331"
       height="19.772154"
       width="19.772154"
       id="rect817-8-30"
       style="opacity:1;fill:#ffffff;fill-opacity:1;stroke:#001700;stroke-width:0.551758;stroke-linecap:butt;stroke-linejoin:bevel;stroke-miterlimit:4;stroke-dasharray:none;stroke-dashoffset:0;stroke-opacity:0.964706;paint-order:stroke markers fill" />
    <rect
       ry="0"
       y="169.10605"
       x="165.74547"
       height="19.772154"
       width="19.772154"
       id="rect817-8-3-3"
       style="opacity:1;fill:#ffffff;fill-opacity:1;stroke:#001700;stroke-width:0.551758;stroke-linecap:butt;stroke-linejoin:bevel;stroke-miterlimit:4;stroke-dasharray:none;stroke-dashoffset:0;stroke-opacity:0.964706;paint-order:stroke markers fill" />
    <rect
       ry="0"
       y="109.78958"
       x="185.51762"
       height="19.772154"
       width="19.772154"
       id="rect817-8-3-3-04"
       style="opacity:1;fill:#ffffff;fill-opacity:1;stroke:#001700;stroke-width:0.551758;stroke-linecap:butt;stroke-linejoin:bevel;stroke-miterlimit:4;stroke-dasharray:none;stroke-dashoffset:0;stroke-opacity:0.964706;paint-order:stroke markers fill" />
    <rect
       ry="0"
       y="129.56174"
       x="185.51762"
       height="19.772154"
       width="19.772154"
       id="rect817-8-3-3-8"
       style="opacity:1;fill:#ffffff;fill-opacity:1;stroke:#001700;stroke-width:0.551758;stroke-linecap:butt;stroke-linejoin:bevel;stroke-miterlimit:4;stroke-dasharray:none;stroke-dashoffset:0;stroke-opacity:0.964706;paint-order:stroke markers fill" />
    <rect
       ry="0"
       y="149.33389"
       x="185.51762"
       height="19.772154"
       width="19.772154"
       id="rect817-8-3-3-0"
       style="opacity:1;fill:#ffffff;fill-opacity:1;stroke:#001700;stroke-width:0.551758;stroke-linecap:butt;stroke-linejoin:bevel;stroke-miterlimit:4;stroke-dasharray:none;stroke-dashoffset:0;stroke-opacity:0.964706;paint-order:stroke markers fill" />
    <rect
       ry="0"
       y="169.10605"
       x="185.51762"
       height="19.772154"
       width="19.772154"
       id="rect817-8-3-3-9"
       style="opacity:1;fill:#ffffff;fill-opacity:1;stroke:#001700;stroke-width:0.551758;stroke-linecap:butt;stroke-linejoin:bevel;stroke-miterlimit:4;stroke-dasharray:none;stroke-dashoffset:0;stroke-opacity:0.964706;paint-order:stroke markers fill" />
    <rect
       ry="0"
       y="109.78957"
       x="205.28978"
       height="19.772154"
       width="19.772154"
       id="rect817-8-3-3-04-5"
       style="opacity:1;fill:#ffffff;fill-opacity:1;stroke:#001700;stroke-width:0.551758;stroke-linecap:butt;stroke-linejoin:bevel;stroke-miterlimit:4;stroke-dasharray:none;stroke-dashoffset:0;stroke-opacity:0.964706;paint-order:stroke markers fill" />
    <rect
       ry="0"
       y="129.56172"
       x="205.28978"
       height="19.772154"
       width="19.772154"
       id="rect817-8-3-3-8-3"
       style="opacity:1;fill:#ffffff;fill-opacity:1;stroke:#001700;stroke-width:0.551758;stroke-linecap:butt;stroke-linejoin:bevel;stroke-miterlimit:4;stroke-dasharray:none;stroke-dashoffset:0;stroke-opacity:0.964706;paint-order:stroke markers fill" />
    <rect
       ry="0"
       y="149.33389"
       x="205.28978"
       height="19.772154"
       width="19.772154"
       id="rect817-8-3-3-0-8"
       style="opacity:1;fill:#ffffff;fill-opacity:1;stroke:#001700;stroke-width:0.551758;stroke-linecap:butt;stroke-linejoin:bevel;stroke-miterlimit:4;stroke-dasharray:none;stroke-dashoffset:0;stroke-opacity:0.964706;paint-order:stroke markers fill" />
    <rect
       ry="0"
       y="169.10603"
       x="205.28978"
       height="19.772154"
       width="19.772154"
       id="rect817-8-3-3-9-5"
       style="opacity:1;fill:#ffffff;fill-opacity:1;stroke:#001700;stroke-width:0.551758;stroke-linecap:butt;stroke-linejoin:bevel;stroke-miterlimit:4;stroke-dasharray:none;stroke-dashoffset:0;stroke-opacity:0.964706;paint-order:stroke markers fill" />
    <rect
       ry="0"
       y="109.78959"
       x="225.06194"
       height="19.772154"
       width="19.772154"
       id="rect817-8-3-3-04-0"
       style="opacity:1;fill:#ffffff;fill-opacity:1;stroke:#001700;stroke-width:0.551758;stroke-linecap:butt;stroke-linejoin:bevel;stroke-miterlimit:4;stroke-dasharray:none;stroke-dashoffset:0;stroke-opacity:0.964706;paint-order:stroke markers fill" />
    <rect
       ry="0"
       y="129.56174"
       x="225.06194"
       height="19.772154"
       width="19.772154"
       id="rect817-8-3-3-8-6"
       style="opacity:1;fill:#c0c0c0;fill-opacity:1;stroke:#001700;stroke-width:0.551758;stroke-linecap:butt;stroke-linejoin:bevel;stroke-miterlimit:4;stroke-dasharray:none;stroke-dashoffset:0;stroke-opacity:0.964706;paint-order:stroke markers fill" />
    <rect
       ry="0"
       y="149.33389"
       x="225.06194"
       height="19.772154"
       width="19.772154"
       id="rect817-8-3-3-0-3"
       style="opacity:1;fill:#ffffff;fill-opacity:1;stroke:#001700;stroke-width:0.551758;stroke-linecap:butt;stroke-linejoin:bevel;stroke-miterlimit:4;stroke-dasharray:none;stroke-dashoffset:0;stroke-opacity:0.964706;paint-order:stroke markers fill" />
    <rect
       ry="0"
       y="169.10605"
       x="225.06194"
       height="19.772154"
       width="19.772154"
       id="rect817-8-3-3-9-4"
       style="opacity:1;fill:#ffffff;fill-opacity:1;stroke:#001700;stroke-width:0.551758;stroke-linecap:butt;stroke-linejoin:bevel;stroke-miterlimit:4;stroke-dasharray:none;stroke-dashoffset:0;stroke-opacity:0.964706;paint-order:stroke markers fill" />
    <rect
       ry="0"
       y="90.017433"
       x="126.20116"
       height="19.772154"
       width="19.772154"
       id="rect817-74"
       style="opacity:1;fill:#ffffff;fill-opacity:1;stroke:#001700;stroke-width:0.551758;stroke-linecap:butt;stroke-linejoin:bevel;stroke-miterlimit:4;stroke-dasharray:none;stroke-dashoffset:0;stroke-opacity:0.964706;paint-order:stroke markers fill" />
    <rect
       ry="0"
       y="90.017426"
       x="145.97331"
       height="19.772154"
       width="19.772154"
       id="rect817-8-8"
       style="opacity:1;fill:#ffffff;fill-opacity:1;stroke:#001700;stroke-width:0.551758;stroke-linecap:butt;stroke-linejoin:bevel;stroke-miterlimit:4;stroke-dasharray:none;stroke-dashoffset:0;stroke-opacity:0.964706;paint-order:stroke markers fill" />
    <rect
       ry="0"
       y="90.017426"
       x="86.656853"
       height="19.772154"
       width="19.772154"
       id="rect817-9-1"
       style="opacity:1;fill:#ffffff;fill-opacity:1;stroke:#001700;stroke-width:0.551758;stroke-linecap:butt;stroke-linejoin:bevel;stroke-miterlimit:4;stroke-dasharray:none;stroke-dashoffset:0;stroke-opacity:0.964706;paint-order:stroke markers fill" />
    <rect
       ry="0"
       y="90.017426"
       x="106.42901"
       height="19.772154"
       width="19.772154"
       id="rect817-8-1-62"
       style="opacity:1;fill:#ffffff;fill-opacity:1;stroke:#001700;stroke-width:0.551758;stroke-linecap:butt;stroke-linejoin:bevel;stroke-miterlimit:4;stroke-dasharray:none;stroke-dashoffset:0;stroke-opacity:0.964706;paint-order:stroke markers fill" />
    <rect
       ry="0"
       y="90.017426"
       x="165.74547"
       height="19.772154"
       width="19.772154"
       id="rect817-8-3-6"
       style="opacity:1;fill:#ffffff;fill-opacity:1;stroke:#001700;stroke-width:0.551758;stroke-linecap:butt;stroke-linejoin:bevel;stroke-miterlimit:4;stroke-dasharray:none;stroke-dashoffset:0;stroke-opacity:0.964706;paint-order:stroke markers fill" />
    <rect
       ry="0"
       y="90.017426"
       x="185.51762"
       height="19.772154"
       width="19.772154"
       id="rect817-8-3-3-04-8"
       style="opacity:1;fill:#ffffff;fill-opacity:1;stroke:#001700;stroke-width:0.551758;stroke-linecap:butt;stroke-linejoin:bevel;stroke-miterlimit:4;stroke-dasharray:none;stroke-dashoffset:0;stroke-opacity:0.964706;paint-order:stroke markers fill" />
    <rect
       ry="0"
       y="90.017418"
       x="205.28978"
       height="19.772154"
       width="19.772154"
       id="rect817-8-3-3-04-5-8"
       style="opacity:1;fill:#c0c0c0;fill-opacity:1;stroke:#001700;stroke-width:0.551758;stroke-linecap:butt;stroke-linejoin:bevel;stroke-miterlimit:4;stroke-dasharray:none;stroke-dashoffset:0;stroke-opacity:0.964706;paint-order:stroke markers fill" />
    <rect
       ry="0"
       y="90.017433"
       x="225.06194"
       height="19.772154"
       width="19.772154"
       id="rect817-8-3-3-04-0-3"
       style="opacity:1;fill:#c0c0c0;fill-opacity:1;stroke:#001700;stroke-width:0.551758;stroke-linecap:butt;stroke-linejoin:bevel;stroke-miterlimit:4;stroke-dasharray:none;stroke-dashoffset:0;stroke-opacity:0.964706;paint-order:stroke markers fill" />
    <rect
       ry="0"
       y="70.245277"
       x="126.20116"
       height="19.772154"
       width="19.772154"
       id="rect817-0"
       style="opacity:1;fill:#c0c0c0;fill-opacity:1;stroke:#001700;stroke-width:0.551758;stroke-linecap:butt;stroke-linejoin:bevel;stroke-miterlimit:4;stroke-dasharray:none;stroke-dashoffset:0;stroke-opacity:0.964706;paint-order:stroke markers fill" />
    <rect
       ry="0"
       y="70.245277"
       x="145.97331"
       height="19.772154"
       width="19.772154"
       id="rect817-8-12"
       style="opacity:1;fill:#ffffff;fill-opacity:1;stroke:#001700;stroke-width:0.551758;stroke-linecap:butt;stroke-linejoin:bevel;stroke-miterlimit:4;stroke-dasharray:none;stroke-dashoffset:0;stroke-opacity:0.964706;paint-order:stroke markers fill" />
    <rect
       ry="0"
       y="70.245277"
       x="86.656853"
       height="19.772154"
       width="19.772154"
       id="rect817-9-7"
       style="opacity:1;fill:#ffffff;fill-opacity:1;stroke:#001700;stroke-width:0.551758;stroke-linecap:butt;stroke-linejoin:bevel;stroke-miterlimit:4;stroke-dasharray:none;stroke-dashoffset:0;stroke-opacity:0.964706;paint-order:stroke markers fill" />
    <rect
       ry="0"
       y="70.245277"
       x="106.42901"
       height="19.772154"
       width="19.772154"
       id="rect817-8-1-4"
       style="opacity:1;fill:#ffffff;fill-opacity:1;stroke:#001700;stroke-width:0.551758;stroke-linecap:butt;stroke-linejoin:bevel;stroke-miterlimit:4;stroke-dasharray:none;stroke-dashoffset:0;stroke-opacity:0.964706;paint-order:stroke markers fill" />
    <rect
       ry="0"
       y="70.245277"
       x="165.74547"
       height="19.772154"
       width="19.772154"
       id="rect817-8-3-16"
       style="opacity:1;fill:#ffffff;fill-opacity:1;stroke:#001700;stroke-width:0.551758;stroke-linecap:butt;stroke-linejoin:bevel;stroke-miterlimit:4;stroke-dasharray:none;stroke-dashoffset:0;stroke-opacity:0.964706;paint-order:stroke markers fill" />
    <rect
       ry="0"
       y="70.245277"
       x="185.51762"
       height="19.772154"
       width="19.772154"
       id="rect817-8-3-3-04-7"
       style="opacity:1;fill:#ffffff;fill-opacity:1;stroke:#001700;stroke-width:0.551758;stroke-linecap:butt;stroke-linejoin:bevel;stroke-miterlimit:4;stroke-dasharray:none;stroke-dashoffset:0;stroke-opacity:0.964706;paint-order:stroke markers fill" />
    <rect
       ry="0"
       y="70.245262"
       x="205.28978"
       height="19.772154"
       width="19.772154"
       id="rect817-8-3-3-04-5-7"
       style="opacity:1;fill:#ffffff;fill-opacity:1;stroke:#001700;stroke-width:0.551758;stroke-linecap:butt;stroke-linejoin:bevel;stroke-miterlimit:4;stroke-dasharray:none;stroke-dashoffset:0;stroke-opacity:0.964706;paint-order:stroke markers fill" />
    <rect
       ry="0"
       y="70.245277"
       x="225.06194"
       height="19.772154"
       width="19.772154"
       id="rect817-8-3-3-04-0-1"
       style="opacity:1;fill:#ffffff;fill-opacity:1;stroke:#001700;stroke-width:0.551758;stroke-linecap:butt;stroke-linejoin:bevel;stroke-miterlimit:4;stroke-dasharray:none;stroke-dashoffset:0;stroke-opacity:0.964706;paint-order:stroke markers fill" />
    <g
       id="g101"
       transform="matrix(0.15893028,0,0,0.15893028,118.72586,91.150488)">
      <path
         style="fill:#9f2963;fill-opacity:1;stroke:#000000;stroke-width:0.965;stroke-linecap:butt;stroke-linejoin:miter;stroke-miterlimit:4;stroke-dasharray:none;stroke-opacity:1"
         d="m -48.980656,-89.614814 c 0,0 1.511899,34.01785 -4.913691,74.461307 12.473211,6.8035602 65.01995,2.45209 77.485111,3.77976 5.973681,0.63626 8.315481,-75.973217 -2.64583,-77.485118 -10.9613097,-1.511911 -66.90178,-3.77976 -69.92559,-0.755949 z"
         id="path9691-46"
         inkscape:connector-curvature="0"
         sodipodi:nodetypes="ccssc" />
      <path
         style="fill:#c32222;fill-opacity:1;stroke:#000000;stroke-width:0.965;stroke-linecap:butt;stroke-linejoin:miter;stroke-miterlimit:4;stroke-dasharray:none;stroke-opacity:1"
         d="m -17.608636,-125.90053 c 0,0 -52.538298,47.808606 -40.443461,43.467254 24.8131,-11.463028 113.392857,13.229172 90.714291,-4.157728 -22.6785697,-17.386906 -45.35714,-46.869046 -50.27083,-39.309526 z"
         id="path9693-8"
         inkscape:connector-curvature="0"
         sodipodi:nodetypes="ccsc" />
      <path
         style="fill:#7fbcbf;fill-opacity:1;stroke:#000000;stroke-width:0.865;stroke-linecap:butt;stroke-linejoin:miter;stroke-miterlimit:4;stroke-dasharray:none;stroke-opacity:1"
         d="m -34.239586,-70.716004 c 0,0 -1.91662,8.559001 -1.13393,13.985121 0.11031,0.764709 11.717259,1.889879 13.985119,0.377967 2.267852,-1.511898 3.874262,-11.90625 3.401782,-13.607139 -2.645831,-3.02381 -16.252971,-3.779759 -16.252971,-0.755949 z"
         id="path9695-4"
         inkscape:connector-curvature="0"
         sodipodi:nodetypes="csccc" />
      <path
         style="fill:#7fbcbf;fill-opacity:1;stroke:#000000;stroke-width:0.965;stroke-linecap:butt;stroke-linejoin:miter;stroke-miterlimit:4;stroke-dasharray:none;stroke-opacity:1"
         d="m 0.30228527,-68.709775 c 0,0 -1.91662097,8.559001 -1.13393,13.985121 0.11031,0.764709 11.71725973,1.889879 13.98511773,0.377971 2.267852,-1.511901 3.874262,-11.90625 3.401782,-13.60714 -2.64583,-3.023812 -16.25296973,-3.779761 -16.25296973,-0.755952 z"
         id="path9695-5-2"
         inkscape:connector-curvature="0"
         sodipodi:nodetypes="csccc" />
      <path
         style="fill:#744011;fill-opacity:1;stroke:#000000;stroke-width:0.665;stroke-linecap:butt;stroke-linejoin:miter;stroke-miterlimit:4;stroke-dasharray:none;stroke-opacity:1"
         d="m -26.542266,-11.611017 c 0,0 4.677219,-21.782458 2.672699,-25.123328 -2.004528,-3.340869 12.897001,-4.59101 17.7734203,-1.202708 3.854241,2.67806 6.01356097,7.21627 5.34538997,13.096206 -0.233418,2.523 -1.08060897,13.92167 -7.08263897,13.4971 -7.4660893,-0.52813 -18.7088703,-0.26727 -18.7088703,-0.26727 z"
         id="path9712-16"
         inkscape:connector-curvature="0"
         sodipodi:nodetypes="ccscsc" />
      <path
         style="fill:none;stroke:#000000;stroke-width:0.765;stroke-linecap:butt;stroke-linejoin:miter;stroke-miterlimit:4;stroke-dasharray:none;stroke-opacity:1"
         d="m -5.9625057,-24.039047 c 0,0 0.14156,-1.60924 1.336339,-2.35539 1.1435,-0.71413 3.96180197,1.85745 3.96180197,1.85745"
         id="path9714-8"
         inkscape:connector-curvature="0"
         sodipodi:nodetypes="csc" />
      <path
         style="fill:#5d340d;fill-opacity:1;stroke:#000000;stroke-width:0.765;stroke-linecap:butt;stroke-linejoin:miter;stroke-miterlimit:4;stroke-dasharray:none;stroke-opacity:1"
         d="m 12.251485,-105.11184 c 0,0 -0.944941,-13.22916 1.13393,-13.60714 2.078871,-0.37798 7.370529,1.13393 8.31547,0.75595 0.944938,-0.37797 0.944938,22.489585 0.944938,22.489585 z"
         id="path9716-8"
         inkscape:connector-curvature="0" />
      <path
         style="fill:none;stroke:#251a88;stroke-width:0.765;stroke-linecap:butt;stroke-linejoin:miter;stroke-miterlimit:4;stroke-dasharray:none;stroke-opacity:1"
         d="m -25.924118,-72.322404 c 0,0 -2.55134,14.174111 -1.795377,16.72544"
         id="path9718-07"
         inkscape:connector-curvature="0" />
      <path
         style="fill:none;stroke:#251a88;stroke-width:0.665;stroke-linecap:butt;stroke-linejoin:miter;stroke-miterlimit:4;stroke-dasharray:none;stroke-opacity:1"
         d="m -35.373526,-63.912434 c 0,0 15.686019,1.889879 16.91445,-0.18899"
         id="path9720-1"
         inkscape:connector-curvature="0"
         sodipodi:nodetypes="cc" />
      <path
         style="fill:none;stroke:#251a88;stroke-width:0.765;stroke-linecap:butt;stroke-linejoin:miter;stroke-miterlimit:4;stroke-dasharray:none;stroke-opacity:1"
         d="m 8.4902233,-70.311234 c 0,0 -2.55134,14.17411 -1.79538,16.725439"
         id="path9718-7-93"
         inkscape:connector-curvature="0" />
      <path
         style="fill:none;stroke:#251a88;stroke-width:0.665;stroke-linecap:butt;stroke-linejoin:miter;stroke-miterlimit:4;stroke-dasharray:none;stroke-opacity:1"
         d="m -0.95918473,-61.901265 c 0,0 15.68601873,1.889882 16.91444973,-0.188989"
         id="path9720-6-8"
         inkscape:connector-curvature="0"
         sodipodi:nodetypes="cc" />
      <text
         xml:space="preserve"
         style="font-style:normal;font-variant:normal;font-weight:normal;font-stretch:normal;font-size:28.625px;line-height:1.25;font-family:'Segoe Script';-inkscape-font-specification:'Segoe Script';letter-spacing:0px;word-spacing:0px;fill:#ffffff;fill-opacity:1;stroke:none;stroke-width:0.447265"
         x="-24.414579"
         y="-14.296399"
         id="text9865"
         transform="scale(0.90072644,1.110215)"><tspan
           sodipodi:role="line"
           id="tspan9863"
           x="-24.414579"
           y="-14.296399"
           style="font-style:normal;font-variant:normal;font-weight:normal;font-stretch:normal;font-size:28.625px;font-family:'Segoe Script';-inkscape-font-specification:'Segoe Script';fill:#ffffff;fill-opacity:1;stroke-width:0.447265">1</tspan></text>
    </g>
    <g
       id="g138"
       transform="matrix(0.1548806,0,0,0.1548806,200.74788,90.100843)">
      <path
         style="fill:#c3d415;fill-opacity:1;stroke:#000000;stroke-width:0.965;stroke-linecap:butt;stroke-linejoin:miter;stroke-miterlimit:4;stroke-dasharray:none;stroke-opacity:1"
         d="m 185.68199,-84.803962 c 0,0 1.5119,34.01785 -4.91369,74.4613 12.47321,6.80356 65.01995,2.45209 77.48511,3.77976 5.97368,0.63626 8.31548,-75.97321 -2.64583,-77.485111 -10.96131,-1.511911 -66.90178,-3.77976 -69.92559,-0.755949 z"
         id="path9691-4"
         inkscape:connector-curvature="0"
         sodipodi:nodetypes="ccssc" />
      <path
         style="fill:#c32222;fill-opacity:1;stroke:#000000;stroke-width:0.965;stroke-linecap:butt;stroke-linejoin:miter;stroke-miterlimit:4;stroke-dasharray:none;stroke-opacity:1"
         d="m 217.05401,-121.08968 c 0,0 -52.5383,47.808608 -40.44346,43.467256 24.8131,-11.463028 113.39285,13.229172 90.71429,-4.157728 -22.67857,-17.386911 -45.35714,-46.869048 -50.27083,-39.309528 z"
         id="path9693-5"
         inkscape:connector-curvature="0"
         sodipodi:nodetypes="ccsc" />
      <path
         style="fill:#7fbcbf;fill-opacity:1;stroke:#000000;stroke-width:0.865;stroke-linecap:butt;stroke-linejoin:miter;stroke-miterlimit:4;stroke-dasharray:none;stroke-opacity:1"
         d="m 200.42306,-65.905152 c 0,0 -1.91662,8.559001 -1.13393,13.985121 0.11031,0.764709 11.71726,1.889879 13.98512,0.377967 2.26785,-1.511898 3.87426,-11.90625 3.40178,-13.607139 -2.64583,-3.02381 -16.25297,-3.779759 -16.25297,-0.755949 z"
         id="path9695-58"
         inkscape:connector-curvature="0"
         sodipodi:nodetypes="csccc" />
      <path
         style="fill:#7fbcbf;fill-opacity:1;stroke:#000000;stroke-width:0.965;stroke-linecap:butt;stroke-linejoin:miter;stroke-miterlimit:4;stroke-dasharray:none;stroke-opacity:1"
         d="m 234.96493,-63.898923 c 0,0 -1.91662,8.559001 -1.13393,13.985121 0.11031,0.764709 11.71726,1.889879 13.98512,0.377971 2.26785,-1.511901 3.87426,-11.90625 3.40178,-13.60714 -2.64583,-3.023812 -16.25297,-3.779761 -16.25297,-0.755952 z"
         id="path9695-5-3"
         inkscape:connector-curvature="0"
         sodipodi:nodetypes="csccc" />
      <path
         style="fill:#744011;fill-opacity:1;stroke:#000000;stroke-width:0.665;stroke-linecap:butt;stroke-linejoin:miter;stroke-miterlimit:4;stroke-dasharray:none;stroke-opacity:1"
         d="m 208.12038,-6.800172 c 0,0 4.67722,-21.782451 2.6727,-25.123321 -2.00453,-3.340869 12.897,-4.59101 17.77342,-1.202708 3.85424,2.67806 6.01356,7.21627 5.34539,13.096201 -0.23342,2.522998 -1.08061,13.921668 -7.08264,13.497098 -7.46609,-0.52813 -18.70887,-0.26727 -18.70887,-0.26727 z"
         id="path9712-6"
         inkscape:connector-curvature="0"
         sodipodi:nodetypes="ccscsc" />
      <path
         style="fill:none;stroke:#000000;stroke-width:0.765;stroke-linecap:butt;stroke-linejoin:miter;stroke-miterlimit:4;stroke-dasharray:none;stroke-opacity:1"
         d="m 228.70014,-19.2282 c 0,0 0.14156,-1.60924 1.33634,-2.35539 1.1435,-0.71413 3.9618,1.85745 3.9618,1.85745"
         id="path9714-5"
         inkscape:connector-curvature="0"
         sodipodi:nodetypes="csc" />
      <path
         style="fill:#5d340d;fill-opacity:1;stroke:#000000;stroke-width:0.765;stroke-linecap:butt;stroke-linejoin:miter;stroke-miterlimit:4;stroke-dasharray:none;stroke-opacity:1"
         d="m 246.91413,-100.30099 c 0,0 -0.94494,-13.22916 1.13393,-13.60714 2.07887,-0.37798 7.37053,1.13393 8.31547,0.75595 0.94494,-0.37797 0.94494,22.489587 0.94494,22.489587 z"
         id="path9716-3"
         inkscape:connector-curvature="0" />
      <path
         style="fill:none;stroke:#251a88;stroke-width:0.765;stroke-linecap:butt;stroke-linejoin:miter;stroke-miterlimit:4;stroke-dasharray:none;stroke-opacity:1"
         d="m 208.73853,-67.511552 c 0,0 -2.55134,14.174111 -1.79538,16.72544"
         id="path9718-0"
         inkscape:connector-curvature="0" />
      <path
         style="fill:none;stroke:#251a88;stroke-width:0.665;stroke-linecap:butt;stroke-linejoin:miter;stroke-miterlimit:4;stroke-dasharray:none;stroke-opacity:1"
         d="m 199.28912,-59.101582 c 0,0 15.68602,1.889879 16.91445,-0.18899"
         id="path9720-0"
         inkscape:connector-curvature="0"
         sodipodi:nodetypes="cc" />
      <path
         style="fill:none;stroke:#251a88;stroke-width:0.765;stroke-linecap:butt;stroke-linejoin:miter;stroke-miterlimit:4;stroke-dasharray:none;stroke-opacity:1"
         d="m 243.15287,-65.500382 c 0,0 -2.55134,14.17411 -1.79538,16.725439"
         id="path9718-7-6"
         inkscape:connector-curvature="0" />
      <path
         style="fill:none;stroke:#251a88;stroke-width:0.665;stroke-linecap:butt;stroke-linejoin:miter;stroke-miterlimit:4;stroke-dasharray:none;stroke-opacity:1"
         d="m 233.70346,-57.090413 c 0,0 15.68602,1.889882 16.91445,-0.188989"
         id="path9720-6-9"
         inkscape:connector-curvature="0"
         sodipodi:nodetypes="cc" />
      <text
         xml:space="preserve"
         style="font-style:normal;font-variant:normal;font-weight:normal;font-stretch:normal;font-size:31.0847px;line-height:1.25;font-family:'Segoe Script';-inkscape-font-specification:'Segoe Script';letter-spacing:0px;word-spacing:0px;fill:#ffffff;fill-opacity:1;stroke:none;stroke-width:0.485698"
         x="243.77557"
         y="-8.6954336"
         id="text9865-0"
         transform="scale(0.87060829,1.1486222)"><tspan
           sodipodi:role="line"
           id="tspan9863-5"
           x="243.77557"
           y="-8.6954336"
           style="font-style:normal;font-variant:normal;font-weight:normal;font-stretch:normal;font-size:31.0847px;font-family:'Segoe Script';-inkscape-font-specification:'Segoe Script';fill:#ffffff;fill-opacity:1;stroke-width:0.485698">2</tspan></text>
    </g>
    <g
       id="g175"
       transform="matrix(0.15927317,0,0,0.15927317,79.219534,110.24628)">
      <path
         style="fill:#2c379c;fill-opacity:1;stroke:#000000;stroke-width:0.965;stroke-linecap:butt;stroke-linejoin:miter;stroke-miterlimit:4;stroke-dasharray:none;stroke-opacity:1"
         d="m 73.963329,-85.338499 c 0,0 1.5119,34.01785 -4.91369,74.46131 12.47321,6.8035597 65.019951,2.4520897 77.485111,3.7797597 5.97368,0.63626 8.31548,-75.9732197 -2.64583,-77.4851197 -10.96131,-1.51191 -66.901781,-3.77976 -69.925591,-0.75595 z"
         id="path9691-3"
         inkscape:connector-curvature="0"
         sodipodi:nodetypes="ccssc" />
      <path
         style="fill:#c32222;fill-opacity:1;stroke:#000000;stroke-width:0.965;stroke-linecap:butt;stroke-linejoin:miter;stroke-miterlimit:4;stroke-dasharray:none;stroke-opacity:1"
         d="m 105.33535,-121.62422 c 0,0 -52.538301,47.808611 -40.443461,43.467261 24.8131,-11.46303 113.392851,13.22917 90.714291,-4.15773 -22.67857,-17.38691 -45.35714,-46.869051 -50.27083,-39.309531 z"
         id="path9693-4"
         inkscape:connector-curvature="0"
         sodipodi:nodetypes="ccsc" />
      <path
         style="fill:#7fbcbf;fill-opacity:1;stroke:#000000;stroke-width:0.865;stroke-linecap:butt;stroke-linejoin:miter;stroke-miterlimit:4;stroke-dasharray:none;stroke-opacity:1"
         d="m 88.704399,-66.439689 c 0,0 -1.91662,8.559 -1.13393,13.98512 0.11031,0.76471 11.71726,1.88988 13.985121,0.37797 2.26785,-1.5119 3.87426,-11.90625 3.40178,-13.60714 -2.64583,-3.02381 -16.252971,-3.77976 -16.252971,-0.75595 z"
         id="path9695-51"
         inkscape:connector-curvature="0"
         sodipodi:nodetypes="csccc" />
      <path
         style="fill:#7fbcbf;fill-opacity:1;stroke:#000000;stroke-width:0.965;stroke-linecap:butt;stroke-linejoin:miter;stroke-miterlimit:4;stroke-dasharray:none;stroke-opacity:1"
         d="m 123.24627,-64.433459 c 0,0 -1.91662,8.559 -1.13393,13.98512 0.11031,0.76471 11.71726,1.88988 13.98512,0.37797 2.26785,-1.5119 3.87426,-11.90625 3.40178,-13.60714 -2.64583,-3.02381 -16.25297,-3.77976 -16.25297,-0.75595 z"
         id="path9695-5-4"
         inkscape:connector-curvature="0"
         sodipodi:nodetypes="csccc" />
      <path
         style="fill:#744011;fill-opacity:1;stroke:#000000;stroke-width:0.665;stroke-linecap:butt;stroke-linejoin:miter;stroke-miterlimit:4;stroke-dasharray:none;stroke-opacity:1"
         d="m 96.401719,-7.3346993 c 0,0 4.677221,-21.7824597 2.6727,-25.1233297 -2.00453,-3.34087 12.897001,-4.59101 17.773421,-1.20271 3.85424,2.67806 6.01356,7.21627 5.34539,13.09621 -0.23342,2.523 -1.08061,13.9216697 -7.08264,13.4970997 -7.46609,-0.52813 -18.708871,-0.26727 -18.708871,-0.26727 z"
         id="path9712-4"
         inkscape:connector-curvature="0"
         sodipodi:nodetypes="ccscsc" />
      <path
         style="fill:none;stroke:#000000;stroke-width:0.765;stroke-linecap:butt;stroke-linejoin:miter;stroke-miterlimit:4;stroke-dasharray:none;stroke-opacity:1"
         d="m 116.98148,-19.762729 c 0,0 0.14156,-1.60924 1.33634,-2.35539 1.1435,-0.71413 3.9618,1.85745 3.9618,1.85745"
         id="path9714-4"
         inkscape:connector-curvature="0"
         sodipodi:nodetypes="csc" />
      <path
         style="fill:#5d340d;fill-opacity:1;stroke:#000000;stroke-width:0.765;stroke-linecap:butt;stroke-linejoin:miter;stroke-miterlimit:4;stroke-dasharray:none;stroke-opacity:1"
         d="m 135.19547,-100.83553 c 0,0 -0.94494,-13.22916 1.13393,-13.60714 2.07887,-0.37798 7.37053,1.13393 8.31547,0.75595 0.94494,-0.37797 0.94494,22.489591 0.94494,22.489591 z"
         id="path9716-4"
         inkscape:connector-curvature="0" />
      <path
         style="fill:none;stroke:#251a88;stroke-width:0.765;stroke-linecap:butt;stroke-linejoin:miter;stroke-miterlimit:4;stroke-dasharray:none;stroke-opacity:1"
         d="m 97.019859,-68.046089 c 0,0 -2.55134,14.17411 -1.79537,16.72544"
         id="path9718-4"
         inkscape:connector-curvature="0" />
      <path
         style="fill:none;stroke:#251a88;stroke-width:0.665;stroke-linecap:butt;stroke-linejoin:miter;stroke-miterlimit:4;stroke-dasharray:none;stroke-opacity:1"
         d="m 87.570459,-59.636119 c 0,0 15.686021,1.88988 16.914451,-0.18899"
         id="path9720-05"
         inkscape:connector-curvature="0"
         sodipodi:nodetypes="cc" />
      <path
         style="fill:none;stroke:#251a88;stroke-width:0.765;stroke-linecap:butt;stroke-linejoin:miter;stroke-miterlimit:4;stroke-dasharray:none;stroke-opacity:1"
         d="m 131.43421,-66.034919 c 0,0 -2.55134,14.17411 -1.79538,16.72544"
         id="path9718-7-3"
         inkscape:connector-curvature="0" />
      <path
         style="fill:none;stroke:#251a88;stroke-width:0.665;stroke-linecap:butt;stroke-linejoin:miter;stroke-miterlimit:4;stroke-dasharray:none;stroke-opacity:1"
         d="m 121.9848,-57.624949 c 0,0 15.68602,1.88988 16.91445,-0.18899"
         id="path9720-6-7"
         inkscape:connector-curvature="0"
         sodipodi:nodetypes="cc" />
      <text
         xml:space="preserve"
         style="font-style:normal;font-variant:normal;font-weight:normal;font-stretch:normal;font-size:28.7966px;line-height:1.25;font-family:'Segoe Script';-inkscape-font-specification:'Segoe Script';letter-spacing:0px;word-spacing:0px;fill:#ffffff;fill-opacity:1;stroke:none;stroke-width:0.449946"
         x="108.27271"
         y="-10.49149"
         id="text9865-05"
         transform="scale(0.93334935,1.0714102)"><tspan
           sodipodi:role="line"
           id="tspan9863-0"
           x="108.27271"
           y="-10.49149"
           style="font-style:normal;font-variant:normal;font-weight:normal;font-stretch:normal;font-size:28.7966px;font-family:'Segoe Script';-inkscape-font-specification:'Segoe Script';fill:#ffffff;fill-opacity:1;stroke-width:0.449946">3</tspan></text>
    </g>
    <g
       id="g212"
       transform="matrix(0.15237932,0,0,0.15237932,164.67149,149.31899)">
      <path
         style="fill:#e29210;fill-opacity:1;stroke:#000000;stroke-width:0.965;stroke-linecap:butt;stroke-linejoin:miter;stroke-miterlimit:4;stroke-dasharray:none;stroke-opacity:1"
         d="m 295.79703,-86.942123 c 0,0 1.5119,34.01785 -4.91369,74.46131 12.47321,6.80356 65.01995,2.45209 77.48511,3.77976 5.97369,0.63626 8.31549,-75.97322 -2.64583,-77.48512 -10.96131,-1.51191 -66.90178,-3.77976 -69.92559,-0.75595 z"
         id="path9691-1"
         inkscape:connector-curvature="0"
         sodipodi:nodetypes="ccssc" />
      <path
         style="fill:#c32222;fill-opacity:1;stroke:#000000;stroke-width:0.965;stroke-linecap:butt;stroke-linejoin:miter;stroke-miterlimit:4;stroke-dasharray:none;stroke-opacity:1"
         d="m 327.16905,-123.22783 c 0,0 -52.5383,47.808597 -40.44346,43.467247 24.8131,-11.46303 113.39286,13.22917 90.71429,-4.15773 -22.67857,-17.386907 -45.35714,-46.869037 -50.27083,-39.309517 z"
         id="path9693-1"
         inkscape:connector-curvature="0"
         sodipodi:nodetypes="ccsc" />
      <path
         style="fill:#7fbcbf;fill-opacity:1;stroke:#000000;stroke-width:0.865;stroke-linecap:butt;stroke-linejoin:miter;stroke-miterlimit:4;stroke-dasharray:none;stroke-opacity:1"
         d="m 310.5381,-68.043313 c 0,0 -1.91662,8.55901 -1.13393,13.98513 0.11031,0.7647 11.71726,1.88987 13.98512,0.37796 2.26786,-1.5119 3.87427,-11.90625 3.40179,-13.60714 -2.64584,-3.02381 -16.25298,-3.77976 -16.25298,-0.75595 z"
         id="path9695-2"
         inkscape:connector-curvature="0"
         sodipodi:nodetypes="csccc" />
      <path
         style="fill:#7fbcbf;fill-opacity:1;stroke:#000000;stroke-width:0.965;stroke-linecap:butt;stroke-linejoin:miter;stroke-miterlimit:4;stroke-dasharray:none;stroke-opacity:1"
         d="m 345.07998,-66.037083 c 0,0 -1.91663,8.559 -1.13393,13.98512 0.11031,0.76471 11.71726,1.88988 13.98511,0.37798 2.26786,-1.51191 3.87427,-11.90625 3.40179,-13.60714 -2.64583,-3.02382 -16.25297,-3.77977 -16.25297,-0.75596 z"
         id="path9695-5-8"
         inkscape:connector-curvature="0"
         sodipodi:nodetypes="csccc" />
      <path
         style="fill:#744011;fill-opacity:1;stroke:#000000;stroke-width:0.665;stroke-linecap:butt;stroke-linejoin:miter;stroke-miterlimit:4;stroke-dasharray:none;stroke-opacity:1"
         d="m 318.23542,-8.938323 c 0,0 4.67722,-21.78246 2.6727,-25.12333 -2.00452,-3.34087 12.897,-4.59101 17.77342,-1.2027 3.85424,2.67806 6.01356,7.21627 5.34539,13.0962 -0.23341,2.523 -1.08061,13.92167 -7.08264,13.4971 -7.46608,-0.52813 -18.70887,-0.26727 -18.70887,-0.26727 z"
         id="path9712-1"
         inkscape:connector-curvature="0"
         sodipodi:nodetypes="ccscsc" />
      <path
         style="fill:none;stroke:#000000;stroke-width:0.765;stroke-linecap:butt;stroke-linejoin:miter;stroke-miterlimit:4;stroke-dasharray:none;stroke-opacity:1"
         d="m 338.81518,-21.366353 c 0,0 0.14156,-1.60924 1.33634,-2.35539 1.1435,-0.71413 3.96181,1.85745 3.96181,1.85745"
         id="path9714-48"
         inkscape:connector-curvature="0"
         sodipodi:nodetypes="csc" />
      <path
         style="fill:#5d340d;fill-opacity:1;stroke:#000000;stroke-width:0.765;stroke-linecap:butt;stroke-linejoin:miter;stroke-miterlimit:4;stroke-dasharray:none;stroke-opacity:1"
         d="m 357.02918,-102.43915 c 0,0 -0.94495,-13.22916 1.13393,-13.60714 2.07887,-0.37798 7.37052,1.13393 8.31547,0.75595 0.94493,-0.37797 0.94493,22.489587 0.94493,22.489587 z"
         id="path9716-7"
         inkscape:connector-curvature="0" />
      <path
         style="fill:none;stroke:#251a88;stroke-width:0.765;stroke-linecap:butt;stroke-linejoin:miter;stroke-miterlimit:4;stroke-dasharray:none;stroke-opacity:1"
         d="m 318.85357,-69.649713 c 0,0 -2.55134,14.17412 -1.79537,16.72544"
         id="path9718-3"
         inkscape:connector-curvature="0" />
      <path
         style="fill:none;stroke:#251a88;stroke-width:0.665;stroke-linecap:butt;stroke-linejoin:miter;stroke-miterlimit:4;stroke-dasharray:none;stroke-opacity:1"
         d="m 309.40416,-61.239743 c 0,0 15.68602,1.88988 16.91445,-0.18899"
         id="path9720-9"
         inkscape:connector-curvature="0"
         sodipodi:nodetypes="cc" />
      <path
         style="fill:none;stroke:#251a88;stroke-width:0.765;stroke-linecap:butt;stroke-linejoin:miter;stroke-miterlimit:4;stroke-dasharray:none;stroke-opacity:1"
         d="m 353.26791,-67.638543 c 0,0 -2.55134,14.17411 -1.79538,16.72544"
         id="path9718-7-9"
         inkscape:connector-curvature="0" />
      <path
         style="fill:none;stroke:#251a88;stroke-width:0.665;stroke-linecap:butt;stroke-linejoin:miter;stroke-miterlimit:4;stroke-dasharray:none;stroke-opacity:1"
         d="m 343.81851,-59.228573 c 0,0 15.68601,1.88989 16.91445,-0.18899"
         id="path9720-6-4"
         inkscape:connector-curvature="0"
         sodipodi:nodetypes="cc" />
      <text
         xml:space="preserve"
         style="font-style:normal;font-variant:normal;font-weight:normal;font-stretch:normal;font-size:27.3457px;line-height:1.25;font-family:'Segoe Script';-inkscape-font-specification:'Segoe Script';letter-spacing:0px;word-spacing:0px;fill:#ffffff;fill-opacity:1;stroke:none;stroke-width:0.427277"
         x="354.97055"
         y="-12.507974"
         id="text9865-04"
         transform="scale(0.90807074,1.1012358)"><tspan
           sodipodi:role="line"
           id="tspan9863-8"
           x="354.97055"
           y="-12.507974"
           style="font-style:normal;font-variant:normal;font-weight:normal;font-stretch:normal;font-size:27.3457px;font-family:'Segoe Script';-inkscape-font-specification:'Segoe Script';fill:#ffffff;fill-opacity:1;stroke-width:0.427277">4</tspan></text>
    </g>
    <g
       id="g249"
       transform="matrix(0.15367147,0,0,0.15367147,165.82966,189.52793)">
      <path
         style="fill:#2c9c4a;fill-opacity:1;stroke:#000000;stroke-width:0.965;stroke-linecap:butt;stroke-linejoin:miter;stroke-miterlimit:4;stroke-dasharray:none;stroke-opacity:1"
         d="m 414.28001,-87.962859 c 0,0 1.5119,34.01785 -4.91369,74.46131 12.47321,6.8035604 65.01995,2.45209 77.48511,3.7797604 5.97368,0.63626 8.31548,-75.9732204 -2.64583,-77.4851204 -10.96131,-1.51191 -66.90178,-3.77976 -69.92559,-0.75595 z"
         id="path9691"
         inkscape:connector-curvature="0"
         sodipodi:nodetypes="ccssc" />
      <path
         style="fill:#c32222;fill-opacity:1;stroke:#000000;stroke-width:0.965;stroke-linecap:butt;stroke-linejoin:miter;stroke-miterlimit:4;stroke-dasharray:none;stroke-opacity:1"
         d="m 445.65203,-124.24858 c 0,0 -52.5383,47.808611 -40.44346,43.467261 24.8131,-11.46303 113.39286,13.22917 90.71429,-4.15773 -22.67857,-17.386911 -45.35714,-46.869051 -50.27083,-39.309531 z"
         id="path9693"
         inkscape:connector-curvature="0"
         sodipodi:nodetypes="ccsc" />
      <path
         style="fill:#7fbcbf;fill-opacity:1;stroke:#000000;stroke-width:0.865;stroke-linecap:butt;stroke-linejoin:miter;stroke-miterlimit:4;stroke-dasharray:none;stroke-opacity:1"
         d="m 429.02108,-69.064049 c 0,0 -1.91662,8.559 -1.13393,13.98512 0.11031,0.76471 11.71726,1.88988 13.98512,0.37797 2.26785,-1.5119 3.87426,-11.90625 3.40178,-13.60714 -2.64583,-3.02381 -16.25297,-3.77976 -16.25297,-0.75595 z"
         id="path9695"
         inkscape:connector-curvature="0"
         sodipodi:nodetypes="csccc" />
      <path
         style="fill:#7fbcbf;fill-opacity:1;stroke:#000000;stroke-width:0.965;stroke-linecap:butt;stroke-linejoin:miter;stroke-miterlimit:4;stroke-dasharray:none;stroke-opacity:1"
         d="m 463.56295,-67.057819 c 0,0 -1.91662,8.559 -1.13393,13.98512 0.11031,0.76471 11.71726,1.88988 13.98512,0.37797 2.26785,-1.5119 3.87426,-11.90625 3.40178,-13.60714 -2.64583,-3.02381 -16.25297,-3.77976 -16.25297,-0.75595 z"
         id="path9695-5"
         inkscape:connector-curvature="0"
         sodipodi:nodetypes="csccc" />
      <path
         style="fill:#744011;fill-opacity:1;stroke:#000000;stroke-width:0.665;stroke-linecap:butt;stroke-linejoin:miter;stroke-miterlimit:4;stroke-dasharray:none;stroke-opacity:1"
         d="m 436.7184,-9.9590586 c 0,0 4.67722,-21.7824604 2.6727,-25.1233304 -2.00453,-3.34087 12.897,-4.59101 17.77342,-1.20271 3.85424,2.67806 6.01356,7.21627 5.34539,13.09621 -0.23342,2.523 -1.08061,13.9216704 -7.08264,13.4971004 -7.46609,-0.5281304 -18.70887,-0.26727 -18.70887,-0.26727 z"
         id="path9712"
         inkscape:connector-curvature="0"
         sodipodi:nodetypes="ccscsc" />
      <path
         style="fill:none;stroke:#000000;stroke-width:0.765;stroke-linecap:butt;stroke-linejoin:miter;stroke-miterlimit:4;stroke-dasharray:none;stroke-opacity:1"
         d="m 457.29816,-22.387089 c 0,0 0.14156,-1.60924 1.33634,-2.35539 1.1435,-0.71413 3.9618,1.85745 3.9618,1.85745"
         id="path9714"
         inkscape:connector-curvature="0"
         sodipodi:nodetypes="csc" />
      <path
         style="fill:#5d340d;fill-opacity:1;stroke:#000000;stroke-width:0.765;stroke-linecap:butt;stroke-linejoin:miter;stroke-miterlimit:4;stroke-dasharray:none;stroke-opacity:1"
         d="m 475.51215,-103.45989 c 0,0 -0.94494,-13.22916 1.13393,-13.60714 2.07887,-0.37798 7.37053,1.13393 8.31547,0.75595 0.94494,-0.37797 0.94494,22.489591 0.94494,22.489591 z"
         id="path9716"
         inkscape:connector-curvature="0" />
      <path
         style="fill:none;stroke:#251a88;stroke-width:0.765;stroke-linecap:butt;stroke-linejoin:miter;stroke-miterlimit:4;stroke-dasharray:none;stroke-opacity:1"
         d="m 437.33655,-70.670449 c 0,0 -2.55134,14.17411 -1.79538,16.72544"
         id="path9718"
         inkscape:connector-curvature="0" />
      <path
         style="fill:none;stroke:#251a88;stroke-width:0.665;stroke-linecap:butt;stroke-linejoin:miter;stroke-miterlimit:4;stroke-dasharray:none;stroke-opacity:1"
         d="m 427.88714,-62.260479 c 0,0 15.68602,1.88988 16.91445,-0.18899"
         id="path9720"
         inkscape:connector-curvature="0"
         sodipodi:nodetypes="cc" />
      <path
         style="fill:none;stroke:#251a88;stroke-width:0.765;stroke-linecap:butt;stroke-linejoin:miter;stroke-miterlimit:4;stroke-dasharray:none;stroke-opacity:1"
         d="m 471.75089,-68.659279 c 0,0 -2.55134,14.17411 -1.79538,16.72544"
         id="path9718-7"
         inkscape:connector-curvature="0" />
      <path
         style="fill:none;stroke:#251a88;stroke-width:0.665;stroke-linecap:butt;stroke-linejoin:miter;stroke-miterlimit:4;stroke-dasharray:none;stroke-opacity:1"
         d="m 462.30148,-60.249309 c 0,0 15.68602,1.88988 16.91445,-0.18899"
         id="path9720-6"
         inkscape:connector-curvature="0"
         sodipodi:nodetypes="cc" />
      <text
         xml:space="preserve"
         style="font-style:normal;font-variant:normal;font-weight:normal;font-stretch:normal;font-size:31.2763px;line-height:1.25;font-family:'Segoe Script';-inkscape-font-specification:'Segoe Script';letter-spacing:0px;word-spacing:0px;fill:#ffffff;fill-opacity:1;stroke:none;stroke-width:0.488692"
         x="497.88022"
         y="-10.489687"
         id="text9865-9"
         transform="scale(0.88029665,1.1359807)"><tspan
           sodipodi:role="line"
           id="tspan9863-6"
           x="497.88022"
           y="-10.489687"
           style="font-style:normal;font-variant:normal;font-weight:normal;font-stretch:normal;font-size:31.2763px;font-family:'Segoe Script';-inkscape-font-specification:'Segoe Script';fill:#ffffff;fill-opacity:1;stroke-width:0.488692">5</tspan></text>
    </g>
    <rect
       ry="0"
       y="149.33389"
       x="86.635857"
       height="39.544006"
       width="39.54401"
       id="rect817-9-5"
       style="opacity:1;fill:#ffffff;fill-opacity:1;stroke:#001700;stroke-width:0.551758;stroke-linecap:butt;stroke-linejoin:bevel;stroke-miterlimit:4;stroke-dasharray:none;stroke-dashoffset:0;stroke-opacity:0.964706;paint-order:stroke markers fill" />
    <g
       id="g289"
       transform="matrix(0.21899273,0,0,0.23652578,146.97293,187.77872)">
      <path
         style="fill:#fbd016;fill-opacity:1;stroke:#000000;stroke-width:0.965;stroke-linecap:butt;stroke-linejoin:miter;stroke-miterlimit:4;stroke-dasharray:none;stroke-opacity:1"
         d="m -249.44046,-93.347677 c 0,0 -6.73152,44.5134 -5.56679,64.83241 1.2731,22.2096096 4.17537,21.3002996 4.17537,21.3002996 0,0 118.70948,3.37886 124.75708,-0.4009 6.98309,-3.2452296 14.73075,-71.1972496 4.03132,-80.5357996 -8.29248,-7.23774 -56.33744,-9.73173 -67.67674,-7.46387 -11.33927,2.26786 -59.72024,2.26786 -59.72024,2.26786 z"
         id="path9921"
         inkscape:connector-curvature="0"
         sodipodi:nodetypes="csccssc" />
      <path
         style="fill:#5f1023;fill-opacity:1;stroke:#000000;stroke-width:1.165;stroke-linecap:butt;stroke-linejoin:miter;stroke-miterlimit:4;stroke-dasharray:none;stroke-opacity:1"
         d="m -265.49494,-99.395297 c 6.08954,-2.321593 65.74976,-47.234813 86.61747,-37.889343 23.58823,10.56384 70.42557,34.79769 78.6151,45.658473 8.034753,10.6555 -22.45195,2.94104 -32.00286,2.37003 -27.10971,-1.62077 -120.10406,-0.0676 -134.86738,3.19284 -8.36913,1.84828 -6.67779,-11.06414 1.63767,-13.332 z"
         id="path9923"
         inkscape:connector-curvature="0"
         sodipodi:nodetypes="cssssc" />
      <path
         style="fill:#94d2e7;fill-opacity:1;stroke:#000000;stroke-width:0.865;stroke-linecap:butt;stroke-linejoin:miter;stroke-miterlimit:4;stroke-dasharray:none;stroke-opacity:1"
         d="m -240.65162,-75.487447 c -1.98976,0.97861 -2.2718,10.95805 -1.87087,13.09621 3.8754,2.80632 12.56165,2.00451 14.16529,1.2027 1.60361,-0.80181 3.60812,-10.69077 1.46997,-12.82893 -2.13815,-2.13815 -11.89545,-2.38916 -13.76439,-1.46998 z"
         id="path9925"
         inkscape:connector-curvature="0"
         sodipodi:nodetypes="scccs" />
      <path
         style="fill:#964611;fill-opacity:1;stroke:#000000;stroke-width:0.965;stroke-linecap:butt;stroke-linejoin:miter;stroke-miterlimit:4;stroke-dasharray:none;stroke-opacity:1"
         d="m -197.29076,-6.5398974 c 0,0 -0.80181,-8.6862596 -0.80183,-17.3725196 0.26728,-10.15625 0.98917,-8.95706 1.60362,-11.22532 1.61151,-5.94891 17.23888,-5.07813 18.84249,-0.80181 2.00455,3.74177 3.60816,15.7689 2.53909,18.70887 -0.40091,3.20723 -1.06909,10.2898696 -2.2718,11.2253196 1.33636,1.33635 -19.91157,-0.53454 -19.91157,-0.53454 z"
         id="path9984"
         inkscape:connector-curvature="0"
         sodipodi:nodetypes="ccscccc" />
      <path
         style="fill:#94d2e7;fill-opacity:1;stroke:#000000;stroke-width:0.865;stroke-linecap:butt;stroke-linejoin:miter;stroke-miterlimit:4;stroke-dasharray:none;stroke-opacity:1"
         d="m -216.65013,-75.487447 c -1.98976,0.97861 -2.2718,10.95805 -1.87087,13.09621 3.8754,2.80632 12.56165,2.00451 14.16529,1.2027 1.60361,-0.80181 3.60812,-10.69077 1.46997,-12.82893 -2.13815,-2.13815 -11.89545,-2.38916 -13.76439,-1.46998 z"
         id="path9925-7"
         inkscape:connector-curvature="0"
         sodipodi:nodetypes="scccs" />
      <path
         style="fill:#94d2e7;fill-opacity:1;stroke:#000000;stroke-width:0.865;stroke-linecap:butt;stroke-linejoin:miter;stroke-miterlimit:4;stroke-dasharray:none;stroke-opacity:1"
         d="m -191.62763,-75.487447 c -1.98976,0.97861 -2.2718,10.95805 -1.87087,13.09621 3.8754,2.80632 12.56165,2.00451 14.16529,1.2027 1.60361,-0.80181 3.60812,-10.69077 1.46997,-12.82893 -2.13815,-2.13815 -11.89545,-2.38916 -13.76439,-1.46998 z"
         id="path9925-8"
         inkscape:connector-curvature="0"
         sodipodi:nodetypes="scccs" />
      <path
         style="fill:#94d2e7;fill-opacity:1;stroke:#000000;stroke-width:0.865;stroke-linecap:butt;stroke-linejoin:miter;stroke-miterlimit:4;stroke-dasharray:none;stroke-opacity:1"
         d="m -166.64362,-75.487447 c -1.98976,0.97861 -2.2718,10.95805 -1.87087,13.09621 3.8754,2.80632 12.56165,2.00451 14.16529,1.2027 1.60361,-0.80181 3.60812,-10.69077 1.46997,-12.82893 -2.13815,-2.13815 -11.89545,-2.38916 -13.76439,-1.46998 z"
         id="path9925-6"
         inkscape:connector-curvature="0"
         sodipodi:nodetypes="scccs" />
      <path
         style="fill:#94d2e7;fill-opacity:1;stroke:#000000;stroke-width:0.865;stroke-linecap:butt;stroke-linejoin:miter;stroke-miterlimit:4;stroke-dasharray:none;stroke-opacity:1"
         d="m -142.18882,-75.487447 c -1.98976,0.97861 -2.2718,10.95805 -1.87087,13.09621 3.8754,2.80632 12.56165,2.00451 14.16529,1.2027 1.60361,-0.80181 3.60812,-10.69077 1.46997,-12.82893 -2.13815,-2.13815 -11.89545,-2.38916 -13.76439,-1.46998 z"
         id="path9925-9"
         inkscape:connector-curvature="0"
         sodipodi:nodetypes="scccs" />
      <path
         style="fill:#94d2e7;fill-opacity:1;stroke:#000000;stroke-width:0.865;stroke-linecap:butt;stroke-linejoin:miter;stroke-miterlimit:4;stroke-dasharray:none;stroke-opacity:1"
         d="m -240.65162,-49.407087 c -1.98976,0.97861 -2.2718,10.95805 -1.87087,13.09621 3.8754,2.80632 12.56165,2.00451 14.16529,1.2027 1.60361,-0.80181 3.60812,-10.69077 1.46997,-12.82893 -2.13815,-2.13815 -11.89545,-2.38916 -13.76439,-1.46998 z"
         id="path9925-3"
         inkscape:connector-curvature="0"
         sodipodi:nodetypes="scccs" />
      <path
         style="fill:#94d2e7;fill-opacity:1;stroke:#000000;stroke-width:0.865;stroke-linecap:butt;stroke-linejoin:miter;stroke-miterlimit:4;stroke-dasharray:none;stroke-opacity:1"
         d="m -216.65013,-49.407087 c -1.98976,0.97861 -2.2718,10.95805 -1.87087,13.09621 3.8754,2.80632 12.56165,2.00451 14.16529,1.2027 1.60361,-0.80181 3.60812,-10.69077 1.46997,-12.82893 -2.13815,-2.13815 -11.89545,-2.38916 -13.76439,-1.46998 z"
         id="path9925-39"
         inkscape:connector-curvature="0"
         sodipodi:nodetypes="scccs" />
      <path
         style="fill:#94d2e7;fill-opacity:1;stroke:#000000;stroke-width:0.865;stroke-linecap:butt;stroke-linejoin:miter;stroke-miterlimit:4;stroke-dasharray:none;stroke-opacity:1"
         d="m -166.64362,-49.407087 c -1.98976,0.97861 -2.2718,10.95805 -1.87087,13.09621 3.8754,2.80632 12.56165,2.00451 14.16529,1.2027 1.60361,-0.80181 3.60812,-10.69077 1.46997,-12.82893 -2.13815,-2.13815 -11.89545,-2.38916 -13.76439,-1.46998 z"
         id="path9925-5"
         inkscape:connector-curvature="0"
         sodipodi:nodetypes="scccs" />
      <path
         style="fill:#94d2e7;fill-opacity:1;stroke:#000000;stroke-width:0.865;stroke-linecap:butt;stroke-linejoin:miter;stroke-miterlimit:4;stroke-dasharray:none;stroke-opacity:1"
         d="m -142.18882,-49.407087 c -1.98976,0.97861 -2.2718,10.95805 -1.87087,13.09621 3.8754,2.80632 12.56165,2.00451 14.16529,1.2027 1.60361,-0.80181 3.60812,-10.69077 1.46997,-12.82893 -2.13815,-2.13815 -11.89545,-2.38916 -13.76439,-1.46998 z"
         id="path9925-85"
         inkscape:connector-curvature="0"
         sodipodi:nodetypes="scccs" />
      <path
         style="fill:none;stroke:#000000;stroke-width:0.665;stroke-linecap:butt;stroke-linejoin:miter;stroke-miterlimit:4;stroke-dasharray:none;stroke-opacity:1"
         d="m -187.26338,-39.013607 c 0,0 1.79541,31.1830396 0.4725,32.7894396"
         id="path10043"
         inkscape:connector-curvature="0" />
      <text
         xml:space="preserve"
         style="font-style:normal;font-variant:normal;font-weight:normal;font-stretch:normal;font-size:28.625px;line-height:1.25;font-family:'Segoe Script';-inkscape-font-specification:'Segoe Script';letter-spacing:0px;word-spacing:0px;fill:#ffffff;fill-opacity:1;stroke:none;stroke-width:0.447265"
         x="-239.89877"
         y="-86.261459"
         id="text9865-7"
         transform="scale(0.90072644,1.110215)"><tspan
           sodipodi:role="line"
           id="tspan9863-06"
           x="-239.89877"
           y="-86.261459"
           style="font-style:normal;font-variant:normal;font-weight:normal;font-stretch:normal;font-size:28.625px;font-family:'Segoe Script';-inkscape-font-specification:'Segoe Script';fill:#ffffff;fill-opacity:1;stroke-width:0.447265">kool</tspan></text>
      <path
         style="fill:none;stroke:#000000;stroke-width:0.865;stroke-linecap:butt;stroke-linejoin:miter;stroke-miterlimit:4;stroke-dasharray:none;stroke-opacity:1"
         d="m -188.09011,-20.275983 c 1.46998,-2.271792 1.46998,-2.271792 1.46998,-2.271792 l 2.2718,2.00452"
         id="path10077"
         inkscape:connector-curvature="0" />
    </g>
    <path
       inkscape:connector-curvature="0"
       id="path1535"
       d="m 143.90995,173.42384 c 7.40358,0 7.40358,0 7.40358,0"
       style="fill:none;fill-rule:evenodd;stroke:#c50000;stroke-width:0.27707;stroke-linecap:butt;stroke-linejoin:miter;stroke-miterlimit:4;stroke-dasharray:none;stroke-opacity:1;marker-end:url(#Arrow2Lend)" />
    <g
       transform="matrix(0.39694841,0,0,0.39694841,105.25135,200.56282)"
       id="g1519">
      <rect
         style="fill:#ffffff;fill-opacity:1;stroke:#000000;stroke-width:1;stroke-linecap:round;stroke-linejoin:miter;stroke-miterlimit:4;stroke-dasharray:none;stroke-dashoffset:0;stroke-opacity:1"
         id="rect1479"
         width="41.159508"
         height="13.898015"
         x="56.231033"
         y="-75.315102"
         rx="0.10000006" />
      <text
         xml:space="preserve"
         style="font-style:normal;font-variant:normal;font-weight:normal;font-stretch:normal;font-size:11.2889px;line-height:125%;font-family:sans-serif;-inkscape-font-specification:'sans-serif, Normal';font-variant-ligatures:normal;font-variant-caps:normal;font-variant-numeric:normal;font-feature-settings:normal;text-align:start;letter-spacing:0px;word-spacing:0px;writing-mode:lr-tb;text-anchor:start;fill:#000000;fill-opacity:1;stroke:none;stroke-width:0.264583px;stroke-linecap:butt;stroke-linejoin:miter;stroke-opacity:1"
         x="61.041878"
         y="-64.624321"
         id="text1483"><tspan
           sodipodi:role="line"
           id="tspan1481"
           x="61.041878"
           y="-64.624321"
           style="font-style:normal;font-variant:normal;font-weight:normal;font-stretch:normal;font-size:11.2889px;font-family:sans-serif;-inkscape-font-specification:'sans-serif, Normal';font-variant-ligatures:normal;font-variant-caps:normal;font-variant-numeric:normal;font-feature-settings:normal;text-align:start;writing-mode:lr-tb;text-anchor:start;stroke-width:0.264583px">Alar</tspan></text>
    </g>
    <path
       inkscape:connector-curvature="0"
       id="path1535-1"
       d="m 143.7908,179.27837 c 7.40358,0 7.40358,0 7.40358,0"
       style="fill:none;fill-rule:evenodd;stroke:#c50000;stroke-width:0.277182;stroke-linecap:butt;stroke-linejoin:miter;stroke-miterlimit:4;stroke-dasharray:none;stroke-opacity:1;marker-end:url(#Arrow2Lend-72)" />
    <g
       transform="matrix(0.39694841,0,0,0.39694841,74.590703,207.32531)"
       id="g1524">
      <rect
         style="fill:#ffffff;fill-opacity:1;stroke:#000000;stroke-width:1;stroke-linecap:round;stroke-linejoin:miter;stroke-miterlimit:4;stroke-dasharray:none;stroke-dashoffset:0;stroke-opacity:1"
         id="rect1479-8"
         width="41.159508"
         height="13.898015"
         x="133.47192"
         y="-77.453262"
         rx="0.10000006" />
      <text
         xml:space="preserve"
         style="font-style:normal;font-variant:normal;font-weight:normal;font-stretch:normal;font-size:11.2889px;line-height:125%;font-family:sans-serif;-inkscape-font-specification:'sans-serif, Normal';font-variant-ligatures:normal;font-variant-caps:normal;font-variant-numeric:normal;font-feature-settings:normal;text-align:start;letter-spacing:0px;word-spacing:0px;writing-mode:lr-tb;text-anchor:start;fill:#000000;fill-opacity:1;stroke:none;stroke-width:0.264583px;stroke-linecap:butt;stroke-linejoin:miter;stroke-opacity:1"
         x="138.28278"
         y="-66.762482"
         id="text1483-0"><tspan
           sodipodi:role="line"
           id="tspan1481-7"
           x="138.28278"
           y="-66.762482"
           style="font-style:normal;font-variant:normal;font-weight:normal;font-stretch:normal;font-size:11.2889px;font-family:sans-serif;-inkscape-font-specification:'sans-serif, Normal';font-variant-ligatures:normal;font-variant-caps:normal;font-variant-numeric:normal;font-feature-settings:normal;text-align:start;writing-mode:lr-tb;text-anchor:start;stroke-width:0.264583px">Siim</tspan></text>
    </g>
    <path
       inkscape:connector-curvature="0"
       id="path1535-9"
       d="m 143.7908,185.12981 c 7.40358,0 7.40358,0 7.40358,0"
       style="fill:none;fill-rule:evenodd;stroke:#c50000;stroke-width:0.277182;stroke-linecap:butt;stroke-linejoin:miter;stroke-miterlimit:4;stroke-dasharray:none;stroke-opacity:1;marker-end:url(#Arrow2Lend-86)" />
    <g
       transform="matrix(0.39694841,0,0,0.39694841,46.15799,214.08779)"
       id="g1529">
      <rect
         style="fill:#ffffff;fill-opacity:1;stroke:#000000;stroke-width:1;stroke-linecap:round;stroke-linejoin:miter;stroke-miterlimit:4;stroke-dasharray:none;stroke-dashoffset:0;stroke-opacity:1"
         id="rect1479-0"
         width="41.159508"
         height="13.898015"
         x="205.10016"
         y="-79.591415"
         rx="0.10000006" />
      <text
         xml:space="preserve"
         style="font-style:normal;font-variant:normal;font-weight:normal;font-stretch:normal;font-size:11.2889px;line-height:125%;font-family:sans-serif;-inkscape-font-specification:'sans-serif, Normal';font-variant-ligatures:normal;font-variant-caps:normal;font-variant-numeric:normal;font-feature-settings:normal;text-align:start;letter-spacing:0px;word-spacing:0px;writing-mode:lr-tb;text-anchor:start;fill:#000000;fill-opacity:1;stroke:none;stroke-width:0.264583px;stroke-linecap:butt;stroke-linejoin:miter;stroke-opacity:1"
         x="209.91101"
         y="-68.900635"
         id="text1483-1"><tspan
           sodipodi:role="line"
           id="tspan1481-2"
           x="209.91101"
           y="-68.900635"
           style="font-style:normal;font-variant:normal;font-weight:normal;font-stretch:normal;font-size:11.2889px;font-family:sans-serif;-inkscape-font-specification:'sans-serif, Normal';font-variant-ligatures:normal;font-variant-caps:normal;font-variant-numeric:normal;font-feature-settings:normal;text-align:start;writing-mode:lr-tb;text-anchor:start;stroke-width:0.264583px">Erik</tspan></text>
    </g>
  </g>
</svg>
