<?xml version="1.0" encoding="UTF-8" standalone="no"?>
<svg
   xmlns:dc="http://purl.org/dc/elements/1.1/"
   xmlns:cc="http://creativecommons.org/ns#"
   xmlns:rdf="http://www.w3.org/1999/02/22-rdf-syntax-ns#"
   xmlns:svg="http://www.w3.org/2000/svg"
   xmlns="http://www.w3.org/2000/svg"
   xmlns:sodipodi="http://sodipodi.sourceforge.net/DTD/sodipodi-0.dtd"
   xmlns:inkscape="http://www.inkscape.org/namespaces/inkscape"
   inkscape:version="1.0 (4035a4fb49, 2020-05-01)"
   sodipodi:docname="b10-tekst2.svg"
   id="svg6933"
   viewBox="0 0 15179.785 10435.977"
   style="clip-rule:evenodd;fill-rule:evenodd;image-rendering:optimizeQuality;shape-rendering:geometricPrecision;text-rendering:geometricPrecision"
   version="1.1"
   height="23.928286mm"
   width="34.805267mm"
   xml:space="preserve"><metadata
   id="metadata6937"><rdf:RDF><cc:Work
       rdf:about=""><dc:format>image/svg+xml</dc:format><dc:type
         rdf:resource="http://purl.org/dc/dcmitype/StillImage" /></cc:Work></rdf:RDF></metadata><sodipodi:namedview
   inkscape:current-layer="svg6933"
   inkscape:window-maximized="1"
   inkscape:window-y="-8"
   inkscape:window-x="-8"
   inkscape:cy="45.217528"
   inkscape:cx="28.681201"
   inkscape:zoom="4.8392492"
   showgrid="false"
   id="namedview6935"
   inkscape:window-height="1001"
   inkscape:window-width="1216"
   inkscape:pageshadow="2"
   inkscape:pageopacity="0"
   guidetolerance="10"
   gridtolerance="10"
   objecttolerance="10"
   borderopacity="1"
   bordercolor="#666666"
   pagecolor="#ffffff" />
 <defs
   id="defs6915">
  <style
   id="style6913"
   type="text/css">
   <![CDATA[
    .str0 {stroke:#2B2A29;stroke-width:327.102}
    .fil0 {fill:#EBECEC}
    .fil1 {fill:#2B2A29;fill-rule:nonzero}
   ]]>
  </style>
 </defs>
 <g
   transform="matrix(0.6,0,0,0.6,-0.11849964,0)"
   id="Layer_x0020_1">
  <metadata
   id="CorelCorpID_0Corel-Layer" />
  <polygon
   id="polygon6918"
   points="395,4907 12650,17162 24905,4907 "
   class="fil0 str0" />
  <g
   id="g6922">
   <path
   id="path6920"
   d="m 752,2732 v 811 L 15,3137 Z m 23860,438 H 689 v -65 h 23923 z m -64,-438 737,405 -737,406 z"
   class="fil1" />
  </g>
  <path
   id="path6924"
   d="m 13366,713 c 0,88 -17,174 -53,256 -36,83 -83,164 -142,244 -59,80 -126,159 -200,236 -74,78 -147,154 -221,227 -42,42 -91,92 -146,148 -55,57 -108,116 -157,177 -49,62 -91,121 -124,178 -33,56 -50,106 -50,147 h 1178 v 292 h -1551 c -2,-15 -3,-29 -3,-44 0,-15 0,-29 0,-41 0,-116 19,-223 57,-323 38,-100 88,-194 150,-282 61,-89 130,-173 206,-252 77,-78 152,-155 226,-228 61,-60 120,-118 175,-176 55,-58 105,-116 148,-173 43,-58 77,-118 103,-180 26,-61 39,-126 39,-195 0,-74 -12,-137 -35,-189 -24,-51 -55,-94 -94,-129 -40,-34 -86,-59 -139,-75 -53,-17 -109,-25 -168,-25 -71,0 -137,10 -196,30 -59,20 -112,42 -158,68 -47,26 -87,53 -119,82 -32,28 -56,49 -73,64 l -170,-244 c 22,-24 55,-54 99,-90 45,-36 98,-70 159,-102 62,-32 131,-59 207,-81 76,-22 159,-33 247,-33 269,0 470,62 604,186 134,125 201,300 201,527 z"
   class="fil1" />
  <g
   id="g6928">
   <path
   id="path6926"
   d="m 13055,5952 h -810 l 405,-737 z m -438,10014 V 5888 h 66 v 10078 z m 438,-64 -405,737 -405,-737 z"
   class="fil1" />
  </g>
  <path
   id="path6930"
   d="m 10886,9588 c 140,-54 277,-124 410,-209 133,-85 255,-191 366,-319 h 243 v 2559 h -343 V 9536 c -30,27 -66,56 -109,85 -43,30 -90,58 -140,85 -51,27 -104,53 -159,78 -56,24 -109,45 -161,62 z"
   class="fil1" />
 </g>
</svg>
