<?xml version="1.0" encoding="UTF-8" standalone="no"?>
<svg
   xmlns:dc="http://purl.org/dc/elements/1.1/"
   xmlns:cc="http://creativecommons.org/ns#"
   xmlns:rdf="http://www.w3.org/1999/02/22-rdf-syntax-ns#"
   xmlns:svg="http://www.w3.org/2000/svg"
   xmlns="http://www.w3.org/2000/svg"
   xmlns:sodipodi="http://sodipodi.sourceforge.net/DTD/sodipodi-0.dtd"
   xmlns:inkscape="http://www.inkscape.org/namespaces/inkscape"
   inkscape:version="1.0 (4035a4fb49, 2020-05-01)"
   sodipodi:docname="b10-c.svg"
   id="svg6773"
   viewBox="0 0 1132.7678 1117.7557"
   style="clip-rule:evenodd;fill-rule:evenodd;image-rendering:optimizeQuality;shape-rendering:geometricPrecision;text-rendering:geometricPrecision"
   version="1.1"
   height="34.354401mm"
   width="34.804771mm"
   xml:space="preserve"><metadata
   id="metadata6777"><rdf:RDF><cc:Work
       rdf:about=""><dc:format>image/svg+xml</dc:format><dc:type
         rdf:resource="http://purl.org/dc/dcmitype/StillImage" /></cc:Work></rdf:RDF></metadata><sodipodi:namedview
   inkscape:current-layer="svg6773"
   inkscape:window-maximized="1"
   inkscape:window-y="-8"
   inkscape:window-x="-8"
   inkscape:cy="64.922252"
   inkscape:cx="12.979997"
   inkscape:zoom="3.3962645"
   showgrid="false"
   id="namedview6775"
   inkscape:window-height="1001"
   inkscape:window-width="1216"
   inkscape:pageshadow="2"
   inkscape:pageopacity="0"
   guidetolerance="10"
   gridtolerance="10"
   objecttolerance="10"
   borderopacity="1"
   bordercolor="#666666"
   pagecolor="#ffffff" />
 <defs
   id="defs6765">
  <style
   id="style6763"
   type="text/css">
   <![CDATA[
    .str0 {stroke:#2B2A29;stroke-width:24.4069}
    .fil0 {fill:#EBECEC}
   ]]>
  </style>
 </defs>
 <g
   transform="matrix(0.6,0,0,0.6,0.2907182,-0.13734363)"
   id="Layer_x0020_1">
  <metadata
   id="CorelCorpID_0Corel-Layer" />
  <polygon
   id="polygon6768"
   points="29,932 944,17 1858,932 "
   class="fil0 str0" />
  <polygon
   id="polygon6770"
   points="29,932 944,1846 1858,932 "
   class="fil0 str0" />
 </g>
</svg>
