<?xml version="1.0" encoding="UTF-8" standalone="no"?>
<svg
   xmlns:dc="http://purl.org/dc/elements/1.1/"
   xmlns:cc="http://creativecommons.org/ns#"
   xmlns:rdf="http://www.w3.org/1999/02/22-rdf-syntax-ns#"
   xmlns:svg="http://www.w3.org/2000/svg"
   xmlns="http://www.w3.org/2000/svg"
   xmlns:sodipodi="http://sodipodi.sourceforge.net/DTD/sodipodi-0.dtd"
   xmlns:inkscape="http://www.inkscape.org/namespaces/inkscape"
   inkscape:version="1.0 (4035a4fb49, 2020-05-01)"
   sodipodi:docname="b10-b.svg"
   id="svg6741"
   viewBox="0 0 6954.3375 10180.888"
   style="clip-rule:evenodd;fill-rule:evenodd;image-rendering:optimizeQuality;shape-rendering:geometricPrecision;text-rendering:geometricPrecision"
   version="1.1"
   height="50.951515mm"
   width="34.804447mm"
   xml:space="preserve"><metadata
   id="metadata6745"><rdf:RDF><cc:Work
       rdf:about=""><dc:format>image/svg+xml</dc:format><dc:type
         rdf:resource="http://purl.org/dc/dcmitype/StillImage" /></cc:Work></rdf:RDF></metadata><sodipodi:namedview
   inkscape:current-layer="svg6741"
   inkscape:window-maximized="1"
   inkscape:window-y="-8"
   inkscape:window-x="-8"
   inkscape:cy="93.536147"
   inkscape:cx="-10.429387"
   inkscape:zoom="2.3556012"
   showgrid="false"
   id="namedview6743"
   inkscape:window-height="1001"
   inkscape:window-width="1216"
   inkscape:pageshadow="2"
   inkscape:pageopacity="0"
   guidetolerance="10"
   gridtolerance="10"
   objecttolerance="10"
   borderopacity="1"
   bordercolor="#666666"
   pagecolor="#ffffff" />
 <defs
   id="defs6733">
  <style
   id="style6731"
   type="text/css">
   <![CDATA[
    .str0 {stroke:#2B2A29;stroke-width:149.857}
    .fil0 {fill:#EBECEC}
   ]]>
  </style>
 </defs>
 <g
   transform="matrix(0.6,0,0,0.6,-0.17842642,-174.49356)"
   id="Layer_x0020_1">
  <metadata
   id="CorelCorpID_0Corel-Layer" />
  <polygon
   id="polygon6736"
   points="181,11538 5795,17153 11410,11538 "
   class="fil0 str0" />
  <polygon
   id="polygon6738"
   points="5795,309 2988,11538 8603,11538 "
   class="fil0 str0" />
 </g>
</svg>
