<?xml version="1.0" encoding="UTF-8" standalone="no"?>
<svg
   xmlns:dc="http://purl.org/dc/elements/1.1/"
   xmlns:cc="http://creativecommons.org/ns#"
   xmlns:rdf="http://www.w3.org/1999/02/22-rdf-syntax-ns#"
   xmlns:svg="http://www.w3.org/2000/svg"
   xmlns="http://www.w3.org/2000/svg"
   xmlns:xlink="http://www.w3.org/1999/xlink"
   xmlns:sodipodi="http://sodipodi.sourceforge.net/DTD/sodipodi-0.dtd"
   xmlns:inkscape="http://www.inkscape.org/namespaces/inkscape"
   height="203.229"
   width="599.99945"
   inkscape:version="1.0.1 (3bc2e813f5, 2020-09-07)"
   sodipodi:docname="b06-tekst1.svg"
   xml:space="preserve"
   viewBox="0 0 599.99945 203.22901"
   y="0px"
   x="0px"
   id="圖層_1"
   version="1.1"
   inkscape:export-xdpi="79.839996"
   inkscape:export-ydpi="79.839996"><metadata
   id="metadata221"><rdf:RDF><cc:Work
       rdf:about=""><dc:format>image/svg+xml</dc:format><dc:type
         rdf:resource="http://purl.org/dc/dcmitype/StillImage" /></cc:Work></rdf:RDF></metadata><defs
   id="defs219" /><sodipodi:namedview
   inkscape:document-rotation="0"
   inkscape:current-layer="g1132"
   inkscape:window-maximized="1"
   inkscape:window-y="-8"
   inkscape:window-x="-8"
   inkscape:cy="101.6145"
   inkscape:cx="261.82823"
   inkscape:zoom="1.768335"
   showgrid="false"
   id="namedview217"
   inkscape:window-height="1017"
   inkscape:window-width="1920"
   inkscape:pageshadow="2"
   inkscape:pageopacity="0"
   guidetolerance="10"
   gridtolerance="10"
   objecttolerance="10"
   borderopacity="1"
   bordercolor="#666666"
   pagecolor="#ffffff" />
<style
   id="style2"
   type="text/css">
	.st0{fill:none;stroke:#1A1A1A;stroke-miterlimit:10;}
	.st1{fill:none;stroke:#000000;stroke-miterlimit:10;}
	.st2{fill:none;stroke:#1A1A1A;stroke-width:2;stroke-miterlimit:10;}
	.st3{clip-path:url(#SVGID_2_);fill:none;stroke:#1A1A1A;stroke-width:2;stroke-miterlimit:10;}
	.st4{clip-path:url(#SVGID_2_);fill:#253138;}
	.st5{clip-path:url(#SVGID_4_);fill:none;stroke:#1A1A1A;stroke-width:2;stroke-miterlimit:10;}
</style>


















<g
   transform="matrix(0.52365111,0,0,0.52365111,-22.307536,-16.337915)"
   id="g94">
	<defs
   id="defs89">
		<rect
   y="0"
   x="0"
   height="449.79999"
   width="1228"
   id="SVGID_5_" />
	</defs>
	<clipPath
   id="SVGID_6_">
		<use
   height="100%"
   width="100%"
   y="0"
   x="0"
   id="use91"
   style="overflow:visible"
   xlink:href="#SVGID_5_" />
	</clipPath>
</g>



















<g
   transform="matrix(0.52365111,0,0,0.52365111,-22.307536,-16.337915)"
   id="g1132"><rect
     x="43.099998"
     y="31.700001"
     class="st0"
     width="1144.8"
     height="387.10001"
     id="rect4" /><line
     class="st1"
     x1="43.099998"
     y1="124.7"
     x2="1187.9"
     y2="124.7"
     id="line6" /><line
     class="st1"
     x1="43.099998"
     y1="220.60001"
     x2="1187.9"
     y2="220.60001"
     id="line8" /><line
     class="st1"
     x1="43.099998"
     y1="316.5"
     x2="1187.9"
     y2="316.5"
     id="line10" /><line
     class="st0"
     x1="398.60001"
     y1="31.700001"
     x2="398.60001"
     y2="418.79999"
     id="line12" /><line
     class="st0"
     x1="290.29999"
     y1="31.700001"
     x2="290.29999"
     y2="418.79999"
     id="line14" /><line
     class="st0"
     x1="513"
     y1="31.700001"
     x2="513"
     y2="418.79999"
     id="line16" /><line
     class="st0"
     x1="634"
     y1="31.700001"
     x2="634"
     y2="418.79999"
     id="line18" /><line
     class="st0"
     x1="741.79999"
     y1="31.700001"
     x2="741.79999"
     y2="418.79999"
     id="line20" /><line
     class="st0"
     x1="856.20001"
     y1="31.700001"
     x2="856.20001"
     y2="418.79999"
     id="line22" /><line
     class="st0"
     x1="970.59998"
     y1="31.700001"
     x2="970.59998"
     y2="418.79999"
     id="line24" /><line
     class="st0"
     x1="1085"
     y1="31.700001"
     x2="1085"
     y2="418.79999"
     id="line26" /><rect
     x="337.20001"
     y="62.299999"
     class="st2"
     width="30"
     height="30"
     id="rect28" /><rect
     x="896.59998"
     y="66.699997"
     transform="matrix(0.7071,-0.7071,0.7071,0.7071,211.0607,664.1147)"
     class="st2"
     width="21.200001"
     height="21.200001"
     id="rect30" /><polygon
     class="st2"
     points="461.2,62.3 443.9,92.3 478.5,92.3 461.2,62.3 443.9,92.3 478.5,92.3 "
     id="polygon32" /><polygon
     class="st2"
     points="585.7,81.8 587.7,93.5 577.2,87.9 566.7,93.5 568.7,81.8 560.2,73.5 571.9,71.8 577.2,61.1 582.4,71.8 594.2,73.5 "
     id="polygon34" /><g
     id="g52">
	<defs
   id="defs37">
		<rect
   y="0"
   x="0"
   id="SVGID_1_"
   width="1228"
   height="449.79999" />
	</defs>
	<clipPath
   id="SVGID_2_">
		<use
   height="100%"
   width="100%"
   y="0"
   x="0"
   xlink:href="#SVGID_1_"
   style="overflow:visible"
   id="use39" />
	</clipPath>
	<circle
   class="st3"
   cx="685.20001"
   cy="77.300003"
   r="15"
   clip-path="url(#SVGID_2_)"
   id="circle42" />
	<circle
   class="st3"
   cx="796.20001"
   cy="77.300003"
   r="15"
   clip-path="url(#SVGID_2_)"
   id="circle44" />
	<circle
   class="st3"
   cx="796.20001"
   cy="77.300003"
   r="5"
   clip-path="url(#SVGID_2_)"
   id="circle46" />
	<path
   class="st4"
   d="m 1029.6,64.3 c 4,0 8.1,3.7 8.3,9 0.3,9.1 -14.8,17 -14.8,17 0,0 -15.6,-6.9 -15.9,-16 -0.2,-5.4 4.3,-9.5 8.5,-9.5 2.9,0 5.6,1.9 6.8,6.5 1.2,-5 4.1,-7 7.1,-7 m 0,-1.5 v 0 c -3,0 -5.5,1.6 -7.2,4.5 -1.6,-2.6 -3.9,-4 -6.8,-4 -2.5,0 -5,1.1 -6.9,3.1 -2.1,2.2 -3.2,5 -3.1,8 0.3,10 16.1,17 16.8,17.3 0.2,0.1 0.4,0.1 0.6,0.1 0.2,0 0.5,-0.1 0.7,-0.2 0.7,-0.3 16,-8.5 15.6,-18.4 -0.1,-6.2 -5.1,-10.4 -9.7,-10.4"
   clip-path="url(#SVGID_2_)"
   id="path48" />
	<path
   class="st3"
   d="m 1144.9,91.1 c 0,0 2.6,0 3.5,0 3.7,0 6.8,-3 6.8,-6.8 0,-3.7 -3,-6.8 -6.8,-6.8 0,0 -0.1,0 -0.1,0 0,-0.2 0,-0.4 0,-0.7 0,-5.3 -4.3,-9.6 -9.6,-9.6 -1.4,0 -2.7,0.3 -3.9,0.8 -0.9,-2.6 -3.4,-4.5 -6.4,-4.6 -3.7,0 -6.8,3 -6.8,6.8 0,0.5 0.1,1 0.2,1.5 0,0 -0.1,0 -0.1,0 -5.3,0 -9.6,4.3 -9.6,9.6 0,5.3 4.3,9.6 9.6,9.6 h 0.8 z"
   clip-path="url(#SVGID_2_)"
   id="path50" />
</g><g
     id="g86">
	<defs
   id="defs55">
		<rect
   y="0"
   x="0"
   id="SVGID_3_"
   width="1228"
   height="449.79999" />
	</defs>
	<clipPath
   id="SVGID_4_">
		<use
   height="100%"
   width="100%"
   y="0"
   x="0"
   xlink:href="#SVGID_3_"
   style="overflow:visible"
   id="use57" />
	</clipPath>
	<polygon
   class="st5"
   points="786,271.2 782.6,265.2 772,283.6 778.9,283.6 793.2,283.6 800,283.6 813.5,283.6 821.2,283.6 810.6,265.2 806.7,271.8 796.2,253.6 "
   clip-path="url(#SVGID_4_)"
   id="polygon60" />
	<path
   class="st5"
   d="m 1030.2,273.6 c 0,10.5 -5.1,13.9 -11.5,13.9 -6.4,0 -11.5,-3.4 -11.5,-13.9 0,-10.5 11.5,-24.1 11.5,-24.1 0,0 11.5,13.6 11.5,24.1 z"
   clip-path="url(#SVGID_4_)"
   id="path62" />
	<polygon
   class="st5"
   points="695.2,269 709.2,277.1 709.2,260.9 695.2,269 709.2,277.1 709.2,260.9 "
   clip-path="url(#SVGID_4_)"
   id="polygon64" />
	<path
   class="st5"
   d="m 695.2,268.5 c 0,0 -7.6,8.5 -17,8.5 -9.4,0 -17,-8.5 -17,-8.5 0,0 7.6,-8.5 17,-8.5 9.4,0 17,8.5 17,8.5 z"
   clip-path="url(#SVGID_4_)"
   id="path66" />
	<path
   class="st5"
   d="m 578.2,266.6 c 0,-5.1 2.6,-9.6 6.5,-12.3 -1.4,-0.4 -2.9,-0.7 -4.5,-0.7 -8.3,0 -15,6.7 -15,15 0,8.3 6.7,15 15,15 3.2,0 6.1,-1 8.5,-2.7 -6.1,-1.9 -10.5,-7.6 -10.5,-14.3 z"
   clip-path="url(#SVGID_4_)"
   id="path68" />
	<circle
   class="st5"
   cx="462.20001"
   cy="268.60001"
   r="9"
   clip-path="url(#SVGID_4_)"
   id="circle70" />
	<path
   class="st5"
   d="m 476.5,268.6 c 2.7,-2.2 3.5,-6.1 1.7,-9.3 -1.8,-3.1 -5.6,-4.4 -8.9,-3.2 -0.6,-3.5 -3.6,-6.1 -7.2,-6.1 -3.6,0 -6.6,2.6 -7.2,6.1 -3.3,-1.2 -7.1,0 -8.9,3.2 -1.8,3.1 -1,7 1.7,9.3 -2.7,2.2 -3.5,6.1 -1.7,9.3 1.8,3.1 5.6,4.4 8.9,3.2 0.6,3.5 3.6,6.1 7.2,6.1 3.6,0 6.6,-2.6 7.2,-6.1 3.3,1.2 7.1,0 8.9,-3.2 1.8,-3.2 1,-7.1 -1.7,-9.3 z"
   clip-path="url(#SVGID_4_)"
   id="path72" />
	<polygon
   class="st5"
   points="340.2,252.1 340.2,262.1 330.2,262.1 330.2,275.1 340.2,275.1 340.2,285.1 353.2,285.1 353.2,275.1 363.2,275.1 363.2,262.1 353.2,262.1 353.2,252.1 "
   clip-path="url(#SVGID_4_)"
   id="polygon74" />
	<path
   class="st5"
   d="m 890.2,268.6 c 0,0 6.8,-10.2 22.1,0 15.3,10.2 23.9,-2.6 23.9,-2.6"
   clip-path="url(#SVGID_4_)"
   id="path76" />
	<path
   class="st5"
   d="m 890.2,278.8 c 0,0 6.8,-10.2 22.1,0 15.3,10.2 23.9,-2.6 23.9,-2.6"
   clip-path="url(#SVGID_4_)"
   id="path78" />
	<path
   class="st5"
   d="m 890.2,258.8 c 0,0 6.8,-10.2 22.1,0 15.3,10.2 23.9,-2.6 23.9,-2.6"
   clip-path="url(#SVGID_4_)"
   id="path80" />
	<path
   class="st5"
   d="m 1164.2,260.6 c 0,15.6 -12.7,28.3 -28.3,28.3 -12.5,0 -22.7,-10.1 -22.7,-22.7 0,-10 8.1,-18.1 18.1,-18.1 8,0 14.5,6.5 14.5,14.5 0,6.4 -5.2,11.6 -11.6,11.6 -5.1,0 -9.3,-4.2 -9.3,-9.3 0,-4.1 3.3,-7.4 7.4,-7.4 3.3,0 5.9,2.7 5.9,5.9 0,2.6 -2.1,4.8 -4.8,4.8 -2.1,0 -3.8,-1.7 -3.8,-3.8"
   clip-path="url(#SVGID_4_)"
   id="path82" />
	<line
   class="st5"
   x1="1164.2"
   y1="261"
   x2="1145.2"
   y2="261"
   clip-path="url(#SVGID_4_)"
   id="line84" />
</g><path
     d="m 335.3,178.7 h 5.5 v -17.5 h -4.5 v -2.5 c 2.4,-0.4 4,-1 5.5,-1.9 h 3 v 21.9 h 4.9 v 3.3 h -14.4 z"
     id="path184" /><path
     d="m 446.6,179.9 c 7.4,-6.6 11.3,-11.5 11.3,-15.6 0,-2.7 -1.5,-4.6 -4.3,-4.6 -2,0 -3.6,1.3 -5,2.8 l -2.2,-2.2 c 2.2,-2.3 4.4,-3.8 7.7,-3.8 4.6,0 7.6,3 7.6,7.6 0,4.9 -3.9,9.9 -9.2,15 1.3,-0.1 2.9,-0.2 4.1,-0.2 h 6.3 v 3.4 h -16.3 z"
     id="path186" /><path
     d="m 559.4,179 1.9,-2.5 c 1.5,1.5 3.4,2.8 6,2.8 2.8,0 4.8,-1.6 4.8,-4.2 0,-2.8 -1.8,-4.6 -7.5,-4.6 v -2.9 c 5,0 6.6,-1.9 6.6,-4.4 0,-2.2 -1.5,-3.6 -3.9,-3.7 -2,0 -3.6,1 -5,2.4 l -2.1,-2.5 c 2,-1.8 4.3,-3 7.2,-3 4.5,0 7.7,2.3 7.7,6.5 0,2.9 -1.7,4.9 -4.3,5.9 v 0.2 c 2.9,0.7 5.2,2.9 5.2,6.3 0,4.6 -3.8,7.2 -8.4,7.2 -3.9,-0.1 -6.5,-1.6 -8.2,-3.5 z"
     id="path188" /><path
     d="m 690.5,175.2 h -3.2 v 6.8 h -3.7 v -6.8 h -10.9 v -2.6 l 10,-15.8 h 4.6 v 15.4 h 3.2 z m -6.9,-3 v -6.6 c 0,-1.4 0.1,-3.5 0.2,-4.9 h -0.1 c -0.6,1.3 -1.3,2.6 -2,3.9 l -5,7.6 z"
     id="path190" /><path
     d="m 787.1,178.8 1.9,-2.6 c 1.4,1.4 3.3,2.7 5.9,2.7 2.8,0 5,-2 5,-5.4 0,-3.4 -1.9,-5.3 -4.8,-5.3 -1.6,0 -2.6,0.5 -4,1.4 l -1.9,-1.3 0.8,-11.9 h 12.8 v 3.3 h -9.3 l -0.6,6.5 c 1.1,-0.5 2.1,-0.9 3.5,-0.9 4.2,0 7.7,2.5 7.7,8 0,5.6 -4.1,8.7 -8.5,8.7 -4.2,0.2 -6.7,-1.4 -8.5,-3.2 z"
     id="path192" /><path
     d="m 914.1,161.4 c -0.9,-1.1 -2.5,-1.9 -3.9,-1.9 -3.2,0 -5.9,2.4 -6.1,9.6 1.5,-1.8 3.7,-2.9 5.5,-2.9 4.2,0 7.1,2.6 7.1,7.9 0,5 -3.4,8.3 -7.5,8.3 -4.8,0 -8.7,-4 -8.7,-12.6 0,-9.7 4.6,-13.6 9.5,-13.6 2.8,0 4.9,1.2 6.3,2.7 z m -1.1,12.8 c 0,-3.3 -1.4,-5.1 -4.1,-5.1 -1.5,0 -3.2,0.8 -4.7,2.9 0.4,5 2.2,7.4 4.9,7.4 2.2,0 3.9,-2 3.9,-5.2 z"
     id="path194" /><path
     d="m 1025.1,160.1 h -11.8 v -3.3 h 16.2 v 2.4 c -5.9,7.4 -6.8,12.9 -7.3,22.8 h -4 c 0.5,-9.2 2.1,-15.1 6.9,-21.9 z"
     id="path196" /><path
     d="m 1126.1,175.7 c 0,-3.3 2.2,-5.5 4.5,-6.8 v -0.2 c -1.9,-1.3 -3.4,-3.2 -3.4,-5.9 0,-3.9 3,-6.5 7.2,-6.5 4.4,0 7.1,2.7 7.1,6.7 0,2.6 -1.7,4.8 -3.3,5.9 v 0.2 c 2.3,1.3 4.2,3.3 4.2,6.7 0,3.7 -3.3,6.6 -8.1,6.6 -4.7,0 -8.2,-2.8 -8.2,-6.7 z m 12.7,0 c 0,-3.1 -2.8,-4.2 -6.2,-5.6 -1.7,1.2 -2.9,3.1 -2.9,5.3 0,2.5 2.1,4.2 4.8,4.2 2.5,0 4.3,-1.5 4.3,-3.9 z m -0.5,-12.4 c 0,-2.3 -1.4,-4.1 -3.9,-4.1 -2.1,0 -3.6,1.4 -3.6,3.7 0,2.7 2.4,4 5.2,5.1 1.5,-1.4 2.3,-3.1 2.3,-4.7 z"
     id="path198" /><path
     d="m 338,379.2 c 1,1.2 2.6,1.9 4.3,1.9 3.1,0 5.9,-2.5 6.1,-10 -1.5,1.9 -3.7,3 -5.7,3 -4.3,0 -7.3,-2.7 -7.3,-8.2 0,-5.2 3.5,-8.6 7.7,-8.6 5,0 9,4 9,12.6 0,10.2 -4.7,14.3 -9.7,14.3 -3,0 -5.1,-1.2 -6.6,-2.8 z m 10.3,-11.1 c -0.4,-5.1 -2.3,-7.5 -5.2,-7.5 -2.2,0 -4,2 -4,5.4 0,3.3 1.5,5.2 4.2,5.2 1.6,0.1 3.4,-0.8 5,-3.1 z"
     id="path200" /><path
     d="m 448.1,370.9 c 0,-9 3.3,-13.4 8.4,-13.4 5.1,0 8.4,4.4 8.4,13.4 0,9 -3.3,13.6 -8.4,13.6 -5.1,0 -8.4,-4.6 -8.4,-13.6 z m 13,0 c 0,-7.5 -1.9,-10.2 -4.5,-10.2 -2.7,0 -4.5,2.7 -4.5,10.2 0,7.5 1.9,10.4 4.5,10.4 2.6,0 4.5,-2.9 4.5,-10.4 z"
     id="path202" /><path
     d="m 561,380.6 h 5.7 V 362.5 H 562 V 360 c 2.4,-0.5 4.2,-1.1 5.7,-2 h 3.1 v 22.7 h 5.1 v 3.4 H 561 Z"
     id="path204" /><path
     d="m 672.1,381.9 c 7.7,-6.8 11.6,-11.8 11.6,-16.1 0,-2.8 -1.5,-4.8 -4.4,-4.8 -2.1,0 -3.7,1.3 -5.1,2.9 l -2.3,-2.3 c 2.2,-2.4 4.5,-3.9 7.9,-3.9 4.8,0 7.8,3.1 7.8,7.8 0,5 -4,10.2 -9.5,15.5 1.3,-0.1 3,-0.2 4.2,-0.2 h 6.5 v 3.5 H 672 v -2.4 z"
     id="path206" /><path
     d="m 784.9,380.9 2,-2.6 c 1.5,1.6 3.5,2.9 6.1,2.9 2.9,0 4.9,-1.6 4.9,-4.3 0,-2.9 -1.8,-4.8 -7.7,-4.8 v -3 c 5.1,0 6.8,-1.9 6.8,-4.6 0,-2.3 -1.5,-3.7 -4,-3.8 -2,0 -3.7,1 -5.2,2.5 l -2.1,-2.5 c 2,-1.8 4.5,-3.1 7.5,-3.1 4.7,0 8,2.4 8,6.7 0,3 -1.7,5.1 -4.5,6.1 v 0.2 c 3,0.7 5.4,3 5.4,6.5 0,4.7 -3.9,7.5 -8.7,7.5 -4.1,-0.1 -6.8,-1.8 -8.5,-3.7 z"
     id="path208" /><path
     d="m 916.5,377 h -3.3 v 7 h -3.8 v -7 h -11.2 v -2.7 L 908.6,358 h 4.7 v 15.9 h 3.3 v 3.1 z m -7.2,-3.1 V 367 c 0,-1.4 0.1,-3.6 0.2,-5 h -0.1 c -0.6,1.3 -1.3,2.7 -2.1,4 l -5.1,7.8 h 7.1 z"
     id="path210" /><path
     d="m 1012.5,380.8 1.9,-2.7 c 1.5,1.5 3.4,2.8 6.1,2.8 2.9,0 5.2,-2.1 5.2,-5.5 0,-3.5 -2,-5.4 -4.9,-5.4 -1.7,0 -2.7,0.5 -4.2,1.5 l -2,-1.3 0.8,-12.3 h 13.2 v 3.4 h -9.6 l -0.6,6.7 c 1.1,-0.6 2.2,-0.9 3.6,-0.9 4.3,0 7.9,2.6 7.9,8.3 0,5.8 -4.2,9 -8.8,9 -4.2,-0.2 -6.7,-1.8 -8.6,-3.6 z"
     id="path212" /><path
     d="m 1139.9,362.8 c -1,-1.1 -2.5,-1.9 -4.1,-1.9 -3.3,0 -6.1,2.5 -6.3,9.9 1.5,-1.9 3.8,-3 5.7,-3 4.4,0 7.3,2.7 7.3,8.2 0,5.2 -3.5,8.5 -7.8,8.5 -4.9,0 -9,-4.1 -9,-13 0,-10 4.7,-14 9.8,-14 2.9,0 5,1.2 6.5,2.8 z m -1.1,13.2 c 0,-3.4 -1.5,-5.2 -4.3,-5.2 -1.5,0 -3.3,0.8 -4.8,3 0.4,5.2 2.3,7.6 5.1,7.6 2.2,0 4,-2.1 4,-5.4 z"
     id="path214" /><text
     id="text7225"
     y="76.099998"
     x="133.39999"
     style="font-style:normal;font-weight:normal;font-size:76.3867px;line-height:125%;font-family:sans-serif;letter-spacing:0px;word-spacing:0px;fill:#000000;fill-opacity:1;stroke:none;stroke-width:1.90967px;stroke-linecap:butt;stroke-linejoin:miter;stroke-opacity:1"
     xml:space="preserve"><tspan
       style="stroke-width:1.90967px"
       y="76.099998"
       x="133.39999"
       id="tspan7223"
       sodipodi:role="line" /></text><text
     id="text7231"
     y="66.026619"
     x="62.154743"
     style="font-style:normal;font-variant:normal;font-weight:normal;font-stretch:normal;font-size:33.1009px;line-height:125%;font-family:sans-serif;-inkscape-font-specification:'sans-serif, Normal';font-variant-ligatures:normal;font-variant-caps:normal;font-variant-numeric:normal;font-variant-east-asian:normal;letter-spacing:0px;word-spacing:0px;fill:#000000;fill-opacity:1;stroke:none;stroke-width:1.90967px;stroke-linecap:butt;stroke-linejoin:miter;stroke-opacity:1"
     xml:space="preserve"><tspan
       sodipodi:role="line"
       id="tspan83"
       x="62.154743"
       y="66.026619">буква языка</tspan><tspan
       sodipodi:role="line"
       id="tspan85"
       x="62.154743"
       y="107.40275">бобров</tspan></text><text
     id="text7235"
     y="157.7468"
     x="60.958714"
     style="font-style:normal;font-variant:normal;font-weight:normal;font-stretch:normal;font-size:33.1009px;line-height:125%;font-family:sans-serif;-inkscape-font-specification:'sans-serif, Normal';font-variant-ligatures:normal;font-variant-caps:normal;font-variant-numeric:normal;font-variant-east-asian:normal;letter-spacing:0px;word-spacing:0px;fill:#000000;fill-opacity:1;stroke:none;stroke-width:1.90967px;stroke-linecap:butt;stroke-linejoin:miter;stroke-opacity:1"
     xml:space="preserve"><tspan
       sodipodi:role="line"
       id="tspan91"
       x="60.958714"
       y="157.7468">место-</tspan><tspan
       sodipodi:role="line"
       id="tspan93"
       x="60.958714"
       y="199.12292">положение</tspan></text><text
     id="text7239"
     y="257.22662"
     x="62.154743"
     style="font-style:normal;font-variant:normal;font-weight:normal;font-stretch:normal;font-size:33.1009px;line-height:125%;font-family:sans-serif;-inkscape-font-specification:'sans-serif, Normal';font-variant-ligatures:normal;font-variant-caps:normal;font-variant-numeric:normal;font-variant-east-asian:normal;letter-spacing:0px;word-spacing:0px;fill:#000000;fill-opacity:1;stroke:none;stroke-width:1.90967px;stroke-linecap:butt;stroke-linejoin:miter;stroke-opacity:1"
     xml:space="preserve"><tspan
       sodipodi:role="line"
       id="tspan87"
       x="62.154743"
       y="257.22662">буква языка</tspan><tspan
       sodipodi:role="line"
       id="tspan89"
       x="62.154743"
       y="298.60275">бобров</tspan></text><text
     id="text7243"
     y="359.0968"
     x="60.958714"
     style="font-style:normal;font-variant:normal;font-weight:normal;font-stretch:normal;font-size:33.1009px;line-height:125%;font-family:sans-serif;-inkscape-font-specification:'sans-serif, Normal';font-variant-ligatures:normal;font-variant-caps:normal;font-variant-numeric:normal;font-variant-east-asian:normal;letter-spacing:0px;word-spacing:0px;fill:#000000;fill-opacity:1;stroke:none;stroke-width:1.90967px;stroke-linecap:butt;stroke-linejoin:miter;stroke-opacity:1"
     xml:space="preserve"><tspan
       sodipodi:role="line"
       id="tspan95"
       x="60.958714"
       y="359.0968">место-</tspan><tspan
       sodipodi:role="line"
       id="tspan97"
       x="60.958714"
       y="400.47293">положение</tspan></text></g>
</svg>
