<?xml version="1.0" encoding="UTF-8" standalone="no"?>
<!-- Created with Inkscape (http://www.inkscape.org/) -->

<svg
   xmlns:dc="http://purl.org/dc/elements/1.1/"
   xmlns:cc="http://creativecommons.org/ns#"
   xmlns:rdf="http://www.w3.org/1999/02/22-rdf-syntax-ns#"
   xmlns:svg="http://www.w3.org/2000/svg"
   xmlns="http://www.w3.org/2000/svg"
   xmlns:xlink="http://www.w3.org/1999/xlink"
   xmlns:sodipodi="http://sodipodi.sourceforge.net/DTD/sodipodi-0.dtd"
   xmlns:inkscape="http://www.inkscape.org/namespaces/inkscape"
   width="210mm"
   height="297mm"
   viewBox="0 0 210 297"
   version="1.1"
   id="svg8"
   inkscape:version="0.92.4 (5da689c313, 2019-01-14)"
   sodipodi:docname="j02-b.svg">
  <defs
     id="defs2" />
  <sodipodi:namedview
     id="base"
     pagecolor="#ffffff"
     bordercolor="#666666"
     borderopacity="1.0"
     inkscape:pageopacity="0.0"
     inkscape:pageshadow="2"
     inkscape:zoom="2"
     inkscape:cx="13.076772"
     inkscape:cy="997.96568"
     inkscape:document-units="mm"
     inkscape:current-layer="layer1"
     showgrid="false"
     inkscape:window-width="958"
     inkscape:window-height="1008"
     inkscape:window-x="953"
     inkscape:window-y="0"
     inkscape:window-maximized="0" />
  <metadata
     id="metadata5">
    <rdf:RDF>
      <cc:Work
         rdf:about="">
        <dc:format>image/svg+xml</dc:format>
        <dc:type
           rdf:resource="http://purl.org/dc/dcmitype/StillImage" />
        <dc:title />
      </cc:Work>
    </rdf:RDF>
  </metadata>
  <g
     inkscape:label="Layer 1"
     inkscape:groupmode="layer"
     id="layer1">
    <image
       y="16.277121"
       x="7.4744887"
       id="image18"
       xlink:href="data:image/png;base64,iVBORw0KGgoAAAANSUhEUgAAABQAAAAUCAYAAACNiR0NAAAABmJLR0QA/wD/AP+gvaeTAAABn0lE QVQ4jaXVy2oUQRQG4C8tGuIlD6DRzMKJ6NLgW6iM4j0LXbkyG32AIBqv4DMY0J2LhOzcZj2K4gXv mECWgmgIKDgu6ozTljXB6A9Fd///X6fOqTrdTRlDOI0HeIHP+IR3wU1gsM/cP3AKi+jgB17hIRaw FHwH73F0rUAVbod5BVcwWvCNYRpfwnsHG0oBb4bhMRqZdgStjBsJbwe38mCtKK+NrZl2WK/MQ5k2 jCcx95e2EW+jhJ2FzOsBDxb0hrRFryOWE2G+WjAPYB8mcQF7g8txPWIch3vxsLtgnKhl1x1nCr5m aPcrHMBHqewcWwpcvsfwRmq1/RW2S/31v1jCjkp5T/4ZFZaxq4/+UmqlLtrBlTCK5QqPImCzYFrA fO15Prgce6RGb1eYDfJsn5X/BufiOgubpBP+qlz6lF7LTBX0hlpjV/iGS9iMOWxbR2bDMWcIF/G9 Lk5HFk/93uTjOB9jvMY38SzmXC6tNoBrYViVXqfSQY3hRni6r+yarXcMH/T2bVE62XV/YOsYlL7c M3ge2azG/V2c1OcX8BNJjG84K56osgAAAABJRU5ErkJggg== "
       preserveAspectRatio="none"
       height="5.2916665"
       width="5.2916665" />
    <image
       y="16.277121"
       x="12.766155"
       id="image51"
       xlink:href="data:image/png;base64,iVBORw0KGgoAAAANSUhEUgAAABQAAAAUCAQAAAAngNWGAAAABGdBTUEAALGPC/xhBQAAACBjSFJN AAB6JgAAgIQAAPoAAACA6AAAdTAAAOpgAAA6mAAAF3CculE8AAAAAmJLR0QA/4ePzL8AAAAHdElN RQfhCAkXHAitcQZWAAABh0lEQVQoz23SPU8TYBQF4KcVqkONcSR+ACqYOOiAcdCNhMRJQKHG+Auc 3PwFSgv6GxgQOrC5OZkYS0wMpLhoBTSIiSQuDm3pIr0OvHwFznbue3PuPfc97OOkgnk1LQ01ZQU5 x+CBH0JY917FuhDWjB5uynopNDx3aa92xYSmMCW73/hKWHLxyJRuVWFyl94XluQTO2fYYwMyIK8q jEDOd42kdsa0f0IIn90APZpW5XgovEhq74SwaEFD+OsyKArjlIU+MCCEJ0nnlzCfbIVZvlkHHcpC GEzqz4SWU+CnGnUf0tMtDW+cSGxICFdBRb2D5I9P7lq0fehAATLaWb+dT8Xb7njqbGI30UxrXbDJ nNAPBoUwIYNr/gjToE+YoSBMpAFvhbBiQUvY1AVKwhg5a5q6wWlzttPBP6aj9dqyohNGhereF3YZ 8sj1xPKWtd3b9TYlVPUcCUWvZaF4MGaTQlMx2YJ+JVvaSgdjBiNWhbChomIj2Ro+LuOdxs36qq7u i9fGdizs4D9KCJTcD4mfqwAAACV0RVh0ZGF0ZTpjcmVhdGUAMjAxNy0wOC0wOVQyMzoyODowOCsw MDowMO+KbeUAAAAldEVYdGRhdGU6bW9kaWZ5ADIwMTctMDgtMDlUMjM6Mjg6MDgrMDA6MDCe19VZ AAAAAElFTkSuQmCC "
       preserveAspectRatio="none"
       height="5.2916665"
       width="5.2916665" />
    <g
       transform="translate(-129.1639,-222.36336)"
       id="g73"
       inkscape:export-xdpi="96"
       inkscape:export-ydpi="96">
      <image
         width="5.2916665"
         height="5.2916665"
         preserveAspectRatio="none"
         xlink:href="data:image/png;base64,iVBORw0KGgoAAAANSUhEUgAAABQAAAAUCAYAAACNiR0NAAAABmJLR0QA/wD/AP+gvaeTAAABYUlE QVQ4ja3VMUscURQF4M+4RlHEKqQP6O+QNaiNaIwuadL6axTtAqYPaURQQcFC/4CNWGxiiNbZwAa0 EYJrse/h28fOZtx44DHMueeeuW/mzn10xxDe4wt+oIEmLrCDj0FTCjVcoZWsG9xm3CWWexm9wEYQ 3+MASxhNNBNYwF5ivIHBbobR7BeqJXYyh98hZzMP1kKggckSZhFTielqJEdwHci3TzCLmA+5VxiG D4HY7cMs4ihWWcFKID9nojW8KTD4ie3k/pP2O12E79pfdSxLOtHZJuk6ybTjga8P4A5/8DoTTeNV QYUNnGZcE4OVggQ4Q1H8b4+8Z9nyRODrFZxr914V+9mDxnsUkWImXM94bJu9Xtv4Bw6DR412Y8dh MNeHWWzsS7yM5Kr///Xe5cF0OJSpdDYU0MJWN0E6vlo4Vm58rSsYXxFLqOtsk1t9DNgUFY9HwDed R8DX8NCuR8ADRrN5hsU5KbUAAAAASUVORK5CYII= "
         id="image40"
         x="147.22173"
         y="229.90923" />
      <image
         y="229.90923"
         x="136.63838"
         id="image54"
         xlink:href="data:image/png;base64,iVBORw0KGgoAAAANSUhEUgAAABQAAAAUCAYAAACNiR0NAAAABmJLR0QA/wD/AP+gvaeTAAABn0lE QVQ4jaXVy2oUQRQG4C8tGuIlD6DRzMKJ6NLgW6iM4j0LXbkyG32AIBqv4DMY0J2LhOzcZj2K4gXv mECWgmgIKDgu6ozTljXB6A9Fd///X6fOqTrdTRlDOI0HeIHP+IR3wU1gsM/cP3AKi+jgB17hIRaw FHwH73F0rUAVbod5BVcwWvCNYRpfwnsHG0oBb4bhMRqZdgStjBsJbwe38mCtKK+NrZl2WK/MQ5k2 jCcx95e2EW+jhJ2FzOsBDxb0hrRFryOWE2G+WjAPYB8mcQF7g8txPWIch3vxsLtgnKhl1x1nCr5m aPcrHMBHqewcWwpcvsfwRmq1/RW2S/31v1jCjkp5T/4ZFZaxq4/+UmqlLtrBlTCK5QqPImCzYFrA fO15Prgce6RGb1eYDfJsn5X/BufiOgubpBP+qlz6lF7LTBX0hlpjV/iGS9iMOWxbR2bDMWcIF/G9 Lk5HFk/93uTjOB9jvMY38SzmXC6tNoBrYViVXqfSQY3hRni6r+yarXcMH/T2bVE62XV/YOsYlL7c M3ge2azG/V2c1OcX8BNJjG84K56osgAAAABJRU5ErkJggg== "
         preserveAspectRatio="none"
         height="5.2916665"
         width="5.2916665" />
      <image
         y="229.90923"
         x="141.93005"
         id="image56"
         xlink:href="data:image/png;base64,iVBORw0KGgoAAAANSUhEUgAAABQAAAAUCAYAAACNiR0NAAAABmJLR0QA/wD/AP+gvaeTAAABx0lE QVQ4jZXV24uNURgG8N8MY5JTyo0SO+y5kFsX/odxHoyUKPfuXYgYx1L+A8qUJBJXiknDpSZyGOM8 CleEYafwuVjvbrZlbcZTq7613ud9vve0vo8yZmIbLuAhPuI9nsXZdnS38f0D/RhHhZ94jGsYxus4 r/AcG/8m1IkTQf6Cg1hS4PVgAJ+DexLTSoLHgjCC2hQyWRTcCsdz43opvTuYXXDeFyvHXNwN3zXN wy48RQNrC06rcB1D2IBZmb0mlWgstGwxWbcKt7FJqsuueHvVsoYKLz0Sts1wNjb9OI/vsX+Ld/iG 1ViK3VJTctTDZ5A0Fi9bjMtwqiXiCqPYKU1CO7zCI1L7hwuEBbicpftVGpMSbuETTLQRbGIFrkqp N4WfYAemlwTHItx/oRNXsojfYD/mS7doFM6FsV4Q2SPdnpVhHwzuXlzEj9h/0NKU/tgcysTmRWpV ti6ZbM7CiHBCy9jMkAZ7Aosz0S704gZuog8dGacmG2xYJw3wCOYUUp/K1evNjQMR9j0sLzjnqON+ +BwoETpwOAgN6TqVGtWDo8Fp1j4vw2/owwuTTRiX5vS/P7Ct6Ja6fwYPIppGPJ/GVm1+Ab8AnRGY NPrnzAAAAAAASUVORK5CYII= "
         preserveAspectRatio="none"
         height="5.2916665"
         width="5.2916665" />
    </g>
  </g>
</svg>
