<?xml version="1.0" encoding="UTF-8" standalone="no"?>
<svg
   xmlns:dc="http://purl.org/dc/elements/1.1/"
   xmlns:cc="http://creativecommons.org/ns#"
   xmlns:rdf="http://www.w3.org/1999/02/22-rdf-syntax-ns#"
   xmlns:svg="http://www.w3.org/2000/svg"
   xmlns="http://www.w3.org/2000/svg"
   xmlns:sodipodi="http://sodipodi.sourceforge.net/DTD/sodipodi-0.dtd"
   xmlns:inkscape="http://www.inkscape.org/namespaces/inkscape"
   width="395.47745mm"
   height="165.71149mm"
   viewBox="0 0 395.47745 165.71149"
   version="1.1"
   id="svg8"
   inkscape:version="1.0.1 (3bc2e813f5, 2020-09-07)"
   sodipodi:docname="b02-body.svg"
   inkscape:export-xdpi="32.110001"
   inkscape:export-ydpi="32.110001">
  <defs
     id="defs2" />
  <sodipodi:namedview
     id="base"
     pagecolor="#ffffff"
     bordercolor="#666666"
     borderopacity="1.0"
     inkscape:pageopacity="0.0"
     inkscape:pageshadow="2"
     inkscape:zoom="0.48678161"
     inkscape:cx="882.35897"
     inkscape:cy="651.24753"
     inkscape:document-units="mm"
     inkscape:current-layer="layer1"
     inkscape:document-rotation="0"
     showgrid="false"
     inkscape:window-width="1920"
     inkscape:window-height="1017"
     inkscape:window-x="-8"
     inkscape:window-y="-8"
     inkscape:window-maximized="1" />
  <metadata
     id="metadata5">
    <rdf:RDF>
      <cc:Work
         rdf:about="">
        <dc:format>image/svg+xml</dc:format>
        <dc:type
           rdf:resource="http://purl.org/dc/dcmitype/StillImage" />
        <dc:title />
      </cc:Work>
    </rdf:RDF>
  </metadata>
  <g
     inkscape:label="Layer 1"
     inkscape:groupmode="layer"
     id="layer1"
     transform="translate(-17.61571,-26.823106)">
    <g
       id="g83"
       transform="matrix(0.26458333,0,0,0.26458333,197.321,369.6781)" />
    <g
       id="g85"
       transform="matrix(0.26458333,0,0,0.26458333,197.321,369.6781)" />
    <g
       id="g87"
       transform="matrix(0.26458333,0,0,0.26458333,197.321,369.6781)" />
    <g
       id="g89"
       transform="matrix(0.26458333,0,0,0.26458333,197.321,369.6781)" />
    <g
       id="g91"
       transform="matrix(0.26458333,0,0,0.26458333,197.321,369.6781)" />
    <g
       id="g93"
       transform="matrix(0.26458333,0,0,0.26458333,197.321,369.6781)" />
    <g
       id="g95"
       transform="matrix(0.26458333,0,0,0.26458333,197.321,369.6781)" />
    <g
       id="g97"
       transform="matrix(0.26458333,0,0,0.26458333,197.321,369.6781)" />
    <g
       id="g99"
       transform="matrix(0.26458333,0,0,0.26458333,197.321,369.6781)" />
    <g
       id="g101"
       transform="matrix(0.26458333,0,0,0.26458333,197.321,369.6781)" />
    <g
       id="g103"
       transform="matrix(0.26458333,0,0,0.26458333,197.321,369.6781)" />
    <g
       id="g105"
       transform="matrix(0.26458333,0,0,0.26458333,197.321,369.6781)" />
    <g
       id="g107"
       transform="matrix(0.26458333,0,0,0.26458333,197.321,369.6781)" />
    <g
       id="g109"
       transform="matrix(0.26458333,0,0,0.26458333,197.321,369.6781)" />
    <g
       id="g111"
       transform="matrix(0.26458333,0,0,0.26458333,197.321,369.6781)" />
    <g
       id="g16"
       transform="matrix(0.26458333,0,0,0.26458333,232.15526,30.52679)" />
    <g
       id="g18"
       transform="matrix(0.26458333,0,0,0.26458333,232.15526,30.52679)" />
    <g
       id="g20"
       transform="matrix(0.26458333,0,0,0.26458333,232.15526,30.52679)" />
    <g
       id="g22"
       transform="matrix(0.26458333,0,0,0.26458333,232.15526,30.52679)" />
    <g
       id="g24"
       transform="matrix(0.26458333,0,0,0.26458333,232.15526,30.52679)" />
    <g
       id="g26"
       transform="matrix(0.26458333,0,0,0.26458333,232.15526,30.52679)" />
    <g
       id="g28"
       transform="matrix(0.26458333,0,0,0.26458333,232.15526,30.52679)" />
    <g
       id="g30"
       transform="matrix(0.26458333,0,0,0.26458333,232.15526,30.52679)" />
    <g
       id="g32"
       transform="matrix(0.26458333,0,0,0.26458333,232.15526,30.52679)" />
    <g
       id="g34"
       transform="matrix(0.26458333,0,0,0.26458333,232.15526,30.52679)" />
    <g
       id="g36"
       transform="matrix(0.26458333,0,0,0.26458333,232.15526,30.52679)" />
    <g
       id="g38"
       transform="matrix(0.26458333,0,0,0.26458333,232.15526,30.52679)" />
    <g
       id="g40"
       transform="matrix(0.26458333,0,0,0.26458333,232.15526,30.52679)" />
    <g
       id="g42"
       transform="matrix(0.26458333,0,0,0.26458333,232.15526,30.52679)" />
    <g
       id="g44"
       transform="matrix(0.26458333,0,0,0.26458333,232.15526,30.52679)" />
    <text
       xml:space="preserve"
       style="font-style:normal;font-variant:normal;font-weight:normal;font-stretch:normal;font-size:21.1667px;line-height:1.25;font-family:sans-serif;-inkscape-font-specification:'sans-serif, Normal';font-variant-ligatures:normal;font-variant-caps:normal;font-variant-numeric:normal;font-variant-east-asian:normal;fill:#000000;fill-opacity:1;stroke:none;stroke-width:0.264583"
       x="40.949001"
       y="189.74406"
       id="text395"><tspan
         sodipodi:role="line"
         id="tspan393"
         x="40.949001"
         y="189.74406"
         style="font-style:normal;font-variant:normal;font-weight:normal;font-stretch:normal;font-size:21.1667px;font-family:sans-serif;-inkscape-font-specification:'sans-serif, Normal';font-variant-ligatures:normal;font-variant-caps:normal;font-variant-numeric:normal;font-variant-east-asian:normal;stroke-width:0.264583">(1)</tspan></text>
    <text
       xml:space="preserve"
       style="font-style:normal;font-variant:normal;font-weight:normal;font-stretch:normal;font-size:21.1667px;line-height:1.25;font-family:sans-serif;-inkscape-font-specification:'sans-serif, Normal';font-variant-ligatures:normal;font-variant-caps:normal;font-variant-numeric:normal;font-variant-east-asian:normal;fill:#000000;fill-opacity:1;stroke:none;stroke-width:0.264583"
       x="168.94438"
       y="189.74406"
       id="text399"><tspan
         sodipodi:role="line"
         id="tspan397"
         x="168.94438"
         y="189.74406"
         style="font-style:normal;font-variant:normal;font-weight:normal;font-stretch:normal;font-size:21.1667px;font-family:sans-serif;-inkscape-font-specification:'sans-serif, Normal';font-variant-ligatures:normal;font-variant-caps:normal;font-variant-numeric:normal;font-variant-east-asian:normal;stroke-width:0.264583">(2)</tspan></text>
    <text
       xml:space="preserve"
       style="font-style:normal;font-variant:normal;font-weight:normal;font-stretch:normal;font-size:21.1667px;line-height:1.25;font-family:sans-serif;-inkscape-font-specification:'sans-serif, Normal';font-variant-ligatures:normal;font-variant-caps:normal;font-variant-numeric:normal;font-variant-east-asian:normal;fill:#000000;fill-opacity:1;stroke:none;stroke-width:0.264583"
       x="281.93155"
       y="189.74406"
       id="text403"><tspan
         sodipodi:role="line"
         id="tspan401"
         x="281.93155"
         y="189.74406"
         style="font-style:normal;font-variant:normal;font-weight:normal;font-stretch:normal;font-size:21.1667px;font-family:sans-serif;-inkscape-font-specification:'sans-serif, Normal';font-variant-ligatures:normal;font-variant-caps:normal;font-variant-numeric:normal;font-variant-east-asian:normal;stroke-width:0.264583">(3)</tspan></text>
    <text
       xml:space="preserve"
       style="font-style:normal;font-variant:normal;font-weight:normal;font-stretch:normal;font-size:21.1667px;line-height:1.25;font-family:sans-serif;-inkscape-font-specification:'sans-serif, Normal';font-variant-ligatures:normal;font-variant-caps:normal;font-variant-numeric:normal;font-variant-east-asian:normal;fill:#000000;fill-opacity:1;stroke:none;stroke-width:0.264583"
       x="377.3479"
       y="189.74406"
       id="text407"><tspan
         sodipodi:role="line"
         id="tspan405"
         x="377.3479"
         y="189.74406"
         style="font-style:normal;font-variant:normal;font-weight:normal;font-stretch:normal;font-size:21.1667px;font-family:sans-serif;-inkscape-font-specification:'sans-serif, Normal';font-variant-ligatures:normal;font-variant-caps:normal;font-variant-numeric:normal;font-variant-east-asian:normal;stroke-width:0.264583">(4)</tspan></text>
    <g
       id="g604"
       transform="translate(3.777751,7.3499567)">
      <path
         d="m 409.18268,105.56638 c -0.17568,-0.29977 -0.49742,-0.48498 -0.84508,-0.48498 h -30.3059 c -0.26644,0 -0.52123,0.10874 -0.70565,0.30083 -0.18415,0.19182 -0.28257,0.45059 -0.27119,0.71702 l 0.32861,8.05154 c -1.46712,-0.81624 -3.72904,-1.78038 -5.81157,-1.4486 -1.31842,0.20902 -2.38575,0.88503 -3.17448,2.01163 -3.12843,4.46723 7.08449,13.72844 9.66047,15.95226 l 0.9525,23.33598 c 0.0209,0.52414 0.45244,0.93742 0.97658,0.93742 h 21.50745 c 0.52414,0 0.95567,-0.41354 0.97658,-0.93742 l 1.5658,-38.35796 5.15144,-9.10405 c 0.17198,-0.30242 0.16907,-0.67284 -0.006,-0.97367 z m -39.18294,10.26769 c 0.47837,-0.68263 1.09114,-1.07606 1.8751,-1.20095 1.93755,-0.30268 4.46802,1.09141 5.60494,1.86849 l 0.46672,11.439 c -4.56776,-4.21799 -9.40144,-10.02824 -7.94676,-12.10654 z m 32.21937,-0.94695 c -0.0765,0.13468 -0.12012,0.28655 -0.12594,0.44106 l -1.53723,37.6563 h -19.63049 l -1.87511,-45.94781 h 27.61086 z"
         id="path545"
         style="stroke-width:0.264583" />
      <text
         xml:space="preserve"
         style="font-style:normal;font-variant:normal;font-weight:normal;font-stretch:normal;font-size:14.1111px;line-height:1.25;font-family:sans-serif;-inkscape-font-specification:'sans-serif, Normal';font-variant-ligatures:normal;font-variant-caps:normal;font-variant-numeric:normal;font-variant-east-asian:normal;fill:#000000;fill-opacity:1;stroke:none;stroke-width:0.264583"
         x="-152.42421"
         y="393.82217"
         id="text591"
         transform="rotate(-90)"><tspan
           sodipodi:role="line"
           id="tspan589"
           x="-152.42421"
           y="393.82217"
           style="font-style:normal;font-variant:normal;font-weight:normal;font-stretch:normal;font-size:14.1111px;font-family:sans-serif;-inkscape-font-specification:'sans-serif, Normal';font-variant-ligatures:normal;font-variant-caps:normal;font-variant-numeric:normal;font-variant-east-asian:normal;stroke-width:0.264583">100мл</tspan></text>
    </g>
    <g
       id="g609"
       transform="translate(2.553013,5.7545067)">
      <path
         d="M 309.74879,79.26158 V 66.24586 h 2.48046 c 0.82213,0 1.48828,-0.66635 1.48828,-1.48828 0,-0.82193 -0.66615,-1.48828 -1.48828,-1.48828 H 276.5105 c -0.82212,0 -1.48828,0.66635 -1.48828,1.48828 0,0.82193 0.66616,1.48828 1.48828,1.48828 h 2.48047 v 13.01572 c -4.49282,0.71556 -7.9375,4.61744 -7.9375,9.3085 v 60.52344 c 0,4.10329 3.33812,7.44141 7.44141,7.44141 h 31.75 c 4.10329,0 7.44141,-3.33812 7.44141,-7.44141 V 88.57008 c 0,-4.69106 -3.44468,-8.59274 -7.9375,-9.3085 z m 4.96093,69.83194 c 0,2.46202 -2.00303,4.46485 -4.46484,4.46485 h -31.75 c -2.46182,0 -4.46484,-2.00283 -4.46484,-4.46485 V 88.57008 c 0,-3.556 2.89302,-6.44921 6.44921,-6.44921 0.82213,0 1.48829,-0.66636 1.48829,-1.48829 V 66.24586 h 24.80468 v 14.38672 c 0,0.82193 0.66616,1.48829 1.48829,1.48829 3.55619,0 6.44921,2.89321 6.44921,6.44921 z"
         id="path562"
         style="stroke-width:0.198437" />
      <text
         xml:space="preserve"
         style="font-style:normal;font-variant:normal;font-weight:normal;font-stretch:normal;font-size:14.1111px;line-height:1.25;font-family:sans-serif;-inkscape-font-specification:'sans-serif, Normal';font-variant-ligatures:normal;font-variant-caps:normal;font-variant-numeric:normal;font-variant-east-asian:normal;fill:#000000;fill-opacity:1;stroke:none;stroke-width:0.264583"
         x="-147.96007"
         y="299.63052"
         id="text595"
         transform="rotate(-90)"><tspan
           sodipodi:role="line"
           id="tspan593"
           x="-147.96007"
           y="299.63052"
           style="font-style:normal;font-variant:normal;font-weight:normal;font-stretch:normal;font-size:14.1111px;font-family:sans-serif;-inkscape-font-specification:'sans-serif, Normal';font-variant-ligatures:normal;font-variant-caps:normal;font-variant-numeric:normal;font-variant-east-asian:normal;stroke-width:0.264583">500мл</tspan></text>
    </g>
    <g
       id="g614"
       transform="translate(-5.659092,2.1166667)">
      <path
         d="m 227.86225,60.232253 c -0.0243,-0.25506 -0.073,-0.50006 -0.17516,-0.7411 -0.055,-0.12965 -0.12858,-0.23839 -0.20346,-0.35719 -0.0704,-0.11192 -0.10478,-0.23759 -0.19473,-0.34025 l -17.25375,-19.7186 v -11.81338 c 0,-0.80222 -0.37676,-1.55708 -1.01547,-2.03968 -0.64135,-0.48154 -1.47452,-0.6387 -2.24075,-0.41672 l -35.76982,10.22006 c -1.09775,0.31301 -1.85393,1.31604 -1.85393,2.4564 v 11.29268 l -16.59758,9.48425 c -0.0148,0.009 -0.0225,0.0243 -0.0381,0.0331 -0.0243,0.0148 -0.0524,0.0212 -0.0767,0.0368 -0.22887,0.14711 -0.41725,0.33629 -0.585,0.54134 -0.0431,0.0529 -0.0778,0.10663 -0.11668,0.16272 -0.15398,0.22198 -0.27887,0.4609 -0.35613,0.72099 -0.007,0.023 -0.0201,0.0429 -0.0262,0.0664 -0.0561,0.21219 -0.0886,0.43153 -0.0886,0.65643 v 84.314767 c 0,1.00171 0.58632,1.91135 1.49702,2.32542 l 28.10483,12.77484 c 0.0349,0.0156 0.0735,0.009 0.10848,0.0238 0.30374,0.12277 0.62071,0.25744 0.94933,0.25744 0.24262,0 0.48339,-0.0516 0.71675,-0.0516 h 0.004 l 43.43506,-12.82674 c 1.08796,-0.32067 1.83382,-1.36922 1.83382,-2.50322 V 60.476463 c 5.3e-4,-0.0857 -0.0487,-0.15981 -0.0574,-0.24421 z m -53.59691,-20.82297 30.65991,-8.76036 v 7.46099 l -30.65991,8.76009 z m -3.7428,14.46794 6.34021,14.26475 -17.43392,-7.9248 z m 8.8527,99.720927 -22.99494,-10.4521 V 64.445213 l 22.99494,10.4521 z m -4.13571,-101.692597 31.38488,-8.96673 14.1859,16.21419 -37.45362,11.01593 z m 47.57076,90.974857 -38.32489,11.27178 V 75.162953 l 38.32489,-11.27178 z"
         id="path579"
         style="stroke-width:0.264583" />
      <text
         xml:space="preserve"
         style="font-style:normal;font-variant:normal;font-weight:normal;font-stretch:normal;font-size:14.1111px;line-height:1.25;font-family:sans-serif;-inkscape-font-specification:'sans-serif, Normal';font-variant-ligatures:normal;font-variant-caps:normal;font-variant-numeric:normal;font-variant-east-asian:normal;fill:#000000;fill-opacity:1;stroke:none;stroke-width:0.264583"
         x="-136.83586"
         y="173.60413"
         id="text599"
         transform="rotate(-90)"><tspan
           sodipodi:role="line"
           id="tspan597"
           x="-136.83586"
           y="173.60413"
           style="font-style:normal;font-variant:normal;font-weight:normal;font-stretch:normal;font-size:14.1111px;font-family:sans-serif;-inkscape-font-specification:'sans-serif, Normal';font-variant-ligatures:normal;font-variant-caps:normal;font-variant-numeric:normal;font-variant-east-asian:normal;stroke-width:0.264583">1000мл</tspan></text>
    </g>
    <g
       id="g622"
       transform="translate(-133.65448,2.1166667)">
      <path
         d="m 227.86225,60.232253 c -0.0243,-0.25506 -0.073,-0.50006 -0.17516,-0.7411 -0.055,-0.12965 -0.12858,-0.23839 -0.20346,-0.35719 -0.0704,-0.11192 -0.10478,-0.23759 -0.19473,-0.34025 l -17.25375,-19.7186 v -11.81338 c 0,-0.80222 -0.37676,-1.55708 -1.01547,-2.03968 -0.64135,-0.48154 -1.47452,-0.6387 -2.24075,-0.41672 l -35.76982,10.22006 c -1.09775,0.31301 -1.85393,1.31604 -1.85393,2.4564 v 11.29268 l -16.59758,9.48425 c -0.0148,0.009 -0.0225,0.0243 -0.0381,0.0331 -0.0243,0.0148 -0.0524,0.0212 -0.0767,0.0368 -0.22887,0.14711 -0.41725,0.33629 -0.585,0.54134 -0.0431,0.0529 -0.0778,0.10663 -0.11668,0.16272 -0.15398,0.22198 -0.27887,0.4609 -0.35613,0.72099 -0.007,0.023 -0.0201,0.0429 -0.0262,0.0664 -0.0561,0.21219 -0.0886,0.43153 -0.0886,0.65643 v 84.314767 c 0,1.00171 0.58632,1.91135 1.49702,2.32542 l 28.10483,12.77484 c 0.0349,0.0156 0.0735,0.009 0.10848,0.0238 0.30374,0.12277 0.62071,0.25744 0.94933,0.25744 0.24262,0 0.48339,-0.0516 0.71675,-0.0516 h 0.004 l 43.43506,-12.82674 c 1.08796,-0.32067 1.83382,-1.36922 1.83382,-2.50322 V 60.476463 c 5.3e-4,-0.0857 -0.0487,-0.15981 -0.0574,-0.24421 z m -53.59691,-20.82297 30.65991,-8.76036 v 7.46099 l -30.65991,8.76009 z m -3.7428,14.46794 6.34021,14.26475 -17.43392,-7.9248 z m 8.8527,99.720927 -22.99494,-10.4521 V 64.445213 l 22.99494,10.4521 z m -4.13571,-101.692597 31.38488,-8.96673 14.1859,16.21419 -37.45362,11.01593 z m 47.57076,90.974857 -38.32489,11.27178 V 75.162953 l 38.32489,-11.27178 z"
         id="path616"
         style="stroke-width:0.264583" />
      <text
         xml:space="preserve"
         style="font-style:normal;font-variant:normal;font-weight:normal;font-stretch:normal;font-size:14.1111px;line-height:1.25;font-family:sans-serif;-inkscape-font-specification:'sans-serif, Normal';font-variant-ligatures:normal;font-variant-caps:normal;font-variant-numeric:normal;font-variant-east-asian:normal;fill:#000000;fill-opacity:1;stroke:none;stroke-width:0.264583"
         x="-136.83586"
         y="173.60413"
         id="text620"
         transform="rotate(-90)"><tspan
           sodipodi:role="line"
           id="tspan618"
           x="-136.83586"
           y="173.60413"
           style="font-style:normal;font-variant:normal;font-weight:normal;font-stretch:normal;font-size:14.1111px;font-family:sans-serif;-inkscape-font-specification:'sans-serif, Normal';font-variant-ligatures:normal;font-variant-caps:normal;font-variant-numeric:normal;font-variant-east-asian:normal;stroke-width:0.264583">1000мл</tspan></text>
    </g>
  </g>
</svg>
