<?xml version="1.0" encoding="UTF-8" standalone="no"?>
<svg
   xmlns:dc="http://purl.org/dc/elements/1.1/"
   xmlns:cc="http://creativecommons.org/ns#"
   xmlns:rdf="http://www.w3.org/1999/02/22-rdf-syntax-ns#"
   xmlns:svg="http://www.w3.org/2000/svg"
   xmlns="http://www.w3.org/2000/svg"
   xmlns:sodipodi="http://sodipodi.sourceforge.net/DTD/sodipodi-0.dtd"
   xmlns:inkscape="http://www.inkscape.org/namespaces/inkscape"
   xml:space="preserve"
   width="133.391mm"
   height="72.917mm"
   version="1.1"
   style="shape-rendering:geometricPrecision; text-rendering:geometricPrecision; image-rendering:optimizeQuality; fill-rule:evenodd; clip-rule:evenodd"
   viewBox="0 0 10923 5971"
   id="svg490"
   sodipodi:docname="b08-body-1.svg"
   inkscape:export-xdpi="72.106644"
   inkscape:export-ydpi="72.106644"
   inkscape:version="1.0.1 (3bc2e813f5, 2020-09-07)"><metadata
   id="metadata494"><rdf:RDF><cc:Work
       rdf:about=""><dc:format>image/svg+xml</dc:format><dc:type
         rdf:resource="http://purl.org/dc/dcmitype/StillImage" /></cc:Work></rdf:RDF></metadata><sodipodi:namedview
   pagecolor="#ffffff"
   bordercolor="#666666"
   borderopacity="1"
   objecttolerance="10"
   gridtolerance="10"
   guidetolerance="10"
   inkscape:pageopacity="0"
   inkscape:pageshadow="2"
   inkscape:window-width="1920"
   inkscape:window-height="1017"
   id="namedview492"
   showgrid="false"
   inkscape:zoom="2.1396358"
   inkscape:cx="252.07749"
   inkscape:cy="114.72754"
   inkscape:window-x="-8"
   inkscape:window-y="-8"
   inkscape:window-maximized="1"
   inkscape:current-layer="svg490" />
 <defs
   id="defs4">
  <style
   type="text/css"
   id="style2">
   <![CDATA[
    .str1 {stroke:#2B2A29;stroke-width:12.2835;stroke-linecap:round;stroke-linejoin:round}
    .str2 {stroke:#2B2A29;stroke-width:40.9369}
    .str0 {stroke:#2B2A29;stroke-width:40.9369;stroke-linecap:round;stroke-linejoin:round}
    .fil1 {fill:none}
    .fil21 {fill:#00A0E3}
    .fil23 {fill:#7690C9}
    .fil7 {fill:#E31E24}
    .fil22 {fill:#FEFEFE}
    .fil25 {fill:#FFED00}
    .fil5 {fill:#2B2A29}
    .fil0 {fill:#683224}
    .fil17 {fill:#727271}
    .fil12 {fill:#9D9E9E}
    .fil8 {fill:#A75F4A}
    .fil20 {fill:#A95A1E}
    .fil15 {fill:#AD2929}
    .fil18 {fill:#C5C6C6}
    .fil6 {fill:#CC6F3C}
    .fil9 {fill:#D19563}
    .fil11 {fill:#D68B74}
    .fil2 {fill:#E67700}
    .fil10 {fill:#EBECEC}
    .fil19 {fill:#EF7F1A}
    .fil16 {fill:#F7BC8C}
    .fil3 {fill:#FCBC88}
    .fil13 {fill:#FEFEFE}
    .fil4 {fill:white}
    .fil24 {fill:#2B2A29;fill-rule:nonzero}
    .fil14 {fill:#FEFEFE;fill-rule:nonzero}
   ]]>
  </style>
 
  
  
  
  
  
  
  
  
  
  
  
  
  
  
  
  
  
  
  
  
  
  
  
  
  
  
  
  
  
  
  
  
  
  
  
  
  
  
  
  
  
  
  
  
  
  
  
  
  
  
  
  
  
  
  
  
  
  
  
  
  
  
  
  
 
   
   
   
   
   
   
   
   
   
   
   
   
   
  </defs>
 <g
   id="_922169408">
   <path
   class="fil0 str0"
   d="m 4102,3997 c -61,-360 398,-1690 187,-2061 -300,-522 153,-693 650,-698 623,-9 776,1042 680,1549 -120,612 -435,1544 -1229,1449 -164,-18 -275,-160 -288,-239 z"
   id="path7" />
   <path
   class="fil1 str1"
   d="m 4977,1324 c -232,130 -508,346 -504,641"
   id="path9" />
   <path
   class="fil1 str1"
   d="m 5288,1497 c -374,218 -716,612 -797,1049"
   id="path11" />
   <path
   class="fil1 str1"
   d="m 5445,1913 c -304,90 -1071,779 -1039,1083"
   id="path13" />
   <path
   class="fil1 str1"
   d="m 4318,1472 c 542,104 740,111 1067,615"
   id="path15" />
   <path
   class="fil1 str1"
   d="m 4406,1783 c 369,108 848,346 961,770 v 81"
   id="path17" />
   <path
   class="fil1 str1"
   d="m 4518,2199 c 423,165 623,723 623,1144"
   id="path19" />
   <path
   class="fil1 str1"
   d="m 4682,2710 c 205,441 252,642 286,1110 l 9,27"
   id="path21" />
   <path
   class="fil1 str1"
   d="M 5549,2339 C 5247,2550 4543,3248 4543,3628"
   id="path23" />
   <line
   class="fil1 str1"
   x1="5394"
   y1="2980"
   x2="4820"
   y2="3646"
   id="line25" />
  </g><g
   id="_922169824">
   <path
   class="fil0 str0"
   d="m 7799,4051 c 93,-654 203,-1370 192,-2030 -5,-238 90,-598 283,-744 448,-336 1623,-502 1429,283 -162,662 -468,842 -673,1501 -159,525 -420,860 -979,993 -74,18 -202,-30 -229,6 -11,-2 -23,-4 -23,-9 z"
   id="path28" />
   <path
   class="fil1 str1"
   d="m 9478,1153 c -256,-90 -1033,178 -1202,515 l -11,23"
   id="path30" />
   <path
   class="fil1 str1"
   d="m 9573,1389 c -626,207 -1060,232 -1405,745 -40,59 -42,54 -63,115 l 54,-34"
   id="path32" />
   <path
   class="fil1 str1"
   d="m 9436,1778 c -415,174 -1178,403 -1355,919 -18,49 58,-5 60,-7"
   id="path34" />
   <path
   class="fil1 str1"
   d="m 9253,2285 c -274,49 -1127,502 -1132,758 l 20,16"
   id="path36" />
   <path
   class="fil1 str1"
   d="m 8060,1958 c 194,410 345,696 469,1139"
   id="path38" />
   <path
   class="fil1 str1"
   d="m 8322,1585 c 166,153 603,920 526,1181"
   id="path40" />
   <path
   class="fil1 str1"
   d="m 8659,1247 385,732 c 193,369 103,196 103,443"
   id="path42" />
   <path
   class="fil1 str1"
   d="m 9197,1114 c 90,151 320,682 232,858"
   id="path44" />
  </g><g
   id="_922173728">
   <path
   class="fil2 str0"
   d="m 8767,2091 c 135,455 68,313 -7,682 -36,180 192,891 61,1492 -99,464 -211,374 -601,421 -108,14 -895,142 -943,-31 -11,-41 -115,-12 -61,-153 77,-196 -180,-354 -177,-743 2,-302 193,-570 306,-840 45,-108 -237,-699 16,-891 36,-29 247,-196 283,-207 0,-175 97,-184 196,-65 164,27 565,54 698,162 202,-90 198,94 229,173 z"
   id="path47" />
   <path
   class="fil3"
   d="m 7586,3349 -171,-306 c -59,-218 245,-196 375,-130 147,69 372,40 378,45 111,65 -328,245 -378,279 -29,18 -177,110 -204,112 z"
   id="path49" />
   <path
   class="fil3"
   d="m 7379,3572 c -9,-22 -61,-79 -88,-76 -70,92 -81,272 -52,389 86,340 416,533 731,410 232,-91 304,-466 250,-689 -4,-18 -9,-34 -9,-50 -83,32 -479,79 -484,84 12,29 -81,303 -245,137 -49,38 -187,-50 -133,-115 9,-11 30,-74 30,-90 z"
   id="path51" />
   <path
   class="fil3"
   d="m 7739,1855 c -66,2 -86,-29 -120,9 -38,49 -157,115 -182,182 -54,149 43,291 536,261 90,-6 265,-56 319,-81 279,-130 174,-396 -378,-369 -43,2 -112,-4 -175,-2 z"
   id="path53" />
   <path
   class="fil4 str1"
   d="m 8209,2078 c -335,-77 27,202 27,9 z"
   id="path55" />
   <path
   class="fil4 str1"
   d="m 7649,1918 c -216,-52 -108,218 15,27 5,-7 5,-23 -15,-27 z"
   id="path57" />
   <path
   class="fil5 str1"
   d="m 8148,2069 c -220,0 119,169 20,2 -6,-11 -11,-2 -20,-2 z"
   id="path59" />
   <path
   class="fil5 str1"
   d="m 7604,1922 c 99,93 -140,117 -57,5 16,-18 48,-11 57,-5 z"
   id="path61" />
   <path
   class="fil1 str1"
   d="m 8083,1972 c 106,-99 146,22 157,22"
   id="path63" />
   <path
   class="fil1 str1"
   d="m 7606,1880 c 38,33 56,27 103,27"
   id="path65" />
   <path
   class="fil4 str1"
   d="m 7577,2321 c -25,92 42,148 74,169 31,15 90,18 178,29 112,16 141,-205 29,-223 -63,-9 -254,-70 -281,25 z"
   id="path67" />
   <path
   class="fil1 str1"
   d="m 7727,2301 c -9,90 -13,108 -13,193"
   id="path69" />
   <path
   class="fil6 str1"
   d="m 7617,2037 c -265,232 56,419 284,358 195,-52 112,-277 -117,-356 -27,-9 -147,-20 -167,-2 z"
   id="path71" />
   <path
   class="fil1 str1"
   d="m 7721,2042 c -81,96 -79,238 -48,337"
   id="path73" />
   <path
   class="fil5 str1"
   d="m 7741,2010 c -234,-90 -196,230 40,144 50,-16 104,-94 -29,-137 z"
   id="path75" />
   <path
   class="fil1 str1"
   d="m 8625,2692 c -193,223 -369,196 -598,196 l -21,4"
   id="path77" />
   <path
   class="fil1 str1"
   d="m 7649,1826 c 72,-12 135,-45 238,-61"
   id="path79" />
   <path
   class="fil1 str1"
   d="m 8598,1967 c 52,-18 52,36 66,59"
   id="path81" />
   <path
   class="fil1 str1"
   d="m 7928,2400 c 49,-27 261,-43 285,-66"
   id="path83" />
   <path
   class="fil1 str1"
   d="m 7563,2334 c -13,-4 -124,-76 -124,-81"
   id="path85" />
   <path
   class="fil1 str1"
   d="m 7390,2967 c 0,108 229,421 223,454 51,32 155,171 114,252 -65,135 -137,259 -267,79 -36,-52 9,-79 9,-126 l -223,-178"
   id="path87" />
   <line
   class="fil1 str1"
   x1="7577"
   y1="3361"
   x2="8299"
   y2="2971"
   id="line89" />
   <path
   class="fil1 str1"
   d="m 7379,3552 c -39,112 -84,169 67,236 2,2 23,2 27,-2"
   id="path91" />
   <path
   class="fil1 str1"
   d="m 7743,3642 c 146,-9 572,-77 691,-178 7,-4 7,-7 11,-11"
   id="path93" />
  </g><path
   class="fil7"
   d="m 7363,2775 c -59,80 262,117 273,240 5,61 88,55 23,137 -12,16 -75,107 -55,116 74,35 -19,83 127,5 30,-16 95,-58 126,-69 0,-42 -36,-87 -13,-94 60,-19 90,-88 126,-83 101,13 12,-10 70,-8 26,1 30,21 91,-5 41,-18 141,-50 200,-70 104,-37 245,-105 338,-165 43,-27 82,-36 92,-93 5,-25 -56,42 -61,45 -153,96 -243,153 -422,204 -55,16 -50,27 -124,25 -160,-3 -351,17 -498,-47 -60,-26 -152,-41 -204,-90 -1,-1 -89,-48 -89,-48 z"
   id="path96" /><g
   id="_922179648">
   <path
   class="fil8 str0"
   d="m 5254,3219 c -16,101 -61,164 -74,344 -16,245 -27,360 11,596 18,104 -9,424 -128,442 -169,29 -115,22 -309,18 -166,-3 -981,15 -1057,-16 -162,-65 -14,-817 27,-943 114,-351 13,-151 -90,-509 -36,-126 -32,-344 90,-430 -12,-4 -7,-2 -14,-6 -283,-228 7,-486 225,-604 -31,-56 32,-186 144,-56 156,-43 531,-54 689,2 11,5 20,7 31,3 43,-61 187,-48 180,56 133,151 336,344 104,527 49,227 259,308 187,549 -2,4 -16,49 -16,27 z"
   id="path98" />
   <path
   class="fil9"
   d="m 4275,2125 c -25,0 -113,-29 -209,-23 -66,7 -149,46 -162,61 -88,95 18,176 112,210 162,56 480,153 612,2 160,-182 169,-284 -96,-315 -88,-12 -160,0 -228,47 -15,11 -18,11 -29,18 z"
   id="path100" />
   <path
   class="fil4 str1"
   d="m 4045,2211 c -83,-52 -144,29 -128,38 41,22 88,9 137,-27 0,-7 -2,2 -9,-11 z"
   id="path102" />
   <path
   class="fil4 str1"
   d="m 4399,2260 c 43,2 198,2 227,-20 7,-124 -328,11 -227,20 z"
   id="path104" />
   <path
   class="fil5 str1"
   d="m 4496,2253 c 6,-90 85,-60 103,-20 11,27 -106,32 -103,20 z"
   id="path106" />
   <path
   class="fil5 str1"
   d="m 3989,2206 c -29,7 -43,63 -25,54 21,-11 54,-2 79,-20 36,-27 -49,-36 -54,-34 z"
   id="path108" />
   <path
   class="fil1 str1"
   d="m 3951,2163 c 22,-11 171,-56 171,-56"
   id="path110" />
   <path
   class="fil1 str1"
   d="m 4439,2116 c 18,52 162,22 171,0"
   id="path112" />
   <path
   class="fil9"
   d="m 4043,2906 c 63,9 81,-5 140,18 36,31 31,27 18,67 70,-20 180,-90 295,-117 13,-2 72,-20 130,-20 68,2 135,2 135,2 41,-135 -488,-47 -702,12 -74,20 -23,36 -16,38 z"
   id="path114" />
   <g
   id="g126">
    <path
   class="fil4 str1"
   d="m 4021,2499 c -7,38 -3,114 54,121 121,11 225,99 252,-74 9,-63 -23,-56 -104,-68 -27,-4 -189,-31 -200,14 z"
   id="path116" />
    <path
   class="fil1 str1"
   d="m 4176,2483 c -25,31 -27,112 -29,157 l 2,-9"
   id="path118" />
    <path
   class="fil6 str1"
   d="m 4079,2265 c -34,2 -119,47 -126,83 -38,166 9,182 178,209 389,63 338,-223 74,-290 -74,-18 -101,-2 -126,-2 z"
   id="path120" />
    <path
   class="fil5 str1"
   d="m 4189,2233 c -83,0 -132,-22 -175,61 -36,72 344,146 239,-36 -16,-27 -36,-25 -63,-25 z"
   id="path122" />
    <path
   class="fil1 str1"
   d="m 4117,2334 c -36,97 -36,133 3,228"
   id="path124" />
   </g>
   <path
   class="fil1 str1"
   d="m 3958,2931 c -12,-12 -171,69 18,112 121,27 117,9 209,-52 88,-58 -117,-123 -227,-60 z"
   id="path128" />
   <path
   class="fil1 str1"
   d="m 4012,2944 c -27,9 -97,36 -104,61"
   id="path130" />
   <path
   class="fil1 str1"
   d="m 4036,2967 c -45,29 -94,78 -74,58"
   id="path132" />
   <path
   class="fil1 str1"
   d="m 4090,2998 c 0,2 -60,50 -40,47"
   id="path134" />
   <path
   class="fil1 str1"
   d="m 3845,2856 c 36,27 70,61 104,86"
   id="path136" />
   <path
   class="fil1 str1"
   d="m 4178,2998 c 113,-47 275,-137 435,-137 31,0 227,2 243,63"
   id="path138" />
   <path
   class="fil9"
   d="m 4437,3244 c 160,121 317,123 509,83 15,54 -36,160 36,324 74,166 -113,468 -329,520 -342,81 -601,137 -763,-239 -81,-182 124,-346 149,-506 0,-9 6,-7 0,4 146,0 342,-24 398,-186 z"
   id="path140" />
   <path
   class="fil1 str1"
   d="m 3823,3363 c 58,85 351,76 461,29 209,-90 216,-477 563,-477"
   id="path142" />
   <path
   class="fil1 str1"
   d="m 4442,3253 c 312,207 659,47 744,-36"
   id="path144" />
   <path
   class="fil1 str1"
   d="m 4838,2915 c 67,-18 123,-32 186,4"
   id="path146" />
   <path
   class="fil1 str1"
   d="m 3737,2721 c 41,39 110,57 167,72"
   id="path148" />
   <path
   class="fil1 str1"
   d="m 5083,2625 c -45,6 -290,114 -403,110"
   id="path150" />
   <path
   class="fil1 str1"
   d="m 4865,2093 c 47,-51 67,3 54,27"
   id="path152" />
   <path
   class="fil1 str1"
   d="m 4833,2102 c 47,-11 135,21 142,50"
   id="path154" />
   <path
   class="fil1 str1"
   d="m 3917,2129 c 25,-11 180,-74 185,-78"
   id="path156" />
  </g><g
   id="_922186560">
   <path
   class="fil0 str0"
   d="m 3269,3300 c 20,-203 -405,-1245 -401,-1861 3,-394 -661,-536 -871,-237 -396,563 -218,1330 25,1918 187,450 1040,1012 1222,308 7,-29 23,-106 25,-128 z"
   id="path159" />
   <path
   class="fil1 str1"
   d="m 2119,1083 c 133,99 740,702 727,902 l -16,12"
   id="path161" />
   <path
   class="fil1 str1"
   d="m 2004,1385 c 363,337 804,738 999,1215 5,9 5,13 3,22"
   id="path163" />
   <path
   class="fil1 str1"
   d="m 1997,1864 c 257,218 1056,1253 1054,1287"
   id="path165" />
   <path
   class="fil1 str1"
   d="m 2033,2539 c 70,92 790,1092 867,993"
   id="path167" />
   <path
   class="fil1 str1"
   d="m 3010,2483 c -358,466 -295,394 -526,869"
   id="path169" />
   <path
   class="fil1 str1"
   d="m 2774,1956 c -290,468 -385,644 -601,1130 -2,7 -7,25 -16,20"
   id="path171" />
   <path
   class="fil1 str1"
   d="m 2679,1538 c -173,245 -605,893 -679,1186"
   id="path173" />
   <path
   class="fil1 str1"
   d="m 2535,1193 c -362,369 -364,405 -673,891"
   id="path175" />
  </g><ellipse
   class="fil10"
   cx="6071"
   cy="5699"
   rx="4769"
   ry="272"
   id="ellipse178" /><g
   id="_922192416">
   <path
   class="fil0 str0"
   d="M 2202,3226 C 2020,2514 1493,1621 841,1236 622,1105 26,1290 289,1745 c 261,448 536,1087 783,1582 140,274 633,999 1000,963 126,-13 187,-549 124,-725 -3,-9 9,-330 6,-340 z"
   id="path180" />
   <path
   class="fil1 str1"
   d="m 508,1344 c 204,403 346,835 369,1287"
   id="path182" />
   <path
   class="fil1 str1"
   d="m 796,1421 c 367,934 236,1015 385,1802"
   id="path184" />
   <path
   class="fil1 str1"
   d="m 1138,1700 c 2,2 414,1332 391,1566 0,23 54,266 68,272"
   id="path186" />
   <path
   class="fil1 str1"
   d="m 1637,2147 c 340,802 322,1247 435,2141 v -52"
   id="path188" />
   <path
   class="fil1 str1"
   d="m 359,1533 c 358,-7 813,-9 1076,286"
   id="path190" />
   <path
   class="fil1 str1"
   d="m 591,1949 c 529,102 920,228 1294,622"
   id="path192" />
   <path
   class="fil1 str1"
   d="m 847,2418 c 570,128 1047,535 1256,1078"
   id="path194" />
   <path
   class="fil1 str1"
   d="m 1106,2994 c 201,193 333,281 482,513 13,18 11,18 25,4"
   id="path196" />
  </g><path
   class="fil11 str0"
   d="m 940,2694 c -30,43 -563,419 -198,505 195,45 13,76 11,81 -38,195 135,189 247,121 -29,74 -128,367 -33,653 51,155 103,265 220,378 284,274 414,281 824,232 83,-12 261,-171 254,-300 -11,-196 27,-232 -20,-486 -36,-196 -2,-371 -61,-632 -101,-462 387,-678 669,-561 110,45 405,-200 -518,-398 -329,-70 -88,-40 -198,-259 -86,-164 2,-101 -36,-198 -7,-18 -162,-135 -182,-13 0,2 -171,-39 -201,-39 -47,-2 -92,-4 -135,-2 -20,-61 -184,-83 -204,20 -493,88 -615,451 -480,842 2,11 47,45 41,56 z"
   id="path199" /><g
   id="_922197024">
   <g
   id="g213">
    <path
   class="fil12 str0"
   d="m 9832,2771 -351,-9 c 38,-137 24,-164 27,-272 -111,-3 -401,-57 -300,-205 95,-140 1270,-178 889,115 -45,33 -304,63 -304,60 z"
   id="path201" />
    <path
   class="fil5"
   d="m 9294,2406 c 31,45 409,3 628,-69 168,-57 292,0 182,54 -77,36 -160,51 -221,54 -40,2 -63,-16 -87,15 -34,45 40,198 22,293 -4,16 -252,101 -247,-41 2,-65 54,-258 -66,-247 -69,9 -173,18 -211,-59 z"
   id="path203" />
    <path
   class="fil12 str0"
   d="m 10246,2595 -1132,59 c -57,0 -104,2 -129,67 l -301,1862 c 2,54 40,90 85,67 l 1859,9 c 54,-4 43,-65 34,-97 l -290,-1928 c -41,-54 -57,-39 -126,-39 z"
   id="path205" />
    <path
   class="fil5"
   d="m 10633,4475 -304,-1792 c -61,0 -1089,11 -1121,59 l -173,441 c -86,63 -311,1330 -230,1395 l 1844,14 c 38,-63 20,-63 -16,-117 z"
   id="path207" />
    <path
   class="fil13"
   d="m 9505,2244 c -184,-22 -385,158 -24,84 78,-18 173,-63 24,-84 z"
   id="path209" />
    <path
   class="fil13"
   d="m 9089,2701 c -88,32 -77,335 -68,326 32,-27 180,-369 68,-326 z"
   id="path211" />
   </g>
   <path
   class="fil14"
   d="m 9116,3826 214,-283 c 11,-16 22,-32 29,-50 7,-18 9,-33 9,-49 v 0 c 0,-25 -7,-45 -20,-59 -16,-11 -36,-18 -61,-18 -25,0 -45,7 -61,21 -16,15 -25,36 -29,63 v 0 h -88 v 0 c 5,-36 16,-66 32,-90 15,-25 36,-43 60,-57 23,-13 52,-20 84,-20 38,0 67,7 94,20 25,12 45,30 59,54 13,23 20,52 20,86 v 0 c 0,22 -4,45 -13,67 -9,25 -23,48 -39,68 l -175,241 h 229 v 81 h -344 z"
   id="path215" />
   <path
   id="_1"
   class="fil14"
   d="m 9692,3907 c -58,0 -101,-15 -130,-45 -30,-31 -45,-74 -45,-128 v -277 c 0,-56 15,-96 45,-128 29,-29 74,-45 130,-45 56,0 99,16 128,45 32,29 45,72 45,128 v 277 c 0,54 -13,97 -45,128 -29,30 -72,45 -128,45 z m 0,-81 c 29,0 52,-9 68,-24 13,-16 20,-39 20,-68 v -277 c 0,-29 -7,-51 -20,-67 -16,-16 -39,-25 -68,-25 -31,0 -54,9 -67,25 -14,16 -23,38 -23,67 v 277 c 0,29 9,52 23,68 13,15 36,24 67,24 z" />
   <path
   id="_2"
   class="fil14"
   d="m 9967,3804 130,-158 h 59 l -192,219 z m -21,-259 h 50 v 356 h -50 z m 79,209 34,-33 110,180 h -54 z" />
   <path
   id="_3"
   class="fil14"
   d="m 10266,4004 c -20,0 -38,-2 -52,-11 -16,-7 -27,-16 -36,-29 v 0 l 34,-32 v 0 c 7,9 16,18 25,23 9,4 18,6 27,6 20,0 33,-4 45,-15 11,-12 16,-25 16,-45 v -255 h 49 v 248 c 0,22 -4,43 -13,58 -7,18 -21,32 -36,39 -19,9 -37,13 -59,13 z m -7,-99 c -18,0 -34,-4 -47,-11 -14,-9 -23,-20 -29,-36 -7,-16 -12,-34 -12,-56 v -57 c 0,-20 5,-40 12,-54 6,-15 15,-29 29,-36 13,-9 27,-13 45,-13 16,0 29,4 43,13 11,7 22,18 29,32 l -4,52 c 0,-9 -3,-21 -7,-27 -5,-7 -9,-14 -16,-18 -9,-3 -18,-5 -27,-5 -18,0 -29,5 -38,14 -9,11 -14,24 -14,45 v 54 c 0,18 5,33 14,42 9,12 20,16 38,16 9,0 18,-2 27,-7 7,-4 11,-9 16,-18 4,-6 7,-15 7,-27 l 2,52 c -5,14 -14,25 -25,34 -11,7 -25,11 -43,11 z" />
  </g><path
   class="fil15 str0"
   d="m 3391,2699 c 0,4 227,722 247,896 45,400 81,409 81,830 0,92 365,126 160,284 -99,76 -750,-45 -999,2 -138,25 -590,9 -624,-191 -40,-239 -475,-383 -317,-1265 70,-383 92,-621 356,-876 114,-110 15,-403 144,-517 -174,-9 -86,-239 72,-144 189,-90 513,-147 713,-68 5,0 61,23 65,16 48,-20 196,-77 169,38 -2,7 -18,16 -22,20 47,194 445,198 -36,941 0,0 -7,32 -9,34 z"
   id="path221" /><path
   class="fil9"
   d="m 3017,1713 c -1105,128 133,565 389,200 86,-119 -139,-258 -353,-209 z"
   id="path223" /><path
   class="fil1 str1"
   d="m 2794,1907 c 45,0 185,-12 205,-66"
   id="path225" /><path
   class="fil1 str1"
   d="m 3224,1803 c 72,18 63,7 124,-13"
   id="path227" /><path
   class="fil1 str1"
   d="m 3267,1666 c 25,7 153,36 146,72"
   id="path229" /><g
   id="_922224512">
   <path
   class="fil4 str1"
   d="m 3170,2175 c 23,128 9,180 176,123 87,-252 4,-178 -165,-144 -2,16 -13,14 -11,20 z"
   id="path231" />
   <path
   class="fil1 str1"
   d="m 3267,2132 c 7,27 16,175 29,182"
   id="path233" />
   <path
   class="fil6 str1"
   d="m 3235,1895 c -283,43 -175,426 151,221 169,-106 -34,-239 -151,-221 z"
   id="path235" />
   <path
   class="fil1 str1"
   d="m 3274,1898 c 49,90 40,159 22,256"
   id="path237" />
   <path
   class="fil5 str1"
   d="m 3294,1868 c -140,14 -180,79 -95,102 34,9 97,18 167,-23 110,-61 -23,-85 -72,-79 z"
   id="path239" />
  </g><path
   class="fil9"
   d="m 2781,2715 c -9,67 132,947 85,1186 -72,371 239,454 491,452 472,-2 124,-1272 -54,-1668 -198,-2 -320,52 -522,30 z"
   id="path242" /><path
   class="fil1 str1"
   d="m 2677,2838 c 59,162 290,939 34,1065 -45,22 -187,130 -194,-70 -4,-121 90,20 -108,-216 -101,-119 -265,-326 -191,-502"
   id="path244" /><path
   class="fil1 str1"
   d="m 2569,3820 c -18,49 -25,74 -36,123"
   id="path246" /><path
   class="fil1 str1"
   d="m 2619,3829 c -14,67 -16,67 -36,123"
   id="path248" /><path
   class="fil1 str1"
   d="m 2684,3829 c 0,13 -7,85 -7,85"
   id="path250" /><path
   class="fil1 str1"
   d="m 2605,2526 c 162,101 470,164 644,83 l 70,-34"
   id="path252" /><path
   class="fil1 str1"
   d="m 933,2674 c 108,142 250,144 403,144"
   id="path254" /><path
   class="fil16"
   d="m 1239,2865 c 191,-49 196,-11 410,-110 173,-81 261,101 202,299 -67,217 -76,480 0,691 196,532 -538,862 -810,288 -198,-420 178,-733 169,-1082 0,-34 27,-86 29,-86 z"
   id="path256" /><path
   class="fil1 str1"
   d="M 1003,3388 C 924,3214 906,3120 955,2847"
   id="path258" /><path
   class="fil1 str1"
   d="m 1973,1864 c 2,-43 87,-47 54,31 l -7,-2"
   id="path260" /><path
   class="fil1 str1"
   d="m 1961,1846 c 32,22 75,58 95,92"
   id="path262" /><path
   class="fil1 str1"
   d="m 2142,2233 c 9,90 -32,110 -37,144"
   id="path264" /><path
   class="fil1 str1"
   d="m 854,3257 c 38,99 -70,90 -56,92"
   id="path266" /><path
   class="fil1 str1"
   d="m 883,2989 c 39,20 50,50 48,92"
   id="path268" /><path
   class="fil16"
   d="m 1759,1882 c 108,191 -7,488 -173,340 -61,-54 -574,-126 -478,-286 70,-117 568,-200 651,-54 z"
   id="path270" /><path
   class="fil4 str1"
   d="m 1563,1976 c 236,-36 34,237 -43,93 -33,-61 3,-86 43,-93 z"
   id="path272" /><path
   class="fil5 str1"
   d="m 1601,1974 c -58,9 -72,11 -81,27 -40,77 61,92 95,50 18,-21 18,-34 -14,-77 z"
   id="path274" /><path
   class="fil1 str1"
   d="m 1633,1884 c 61,0 124,65 121,110"
   id="path276" /><path
   class="fil1 str1"
   d="m 1363,1803 c 92,-31 137,-18 232,-9"
   id="path278" /><path
   class="fil5 str1"
   d="m 1361,2217 c -3,68 -41,189 -79,205 -16,7 -43,25 -47,-43 -3,-31 -156,-196 81,-198 20,0 45,27 45,36 z"
   id="path280" /><path
   class="fil4 str1"
   d="m 1093,2188 c 0,151 -57,92 148,169 48,18 39,-47 52,-110 7,-36 -200,-95 -200,-59 z"
   id="path282" /><path
   class="fil1 str1"
   d="m 1194,2156 c -34,73 -27,169 -27,167"
   id="path284" /><path
   class="fil6 str1"
   d="m 1154,1886 c -257,102 -106,439 175,361 180,-52 173,-316 -52,-354 -78,-13 -31,-43 -123,-7 z"
   id="path286" /><path
   class="fil1 str1"
   d="m 1246,1895 c -95,32 -149,257 -97,338"
   id="path288" /><path
   class="fil13 str1"
   d="m 1291,1839 c 198,140 -279,74 0,0 z"
   id="path290" /><path
   class="fil5 str1"
   d="m 1205,1857 c -119,-27 -135,259 156,104 51,-27 11,-68 -156,-104 z"
   id="path292" /><path
   class="fil5 str1"
   d="m 1298,1886 c 9,-105 -126,36 -16,27 9,0 16,-18 16,-27 z"
   id="path294" /><g
   id="_922161632">
   <path
   class="fil17 str2"
   d="m 4664,4808 c 264,324 1582,243 2055,225 608,-23 700,-495 842,-342 115,123 -336,396 -599,420 -1105,109 -1663,199 -2545,-294 -11,-5 4,-7 -41,-32 120,-250 288,23 288,23 z"
   id="path296" />
   <path
   class="fil17 str2"
   d="m 8589,4774 c -76,391 498,310 354,-25 -5,-11 -329,-103 -354,25 z"
   id="path298" />
   <path
   class="fil17 str2"
   d="m 3114,4781 c -77,432 497,342 353,-27 -4,-14 -329,-115 -353,27 z"
   id="path300" />
   <path
   class="fil18 str2"
   d="m 3021,4886 -22,88 c 0,106 437,250 599,23 l 2475,355 2435,-378 c 14,5 59,47 66,50 425,119 510,-52 589,-138 -2,-33 -25,-110 -67,-110 -246,245 -288,176 -554,122 H 3553 c -111,92 -424,83 -532,-12 z"
   id="path302" />
   <path
   class="fil12"
   d="m 3580,4929 c -216,101 -246,90 -466,36 h -21 c -157,-83 -11,196 304,97 77,-23 140,-77 221,-77 l 1969,277 h 1029 l 1818,-297 c 162,-29 297,254 704,-52 63,-47 7,-130 -213,48 -147,117 -336,-97 -473,-39 l -1823,95 -184,-101 -36,24 -682,214 z"
   id="path304" />
   <path
   class="fil18 str2"
   d="m 2808,5728 h 515 l 23,-144 h 5574 l 23,144 409,-13 -4,-279 c 0,-59 9,-50 -50,-117 l -6396,15 c -22,18 -67,18 -88,102 z"
   id="path306" />
   <path
   class="fil12"
   d="m 9253,5386 c -25,241 -619,367 11,308 106,-11 79,-344 -11,-308 z"
   id="path308" />
   <path
   class="fil12"
   d="m 3199,5402 c 23,135 -27,209 -173,227 -149,18 -196,-20 -176,68 16,6 442,2 439,-36 0,-41 -22,-250 -90,-259 z"
   id="path310" />
   <path
   class="fil12"
   d="m 5493,5496 -2204,-69 c 45,63 41,148 102,119 l 5498,20 c 13,-70 83,-108 -39,-76 l -2108,13 c -237,-279 -435,-112 -707,-182 -113,-29 -547,25 -536,162 z"
   id="path312" />
   <polyline
   class="fil1 str1"
   points="3577,4952 6028,5251 8511,4952 "
   id="polyline314" />
   <g
   id="g320">
    <path
   class="fil18 str2"
   d="m 5504,5728 c -5,-803 306,-1296 607,-1260 248,27 487,407 545,1253 l -20,7 z"
   id="path316" />
    <path
   class="fil1 str1"
   d="m 5504,5296 c 207,-31 824,-38 1053,-34"
   id="path318" />
   </g>
   <path
   class="fil5 str1"
   d="m 6093,4880 c -285,-138 -83,371 32,94 16,-40 7,-76 -32,-94 z"
   id="path322" />
   <path
   class="fil1 str1"
   d="m 5967,4785 c -418,284 318,572 261,124 -15,-128 -177,-178 -261,-124 z"
   id="path324" />
   <path
   class="fil1 str1"
   d="m 3568,4920 c 0,18 9,86 21,99"
   id="path326" />
   <line
   class="fil1 str1"
   x1="8544"
   y1="4929"
   x2="8499"
   y2="4997"
   id="line328" />
   <g
   id="g344">
    <path
   class="fil19 str2"
   d="m 6856,3977 c 43,169 -382,635 104,610 72,-4 162,133 182,189 -400,88 -583,-288 -544,-578 24,-171 -81,-293 -228,-302 l -270,-18 v -67 l 558,20 c 102,2 178,63 198,146 z"
   id="path330" />
    <path
   class="fil20"
   d="m 6838,4031 c -101,32 -274,232 -186,338 15,18 38,20 65,11 29,-117 108,-254 121,-349 z"
   id="path332" />
    <path
   class="fil1 str1"
   d="m 6492,3844 c 544,32 -160,797 412,777 27,-2 18,2 49,20"
   id="path334" />
    <path
   class="fil19 str2"
   d="m 7081,4553 c -177,-54 -157,41 -117,45 36,79 54,162 106,232 l 3678,-11 c 33,-38 139,-160 155,-198 0,-79 0,-95 -83,-68 z"
   id="path336" />
    <path
   class="fil20"
   d="m 10030,4598 c -527,79 -2127,151 -2426,210 l 3117,-9 c 33,-30 130,-138 144,-167 0,-58 0,-72 -79,-52 z"
   id="path338" />
    <line
   class="fil1 str1"
   x1="7005"
   y1="4630"
   x2="10874"
   y2="4641"
   id="line340" />
    <line
   class="fil1 str1"
   x1="7059"
   y1="4796"
   x2="10768"
   y2="4785"
   id="line342" />
   </g>
   <path
   class="fil1 str1"
   d="m 3222,5377 c 67,9 97,223 94,263"
   id="path346" />
   <path
   class="fil1 str1"
   d="m 9026,5350 c -81,54 -124,243 -95,335"
   id="path348" />
   <line
   class="fil1 str1"
   x1="8925"
   y1="5528"
   x2="6640"
   y2="5541"
   id="line350" />
   <line
   class="fil1 str1"
   x1="5506"
   y1="5535"
   x2="3303"
   y2="5546"
   id="line352" />
   <line
   class="fil1 str1"
   x1="8945"
   y1="5679"
   x2="9361"
   y2="5672"
   id="line354" />
   <line
   class="fil1 str1"
   x1="2799"
   y1="5685"
   x2="3310"
   y2="5685"
   id="line356" />
   <path
   class="fil13"
   d="m 2918,5382 c -110,85 27,288 49,20 5,-38 -47,-20 -49,-20 z"
   id="path358" />
   <path
   class="fil13"
   d="m 9044,5366 c -101,90 -153,328 -11,65 24,-47 76,-49 11,-65 z"
   id="path360" />
   <path
   class="fil13"
   d="m 5997,4526 c -70,-6 -147,84 -201,156 -173,227 -240,666 -150,499 141,-268 137,-360 229,-459 259,-283 403,-164 122,-196 z"
   id="path362" />
   <path
   class="fil1 str1"
   d="m 5529,5739 c 0,-292 207,-1555 681,-1152 291,245 338,777 338,1130"
   id="path364" />
   <g
   id="g382">
    <path
   class="fil19 str2"
   d="m 5238,3977 c -40,169 385,635 -103,610 -72,-4 -162,133 -180,189 398,88 583,-288 542,-578 -22,-171 83,-293 227,-302 l 270,-18 v -67 l -555,20 c -104,2 -178,63 -201,146 z"
   id="path366" />
    <path
   class="fil20"
   d="m 5520,4011 c -270,0 -5,43 -156,522 -20,65 -171,86 -324,95 -34,40 -63,90 -72,119 376,83 549,-272 511,-545 -9,-76 7,-142 41,-191 z"
   id="path368" />
    <path
   class="fil1 str1"
   d="m 5605,3844 c -547,32 158,797 -414,777 -27,-2 -18,2 -47,20"
   id="path370" />
    <path
   class="fil19 str2"
   d="m 1383,4553 c -178,-54 -157,41 -119,45 36,79 56,162 108,232 l 3677,-11 c 34,-38 140,-160 153,-198 0,-79 0,-95 -83,-68 z"
   id="path372" />
    <path
   class="fil20"
   d="m 5195,4607 c -193,34 -522,9 -684,52 -51,14 -2511,74 -3056,146 l 3594,-11 c 32,-34 119,-137 146,-187 z"
   id="path374" />
    <line
   class="fil1 str1"
   x1="1338"
   y1="4652"
   x2="5180"
   y2="4641"
   id="line376" />
    <line
   class="fil1 str1"
   x1="1390"
   y1="4785"
   x2="5049"
   y2="4785"
   id="line378" />
    <path
   class="fil13"
   d="m 5380,3889 c -130,14 -164,300 7,36 9,-13 9,-36 -7,-36 z"
   id="path380" />
   </g>
  </g><g
   id="_918691680">
   <path
   class="fil21 str0"
   d="m 1868,1939 c 66,144 234,44 285,-42 147,-245 7,-280 -206,-280 -172,0 -251,88 -285,1 -141,-357 -289,-131 -289,124 64,55 195,5 272,14 93,11 176,82 223,183 z"
   id="path385" />
   <path
   class="fil21 str0"
   d="m 1676,1590 c 205,-97 83,264 -63,177 -9,-5 -14,-16 -18,-25 v 15 c 0,-67 41,-111 81,-167 z"
   id="path387" />
   <path
   class="fil1 str1"
   d="m 1606,1650 c -14,-20 -55,-69 -76,-76"
   id="path389" />
   <path
   class="fil1 str1"
   d="m 1519,1650 c 14,8 77,42 81,54"
   id="path391" />
   <path
   class="fil1 str1"
   d="m 1776,1688 c 28,11 99,16 130,16"
   id="path393" />
   <path
   class="fil1 str1"
   d="m 1768,1712 c 19,5 34,13 52,19"
   id="path395" />
  </g><path
   class="fil22 str0"
   d="m 5394,1467 -284,236 53,-255 C 4072,1475 3825,446 4863,357 c 615,-52 1931,4 1441,751 -215,327 -529,359 -910,359 z"
   id="path398" /><path
   class="fil23 str0"
   d="m 4168,2022 c 34,-104 143,-326 259,-364 225,-76 552,-7 663,209 70,134 97,235 9,359 -13,18 -202,-88 -260,-102 -295,-71 -366,-85 -658,-98 z"
   id="path400" /><path
   class="fil1 str1"
   d="m 4791,1668 c 94,113 94,234 72,361 -1,5 7,-22 8,-25"
   id="path408" /><path
   class="fil1 str1"
   d="m 4929,1733 c 86,249 97,178 97,423"
   id="path410" /><path
   class="fil1 str1"
   d="m 4672,1665 c -18,72 -128,214 -119,319 -3,-4 -3,-11 -4,-16"
   id="path412" /><path
   class="fil1 str1"
   d="m 4640,1679 c -176,0 -242,164 -289,300"
   id="path414" /><path
   class="fil23 str0"
   d="m 4105,2057 c -139,-311 4,-372 204,-302 165,58 369,208 485,349 -48,-2 -125,-45 -201,-47 -183,-5 -409,-8 -488,0 z"
   id="path416" /><path
   class="fil1 str1"
   d="m 4152,2044 c -13,-43 -159,-260 6,-260 193,0 401,165 529,265"
   id="path418" /><path
   class="fil1 str1"
   d="m 2338,2328 c 11,114 169,295 263,354 168,106 327,156 525,137 26,-2 136,-45 142,-61 2,-3 72,0 110,-22"
   id="path421" /><g
   id="_918694848">
   <path
   class="fil25 str1"
   d="m 2631,2601 c -244,-26 22,276 17,12 0,-11 -7,-11 -17,-12 z"
   id="path423" />
   <path
   class="fil25 str1"
   d="m 2779,2689 c -77,0 -165,1 -103,108 73,125 167,-108 103,-108 z"
   id="path425" />
   <path
   class="fil25 str1"
   d="m 2926,2781 c -264,-31 49,293 49,87 0,-34 6,-80 -49,-87 z"
   id="path427" />
   <path
   class="fil25 str1"
   d="m 3051,2775 c -168,0 61,247 35,35 -2,-15 -13,-35 -35,-35 z"
   id="path429" />
   <path
   class="fil25 str1"
   d="m 3249,2766 c -45,225 175,205 61,-13 -2,-3 -51,-36 -61,13 z"
   id="path431" />
   <path
   class="fil25 str1"
   d="m 3159,2768 c -72,119 153,311 97,49 -10,-46 -76,-83 -97,-49 z"
   id="path433" />
   <path
   class="fil25 str1"
   d="m 3348,2716 c -33,231 201,42 47,-37 -28,-14 -45,17 -47,37 z"
   id="path435" />
   <path
   class="fil25 str1"
   d="m 2480,2510 c -77,144 27,106 27,70 0,-70 -32,-60 -27,-70 z"
   id="path437" />
   <path
   class="fil25 str1"
   d="m 2420,2388 c -103,-24 -124,135 2,135 27,-32 28,-128 -2,-135 z"
   id="path439" />
  </g><g
   id="_918697184">
   <path
   class="fil1 str1"
   d="m 7339,2754 c 230,181 468,216 750,216 143,0 645,-202 687,-325"
   id="path442" />
   <path
   class="fil1 str1"
   d="m 7350,2819 c 26,18 244,119 249,133"
   id="path444" />
   <path
   class="fil1 str1"
   d="m 7599,2898 c 5,68 58,186 118,214 103,48 141,-18 242,-89 9,-6 42,-44 41,-53"
   id="path446" />
   <path
   class="fil1 str1"
   d="m 7938,3032 c 209,0 271,-58 442,-111 61,-19 331,-163 382,-214"
   id="path448" />
   <path
   class="fil1 str1"
   d="m 7686,3097 c -5,71 -71,124 -87,151 -6,9 35,37 49,74"
   id="path450" />
   <path
   class="fil1 str1"
   d="m 7828,3126 c 3,4 31,84 36,86"
   id="path452" />
   <path
   class="fil1 str1"
   d="m 7664,2941 c 36,24 230,107 246,55"
   id="path454" />
   <path
   class="fil1 str1"
   d="m 7725,3122 c 0,8 -18,91 -18,58"
   id="path456" />
   <path
   class="fil1 str1"
   d="m 7772,3129 c 0,20 -2,34 4,51"
   id="path458" />
  </g><path
   class="fil22 str0"
   d="m 3217,1304 -133,258 -109,-255 C 1987,1257 1577,101 2588,32 3204,-9 4506,19 4061,794 c -225,392 -463,510 -844,510 z"
   id="path461" /><path
   class="fil22 str0"
   d="m 7838,1477 85,226 111,-244 c 925,27 1135,-1002 254,-1091 -521,-53 -1637,4 -1222,751 182,327 448,358 772,358 z"
   id="path473" /><path
   class="fil22 str0"
   d="m 867,1440 285,252 -73,-233 c 925,27 1135,-1002 254,-1091 -521,-53 -1637,4 -1222,751 182,327 432,321 756,321 z"
   id="path481" />
<text
   xml:space="preserve"
   style="font-style:normal;font-variant:normal;font-weight:bold;font-stretch:normal;font-size:577.763px;line-height:1.25;font-family:Arial;-inkscape-font-specification:'Arial, Bold';font-variant-ligatures:normal;font-variant-caps:normal;font-variant-numeric:normal;font-variant-east-asian:normal;fill:#000000;fill-opacity:1;stroke:none;stroke-width:21.6661"
   x="425.25815"
   y="1103.7417"
   id="text498"><tspan
     sodipodi:role="line"
     id="tspan496"
     x="425.25815"
     y="1103.7417"
     style="font-style:normal;font-variant:normal;font-weight:bold;font-stretch:normal;font-size:577.763px;font-family:Arial;-inkscape-font-specification:'Arial, Bold';font-variant-ligatures:normal;font-variant-caps:normal;font-variant-numeric:normal;font-variant-east-asian:normal;stroke-width:21.6661">Аня</tspan></text><text
   xml:space="preserve"
   style="font-style:normal;font-variant:normal;font-weight:bold;font-stretch:normal;font-size:577.763px;line-height:1.25;font-family:Arial;-inkscape-font-specification:'Arial, Bold';font-variant-ligatures:normal;font-variant-caps:normal;font-variant-numeric:normal;font-variant-east-asian:normal;fill:#000000;fill-opacity:1;stroke:none;stroke-width:21.6661"
   x="2207.4463"
   y="729.07709"
   id="text502"><tspan
     sodipodi:role="line"
     id="tspan500"
     x="2207.4463"
     y="729.07709"
     style="font-style:normal;font-variant:normal;font-weight:bold;font-stretch:normal;font-size:577.763px;font-family:Arial;-inkscape-font-specification:'Arial, Bold';font-variant-ligatures:normal;font-variant-caps:normal;font-variant-numeric:normal;font-variant-east-asian:normal;stroke-width:21.6661">Берта</tspan></text><text
   xml:space="preserve"
   style="font-style:normal;font-variant:normal;font-weight:bold;font-stretch:normal;font-size:577.763px;line-height:1.25;font-family:Arial;-inkscape-font-specification:'Arial, Bold';font-variant-ligatures:normal;font-variant-caps:normal;font-variant-numeric:normal;font-variant-east-asian:normal;fill:#000000;fill-opacity:1;stroke:none;stroke-width:21.6661"
   x="4587.0728"
   y="1063.2374"
   id="text506"><tspan
     sodipodi:role="line"
     id="tspan504"
     x="4587.0728"
     y="1063.2374"
     style="font-style:normal;font-variant:normal;font-weight:bold;font-stretch:normal;font-size:577.763px;font-family:Arial;-inkscape-font-specification:'Arial, Bold';font-variant-ligatures:normal;font-variant-caps:normal;font-variant-numeric:normal;font-variant-east-asian:normal;stroke-width:21.6661">Вова</tspan></text><text
   xml:space="preserve"
   style="font-style:normal;font-variant:normal;font-weight:bold;font-stretch:normal;font-size:577.763px;line-height:1.25;font-family:Arial;-inkscape-font-specification:'Arial, Bold';font-variant-ligatures:normal;font-variant-caps:normal;font-variant-numeric:normal;font-variant-east-asian:normal;fill:#000000;fill-opacity:1;stroke:none;stroke-width:21.6661"
   x="7250.2295"
   y="1093.6156"
   id="text510"><tspan
     sodipodi:role="line"
     id="tspan508"
     x="7250.2295"
     y="1093.6156"
     style="font-style:normal;font-variant:normal;font-weight:bold;font-stretch:normal;font-size:577.763px;font-family:Arial;-inkscape-font-specification:'Arial, Bold';font-variant-ligatures:normal;font-variant-caps:normal;font-variant-numeric:normal;font-variant-east-asian:normal;stroke-width:21.6661">Гена</tspan></text></svg>
