<?xml version="1.0" encoding="UTF-8" standalone="no"?>
<!-- Created with Inkscape (http://www.inkscape.org/) -->

<svg
   width="18.5cm"
   height="3.2cm"
   viewBox="0 0 185 31.999999"
   version="1.1"
   id="svg4886"
   inkscape:version="1.1.2 (b8e25be833, 2022-02-05)"
   sodipodi:docname="revision_monika_final.svg"
   xmlns:inkscape="http://www.inkscape.org/namespaces/inkscape"
   xmlns:sodipodi="http://sodipodi.sourceforge.net/DTD/sodipodi-0.dtd"
   xmlns="http://www.w3.org/2000/svg"
   xmlns:svg="http://www.w3.org/2000/svg">
  <sodipodi:namedview
     id="namedview4888"
     pagecolor="#ffffff"
     bordercolor="#666666"
     borderopacity="1.0"
     inkscape:pageshadow="2"
     inkscape:pageopacity="0.0"
     inkscape:pagecheckerboard="0"
     inkscape:document-units="mm"
     showgrid="false"
     units="cm"
     inkscape:zoom="0.65386544"
     inkscape:cx="357.10711"
     inkscape:cy="-15.293666"
     inkscape:window-width="1366"
     inkscape:window-height="705"
     inkscape:window-x="-8"
     inkscape:window-y="-8"
     inkscape:window-maximized="1"
     inkscape:current-layer="layer1" />
  <defs
     id="defs4883">
    <filter
       id="filter0_ii_0_1"
       x="389"
       y="52"
       width="50"
       height="56.632"
       filterUnits="userSpaceOnUse"
       color-interpolation-filters="sRGB">
      <feFlood
         flood-opacity="0"
         result="BackgroundImageFix"
         id="feFlood885" />
      <feBlend
         mode="normal"
         in="SourceGraphic"
         in2="BackgroundImageFix"
         result="shape"
         id="feBlend887" />
      <feColorMatrix
         in="SourceAlpha"
         type="matrix"
         values="0 0 0 0 0 0 0 0 0 0 0 0 0 0 0 0 0 0 127 0"
         result="hardAlpha"
         id="feColorMatrix889" />
      <feOffset
         dy="4"
         id="feOffset891" />
      <feGaussianBlur
         stdDeviation="2"
         id="feGaussianBlur893" />
      <feComposite
         in2="hardAlpha"
         operator="arithmetic"
         k2="-1"
         k3="1"
         id="feComposite895"
         k1="0"
         k4="0" />
      <feColorMatrix
         type="matrix"
         values="0 0 0 0 0 0 0 0 0 0 0 0 0 0 0 0 0 0 0.25 0"
         id="feColorMatrix897" />
      <feBlend
         mode="normal"
         in2="shape"
         result="effect1_innerShadow_0_1"
         id="feBlend899" />
      <feColorMatrix
         in="SourceAlpha"
         type="matrix"
         values="0 0 0 0 0 0 0 0 0 0 0 0 0 0 0 0 0 0 127 0"
         result="hardAlpha"
         id="feColorMatrix901" />
      <feOffset
         dy="4"
         id="feOffset903" />
      <feGaussianBlur
         stdDeviation="2"
         id="feGaussianBlur905" />
      <feComposite
         in2="hardAlpha"
         operator="arithmetic"
         k2="-1"
         k3="1"
         id="feComposite907"
         k1="0"
         k4="0" />
      <feColorMatrix
         type="matrix"
         values="0 0 0 0 0 0 0 0 0 0 0 0 0 0 0 0 0 0 0.25 0"
         id="feColorMatrix909" />
      <feBlend
         mode="normal"
         in2="effect1_innerShadow_0_1"
         result="effect2_innerShadow_0_1"
         id="feBlend911" />
    </filter>
    <filter
       id="filter1_ii_0_1"
       x="64"
       y="4"
       width="50"
       height="56.631599"
       filterUnits="userSpaceOnUse"
       color-interpolation-filters="sRGB">
      <feFlood
         flood-opacity="0"
         result="BackgroundImageFix"
         id="feFlood914" />
      <feBlend
         mode="normal"
         in="SourceGraphic"
         in2="BackgroundImageFix"
         result="shape"
         id="feBlend916" />
      <feColorMatrix
         in="SourceAlpha"
         type="matrix"
         values="0 0 0 0 0 0 0 0 0 0 0 0 0 0 0 0 0 0 127 0"
         result="hardAlpha"
         id="feColorMatrix918" />
      <feOffset
         dy="4"
         id="feOffset920" />
      <feGaussianBlur
         stdDeviation="2"
         id="feGaussianBlur922" />
      <feComposite
         in2="hardAlpha"
         operator="arithmetic"
         k2="-1"
         k3="1"
         id="feComposite924"
         k1="0"
         k4="0" />
      <feColorMatrix
         type="matrix"
         values="0 0 0 0 0 0 0 0 0 0 0 0 0 0 0 0 0 0 0.25 0"
         id="feColorMatrix926" />
      <feBlend
         mode="normal"
         in2="shape"
         result="effect1_innerShadow_0_1"
         id="feBlend928" />
      <feColorMatrix
         in="SourceAlpha"
         type="matrix"
         values="0 0 0 0 0 0 0 0 0 0 0 0 0 0 0 0 0 0 127 0"
         result="hardAlpha"
         id="feColorMatrix930" />
      <feOffset
         dy="4"
         id="feOffset932" />
      <feGaussianBlur
         stdDeviation="2"
         id="feGaussianBlur934" />
      <feComposite
         in2="hardAlpha"
         operator="arithmetic"
         k2="-1"
         k3="1"
         id="feComposite936"
         k1="0"
         k4="0" />
      <feColorMatrix
         type="matrix"
         values="0 0 0 0 0 0 0 0 0 0 0 0 0 0 0 0 0 0 0.25 0"
         id="feColorMatrix938" />
      <feBlend
         mode="normal"
         in2="effect1_innerShadow_0_1"
         result="effect2_innerShadow_0_1"
         id="feBlend940" />
    </filter>
    <filter
       id="filter4_ii_0_1"
       x="259"
       y="52"
       width="50"
       height="56.632"
       filterUnits="userSpaceOnUse"
       color-interpolation-filters="sRGB">
      <feFlood
         flood-opacity="0"
         result="BackgroundImageFix"
         id="feFlood1001" />
      <feBlend
         mode="normal"
         in="SourceGraphic"
         in2="BackgroundImageFix"
         result="shape"
         id="feBlend1003" />
      <feColorMatrix
         in="SourceAlpha"
         type="matrix"
         values="0 0 0 0 0 0 0 0 0 0 0 0 0 0 0 0 0 0 127 0"
         result="hardAlpha"
         id="feColorMatrix1005" />
      <feOffset
         dy="4"
         id="feOffset1007" />
      <feGaussianBlur
         stdDeviation="2"
         id="feGaussianBlur1009" />
      <feComposite
         in2="hardAlpha"
         operator="arithmetic"
         k2="-1"
         k3="1"
         id="feComposite1011"
         k1="0"
         k4="0" />
      <feColorMatrix
         type="matrix"
         values="0 0 0 0 0 0 0 0 0 0 0 0 0 0 0 0 0 0 0.25 0"
         id="feColorMatrix1013" />
      <feBlend
         mode="normal"
         in2="shape"
         result="effect1_innerShadow_0_1"
         id="feBlend1015" />
      <feColorMatrix
         in="SourceAlpha"
         type="matrix"
         values="0 0 0 0 0 0 0 0 0 0 0 0 0 0 0 0 0 0 127 0"
         result="hardAlpha"
         id="feColorMatrix1017" />
      <feOffset
         dy="4"
         id="feOffset1019" />
      <feGaussianBlur
         stdDeviation="2"
         id="feGaussianBlur1021" />
      <feComposite
         in2="hardAlpha"
         operator="arithmetic"
         k2="-1"
         k3="1"
         id="feComposite1023"
         k1="0"
         k4="0" />
      <feColorMatrix
         type="matrix"
         values="0 0 0 0 0 0 0 0 0 0 0 0 0 0 0 0 0 0 0.25 0"
         id="feColorMatrix1025" />
      <feBlend
         mode="normal"
         in2="effect1_innerShadow_0_1"
         result="effect2_innerShadow_0_1"
         id="feBlend1027" />
    </filter>
    <filter
       id="filter5_ii_0_1"
       x="324"
       y="57"
       width="50"
       height="56.632"
       filterUnits="userSpaceOnUse"
       color-interpolation-filters="sRGB">
      <feFlood
         flood-opacity="0"
         result="BackgroundImageFix"
         id="feFlood1030" />
      <feBlend
         mode="normal"
         in="SourceGraphic"
         in2="BackgroundImageFix"
         result="shape"
         id="feBlend1032" />
      <feColorMatrix
         in="SourceAlpha"
         type="matrix"
         values="0 0 0 0 0 0 0 0 0 0 0 0 0 0 0 0 0 0 127 0"
         result="hardAlpha"
         id="feColorMatrix1034" />
      <feOffset
         dy="4"
         id="feOffset1036" />
      <feGaussianBlur
         stdDeviation="2"
         id="feGaussianBlur1038" />
      <feComposite
         in2="hardAlpha"
         operator="arithmetic"
         k2="-1"
         k3="1"
         id="feComposite1040"
         k1="0"
         k4="0" />
      <feColorMatrix
         type="matrix"
         values="0 0 0 0 0 0 0 0 0 0 0 0 0 0 0 0 0 0 0.25 0"
         id="feColorMatrix1042" />
      <feBlend
         mode="normal"
         in2="shape"
         result="effect1_innerShadow_0_1"
         id="feBlend1044" />
      <feColorMatrix
         in="SourceAlpha"
         type="matrix"
         values="0 0 0 0 0 0 0 0 0 0 0 0 0 0 0 0 0 0 127 0"
         result="hardAlpha"
         id="feColorMatrix1046" />
      <feOffset
         dy="4"
         id="feOffset1048" />
      <feGaussianBlur
         stdDeviation="2"
         id="feGaussianBlur1050" />
      <feComposite
         in2="hardAlpha"
         operator="arithmetic"
         k2="-1"
         k3="1"
         id="feComposite1052"
         k1="0"
         k4="0" />
      <feColorMatrix
         type="matrix"
         values="0 0 0 0 0 0 0 0 0 0 0 0 0 0 0 0 0 0 0.25 0"
         id="feColorMatrix1054" />
      <feBlend
         mode="normal"
         in2="effect1_innerShadow_0_1"
         result="effect2_innerShadow_0_1"
         id="feBlend1056" />
    </filter>
    <filter
       id="filter6_ii_0_1"
       x="194"
       y="42"
       width="50"
       height="56.631599"
       filterUnits="userSpaceOnUse"
       color-interpolation-filters="sRGB">
      <feFlood
         flood-opacity="0"
         result="BackgroundImageFix"
         id="feFlood1059" />
      <feBlend
         mode="normal"
         in="SourceGraphic"
         in2="BackgroundImageFix"
         result="shape"
         id="feBlend1061" />
      <feColorMatrix
         in="SourceAlpha"
         type="matrix"
         values="0 0 0 0 0 0 0 0 0 0 0 0 0 0 0 0 0 0 127 0"
         result="hardAlpha"
         id="feColorMatrix1063" />
      <feOffset
         dy="4"
         id="feOffset1065" />
      <feGaussianBlur
         stdDeviation="2"
         id="feGaussianBlur1067" />
      <feComposite
         in2="hardAlpha"
         operator="arithmetic"
         k2="-1"
         k3="1"
         id="feComposite1069"
         k1="0"
         k4="0" />
      <feColorMatrix
         type="matrix"
         values="0 0 0 0 0 0 0 0 0 0 0 0 0 0 0 0 0 0 0.25 0"
         id="feColorMatrix1071" />
      <feBlend
         mode="normal"
         in2="shape"
         result="effect1_innerShadow_0_1"
         id="feBlend1073" />
      <feColorMatrix
         in="SourceAlpha"
         type="matrix"
         values="0 0 0 0 0 0 0 0 0 0 0 0 0 0 0 0 0 0 127 0"
         result="hardAlpha"
         id="feColorMatrix1075" />
      <feOffset
         dy="4"
         id="feOffset1077" />
      <feGaussianBlur
         stdDeviation="2"
         id="feGaussianBlur1079" />
      <feComposite
         in2="hardAlpha"
         operator="arithmetic"
         k2="-1"
         k3="1"
         id="feComposite1081"
         k1="0"
         k4="0" />
      <feColorMatrix
         type="matrix"
         values="0 0 0 0 0 0 0 0 0 0 0 0 0 0 0 0 0 0 0.25 0"
         id="feColorMatrix1083" />
      <feBlend
         mode="normal"
         in2="effect1_innerShadow_0_1"
         result="effect2_innerShadow_0_1"
         id="feBlend1085" />
    </filter>
    <filter
       id="filter8_ii_0_1"
       x="129"
       y="26"
       width="50"
       height="56.631599"
       filterUnits="userSpaceOnUse"
       color-interpolation-filters="sRGB">
      <feFlood
         flood-opacity="0"
         result="BackgroundImageFix"
         id="feFlood1117" />
      <feBlend
         mode="normal"
         in="SourceGraphic"
         in2="BackgroundImageFix"
         result="shape"
         id="feBlend1119" />
      <feColorMatrix
         in="SourceAlpha"
         type="matrix"
         values="0 0 0 0 0 0 0 0 0 0 0 0 0 0 0 0 0 0 127 0"
         result="hardAlpha"
         id="feColorMatrix1121" />
      <feOffset
         dy="4"
         id="feOffset1123" />
      <feGaussianBlur
         stdDeviation="2"
         id="feGaussianBlur1125" />
      <feComposite
         in2="hardAlpha"
         operator="arithmetic"
         k2="-1"
         k3="1"
         id="feComposite1127"
         k1="0"
         k4="0" />
      <feColorMatrix
         type="matrix"
         values="0 0 0 0 0 0 0 0 0 0 0 0 0 0 0 0 0 0 0.25 0"
         id="feColorMatrix1129" />
      <feBlend
         mode="normal"
         in2="shape"
         result="effect1_innerShadow_0_1"
         id="feBlend1131" />
      <feColorMatrix
         in="SourceAlpha"
         type="matrix"
         values="0 0 0 0 0 0 0 0 0 0 0 0 0 0 0 0 0 0 127 0"
         result="hardAlpha"
         id="feColorMatrix1133" />
      <feOffset
         dy="4"
         id="feOffset1135" />
      <feGaussianBlur
         stdDeviation="2"
         id="feGaussianBlur1137" />
      <feComposite
         in2="hardAlpha"
         operator="arithmetic"
         k2="-1"
         k3="1"
         id="feComposite1139"
         k1="0"
         k4="0" />
      <feColorMatrix
         type="matrix"
         values="0 0 0 0 0 0 0 0 0 0 0 0 0 0 0 0 0 0 0.25 0"
         id="feColorMatrix1141" />
      <feBlend
         mode="normal"
         in2="effect1_innerShadow_0_1"
         result="effect2_innerShadow_0_1"
         id="feBlend1143" />
    </filter>
    <filter
       id="filter3_ii_0_1"
       x="519"
       y="26"
       width="50"
       height="56.631599"
       filterUnits="userSpaceOnUse"
       color-interpolation-filters="sRGB">
      <feFlood
         flood-opacity="0"
         result="BackgroundImageFix"
         id="feFlood972" />
      <feBlend
         mode="normal"
         in="SourceGraphic"
         in2="BackgroundImageFix"
         result="shape"
         id="feBlend974" />
      <feColorMatrix
         in="SourceAlpha"
         type="matrix"
         values="0 0 0 0 0 0 0 0 0 0 0 0 0 0 0 0 0 0 127 0"
         result="hardAlpha"
         id="feColorMatrix976" />
      <feOffset
         dy="4"
         id="feOffset978" />
      <feGaussianBlur
         stdDeviation="2"
         id="feGaussianBlur980" />
      <feComposite
         in2="hardAlpha"
         operator="arithmetic"
         k2="-1"
         k3="1"
         id="feComposite982"
         k1="0"
         k4="0" />
      <feColorMatrix
         type="matrix"
         values="0 0 0 0 0 0 0 0 0 0 0 0 0 0 0 0 0 0 0.25 0"
         id="feColorMatrix984" />
      <feBlend
         mode="normal"
         in2="shape"
         result="effect1_innerShadow_0_1"
         id="feBlend986" />
      <feColorMatrix
         in="SourceAlpha"
         type="matrix"
         values="0 0 0 0 0 0 0 0 0 0 0 0 0 0 0 0 0 0 127 0"
         result="hardAlpha"
         id="feColorMatrix988" />
      <feOffset
         dy="4"
         id="feOffset990" />
      <feGaussianBlur
         stdDeviation="2"
         id="feGaussianBlur992" />
      <feComposite
         in2="hardAlpha"
         operator="arithmetic"
         k2="-1"
         k3="1"
         id="feComposite994"
         k1="0"
         k4="0" />
      <feColorMatrix
         type="matrix"
         values="0 0 0 0 0 0 0 0 0 0 0 0 0 0 0 0 0 0 0.25 0"
         id="feColorMatrix996" />
      <feBlend
         mode="normal"
         in2="effect1_innerShadow_0_1"
         result="effect2_innerShadow_0_1"
         id="feBlend998" />
    </filter>
    <filter
       id="filter7_ii_0_1"
       x="454"
       y="42"
       width="50"
       height="56.631599"
       filterUnits="userSpaceOnUse"
       color-interpolation-filters="sRGB">
      <feFlood
         flood-opacity="0"
         result="BackgroundImageFix"
         id="feFlood1088" />
      <feBlend
         mode="normal"
         in="SourceGraphic"
         in2="BackgroundImageFix"
         result="shape"
         id="feBlend1090" />
      <feColorMatrix
         in="SourceAlpha"
         type="matrix"
         values="0 0 0 0 0 0 0 0 0 0 0 0 0 0 0 0 0 0 127 0"
         result="hardAlpha"
         id="feColorMatrix1092" />
      <feOffset
         dy="4"
         id="feOffset1094" />
      <feGaussianBlur
         stdDeviation="2"
         id="feGaussianBlur1096" />
      <feComposite
         in2="hardAlpha"
         operator="arithmetic"
         k2="-1"
         k3="1"
         id="feComposite1098"
         k1="0"
         k4="0" />
      <feColorMatrix
         type="matrix"
         values="0 0 0 0 0 0 0 0 0 0 0 0 0 0 0 0 0 0 0.25 0"
         id="feColorMatrix1100" />
      <feBlend
         mode="normal"
         in2="shape"
         result="effect1_innerShadow_0_1"
         id="feBlend1102" />
      <feColorMatrix
         in="SourceAlpha"
         type="matrix"
         values="0 0 0 0 0 0 0 0 0 0 0 0 0 0 0 0 0 0 127 0"
         result="hardAlpha"
         id="feColorMatrix1104" />
      <feOffset
         dy="4"
         id="feOffset1106" />
      <feGaussianBlur
         stdDeviation="2"
         id="feGaussianBlur1108" />
      <feComposite
         in2="hardAlpha"
         operator="arithmetic"
         k2="-1"
         k3="1"
         id="feComposite1110"
         k1="0"
         k4="0" />
      <feColorMatrix
         type="matrix"
         values="0 0 0 0 0 0 0 0 0 0 0 0 0 0 0 0 0 0 0.25 0"
         id="feColorMatrix1112" />
      <feBlend
         mode="normal"
         in2="effect1_innerShadow_0_1"
         result="effect2_innerShadow_0_1"
         id="feBlend1114" />
    </filter>
    <filter
       id="filter3_ii_0_1-2"
       x="519"
       y="26"
       width="50"
       height="56.631599"
       filterUnits="userSpaceOnUse"
       color-interpolation-filters="sRGB">
      <feFlood
         flood-opacity="0"
         result="BackgroundImageFix"
         id="feFlood972-4" />
      <feBlend
         mode="normal"
         in="SourceGraphic"
         in2="BackgroundImageFix"
         result="shape"
         id="feBlend974-5" />
      <feColorMatrix
         in="SourceAlpha"
         type="matrix"
         values="0 0 0 0 0 0 0 0 0 0 0 0 0 0 0 0 0 0 127 0"
         result="hardAlpha"
         id="feColorMatrix976-5" />
      <feOffset
         dy="4"
         id="feOffset978-9" />
      <feGaussianBlur
         stdDeviation="2"
         id="feGaussianBlur980-2" />
      <feComposite
         in2="hardAlpha"
         operator="arithmetic"
         k2="-1"
         k3="1"
         id="feComposite982-9"
         k1="0"
         k4="0" />
      <feColorMatrix
         type="matrix"
         values="0 0 0 0 0 0 0 0 0 0 0 0 0 0 0 0 0 0 0.25 0"
         id="feColorMatrix984-2" />
      <feBlend
         mode="normal"
         in2="shape"
         result="effect1_innerShadow_0_1"
         id="feBlend986-7" />
      <feColorMatrix
         in="SourceAlpha"
         type="matrix"
         values="0 0 0 0 0 0 0 0 0 0 0 0 0 0 0 0 0 0 127 0"
         result="hardAlpha"
         id="feColorMatrix988-6" />
      <feOffset
         dy="4"
         id="feOffset990-9" />
      <feGaussianBlur
         stdDeviation="2"
         id="feGaussianBlur992-2" />
      <feComposite
         in2="hardAlpha"
         operator="arithmetic"
         k2="-1"
         k3="1"
         id="feComposite994-4"
         k1="0"
         k4="0" />
      <feColorMatrix
         type="matrix"
         values="0 0 0 0 0 0 0 0 0 0 0 0 0 0 0 0 0 0 0.25 0"
         id="feColorMatrix996-7" />
      <feBlend
         mode="normal"
         in2="effect1_innerShadow_0_1"
         result="effect2_innerShadow_0_1"
         id="feBlend998-0" />
    </filter>
    <filter
       id="filter0_ii_0_1-30"
       x="390"
       y="51"
       width="50"
       height="56.632"
       filterUnits="userSpaceOnUse"
       color-interpolation-filters="sRGB">
      <feFlood
         flood-opacity="0"
         result="BackgroundImageFix"
         id="feFlood1013-8" />
      <feBlend
         mode="normal"
         in="SourceGraphic"
         in2="BackgroundImageFix"
         result="shape"
         id="feBlend1015-71" />
      <feColorMatrix
         in="SourceAlpha"
         type="matrix"
         values="0 0 0 0 0 0 0 0 0 0 0 0 0 0 0 0 0 0 127 0"
         result="hardAlpha"
         id="feColorMatrix1017-6" />
      <feOffset
         dy="4"
         id="feOffset1019-8" />
      <feGaussianBlur
         stdDeviation="2"
         id="feGaussianBlur1021-4" />
      <feComposite
         in2="hardAlpha"
         operator="arithmetic"
         k2="-1"
         k3="1"
         id="feComposite1023-4"
         k1="0"
         k4="0" />
      <feColorMatrix
         type="matrix"
         values="0 0 0 0 0 0 0 0 0 0 0 0 0 0 0 0 0 0 0.25 0"
         id="feColorMatrix1025-5" />
      <feBlend
         mode="normal"
         in2="shape"
         result="effect1_innerShadow_0_1"
         id="feBlend1027-7" />
      <feColorMatrix
         in="SourceAlpha"
         type="matrix"
         values="0 0 0 0 0 0 0 0 0 0 0 0 0 0 0 0 0 0 127 0"
         result="hardAlpha"
         id="feColorMatrix1029-0" />
      <feOffset
         dy="4"
         id="feOffset1031-4" />
      <feGaussianBlur
         stdDeviation="2"
         id="feGaussianBlur1033-2" />
      <feComposite
         in2="hardAlpha"
         operator="arithmetic"
         k2="-1"
         k3="1"
         id="feComposite1035-6"
         k1="0"
         k4="0" />
      <feColorMatrix
         type="matrix"
         values="0 0 0 0 0 0 0 0 0 0 0 0 0 0 0 0 0 0 0.25 0"
         id="feColorMatrix1037-9" />
      <feBlend
         mode="normal"
         in2="effect1_innerShadow_0_1"
         result="effect2_innerShadow_0_1"
         id="feBlend1039-9" />
    </filter>
    <filter
       id="filter1_ii_0_1-6"
       x="65"
       y="3"
       width="50"
       height="56.632"
       filterUnits="userSpaceOnUse"
       color-interpolation-filters="sRGB">
      <feFlood
         flood-opacity="0"
         result="BackgroundImageFix"
         id="feFlood1042-5" />
      <feBlend
         mode="normal"
         in="SourceGraphic"
         in2="BackgroundImageFix"
         result="shape"
         id="feBlend1044-1" />
      <feColorMatrix
         in="SourceAlpha"
         type="matrix"
         values="0 0 0 0 0 0 0 0 0 0 0 0 0 0 0 0 0 0 127 0"
         result="hardAlpha"
         id="feColorMatrix1046-8" />
      <feOffset
         dy="4"
         id="feOffset1048-2" />
      <feGaussianBlur
         stdDeviation="2"
         id="feGaussianBlur1050-3" />
      <feComposite
         in2="hardAlpha"
         operator="arithmetic"
         k2="-1"
         k3="1"
         id="feComposite1052-0"
         k1="0"
         k4="0" />
      <feColorMatrix
         type="matrix"
         values="0 0 0 0 0 0 0 0 0 0 0 0 0 0 0 0 0 0 0.25 0"
         id="feColorMatrix1054-1" />
      <feBlend
         mode="normal"
         in2="shape"
         result="effect1_innerShadow_0_1"
         id="feBlend1056-5" />
      <feColorMatrix
         in="SourceAlpha"
         type="matrix"
         values="0 0 0 0 0 0 0 0 0 0 0 0 0 0 0 0 0 0 127 0"
         result="hardAlpha"
         id="feColorMatrix1058-8" />
      <feOffset
         dy="4"
         id="feOffset1060-7" />
      <feGaussianBlur
         stdDeviation="2"
         id="feGaussianBlur1062-7" />
      <feComposite
         in2="hardAlpha"
         operator="arithmetic"
         k2="-1"
         k3="1"
         id="feComposite1064-9"
         k1="0"
         k4="0" />
      <feColorMatrix
         type="matrix"
         values="0 0 0 0 0 0 0 0 0 0 0 0 0 0 0 0 0 0 0.25 0"
         id="feColorMatrix1066-9" />
      <feBlend
         mode="normal"
         in2="effect1_innerShadow_0_1"
         result="effect2_innerShadow_0_1"
         id="feBlend1068-5" />
    </filter>
    <filter
       id="filter2_ii_0_1-5"
       x="585"
       y="3"
       width="50"
       height="56.632"
       filterUnits="userSpaceOnUse"
       color-interpolation-filters="sRGB">
      <feFlood
         flood-opacity="0"
         result="BackgroundImageFix"
         id="feFlood1071-9" />
      <feBlend
         mode="normal"
         in="SourceGraphic"
         in2="BackgroundImageFix"
         result="shape"
         id="feBlend1073-5" />
      <feColorMatrix
         in="SourceAlpha"
         type="matrix"
         values="0 0 0 0 0 0 0 0 0 0 0 0 0 0 0 0 0 0 127 0"
         result="hardAlpha"
         id="feColorMatrix1075-3" />
      <feOffset
         dy="4"
         id="feOffset1077-6" />
      <feGaussianBlur
         stdDeviation="2"
         id="feGaussianBlur1079-6" />
      <feComposite
         in2="hardAlpha"
         operator="arithmetic"
         k2="-1"
         k3="1"
         id="feComposite1081-1"
         k1="0"
         k4="0" />
      <feColorMatrix
         type="matrix"
         values="0 0 0 0 0 0 0 0 0 0 0 0 0 0 0 0 0 0 0.25 0"
         id="feColorMatrix1083-38" />
      <feBlend
         mode="normal"
         in2="shape"
         result="effect1_innerShadow_0_1"
         id="feBlend1085-8" />
      <feColorMatrix
         in="SourceAlpha"
         type="matrix"
         values="0 0 0 0 0 0 0 0 0 0 0 0 0 0 0 0 0 0 127 0"
         result="hardAlpha"
         id="feColorMatrix1087-1" />
      <feOffset
         dy="4"
         id="feOffset1089-7" />
      <feGaussianBlur
         stdDeviation="2"
         id="feGaussianBlur1091-1" />
      <feComposite
         in2="hardAlpha"
         operator="arithmetic"
         k2="-1"
         k3="1"
         id="feComposite1093-0"
         k1="0"
         k4="0" />
      <feColorMatrix
         type="matrix"
         values="0 0 0 0 0 0 0 0 0 0 0 0 0 0 0 0 0 0 0.25 0"
         id="feColorMatrix1095-2" />
      <feBlend
         mode="normal"
         in2="effect1_innerShadow_0_1"
         result="effect2_innerShadow_0_1"
         id="feBlend1097-2" />
    </filter>
    <filter
       id="filter3_ii_0_1-27"
       x="520"
       y="25"
       width="50"
       height="56.632"
       filterUnits="userSpaceOnUse"
       color-interpolation-filters="sRGB">
      <feFlood
         flood-opacity="0"
         result="BackgroundImageFix"
         id="feFlood1100-2" />
      <feBlend
         mode="normal"
         in="SourceGraphic"
         in2="BackgroundImageFix"
         result="shape"
         id="feBlend1102-1" />
      <feColorMatrix
         in="SourceAlpha"
         type="matrix"
         values="0 0 0 0 0 0 0 0 0 0 0 0 0 0 0 0 0 0 127 0"
         result="hardAlpha"
         id="feColorMatrix1104-77" />
      <feOffset
         dy="4"
         id="feOffset1106-3" />
      <feGaussianBlur
         stdDeviation="2"
         id="feGaussianBlur1108-0" />
      <feComposite
         in2="hardAlpha"
         operator="arithmetic"
         k2="-1"
         k3="1"
         id="feComposite1110-0"
         k1="0"
         k4="0" />
      <feColorMatrix
         type="matrix"
         values="0 0 0 0 0 0 0 0 0 0 0 0 0 0 0 0 0 0 0.25 0"
         id="feColorMatrix1112-37" />
      <feBlend
         mode="normal"
         in2="shape"
         result="effect1_innerShadow_0_1"
         id="feBlend1114-1" />
      <feColorMatrix
         in="SourceAlpha"
         type="matrix"
         values="0 0 0 0 0 0 0 0 0 0 0 0 0 0 0 0 0 0 127 0"
         result="hardAlpha"
         id="feColorMatrix1116-1" />
      <feOffset
         dy="4"
         id="feOffset1118-0" />
      <feGaussianBlur
         stdDeviation="2"
         id="feGaussianBlur1120-4" />
      <feComposite
         in2="hardAlpha"
         operator="arithmetic"
         k2="-1"
         k3="1"
         id="feComposite1122-5"
         k1="0"
         k4="0" />
      <feColorMatrix
         type="matrix"
         values="0 0 0 0 0 0 0 0 0 0 0 0 0 0 0 0 0 0 0.25 0"
         id="feColorMatrix1124-2" />
      <feBlend
         mode="normal"
         in2="effect1_innerShadow_0_1"
         result="effect2_innerShadow_0_1"
         id="feBlend1126-0" />
    </filter>
    <filter
       id="filter4_ii_0_1-3"
       x="260"
       y="51"
       width="50"
       height="56.632"
       filterUnits="userSpaceOnUse"
       color-interpolation-filters="sRGB">
      <feFlood
         flood-opacity="0"
         result="BackgroundImageFix"
         id="feFlood1129-6" />
      <feBlend
         mode="normal"
         in="SourceGraphic"
         in2="BackgroundImageFix"
         result="shape"
         id="feBlend1131-1" />
      <feColorMatrix
         in="SourceAlpha"
         type="matrix"
         values="0 0 0 0 0 0 0 0 0 0 0 0 0 0 0 0 0 0 127 0"
         result="hardAlpha"
         id="feColorMatrix1133-7" />
      <feOffset
         dy="4"
         id="feOffset1135-0" />
      <feGaussianBlur
         stdDeviation="2"
         id="feGaussianBlur1137-50" />
      <feComposite
         in2="hardAlpha"
         operator="arithmetic"
         k2="-1"
         k3="1"
         id="feComposite1139-6"
         k1="0"
         k4="0" />
      <feColorMatrix
         type="matrix"
         values="0 0 0 0 0 0 0 0 0 0 0 0 0 0 0 0 0 0 0.25 0"
         id="feColorMatrix1141-3" />
      <feBlend
         mode="normal"
         in2="shape"
         result="effect1_innerShadow_0_1"
         id="feBlend1143-8" />
      <feColorMatrix
         in="SourceAlpha"
         type="matrix"
         values="0 0 0 0 0 0 0 0 0 0 0 0 0 0 0 0 0 0 127 0"
         result="hardAlpha"
         id="feColorMatrix1145-4" />
      <feOffset
         dy="4"
         id="feOffset1147-9" />
      <feGaussianBlur
         stdDeviation="2"
         id="feGaussianBlur1149-9" />
      <feComposite
         in2="hardAlpha"
         operator="arithmetic"
         k2="-1"
         k3="1"
         id="feComposite1151-3"
         k1="0"
         k4="0" />
      <feColorMatrix
         type="matrix"
         values="0 0 0 0 0 0 0 0 0 0 0 0 0 0 0 0 0 0 0.25 0"
         id="feColorMatrix1153-8" />
      <feBlend
         mode="normal"
         in2="effect1_innerShadow_0_1"
         result="effect2_innerShadow_0_1"
         id="feBlend1155-0" />
    </filter>
    <filter
       id="filter5_ii_0_1-2"
       x="325"
       y="56"
       width="50"
       height="56.632"
       filterUnits="userSpaceOnUse"
       color-interpolation-filters="sRGB">
      <feFlood
         flood-opacity="0"
         result="BackgroundImageFix"
         id="feFlood1158-6" />
      <feBlend
         mode="normal"
         in="SourceGraphic"
         in2="BackgroundImageFix"
         result="shape"
         id="feBlend1160-19" />
      <feColorMatrix
         in="SourceAlpha"
         type="matrix"
         values="0 0 0 0 0 0 0 0 0 0 0 0 0 0 0 0 0 0 127 0"
         result="hardAlpha"
         id="feColorMatrix1162-6" />
      <feOffset
         dy="4"
         id="feOffset1164-0" />
      <feGaussianBlur
         stdDeviation="2"
         id="feGaussianBlur1166-9" />
      <feComposite
         in2="hardAlpha"
         operator="arithmetic"
         k2="-1"
         k3="1"
         id="feComposite1168-51"
         k1="0"
         k4="0" />
      <feColorMatrix
         type="matrix"
         values="0 0 0 0 0 0 0 0 0 0 0 0 0 0 0 0 0 0 0.25 0"
         id="feColorMatrix1170-10" />
      <feBlend
         mode="normal"
         in2="shape"
         result="effect1_innerShadow_0_1"
         id="feBlend1172-13" />
      <feColorMatrix
         in="SourceAlpha"
         type="matrix"
         values="0 0 0 0 0 0 0 0 0 0 0 0 0 0 0 0 0 0 127 0"
         result="hardAlpha"
         id="feColorMatrix1174-1" />
      <feOffset
         dy="4"
         id="feOffset1176-97" />
      <feGaussianBlur
         stdDeviation="2"
         id="feGaussianBlur1178-7" />
      <feComposite
         in2="hardAlpha"
         operator="arithmetic"
         k2="-1"
         k3="1"
         id="feComposite1180-6"
         k1="0"
         k4="0" />
      <feColorMatrix
         type="matrix"
         values="0 0 0 0 0 0 0 0 0 0 0 0 0 0 0 0 0 0 0.25 0"
         id="feColorMatrix1182-2" />
      <feBlend
         mode="normal"
         in2="effect1_innerShadow_0_1"
         result="effect2_innerShadow_0_1"
         id="feBlend1184-0" />
    </filter>
    <filter
       id="filter6_ii_0_1-6"
       x="195"
       y="41"
       width="50"
       height="56.632"
       filterUnits="userSpaceOnUse"
       color-interpolation-filters="sRGB">
      <feFlood
         flood-opacity="0"
         result="BackgroundImageFix"
         id="feFlood1187-0" />
      <feBlend
         mode="normal"
         in="SourceGraphic"
         in2="BackgroundImageFix"
         result="shape"
         id="feBlend1189-8" />
      <feColorMatrix
         in="SourceAlpha"
         type="matrix"
         values="0 0 0 0 0 0 0 0 0 0 0 0 0 0 0 0 0 0 127 0"
         result="hardAlpha"
         id="feColorMatrix1191-3" />
      <feOffset
         dy="4"
         id="feOffset1193-4" />
      <feGaussianBlur
         stdDeviation="2"
         id="feGaussianBlur1195-1" />
      <feComposite
         in2="hardAlpha"
         operator="arithmetic"
         k2="-1"
         k3="1"
         id="feComposite1197-3"
         k1="0"
         k4="0" />
      <feColorMatrix
         type="matrix"
         values="0 0 0 0 0 0 0 0 0 0 0 0 0 0 0 0 0 0 0.25 0"
         id="feColorMatrix1199-1" />
      <feBlend
         mode="normal"
         in2="shape"
         result="effect1_innerShadow_0_1"
         id="feBlend1201-9" />
      <feColorMatrix
         in="SourceAlpha"
         type="matrix"
         values="0 0 0 0 0 0 0 0 0 0 0 0 0 0 0 0 0 0 127 0"
         result="hardAlpha"
         id="feColorMatrix1203-2" />
      <feOffset
         dy="4"
         id="feOffset1205-5" />
      <feGaussianBlur
         stdDeviation="2"
         id="feGaussianBlur1207-8" />
      <feComposite
         in2="hardAlpha"
         operator="arithmetic"
         k2="-1"
         k3="1"
         id="feComposite1209-6"
         k1="0"
         k4="0" />
      <feColorMatrix
         type="matrix"
         values="0 0 0 0 0 0 0 0 0 0 0 0 0 0 0 0 0 0 0.25 0"
         id="feColorMatrix1211-7" />
      <feBlend
         mode="normal"
         in2="effect1_innerShadow_0_1"
         result="effect2_innerShadow_0_1"
         id="feBlend1213-5" />
    </filter>
    <filter
       id="filter7_ii_0_1-3"
       x="455"
       y="41"
       width="50"
       height="56.632"
       filterUnits="userSpaceOnUse"
       color-interpolation-filters="sRGB">
      <feFlood
         flood-opacity="0"
         result="BackgroundImageFix"
         id="feFlood1216-3" />
      <feBlend
         mode="normal"
         in="SourceGraphic"
         in2="BackgroundImageFix"
         result="shape"
         id="feBlend1218-5" />
      <feColorMatrix
         in="SourceAlpha"
         type="matrix"
         values="0 0 0 0 0 0 0 0 0 0 0 0 0 0 0 0 0 0 127 0"
         result="hardAlpha"
         id="feColorMatrix1220-6" />
      <feOffset
         dy="4"
         id="feOffset1222-2" />
      <feGaussianBlur
         stdDeviation="2"
         id="feGaussianBlur1224-5" />
      <feComposite
         in2="hardAlpha"
         operator="arithmetic"
         k2="-1"
         k3="1"
         id="feComposite1226-2"
         k1="0"
         k4="0" />
      <feColorMatrix
         type="matrix"
         values="0 0 0 0 0 0 0 0 0 0 0 0 0 0 0 0 0 0 0.25 0"
         id="feColorMatrix1228-7" />
      <feBlend
         mode="normal"
         in2="shape"
         result="effect1_innerShadow_0_1"
         id="feBlend1230-4" />
      <feColorMatrix
         in="SourceAlpha"
         type="matrix"
         values="0 0 0 0 0 0 0 0 0 0 0 0 0 0 0 0 0 0 127 0"
         result="hardAlpha"
         id="feColorMatrix1232-9" />
      <feOffset
         dy="4"
         id="feOffset1234-7" />
      <feGaussianBlur
         stdDeviation="2"
         id="feGaussianBlur1236-2" />
      <feComposite
         in2="hardAlpha"
         operator="arithmetic"
         k2="-1"
         k3="1"
         id="feComposite1238-7"
         k1="0"
         k4="0" />
      <feColorMatrix
         type="matrix"
         values="0 0 0 0 0 0 0 0 0 0 0 0 0 0 0 0 0 0 0.25 0"
         id="feColorMatrix1240-0" />
      <feBlend
         mode="normal"
         in2="effect1_innerShadow_0_1"
         result="effect2_innerShadow_0_1"
         id="feBlend1242-6" />
    </filter>
    <filter
       id="filter8_ii_0_1-2"
       x="130"
       y="25"
       width="50"
       height="56.632"
       filterUnits="userSpaceOnUse"
       color-interpolation-filters="sRGB">
      <feFlood
         flood-opacity="0"
         result="BackgroundImageFix"
         id="feFlood1245-2" />
      <feBlend
         mode="normal"
         in="SourceGraphic"
         in2="BackgroundImageFix"
         result="shape"
         id="feBlend1247-8" />
      <feColorMatrix
         in="SourceAlpha"
         type="matrix"
         values="0 0 0 0 0 0 0 0 0 0 0 0 0 0 0 0 0 0 127 0"
         result="hardAlpha"
         id="feColorMatrix1249-7" />
      <feOffset
         dy="4"
         id="feOffset1251-6" />
      <feGaussianBlur
         stdDeviation="2"
         id="feGaussianBlur1253-3" />
      <feComposite
         in2="hardAlpha"
         operator="arithmetic"
         k2="-1"
         k3="1"
         id="feComposite1255-4"
         k1="0"
         k4="0" />
      <feColorMatrix
         type="matrix"
         values="0 0 0 0 0 0 0 0 0 0 0 0 0 0 0 0 0 0 0.25 0"
         id="feColorMatrix1257-2" />
      <feBlend
         mode="normal"
         in2="shape"
         result="effect1_innerShadow_0_1"
         id="feBlend1259-1" />
      <feColorMatrix
         in="SourceAlpha"
         type="matrix"
         values="0 0 0 0 0 0 0 0 0 0 0 0 0 0 0 0 0 0 127 0"
         result="hardAlpha"
         id="feColorMatrix1261-8" />
      <feOffset
         dy="4"
         id="feOffset1263-7" />
      <feGaussianBlur
         stdDeviation="2"
         id="feGaussianBlur1265-9" />
      <feComposite
         in2="hardAlpha"
         operator="arithmetic"
         k2="-1"
         k3="1"
         id="feComposite1267-8"
         k1="0"
         k4="0" />
      <feColorMatrix
         type="matrix"
         values="0 0 0 0 0 0 0 0 0 0 0 0 0 0 0 0 0 0 0.25 0"
         id="feColorMatrix1269-1" />
      <feBlend
         mode="normal"
         in2="effect1_innerShadow_0_1"
         result="effect2_innerShadow_0_1"
         id="feBlend1271-9" />
    </filter>
    <filter
       id="filter8_ii_0_1-1"
       x="129"
       y="26"
       width="50"
       height="56.631599"
       filterUnits="userSpaceOnUse"
       color-interpolation-filters="sRGB">
      <feFlood
         flood-opacity="0"
         result="BackgroundImageFix"
         id="feFlood1117-3" />
      <feBlend
         mode="normal"
         in="SourceGraphic"
         in2="BackgroundImageFix"
         result="shape"
         id="feBlend1119-2" />
      <feColorMatrix
         in="SourceAlpha"
         type="matrix"
         values="0 0 0 0 0 0 0 0 0 0 0 0 0 0 0 0 0 0 127 0"
         result="hardAlpha"
         id="feColorMatrix1121-2" />
      <feOffset
         dy="4"
         id="feOffset1123-1" />
      <feGaussianBlur
         stdDeviation="2"
         id="feGaussianBlur1125-0" />
      <feComposite
         in2="hardAlpha"
         operator="arithmetic"
         k2="-1"
         k3="1"
         id="feComposite1127-9"
         k1="0"
         k4="0" />
      <feColorMatrix
         type="matrix"
         values="0 0 0 0 0 0 0 0 0 0 0 0 0 0 0 0 0 0 0.25 0"
         id="feColorMatrix1129-5" />
      <feBlend
         mode="normal"
         in2="shape"
         result="effect1_innerShadow_0_1"
         id="feBlend1131-6" />
      <feColorMatrix
         in="SourceAlpha"
         type="matrix"
         values="0 0 0 0 0 0 0 0 0 0 0 0 0 0 0 0 0 0 127 0"
         result="hardAlpha"
         id="feColorMatrix1133-2" />
      <feOffset
         dy="4"
         id="feOffset1135-7" />
      <feGaussianBlur
         stdDeviation="2"
         id="feGaussianBlur1137-1" />
      <feComposite
         in2="hardAlpha"
         operator="arithmetic"
         k2="-1"
         k3="1"
         id="feComposite1139-3"
         k1="0"
         k4="0" />
      <feColorMatrix
         type="matrix"
         values="0 0 0 0 0 0 0 0 0 0 0 0 0 0 0 0 0 0 0.25 0"
         id="feColorMatrix1141-5" />
      <feBlend
         mode="normal"
         in2="effect1_innerShadow_0_1"
         result="effect2_innerShadow_0_1"
         id="feBlend1143-9" />
    </filter>
    <filter
       id="filter1_ii_0_1-0"
       x="64"
       y="4"
       width="50"
       height="56.631599"
       filterUnits="userSpaceOnUse"
       color-interpolation-filters="sRGB">
      <feFlood
         flood-opacity="0"
         result="BackgroundImageFix"
         id="feFlood914-4" />
      <feBlend
         mode="normal"
         in="SourceGraphic"
         in2="BackgroundImageFix"
         result="shape"
         id="feBlend916-3" />
      <feColorMatrix
         in="SourceAlpha"
         type="matrix"
         values="0 0 0 0 0 0 0 0 0 0 0 0 0 0 0 0 0 0 127 0"
         result="hardAlpha"
         id="feColorMatrix918-5" />
      <feOffset
         dy="4"
         id="feOffset920-7" />
      <feGaussianBlur
         stdDeviation="2"
         id="feGaussianBlur922-7" />
      <feComposite
         in2="hardAlpha"
         operator="arithmetic"
         k2="-1"
         k3="1"
         id="feComposite924-9"
         k1="0"
         k4="0" />
      <feColorMatrix
         type="matrix"
         values="0 0 0 0 0 0 0 0 0 0 0 0 0 0 0 0 0 0 0.25 0"
         id="feColorMatrix926-6" />
      <feBlend
         mode="normal"
         in2="shape"
         result="effect1_innerShadow_0_1"
         id="feBlend928-6" />
      <feColorMatrix
         in="SourceAlpha"
         type="matrix"
         values="0 0 0 0 0 0 0 0 0 0 0 0 0 0 0 0 0 0 127 0"
         result="hardAlpha"
         id="feColorMatrix930-1" />
      <feOffset
         dy="4"
         id="feOffset932-7" />
      <feGaussianBlur
         stdDeviation="2"
         id="feGaussianBlur934-7" />
      <feComposite
         in2="hardAlpha"
         operator="arithmetic"
         k2="-1"
         k3="1"
         id="feComposite936-7"
         k1="0"
         k4="0" />
      <feColorMatrix
         type="matrix"
         values="0 0 0 0 0 0 0 0 0 0 0 0 0 0 0 0 0 0 0.25 0"
         id="feColorMatrix938-1" />
      <feBlend
         mode="normal"
         in2="effect1_innerShadow_0_1"
         result="effect2_innerShadow_0_1"
         id="feBlend940-2" />
    </filter>
    <filter
       id="filter2_ii_0_1-5-2"
       x="585"
       y="3"
       width="50"
       height="56.632"
       filterUnits="userSpaceOnUse"
       color-interpolation-filters="sRGB">
      <feFlood
         flood-opacity="0"
         result="BackgroundImageFix"
         id="feFlood1071-9-1" />
      <feBlend
         mode="normal"
         in="SourceGraphic"
         in2="BackgroundImageFix"
         result="shape"
         id="feBlend1073-5-7" />
      <feColorMatrix
         in="SourceAlpha"
         type="matrix"
         values="0 0 0 0 0 0 0 0 0 0 0 0 0 0 0 0 0 0 127 0"
         result="hardAlpha"
         id="feColorMatrix1075-3-8" />
      <feOffset
         dy="4"
         id="feOffset1077-6-7" />
      <feGaussianBlur
         stdDeviation="2"
         id="feGaussianBlur1079-6-7" />
      <feComposite
         in2="hardAlpha"
         operator="arithmetic"
         k2="-1"
         k3="1"
         id="feComposite1081-1-5"
         k1="0"
         k4="0" />
      <feColorMatrix
         type="matrix"
         values="0 0 0 0 0 0 0 0 0 0 0 0 0 0 0 0 0 0 0.25 0"
         id="feColorMatrix1083-38-8" />
      <feBlend
         mode="normal"
         in2="shape"
         result="effect1_innerShadow_0_1"
         id="feBlend1085-8-2" />
      <feColorMatrix
         in="SourceAlpha"
         type="matrix"
         values="0 0 0 0 0 0 0 0 0 0 0 0 0 0 0 0 0 0 127 0"
         result="hardAlpha"
         id="feColorMatrix1087-1-6" />
      <feOffset
         dy="4"
         id="feOffset1089-7-0" />
      <feGaussianBlur
         stdDeviation="2"
         id="feGaussianBlur1091-1-4" />
      <feComposite
         in2="hardAlpha"
         operator="arithmetic"
         k2="-1"
         k3="1"
         id="feComposite1093-0-0"
         k1="0"
         k4="0" />
      <feColorMatrix
         type="matrix"
         values="0 0 0 0 0 0 0 0 0 0 0 0 0 0 0 0 0 0 0.25 0"
         id="feColorMatrix1095-2-3" />
      <feBlend
         mode="normal"
         in2="effect1_innerShadow_0_1"
         result="effect2_innerShadow_0_1"
         id="feBlend1097-2-9" />
    </filter>
    <filter
       id="filter8_ii_0_1-1-6"
       x="129"
       y="26"
       width="50"
       height="56.631599"
       filterUnits="userSpaceOnUse"
       color-interpolation-filters="sRGB">
      <feFlood
         flood-opacity="0"
         result="BackgroundImageFix"
         id="feFlood1117-3-8" />
      <feBlend
         mode="normal"
         in="SourceGraphic"
         in2="BackgroundImageFix"
         result="shape"
         id="feBlend1119-2-2" />
      <feColorMatrix
         in="SourceAlpha"
         type="matrix"
         values="0 0 0 0 0 0 0 0 0 0 0 0 0 0 0 0 0 0 127 0"
         result="hardAlpha"
         id="feColorMatrix1121-2-1" />
      <feOffset
         dy="4"
         id="feOffset1123-1-4" />
      <feGaussianBlur
         stdDeviation="2"
         id="feGaussianBlur1125-0-2" />
      <feComposite
         in2="hardAlpha"
         operator="arithmetic"
         k2="-1"
         k3="1"
         id="feComposite1127-9-7"
         k1="0"
         k4="0" />
      <feColorMatrix
         type="matrix"
         values="0 0 0 0 0 0 0 0 0 0 0 0 0 0 0 0 0 0 0.25 0"
         id="feColorMatrix1129-5-5" />
      <feBlend
         mode="normal"
         in2="shape"
         result="effect1_innerShadow_0_1"
         id="feBlend1131-6-6" />
      <feColorMatrix
         in="SourceAlpha"
         type="matrix"
         values="0 0 0 0 0 0 0 0 0 0 0 0 0 0 0 0 0 0 127 0"
         result="hardAlpha"
         id="feColorMatrix1133-2-9" />
      <feOffset
         dy="4"
         id="feOffset1135-7-4" />
      <feGaussianBlur
         stdDeviation="2"
         id="feGaussianBlur1137-1-4" />
      <feComposite
         in2="hardAlpha"
         operator="arithmetic"
         k2="-1"
         k3="1"
         id="feComposite1139-3-2"
         k1="0"
         k4="0" />
      <feColorMatrix
         type="matrix"
         values="0 0 0 0 0 0 0 0 0 0 0 0 0 0 0 0 0 0 0.25 0"
         id="feColorMatrix1141-5-6" />
      <feBlend
         mode="normal"
         in2="effect1_innerShadow_0_1"
         result="effect2_innerShadow_0_1"
         id="feBlend1143-9-4" />
    </filter>
    <filter
       id="filter2_ii_0_1-5-2-6"
       x="585"
       y="3"
       width="50"
       height="56.632"
       filterUnits="userSpaceOnUse"
       color-interpolation-filters="sRGB">
      <feFlood
         flood-opacity="0"
         result="BackgroundImageFix"
         id="feFlood1071-9-1-2" />
      <feBlend
         mode="normal"
         in="SourceGraphic"
         in2="BackgroundImageFix"
         result="shape"
         id="feBlend1073-5-7-2" />
      <feColorMatrix
         in="SourceAlpha"
         type="matrix"
         values="0 0 0 0 0 0 0 0 0 0 0 0 0 0 0 0 0 0 127 0"
         result="hardAlpha"
         id="feColorMatrix1075-3-8-4" />
      <feOffset
         dy="4"
         id="feOffset1077-6-7-9" />
      <feGaussianBlur
         stdDeviation="2"
         id="feGaussianBlur1079-6-7-5" />
      <feComposite
         in2="hardAlpha"
         operator="arithmetic"
         k2="-1"
         k3="1"
         id="feComposite1081-1-5-5"
         k1="0"
         k4="0" />
      <feColorMatrix
         type="matrix"
         values="0 0 0 0 0 0 0 0 0 0 0 0 0 0 0 0 0 0 0.25 0"
         id="feColorMatrix1083-38-8-4" />
      <feBlend
         mode="normal"
         in2="shape"
         result="effect1_innerShadow_0_1"
         id="feBlend1085-8-2-3" />
      <feColorMatrix
         in="SourceAlpha"
         type="matrix"
         values="0 0 0 0 0 0 0 0 0 0 0 0 0 0 0 0 0 0 127 0"
         result="hardAlpha"
         id="feColorMatrix1087-1-6-7" />
      <feOffset
         dy="4"
         id="feOffset1089-7-0-4" />
      <feGaussianBlur
         stdDeviation="2"
         id="feGaussianBlur1091-1-4-7" />
      <feComposite
         in2="hardAlpha"
         operator="arithmetic"
         k2="-1"
         k3="1"
         id="feComposite1093-0-0-6"
         k1="0"
         k4="0" />
      <feColorMatrix
         type="matrix"
         values="0 0 0 0 0 0 0 0 0 0 0 0 0 0 0 0 0 0 0.25 0"
         id="feColorMatrix1095-2-3-0" />
      <feBlend
         mode="normal"
         in2="effect1_innerShadow_0_1"
         result="effect2_innerShadow_0_1"
         id="feBlend1097-2-9-6" />
    </filter>
    <filter
       id="filter8_ii_0_1-1-6-8"
       x="129"
       y="26"
       width="50"
       height="56.631599"
       filterUnits="userSpaceOnUse"
       color-interpolation-filters="sRGB">
      <feFlood
         flood-opacity="0"
         result="BackgroundImageFix"
         id="feFlood1117-3-8-3" />
      <feBlend
         mode="normal"
         in="SourceGraphic"
         in2="BackgroundImageFix"
         result="shape"
         id="feBlend1119-2-2-7" />
      <feColorMatrix
         in="SourceAlpha"
         type="matrix"
         values="0 0 0 0 0 0 0 0 0 0 0 0 0 0 0 0 0 0 127 0"
         result="hardAlpha"
         id="feColorMatrix1121-2-1-2" />
      <feOffset
         dy="4"
         id="feOffset1123-1-4-4" />
      <feGaussianBlur
         stdDeviation="2"
         id="feGaussianBlur1125-0-2-3" />
      <feComposite
         in2="hardAlpha"
         operator="arithmetic"
         k2="-1"
         k3="1"
         id="feComposite1127-9-7-5"
         k1="0"
         k4="0" />
      <feColorMatrix
         type="matrix"
         values="0 0 0 0 0 0 0 0 0 0 0 0 0 0 0 0 0 0 0.25 0"
         id="feColorMatrix1129-5-5-1" />
      <feBlend
         mode="normal"
         in2="shape"
         result="effect1_innerShadow_0_1"
         id="feBlend1131-6-6-7" />
      <feColorMatrix
         in="SourceAlpha"
         type="matrix"
         values="0 0 0 0 0 0 0 0 0 0 0 0 0 0 0 0 0 0 127 0"
         result="hardAlpha"
         id="feColorMatrix1133-2-9-1" />
      <feOffset
         dy="4"
         id="feOffset1135-7-4-7" />
      <feGaussianBlur
         stdDeviation="2"
         id="feGaussianBlur1137-1-4-8" />
      <feComposite
         in2="hardAlpha"
         operator="arithmetic"
         k2="-1"
         k3="1"
         id="feComposite1139-3-2-6"
         k1="0"
         k4="0" />
      <feColorMatrix
         type="matrix"
         values="0 0 0 0 0 0 0 0 0 0 0 0 0 0 0 0 0 0 0.25 0"
         id="feColorMatrix1141-5-6-0" />
      <feBlend
         mode="normal"
         in2="effect1_innerShadow_0_1"
         result="effect2_innerShadow_0_1"
         id="feBlend1143-9-4-2" />
    </filter>
    <filter
       id="filter8_ii_0_1-1-6-5"
       x="129"
       y="26"
       width="50"
       height="56.631599"
       filterUnits="userSpaceOnUse"
       color-interpolation-filters="sRGB">
      <feFlood
         flood-opacity="0"
         result="BackgroundImageFix"
         id="feFlood1117-3-8-2" />
      <feBlend
         mode="normal"
         in="SourceGraphic"
         in2="BackgroundImageFix"
         result="shape"
         id="feBlend1119-2-2-78" />
      <feColorMatrix
         in="SourceAlpha"
         type="matrix"
         values="0 0 0 0 0 0 0 0 0 0 0 0 0 0 0 0 0 0 127 0"
         result="hardAlpha"
         id="feColorMatrix1121-2-1-4" />
      <feOffset
         dy="4"
         id="feOffset1123-1-4-8" />
      <feGaussianBlur
         stdDeviation="2"
         id="feGaussianBlur1125-0-2-1" />
      <feComposite
         in2="hardAlpha"
         operator="arithmetic"
         k2="-1"
         k3="1"
         id="feComposite1127-9-7-6"
         k1="0"
         k4="0" />
      <feColorMatrix
         type="matrix"
         values="0 0 0 0 0 0 0 0 0 0 0 0 0 0 0 0 0 0 0.25 0"
         id="feColorMatrix1129-5-5-0" />
      <feBlend
         mode="normal"
         in2="shape"
         result="effect1_innerShadow_0_1"
         id="feBlend1131-6-6-1" />
      <feColorMatrix
         in="SourceAlpha"
         type="matrix"
         values="0 0 0 0 0 0 0 0 0 0 0 0 0 0 0 0 0 0 127 0"
         result="hardAlpha"
         id="feColorMatrix1133-2-9-6" />
      <feOffset
         dy="4"
         id="feOffset1135-7-4-1" />
      <feGaussianBlur
         stdDeviation="2"
         id="feGaussianBlur1137-1-4-9" />
      <feComposite
         in2="hardAlpha"
         operator="arithmetic"
         k2="-1"
         k3="1"
         id="feComposite1139-3-2-1"
         k1="0"
         k4="0" />
      <feColorMatrix
         type="matrix"
         values="0 0 0 0 0 0 0 0 0 0 0 0 0 0 0 0 0 0 0.25 0"
         id="feColorMatrix1141-5-6-05" />
      <feBlend
         mode="normal"
         in2="effect1_innerShadow_0_1"
         result="effect2_innerShadow_0_1"
         id="feBlend1143-9-4-9" />
    </filter>
    <filter
       id="filter1_ii_0_1-0-0"
       x="64"
       y="4"
       width="50"
       height="56.631599"
       filterUnits="userSpaceOnUse"
       color-interpolation-filters="sRGB">
      <feFlood
         flood-opacity="0"
         result="BackgroundImageFix"
         id="feFlood914-4-7" />
      <feBlend
         mode="normal"
         in="SourceGraphic"
         in2="BackgroundImageFix"
         result="shape"
         id="feBlend916-3-6" />
      <feColorMatrix
         in="SourceAlpha"
         type="matrix"
         values="0 0 0 0 0 0 0 0 0 0 0 0 0 0 0 0 0 0 127 0"
         result="hardAlpha"
         id="feColorMatrix918-5-5" />
      <feOffset
         dy="4"
         id="feOffset920-7-0" />
      <feGaussianBlur
         stdDeviation="2"
         id="feGaussianBlur922-7-7" />
      <feComposite
         in2="hardAlpha"
         operator="arithmetic"
         k2="-1"
         k3="1"
         id="feComposite924-9-5"
         k1="0"
         k4="0" />
      <feColorMatrix
         type="matrix"
         values="0 0 0 0 0 0 0 0 0 0 0 0 0 0 0 0 0 0 0.25 0"
         id="feColorMatrix926-6-1" />
      <feBlend
         mode="normal"
         in2="shape"
         result="effect1_innerShadow_0_1"
         id="feBlend928-6-1" />
      <feColorMatrix
         in="SourceAlpha"
         type="matrix"
         values="0 0 0 0 0 0 0 0 0 0 0 0 0 0 0 0 0 0 127 0"
         result="hardAlpha"
         id="feColorMatrix930-1-1" />
      <feOffset
         dy="4"
         id="feOffset932-7-7" />
      <feGaussianBlur
         stdDeviation="2"
         id="feGaussianBlur934-7-0" />
      <feComposite
         in2="hardAlpha"
         operator="arithmetic"
         k2="-1"
         k3="1"
         id="feComposite936-7-7"
         k1="0"
         k4="0" />
      <feColorMatrix
         type="matrix"
         values="0 0 0 0 0 0 0 0 0 0 0 0 0 0 0 0 0 0 0.25 0"
         id="feColorMatrix938-1-5" />
      <feBlend
         mode="normal"
         in2="effect1_innerShadow_0_1"
         result="effect2_innerShadow_0_1"
         id="feBlend940-2-4" />
    </filter>
  </defs>
  <g
     inkscape:label="Layer 1"
     inkscape:groupmode="layer"
     id="layer1">
    <path
       d="M 1.2018856,2.2293804 C 71.076756,31.58887 119.30157,30.72209 185.35189,2.2293804"
       stroke="#000000"
       id="path955"
       style="fill:none;stroke-width:0.264583" />
    <g
       filter="url(#filter2_ii_0_1)"
       id="g967"
       style="filter:url(#filter2_ii_0_1-5)"
       transform="matrix(0.26458333,0,0,0.26458333,-136.35126,3.8346633)">
      <path
         d="m 610,55.632 c 13.807,0 25,-11.782 25,-26.316 C 635,14.782 623.807,3 610,3 c -13.807,0 -25,11.782 -25,26.316 0,14.534 11.193,26.316 25,26.316 z"
         fill="#d80e33"
         id="path965" />
    </g>
    <g
       filter="url(#filter4_ii_0_1)"
       id="g975"
       style="filter:url(#filter4_ii_0_1-3)"
       transform="matrix(0.26458333,0,0,0.26458333,17.920656,3.6640338)">
      <path
         d="m 285,103.632 c 13.807,0 25,-11.782 25,-26.316 C 310,62.782 298.807,51 285,51 c -13.807,0 -25,11.782 -25,26.316 0,14.534 11.193,26.316 25,26.316 z"
         fill="#d80e33"
         id="path973" />
    </g>
    <path
       d="m 93.459196,21.391114 2.17673,3.77031 h -4.35345 z"
       fill="#ffffff"
       id="path1003"
       style="stroke-width:0.264583" />
    <path
       d="m 24.912272,9.1263329 2.17673,3.7703101 h -4.35346 z"
       fill="#ffffff"
       id="path1005"
       style="stroke-width:0.264583" />
    <g
       filter="url(#filter8_ii_0_1)"
       id="g865"
       transform="matrix(0.26458333,0,0,0.26458333,1.887115,3.0827024)"
       style="filter:url(#filter8_ii_0_1-1)">
      <path
         d="m 154,78.6316 c 13.807,0 25,-11.782 25,-26.3158 C 179,37.782 167.807,26 154,26 c -13.807,0 -25,11.782 -25,26.3158 0,14.5338 11.193,26.3158 25,26.3158 z"
         fill="#37ad00"
         id="path863" />
    </g>
    <circle
       cx="42.765232"
       cy="16.973324"
       r="2.5135417"
       fill="#ffffff"
       id="circle877"
       style="stroke-width:0.264583" />
    <g
       filter="url(#filter2_ii_0_1)"
       id="g967-7-9"
       style="filter:url(#filter2_ii_0_1-5-2-6)"
       transform="matrix(0.26458333,0,0,0.26458333,-101.88138,12.601592)">
      <path
         d="m 610,55.632 c 13.807,0 25,-11.782 25,-26.316 C 635,14.782 623.807,3 610,3 c -13.807,0 -25,11.782 -25,26.316 0,14.534 11.193,26.316 25,26.316 z"
         fill="#d80e33"
         id="path965-5-5" />
    </g>
    <path
       d="m 59.382156,17.893262 2.17673,3.77031 h -4.35346 z"
       fill="#ffffff"
       id="path1005-4-1"
       style="stroke-width:0.264583" />
    <g
       filter="url(#filter8_ii_0_1)"
       id="g865-3"
       transform="matrix(0.26458333,0,0,0.26458333,35.574368,8.6107012)"
       style="filter:url(#filter8_ii_0_1-1-6)">
      <path
         d="m 154,78.6316 c 13.807,0 25,-11.782 25,-26.3158 C 179,37.782 167.807,26 154,26 c -13.807,0 -25,11.782 -25,26.3158 0,14.5338 11.193,26.3158 25,26.3158 z"
         fill="#37ad00"
         id="path863-7" />
    </g>
    <circle
       cx="76.452484"
       cy="22.501326"
       r="2.5135417"
       fill="#ffffff"
       id="circle877-7"
       style="stroke-width:0.264583" />
    <g
       filter="url(#filter8_ii_0_1)"
       id="g865-3-2"
       transform="matrix(0.26458333,0,0,0.26458333,87.153012,6.2301013)"
       style="filter:url(#filter8_ii_0_1-1-6-8)">
      <path
         d="m 154,78.6316 c 13.807,0 25,-11.782 25,-26.3158 C 179,37.782 167.807,26 154,26 c -13.807,0 -25,11.782 -25,26.3158 0,14.5338 11.193,26.3158 25,26.3158 z"
         fill="#37ad00"
         id="path863-7-6" />
    </g>
    <circle
       cx="128.03113"
       cy="20.120726"
       r="2.5135417"
       fill="#ffffff"
       id="circle877-7-0"
       style="stroke-width:0.264583" />
    <g
       filter="url(#filter1_ii_0_1)"
       id="g837"
       transform="matrix(0.26458333,0,0,0.26458333,86.324913,14.626079)"
       style="filter:url(#filter1_ii_0_1-0)">
      <path
         d="m 89,56.6316 c 13.807,0 25,-11.782 25,-26.3158 C 114,15.782 102.807,4 89,4 75.1929,4 64,15.782 64,30.3158 64,44.8496 75.1929,56.6316 89,56.6316 Z"
         fill="#ffea2b"
         id="path835" />
    </g>
    <rect
       x="107.49158"
       y="20.182331"
       width="5.0270834"
       height="5.0270834"
       fill="#ffffff"
       id="rect867"
       style="stroke-width:0.264583" />
    <g
       filter="url(#filter1_ii_0_1)"
       id="g837-4"
       transform="matrix(0.26458333,0,0,0.26458333,137.54168,3.7532468)"
       style="filter:url(#filter1_ii_0_1-0-0)">
      <path
         d="m 89,56.6316 c 13.807,0 25,-11.782 25,-26.3158 C 114,15.782 102.807,4 89,4 75.1929,4 64,15.782 64,30.3158 64,44.8496 75.1929,56.6316 89,56.6316 Z"
         fill="#ffea2b"
         id="path835-6" />
    </g>
    <rect
       x="158.70834"
       y="9.3094988"
       width="5.0270834"
       height="5.0270834"
       fill="#ffffff"
       id="rect867-6"
       style="stroke-width:0.264583" />
    <g
       filter="url(#filter8_ii_0_1)"
       id="g865-3-5"
       transform="matrix(0.26458333,0,0,0.26458333,103.46226,2.796575)"
       style="filter:url(#filter8_ii_0_1-1-6-5)">
      <path
         d="m 154,78.6316 c 13.807,0 25,-11.782 25,-26.3158 C 179,37.782 167.807,26 154,26 c -13.807,0 -25,11.782 -25,26.3158 0,14.5338 11.193,26.3158 25,26.3158 z"
         fill="#37ad00"
         id="path863-7-2" />
    </g>
    <circle
       cx="144.34038"
       cy="16.687199"
       r="2.5135417"
       fill="#ffffff"
       id="circle877-7-8"
       style="stroke-width:0.264583" />
  </g>
</svg>
