<svg width="600" height="700">
  <rect x="0" y="0" width="600" height="700" stroke="#fff" fill="#fff" />

  <rect x="090" y="500" width="420" height="100" stroke-width="2" stroke="#070" fill="#0f0" />
  <rect x="100" y="290" width="100" height="320" stroke-width="2" stroke="#707" fill="#f0f" />
  <rect x="090" y="300" width="320" height="100" stroke-width="2" stroke="#770" fill="#ff0" />
  <rect x="300" y="090" width="100" height="520" stroke-width="2" stroke="#007" fill="#00f" />
  <rect x="190" y="100" width="320" height="100" stroke-width="2" stroke="#700" fill="#f00" />
</svg>
