<?xml version="1.0" encoding="UTF-8" standalone="no"?>
<svg
   xmlns:dc="http://purl.org/dc/elements/1.1/"
   xmlns:cc="http://creativecommons.org/ns#"
   xmlns:rdf="http://www.w3.org/1999/02/22-rdf-syntax-ns#"
   xmlns:svg="http://www.w3.org/2000/svg"
   xmlns="http://www.w3.org/2000/svg"
   xmlns:sodipodi="http://sodipodi.sourceforge.net/DTD/sodipodi-0.dtd"
   xmlns:inkscape="http://www.inkscape.org/namespaces/inkscape"
   width="93.744392mm"
   height="93.744377mm"
   viewBox="0 0 93.744392 93.744377"
   version="1.1"
   id="svg8"
   inkscape:version="1.0.2-2 (e86c870879, 2021-01-15)"
   sodipodi:docname="solution.svg">
  <defs
     id="defs2" />
  <sodipodi:namedview
     id="base"
     pagecolor="#ffffff"
     bordercolor="#666666"
     borderopacity="1.0"
     inkscape:pageopacity="0.0"
     inkscape:pageshadow="2"
     inkscape:zoom="1.979899"
     inkscape:cx="166.49235"
     inkscape:cy="194.4128"
     inkscape:document-units="mm"
     inkscape:current-layer="layer2"
     inkscape:document-rotation="0"
     showgrid="false"
     inkscape:window-width="1920"
     inkscape:window-height="1001"
     inkscape:window-x="-9"
     inkscape:window-y="-9"
     inkscape:window-maximized="1"
     fit-margin-top="0"
     fit-margin-left="0"
     fit-margin-right="0"
     fit-margin-bottom="0" />
  <metadata
     id="metadata5">
    <rdf:RDF>
      <cc:Work
         rdf:about="">
        <dc:format>image/svg+xml</dc:format>
        <dc:type
           rdf:resource="http://purl.org/dc/dcmitype/StillImage" />
        <dc:title></dc:title>
      </cc:Work>
    </rdf:RDF>
  </metadata>
  <g
     inkscape:groupmode="layer"
     id="layer3"
     inkscape:label="background"
     style="display:inline"
     transform="translate(-103.46641,-100.25457)">
    <rect
       style="fill:#e6fcdb;fill-opacity:1;stroke:none;stroke-width:0.111032;stroke-linejoin:round;stroke-miterlimit:1.5;stroke-dasharray:none;stroke-opacity:1"
       id="rect1794"
       width="93.334679"
       height="93.387611"
       x="103.64301"
       y="100.3828" />
  </g>
  <g
     inkscape:groupmode="layer"
     id="layer2"
     inkscape:label="elements"
     style="display:inline"
     transform="translate(-103.46641,-100.25457)">
    <rect
       style="fill:#dbdde2;fill-opacity:1;stroke:none;stroke-width:0.182005;stroke-miterlimit:1.5;stroke-dasharray:none;stroke-opacity:1"
       id="rect1737"
       width="9.3544331"
       height="74.975807"
       x="146.99826"
       y="-178.53606"
       transform="rotate(90)" />
    <rect
       style="fill:#dbdde2;fill-opacity:1;stroke:none;stroke-width:0.0930814;stroke-miterlimit:1.5;stroke-dasharray:none;stroke-opacity:1"
       id="rect1741"
       width="9.3544331"
       height="19.610552"
       x="159.69304"
       y="109.709" />
    <rect
       style="fill:#dbdde2;fill-opacity:1;stroke:none;stroke-width:0.110882;stroke-miterlimit:1.5;stroke-dasharray:none;stroke-opacity:1"
       id="rect1743"
       width="9.3544331"
       height="27.827864"
       x="168.91435"
       y="147.23367" />
    <rect
       style="fill:#dbdde2;fill-opacity:1;stroke:none;stroke-width:0.157525;stroke-miterlimit:1.5;stroke-dasharray:none;stroke-opacity:1"
       id="rect1747"
       width="9.3544331"
       height="56.163502"
       x="175.06155"
       y="-178.35437"
       transform="rotate(90)"
       inkscape:transform-center-x="16.046713"
       inkscape:transform-center-y="5.6126601" />
    <rect
       style="fill:#dbdde2;fill-opacity:1;stroke:none;stroke-width:0.143752;stroke-miterlimit:1.5;stroke-dasharray:none;stroke-opacity:1"
       id="rect1749"
       width="9.3544331"
       height="46.772171"
       x="131.49663"
       y="109.58051" />
    <rect
       style="fill:#dbdde2;fill-opacity:1;stroke:none;stroke-width:0.110284;stroke-miterlimit:1.5;stroke-dasharray:none;stroke-opacity:1"
       id="rect1751"
       width="9.3544331"
       height="27.528749"
       x="128.28938"
       y="-178.26878"
       transform="rotate(90)"
       inkscape:transform-center-x="7.8653516"
       inkscape:transform-center-y="5.6126601" />
    <g
       id="g1767"
       transform="translate(99.535903,97.959893)">
      <rect
         style="fill:#fefefe;fill-opacity:1;stroke:#000000;stroke-width:0.2;stroke-miterlimit:1.5;stroke-dasharray:none;stroke-opacity:1"
         id="rect1753"
         width="4.8108511"
         height="3.415684"
         x="80.982666"
         y="35.338398" />
      <path
         style="fill:#f90301;fill-opacity:1;stroke:#000000;stroke-width:0.178;stroke-linecap:butt;stroke-linejoin:round;stroke-miterlimit:1.5;stroke-dasharray:none;stroke-opacity:1"
         d="m 80.37791,35.334296 h 6.13132 L 83.506568,31.57155 Z"
         id="path1761"
         sodipodi:nodetypes="cccc" />
    </g>
    <g
       id="g1773"
       transform="translate(89.774238,79.195791)">
      <rect
         style="fill:#fefefe;fill-opacity:1;stroke:#000000;stroke-width:0.2;stroke-miterlimit:1.5;stroke-dasharray:none;stroke-opacity:1"
         id="rect1769"
         width="4.8108511"
         height="3.415684"
         x="80.982666"
         y="35.338398" />
      <path
         style="fill:#f90301;fill-opacity:1;stroke:#000000;stroke-width:0.178;stroke-linecap:butt;stroke-linejoin:round;stroke-miterlimit:1.5;stroke-dasharray:none;stroke-opacity:1"
         d="m 80.37791,35.334296 h 6.13132 L 83.506568,31.57155 Z"
         id="path1771"
         sodipodi:nodetypes="cccc" />
    </g>
    <g
       id="g1779"
       transform="translate(33.835938,97.959893)">
      <rect
         style="fill:#fefefe;fill-opacity:1;stroke:#000000;stroke-width:0.2;stroke-miterlimit:1.5;stroke-dasharray:none;stroke-opacity:1"
         id="rect1775"
         width="4.8108511"
         height="3.415684"
         x="80.982666"
         y="35.338398" />
      <path
         style="fill:#f90301;fill-opacity:1;stroke:#000000;stroke-width:0.178;stroke-linecap:butt;stroke-linejoin:round;stroke-miterlimit:1.5;stroke-dasharray:none;stroke-opacity:1"
         d="m 80.37791,35.334296 h 6.13132 L 83.506568,31.57155 Z"
         id="path1777"
         sodipodi:nodetypes="cccc" />
    </g>
    <g
       id="g1785"
       transform="translate(43.522352,125.8947)">
      <rect
         style="fill:#fefefe;fill-opacity:1;stroke:#000000;stroke-width:0.2;stroke-miterlimit:1.5;stroke-dasharray:none;stroke-opacity:1"
         id="rect1781"
         width="4.8108511"
         height="3.415684"
         x="80.982666"
         y="35.338398" />
      <path
         style="fill:#f90301;fill-opacity:1;stroke:#000000;stroke-width:0.178;stroke-linecap:butt;stroke-linejoin:round;stroke-miterlimit:1.5;stroke-dasharray:none;stroke-opacity:1"
         d="m 80.37791,35.334296 h 6.13132 L 83.506568,31.57155 Z"
         id="path1783"
         sodipodi:nodetypes="cccc" />
    </g>
    <g
       id="g1791"
       transform="translate(61.858862,135.19391)">
      <rect
         style="fill:#fefefe;fill-opacity:1;stroke:#000000;stroke-width:0.2;stroke-miterlimit:1.5;stroke-dasharray:none;stroke-opacity:1"
         id="rect1787"
         width="4.8108511"
         height="3.415684"
         x="80.982666"
         y="35.338398" />
      <path
         style="fill:#f90301;fill-opacity:1;stroke:#000000;stroke-width:0.178;stroke-linecap:butt;stroke-linejoin:round;stroke-miterlimit:1.5;stroke-dasharray:none;stroke-opacity:1"
         d="m 80.37791,35.334296 h 6.13132 L 83.506568,31.57155 Z"
         id="path1789"
         sodipodi:nodetypes="cccc" />
    </g>
    <g
       id="g1818"
       transform="translate(92.766379,81.215362)">
      <g
         id="g1810"
         transform="translate(-21.44838,-3.4076865)">
        <rect
           style="fill:#836b53;fill-opacity:1;stroke:none;stroke-width:0.178;stroke-linejoin:round;stroke-miterlimit:1.5;stroke-dasharray:none;stroke-opacity:1"
           id="rect1802"
           width="1.1358955"
           height="3.2740517"
           x="101.82969"
           y="47.306705" />
      </g>
      <g
         id="g1807">
        <ellipse
           style="fill:#1ddd61;fill-opacity:1;stroke:none;stroke-width:0.141152;stroke-linejoin:round;stroke-miterlimit:1.5;stroke-dasharray:none;stroke-opacity:1"
           id="path1796"
           cx="79.988197"
           cy="42.874374"
           rx="2.3464034"
           ry="1.7750037" />
        <ellipse
           style="fill:#1ddd61;fill-opacity:1;stroke:none;stroke-width:0.141152;stroke-linejoin:round;stroke-miterlimit:1.5;stroke-dasharray:none;stroke-opacity:1"
           id="ellipse1798"
           cx="81.843491"
           cy="42.925827"
           rx="2.3464034"
           ry="1.7750037" />
        <ellipse
           style="fill:#1ddd61;fill-opacity:1;stroke:none;stroke-width:0.141152;stroke-linejoin:round;stroke-miterlimit:1.5;stroke-dasharray:none;stroke-opacity:1"
           id="ellipse1800"
           cx="80.91584"
           cy="41.330894"
           rx="2.3464034"
           ry="1.7750037" />
      </g>
    </g>
    <g
       id="g1832"
       transform="translate(36.998373,99.395046)">
      <g
         id="g1822"
         transform="translate(-21.44838,-3.4076865)">
        <rect
           style="fill:#836b53;fill-opacity:1;stroke:none;stroke-width:0.178;stroke-linejoin:round;stroke-miterlimit:1.5;stroke-dasharray:none;stroke-opacity:1"
           id="rect1820"
           width="1.1358955"
           height="3.2740517"
           x="101.82969"
           y="47.306705" />
      </g>
      <g
         id="g1830">
        <ellipse
           style="fill:#1ddd61;fill-opacity:1;stroke:none;stroke-width:0.141152;stroke-linejoin:round;stroke-miterlimit:1.5;stroke-dasharray:none;stroke-opacity:1"
           id="ellipse1824"
           cx="79.988197"
           cy="42.874374"
           rx="2.3464034"
           ry="1.7750037" />
        <ellipse
           style="fill:#1ddd61;fill-opacity:1;stroke:none;stroke-width:0.141152;stroke-linejoin:round;stroke-miterlimit:1.5;stroke-dasharray:none;stroke-opacity:1"
           id="ellipse1826"
           cx="81.843491"
           cy="42.925827"
           rx="2.3464034"
           ry="1.7750037" />
        <ellipse
           style="fill:#1ddd61;fill-opacity:1;stroke:none;stroke-width:0.141152;stroke-linejoin:round;stroke-miterlimit:1.5;stroke-dasharray:none;stroke-opacity:1"
           id="ellipse1828"
           cx="80.91584"
           cy="41.330894"
           rx="2.3464034"
           ry="1.7750037" />
      </g>
    </g>
    <g
       id="g1846"
       transform="translate(45.994212,99.395046)">
      <g
         id="g1836"
         transform="translate(-21.44838,-3.4076865)">
        <rect
           style="fill:#836b53;fill-opacity:1;stroke:none;stroke-width:0.178;stroke-linejoin:round;stroke-miterlimit:1.5;stroke-dasharray:none;stroke-opacity:1"
           id="rect1834"
           width="1.1358955"
           height="3.2740517"
           x="101.82969"
           y="47.306705" />
      </g>
      <g
         id="g1844">
        <ellipse
           style="fill:#1ddd61;fill-opacity:1;stroke:none;stroke-width:0.141152;stroke-linejoin:round;stroke-miterlimit:1.5;stroke-dasharray:none;stroke-opacity:1"
           id="ellipse1838"
           cx="79.988197"
           cy="42.874374"
           rx="2.3464034"
           ry="1.7750037" />
        <ellipse
           style="fill:#1ddd61;fill-opacity:1;stroke:none;stroke-width:0.141152;stroke-linejoin:round;stroke-miterlimit:1.5;stroke-dasharray:none;stroke-opacity:1"
           id="ellipse1840"
           cx="81.843491"
           cy="42.925827"
           rx="2.3464034"
           ry="1.7750037" />
        <ellipse
           style="fill:#1ddd61;fill-opacity:1;stroke:none;stroke-width:0.141152;stroke-linejoin:round;stroke-miterlimit:1.5;stroke-dasharray:none;stroke-opacity:1"
           id="ellipse1842"
           cx="80.91584"
           cy="41.330894"
           rx="2.3464034"
           ry="1.7750037" />
      </g>
    </g>
    <g
       id="g1860"
       transform="translate(64.984137,99.395046)">
      <g
         id="g1850"
         transform="translate(-21.44838,-3.4076865)">
        <rect
           style="fill:#836b53;fill-opacity:1;stroke:none;stroke-width:0.178;stroke-linejoin:round;stroke-miterlimit:1.5;stroke-dasharray:none;stroke-opacity:1"
           id="rect1848"
           width="1.1358955"
           height="3.2740517"
           x="101.82969"
           y="47.306705" />
      </g>
      <g
         id="g1858">
        <ellipse
           style="fill:#1ddd61;fill-opacity:1;stroke:none;stroke-width:0.141152;stroke-linejoin:round;stroke-miterlimit:1.5;stroke-dasharray:none;stroke-opacity:1"
           id="ellipse1852"
           cx="79.988197"
           cy="42.874374"
           rx="2.3464034"
           ry="1.7750037" />
        <ellipse
           style="fill:#1ddd61;fill-opacity:1;stroke:none;stroke-width:0.141152;stroke-linejoin:round;stroke-miterlimit:1.5;stroke-dasharray:none;stroke-opacity:1"
           id="ellipse1854"
           cx="81.843491"
           cy="42.925827"
           rx="2.3464034"
           ry="1.7750037" />
        <ellipse
           style="fill:#1ddd61;fill-opacity:1;stroke:none;stroke-width:0.141152;stroke-linejoin:round;stroke-miterlimit:1.5;stroke-dasharray:none;stroke-opacity:1"
           id="ellipse1856"
           cx="80.91584"
           cy="41.330894"
           rx="2.3464034"
           ry="1.7750037" />
      </g>
    </g>
    <g
       id="g1874"
       transform="translate(82.446648,99.395046)">
      <g
         id="g1864"
         transform="translate(-21.44838,-3.4076865)">
        <rect
           style="fill:#836b53;fill-opacity:1;stroke:none;stroke-width:0.178;stroke-linejoin:round;stroke-miterlimit:1.5;stroke-dasharray:none;stroke-opacity:1"
           id="rect1862"
           width="1.1358955"
           height="3.2740517"
           x="101.82969"
           y="47.306705" />
      </g>
      <g
         id="g1872">
        <ellipse
           style="fill:#1ddd61;fill-opacity:1;stroke:none;stroke-width:0.141152;stroke-linejoin:round;stroke-miterlimit:1.5;stroke-dasharray:none;stroke-opacity:1"
           id="ellipse1866"
           cx="79.988197"
           cy="42.874374"
           rx="2.3464034"
           ry="1.7750037" />
        <ellipse
           style="fill:#1ddd61;fill-opacity:1;stroke:none;stroke-width:0.141152;stroke-linejoin:round;stroke-miterlimit:1.5;stroke-dasharray:none;stroke-opacity:1"
           id="ellipse1868"
           cx="81.843491"
           cy="42.925827"
           rx="2.3464034"
           ry="1.7750037" />
        <ellipse
           style="fill:#1ddd61;fill-opacity:1;stroke:none;stroke-width:0.141152;stroke-linejoin:round;stroke-miterlimit:1.5;stroke-dasharray:none;stroke-opacity:1"
           id="ellipse1870"
           cx="80.91584"
           cy="41.330894"
           rx="2.3464034"
           ry="1.7750037" />
      </g>
    </g>
    <g
       id="g1888"
       transform="translate(64.984121,118.00488)">
      <g
         id="g1878"
         transform="translate(-21.44838,-3.4076865)">
        <rect
           style="fill:#836b53;fill-opacity:1;stroke:none;stroke-width:0.178;stroke-linejoin:round;stroke-miterlimit:1.5;stroke-dasharray:none;stroke-opacity:1"
           id="rect1876"
           width="1.1358955"
           height="3.2740517"
           x="101.82969"
           y="47.306705" />
      </g>
      <g
         id="g1886">
        <ellipse
           style="fill:#1ddd61;fill-opacity:1;stroke:none;stroke-width:0.141152;stroke-linejoin:round;stroke-miterlimit:1.5;stroke-dasharray:none;stroke-opacity:1"
           id="ellipse1880"
           cx="79.988197"
           cy="42.874374"
           rx="2.3464034"
           ry="1.7750037" />
        <ellipse
           style="fill:#1ddd61;fill-opacity:1;stroke:none;stroke-width:0.141152;stroke-linejoin:round;stroke-miterlimit:1.5;stroke-dasharray:none;stroke-opacity:1"
           id="ellipse1882"
           cx="81.843491"
           cy="42.925827"
           rx="2.3464034"
           ry="1.7750037" />
        <ellipse
           style="fill:#1ddd61;fill-opacity:1;stroke:none;stroke-width:0.141152;stroke-linejoin:round;stroke-miterlimit:1.5;stroke-dasharray:none;stroke-opacity:1"
           id="ellipse1884"
           cx="80.91584"
           cy="41.330894"
           rx="2.3464034"
           ry="1.7750037" />
      </g>
    </g>
    <g
       id="g1902"
       transform="translate(64.984117,90.211201)">
      <g
         id="g1892"
         transform="translate(-21.44838,-3.4076865)">
        <rect
           style="fill:#836b53;fill-opacity:1;stroke:none;stroke-width:0.178;stroke-linejoin:round;stroke-miterlimit:1.5;stroke-dasharray:none;stroke-opacity:1"
           id="rect1890"
           width="1.1358955"
           height="3.2740517"
           x="101.82969"
           y="47.306705" />
      </g>
      <g
         id="g1900">
        <ellipse
           style="fill:#1ddd61;fill-opacity:1;stroke:none;stroke-width:0.141152;stroke-linejoin:round;stroke-miterlimit:1.5;stroke-dasharray:none;stroke-opacity:1"
           id="ellipse1894"
           cx="79.988197"
           cy="42.874374"
           rx="2.3464034"
           ry="1.7750037" />
        <ellipse
           style="fill:#1ddd61;fill-opacity:1;stroke:none;stroke-width:0.141152;stroke-linejoin:round;stroke-miterlimit:1.5;stroke-dasharray:none;stroke-opacity:1"
           id="ellipse1896"
           cx="81.843491"
           cy="42.925827"
           rx="2.3464034"
           ry="1.7750037" />
        <ellipse
           style="fill:#1ddd61;fill-opacity:1;stroke:none;stroke-width:0.141152;stroke-linejoin:round;stroke-miterlimit:1.5;stroke-dasharray:none;stroke-opacity:1"
           id="ellipse1898"
           cx="80.91584"
           cy="41.330894"
           rx="2.3464034"
           ry="1.7750037" />
      </g>
    </g>
    <g
       id="g1916"
       transform="translate(36.695304,61.103702)">
      <g
         id="g1906"
         transform="translate(-21.44838,-3.4076865)">
        <rect
           style="fill:#836b53;fill-opacity:1;stroke:none;stroke-width:0.178;stroke-linejoin:round;stroke-miterlimit:1.5;stroke-dasharray:none;stroke-opacity:1"
           id="rect1904"
           width="1.1358955"
           height="3.2740517"
           x="101.82969"
           y="47.306705" />
      </g>
      <g
         id="g1914">
        <ellipse
           style="fill:#1ddd61;fill-opacity:1;stroke:none;stroke-width:0.141152;stroke-linejoin:round;stroke-miterlimit:1.5;stroke-dasharray:none;stroke-opacity:1"
           id="ellipse1908"
           cx="79.988197"
           cy="42.874374"
           rx="2.3464034"
           ry="1.7750037" />
        <ellipse
           style="fill:#1ddd61;fill-opacity:1;stroke:none;stroke-width:0.141152;stroke-linejoin:round;stroke-miterlimit:1.5;stroke-dasharray:none;stroke-opacity:1"
           id="ellipse1910"
           cx="81.843491"
           cy="42.925827"
           rx="2.3464034"
           ry="1.7750037" />
        <ellipse
           style="fill:#1ddd61;fill-opacity:1;stroke:none;stroke-width:0.141152;stroke-linejoin:round;stroke-miterlimit:1.5;stroke-dasharray:none;stroke-opacity:1"
           id="ellipse1912"
           cx="80.91584"
           cy="41.330894"
           rx="2.3464034"
           ry="1.7750037" />
      </g>
    </g>
    <g
       id="g1930"
       transform="translate(102.40182,98.865879)">
      <g
         id="g1920"
         transform="translate(-21.44838,-3.4076865)">
        <rect
           style="fill:#836b53;fill-opacity:1;stroke:none;stroke-width:0.178;stroke-linejoin:round;stroke-miterlimit:1.5;stroke-dasharray:none;stroke-opacity:1"
           id="rect1918"
           width="1.1358955"
           height="3.2740517"
           x="101.82969"
           y="47.306705" />
      </g>
      <g
         id="g1928">
        <ellipse
           style="fill:#1ddd61;fill-opacity:1;stroke:none;stroke-width:0.141152;stroke-linejoin:round;stroke-miterlimit:1.5;stroke-dasharray:none;stroke-opacity:1"
           id="ellipse1922"
           cx="79.988197"
           cy="42.874374"
           rx="2.3464034"
           ry="1.7750037" />
        <ellipse
           style="fill:#1ddd61;fill-opacity:1;stroke:none;stroke-width:0.141152;stroke-linejoin:round;stroke-miterlimit:1.5;stroke-dasharray:none;stroke-opacity:1"
           id="ellipse1924"
           cx="81.843491"
           cy="42.925827"
           rx="2.3464034"
           ry="1.7750037" />
        <ellipse
           style="fill:#1ddd61;fill-opacity:1;stroke:none;stroke-width:0.141152;stroke-linejoin:round;stroke-miterlimit:1.5;stroke-dasharray:none;stroke-opacity:1"
           id="ellipse1926"
           cx="80.91584"
           cy="41.330894"
           rx="2.3464034"
           ry="1.7750037" />
      </g>
    </g>
    <rect
       style="fill:#dbdde2;fill-opacity:1;stroke:none;stroke-width:0.157472;stroke-miterlimit:1.5;stroke-dasharray:none;stroke-opacity:1"
       id="rect1932"
       width="9.3544331"
       height="56.126614"
       x="150.20551"
       y="128.28937" />
    <g
       id="g1938"
       transform="translate(62.106994,79.067297)">
      <rect
         style="fill:#fefefe;fill-opacity:1;stroke:#000000;stroke-width:0.2;stroke-miterlimit:1.5;stroke-dasharray:none;stroke-opacity:1"
         id="rect1934"
         width="4.8108511"
         height="3.415684"
         x="80.982666"
         y="35.338398" />
      <path
         style="fill:#f90301;fill-opacity:1;stroke:#000000;stroke-width:0.178;stroke-linecap:butt;stroke-linejoin:round;stroke-miterlimit:1.5;stroke-dasharray:none;stroke-opacity:1"
         d="m 80.37791,35.334296 h 6.13132 L 83.506568,31.57155 Z"
         id="path1936"
         sodipodi:nodetypes="cccc" />
    </g>
    <g
       id="g1944"
       transform="translate(81.004166,135.24912)">
      <rect
         style="fill:#fefefe;fill-opacity:1;stroke:#000000;stroke-width:0.2;stroke-miterlimit:1.5;stroke-dasharray:none;stroke-opacity:1"
         id="rect1940"
         width="4.8108511"
         height="3.415684"
         x="80.982666"
         y="35.338398" />
      <path
         style="fill:#f90301;fill-opacity:1;stroke:#000000;stroke-width:0.178;stroke-linecap:butt;stroke-linejoin:round;stroke-miterlimit:1.5;stroke-dasharray:none;stroke-opacity:1"
         d="m 80.37791,35.334296 h 6.13132 L 83.506568,31.57155 Z"
         id="path1942"
         sodipodi:nodetypes="cccc" />
    </g>
    <g
       id="g1958"
       transform="translate(102.38809,108.74948)">
      <g
         id="g1948"
         transform="translate(-21.44838,-3.4076865)">
        <rect
           style="fill:#836b53;fill-opacity:1;stroke:none;stroke-width:0.178;stroke-linejoin:round;stroke-miterlimit:1.5;stroke-dasharray:none;stroke-opacity:1"
           id="rect1946"
           width="1.1358955"
           height="3.2740517"
           x="101.82969"
           y="47.306705" />
      </g>
      <g
         id="g1956">
        <ellipse
           style="fill:#1ddd61;fill-opacity:1;stroke:none;stroke-width:0.141152;stroke-linejoin:round;stroke-miterlimit:1.5;stroke-dasharray:none;stroke-opacity:1"
           id="ellipse1950"
           cx="79.988197"
           cy="42.874374"
           rx="2.3464034"
           ry="1.7750037" />
        <ellipse
           style="fill:#1ddd61;fill-opacity:1;stroke:none;stroke-width:0.141152;stroke-linejoin:round;stroke-miterlimit:1.5;stroke-dasharray:none;stroke-opacity:1"
           id="ellipse1952"
           cx="81.843491"
           cy="42.925827"
           rx="2.3464034"
           ry="1.7750037" />
        <ellipse
           style="fill:#1ddd61;fill-opacity:1;stroke:none;stroke-width:0.141152;stroke-linejoin:round;stroke-miterlimit:1.5;stroke-dasharray:none;stroke-opacity:1"
           id="ellipse1954"
           cx="80.91584"
           cy="41.330894"
           rx="2.3464034"
           ry="1.7750037" />
      </g>
    </g>
    <g
       id="g1964"
       transform="translate(34.05487,88.605461)">
      <rect
         style="fill:#fefefe;fill-opacity:1;stroke:#000000;stroke-width:0.2;stroke-miterlimit:1.5;stroke-dasharray:none;stroke-opacity:1"
         id="rect1960"
         width="4.8108511"
         height="3.415684"
         x="80.982666"
         y="35.338398" />
      <path
         style="fill:#f90301;fill-opacity:1;stroke:#000000;stroke-width:0.178;stroke-linecap:butt;stroke-linejoin:round;stroke-miterlimit:1.5;stroke-dasharray:none;stroke-opacity:1"
         d="m 80.37791,35.334296 h 6.13132 L 83.506568,31.57155 Z"
         id="path1962"
         sodipodi:nodetypes="cccc" />
    </g>
    <g
       id="g1970"
       transform="translate(71.840158,88.432245)">
      <rect
         style="fill:#fefefe;fill-opacity:1;stroke:#000000;stroke-width:0.2;stroke-miterlimit:1.5;stroke-dasharray:none;stroke-opacity:1"
         id="rect1966"
         width="4.8108511"
         height="3.415684"
         x="80.982666"
         y="35.338398" />
      <path
         style="fill:#f90301;fill-opacity:1;stroke:#000000;stroke-width:0.178;stroke-linecap:butt;stroke-linejoin:round;stroke-miterlimit:1.5;stroke-dasharray:none;stroke-opacity:1"
         d="m 80.37791,35.334296 h 6.13132 L 83.506568,31.57155 Z"
         id="path1968"
         sodipodi:nodetypes="cccc" />
    </g>
    <g
       id="g1984"
       transform="translate(55.572513,127.19377)">
      <g
         id="g1974"
         transform="translate(-21.44838,-3.4076865)">
        <rect
           style="fill:#836b53;fill-opacity:1;stroke:none;stroke-width:0.178;stroke-linejoin:round;stroke-miterlimit:1.5;stroke-dasharray:none;stroke-opacity:1"
           id="rect1972"
           width="1.1358955"
           height="3.2740517"
           x="101.82969"
           y="47.306705" />
      </g>
      <g
         id="g1982">
        <ellipse
           style="fill:#1ddd61;fill-opacity:1;stroke:none;stroke-width:0.141152;stroke-linejoin:round;stroke-miterlimit:1.5;stroke-dasharray:none;stroke-opacity:1"
           id="ellipse1976"
           cx="79.988197"
           cy="42.874374"
           rx="2.3464034"
           ry="1.7750037" />
        <ellipse
           style="fill:#1ddd61;fill-opacity:1;stroke:none;stroke-width:0.141152;stroke-linejoin:round;stroke-miterlimit:1.5;stroke-dasharray:none;stroke-opacity:1"
           id="ellipse1978"
           cx="81.843491"
           cy="42.925827"
           rx="2.3464034"
           ry="1.7750037" />
        <ellipse
           style="fill:#1ddd61;fill-opacity:1;stroke:none;stroke-width:0.141152;stroke-linejoin:round;stroke-miterlimit:1.5;stroke-dasharray:none;stroke-opacity:1"
           id="ellipse1980"
           cx="80.91584"
           cy="41.330894"
           rx="2.3464034"
           ry="1.7750037" />
      </g>
    </g>
    <g
       id="g4793"
       transform="translate(34.365098,126.02321)">
      <rect
         style="fill:#fefefe;fill-opacity:1;stroke:#000000;stroke-width:0.2;stroke-miterlimit:1.5;stroke-dasharray:none;stroke-opacity:1"
         id="rect4789"
         width="4.8108511"
         height="3.415684"
         x="80.982666"
         y="35.338398" />
      <path
         style="fill:#f90301;fill-opacity:1;stroke:#000000;stroke-width:0.178;stroke-linecap:butt;stroke-linejoin:round;stroke-miterlimit:1.5;stroke-dasharray:none;stroke-opacity:1"
         d="m 80.37791,35.334296 h 6.13132 L 83.506568,31.57155 Z"
         id="path4791"
         sodipodi:nodetypes="cccc" />
    </g>
    <g
       id="g4807"
       transform="translate(83.071091,117.53092)">
      <g
         id="g4797"
         transform="translate(-21.44838,-3.4076865)">
        <rect
           style="fill:#836b53;fill-opacity:1;stroke:none;stroke-width:0.178;stroke-linejoin:round;stroke-miterlimit:1.5;stroke-dasharray:none;stroke-opacity:1"
           id="rect4795"
           width="1.1358955"
           height="3.2740517"
           x="101.82969"
           y="47.306705" />
      </g>
      <g
         id="g4805">
        <ellipse
           style="fill:#1ddd61;fill-opacity:1;stroke:none;stroke-width:0.141152;stroke-linejoin:round;stroke-miterlimit:1.5;stroke-dasharray:none;stroke-opacity:1"
           id="ellipse4799"
           cx="79.988197"
           cy="42.874374"
           rx="2.3464034"
           ry="1.7750037" />
        <ellipse
           style="fill:#1ddd61;fill-opacity:1;stroke:none;stroke-width:0.141152;stroke-linejoin:round;stroke-miterlimit:1.5;stroke-dasharray:none;stroke-opacity:1"
           id="ellipse4801"
           cx="81.843491"
           cy="42.925827"
           rx="2.3464034"
           ry="1.7750037" />
        <ellipse
           style="fill:#1ddd61;fill-opacity:1;stroke:none;stroke-width:0.141152;stroke-linejoin:round;stroke-miterlimit:1.5;stroke-dasharray:none;stroke-opacity:1"
           id="ellipse4803"
           cx="80.91584"
           cy="41.330894"
           rx="2.3464034"
           ry="1.7750037" />
      </g>
    </g>
    <rect
       style="fill:#dbdde2;fill-opacity:1;stroke:none;stroke-width:0.0909166;stroke-miterlimit:1.5;stroke-dasharray:none;stroke-opacity:1"
       id="rect4809"
       width="9.3544331"
       height="18.708879"
       x="109.70901"
       y="-131.62971"
       transform="rotate(90)"
       inkscape:transform-center-x="5.3453907"
       inkscape:transform-center-y="5.6126601" />
    <g
       id="g4817"
       transform="translate(43.271042,117.11262)">
      <path
         style="fill:#02055f;fill-opacity:1;stroke:#000000;stroke-width:0.141012;stroke-linecap:butt;stroke-linejoin:round;stroke-miterlimit:1.5;stroke-dasharray:none;stroke-opacity:1"
         d="m 81.5622,32.670639 v 3.847946 l 3.762746,-1.884436 z"
         id="path4815"
         sodipodi:nodetypes="cccc" />
    </g>
    <text
       xml:space="preserve"
       style="font-size:7.05556px;line-height:1.25;font-family:sans-serif;stroke-width:0.264583"
       x="114.52679"
       y="116.79463"
       id="text4825"><tspan
         sodipodi:role="line"
         id="tspan4823"
         x="114.52679"
         y="116.79463"
         style="stroke-width:0.264583">A</tspan></text>
    <text
       xml:space="preserve"
       style="font-size:7.05556px;line-height:1.25;font-family:sans-serif;stroke-width:0.264583"
       x="142.9695"
       y="181.80655"
       id="text4833"><tspan
         sodipodi:role="line"
         id="tspan4831"
         x="142.9695"
         y="181.80655"
         style="stroke-width:0.264583">E</tspan></text>
    <text
       xml:space="preserve"
       style="font-size:7.05556px;line-height:1.25;font-family:sans-serif;stroke-width:0.264583"
       x="162.44151"
       y="182.01222"
       id="text4837"><tspan
         sodipodi:role="line"
         id="tspan4835"
         x="162.44151"
         y="182.01222"
         style="stroke-width:0.264583">F</tspan></text>
    <text
       xml:space="preserve"
       style="font-size:7.05556px;line-height:1.25;font-family:sans-serif;stroke-width:0.264583"
       x="171.3177"
       y="136.16592"
       id="text4841"><tspan
         sodipodi:role="line"
         id="tspan4839"
         x="171.3177"
         y="136.16592"
         style="stroke-width:0.264583">C</tspan></text>
    <text
       xml:space="preserve"
       style="font-size:7.05556px;line-height:1.25;font-family:sans-serif;stroke-width:0.264583"
       x="161.89124"
       y="125.90472"
       id="text4845"><tspan
         sodipodi:role="line"
         id="tspan4843"
         x="161.89124"
         y="125.90472"
         style="stroke-width:0.264583">B</tspan></text>
    <text
       xml:space="preserve"
       style="font-size:7.05556px;line-height:1.25;font-family:sans-serif;stroke-width:0.264583"
       x="171.5067"
       y="173.49107"
       id="text4849"><tspan
         sodipodi:role="line"
         id="tspan4847"
         x="171.5067"
         y="173.49107"
         style="stroke-width:0.264583">D</tspan></text>
    <g
       id="g4863"
       transform="translate(102.44813,127.41989)">
      <g
         id="g4853"
         transform="translate(-21.44838,-3.4076865)">
        <rect
           style="fill:#836b53;fill-opacity:1;stroke:none;stroke-width:0.178;stroke-linejoin:round;stroke-miterlimit:1.5;stroke-dasharray:none;stroke-opacity:1"
           id="rect4851"
           width="1.1358955"
           height="3.2740517"
           x="101.82969"
           y="47.306705" />
      </g>
      <g
         id="g4861">
        <ellipse
           style="fill:#1ddd61;fill-opacity:1;stroke:none;stroke-width:0.141152;stroke-linejoin:round;stroke-miterlimit:1.5;stroke-dasharray:none;stroke-opacity:1"
           id="ellipse4855"
           cx="79.988197"
           cy="42.874374"
           rx="2.3464034"
           ry="1.7750037" />
        <ellipse
           style="fill:#1ddd61;fill-opacity:1;stroke:none;stroke-width:0.141152;stroke-linejoin:round;stroke-miterlimit:1.5;stroke-dasharray:none;stroke-opacity:1"
           id="ellipse4857"
           cx="81.843491"
           cy="42.925827"
           rx="2.3464034"
           ry="1.7750037" />
        <ellipse
           style="fill:#1ddd61;fill-opacity:1;stroke:none;stroke-width:0.141152;stroke-linejoin:round;stroke-miterlimit:1.5;stroke-dasharray:none;stroke-opacity:1"
           id="ellipse4859"
           cx="80.91584"
           cy="41.330894"
           rx="2.3464034"
           ry="1.7750037" />
      </g>
    </g>
    <g
       id="g4877"
       transform="translate(92.024618,146.12876)">
      <g
         id="g4867"
         transform="translate(-21.44838,-3.4076865)">
        <rect
           style="fill:#836b53;fill-opacity:1;stroke:none;stroke-width:0.178;stroke-linejoin:round;stroke-miterlimit:1.5;stroke-dasharray:none;stroke-opacity:1"
           id="rect4865"
           width="1.1358955"
           height="3.2740517"
           x="101.82969"
           y="47.306705" />
      </g>
      <g
         id="g4875">
        <ellipse
           style="fill:#1ddd61;fill-opacity:1;stroke:none;stroke-width:0.141152;stroke-linejoin:round;stroke-miterlimit:1.5;stroke-dasharray:none;stroke-opacity:1"
           id="ellipse4869"
           cx="79.988197"
           cy="42.874374"
           rx="2.3464034"
           ry="1.7750037" />
        <ellipse
           style="fill:#1ddd61;fill-opacity:1;stroke:none;stroke-width:0.141152;stroke-linejoin:round;stroke-miterlimit:1.5;stroke-dasharray:none;stroke-opacity:1"
           id="ellipse4871"
           cx="81.843491"
           cy="42.925827"
           rx="2.3464034"
           ry="1.7750037" />
        <ellipse
           style="fill:#1ddd61;fill-opacity:1;stroke:none;stroke-width:0.141152;stroke-linejoin:round;stroke-miterlimit:1.5;stroke-dasharray:none;stroke-opacity:1"
           id="ellipse4873"
           cx="80.91584"
           cy="41.330894"
           rx="2.3464034"
           ry="1.7750037" />
      </g>
    </g>
    <g
       id="g1093"
       transform="translate(52.992965,117.27966)"
       style="fill:#dfd900;fill-opacity:1">
      <path
         style="fill:#dfd900;fill-opacity:1;stroke:#000000;stroke-width:0.141012;stroke-linecap:butt;stroke-linejoin:round;stroke-miterlimit:1.5;stroke-dasharray:none;stroke-opacity:1"
         d="m 81.5622,32.670639 v 3.847946 l 3.762746,-1.884436 z"
         id="path1091"
         sodipodi:nodetypes="cccc" />
    </g>
    <g
       id="g1097"
       transform="translate(62.581265,117.21285)"
       style="fill:#dfd900;fill-opacity:1">
      <path
         style="fill:#dfd900;fill-opacity:1;stroke:#000000;stroke-width:0.141012;stroke-linecap:butt;stroke-linejoin:round;stroke-miterlimit:1.5;stroke-dasharray:none;stroke-opacity:1"
         d="m 81.5622,32.670639 v 3.847946 l 3.762746,-1.884436 z"
         id="path1095"
         sodipodi:nodetypes="cccc" />
    </g>
    <g
       id="g1101"
       transform="rotate(2.7818473,-2286.7925,1568.4274)"
       style="fill:#dfd900;fill-opacity:1">
      <path
         style="fill:#dfd900;fill-opacity:1;stroke:#000000;stroke-width:0.141012;stroke-linecap:butt;stroke-linejoin:round;stroke-miterlimit:1.5;stroke-dasharray:none;stroke-opacity:1"
         d="m 81.5622,32.670639 v 3.847946 l 3.762746,-1.884436 z"
         id="path1099"
         sodipodi:nodetypes="cccc" />
    </g>
    <g
       id="g1113"
       transform="rotate(-91.142351,167.87324,48.836089)"
       style="fill:#dfd900;fill-opacity:1">
      <path
         style="fill:#dfd900;fill-opacity:1;stroke:#000000;stroke-width:0.141012;stroke-linecap:butt;stroke-linejoin:round;stroke-miterlimit:1.5;stroke-dasharray:none;stroke-opacity:1"
         d="m 81.5622,32.670639 v 3.847946 l 3.762746,-1.884436 z"
         id="path1111"
         sodipodi:nodetypes="cccc" />
    </g>
    <g
       id="g1117"
       transform="rotate(-90.016681,173.50863,52.683379)"
       style="fill:#dfd900;fill-opacity:1">
      <path
         style="fill:#dfd900;fill-opacity:1;stroke:#000000;stroke-width:0.141012;stroke-linecap:butt;stroke-linejoin:round;stroke-miterlimit:1.5;stroke-dasharray:none;stroke-opacity:1"
         d="m 81.5622,32.670639 v 3.847946 l 3.762746,-1.884436 z"
         id="path1115"
         sodipodi:nodetypes="cccc" />
    </g>
    <g
       id="g1121"
       transform="rotate(-91.142351,168.35461,40.104525)"
       style="fill:#dfd700;fill-opacity:1">
      <path
         style="fill:#dfd700;fill-opacity:1;stroke:#000000;stroke-width:0.141012;stroke-linecap:butt;stroke-linejoin:round;stroke-miterlimit:1.5;stroke-dasharray:none;stroke-opacity:1"
         d="m 81.5622,32.670639 v 3.847946 l 3.762746,-1.884436 z"
         id="path1119"
         sodipodi:nodetypes="cccc" />
    </g>
    <g
       id="g1129"
       transform="translate(81.691036,99.038522)"
       style="fill:#dfd900;fill-opacity:1">
      <path
         style="fill:#dfd900;fill-opacity:1;stroke:#000000;stroke-width:0.141012;stroke-linecap:butt;stroke-linejoin:round;stroke-miterlimit:1.5;stroke-dasharray:none;stroke-opacity:1"
         d="m 81.5622,32.670639 v 3.847946 l 3.762746,-1.884436 z"
         id="path1127"
         sodipodi:nodetypes="cccc" />
    </g>
  </g>
  <g
     inkscape:groupmode="layer"
     id="layer1"
     inkscape:label="grid"
     sodipodi:insensitive="true"
     transform="translate(-103.46641,-100.25457)">
    <rect
       style="fill:none;stroke:#555453;stroke-width:0.2;stroke-miterlimit:1.5;stroke-dasharray:none;stroke-opacity:1"
       id="rect973"
       width="9.3544331"
       height="9.3544331"
       x="103.56641"
       y="100.35457" />
    <rect
       style="fill:none;stroke:#555453;stroke-width:0.2;stroke-miterlimit:1.5;stroke-dasharray:none;stroke-opacity:1"
       id="rect975"
       width="9.3544331"
       height="9.3544331"
       x="112.92087"
       y="100.35457" />
    <rect
       style="fill:none;stroke:#555453;stroke-width:0.2;stroke-miterlimit:1.5;stroke-dasharray:none;stroke-opacity:1"
       id="rect977"
       width="9.3544331"
       height="9.3544331"
       x="122.27529"
       y="100.35457" />
    <rect
       style="fill:none;stroke:#555453;stroke-width:0.2;stroke-miterlimit:1.5;stroke-dasharray:none;stroke-opacity:1"
       id="rect979"
       width="9.3544331"
       height="9.3544331"
       x="131.62971"
       y="100.35457" />
    <rect
       style="fill:none;stroke:#555453;stroke-width:0.2;stroke-miterlimit:1.5;stroke-dasharray:none;stroke-opacity:1"
       id="rect981"
       width="9.3544331"
       height="9.3544331"
       x="140.98418"
       y="100.35457" />
    <rect
       style="fill:none;stroke:#555453;stroke-width:0.2;stroke-miterlimit:1.5;stroke-dasharray:none;stroke-opacity:1"
       id="rect983"
       width="9.3544331"
       height="9.3544331"
       x="150.33861"
       y="100.35457" />
    <rect
       style="fill:none;stroke:#555453;stroke-width:0.2;stroke-miterlimit:1.5;stroke-dasharray:none;stroke-opacity:1"
       id="rect985"
       width="9.3544331"
       height="9.3544331"
       x="159.69304"
       y="100.35457" />
    <rect
       style="fill:none;stroke:#555453;stroke-width:0.2;stroke-miterlimit:1.5;stroke-dasharray:none;stroke-opacity:1"
       id="rect987"
       width="9.3544331"
       height="9.3544331"
       x="169.04747"
       y="100.35457" />
    <rect
       style="fill:none;stroke:#555453;stroke-width:0.2;stroke-miterlimit:1.5;stroke-dasharray:none;stroke-opacity:1"
       id="rect989"
       width="9.3544331"
       height="9.3544331"
       x="178.40189"
       y="100.35457" />
    <rect
       style="fill:none;stroke:#555453;stroke-width:0.2;stroke-miterlimit:1.5;stroke-dasharray:none;stroke-opacity:1"
       id="rect991"
       width="9.3544331"
       height="9.3544331"
       x="187.75635"
       y="100.35457" />
    <rect
       style="fill:none;stroke:#555453;stroke-width:0.2;stroke-miterlimit:1.5;stroke-dasharray:none;stroke-opacity:1"
       id="rect1005"
       width="9.3544331"
       height="9.3544331"
       x="103.56641"
       y="109.70901" />
    <rect
       style="fill:none;stroke:#555453;stroke-width:0.2;stroke-miterlimit:1.5;stroke-dasharray:none;stroke-opacity:1"
       id="rect1007"
       width="9.3544331"
       height="9.3544331"
       x="112.92087"
       y="109.70901" />
    <rect
       style="fill:none;stroke:#555453;stroke-width:0.2;stroke-miterlimit:1.5;stroke-dasharray:none;stroke-opacity:1"
       id="rect1009"
       width="9.3544331"
       height="9.3544331"
       x="122.27529"
       y="109.70901" />
    <rect
       style="fill:none;stroke:#555453;stroke-width:0.2;stroke-miterlimit:1.5;stroke-dasharray:none;stroke-opacity:1"
       id="rect1011"
       width="9.3544331"
       height="9.3544331"
       x="131.62971"
       y="109.70901" />
    <rect
       style="fill:none;stroke:#555453;stroke-width:0.2;stroke-miterlimit:1.5;stroke-dasharray:none;stroke-opacity:1"
       id="rect1013"
       width="9.3544331"
       height="9.3544331"
       x="140.98418"
       y="109.70901" />
    <rect
       style="fill:none;stroke:#555453;stroke-width:0.2;stroke-miterlimit:1.5;stroke-dasharray:none;stroke-opacity:1"
       id="rect1015"
       width="9.3544331"
       height="9.3544331"
       x="150.33861"
       y="109.70901" />
    <rect
       style="fill:none;stroke:#555453;stroke-width:0.2;stroke-miterlimit:1.5;stroke-dasharray:none;stroke-opacity:1"
       id="rect1017"
       width="9.3544331"
       height="9.3544331"
       x="159.69304"
       y="109.70901" />
    <rect
       style="fill:none;stroke:#555453;stroke-width:0.2;stroke-miterlimit:1.5;stroke-dasharray:none;stroke-opacity:1"
       id="rect1019"
       width="9.3544331"
       height="9.3544331"
       x="169.04747"
       y="109.70901" />
    <rect
       style="fill:none;stroke:#555453;stroke-width:0.2;stroke-miterlimit:1.5;stroke-dasharray:none;stroke-opacity:1"
       id="rect1021"
       width="9.3544331"
       height="9.3544331"
       x="178.40189"
       y="109.70901" />
    <rect
       style="fill:none;stroke:#555453;stroke-width:0.2;stroke-miterlimit:1.5;stroke-dasharray:none;stroke-opacity:1"
       id="rect1023"
       width="9.3544331"
       height="9.3544331"
       x="187.75635"
       y="109.70901" />
    <rect
       style="fill:none;stroke:#555453;stroke-width:0.2;stroke-miterlimit:1.5;stroke-dasharray:none;stroke-opacity:1"
       id="rect1037"
       width="9.3544331"
       height="9.3544331"
       x="103.56641"
       y="119.06344" />
    <rect
       style="fill:none;stroke:#555453;stroke-width:0.2;stroke-miterlimit:1.5;stroke-dasharray:none;stroke-opacity:1"
       id="rect1039"
       width="9.3544331"
       height="9.3544331"
       x="112.92087"
       y="119.06344" />
    <rect
       style="fill:none;stroke:#555453;stroke-width:0.2;stroke-miterlimit:1.5;stroke-dasharray:none;stroke-opacity:1"
       id="rect1041"
       width="9.3544331"
       height="9.3544331"
       x="122.27529"
       y="119.06344" />
    <rect
       style="fill:none;stroke:#555453;stroke-width:0.2;stroke-miterlimit:1.5;stroke-dasharray:none;stroke-opacity:1"
       id="rect1043"
       width="9.3544331"
       height="9.3544331"
       x="131.62971"
       y="119.06344" />
    <rect
       style="fill:none;stroke:#555453;stroke-width:0.2;stroke-miterlimit:1.5;stroke-dasharray:none;stroke-opacity:1"
       id="rect1045"
       width="9.3544331"
       height="9.3544331"
       x="140.98418"
       y="119.06344" />
    <rect
       style="fill:none;stroke:#555453;stroke-width:0.2;stroke-miterlimit:1.5;stroke-dasharray:none;stroke-opacity:1"
       id="rect1047"
       width="9.3544331"
       height="9.3544331"
       x="150.33861"
       y="119.06344" />
    <rect
       style="fill:none;stroke:#555453;stroke-width:0.2;stroke-miterlimit:1.5;stroke-dasharray:none;stroke-opacity:1"
       id="rect1049"
       width="9.3544331"
       height="9.3544331"
       x="159.69304"
       y="119.06344" />
    <rect
       style="fill:none;stroke:#555453;stroke-width:0.2;stroke-miterlimit:1.5;stroke-dasharray:none;stroke-opacity:1"
       id="rect1051"
       width="9.3544331"
       height="9.3544331"
       x="169.04747"
       y="119.06344" />
    <rect
       style="fill:none;stroke:#555453;stroke-width:0.2;stroke-miterlimit:1.5;stroke-dasharray:none;stroke-opacity:1"
       id="rect1053"
       width="9.3544331"
       height="9.3544331"
       x="178.40189"
       y="119.06344" />
    <rect
       style="fill:none;stroke:#555453;stroke-width:0.2;stroke-miterlimit:1.5;stroke-dasharray:none;stroke-opacity:1"
       id="rect1055"
       width="9.3544331"
       height="9.3544331"
       x="187.75635"
       y="119.06344" />
    <rect
       style="fill:none;stroke:#555453;stroke-width:0.2;stroke-miterlimit:1.5;stroke-dasharray:none;stroke-opacity:1"
       id="rect1069"
       width="9.3544331"
       height="9.3544331"
       x="103.56641"
       y="128.41788" />
    <rect
       style="fill:none;stroke:#555453;stroke-width:0.2;stroke-miterlimit:1.5;stroke-dasharray:none;stroke-opacity:1"
       id="rect1071"
       width="9.3544331"
       height="9.3544331"
       x="112.92087"
       y="128.41788" />
    <rect
       style="fill:none;stroke:#555453;stroke-width:0.2;stroke-miterlimit:1.5;stroke-dasharray:none;stroke-opacity:1"
       id="rect1073"
       width="9.3544331"
       height="9.3544331"
       x="122.27529"
       y="128.41788" />
    <rect
       style="fill:none;stroke:#555453;stroke-width:0.2;stroke-miterlimit:1.5;stroke-dasharray:none;stroke-opacity:1"
       id="rect1075"
       width="9.3544331"
       height="9.3544331"
       x="131.62971"
       y="128.41788" />
    <rect
       style="fill:none;stroke:#555453;stroke-width:0.2;stroke-miterlimit:1.5;stroke-dasharray:none;stroke-opacity:1"
       id="rect1077"
       width="9.3544331"
       height="9.3544331"
       x="140.98418"
       y="128.41788" />
    <rect
       style="fill:none;stroke:#555453;stroke-width:0.2;stroke-miterlimit:1.5;stroke-dasharray:none;stroke-opacity:1"
       id="rect1079"
       width="9.3544331"
       height="9.3544331"
       x="150.33861"
       y="128.41788" />
    <rect
       style="fill:none;stroke:#555453;stroke-width:0.2;stroke-miterlimit:1.5;stroke-dasharray:none;stroke-opacity:1"
       id="rect1081"
       width="9.3544331"
       height="9.3544331"
       x="159.69304"
       y="128.41788" />
    <rect
       style="fill:none;stroke:#555453;stroke-width:0.2;stroke-miterlimit:1.5;stroke-dasharray:none;stroke-opacity:1"
       id="rect1083"
       width="9.3544331"
       height="9.3544331"
       x="169.04747"
       y="128.41788" />
    <rect
       style="fill:none;stroke:#555453;stroke-width:0.2;stroke-miterlimit:1.5;stroke-dasharray:none;stroke-opacity:1"
       id="rect1085"
       width="9.3544331"
       height="9.3544331"
       x="178.40189"
       y="128.41788" />
    <rect
       style="fill:none;stroke:#555453;stroke-width:0.2;stroke-miterlimit:1.5;stroke-dasharray:none;stroke-opacity:1"
       id="rect1087"
       width="9.3544331"
       height="9.3544331"
       x="187.75635"
       y="128.41788" />
    <rect
       style="fill:none;stroke:#555453;stroke-width:0.2;stroke-miterlimit:1.5;stroke-dasharray:none;stroke-opacity:1"
       id="rect1101"
       width="9.3544331"
       height="9.3544331"
       x="103.56641"
       y="137.77232" />
    <rect
       style="fill:none;stroke:#555453;stroke-width:0.2;stroke-miterlimit:1.5;stroke-dasharray:none;stroke-opacity:1"
       id="rect1103"
       width="9.3544331"
       height="9.3544331"
       x="112.92085"
       y="137.77232" />
    <rect
       style="fill:none;stroke:#555453;stroke-width:0.2;stroke-miterlimit:1.5;stroke-dasharray:none;stroke-opacity:1"
       id="rect1105"
       width="9.3544331"
       height="9.3544331"
       x="122.27531"
       y="137.77232" />
    <rect
       style="fill:none;stroke:#555453;stroke-width:0.2;stroke-miterlimit:1.5;stroke-dasharray:none;stroke-opacity:1"
       id="rect1107"
       width="9.3544331"
       height="9.3544331"
       x="131.62971"
       y="137.77232" />
    <rect
       style="fill:none;stroke:#555453;stroke-width:0.2;stroke-miterlimit:1.5;stroke-dasharray:none;stroke-opacity:1"
       id="rect1109"
       width="9.3544331"
       height="9.3544331"
       x="140.98416"
       y="137.77232" />
    <rect
       style="fill:none;stroke:#555453;stroke-width:0.2;stroke-miterlimit:1.5;stroke-dasharray:none;stroke-opacity:1"
       id="rect1111"
       width="9.3544331"
       height="9.3544331"
       x="150.33861"
       y="137.77232" />
    <rect
       style="fill:none;stroke:#555453;stroke-width:0.2;stroke-miterlimit:1.5;stroke-dasharray:none;stroke-opacity:1"
       id="rect1113"
       width="9.3544331"
       height="9.3544331"
       x="159.69304"
       y="137.77232" />
    <rect
       style="fill:none;stroke:#555453;stroke-width:0.2;stroke-miterlimit:1.5;stroke-dasharray:none;stroke-opacity:1"
       id="rect1115"
       width="9.3544331"
       height="9.3544331"
       x="169.04747"
       y="137.77232" />
    <rect
       style="fill:none;stroke:#555453;stroke-width:0.2;stroke-miterlimit:1.5;stroke-dasharray:none;stroke-opacity:1"
       id="rect1117"
       width="9.3544331"
       height="9.3544331"
       x="178.40189"
       y="137.77232" />
    <rect
       style="fill:none;stroke:#555453;stroke-width:0.2;stroke-miterlimit:1.5;stroke-dasharray:none;stroke-opacity:1"
       id="rect1119"
       width="9.3544331"
       height="9.3544331"
       x="187.75635"
       y="137.77232" />
    <rect
       style="fill:none;stroke:#555453;stroke-width:0.2;stroke-miterlimit:1.5;stroke-dasharray:none;stroke-opacity:1"
       id="rect1133"
       width="9.3544331"
       height="9.3544331"
       x="103.56641"
       y="147.12677" />
    <rect
       style="fill:none;stroke:#555453;stroke-width:0.2;stroke-miterlimit:1.5;stroke-dasharray:none;stroke-opacity:1"
       id="rect1135"
       width="9.3544331"
       height="9.3544331"
       x="112.92085"
       y="147.12677" />
    <rect
       style="fill:none;stroke:#555453;stroke-width:0.2;stroke-miterlimit:1.5;stroke-dasharray:none;stroke-opacity:1"
       id="rect1137"
       width="9.3544331"
       height="9.3544331"
       x="122.27531"
       y="147.12677" />
    <rect
       style="fill:none;stroke:#555453;stroke-width:0.2;stroke-miterlimit:1.5;stroke-dasharray:none;stroke-opacity:1"
       id="rect1139"
       width="9.3544331"
       height="9.3544331"
       x="131.62971"
       y="147.12677" />
    <rect
       style="fill:none;stroke:#555453;stroke-width:0.2;stroke-miterlimit:1.5;stroke-dasharray:none;stroke-opacity:1"
       id="rect1141"
       width="9.3544331"
       height="9.3544331"
       x="140.98416"
       y="147.12677" />
    <rect
       style="fill:none;stroke:#555453;stroke-width:0.2;stroke-miterlimit:1.5;stroke-dasharray:none;stroke-opacity:1"
       id="rect1143"
       width="9.3544331"
       height="9.3544331"
       x="150.33861"
       y="147.12677" />
    <rect
       style="fill:none;stroke:#555453;stroke-width:0.2;stroke-miterlimit:1.5;stroke-dasharray:none;stroke-opacity:1"
       id="rect1145"
       width="9.3544331"
       height="9.3544331"
       x="159.69304"
       y="147.12677" />
    <rect
       style="fill:none;stroke:#555453;stroke-width:0.2;stroke-miterlimit:1.5;stroke-dasharray:none;stroke-opacity:1"
       id="rect1147"
       width="9.3544331"
       height="9.3544331"
       x="169.04747"
       y="147.12677" />
    <rect
       style="fill:none;stroke:#555453;stroke-width:0.2;stroke-miterlimit:1.5;stroke-dasharray:none;stroke-opacity:1"
       id="rect1149"
       width="9.3544331"
       height="9.3544331"
       x="178.40189"
       y="147.12677" />
    <rect
       style="fill:none;stroke:#555453;stroke-width:0.2;stroke-miterlimit:1.5;stroke-dasharray:none;stroke-opacity:1"
       id="rect1151"
       width="9.3544331"
       height="9.3544331"
       x="187.75635"
       y="147.12677" />
    <rect
       style="fill:none;stroke:#555453;stroke-width:0.2;stroke-miterlimit:1.5;stroke-dasharray:none;stroke-opacity:1"
       id="rect1165"
       width="9.3544331"
       height="9.3544331"
       x="103.56641"
       y="156.4812" />
    <rect
       style="fill:none;stroke:#555453;stroke-width:0.2;stroke-miterlimit:1.5;stroke-dasharray:none;stroke-opacity:1"
       id="rect1167"
       width="9.3544331"
       height="9.3544331"
       x="112.92085"
       y="156.4812" />
    <rect
       style="fill:none;stroke:#555453;stroke-width:0.2;stroke-miterlimit:1.5;stroke-dasharray:none;stroke-opacity:1"
       id="rect1169"
       width="9.3544331"
       height="9.3544331"
       x="122.27531"
       y="156.4812" />
    <rect
       style="fill:none;stroke:#555453;stroke-width:0.2;stroke-miterlimit:1.5;stroke-dasharray:none;stroke-opacity:1"
       id="rect1171"
       width="9.3544331"
       height="9.3544331"
       x="131.62971"
       y="156.4812" />
    <rect
       style="fill:none;stroke:#555453;stroke-width:0.2;stroke-miterlimit:1.5;stroke-dasharray:none;stroke-opacity:1"
       id="rect1173"
       width="9.3544331"
       height="9.3544331"
       x="140.98416"
       y="156.4812" />
    <rect
       style="fill:none;stroke:#555453;stroke-width:0.2;stroke-miterlimit:1.5;stroke-dasharray:none;stroke-opacity:1"
       id="rect1175"
       width="9.3544331"
       height="9.3544331"
       x="150.33861"
       y="156.4812" />
    <rect
       style="fill:none;stroke:#555453;stroke-width:0.2;stroke-miterlimit:1.5;stroke-dasharray:none;stroke-opacity:1"
       id="rect1177"
       width="9.3544331"
       height="9.3544331"
       x="159.69304"
       y="156.4812" />
    <rect
       style="fill:none;stroke:#555453;stroke-width:0.2;stroke-miterlimit:1.5;stroke-dasharray:none;stroke-opacity:1"
       id="rect1179"
       width="9.3544331"
       height="9.3544331"
       x="169.04747"
       y="156.4812" />
    <rect
       style="fill:none;stroke:#555453;stroke-width:0.2;stroke-miterlimit:1.5;stroke-dasharray:none;stroke-opacity:1"
       id="rect1181"
       width="9.3544331"
       height="9.3544331"
       x="178.40189"
       y="156.4812" />
    <rect
       style="fill:none;stroke:#555453;stroke-width:0.2;stroke-miterlimit:1.5;stroke-dasharray:none;stroke-opacity:1"
       id="rect1183"
       width="9.3544331"
       height="9.3544331"
       x="187.75635"
       y="156.4812" />
    <rect
       style="fill:none;stroke:#555453;stroke-width:0.2;stroke-miterlimit:1.5;stroke-dasharray:none;stroke-opacity:1"
       id="rect1197"
       width="9.3544331"
       height="9.3544331"
       x="103.56641"
       y="165.83563" />
    <rect
       style="fill:none;stroke:#555453;stroke-width:0.2;stroke-miterlimit:1.5;stroke-dasharray:none;stroke-opacity:1"
       id="rect1199"
       width="9.3544331"
       height="9.3544331"
       x="112.92085"
       y="165.83563" />
    <rect
       style="fill:none;stroke:#555453;stroke-width:0.2;stroke-miterlimit:1.5;stroke-dasharray:none;stroke-opacity:1"
       id="rect1201"
       width="9.3544331"
       height="9.3544331"
       x="122.27531"
       y="165.83563" />
    <rect
       style="fill:none;stroke:#555453;stroke-width:0.2;stroke-miterlimit:1.5;stroke-dasharray:none;stroke-opacity:1"
       id="rect1203"
       width="9.3544331"
       height="9.3544331"
       x="131.62971"
       y="165.83563" />
    <rect
       style="fill:none;stroke:#555453;stroke-width:0.2;stroke-miterlimit:1.5;stroke-dasharray:none;stroke-opacity:1"
       id="rect1205"
       width="9.3544331"
       height="9.3544331"
       x="140.98416"
       y="165.83563" />
    <rect
       style="fill:none;stroke:#555453;stroke-width:0.2;stroke-miterlimit:1.5;stroke-dasharray:none;stroke-opacity:1"
       id="rect1207"
       width="9.3544331"
       height="9.3544331"
       x="150.33861"
       y="165.83563" />
    <rect
       style="fill:none;stroke:#555453;stroke-width:0.2;stroke-miterlimit:1.5;stroke-dasharray:none;stroke-opacity:1"
       id="rect1209"
       width="9.3544331"
       height="9.3544331"
       x="159.69304"
       y="165.83563" />
    <rect
       style="fill:none;stroke:#555453;stroke-width:0.2;stroke-miterlimit:1.5;stroke-dasharray:none;stroke-opacity:1"
       id="rect1211"
       width="9.3544331"
       height="9.3544331"
       x="169.04747"
       y="165.83563" />
    <rect
       style="fill:none;stroke:#555453;stroke-width:0.2;stroke-miterlimit:1.5;stroke-dasharray:none;stroke-opacity:1"
       id="rect1213"
       width="9.3544331"
       height="9.3544331"
       x="178.40189"
       y="165.83563" />
    <rect
       style="fill:none;stroke:#555453;stroke-width:0.2;stroke-miterlimit:1.5;stroke-dasharray:none;stroke-opacity:1"
       id="rect1215"
       width="9.3544331"
       height="9.3544331"
       x="187.75635"
       y="165.83563" />
    <rect
       style="fill:none;stroke:#555453;stroke-width:0.2;stroke-miterlimit:1.5;stroke-dasharray:none;stroke-opacity:1"
       id="rect1229"
       width="9.3544331"
       height="9.3544331"
       x="103.56643"
       y="175.19006" />
    <rect
       style="fill:none;stroke:#555453;stroke-width:0.2;stroke-miterlimit:1.5;stroke-dasharray:none;stroke-opacity:1"
       id="rect1231"
       width="9.3544331"
       height="9.3544331"
       x="112.9209"
       y="175.19006" />
    <rect
       style="fill:none;stroke:#555453;stroke-width:0.2;stroke-miterlimit:1.5;stroke-dasharray:none;stroke-opacity:1"
       id="rect1233"
       width="9.3544331"
       height="9.3544331"
       x="122.27531"
       y="175.19006" />
    <rect
       style="fill:none;stroke:#555453;stroke-width:0.2;stroke-miterlimit:1.5;stroke-dasharray:none;stroke-opacity:1"
       id="rect1235"
       width="9.3544331"
       height="9.3544331"
       x="131.62975"
       y="175.19006" />
    <rect
       style="fill:none;stroke:#555453;stroke-width:0.2;stroke-miterlimit:1.5;stroke-dasharray:none;stroke-opacity:1"
       id="rect1237"
       width="9.3544331"
       height="9.3544331"
       x="140.98418"
       y="175.19006" />
    <rect
       style="fill:none;stroke:#555453;stroke-width:0.2;stroke-miterlimit:1.5;stroke-dasharray:none;stroke-opacity:1"
       id="rect1239"
       width="9.3544331"
       height="9.3544331"
       x="150.33862"
       y="175.19006" />
    <rect
       style="fill:none;stroke:#555453;stroke-width:0.2;stroke-miterlimit:1.5;stroke-dasharray:none;stroke-opacity:1"
       id="rect1241"
       width="9.3544331"
       height="9.3544331"
       x="159.69305"
       y="175.19006" />
    <rect
       style="fill:none;stroke:#555453;stroke-width:0.2;stroke-miterlimit:1.5;stroke-dasharray:none;stroke-opacity:1"
       id="rect1243"
       width="9.3544331"
       height="9.3544331"
       x="169.04749"
       y="175.19006" />
    <rect
       style="fill:none;stroke:#555453;stroke-width:0.2;stroke-miterlimit:1.5;stroke-dasharray:none;stroke-opacity:1"
       id="rect1245"
       width="9.3544331"
       height="9.3544331"
       x="178.4019"
       y="175.19006" />
    <rect
       style="fill:none;stroke:#555453;stroke-width:0.2;stroke-miterlimit:1.5;stroke-dasharray:none;stroke-opacity:1"
       id="rect1247"
       width="9.3544331"
       height="9.3544331"
       x="187.75636"
       y="175.19006" />
    <rect
       style="fill:none;stroke:#555453;stroke-width:0.2;stroke-miterlimit:1.5;stroke-dasharray:none;stroke-opacity:1"
       id="rect1261"
       width="9.3544331"
       height="9.3544331"
       x="103.56643"
       y="184.54451" />
    <rect
       style="fill:none;stroke:#555453;stroke-width:0.2;stroke-miterlimit:1.5;stroke-dasharray:none;stroke-opacity:1"
       id="rect1263"
       width="9.3544331"
       height="9.3544331"
       x="112.9209"
       y="184.54451" />
    <rect
       style="fill:none;stroke:#555453;stroke-width:0.2;stroke-miterlimit:1.5;stroke-dasharray:none;stroke-opacity:1"
       id="rect1265"
       width="9.3544331"
       height="9.3544331"
       x="122.27531"
       y="184.54451" />
    <rect
       style="fill:none;stroke:#555453;stroke-width:0.2;stroke-miterlimit:1.5;stroke-dasharray:none;stroke-opacity:1"
       id="rect1267"
       width="9.3544331"
       height="9.3544331"
       x="131.62975"
       y="184.54451" />
    <rect
       style="fill:none;stroke:#555453;stroke-width:0.2;stroke-miterlimit:1.5;stroke-dasharray:none;stroke-opacity:1"
       id="rect1269"
       width="9.3544331"
       height="9.3544331"
       x="140.98418"
       y="184.54451" />
    <rect
       style="fill:none;stroke:#555453;stroke-width:0.2;stroke-miterlimit:1.5;stroke-dasharray:none;stroke-opacity:1"
       id="rect1271"
       width="9.3544331"
       height="9.3544331"
       x="150.33862"
       y="184.54451" />
    <rect
       style="fill:none;stroke:#555453;stroke-width:0.2;stroke-miterlimit:1.5;stroke-dasharray:none;stroke-opacity:1"
       id="rect1273"
       width="9.3544331"
       height="9.3544331"
       x="159.69305"
       y="184.54451" />
    <rect
       style="fill:none;stroke:#555453;stroke-width:0.2;stroke-miterlimit:1.5;stroke-dasharray:none;stroke-opacity:1"
       id="rect1275"
       width="9.3544331"
       height="9.3544331"
       x="169.04749"
       y="184.54451" />
    <rect
       style="fill:none;stroke:#555453;stroke-width:0.2;stroke-miterlimit:1.5;stroke-dasharray:none;stroke-opacity:1"
       id="rect1277"
       width="9.3544331"
       height="9.3544331"
       x="178.4019"
       y="184.54451" />
    <rect
       style="fill:none;stroke:#555453;stroke-width:0.2;stroke-miterlimit:1.5;stroke-dasharray:none;stroke-opacity:1"
       id="rect1279"
       width="9.3544331"
       height="9.3544331"
       x="187.75636"
       y="184.54451" />
  </g>
</svg>
