<?xml version="1.0" encoding="UTF-8" standalone="no"?>
<svg
   viewBox="0 0 549.4 271.3"
   version="1.1"
   id="svg73"
   sodipodi:docname="j04-sol.svg"
   inkscape:export-xdpi="54.130001"
   inkscape:export-ydpi="54.130001"
   inkscape:version="1.1.1 (3bf5ae0d25, 2021-09-20)"
   xmlns:inkscape="http://www.inkscape.org/namespaces/inkscape"
   xmlns:sodipodi="http://sodipodi.sourceforge.net/DTD/sodipodi-0.dtd"
   xmlns="http://www.w3.org/2000/svg"
   xmlns:svg="http://www.w3.org/2000/svg">
  <sodipodi:namedview
     id="namedview75"
     pagecolor="#ffffff"
     bordercolor="#666666"
     borderopacity="1.0"
     inkscape:pageshadow="2"
     inkscape:pageopacity="0.0"
     inkscape:pagecheckerboard="0"
     showgrid="false"
     inkscape:zoom="1"
     inkscape:cx="218"
     inkscape:cy="133.5"
     inkscape:window-width="1920"
     inkscape:window-height="1017"
     inkscape:window-x="-8"
     inkscape:window-y="-8"
     inkscape:window-maximized="1"
     inkscape:current-layer="svg73" />
  <defs
     id="defs7">
    <style
       id="style2">.cls-1,.cls-10{fill:none;}.cls-2{isolation:isolate;}.cls-3{clip-path:url(#clip-path);}.cls-4{fill:#ded9c2;}.cls-5{fill:#b4cb3b;mix-blend-mode:screen;opacity:0.4;}.cls-6{fill:#afdbe4;}.cls-7{fill:#8fcbca;}.cls-8{fill:#fff;stroke:#5d5e5e;}.cls-10,.cls-8{stroke-miterlimit:10;}.cls-9{fill:#040000;}.cls-10{stroke:#8bc4c3;stroke-width:5px;}.cls-11{fill:#8bc4c3;}</style>
    <clipPath
       id="clip-path">
      <rect
         class="cls-1"
         x="778.11"
         y="20.82"
         width="3183.83"
         height="505.88"
         id="rect4" />
    </clipPath>
  </defs>
  <g
     id="圖層_1"
     data-name="圖層 1"
     style="isolation:isolate">
    <circle
       class="cls-8"
       cx="349.48001"
       cy="231.92999"
       r="32"
       id="circle22" />
    <path
       class="cls-9"
       d="m 346.18,214.13 h 5.1 l 12.5,30.8 h -6.7 l -2.5,-6 h -11.8 l -2.4,6 h -6.6 z m 2.6,10.1 -3.6,9.1 h 7.3 z"
       id="path24" />
    <circle
       class="cls-8"
       cx="193.78"
       cy="231.92999"
       r="32"
       id="circle26" />
    <path
       class="cls-9"
       d="m 184.48,215.43 h 9 c 3.7,0 6.3,0.8 7.7,2.3 a 8.05,8.05 0 0 1 2.1,5.5 7.42,7.42 0 0 1 -0.8,3.4 11.58,11.58 0 0 1 -2.4,2.8 8.22,8.22 0 0 1 4.5,3.2 8.45,8.45 0 0 1 1.3,4.6 8.2,8.2 0 0 1 -2.9,6.6 c -1.9,1.6 -4.7,2.4 -8.2,2.4 h -10.3 z m 6.6,5.2 v 6.8 h 1.5 a 3.93,3.93 0 0 0 2.8,-1.1 3.63,3.63 0 0 0 1.1,-2.6 3,3 0 0 0 -1.1,-2.2 4.28,4.28 0 0 0 -2.8,-0.9 z m 0,12 v 8.5 h 2.4 c 3.6,0 5.5,-1.3 5.5,-4 a 4.16,4.16 0 0 0 -1.3,-3.3 5.59,5.59 0 0 0 -3.8,-1.2 z"
       id="path28" />
    <circle
       class="cls-8"
       cx="38.080002"
       cy="138.89999"
       r="32"
       id="circle30" />
    <path
       class="cls-9"
       d="m 47.38,125.5 v 7.5 q -5,-3 -8.7,-3 a 7.64,7.64 0 0 0 -6,2.6 10.08,10.08 0 0 0 -2.3,6.9 9.08,9.08 0 0 0 2.4,6.6 8.21,8.21 0 0 0 6.3,2.5 c 2.3,0 5.1,-0.9 8.3,-2.8 v 7.5 a 29.61,29.61 0 0 1 -9,1.8 13.66,13.66 0 0 1 -10.5,-4.6 16.33,16.33 0 0 1 -4.5,-11.2 15.87,15.87 0 0 1 4.4,-11.3 14.08,14.08 0 0 1 10.7,-4.6 22.1,22.1 0 0 1 8.9,2.1 z"
       id="path32" />
    <circle
       class="cls-8"
       cx="193.78"
       cy="45.880001"
       r="32"
       id="circle34" />
    <path
       class="cls-9"
       d="m 186,33.28 h 17.3 v 6 h -10.7 v 6.3 h 10.7 v 6 h -10.7 v 12.5 H 186 Z"
       id="path36" />
    <circle
       class="cls-8"
       cx="349.48001"
       cy="45.869999"
       r="32"
       id="circle38" />
    <path
       class="cls-9"
       d="m 340.38,29.27 h 17.3 v 6.1 H 347 v 6.2 h 10.7 v 6 H 347 V 54 h 10.7 v 6.1 h -17.3 z"
       id="path40" />
    <circle
       class="cls-8"
       cx="505.17999"
       cy="231.92999"
       r="32"
       id="circle42" />
    <path
       class="cls-9"
       d="m 494.68,215.33 h 10.5 q 6.75,0 10.8,4.2 a 15.59,15.59 0 0 1 4.1,11.2 c 0,4.6 -1.4,8.4 -4.2,11.2 -2.8,2.8 -6.6,4.2 -11.3,4.2 h -9.9 z m 6.7,5.8 v 19 H 504 a 9.84,9.84 0 0 0 6.7,-2.2 c 1.7,-1.5 2.6,-4 2.6,-7.4 a 10.79,10.79 0 0 0 -1.3,-5.4 6.79,6.79 0 0 0 -3.7,-3.2 12.75,12.75 0 0 0 -4.6,-0.8 z"
       id="path44" />
    <line
       class="cls-10"
       x1="65.169998"
       y1="155.10001"
       x2="152.59"
       y2="210.7"
       id="line46" />
    <polygon
       class="cls-11"
       points="155.48,200.72 144.78,217.55 164.7,218.4 "
       id="polygon48" />
    <line
       class="cls-10"
       x1="65.169998"
       y1="123.37"
       x2="152.59"
       y2="67.779999"
       id="line50" />
    <polygon
       class="cls-11"
       points="144.78,60.93 155.48,77.76 164.7,60.08 "
       id="polygon52" />
    <line
       class="cls-10"
       x1="227.07001"
       y1="234.00999"
       x2="303.13"
       y2="234.00999"
       id="line54" />
    <polygon
       class="cls-11"
       points="300.21,224.04 300.21,243.98 317.48,234.01 "
       id="polygon56" />
    <line
       class="cls-10"
       x1="382.76999"
       y1="234.00999"
       x2="458.82999"
       y2="234.00999"
       id="line58" />
    <polygon
       class="cls-11"
       points="455.92,224.04 455.92,243.98 473.18,234.01 "
       id="polygon60" />
    <line
       class="cls-10"
       x1="373.76999"
       y1="64.919998"
       x2="479.64001"
       y2="193.39"
       id="line62" />
    <polygon
       class="cls-11"
       points="485.48,184.79 470.09,197.48 488.77,204.46 "
       id="polygon64" />
    <line
       class="cls-10"
       x1="193.78"
       y1="77.870003"
       x2="193.78"
       y2="185.58"
       id="line66" />
    <polygon
       class="cls-11"
       points="203.76,182.66 183.81,182.66 193.78,199.93 "
       id="polygon68" />
  </g>
</svg>
