<?xml version="1.0" encoding="UTF-8" standalone="no"?>
<svg
   width="100%"
   height="100%"
   viewBox="0 0 1510 1169"
   version="1.1"
   xml:space="preserve"
   style="fill-rule:evenodd;clip-rule:evenodd;stroke-linecap:round;stroke-linejoin:round;stroke-miterlimit:1.5;"
   id="svg180"
   sodipodi:docname="j05-solution-3.svg"
   inkscape:version="1.1.1 (3bf5ae0d25, 2021-09-20)"
   inkscape:export-xdpi="45"
   inkscape:export-ydpi="45"
   xmlns:inkscape="http://www.inkscape.org/namespaces/inkscape"
   xmlns:sodipodi="http://sodipodi.sourceforge.net/DTD/sodipodi-0.dtd"
   xmlns="http://www.w3.org/2000/svg"
   xmlns:svg="http://www.w3.org/2000/svg"><defs
   id="defs184" /><sodipodi:namedview
   id="namedview182"
   pagecolor="#ffffff"
   bordercolor="#666666"
   borderopacity="1.0"
   inkscape:showpageshadow="2"
   inkscape:pageopacity="0.0"
   inkscape:pagecheckerboard="0"
   inkscape:deskcolor="#d1d1d1"
   showgrid="false"
   inkscape:zoom="0.69204448"
   inkscape:cx="754.28678"
   inkscape:cy="584.5"
   inkscape:window-width="1920"
   inkscape:window-height="1017"
   inkscape:window-x="-8"
   inkscape:window-y="-8"
   inkscape:window-maximized="1"
   inkscape:current-layer="g178"
   inkscape:pageshadow="2" />
    <g
   transform="matrix(1,0,0,1,-343.276,-1326.78)"
   id="g178">
        <g
   transform="matrix(1,0,0,1,179.302,-356.264)"
   id="g4">
            <circle
   cx="1051.58"
   cy="2238.26"
   r="72.468"
   style="fill:rgb(202,54,54);stroke:black;stroke-width:1px;"
   id="circle2" />
        </g>
        
        
        
        
        
        
        
        
        
        
        
        <g
   transform="matrix(0.665838,0,0,0.665838,-306.389,66.0577)"
   id="g52">
            <circle
   cx="1051.58"
   cy="2238.26"
   r="72.468"
   style="fill:none;stroke:black;stroke-width:6.41px;"
   id="circle50" />
        </g>
        <g
   transform="matrix(0.665838,0,0,0.665838,7.8862,203.639)"
   id="g56">
            <circle
   cx="1051.58"
   cy="2238.26"
   r="72.468"
   style="fill:none;stroke:black;stroke-width:6.41px;"
   id="circle54" />
        </g>
        <g
   transform="matrix(0.665838,0,0,0.665838,360.186,285.145)"
   id="g60">
            <circle
   cx="1051.58"
   cy="2238.26"
   r="72.468"
   style="fill:none;stroke:black;stroke-width:6.41px;"
   id="circle58" />
        </g>
        <g
   transform="matrix(0.665838,0,0,0.665838,594.234,160.195)"
   id="g64">
            <circle
   cx="1051.58"
   cy="2238.26"
   r="72.468"
   style="fill:none;stroke:black;stroke-width:6.41px;"
   id="circle62" />
        </g>
        <g
   transform="matrix(0.665838,0,0,0.665838,828.518,284.156)"
   id="g68">
            <circle
   cx="1051.58"
   cy="2238.26"
   r="72.468"
   style="fill:none;stroke:black;stroke-width:6.41px;"
   id="circle66" />
        </g>
        <g
   transform="matrix(0.665838,0,0,0.665838,259.619,481.402)"
   id="g72">
            <circle
   cx="1051.58"
   cy="2238.26"
   r="72.468"
   style="fill:none;stroke:black;stroke-width:6.41px;"
   id="circle70" />
        </g>
        <g
   transform="matrix(0.665838,0,0,0.665838,456.95,670.58)"
   id="g76">
            <circle
   cx="1051.58"
   cy="2238.26"
   r="72.468"
   style="fill:none;stroke:black;stroke-width:6.41px;"
   id="circle74" />
        </g>
        <g
   transform="matrix(0.665838,0,0,0.665838,644.456,581.729)"
   id="g80">
            <circle
   cx="1051.58"
   cy="2238.26"
   r="72.468"
   style="fill:none;stroke:black;stroke-width:6.41px;"
   id="circle78" />
        </g>
        <g
   transform="matrix(0.665838,0,0,0.665838,657.937,961.755)"
   id="g84">
            <circle
   cx="1051.58"
   cy="2238.26"
   r="72.468"
   style="fill:none;stroke:black;stroke-width:6.41px;"
   id="circle82" />
        </g>
        <g
   transform="matrix(1,0,0,1,728.316,-831.646)"
   id="g88">
            <circle
   cx="1051.58"
   cy="2238.26"
   r="72.468"
   style="fill:rgb(202,54,54);stroke:black;stroke-width:1px;"
   id="circle86" />
        </g>
        <g
   transform="matrix(1,0,0,1,-619.426,-564.495)"
   id="g92"
   style="stroke-width:3;stroke-miterlimit:4;stroke-dasharray:none;stroke:#ff0000;stroke-opacity:1">
            <path
   d="M1819.74,2540.22L1788.3,2659.38"
   style="fill:none;stroke:#ff0000;stroke-width:3;stroke-miterlimit:4;stroke-dasharray:none;stroke-opacity:1"
   id="path90" />
        </g>
        <g
   transform="matrix(0.683651,0.117337,0.117337,0.956478,-354.579,-662.73)"
   id="g96"
   style="stroke-width:3.74962163;stroke-miterlimit:4;stroke-dasharray:none;stroke:#ff00ff;stroke-opacity:1">
            <path
   d="M1765.53,2471.41L1564.76,2540.36"
   style="fill:none;stroke:#ff00ff;stroke-width:3.74962163;stroke-miterlimit:4;stroke-dasharray:none;stroke-opacity:1"
   id="path94" />
        </g>
        <g
   transform="matrix(0.916566,-0.293406,0.156176,0.888133,-859.146,248.139)"
   id="g100"
   style="stroke-width:3.23525503;stroke-miterlimit:4;stroke-dasharray:none;stroke:#00ff00;stroke-opacity:1">
            <path
   d="M1794.7,2385.62L1750.77,2343.61"
   style="fill:none;stroke:#00ff00;stroke-width:3.23525503;stroke-miterlimit:4;stroke-dasharray:none;stroke-opacity:1"
   id="path98" />
        </g>
        <g
   transform="matrix(0.536061,0.127733,0.127397,0.964952,-28.7161,-759.665)"
   id="g104"
   style="stroke-width:4.23840299;stroke-miterlimit:4;stroke-dasharray:none">
            <path
   d="M1917.56,2448.97L2224.47,2342.5"
   style="fill:none;stroke:black;stroke-width:4.23840299;stroke-miterlimit:4;stroke-dasharray:none"
   id="path102" />
        </g>
        <g
   transform="matrix(0.474551,-0.343906,-0.347549,0.772402,1264.03,668.403)"
   id="g108"
   style="stroke-width:6.03608345;stroke-miterlimit:4;stroke-dasharray:none">
            <path
   d="M1878.17,2504.93L2065.89,2650.41"
   style="fill:none;stroke:black;stroke-width:6.03608345;stroke-miterlimit:4;stroke-dasharray:none"
   id="path106" />
        </g>
        <g
   transform="matrix(0.653672,0.210278,-0.238758,0.742203,689.867,-353.664)"
   id="g112"
   style="stroke-width:4.1001253;stroke-miterlimit:4;stroke-dasharray:none;stroke:#00ff00;stroke-opacity:1">
            <path
   d="M1641.59,2228.2L1019.1,2460.66L1641.59,2228.2Z"
   style="fill:none;stroke:#00ff00;stroke-width:4.1001253;stroke-miterlimit:4;stroke-dasharray:none;stroke-opacity:1"
   id="path110" />
        </g>
        <g
   transform="matrix(1,0,0,1,-619.426,-564.495)"
   id="g116"
   style="stroke-width:3;stroke-miterlimit:4;stroke-dasharray:none;stroke:#ff00ff;stroke-opacity:1">
            <path
   d="M1268.07,2231.58L1068.67,2146.55"
   style="fill:none;stroke:#ff00ff;stroke-width:3;stroke-miterlimit:4;stroke-dasharray:none;stroke-opacity:1"
   id="path114" />
        </g>
        <g
   transform="matrix(0.775163,-0.159377,0.180193,0.983423,-760.973,-335.724)"
   id="g120"
   style="stroke-width:3.37306181;stroke-miterlimit:4;stroke-dasharray:none;stroke:#ff00ff;stroke-opacity:1">
            <path
   d="M2651.61,2199.62L1089.19,2084.02"
   style="fill:none;stroke:#ff00ff;stroke-width:3.37306181;stroke-miterlimit:4;stroke-dasharray:none;stroke-opacity:1"
   id="path118" />
        </g>
        <g
   transform="matrix(1.04624,-0.00992691,-0.00992691,1.00213,-661.931,-555.37)"
   id="g124"
   style="stroke-width:2.92997539;stroke-miterlimit:4;stroke-dasharray:none;stroke:#00ff00;stroke-opacity:1">
            <path
   d="M2260.85,2003.51L1376.97,2216.66"
   style="fill:none;stroke:#00ff00;stroke-width:2.92997539;stroke-miterlimit:4;stroke-dasharray:none;stroke-opacity:1"
   id="path122" />
        </g>
        <g
   transform="matrix(1,0,0,1,-619.426,-564.495)"
   id="g128"
   style="stroke-width:3;stroke-miterlimit:4;stroke-dasharray:none;stroke:#0000ff;stroke-opacity:1">
            <path
   d="M2367.58,2062.29L2008.79,2960.01L2367.58,2062.29Z"
   style="fill:none;stroke:#0000ff;stroke-width:3;stroke-miterlimit:4;stroke-dasharray:none;stroke-opacity:1"
   id="path126" />
        </g>
        <g
   transform="matrix(1,0,0,1,-619.426,-564.495)"
   id="g132"
   style="stroke-width:3;stroke-miterlimit:4;stroke-dasharray:none">
            <path
   d="M1044.02,2184.95L1923.83,2971.07"
   style="fill:none;stroke:black;stroke-width:3;stroke-miterlimit:4;stroke-dasharray:none"
   id="path130" />
        </g>
        <g
   transform="matrix(1,0,0,1,-619.426,-564.495)"
   id="g136"
   style="stroke-width:3;stroke-miterlimit:4;stroke-dasharray:none;stroke:#00ff00;stroke-opacity:1">
            <path
   d="M1859.38,2253.98L1735.6,2312.7L1859.38,2253.98Z"
   style="fill:none;stroke:#00ff00;stroke-width:3;stroke-miterlimit:4;stroke-dasharray:none;stroke-opacity:1"
   id="path134" />
        </g>
        <g
   transform="matrix(1,0,0,1,-619.426,-564.495)"
   id="g140"
   style="stroke-width:3;stroke-miterlimit:4;stroke-dasharray:none">
            <path
   d="M1635.16,2391L1598.39,2482.05L1635.16,2391Z"
   style="fill:none;stroke:black;stroke-width:3;stroke-miterlimit:4;stroke-dasharray:none"
   id="path138" />
        </g>
        <g
   transform="matrix(1,0,0,1,-619.426,-564.495)"
   id="g144"
   style="stroke-width:3;stroke-miterlimit:4;stroke-dasharray:none">
            <path
   d="M1627.38,2579.91L1729.95,2686.35L1627.38,2579.91Z"
   style="fill:none;stroke:black;stroke-width:3;stroke-miterlimit:4;stroke-dasharray:none"
   id="path142" />
        </g>
        <g
   transform="matrix(1,0,0,1,-619.426,-564.495)"
   id="g148"
   style="stroke-width:3;stroke-miterlimit:4;stroke-dasharray:none;stroke:#ff0000;stroke-opacity:1">
            <path
   d="M1830.57,2703.18L1906.53,2664.51L1830.57,2703.18Z"
   style="fill:none;stroke:#ff0000;stroke-width:3;stroke-miterlimit:4;stroke-dasharray:none;stroke-opacity:1"
   id="path146" />
        </g>
        <g
   transform="matrix(1,0,0,1,-619.426,-564.495)"
   id="g152"
   style="stroke-width:3;stroke-miterlimit:4;stroke-dasharray:none;stroke:#ff0000;stroke-opacity:1">
            <path
   d="M1999.85,2576.54L2119.25,2397.3L1999.85,2576.54Z"
   style="fill:none;stroke:#ff0000;stroke-width:3;stroke-miterlimit:4;stroke-dasharray:none;stroke-opacity:1"
   id="path150" />
        </g>
        <g
   transform="matrix(1,0,0,1,-619.426,-564.495)"
   id="g156"
   style="stroke-width:3;stroke-miterlimit:4;stroke-dasharray:none;stroke:#0000ff;stroke-opacity:1">
            <path
   d="M2103.88,2301.06L1962.12,2237.95L2103.88,2301.06Z"
   style="fill:none;stroke:#0000ff;stroke-width:3;stroke-miterlimit:4;stroke-dasharray:none;stroke-opacity:1"
   id="path154" />
        </g>
        <g
   transform="matrix(1,0,0,1,-619.426,-564.495)"
   id="g160"
   style="stroke-width:3;stroke-miterlimit:4;stroke-dasharray:none;stroke:#ff0000;stroke-opacity:1">
            <path
   d="M2184.04,2287.17L2336.22,2042.18L2184.04,2287.17Z"
   style="fill:none;stroke:#ff0000;stroke-width:3;stroke-miterlimit:4;stroke-dasharray:none;stroke-opacity:1"
   id="path158" />
        </g>
        <g
   transform="matrix(1,0,0,1,-619.426,-564.495)"
   id="g164"
   style="stroke-width:3;stroke-miterlimit:4;stroke-dasharray:none;stroke:#0000ff;stroke-opacity:1">
            <path
   d="M2146.01,2407.97L1976.92,2945.96L2146.01,2407.97Z"
   style="fill:none;stroke:#0000ff;stroke-width:3;stroke-miterlimit:4;stroke-dasharray:none;stroke-opacity:1"
   id="path162" />
        </g>
        <g
   transform="matrix(1,0,0,1,-619.426,-564.495)"
   id="g168"
   style="stroke-width:3;stroke-miterlimit:4;stroke-dasharray:none;stroke:#ff00ff;stroke-opacity:1">
            <path
   d="M1529.95,2501.95L1366.88,2307.75"
   style="fill:none;stroke:#ff00ff;stroke-width:3;stroke-miterlimit:4;stroke-dasharray:none;stroke-opacity:1"
   id="path166" />
        </g>
        
        <g
   transform="matrix(1,0,0,1,-615.701,-570.765)"
   id="g176"
   style="stroke-width:3;stroke-miterlimit:4;stroke-dasharray:none;stroke:#0000ff;stroke-opacity:1">
            <path
   d="M1870.89,2371.17L1894.47,2279.24"
   style="fill:none;stroke:#0000ff;stroke-width:3;stroke-miterlimit:4;stroke-dasharray:none;stroke-opacity:1"
   id="path174" />
        </g>
    <text
   xml:space="preserve"
   style="font-style:normal;font-variant:normal;font-weight:normal;font-stretch:normal;font-size:96px;line-height:1.25;font-family:Arial;-inkscape-font-specification:'Arial, Normal';font-variant-ligatures:normal;font-variant-caps:normal;font-variant-numeric:normal;font-variant-east-asian:normal"
   x="1201.3976"
   y="1916.3553"
   id="text2944"><tspan
     sodipodi:role="line"
     id="tspan2942"
     x="1201.3976"
     y="1916.3553">T</tspan></text><text
   xml:space="preserve"
   style="font-style:normal;font-variant:normal;font-weight:normal;font-stretch:normal;font-size:96px;line-height:1.25;font-family:Arial;-inkscape-font-specification:'Arial, Normal';font-variant-ligatures:normal;font-variant-caps:normal;font-variant-numeric:normal;font-variant-east-asian:normal"
   x="1744.4585"
   y="1440.9734"
   id="text4796"><tspan
     sodipodi:role="line"
     id="tspan4794"
     x="1744.4585"
     y="1440.9734">K</tspan></text></g>
</svg>
