<?xml version="1.0" encoding="UTF-8" standalone="no"?>
<svg
   id="Layer_1"
   data-name="Layer 1"
   viewBox="0 0 722.6 631.7"
   version="1.1"
   sodipodi:docname="j08-question.svg"
   inkscape:version="1.1.1 (3bf5ae0d25, 2021-09-20)"
   xmlns:inkscape="http://www.inkscape.org/namespaces/inkscape"
   xmlns:sodipodi="http://sodipodi.sourceforge.net/DTD/sodipodi-0.dtd"
   xmlns="http://www.w3.org/2000/svg"
   xmlns:svg="http://www.w3.org/2000/svg">
  <sodipodi:namedview
     id="namedview99"
     pagecolor="#ffffff"
     bordercolor="#666666"
     borderopacity="1.0"
     inkscape:pageshadow="2"
     inkscape:pageopacity="0.0"
     inkscape:pagecheckerboard="0"
     showgrid="false"
     inkscape:zoom="1.3170809"
     inkscape:cx="361.4053"
     inkscape:cy="315.47038"
     inkscape:window-width="1920"
     inkscape:window-height="1017"
     inkscape:window-x="-8"
     inkscape:window-y="-8"
     inkscape:window-maximized="1"
     inkscape:current-layer="Layer_1" />
  <defs
     id="defs4">
    <style
       id="style2">.cls-1{fill:#757579;}.cls-2{fill:none;stroke:#757579;}.cls-2,.cls-5{stroke-miterlimit:10;}.cls-3{fill:#1e22aa;}.cls-4{fill:#2dccd3;}.cls-5{fill:#e87722;stroke:#061e32;stroke-width:2px;}</style>
  </defs>
  <path
     class="cls-1"
     d="M629.6,338a23,23,0,0,1,6.4,15.7v1.1c0,.2,0,.3.1.4h0v.4c.1,0,.1,0,.1.1l.3.3h.1l.4.2h.9l19-4.2h.6a.1.1,0,0,1,.1-.1h.1c.1-.1.1-.1.1-.2h.1c.1,0,.1-.1.1-.2h.1V351h.1a22,22,0,0,1,6.1-12.9,23.9,23.9,0,0,0,6.8-16.7,24.2,24.2,0,0,0-48.3-.3A23.8,23.8,0,0,0,629.6,338Zm16.3-37.5a20.7,20.7,0,0,1,15.5,5.7,20.9,20.9,0,0,1,6.6,15.2,20.5,20.5,0,0,1-5.9,14.4,26.8,26.8,0,0,0-6.9,13.6l-16,3.5a25.5,25.5,0,0,0-7.3-17.1,20.9,20.9,0,0,1,14-35.3Z"
     id="path6" />
  <path
     class="cls-1"
     d="M656.2,355.4l-19,4.1a1.6,1.6,0,0,0-1.2,1.9,1.5,1.5,0,0,0,1.6,1.3h.3l19-4.1a1.6,1.6,0,0,0,1.2-2A1.5,1.5,0,0,0,656.2,355.4Z"
     id="path8" />
  <path
     class="cls-1"
     d="M658.2,362.8a1.6,1.6,0,0,0-1.9-1.2l-19,4.1a1.6,1.6,0,0,0-1.2,1.9,1.5,1.5,0,0,0,1.6,1.3h.3l19-4.1A1.6,1.6,0,0,0,658.2,362.8Z"
     id="path10" />
  <path
     class="cls-1"
     d="M654.4,368.7a1.5,1.5,0,0,0-1.4-1.8,1.6,1.6,0,0,0-1.8,1.4,4.1,4.1,0,0,1-4.2,3.6,4,4,0,0,1-2.9-1.2,1.9,1.9,0,0,1-.6-.7,1.6,1.6,0,1,0-2.8,1.7,6.3,6.3,0,0,0,1.1,1.3,7.4,7.4,0,0,0,12.6-4.3Z"
     id="path12" />
  <path
     class="cls-1"
     d="M642.4,342.1v7a1.8,1.8,0,0,0,1.7,1.7,1.7,1.7,0,0,0,1.6-1.7v-5.5h2.7v4.2a1.7,1.7,0,0,0,1.6,1.7,1.8,1.8,0,0,0,1.7-1.7v-5.7l2.9-14a2.2,2.2,0,0,0-.9-2.4,2.4,2.4,0,0,0-2.6,0l-2.8,1.9a2.8,2.8,0,0,1-2.5,0l-2.8-1.9a2.4,2.4,0,0,0-2.6,0,2.3,2.3,0,0,0-.9,2.4Zm1.7-11.8a5.3,5.3,0,0,0,5.9,0l1-.7-2.3,10.7h-3.3l-2.3-10.7Z"
     id="path14" />
  <path
     class="cls-1"
     d="M647.1,307a13.7,13.7,0,0,1,4.9.9h.6a1.7,1.7,0,0,0,1.5-1.1,1.6,1.6,0,0,0-.9-2.1,18.3,18.3,0,0,0-6.1-1.1,1.7,1.7,0,0,0-1.7,1.6A1.8,1.8,0,0,0,647.1,307Z"
     id="path16" />
  <path
     class="cls-1"
     d="M661.2,318.5a1.6,1.6,0,0,0,1.5,1.3h.4a1.5,1.5,0,0,0,1.2-1.9,17.2,17.2,0,0,0-5.6-9.7,1.6,1.6,0,0,0-2.3.2,1.7,1.7,0,0,0,.1,2.3A14.3,14.3,0,0,1,661.2,318.5Z"
     id="path18" />
  <polyline
     class="cls-2"
     points="72.1 75.7 214.5 75.7 214.5 154.1 72.1 154.1"
     id="polyline20" />
  <polyline
     class="cls-2"
     points="72.1 224.2 214.5 224.2 214.5 302.6 72.1 302.6"
     id="polyline22" />
  <polyline
     class="cls-2"
     points="214.5 114.7 356.8 114.7 356.8 263.4 214.5 263.4"
     id="polyline24" />
  <polyline
     class="cls-2"
     points="356.8 183.5 497.1 183.5 497.1 486.1 356.8 486.1"
     id="polyline26" />
  <line
     class="cls-2"
     x1="497.1"
     y1="334.8"
     x2="612.4"
     y2="334.8"
     id="line28" />
  <polyline
     class="cls-2"
     points="214.5 411.9 356.8 411.9 356.8 560.3 214.5 560.3"
     id="polyline30" />
  <polyline
     class="cls-2"
     points="72.1 372.7 214.5 372.7 214.5 451.1 72.1 451.1"
     id="polyline32" />
  <polyline
     class="cls-2"
     points="72.1 521.1 214.5 521.1 214.5 599.5 72.1 599.5"
     id="polyline34" />
  <rect
     class="cls-3"
     x="195.7"
     y="244.1"
     width="37.6"
     height="37.57"
     id="rect36" />
  <rect
     class="cls-3"
     x="338"
     y="467.3"
     width="37.6"
     height="37.57"
     id="rect38" />
  <rect
     class="cls-3"
     x="195.7"
     y="541.6"
     width="37.6"
     height="37.57"
     id="rect40" />
  <polygon
     class="cls-4"
     points="236.3 134.3 192.6 134.3 214.5 96.8 236.3 134.3"
     id="polygon42" />
  <polygon
     class="cls-4"
     points="236.3 431.3 192.6 431.3 214.5 393.8 236.3 431.3"
     id="polygon44" />
  <polygon
     class="cls-4"
     points="519 354.7 475.2 354.7 497.1 317.2 519 354.7"
     id="polygon46" />
  <polygon
     class="cls-4"
     points="378.7 202.3 334.9 202.3 356.8 164.7 378.7 202.3"
     id="polygon48" />
  <g
     id="g949">
    <ellipse
       class="cls-5"
       cx="53"
       cy="520.1"
       rx="24.3"
       ry="7.7"
       id="ellipse50" />
    <path
       class="cls-5"
       d="M71.9,497v19.9c0,3.3-8.5,5.9-18.9,5.9s-18.9-2.6-18.9-5.9V497"
       id="path52" />
    <ellipse
       class="cls-5"
       cx="53"
       cy="497"
       rx="18.9"
       ry="6"
       id="ellipse54" />
  </g>
  <g
     id="g954">
    <ellipse
       class="cls-5"
       cx="53"
       cy="598.7"
       rx="24.3"
       ry="7.7"
       id="ellipse56" />
    <path
       class="cls-5"
       d="M71.9,575.6v19.9c0,3.3-8.5,6-18.9,6s-18.9-2.7-18.9-6V575.6"
       id="path58" />
    <ellipse
       class="cls-5"
       cx="53"
       cy="575.6"
       rx="18.9"
       ry="6"
       id="ellipse60" />
  </g>
  <g
     id="g939">
    <ellipse
       class="cls-5"
       cx="53"
       cy="372"
       rx="24.3"
       ry="7.7"
       id="ellipse62" />
    <path
       class="cls-5"
       d="M71.9,348.9v19.9c0,3.3-8.5,6-18.9,6s-18.9-2.7-18.9-6V348.9"
       id="path64" />
    <ellipse
       class="cls-5"
       cx="53"
       cy="348.9"
       rx="18.9"
       ry="6"
       id="ellipse66" />
  </g>
  <g
     id="g944">
    <ellipse
       class="cls-5"
       cx="53"
       cy="450.7"
       rx="24.3"
       ry="7.7"
       id="ellipse68" />
    <path
       class="cls-5"
       d="M71.9,427.6v19.9c0,3.3-8.5,6-18.9,6s-18.9-2.7-18.9-6V427.6"
       id="path70" />
    <ellipse
       class="cls-5"
       cx="53"
       cy="427.6"
       rx="18.9"
       ry="6"
       id="ellipse72" />
  </g>
  <g
     id="g919">
    <ellipse
       class="cls-5"
       cx="53"
       cy="74"
       rx="24.3"
       ry="7.7"
       id="ellipse74" />
    <path
       class="cls-5"
       d="M71.9,50.9V70.8c0,3.3-8.5,5.9-18.9,5.9s-18.9-2.6-18.9-5.9V50.9"
       id="path76" />
    <ellipse
       class="cls-5"
       cx="53"
       cy="50.9"
       rx="18.9"
       ry="6"
       id="ellipse78" />
  </g>
  <g
     id="g924">
    <ellipse
       class="cls-5"
       cx="53"
       cy="152.6"
       rx="24.3"
       ry="7.7"
       id="ellipse80" />
    <path
       class="cls-5"
       d="M71.9,129.5v19.9c0,3.3-8.5,6-18.9,6s-18.9-2.7-18.9-6V129.5"
       id="path82" />
    <ellipse
       class="cls-5"
       cx="53"
       cy="129.5"
       rx="18.9"
       ry="6"
       id="ellipse84" />
  </g>
  <g
     id="g929">
    <ellipse
       class="cls-5"
       cx="53"
       cy="222.8"
       rx="24.3"
       ry="7.7"
       id="ellipse86" />
    <path
       class="cls-5"
       d="M71.9,199.7v19.9c0,3.3-8.5,5.9-18.9,5.9s-18.9-2.6-18.9-5.9V199.7"
       id="path88" />
    <ellipse
       class="cls-5"
       cx="53"
       cy="199.7"
       rx="18.9"
       ry="6"
       id="ellipse90" />
  </g>
  <g
     id="g934">
    <ellipse
       class="cls-5"
       cx="53"
       cy="301.4"
       rx="24.3"
       ry="7.7"
       id="ellipse92" />
    <path
       class="cls-5"
       d="M71.9,278.3v19.9c0,3.3-8.5,6-18.9,6s-18.9-2.7-18.9-6V278.3"
       id="path94" />
    <ellipse
       class="cls-5"
       cx="53"
       cy="278.3"
       rx="18.9"
       ry="6"
       id="ellipse96" />
  </g>
  <text
     xml:space="preserve"
     style="font-style:normal;font-variant:normal;font-weight:bold;font-stretch:normal;font-size:26.6667px;line-height:1.25;font-family:sans-serif;-inkscape-font-specification:'sans-serif, Bold';font-variant-ligatures:normal;font-variant-caps:normal;font-variant-numeric:normal;font-variant-east-asian:normal"
     x="-9.1110592"
     y="73.020065"
     id="text2300"><tspan
       sodipodi:role="line"
       id="tspan5438"
       x="-9.1110592"
       y="73.020065">1</tspan></text>
  <text
     xml:space="preserve"
     style="font-style:normal;font-variant:normal;font-weight:bold;font-stretch:normal;font-size:26.6667px;line-height:1.25;font-family:sans-serif;-inkscape-font-specification:'sans-serif, Bold';font-variant-ligatures:normal;font-variant-caps:normal;font-variant-numeric:normal;font-variant-east-asian:normal"
     x="-8.4209538"
     y="151.79585"
     id="text5354"><tspan
       sodipodi:role="line"
       id="tspan5458"
       x="-8.4209538"
       y="151.79585">2</tspan></text>
  <text
     xml:space="preserve"
     style="font-style:normal;font-variant:normal;font-weight:bold;font-stretch:normal;font-size:26.6667px;line-height:1.25;font-family:sans-serif;-inkscape-font-specification:'sans-serif, Bold';font-variant-ligatures:normal;font-variant-caps:normal;font-variant-numeric:normal;font-variant-east-asian:normal"
     x="-8.3558502"
     y="221.80704"
     id="text5358"><tspan
       sodipodi:role="line"
       id="tspan5478"
       x="-8.3558502"
       y="221.80704">3</tspan></text>
  <text
     xml:space="preserve"
     style="font-style:normal;font-variant:normal;font-weight:bold;font-stretch:normal;font-size:26.6667px;line-height:1.25;font-family:sans-serif;-inkscape-font-specification:'sans-serif, Bold';font-variant-ligatures:normal;font-variant-caps:normal;font-variant-numeric:normal;font-variant-east-asian:normal"
     x="-8.5121002"
     y="300.42004"
     id="text5362"><tspan
       sodipodi:role="line"
       id="tspan5498"
       x="-8.5121002"
       y="300.42004">4</tspan></text>
  <text
     xml:space="preserve"
     style="font-style:normal;font-variant:normal;font-weight:bold;font-stretch:normal;font-size:26.6667px;line-height:1.25;font-family:sans-serif;-inkscape-font-specification:'sans-serif, Bold';font-variant-ligatures:normal;font-variant-caps:normal;font-variant-numeric:normal;font-variant-east-asian:normal"
     x="-8.622777"
     y="370.83127"
     id="text5366"><tspan
       sodipodi:role="line"
       id="tspan5518"
       x="-8.622777"
       y="370.83127">5</tspan></text>
  <text
     xml:space="preserve"
     style="font-style:normal;font-variant:normal;font-weight:bold;font-stretch:normal;font-size:26.6667px;line-height:1.25;font-family:sans-serif;-inkscape-font-specification:'sans-serif, Bold';font-variant-ligatures:normal;font-variant-caps:normal;font-variant-numeric:normal;font-variant-east-asian:normal"
     x="-8.6357985"
     y="449.69403"
     id="text5370"><tspan
       sodipodi:role="line"
       id="tspan5538"
       x="-8.6357985"
       y="449.69403">6</tspan></text>
  <text
     xml:space="preserve"
     style="font-style:normal;font-variant:normal;font-weight:bold;font-stretch:normal;font-size:26.6667px;line-height:1.25;font-family:sans-serif;-inkscape-font-specification:'sans-serif, Bold';font-variant-ligatures:normal;font-variant-caps:normal;font-variant-numeric:normal;font-variant-east-asian:normal"
     x="-8.3558502"
     y="519.12006"
     id="text5374"><tspan
       sodipodi:role="line"
       id="tspan5558"
       x="-8.3558502"
       y="519.12006">7</tspan></text>
  <text
     xml:space="preserve"
     style="font-style:normal;font-variant:normal;font-weight:bold;font-stretch:normal;font-size:26.6667px;line-height:1.25;font-family:sans-serif;-inkscape-font-specification:'sans-serif, Bold';font-variant-ligatures:normal;font-variant-caps:normal;font-variant-numeric:normal;font-variant-east-asian:normal"
     x="-8.5121002"
     y="597.70703"
     id="text5378"><tspan
       sodipodi:role="line"
       id="tspan5578"
       x="-8.5121002"
       y="597.70703">8</tspan></text>
</svg>
