<?xml version="1.0" encoding="UTF-8" standalone="no"?>
<svg
   width="57.223209mm"
   height="47.087791mm"
   viewBox="0 0 57.223209 47.087791"
   version="1.1"
   id="svg8"
   inkscape:version="1.1.1 (3bf5ae0d25, 2021-09-20)"
   sodipodi:docname="j10-solution2.svg"
   inkscape:export-xdpi="60"
   inkscape:export-ydpi="60"
   xmlns:inkscape="http://www.inkscape.org/namespaces/inkscape"
   xmlns:sodipodi="http://sodipodi.sourceforge.net/DTD/sodipodi-0.dtd"
   xmlns="http://www.w3.org/2000/svg"
   xmlns:svg="http://www.w3.org/2000/svg"
   xmlns:rdf="http://www.w3.org/1999/02/22-rdf-syntax-ns#"
   xmlns:cc="http://creativecommons.org/ns#"
   xmlns:dc="http://purl.org/dc/elements/1.1/">
  <defs
     id="defs2" />
  <sodipodi:namedview
     id="base"
     pagecolor="#ffffff"
     bordercolor="#666666"
     borderopacity="1.0"
     inkscape:pageopacity="0.0"
     inkscape:pageshadow="2"
     inkscape:zoom="1.4"
     inkscape:cx="118.57143"
     inkscape:cy="26.785714"
     inkscape:document-units="mm"
     inkscape:current-layer="layer1"
     inkscape:document-rotation="0"
     showgrid="false"
     inkscape:window-width="1920"
     inkscape:window-height="1017"
     inkscape:window-x="-8"
     inkscape:window-y="-8"
     inkscape:window-maximized="1"
     fit-margin-top="0"
     fit-margin-left="0"
     fit-margin-right="0"
     fit-margin-bottom="0"
     inkscape:pagecheckerboard="0"
     width="45.223213mm"
     height="35.087791mm" />
  <metadata
     id="metadata5">
    <rdf:RDF>
      <cc:Work
         rdf:about="">
        <dc:format>image/svg+xml</dc:format>
        <dc:type
           rdf:resource="http://purl.org/dc/dcmitype/StillImage" />
      </cc:Work>
    </rdf:RDF>
  </metadata>
  <g
     inkscape:label="Ebene 1"
     inkscape:groupmode="layer"
     id="layer1"
     transform="translate(-57.452382,-67.090775)">
    <circle
       style="fill:#ff0000;fill-opacity:1;stroke-width:0.26458333;stroke-linejoin:round;stroke-miterlimit:1.5;stroke:#7f0000;stroke-opacity:1;stroke-dasharray:none"
       id="path833"
       cx="71.248512"
       cy="89.391365"
       r="9.4494047" />
    <rect
       style="fill:#ff0000;fill-opacity:1;stroke:#7f0000;stroke-width:0.26458333;stroke-linejoin:round;stroke-miterlimit:1.5;stroke-opacity:1;stroke-dasharray:none"
       id="rect835-4"
       width="18.899"
       height="18.898809"
       x="122.18075"
       y="-14.39389"
       transform="rotate(45)" />
  </g>
</svg>
