<svg width="420.0" height="420.0">
  <defs>
    <marker id="arrow" markerWidth="10" markerHeight="10" refX="9" refY="3" orient="auto" markerUnits="strokeWidth">
      <path d="M0,0 L0,6 L9,3 z" fill="#f00" />
    </marker>
  </defs>

  <line x1="10.0" y1="10.0" x2="10.0" y2="410.0" stroke="#444" stroke-width="1" />
  <line x1="60.0" y1="10.0" x2="60.0" y2="410.0" stroke="#444" stroke-width="1" />
  <line x1="110.0" y1="10.0" x2="110.0" y2="410.0" stroke="#444" stroke-width="1" />
  <line x1="160.0" y1="10.0" x2="160.0" y2="410.0" stroke="#444" stroke-width="1" />
  <line x1="210.0" y1="10.0" x2="210.0" y2="410.0" stroke="#444" stroke-width="1" />
  <line x1="260.0" y1="10.0" x2="260.0" y2="410.0" stroke="#444" stroke-width="1" />
  <line x1="310.0" y1="10.0" x2="310.0" y2="410.0" stroke="#444" stroke-width="1" />
  <line x1="360.0" y1="10.0" x2="360.0" y2="410.0" stroke="#444" stroke-width="1" />
  <line x1="410.0" y1="10.0" x2="410.0" y2="410.0" stroke="#444" stroke-width="1" />
  <line x1="10.0" y1="10.0" x2="410.0" y2="10.0" stroke="#444" stroke-width="1" />
  <line x1="10.0" y1="60.0" x2="410.0" y2="60.0" stroke="#444" stroke-width="1" />
  <line x1="10.0" y1="110.0" x2="410.0" y2="110.0" stroke="#444" stroke-width="1" />
  <line x1="10.0" y1="160.0" x2="410.0" y2="160.0" stroke="#444" stroke-width="1" />
  <line x1="10.0" y1="210.0" x2="410.0" y2="210.0" stroke="#444" stroke-width="1" />
  <line x1="10.0" y1="260.0" x2="410.0" y2="260.0" stroke="#444" stroke-width="1" />
  <line x1="10.0" y1="310.0" x2="410.0" y2="310.0" stroke="#444" stroke-width="1" />
  <line x1="10.0" y1="360.0" x2="410.0" y2="360.0" stroke="#444" stroke-width="1" />
  <line x1="10.0" y1="410.0" x2="410.0" y2="410.0" stroke="#444" stroke-width="1" />

  <rect x="310.0" y="110.0" width="50" height="50" stroke="#444" stroke-width="1" fill="#000" />
  <rect x="360.0" y="160.0" width="50" height="50" stroke="#444" stroke-width="1" fill="#000" />
  <rect x="360.0" y="210.0" width="50" height="50" stroke="#444" stroke-width="1" fill="#000" />
  <rect x="310.0" y="260.0" width="50" height="50" stroke="#444" stroke-width="1" fill="#000" />
  <rect x="260.0" y="310.0" width="50" height="50" stroke="#444" stroke-width="1" fill="#000" />
  <rect x="210.0" y="360.0" width="50" height="50" stroke="#444" stroke-width="1" fill="#000" />
  <rect x="160.0" y="360.0" width="50" height="50" stroke="#444" stroke-width="1" fill="#000" />
  <rect x="110.0" y="310.0" width="50" height="50" stroke="#444" stroke-width="1" fill="#000" />
  <rect x="60.0" y="260.0" width="50" height="50" stroke="#444" stroke-width="1" fill="#000" />
  <rect x="10.0" y="210.0" width="50" height="50" stroke="#444" stroke-width="1" fill="#000" />
  <rect x="10.0" y="160.0" width="50" height="50" stroke="#444" stroke-width="1" fill="#000" />
  <rect x="60.0" y="110.0" width="50" height="50" stroke="#444" stroke-width="1" fill="#000" />
  <rect x="110.0" y="60.0" width="50" height="50" stroke="#444" stroke-width="1" fill="#000" />
  <rect x="160.0" y="10.0" width="50" height="50" stroke="#444" stroke-width="1" fill="#000" />
  <rect x="210.0" y="10.0" width="50" height="50" stroke="#444" stroke-width="1" fill="#000" />
  <rect x="260.0" y="60.0" width="50" height="50" stroke="#444" stroke-width="1" fill="#000" />
</svg>
