<svg width="420.0" height="420.0">
  <defs>
    <marker id="arrow" markerWidth="10" markerHeight="10" refX="9" refY="3" orient="auto" markerUnits="strokeWidth">
      <path d="M0,0 L0,6 L9,3 z" fill="#f00" />
    </marker>
  </defs>

  <line x1="10.0" y1="10.0" x2="10.0" y2="410.0" stroke="#444" stroke-width="1" />
  <line x1="60.0" y1="10.0" x2="60.0" y2="410.0" stroke="#444" stroke-width="1" />
  <line x1="110.0" y1="10.0" x2="110.0" y2="410.0" stroke="#444" stroke-width="1" />
  <line x1="160.0" y1="10.0" x2="160.0" y2="410.0" stroke="#444" stroke-width="1" />
  <line x1="210.0" y1="10.0" x2="210.0" y2="410.0" stroke="#444" stroke-width="1" />
  <line x1="260.0" y1="10.0" x2="260.0" y2="410.0" stroke="#444" stroke-width="1" />
  <line x1="310.0" y1="10.0" x2="310.0" y2="410.0" stroke="#444" stroke-width="1" />
  <line x1="360.0" y1="10.0" x2="360.0" y2="410.0" stroke="#444" stroke-width="1" />
  <line x1="410.0" y1="10.0" x2="410.0" y2="410.0" stroke="#444" stroke-width="1" />
  <line x1="10.0" y1="10.0" x2="410.0" y2="10.0" stroke="#444" stroke-width="1" />
  <line x1="10.0" y1="60.0" x2="410.0" y2="60.0" stroke="#444" stroke-width="1" />
  <line x1="10.0" y1="110.0" x2="410.0" y2="110.0" stroke="#444" stroke-width="1" />
  <line x1="10.0" y1="160.0" x2="410.0" y2="160.0" stroke="#444" stroke-width="1" />
  <line x1="10.0" y1="210.0" x2="410.0" y2="210.0" stroke="#444" stroke-width="1" />
  <line x1="10.0" y1="260.0" x2="410.0" y2="260.0" stroke="#444" stroke-width="1" />
  <line x1="10.0" y1="310.0" x2="410.0" y2="310.0" stroke="#444" stroke-width="1" />
  <line x1="10.0" y1="360.0" x2="410.0" y2="360.0" stroke="#444" stroke-width="1" />
  <line x1="10.0" y1="410.0" x2="410.0" y2="410.0" stroke="#444" stroke-width="1" />

  <rect x="310.0" y="60.0" width="50" height="50" stroke="#444" stroke-width="1" fill="#000" />
  <rect x="360.0" y="110.0" width="50" height="50" stroke="#444" stroke-width="1" fill="#000" />
  <rect x="360.0" y="160.0" width="50" height="50" stroke="#444" stroke-width="1" fill="#000" />
  <rect x="310.0" y="210.0" width="50" height="50" stroke="#444" stroke-width="1" fill="#000" />
  <rect x="260.0" y="260.0" width="50" height="50" stroke="#444" stroke-width="1" fill="#000" />
  <rect x="210.0" y="310.0" width="50" height="50" stroke="#444" stroke-width="1" fill="#000" />
  <rect x="160.0" y="360.0" width="50" height="50" stroke="#444" stroke-width="1" fill="#000" />
  <rect x="110.0" y="360.0" width="50" height="50" stroke="#444" stroke-width="1" fill="#000" />
  <rect x="60.0" y="310.0" width="50" height="50" stroke="#444" stroke-width="1" fill="#000" />
  <rect x="10.0" y="260.0" width="50" height="50" stroke="#444" stroke-width="1" fill="#000" />
  <rect x="10.0" y="210.0" width="50" height="50" stroke="#444" stroke-width="1" fill="#000" />
  <rect x="60.0" y="160.0" width="50" height="50" stroke="#444" stroke-width="1" fill="#000" />
  <rect x="110.0" y="110.0" width="50" height="50" stroke="#444" stroke-width="1" fill="#000" />
  <rect x="160.0" y="60.0" width="50" height="50" stroke="#444" stroke-width="1" fill="#000" />
  <rect x="210.0" y="10.0" width="50" height="50" stroke="#444" stroke-width="1" fill="#000" />
  <rect x="260.0" y="10.0" width="50" height="50" stroke="#444" stroke-width="1" fill="#000" />

  <rect x="310.0" y="60.0" width="50" height="50" stroke="#00f" stroke-width="3" fill="#000" />

  <line x1="335.0" y1="85.0" x2="385.0" y2="135.0" stroke="#f00" stroke-width="2" marker-end="url(#arrow)" />
  <text x="372.5" y="97.5" fill="#f00" font-size="20" text-anchor="middle" dominant-baseline="middle">7</text>
  <line x1="385.0" y1="135.0" x2="385.0" y2="185.0" stroke="#f00" stroke-width="2" marker-end="url(#arrow)" />
  <text x="397.5" y="160.0" fill="#f00" font-size="20" text-anchor="middle" dominant-baseline="middle">6</text>
  <line x1="385.0" y1="185.0" x2="335.0" y2="235.0" stroke="#f00" stroke-width="2" marker-end="url(#arrow)" />
  <text x="372.5" y="222.5" fill="#f00" font-size="20" text-anchor="middle" dominant-baseline="middle">5</text>
  <line x1="335.0" y1="235.0" x2="285.0" y2="285.0" stroke="#f00" stroke-width="2" marker-end="url(#arrow)" />
  <text x="322.5" y="272.5" fill="#f00" font-size="20" text-anchor="middle" dominant-baseline="middle">5</text>
  <line x1="285.0" y1="285.0" x2="235.0" y2="335.0" stroke="#f00" stroke-width="2" marker-end="url(#arrow)" />
  <text x="272.5" y="322.5" fill="#f00" font-size="20" text-anchor="middle" dominant-baseline="middle">5</text>
  <line x1="235.0" y1="335.0" x2="185.0" y2="385.0" stroke="#f00" stroke-width="2" marker-end="url(#arrow)" />
  <text x="222.5" y="372.5" fill="#f00" font-size="20" text-anchor="middle" dominant-baseline="middle">5</text>
  <line x1="185.0" y1="385.0" x2="135.0" y2="385.0" stroke="#f00" stroke-width="2" marker-end="url(#arrow)" />
  <text x="160.0" y="397.5" fill="#f00" font-size="20" text-anchor="middle" dominant-baseline="middle">4</text>
  <line x1="135.0" y1="385.0" x2="85.0" y2="335.0" stroke="#f00" stroke-width="2" marker-end="url(#arrow)" />
  <text x="97.5" y="372.5" fill="#f00" font-size="20" text-anchor="middle" dominant-baseline="middle">3</text>
  <line x1="85.0" y1="335.0" x2="35.0" y2="285.0" stroke="#f00" stroke-width="2" marker-end="url(#arrow)" />
  <text x="47.5" y="322.5" fill="#f00" font-size="20" text-anchor="middle" dominant-baseline="middle">3</text>
  <line x1="35.0" y1="285.0" x2="35.0" y2="235.0" stroke="#f00" stroke-width="2" marker-end="url(#arrow)" />
  <text x="22.5" y="260.0" fill="#f00" font-size="20" text-anchor="middle" dominant-baseline="middle">2</text>
  <line x1="35.0" y1="235.0" x2="85.0" y2="185.0" stroke="#f00" stroke-width="2" marker-end="url(#arrow)" />
  <text x="47.5" y="197.5" fill="#f00" font-size="20" text-anchor="middle" dominant-baseline="middle">1</text>
  <line x1="85.0" y1="185.0" x2="135.0" y2="135.0" stroke="#f00" stroke-width="2" marker-end="url(#arrow)" />
  <text x="97.5" y="147.5" fill="#f00" font-size="20" text-anchor="middle" dominant-baseline="middle">1</text>
  <line x1="135.0" y1="135.0" x2="185.0" y2="85.0" stroke="#f00" stroke-width="2" marker-end="url(#arrow)" />
  <text x="147.5" y="97.5" fill="#f00" font-size="20" text-anchor="middle" dominant-baseline="middle">1</text>
  <line x1="185.0" y1="85.0" x2="235.0" y2="35.0" stroke="#f00" stroke-width="2" marker-end="url(#arrow)" />
  <text x="197.5" y="47.5" fill="#f00" font-size="20" text-anchor="middle" dominant-baseline="middle">1</text>
  <line x1="235.0" y1="35.0" x2="285.0" y2="35.0" stroke="#f00" stroke-width="2" marker-end="url(#arrow)" />
  <text x="260.0" y="22.5" fill="#f00" font-size="20" text-anchor="middle" dominant-baseline="middle">0</text>
  <line x1="285.0" y1="35.0" x2="335.0" y2="85.0" stroke="#f00" stroke-width="2" marker-end="url(#arrow)" />
  <text x="322.5" y="47.5" fill="#f00" font-size="20" text-anchor="middle" dominant-baseline="middle">7</text>
</svg>
