<?xml version="1.0" encoding="UTF-8" standalone="no"?>
<!-- Created with Inkscape (http://www.inkscape.org/) -->

<svg
   xmlns:dc="http://purl.org/dc/elements/1.1/"
   xmlns:cc="http://creativecommons.org/ns#"
   xmlns:rdf="http://www.w3.org/1999/02/22-rdf-syntax-ns#"
   xmlns:svg="http://www.w3.org/2000/svg"
   xmlns="http://www.w3.org/2000/svg"
   xmlns:sodipodi="http://sodipodi.sourceforge.net/DTD/sodipodi-0.dtd"
   xmlns:inkscape="http://www.inkscape.org/namespaces/inkscape"
   width="150"
   height="90"
   id="svg2"
   version="1.1"
   inkscape:version="0.48.4 r9939"
   sodipodi:docname="uniform_2a.svg">
  <defs
     id="defs4" />
  <sodipodi:namedview
     id="base"
     pagecolor="#ffffff"
     bordercolor="#666666"
     borderopacity="1.0"
     inkscape:pageopacity="0.0"
     inkscape:pageshadow="2"
     inkscape:zoom="3.959798"
     inkscape:cx="102.12908"
     inkscape:cy="42.900622"
     inkscape:document-units="px"
     inkscape:current-layer="layer2"
     showgrid="false"
     inkscape:window-width="1916"
     inkscape:window-height="952"
     inkscape:window-x="0"
     inkscape:window-y="126"
     inkscape:window-maximized="0"
     fit-margin-top="0"
     fit-margin-left="0"
     fit-margin-right="0"
     fit-margin-bottom="0" />
  <metadata
     id="metadata7">
    <rdf:RDF>
      <cc:Work
         rdf:about="">
        <dc:format>image/svg+xml</dc:format>
        <dc:type
           rdf:resource="http://purl.org/dc/dcmitype/StillImage" />
        <dc:title />
      </cc:Work>
    </rdf:RDF>
  </metadata>
  <g
     inkscape:label="Layer 1"
     inkscape:groupmode="layer"
     id="layer1"
     transform="translate(-294.59375,-422.72784)" />
  <g
     inkscape:groupmode="layer"
     id="layer2"
     inkscape:label="Layer"
     style="display:inline"
     transform="translate(-294.59375,-422.72784)">
    <g
       id="g4122"
       transform="translate(1.0101525,-1.2626907)">
      <path
         sodipodi:nodetypes="ccccccccccc"
         inkscape:connector-curvature="0"
         id="path3067"
         d="m 305.4375,425.3125 -6.6875,3.78125 c 0.99937,5.9375 0.36338,11.875 0,17.8125 -0.10761,2.86458 -2.20482,5.72917 -4.15625,8.59375 l 0,56.0625 c 21.59375,1.67652 43.1875,1.41404 64.78125,0 l 0,-56.0625 c -1.7099,-2.55052 -3.61714,-4.90369 -4.1875,-8.59375 -1.32841,-5.9375 -0.49081,-11.875 0,-17.8125 L 348.5,425.3125 c -14.47815,2.23171 -28.82236,2.05246 -43.0625,0 z"
         style="fill:#fcca0a;fill-opacity:1;stroke:none" />
      <rect
         y="482.63614"
         x="294.71201"
         height="9.0913725"
         width="31.56727"
         id="rect3946-3"
         style="color:#000000;fill:#fffdef;fill-opacity:1;fill-rule:nonzero;stroke:none;stroke-width:5;marker:none;visibility:visible;display:inline;overflow:visible;enable-background:accumulate" />
      <rect
         y="460.57791"
         x="294.71201"
         height="9.0913725"
         width="31.601082"
         id="rect3946"
         style="color:#000000;fill:#fffdef;fill-opacity:1;fill-rule:nonzero;stroke:none;stroke-width:5;marker:none;visibility:visible;display:inline;overflow:visible;enable-background:accumulate" />
      <path
         sodipodi:nodetypes="ccccccccscc"
         inkscape:connector-curvature="0"
         id="path3885-7"
         d="m 310.40625,425.9375 15.9375,21.84375 0,54.6875 -27.28125,9.38393 c 19.08749,1.36687 37.93137,0.96064 56.59375,-0.0446 l -27.77086,-9.33929 0,-54.6875 16.42711,-21.93304 c -5.71911,0.61808 -11.43823,1.00552 -17.15735,1.04922 -5.58296,0.0426 -11.16593,-0.24228 -16.7489,-0.96002 z"
         style="fill:#000000;fill-opacity:0.21634617;stroke:none" />
      <rect
         y="460.57791"
         x="327.86847"
         height="9.0913725"
         width="31.556438"
         id="rect3946-5"
         style="color:#000000;fill:#fffdef;fill-opacity:1;fill-rule:nonzero;stroke:none;stroke-width:5;marker:none;visibility:visible;display:inline;overflow:visible;enable-background:accumulate" />
      <rect
         y="482.63614"
         x="327.85315"
         height="9.0913725"
         width="32.013699"
         id="rect3946-3-6"
         style="color:#000000;fill:#fffdef;fill-opacity:1;fill-rule:nonzero;stroke:none;stroke-width:5;marker:none;visibility:visible;display:inline;overflow:visible;enable-background:accumulate" />
      <path
         sodipodi:nodetypes="cccccccccc"
         inkscape:connector-curvature="0"
         id="path3067-9"
         d="m 344.3125,425.82589 -16.4375,21.95536 0,54.6875 27.78125,9.32813 3.71875,-0.23438 0,-56.0625 -4.1875,-8.59375 0,-17.8125 -6.6875,-3.78125 z"
         style="fill:#000000;fill-opacity:0.09615383;stroke:none;display:inline" />
    </g>
    <g
       style="display:inline"
       id="g3880-1"
       transform="matrix(0.77997181,-0.62581465,0.62581465,0.77997181,-180.71298,299.85052)">
      <path
         sodipodi:nodetypes="ssssscscss"
         inkscape:connector-curvature="0"
         id="path3090-2"
         d="m 308.34907,445.03953 c 1.34915,-0.4216 1.86246,-2.62008 2.93575,-2.30441 1.07329,0.31567 3.21986,0.75761 3.97748,2.80949 0.75761,2.05187 2.35764,4.9809 1.50533,6.32335 -0.48716,0.76732 -4.22012,1.7263 -4.8199,3.43093 -0.59977,1.70463 -4.41941,0.56821 -4.48255,-0.47351 -0.0631,-1.04172 -2.77792,-1.67306 -3.44083,-2.46224 -0.66291,-0.78919 -1.04172,-2.84106 -0.0631,-3.63024 0.97858,-0.78918 0.81565,-2.67758 1.62569,-3.94591 0.49701,-0.7782 2.25705,0.41038 2.76213,0.25254 z"
         style="fill:#ff0400;fill-opacity:1;stroke:none" />
      <path
         transform="matrix(0.78640076,0.61771664,-0.61771664,0.78640076,347.67078,-98.686129)"
         d="m 316.9985,455.0148 c 0,0.62763 -0.2756,1.13642 -0.61557,1.13642 -0.33996,0 -0.61556,-0.50879 -0.61556,-1.13642 0,-0.62763 0.2756,-1.13642 0.61556,-1.13642 0.33997,0 0.61557,0.50879 0.61557,1.13642 z"
         sodipodi:ry="1.1364216"
         sodipodi:rx="0.61556172"
         sodipodi:cy="455.0148"
         sodipodi:cx="316.38293"
         id="path3092-7"
         style="color:#000000;fill:#ff0400;fill-opacity:1;fill-rule:nonzero;stroke:none;stroke-width:5;marker:none;visibility:visible;display:inline;overflow:visible;enable-background:accumulate"
         sodipodi:type="arc" />
      <path
         transform="matrix(0.88161338,0.07073785,-0.10291843,0.6059501,76.172125,145.26995)"
         d="m 316.9985,455.0148 c 0,0.62763 -0.2756,1.13642 -0.61557,1.13642 -0.33996,0 -0.61556,-0.50879 -0.61556,-1.13642 0,-0.62763 0.2756,-1.13642 0.61556,-1.13642 0.33997,0 0.61557,0.50879 0.61557,1.13642 z"
         sodipodi:ry="1.1364216"
         sodipodi:rx="0.61556172"
         sodipodi:cy="455.0148"
         sodipodi:cx="316.38293"
         id="path3092-6-0"
         style="color:#000000;fill:#ff0400;fill-opacity:1;fill-rule:nonzero;stroke:none;stroke-width:5;marker:none;visibility:visible;display:inline;overflow:visible;enable-background:accumulate"
         sodipodi:type="arc" />
    </g>
    <g
       style="display:inline"
       id="g3880-1-9"
       transform="matrix(0.2023988,0.97930318,-0.97930318,0.2023988,694.37236,87.105086)">
      <path
         sodipodi:nodetypes="ssssscscss"
         inkscape:connector-curvature="0"
         id="path3090-2-3"
         d="m 308.34907,445.03953 c 1.34915,-0.4216 1.86246,-2.62008 2.93575,-2.30441 1.07329,0.31567 3.21986,0.75761 3.97748,2.80949 0.75761,2.05187 2.35764,4.9809 1.50533,6.32335 -0.48716,0.76732 -4.22012,1.7263 -4.8199,3.43093 -0.59977,1.70463 -4.41941,0.56821 -4.48255,-0.47351 -0.0631,-1.04172 -2.77792,-1.67306 -3.44083,-2.46224 -0.66291,-0.78919 -1.04172,-2.84106 -0.0631,-3.63024 0.97858,-0.78918 0.81565,-2.67758 1.62569,-3.94591 0.49701,-0.7782 2.25705,0.41038 2.76213,0.25254 z"
         style="fill:#ff0400;fill-opacity:1;stroke:none" />
      <path
         transform="matrix(0.78640076,0.61771664,-0.61771664,0.78640076,347.67078,-98.686129)"
         d="m 316.9985,455.0148 c 0,0.62763 -0.2756,1.13642 -0.61557,1.13642 -0.33996,0 -0.61556,-0.50879 -0.61556,-1.13642 0,-0.62763 0.2756,-1.13642 0.61556,-1.13642 0.33997,0 0.61557,0.50879 0.61557,1.13642 z"
         sodipodi:ry="1.1364216"
         sodipodi:rx="0.61556172"
         sodipodi:cy="455.0148"
         sodipodi:cx="316.38293"
         id="path3092-7-6"
         style="color:#000000;fill:#ff0400;fill-opacity:1;fill-rule:nonzero;stroke:none;stroke-width:5;marker:none;visibility:visible;display:inline;overflow:visible;enable-background:accumulate"
         sodipodi:type="arc" />
      <path
         transform="matrix(0.88161338,0.07073785,-0.10291843,0.6059501,76.172125,145.26995)"
         d="m 316.9985,455.0148 c 0,0.62763 -0.2756,1.13642 -0.61557,1.13642 -0.33996,0 -0.61556,-0.50879 -0.61556,-1.13642 0,-0.62763 0.2756,-1.13642 0.61556,-1.13642 0.33997,0 0.61557,0.50879 0.61557,1.13642 z"
         sodipodi:ry="1.1364216"
         sodipodi:rx="0.61556172"
         sodipodi:cy="455.0148"
         sodipodi:cx="316.38293"
         id="path3092-6-0-0"
         style="color:#000000;fill:#ff0400;fill-opacity:1;fill-rule:nonzero;stroke:none;stroke-width:5;marker:none;visibility:visible;display:inline;overflow:visible;enable-background:accumulate"
         sodipodi:type="arc" />
    </g>
    <g
       transform="translate(83.590123,-1.2626881)"
       style="display:inline"
       id="g4122-6">
      <path
         sodipodi:nodetypes="ccccccccccc"
         inkscape:connector-curvature="0"
         id="path3067-2"
         d="m 305.4375,425.3125 -6.6875,3.78125 c 0.99937,5.9375 0.36338,11.875 0,17.8125 -0.10761,2.86458 -2.20482,5.72917 -4.15625,8.59375 l 0,56.0625 c 21.59375,1.67652 43.1875,1.41404 64.78125,0 l 0,-56.0625 c -1.7099,-2.55052 -3.61714,-4.90369 -4.1875,-8.59375 -1.32841,-5.9375 -0.49081,-11.875 0,-17.8125 L 348.5,425.3125 c -14.47815,2.23171 -28.82236,2.05246 -43.0625,0 z"
         style="fill:#fcca0a;fill-opacity:1;stroke:none" />
      <rect
         y="482.63614"
         x="294.71201"
         height="9.0913725"
         width="31.56727"
         id="rect3946-3-61"
         style="color:#000000;fill:#fffdef;fill-opacity:1;fill-rule:nonzero;stroke:none;stroke-width:5;marker:none;visibility:visible;display:inline;overflow:visible;enable-background:accumulate" />
      <rect
         y="460.57791"
         x="294.71201"
         height="9.0913725"
         width="31.601082"
         id="rect3946-8"
         style="color:#000000;fill:#fffdef;fill-opacity:1;fill-rule:nonzero;stroke:none;stroke-width:5;marker:none;visibility:visible;display:inline;overflow:visible;enable-background:accumulate" />
      <path
         sodipodi:nodetypes="ccccccccscc"
         inkscape:connector-curvature="0"
         id="path3885-7-7"
         d="m 310.40625,425.9375 15.9375,21.84375 0,54.6875 -27.28125,9.38393 c 19.08749,1.36687 37.93137,0.96064 56.59375,-0.0446 l -27.77086,-9.33929 0,-54.6875 16.42711,-21.93304 c -5.71911,0.61808 -11.43823,1.00552 -17.15735,1.04922 -5.58296,0.0426 -11.16593,-0.24228 -16.7489,-0.96002 z"
         style="fill:#000000;fill-opacity:0.21634617;stroke:none" />
      <rect
         y="460.57791"
         x="327.86847"
         height="9.0913725"
         width="31.556438"
         id="rect3946-5-9"
         style="color:#000000;fill:#fffdef;fill-opacity:1;fill-rule:nonzero;stroke:none;stroke-width:5;marker:none;visibility:visible;display:inline;overflow:visible;enable-background:accumulate" />
      <rect
         y="482.63614"
         x="327.85315"
         height="9.0913725"
         width="32.013699"
         id="rect3946-3-6-2"
         style="color:#000000;fill:#fffdef;fill-opacity:1;fill-rule:nonzero;stroke:none;stroke-width:5;marker:none;visibility:visible;display:inline;overflow:visible;enable-background:accumulate" />
      <path
         sodipodi:nodetypes="cccccccccc"
         inkscape:connector-curvature="0"
         id="path3067-9-0"
         d="m 344.3125,425.82589 -16.4375,21.95536 0,54.6875 27.78125,9.32813 3.71875,-0.23438 0,-56.0625 -4.1875,-8.59375 0,-17.8125 -6.6875,-3.78125 z"
         style="fill:#000000;fill-opacity:0.09615383;stroke:none;display:inline" />
    </g>
    <g
       style="display:inline"
       id="g3880-2"
       transform="matrix(0.73982583,-0.67279844,0.67279844,0.73982583,-138.89398,333.43764)">
      <path
         sodipodi:nodetypes="ssssscscss"
         inkscape:connector-curvature="0"
         id="path3090-3"
         d="m 308.34907,445.03953 c 1.34915,-0.4216 1.86246,-2.62008 2.93575,-2.30441 1.07329,0.31567 3.21986,0.75761 3.97748,2.80949 0.75761,2.05187 2.35764,4.9809 1.50533,6.32335 -0.48716,0.76732 -4.22012,1.7263 -4.8199,3.43093 -0.59977,1.70463 -4.41941,0.56821 -4.48255,-0.47351 -0.0631,-1.04172 -2.77792,-1.67306 -3.44083,-2.46224 -0.66291,-0.78919 -1.04172,-2.84106 -0.0631,-3.63024 0.97858,-0.78918 0.81565,-2.67758 1.62569,-3.94591 0.49701,-0.7782 2.25705,0.41038 2.76213,0.25254 z"
         style="fill:#ff0400;fill-opacity:1;stroke:none" />
      <path
         transform="matrix(0.78640076,0.61771664,-0.61771664,0.78640076,347.67078,-98.686129)"
         d="m 316.9985,455.0148 c 0,0.62763 -0.2756,1.13642 -0.61557,1.13642 -0.33996,0 -0.61556,-0.50879 -0.61556,-1.13642 0,-0.62763 0.2756,-1.13642 0.61556,-1.13642 0.33997,0 0.61557,0.50879 0.61557,1.13642 z"
         sodipodi:ry="1.1364216"
         sodipodi:rx="0.61556172"
         sodipodi:cy="455.0148"
         sodipodi:cx="316.38293"
         id="path3092-75"
         style="color:#000000;fill:#ff0400;fill-opacity:1;fill-rule:nonzero;stroke:none;stroke-width:5;marker:none;visibility:visible;display:inline;overflow:visible;enable-background:accumulate"
         sodipodi:type="arc" />
      <path
         transform="matrix(0.88161338,0.07073785,-0.10291843,0.6059501,76.172125,145.26995)"
         d="m 316.9985,455.0148 c 0,0.62763 -0.2756,1.13642 -0.61557,1.13642 -0.33996,0 -0.61556,-0.50879 -0.61556,-1.13642 0,-0.62763 0.2756,-1.13642 0.61556,-1.13642 0.33997,0 0.61557,0.50879 0.61557,1.13642 z"
         sodipodi:ry="1.1364216"
         sodipodi:rx="0.61556172"
         sodipodi:cy="455.0148"
         sodipodi:cx="316.38293"
         id="path3092-6-9"
         style="color:#000000;fill:#ff0400;fill-opacity:1;fill-rule:nonzero;stroke:none;stroke-width:5;marker:none;visibility:visible;display:inline;overflow:visible;enable-background:accumulate"
         sodipodi:type="arc" />
    </g>
    <g
       style="display:inline"
       id="g3880-1-2"
       transform="matrix(0.70005928,0.71408473,-0.71408473,0.70005928,528.44444,-77.269058)">
      <path
         sodipodi:nodetypes="ssssscscss"
         inkscape:connector-curvature="0"
         id="path3090-2-2"
         d="m 308.34907,445.03953 c 1.34915,-0.4216 1.86246,-2.62008 2.93575,-2.30441 1.07329,0.31567 3.21986,0.75761 3.97748,2.80949 0.75761,2.05187 2.35764,4.9809 1.50533,6.32335 -0.48716,0.76732 -4.22012,1.7263 -4.8199,3.43093 -0.59977,1.70463 -4.41941,0.56821 -4.48255,-0.47351 -0.0631,-1.04172 -2.77792,-1.67306 -3.44083,-2.46224 -0.66291,-0.78919 -1.04172,-2.84106 -0.0631,-3.63024 0.97858,-0.78918 0.81565,-2.67758 1.62569,-3.94591 0.49701,-0.7782 2.25705,0.41038 2.76213,0.25254 z"
         style="fill:#ff0400;fill-opacity:1;stroke:none" />
      <path
         transform="matrix(0.78640076,0.61771664,-0.61771664,0.78640076,347.67078,-98.686129)"
         d="m 316.9985,455.0148 c 0,0.62763 -0.2756,1.13642 -0.61557,1.13642 -0.33996,0 -0.61556,-0.50879 -0.61556,-1.13642 0,-0.62763 0.2756,-1.13642 0.61556,-1.13642 0.33997,0 0.61557,0.50879 0.61557,1.13642 z"
         sodipodi:ry="1.1364216"
         sodipodi:rx="0.61556172"
         sodipodi:cy="455.0148"
         sodipodi:cx="316.38293"
         id="path3092-7-8"
         style="color:#000000;fill:#ff0400;fill-opacity:1;fill-rule:nonzero;stroke:none;stroke-width:5;marker:none;visibility:visible;display:inline;overflow:visible;enable-background:accumulate"
         sodipodi:type="arc" />
      <path
         transform="matrix(0.88161338,0.07073785,-0.10291843,0.6059501,76.172125,145.26995)"
         d="m 316.9985,455.0148 c 0,0.62763 -0.2756,1.13642 -0.61557,1.13642 -0.33996,0 -0.61556,-0.50879 -0.61556,-1.13642 0,-0.62763 0.2756,-1.13642 0.61556,-1.13642 0.33997,0 0.61557,0.50879 0.61557,1.13642 z"
         sodipodi:ry="1.1364216"
         sodipodi:rx="0.61556172"
         sodipodi:cy="455.0148"
         sodipodi:cx="316.38293"
         id="path3092-6-0-9"
         style="color:#000000;fill:#ff0400;fill-opacity:1;fill-rule:nonzero;stroke:none;stroke-width:5;marker:none;visibility:visible;display:inline;overflow:visible;enable-background:accumulate"
         sodipodi:type="arc" />
    </g>
    <g
       style="display:inline"
       id="g3880-1-9-7"
       transform="matrix(-0.68639769,0.72722638,-0.72722638,-0.68639769,959.51834,569.59529)">
      <path
         sodipodi:nodetypes="ssssscscss"
         inkscape:connector-curvature="0"
         id="path3090-2-3-3"
         d="m 308.34907,445.03953 c 1.34915,-0.4216 1.86246,-2.62008 2.93575,-2.30441 1.07329,0.31567 3.21986,0.75761 3.97748,2.80949 0.75761,2.05187 2.35764,4.9809 1.50533,6.32335 -0.48716,0.76732 -4.22012,1.7263 -4.8199,3.43093 -0.59977,1.70463 -4.41941,0.56821 -4.48255,-0.47351 -0.0631,-1.04172 -2.77792,-1.67306 -3.44083,-2.46224 -0.66291,-0.78919 -1.04172,-2.84106 -0.0631,-3.63024 0.97858,-0.78918 0.81565,-2.67758 1.62569,-3.94591 0.49701,-0.7782 2.25705,0.41038 2.76213,0.25254 z"
         style="fill:#ff0400;fill-opacity:1;stroke:none" />
      <path
         transform="matrix(0.78640076,0.61771664,-0.61771664,0.78640076,347.67078,-98.686129)"
         d="m 316.9985,455.0148 c 0,0.62763 -0.2756,1.13642 -0.61557,1.13642 -0.33996,0 -0.61556,-0.50879 -0.61556,-1.13642 0,-0.62763 0.2756,-1.13642 0.61556,-1.13642 0.33997,0 0.61557,0.50879 0.61557,1.13642 z"
         sodipodi:ry="1.1364216"
         sodipodi:rx="0.61556172"
         sodipodi:cy="455.0148"
         sodipodi:cx="316.38293"
         id="path3092-7-6-6"
         style="color:#000000;fill:#ff0400;fill-opacity:1;fill-rule:nonzero;stroke:none;stroke-width:5;marker:none;visibility:visible;display:inline;overflow:visible;enable-background:accumulate"
         sodipodi:type="arc" />
      <path
         transform="matrix(0.88161338,0.07073785,-0.10291843,0.6059501,76.172125,145.26995)"
         d="m 316.9985,455.0148 c 0,0.62763 -0.2756,1.13642 -0.61557,1.13642 -0.33996,0 -0.61556,-0.50879 -0.61556,-1.13642 0,-0.62763 0.2756,-1.13642 0.61556,-1.13642 0.33997,0 0.61557,0.50879 0.61557,1.13642 z"
         sodipodi:ry="1.1364216"
         sodipodi:rx="0.61556172"
         sodipodi:cy="455.0148"
         sodipodi:cx="316.38293"
         id="path3092-6-0-0-1"
         style="color:#000000;fill:#ff0400;fill-opacity:1;fill-rule:nonzero;stroke:none;stroke-width:5;marker:none;visibility:visible;display:inline;overflow:visible;enable-background:accumulate"
         sodipodi:type="arc" />
    </g>
  </g>
</svg>
