<?xml version="1.0" encoding="UTF-8" standalone="no"?>
<!-- Generator: Adobe Illustrator 16.0.4, SVG Export Plug-In . SVG Version: 6.00 Build 0)  -->

<svg
   xmlns:dc="http://purl.org/dc/elements/1.1/"
   xmlns:cc="http://creativecommons.org/ns#"
   xmlns:rdf="http://www.w3.org/1999/02/22-rdf-syntax-ns#"
   xmlns:svg="http://www.w3.org/2000/svg"
   xmlns="http://www.w3.org/2000/svg"
   xmlns:sodipodi="http://sodipodi.sourceforge.net/DTD/sodipodi-0.dtd"
   xmlns:inkscape="http://www.inkscape.org/namespaces/inkscape"
   version="1.1"
   id="Layer_1"
   x="0px"
   y="0px"
   width="87.672px"
   height="128.184px"
   viewBox="0 0 87.672 128.184"
   enable-background="new 0 0 87.672 128.184"
   xml:space="preserve"
   inkscape:version="0.91 r13725"
   sodipodi:docname="s12-b.svg"
   inkscape:export-filename="E:\ol\kbr\2017-2018\git\1voor_sen_est\s12-b.png"
   inkscape:export-xdpi="90"
   inkscape:export-ydpi="90"><metadata
     id="metadata87"><rdf:RDF><cc:Work
         rdf:about=""><dc:format>image/svg+xml</dc:format><dc:type
           rdf:resource="http://purl.org/dc/dcmitype/StillImage" /></cc:Work></rdf:RDF></metadata><defs
     id="defs85" /><sodipodi:namedview
     pagecolor="#ffffff"
     bordercolor="#666666"
     borderopacity="1"
     objecttolerance="10"
     gridtolerance="10"
     guidetolerance="10"
     inkscape:pageopacity="0"
     inkscape:pageshadow="2"
     inkscape:window-width="1920"
     inkscape:window-height="1018"
     id="namedview83"
     showgrid="false"
     inkscape:zoom="4"
     inkscape:cx="43.835999"
     inkscape:cy="64.092003"
     inkscape:window-x="-8"
     inkscape:window-y="-8"
     inkscape:window-maximized="1"
     inkscape:current-layer="Layer_1" /><g
     id="g3"><g
       id="g5"><rect
         x="0.125"
         y="0.5"
         fill="none"
         stroke="#878787"
         stroke-width="0.25"
         stroke-miterlimit="10"
         width="68.047"
         height="127.559"
         id="rect7" /><line
         fill="none"
         stroke="#878787"
         stroke-width="0.25"
         stroke-miterlimit="10"
         x1="0.125"
         y1="119.557"
         x2="68.172"
         y2="119.557"
         id="line9" /><line
         fill="none"
         stroke="#878787"
         stroke-width="0.25"
         stroke-miterlimit="10"
         x1="0.125"
         y1="111.055"
         x2="68.172"
         y2="111.055"
         id="line11" /><line
         fill="none"
         stroke="#878787"
         stroke-width="0.25"
         stroke-miterlimit="10"
         x1="0.125"
         y1="102.554"
         x2="68.172"
         y2="102.554"
         id="line13" /><line
         fill="none"
         stroke="#878787"
         stroke-width="0.25"
         stroke-miterlimit="10"
         x1="0.125"
         y1="94.052"
         x2="68.172"
         y2="94.052"
         id="line15" /><line
         fill="none"
         stroke="#878787"
         stroke-width="0.25"
         stroke-miterlimit="10"
         x1="0.125"
         y1="85.55"
         x2="68.172"
         y2="85.55"
         id="line17" /><line
         fill="none"
         stroke="#878787"
         stroke-width="0.25"
         stroke-miterlimit="10"
         x1="0.125"
         y1="77.048"
         x2="68.172"
         y2="77.048"
         id="line19" /><line
         fill="none"
         stroke="#878787"
         stroke-width="0.25"
         stroke-miterlimit="10"
         x1="0.125"
         y1="68.546"
         x2="68.172"
         y2="68.546"
         id="line21" /><line
         fill="none"
         stroke="#878787"
         stroke-width="0.25"
         stroke-miterlimit="10"
         x1="0.125"
         y1="60.013"
         x2="68.172"
         y2="60.013"
         id="line23" /><line
         fill="none"
         stroke="#878787"
         stroke-width="0.25"
         stroke-miterlimit="10"
         x1="0.125"
         y1="51.511"
         x2="68.172"
         y2="51.511"
         id="line25" /><line
         fill="none"
         stroke="#878787"
         stroke-width="0.25"
         stroke-miterlimit="10"
         x1="0.125"
         y1="43.009"
         x2="68.172"
         y2="43.009"
         id="line27" /><line
         fill="none"
         stroke="#878787"
         stroke-width="0.25"
         stroke-miterlimit="10"
         x1="0.125"
         y1="34.507"
         x2="68.172"
         y2="34.507"
         id="line29" /><line
         fill="none"
         stroke="#878787"
         stroke-width="0.25"
         stroke-miterlimit="10"
         x1="0.125"
         y1="26.005"
         x2="68.172"
         y2="26.005"
         id="line31" /><line
         fill="none"
         stroke="#878787"
         stroke-width="0.25"
         stroke-miterlimit="10"
         x1="0.125"
         y1="17.504"
         x2="68.172"
         y2="17.504"
         id="line33" /><line
         fill="none"
         stroke="#878787"
         stroke-width="0.25"
         stroke-miterlimit="10"
         x1="0.125"
         y1="9.002"
         x2="68.172"
         y2="9.002"
         id="line35" /><line
         fill="none"
         stroke="#878787"
         stroke-width="0.25"
         stroke-miterlimit="10"
         x1="59.67"
         y1="0.5"
         x2="59.67"
         y2="128.059"
         id="line37" /><line
         fill="none"
         stroke="#878787"
         stroke-width="0.25"
         stroke-miterlimit="10"
         x1="51.168"
         y1="0.5"
         x2="51.168"
         y2="128.059"
         id="line39" /><line
         fill="none"
         stroke="#878787"
         stroke-width="0.25"
         stroke-miterlimit="10"
         x1="42.666"
         y1="0.5"
         x2="42.666"
         y2="128.059"
         id="line41" /><line
         fill="none"
         stroke="#878787"
         stroke-width="0.25"
         stroke-miterlimit="10"
         x1="34.164"
         y1="0.5"
         x2="34.164"
         y2="128.059"
         id="line43" /><line
         fill="none"
         stroke="#878787"
         stroke-width="0.25"
         stroke-miterlimit="10"
         x1="25.662"
         y1="0.5"
         x2="25.662"
         y2="128.059"
         id="line45" /><line
         fill="none"
         stroke="#878787"
         stroke-width="0.25"
         stroke-miterlimit="10"
         x1="17.16"
         y1="0.5"
         x2="17.16"
         y2="128.059"
         id="line47" /><line
         fill="none"
         stroke="#878787"
         stroke-width="0.25"
         stroke-miterlimit="10"
         x1="8.658"
         y1="0.5"
         x2="8.658"
         y2="128.059"
         id="line49" /></g><circle
       fill="#1D71B8"
       cx="55.418"
       cy="4.749"
       r="3.366"
       id="circle51" /><circle
       fill="#1D71B8"
       cx="55.418"
       cy="21.757"
       r="3.366"
       id="circle53" /><circle
       fill="#1D71B8"
       cx="46.914"
       cy="21.757"
       r="3.366"
       id="circle55" /><circle
       fill="#1D71B8"
       cx="46.914"
       cy="13.253"
       r="3.366"
       id="circle57" /><circle
       fill="#1D71B8"
       cx="38.41"
       cy="4.749"
       r="3.366"
       id="circle59" /><circle
       fill="#1D71B8"
       cx="38.41"
       cy="13.253"
       r="3.366"
       id="circle61" /><circle
       fill="#1D71B8"
       cx="29.906"
       cy="21.757"
       r="3.366"
       id="circle63" /><rect
       x="25.662"
       y="0.5"
       fill="none"
       stroke="#000000"
       stroke-miterlimit="10"
       width="42.51"
       height="25.505"
       id="rect65" /><circle
       fill="#1D71B8"
       cx="55.418"
       cy="47.269"
       r="3.366"
       id="circle67" /><circle
       fill="#1D71B8"
       cx="55.418"
       cy="30.261"
       r="3.366"
       id="circle69" /><circle
       fill="#1D71B8"
       cx="46.914"
       cy="30.261"
       r="3.366"
       id="circle71" /><circle
       fill="#1D71B8"
       cx="46.914"
       cy="38.765"
       r="3.366"
       id="circle73" /><circle
       fill="#1D71B8"
       cx="38.41"
       cy="47.269"
       r="3.366"
       id="circle75" /><circle
       fill="#1D71B8"
       cx="38.41"
       cy="38.765"
       r="3.366"
       id="circle77" /><circle
       fill="#1D71B8"
       cx="29.906"
       cy="30.261"
       r="3.366"
       id="circle79" /><rect
       x="25.662"
       y="26.012"
       fill="none"
       stroke="#000000"
       stroke-miterlimit="10"
       width="42.51"
       height="25.505"
       id="rect81" /></g><text
     xml:space="preserve"
     style="font-style:normal;font-weight:normal;font-size:8px;line-height:125%;font-family:Sans;letter-spacing:0px;word-spacing:0px;fill:#000000;fill-opacity:1;stroke:none"
     x="69.555061"
     y="11.378692"
     id="text3066"
     sodipodi:linespacing="125%"><tspan
       sodipodi:role="line"
       x="69.555061"
       y="11.378692"
       id="tspan3076">2</tspan></text>
<text
     xml:space="preserve"
     style="font-style:normal;font-weight:normal;font-size:8px;line-height:125%;font-family:Sans;letter-spacing:0px;word-spacing:0px;fill:#000000;fill-opacity:1;stroke:none"
     x="69.531624"
     y="19.185944"
     id="text3066-1"
     sodipodi:linespacing="125%"><tspan
       sodipodi:role="line"
       x="69.531624"
       y="19.185944"
       id="tspan3070-4">3</tspan><tspan
       sodipodi:role="line"
       x="69.531624"
       y="29.185944"
       id="tspan3076-4" /></text>
<text
     xml:space="preserve"
     style="font-style:normal;font-weight:normal;font-size:8.00000012px;line-height:125%;font-family:Sans;letter-spacing:0px;word-spacing:0px;fill:#000000;fill-opacity:1;stroke:none;-inkscape-font-specification:'Sans, Normal';font-stretch:normal;font-variant:normal;text-anchor:start;text-align:start;writing-mode:lr;"
     x="69.262093"
     y="27.587029"
     id="text3066-8"
     sodipodi:linespacing="125%"><tspan
       sodipodi:role="line"
       id="tspan3445">0</tspan><tspan
       sodipodi:role="line"
       id="tspan3447"></tspan></text>
<text
     xml:space="preserve"
     style="font-style:normal;font-weight:normal;font-size:8px;line-height:125%;font-family:Sans;letter-spacing:0px;word-spacing:0px;fill:#000000;fill-opacity:1;stroke:none"
     x="69.531624"
     y="36.154137"
     id="text3066-1-1"
     sodipodi:linespacing="125%"><tspan
       sodipodi:role="line"
       x="69.531624"
       y="36.154137"
       id="tspan3070-4-7">3</tspan><tspan
       sodipodi:role="line"
       x="69.531624"
       y="46.154137"
       id="tspan3076-4-1" /></text>
<text
     xml:space="preserve"
     style="font-style:normal;font-weight:normal;font-size:8px;line-height:125%;font-family:Sans;letter-spacing:0px;word-spacing:0px;fill:#000000;fill-opacity:1;stroke:none"
     x="69.555061"
     y="45.419006"
     id="text3066-15"
     sodipodi:linespacing="125%"><tspan
       sodipodi:role="line"
       x="69.555061"
       y="45.419006"
       id="tspan3076-2">2</tspan></text>
</svg>