<?xml version="1.0" encoding="UTF-8" standalone="no"?>
<!-- Created with Inkscape (http://www.inkscape.org/) -->

<svg
   xmlns:dc="http://purl.org/dc/elements/1.1/"
   xmlns:cc="http://creativecommons.org/ns#"
   xmlns:rdf="http://www.w3.org/1999/02/22-rdf-syntax-ns#"
   xmlns:svg="http://www.w3.org/2000/svg"
   xmlns="http://www.w3.org/2000/svg"
   xmlns:sodipodi="http://sodipodi.sourceforge.net/DTD/sodipodi-0.dtd"
   xmlns:inkscape="http://www.inkscape.org/namespaces/inkscape"
   width="173.13693mm"
   height="147.67276mm"
   viewBox="0 0 173.13693 147.67276"
   version="1.1"
   id="svg8"
   inkscape:version="0.91 r13725"
   sodipodi:docname="example3.svg">
  <defs
     id="defs2" />
  <sodipodi:namedview
     id="base"
     pagecolor="#ffffff"
     bordercolor="#666666"
     borderopacity="1.0"
     inkscape:pageopacity="0.0"
     inkscape:pageshadow="2"
     inkscape:zoom="0.64"
     inkscape:cx="-55.76945"
     inkscape:cy="216.63699"
     inkscape:document-units="mm"
     inkscape:current-layer="layer1"
     showgrid="true"
     fit-margin-top="0"
     fit-margin-left="0"
     fit-margin-right="0"
     fit-margin-bottom="0"
     inkscape:window-width="1680"
     inkscape:window-height="1001"
     inkscape:window-x="0"
     inkscape:window-y="1"
     inkscape:window-maximized="1"
     objecttolerance="10000"
     guidetolerance="10000"
     inkscape:snap-perpendicular="false"
     inkscape:snap-tangential="false"
     inkscape:snap-others="false">
    <inkscape:grid
       type="xygrid"
       id="grid4792"
       dotted="false"
       originx="-228.61653"
       originy="-244.71692" />
  </sodipodi:namedview>
  <metadata
     id="metadata5">
    <rdf:RDF>
      <cc:Work
         rdf:about="">
        <dc:format>image/svg+xml</dc:format>
        <dc:type
           rdf:resource="http://purl.org/dc/dcmitype/StillImage" />
        <dc:title></dc:title>
      </cc:Work>
    </rdf:RDF>
  </metadata>
  <g
     inkscape:label="Ebene 1"
     inkscape:groupmode="layer"
     id="layer1"
     transform="translate(-18.467347,418.24247)">
    <g
       id="g5113"
       transform="translate(73.90246,-220.52632)">
      <path
         id="path4938"
         d="m -42.232212,-51.019008 c -2.588145,0 -4.911173,-1.905 -6.985491,-3.605742 -0.0937,-0.07752 -0.188907,-0.154516 -0.282577,-0.232039 -0.13229,0.208491 -0.27172,0.399785 -0.416707,0.573087 -1.068124,1.278731 -2.563278,1.832504 -3.878509,1.443831 -0.901964,-0.264583 -1.507851,-1.010443 -1.620561,-1.996545 -0.13944,-1.210205 0.497407,-2.468827 1.548061,-3.062023 0.618067,-0.349515 1.822181,-0.719402 3.491949,0.173831 0.0847,-0.821002 -0.0442,-1.755775 -0.531277,-2.728648 -1.874828,-3.747029 -4.390473,-10.418498 -1.094571,-14.437519 -3.296162,-4.019549 -0.780517,-10.691283 1.094571,-14.437518 0.48736,-0.973402 0.616207,-1.907381 0.531277,-2.728383 -1.666328,0.890852 -2.870712,0.524404 -3.491949,0.174095 -1.050384,-0.592402 -1.685651,-1.851289 -1.548061,-3.060435 0.11271,-0.986102 0.718337,-1.732756 1.620561,-1.997604 1.315231,-0.386556 2.810385,0.164042 3.878509,1.443302 0.144987,0.171979 0.284417,0.363537 0.416707,0.572029 0.0937,-0.07593 0.185477,-0.152664 0.280727,-0.229394 2.310858,-1.896268 4.948473,-4.042039 7.879245,-3.532716 1.043244,0.182033 1.855511,0.677068 2.413248,1.4732 1.074994,1.5367 0.748504,3.586427 0.707754,3.815027 -0.0863,0.48895 -0.549004,0.811212 -1.045094,0.729985 -0.490537,-0.08546 -0.819144,-0.553244 -0.734474,-1.044046 0.0495,-0.289718 0.422007,-2.831835 -1.650471,-3.192727 -2.138078,-0.373591 -4.316646,1.417638 -6.424304,3.148542 -0.229657,0.187854 -0.455617,0.374385 -0.679717,0.55536 0.35481,1.345142 0.31433,2.979209 -0.536837,4.682861 -1.756558,3.508904 -4.203146,9.858904 -0.858034,12.9667 0.18547,0.170391 0.289447,0.410633 0.289447,0.661987 0,0.251883 -0.103977,0.491596 -0.289447,0.661988 -3.345372,3.107266 -0.898524,9.457266 0.858034,12.966964 0.851167,1.702858 0.891647,3.337454 0.536837,4.681802 0.2241,0.182562 0.45191,0.369094 0.683157,0.557742 2.108188,1.73011 4.297066,3.514989 6.422454,3.145102 2.070888,-0.35904 1.698091,-2.901421 1.648881,-3.190875 -0.0847,-0.490802 0.243677,-0.958586 0.734474,-1.044311 0.49609,-0.08308 0.958847,0.240771 1.045094,0.729721 0.0408,0.228865 0.36724,2.279386 -0.709604,3.816086 -0.557737,0.795337 -1.368154,1.289843 -2.411398,1.470554 -0.300297,0.05212 -0.596894,0.07673 -0.891904,0.07673 z m -10.147513,-5.453327 c -0.222247,0 -0.423587,0.04842 -0.600067,0.148166 -0.480477,0.270934 -0.688704,0.862542 -0.641084,1.280848 0.0442,0.383117 0.253997,0.444765 0.333637,0.467784 0.628647,0.18706 1.382441,-0.148432 1.984368,-0.868363 0.12726,-0.152929 0.25082,-0.32676 0.36221,-0.520171 -0.534987,-0.336285 -1.023937,-0.508264 -1.439064,-0.508264 z m -0.555887,-38.783418 c -0.120117,0 -0.238387,0.01667 -0.351627,0.04948 -0.0794,0.02381 -0.28945,0.08546 -0.333637,0.468577 -0.0476,0.41857 0.160607,1.008856 0.641084,1.279789 0.506407,0.287602 1.217874,0.157956 2.039131,-0.360098 -0.11139,-0.193146 -0.23495,-0.367241 -0.36221,-0.520964 -0.492127,-0.586582 -1.089024,-0.916782 -1.632741,-0.916781 z"
         inkscape:connector-curvature="0"
         style="fill:#666666;stroke-width:0.26458332" />
      <path
         id="path4940"
         d="m 104.49839,-51.018673 c -0.29475,0 -0.59161,-0.02461 -0.89164,-0.07699 -1.04325,-0.180975 -1.85366,-0.675217 -2.40955,-1.470554 -1.0771,-1.5367 -0.75061,-3.587221 -0.70986,-3.816085 0.0865,-0.48895 0.54397,-0.8128 1.04509,-0.729721 0.49107,0.08573 0.81914,0.553243 0.73447,1.04431 -0.0495,0.289454 -0.42173,2.832629 1.64756,3.190875 2.11983,0.369623 4.31268,-1.413933 6.42061,-3.142456 0.23124,-0.189706 0.4609,-0.376767 0.68659,-0.560388 -0.35454,-1.344612 -0.31591,-2.97815 0.53683,-4.681802 1.75497,-3.509697 4.20024,-9.861549 0.85646,-12.966964 -0.18547,-0.170392 -0.28946,-0.410369 -0.28946,-0.661988 0,-0.251354 0.10399,-0.491595 0.28946,-0.661987 3.34537,-3.107002 0.89851,-9.457267 -0.85646,-12.9667 -0.85062,-1.703656 -0.89137,-3.338516 -0.53683,-4.682864 -0.22569,-0.182034 -0.45349,-0.369094 -0.68315,-0.557742 -2.10951,-1.729317 -4.30396,-3.520281 -6.42379,-3.14616 -0.55826,0.0971 -0.96228,0.335491 -1.23745,0.728133 -0.65853,0.940329 -0.41142,2.446073 -0.40984,2.46089 0.0881,0.491595 -0.23996,0.961231 -0.73077,1.048808 -0.48021,0.08731 -0.96227,-0.239183 -1.04879,-0.731044 -0.0408,-0.2286 -0.36725,-2.278327 0.70801,-3.815821 0.55774,-0.795337 1.36815,-1.290637 2.40982,-1.472406 2.9567,-0.509323 5.56785,1.634067 7.87871,3.529013 0.0955,0.07858 0.18891,0.156104 0.28416,0.233098 0.13071,-0.208492 0.27014,-0.399786 0.41513,-0.57203 1.06944,-1.279789 2.55083,-1.833562 3.8801,-1.443302 0.90248,0.264584 1.50759,1.011502 1.61898,1.997604 0.13943,1.20994 -0.49769,2.468827 -1.54834,3.060965 -0.62151,0.347662 -1.82006,0.715962 -3.49195,-0.17489 -0.0831,0.821002 0.046,1.754982 0.53313,2.728384 1.87482,3.747293 4.38889,10.418762 1.09272,14.437518 3.29405,4.018227 0.78052,10.689431 -1.09272,14.437519 -0.48709,0.972873 -0.61647,1.907646 -0.53313,2.728648 1.67189,-0.891646 2.87044,-0.523611 3.49195,-0.173831 1.05065,0.592137 1.68777,1.851818 1.54834,3.062022 -0.11298,0.986102 -0.71862,1.731698 -1.61898,1.996546 -1.32213,0.384175 -2.8104,-0.165629 -3.8801,-1.444889 -0.14499,-0.17198 -0.28442,-0.363538 -0.41513,-0.570971 -0.095,0.07752 -0.1905,0.156104 -0.2876,0.23495 -2.07327,1.698889 -4.39444,3.602302 -6.98258,3.602302 z m 8.7103,-4.944004 c 0.11139,0.192352 0.2331,0.366183 0.36195,0.519112 0.59849,0.718344 1.35757,1.054894 1.98436,0.868363 0.0794,-0.02302 0.28787,-0.08387 0.33179,-0.46699 0.0476,-0.4191 -0.16034,-1.010708 -0.64082,-1.281906 -0.50482,-0.283104 -1.21787,-0.156104 -2.03728,0.361421 z m 0,-37.855525 c 0.81597,0.51435 1.52558,0.646113 2.03728,0.36195 0.48022,-0.270933 0.68845,-0.862277 0.64082,-1.280848 -0.0439,-0.383116 -0.254,-0.445029 -0.33179,-0.468048 -0.62679,-0.188118 -1.38587,0.150019 -1.98436,0.866775 -0.12885,0.153723 -0.25056,0.327819 -0.36195,0.520171 z"
         inkscape:connector-curvature="0"
         style="fill:#666666;stroke-width:0.26458332" />
      <g
         transform="translate(-0.67438176,0)"
         id="g5077">
        <g
           id="g4982"
           transform="translate(194.81915,38.099748)">
          <g
             id="g4950"
             transform="matrix(0.26458333,0,0,0.26458333,-268.36308,-175.08972)">
            <path
               id="path4942"
               d="m 323.434,238.779 c -1.601,0 -3.028,-1.131 -3.349,-2.762 -0.361,-1.855 0.854,-3.646 2.702,-4.007 9.841,-1.915 15.566,-6.042 17.508,-12.62 0.481,-1.858 0.074,-12.484 -0.221,-20.241 -0.553,-14.703 -0.84,-24.621 0.208,-28.385 1.841,-6.632 9.815,-9.625 13.739,-10.719 5.471,-15.783 26.763,-15.517 27.67,-15.563 1.88,0.033 3.383,1.584 3.35,3.469 -0.027,1.882 -1.562,3.27 -3.463,3.363 -0.374,-0.077 -18.536,-0.121 -21.512,12.377 -0.307,1.301 -1.355,2.302 -2.669,2.562 -3.03,0.598 -9.589,2.933 -10.535,6.343 -0.842,3.019 -0.328,16.474 0.039,26.295 0.52,13.702 0.674,19.964 -0.054,22.429 -2.688,9.128 -10.348,14.983 -22.752,17.395 -0.221,0.044 -0.441,0.064 -0.661,0.064 z"
               inkscape:connector-curvature="0"
               style="fill:#aa4400" />
            <path
               id="path4944"
               d="m 337.899,239.943 c -6.746,0 -12.41,-1.124 -12.95,-1.234 -1.849,-0.377 -3.037,-2.181 -2.656,-4.03 0.374,-1.851 2.203,-3.036 4.024,-2.662 6.499,1.324 25.629,3.109 28.451,-5.745 0.626,-1.955 1.053,-8.344 1.468,-14.522 0.62,-9.285 1.394,-20.845 3.315,-29.205 4.997,-21.685 19.03,-36.404 19.624,-37.019 1.301,-1.361 3.469,-1.401 4.824,-0.086 1.362,1.308 1.401,3.47 0.094,4.827 -0.133,0.14 -13.326,14.035 -17.883,33.813 -1.801,7.826 -2.556,19.083 -3.163,28.127 -0.574,8.554 -0.933,13.521 -1.768,16.14 -3.029,9.522 -14.205,11.596 -23.38,11.596 z"
               inkscape:connector-curvature="0"
               style="fill:#aa4400" />
            <path
               id="path4946"
               d="m 381.458,328.616 c -2.522,0 -22.207,-0.491 -27.437,-15.567 -3.924,-1.094 -11.897,-4.086 -13.739,-10.722 -1.048,-3.76 -0.761,-13.679 -0.208,-28.378 0.294,-7.763 0.702,-18.392 0.215,-20.267 -1.936,-6.559 -7.661,-10.683 -17.502,-12.591 -1.849,-0.356 -3.056,-2.151 -2.702,-4.003 0.359,-1.854 2.181,-3.069 4.009,-2.702 12.404,2.405 20.065,8.254 22.752,17.378 0.728,2.476 0.574,8.741 0.054,22.443 -0.367,9.821 -0.881,23.272 -0.039,26.289 0.953,3.44 7.505,5.759 10.528,6.346 1.321,0.253 2.362,1.255 2.676,2.563 2.997,12.563 21.285,12.351 21.505,12.38 1.935,0.087 3.443,1.471 3.476,3.356 0.034,1.888 -1.468,3.443 -3.355,3.476 -0.041,-0.001 -0.121,-0.001 -0.233,-0.001 z"
               inkscape:connector-curvature="0"
               style="fill:#aa4400" />
            <path
               id="path4948"
               d="m 381.63,328.616 c -0.894,0 -1.788,-0.35 -2.455,-1.044 -0.594,-0.614 -14.627,-15.33 -19.624,-37.022 -1.921,-8.36 -2.695,-19.917 -3.315,-29.206 -0.415,-6.178 -0.842,-12.563 -1.468,-14.525 -2.822,-8.857 -21.96,-7.065 -28.445,-5.735 -1.834,0.367 -3.656,-0.807 -4.037,-2.659 -0.374,-1.848 0.814,-3.653 2.663,-4.034 1.273,-0.257 31.072,-6.172 36.331,10.355 0.834,2.623 1.194,7.59 1.768,16.141 0.607,9.044 1.362,20.3 3.163,28.126 4.557,19.784 17.75,33.676 17.883,33.813 1.307,1.361 1.268,3.523 -0.094,4.831 -0.662,0.639 -1.515,0.959 -2.37,0.959 z"
               inkscape:connector-curvature="0"
               style="fill:#aa4400" />
          </g>
          <g
             inkscape:transform-center-y="-0.53453945"
             inkscape:transform-center-x="-23.519719"
             id="g4960"
             transform="matrix(0.26458333,0,0,0.26458333,-231.23596,-175.08946)">
            <path
               id="path4952"
               d="m 500.286,238.779 c -0.22,0 -0.44,-0.021 -0.661,-0.064 -12.404,-2.412 -20.065,-8.267 -22.754,-17.391 -0.726,-2.469 -0.574,-8.731 -0.052,-22.433 0.366,-9.822 0.881,-23.276 0.039,-26.292 -0.954,-3.44 -7.506,-5.758 -10.528,-6.346 -1.321,-0.253 -2.363,-1.254 -2.676,-2.562 -2.983,-12.498 -21.313,-12.455 -21.513,-12.377 -1.947,-0.094 -3.435,-1.481 -3.463,-3.363 -0.033,-1.885 1.468,-3.436 3.35,-3.469 0.935,0.046 22.199,-0.227 27.67,15.563 3.924,1.095 11.897,4.09 13.739,10.723 1.047,3.76 0.761,13.679 0.207,28.381 -0.294,7.757 -0.701,18.382 -0.214,20.257 1.936,6.562 7.661,10.689 17.501,12.604 1.849,0.361 3.063,2.152 2.703,4.007 -0.32,1.631 -1.747,2.762 -3.348,2.762 z"
               inkscape:connector-curvature="0"
               style="fill:#aa4400" />
            <path
               id="path4954"
               d="m 485.82,239.943 c -9.174,0 -20.35,-2.075 -23.38,-11.597 -0.834,-2.619 -1.194,-7.586 -1.769,-16.14 -0.607,-9.044 -1.361,-20.301 -3.162,-28.127 -4.577,-19.857 -17.742,-33.672 -17.875,-33.809 -1.314,-1.358 -1.275,-3.521 0.08,-4.831 1.368,-1.315 3.53,-1.275 4.831,0.086 0.594,0.614 14.626,15.333 19.625,37.019 1.921,8.36 2.695,19.92 3.315,29.205 0.415,6.179 0.841,12.567 1.468,14.522 2.823,8.878 21.973,7.072 28.446,5.745 1.808,-0.377 3.65,0.803 4.037,2.659 0.373,1.848 -0.814,3.656 -2.663,4.033 -0.543,0.111 -6.207,1.235 -12.953,1.235 z"
               inkscape:connector-curvature="0"
               style="fill:#aa4400" />
            <path
               id="path4956"
               d="m 442.262,328.616 c -0.113,0 -0.193,0 -0.233,0 -1.882,-0.033 -3.383,-1.584 -3.35,-3.47 0.028,-1.881 1.516,-3.306 3.463,-3.363 0.208,-0.05 18.529,0.127 21.513,-12.38 0.307,-1.301 1.354,-2.302 2.669,-2.563 3.029,-0.597 9.587,-2.933 10.535,-6.342 0.842,-3.02 0.327,-16.471 -0.039,-26.292 -0.522,-13.702 -0.674,-19.967 0.052,-22.44 2.689,-9.127 10.35,-14.976 22.754,-17.381 1.821,-0.367 3.65,0.848 4.009,2.702 0.354,1.852 -0.854,3.647 -2.703,4.003 -9.841,1.908 -15.566,6.032 -17.507,12.608 -0.481,1.858 -0.074,12.487 0.22,20.25 0.554,14.699 0.84,24.618 -0.207,28.381 -1.842,6.633 -9.815,9.625 -13.739,10.719 -5.225,15.077 -24.914,15.568 -27.437,15.568 z"
               inkscape:connector-curvature="0"
               style="fill:#aa4400" />
            <path
               id="path4958"
               d="m 442.088,328.616 c -0.854,0 -1.707,-0.317 -2.368,-0.958 -1.362,-1.308 -1.401,-3.469 -0.094,-4.831 0.133,-0.136 13.324,-14.029 17.883,-33.813 1.801,-7.826 2.554,-19.083 3.162,-28.126 0.575,-8.551 0.935,-13.519 1.769,-16.138 5.264,-16.537 35.063,-10.616 36.331,-10.359 1.849,0.38 3.036,2.182 2.656,4.03 -0.374,1.848 -2.169,3.043 -4.029,2.663 -6.473,-1.314 -25.636,-3.103 -28.446,5.739 -0.627,1.958 -1.053,8.343 -1.468,14.521 -0.62,9.289 -1.394,20.845 -3.315,29.206 -4.999,21.692 -19.03,36.408 -19.625,37.022 -0.667,0.694 -1.561,1.044 -2.456,1.044 z"
               inkscape:connector-curvature="0"
               style="fill:#aa4400" />
          </g>
          <g
             transform="matrix(0.26458333,0,0,0.26458333,-245.5231,-175.08972)"
             id="g4970">
            <path
               style="fill:#aa4400"
               inkscape:connector-curvature="0"
               d="m 323.434,238.779 c -1.601,0 -3.028,-1.131 -3.349,-2.762 -0.361,-1.855 0.854,-3.646 2.702,-4.007 9.841,-1.915 15.566,-6.042 17.508,-12.62 0.481,-1.858 0.074,-12.484 -0.221,-20.241 -0.553,-14.703 -0.84,-24.621 0.208,-28.385 1.841,-6.632 9.815,-9.625 13.739,-10.719 5.471,-15.783 26.763,-15.517 27.67,-15.563 1.88,0.033 3.383,1.584 3.35,3.469 -0.027,1.882 -1.562,3.27 -3.463,3.363 -0.374,-0.077 -18.536,-0.121 -21.512,12.377 -0.307,1.301 -1.355,2.302 -2.669,2.562 -3.03,0.598 -9.589,2.933 -10.535,6.343 -0.842,3.019 -0.328,16.474 0.039,26.295 0.52,13.702 0.674,19.964 -0.054,22.429 -2.688,9.128 -10.348,14.983 -22.752,17.395 -0.221,0.044 -0.441,0.064 -0.661,0.064 z"
               id="path4962" />
            <path
               style="fill:#aa4400"
               inkscape:connector-curvature="0"
               d="m 337.899,239.943 c -6.746,0 -12.41,-1.124 -12.95,-1.234 -1.849,-0.377 -3.037,-2.181 -2.656,-4.03 0.374,-1.851 2.203,-3.036 4.024,-2.662 6.499,1.324 25.629,3.109 28.451,-5.745 0.626,-1.955 1.053,-8.344 1.468,-14.522 0.62,-9.285 1.394,-20.845 3.315,-29.205 4.997,-21.685 19.03,-36.404 19.624,-37.019 1.301,-1.361 3.469,-1.401 4.824,-0.086 1.362,1.308 1.401,3.47 0.094,4.827 -0.133,0.14 -13.326,14.035 -17.883,33.813 -1.801,7.826 -2.556,19.083 -3.163,28.127 -0.574,8.554 -0.933,13.521 -1.768,16.14 -3.029,9.522 -14.205,11.596 -23.38,11.596 z"
               id="path4964" />
            <path
               style="fill:#aa4400"
               inkscape:connector-curvature="0"
               d="m 381.458,328.616 c -2.522,0 -22.207,-0.491 -27.437,-15.567 -3.924,-1.094 -11.897,-4.086 -13.739,-10.722 -1.048,-3.76 -0.761,-13.679 -0.208,-28.378 0.294,-7.763 0.702,-18.392 0.215,-20.267 -1.936,-6.559 -7.661,-10.683 -17.502,-12.591 -1.849,-0.356 -3.056,-2.151 -2.702,-4.003 0.359,-1.854 2.181,-3.069 4.009,-2.702 12.404,2.405 20.065,8.254 22.752,17.378 0.728,2.476 0.574,8.741 0.054,22.443 -0.367,9.821 -0.881,23.272 -0.039,26.289 0.953,3.44 7.505,5.759 10.528,6.346 1.321,0.253 2.362,1.255 2.676,2.563 2.997,12.563 21.285,12.351 21.505,12.38 1.935,0.087 3.443,1.471 3.476,3.356 0.034,1.888 -1.468,3.443 -3.355,3.476 -0.041,-0.001 -0.121,-0.001 -0.233,-0.001 z"
               id="path4966" />
            <path
               style="fill:#aa4400"
               inkscape:connector-curvature="0"
               d="m 381.63,328.616 c -0.894,0 -1.788,-0.35 -2.455,-1.044 -0.594,-0.614 -14.627,-15.33 -19.624,-37.022 -1.921,-8.36 -2.695,-19.917 -3.315,-29.206 -0.415,-6.178 -0.842,-12.563 -1.468,-14.525 -2.822,-8.857 -21.96,-7.065 -28.445,-5.735 -1.834,0.367 -3.656,-0.807 -4.037,-2.659 -0.374,-1.848 0.814,-3.653 2.663,-4.034 1.273,-0.257 31.072,-6.172 36.331,10.355 0.834,2.623 1.194,7.59 1.768,16.141 0.607,9.044 1.362,20.3 3.163,28.126 4.557,19.784 17.75,33.676 17.883,33.813 1.307,1.361 1.268,3.523 -0.094,4.831 -0.662,0.639 -1.515,0.959 -2.37,0.959 z"
               id="path4968" />
          </g>
          <g
             transform="matrix(0.26458333,0,0,0.26458333,-254.07594,-175.08946)"
             id="g4980">
            <path
               style="fill:#aa4400"
               inkscape:connector-curvature="0"
               d="m 500.286,238.779 c -0.22,0 -0.44,-0.021 -0.661,-0.064 -12.404,-2.412 -20.065,-8.267 -22.754,-17.391 -0.726,-2.469 -0.574,-8.731 -0.052,-22.433 0.366,-9.822 0.881,-23.276 0.039,-26.292 -0.954,-3.44 -7.506,-5.758 -10.528,-6.346 -1.321,-0.253 -2.363,-1.254 -2.676,-2.562 -2.983,-12.498 -21.313,-12.455 -21.513,-12.377 -1.947,-0.094 -3.435,-1.481 -3.463,-3.363 -0.033,-1.885 1.468,-3.436 3.35,-3.469 0.935,0.046 22.199,-0.227 27.67,15.563 3.924,1.095 11.897,4.09 13.739,10.723 1.047,3.76 0.761,13.679 0.207,28.381 -0.294,7.757 -0.701,18.382 -0.214,20.257 1.936,6.562 7.661,10.689 17.501,12.604 1.849,0.361 3.063,2.152 2.703,4.007 -0.32,1.631 -1.747,2.762 -3.348,2.762 z"
               id="path4972" />
            <path
               style="fill:#aa4400"
               inkscape:connector-curvature="0"
               d="m 485.82,239.943 c -9.174,0 -20.35,-2.075 -23.38,-11.597 -0.834,-2.619 -1.194,-7.586 -1.769,-16.14 -0.607,-9.044 -1.361,-20.301 -3.162,-28.127 -4.577,-19.857 -17.742,-33.672 -17.875,-33.809 -1.314,-1.358 -1.275,-3.521 0.08,-4.831 1.368,-1.315 3.53,-1.275 4.831,0.086 0.594,0.614 14.626,15.333 19.625,37.019 1.921,8.36 2.695,19.92 3.315,29.205 0.415,6.179 0.841,12.567 1.468,14.522 2.823,8.878 21.973,7.072 28.446,5.745 1.808,-0.377 3.65,0.803 4.037,2.659 0.373,1.848 -0.814,3.656 -2.663,4.033 -0.543,0.111 -6.207,1.235 -12.953,1.235 z"
               id="path4974" />
            <path
               style="fill:#aa4400"
               inkscape:connector-curvature="0"
               d="m 442.262,328.616 c -0.113,0 -0.193,0 -0.233,0 -1.882,-0.033 -3.383,-1.584 -3.35,-3.47 0.028,-1.881 1.516,-3.306 3.463,-3.363 0.208,-0.05 18.529,0.127 21.513,-12.38 0.307,-1.301 1.354,-2.302 2.669,-2.563 3.029,-0.597 9.587,-2.933 10.535,-6.342 0.842,-3.02 0.327,-16.471 -0.039,-26.292 -0.522,-13.702 -0.674,-19.967 0.052,-22.44 2.689,-9.127 10.35,-14.976 22.754,-17.381 1.821,-0.367 3.65,0.848 4.009,2.702 0.354,1.852 -0.854,3.647 -2.703,4.003 -9.841,1.908 -15.566,6.032 -17.507,12.608 -0.481,1.858 -0.074,12.487 0.22,20.25 0.554,14.699 0.84,24.618 -0.207,28.381 -1.842,6.633 -9.815,9.625 -13.739,10.719 -5.225,15.077 -24.914,15.568 -27.437,15.568 z"
               id="path4976" />
            <path
               style="fill:#aa4400"
               inkscape:connector-curvature="0"
               d="m 442.088,328.616 c -0.854,0 -1.707,-0.317 -2.368,-0.958 -1.362,-1.308 -1.401,-3.469 -0.094,-4.831 0.133,-0.136 13.324,-14.029 17.883,-33.813 1.801,-7.826 2.554,-19.083 3.162,-28.126 0.575,-8.551 0.935,-13.519 1.769,-16.138 5.264,-16.537 35.063,-10.616 36.331,-10.359 1.849,0.38 3.036,2.182 2.656,4.03 -0.374,1.848 -2.169,3.043 -4.029,2.663 -6.473,-1.314 -25.636,-3.103 -28.446,5.739 -0.627,1.958 -1.053,8.343 -1.468,14.521 -0.62,9.289 -1.394,20.845 -3.315,29.206 -4.999,21.692 -19.03,36.408 -19.625,37.022 -0.667,0.694 -1.561,1.044 -2.456,1.044 z"
               id="path4978" />
          </g>
        </g>
        <g
           transform="matrix(0.26458333,0,0,0.26458333,-117.90854,-136.99018)"
           id="g5012">
          <path
             style="fill:#aa4400"
             inkscape:connector-curvature="0"
             d="m 323.434,238.779 c -1.601,0 -3.028,-1.131 -3.349,-2.762 -0.361,-1.855 0.854,-3.646 2.702,-4.007 9.841,-1.915 15.566,-6.042 17.508,-12.62 0.481,-1.858 0.074,-12.484 -0.221,-20.241 -0.553,-14.703 -0.84,-24.621 0.208,-28.385 1.841,-6.632 9.815,-9.625 13.739,-10.719 5.471,-15.783 26.763,-15.517 27.67,-15.563 1.88,0.033 3.383,1.584 3.35,3.469 -0.027,1.882 -1.562,3.27 -3.463,3.363 -0.374,-0.077 -18.536,-0.121 -21.512,12.377 -0.307,1.301 -1.355,2.302 -2.669,2.562 -3.03,0.598 -9.589,2.933 -10.535,6.343 -0.842,3.019 -0.328,16.474 0.039,26.295 0.52,13.702 0.674,19.964 -0.054,22.429 -2.688,9.128 -10.348,14.983 -22.752,17.395 -0.221,0.044 -0.441,0.064 -0.661,0.064 z"
             id="path5004" />
          <path
             style="fill:#aa4400"
             inkscape:connector-curvature="0"
             d="m 337.899,239.943 c -6.746,0 -12.41,-1.124 -12.95,-1.234 -1.849,-0.377 -3.037,-2.181 -2.656,-4.03 0.374,-1.851 2.203,-3.036 4.024,-2.662 6.499,1.324 25.629,3.109 28.451,-5.745 0.626,-1.955 1.053,-8.344 1.468,-14.522 0.62,-9.285 1.394,-20.845 3.315,-29.205 4.997,-21.685 19.03,-36.404 19.624,-37.019 1.301,-1.361 3.469,-1.401 4.824,-0.086 1.362,1.308 1.401,3.47 0.094,4.827 -0.133,0.14 -13.326,14.035 -17.883,33.813 -1.801,7.826 -2.556,19.083 -3.163,28.127 -0.574,8.554 -0.933,13.521 -1.768,16.14 -3.029,9.522 -14.205,11.596 -23.38,11.596 z"
             id="path5006" />
          <path
             style="fill:#aa4400"
             inkscape:connector-curvature="0"
             d="m 381.458,328.616 c -2.522,0 -22.207,-0.491 -27.437,-15.567 -3.924,-1.094 -11.897,-4.086 -13.739,-10.722 -1.048,-3.76 -0.761,-13.679 -0.208,-28.378 0.294,-7.763 0.702,-18.392 0.215,-20.267 -1.936,-6.559 -7.661,-10.683 -17.502,-12.591 -1.849,-0.356 -3.056,-2.151 -2.702,-4.003 0.359,-1.854 2.181,-3.069 4.009,-2.702 12.404,2.405 20.065,8.254 22.752,17.378 0.728,2.476 0.574,8.741 0.054,22.443 -0.367,9.821 -0.881,23.272 -0.039,26.289 0.953,3.44 7.505,5.759 10.528,6.346 1.321,0.253 2.362,1.255 2.676,2.563 2.997,12.563 21.285,12.351 21.505,12.38 1.935,0.087 3.443,1.471 3.476,3.356 0.034,1.888 -1.468,3.443 -3.355,3.476 -0.041,-0.001 -0.121,-0.001 -0.233,-0.001 z"
             id="path5008" />
          <path
             style="fill:#aa4400"
             inkscape:connector-curvature="0"
             d="m 381.63,328.616 c -0.894,0 -1.788,-0.35 -2.455,-1.044 -0.594,-0.614 -14.627,-15.33 -19.624,-37.022 -1.921,-8.36 -2.695,-19.917 -3.315,-29.206 -0.415,-6.178 -0.842,-12.563 -1.468,-14.525 -2.822,-8.857 -21.96,-7.065 -28.445,-5.735 -1.834,0.367 -3.656,-0.807 -4.037,-2.659 -0.374,-1.848 0.814,-3.653 2.663,-4.034 1.273,-0.257 31.072,-6.172 36.331,10.355 0.834,2.623 1.194,7.59 1.768,16.141 0.607,9.044 1.362,20.3 3.163,28.126 4.557,19.784 17.75,33.676 17.883,33.813 1.307,1.361 1.268,3.523 -0.094,4.831 -0.662,0.639 -1.515,0.959 -2.37,0.959 z"
             id="path5010" />
        </g>
        <g
           transform="matrix(0.26458333,0,0,0.26458333,-126.46138,-136.98992)"
           id="g5022">
          <path
             style="fill:#aa4400"
             inkscape:connector-curvature="0"
             d="m 500.286,238.779 c -0.22,0 -0.44,-0.021 -0.661,-0.064 -12.404,-2.412 -20.065,-8.267 -22.754,-17.391 -0.726,-2.469 -0.574,-8.731 -0.052,-22.433 0.366,-9.822 0.881,-23.276 0.039,-26.292 -0.954,-3.44 -7.506,-5.758 -10.528,-6.346 -1.321,-0.253 -2.363,-1.254 -2.676,-2.562 -2.983,-12.498 -21.313,-12.455 -21.513,-12.377 -1.947,-0.094 -3.435,-1.481 -3.463,-3.363 -0.033,-1.885 1.468,-3.436 3.35,-3.469 0.935,0.046 22.199,-0.227 27.67,15.563 3.924,1.095 11.897,4.09 13.739,10.723 1.047,3.76 0.761,13.679 0.207,28.381 -0.294,7.757 -0.701,18.382 -0.214,20.257 1.936,6.562 7.661,10.689 17.501,12.604 1.849,0.361 3.063,2.152 2.703,4.007 -0.32,1.631 -1.747,2.762 -3.348,2.762 z"
             id="path5014" />
          <path
             style="fill:#aa4400"
             inkscape:connector-curvature="0"
             d="m 485.82,239.943 c -9.174,0 -20.35,-2.075 -23.38,-11.597 -0.834,-2.619 -1.194,-7.586 -1.769,-16.14 -0.607,-9.044 -1.361,-20.301 -3.162,-28.127 -4.577,-19.857 -17.742,-33.672 -17.875,-33.809 -1.314,-1.358 -1.275,-3.521 0.08,-4.831 1.368,-1.315 3.53,-1.275 4.831,0.086 0.594,0.614 14.626,15.333 19.625,37.019 1.921,8.36 2.695,19.92 3.315,29.205 0.415,6.179 0.841,12.567 1.468,14.522 2.823,8.878 21.973,7.072 28.446,5.745 1.808,-0.377 3.65,0.803 4.037,2.659 0.373,1.848 -0.814,3.656 -2.663,4.033 -0.543,0.111 -6.207,1.235 -12.953,1.235 z"
             id="path5016" />
          <path
             style="fill:#aa4400"
             inkscape:connector-curvature="0"
             d="m 442.262,328.616 c -0.113,0 -0.193,0 -0.233,0 -1.882,-0.033 -3.383,-1.584 -3.35,-3.47 0.028,-1.881 1.516,-3.306 3.463,-3.363 0.208,-0.05 18.529,0.127 21.513,-12.38 0.307,-1.301 1.354,-2.302 2.669,-2.563 3.029,-0.597 9.587,-2.933 10.535,-6.342 0.842,-3.02 0.327,-16.471 -0.039,-26.292 -0.522,-13.702 -0.674,-19.967 0.052,-22.44 2.689,-9.127 10.35,-14.976 22.754,-17.381 1.821,-0.367 3.65,0.848 4.009,2.702 0.354,1.852 -0.854,3.647 -2.703,4.003 -9.841,1.908 -15.566,6.032 -17.507,12.608 -0.481,1.858 -0.074,12.487 0.22,20.25 0.554,14.699 0.84,24.618 -0.207,28.381 -1.842,6.633 -9.815,9.625 -13.739,10.719 -5.225,15.077 -24.914,15.568 -27.437,15.568 z"
             id="path5018" />
          <path
             style="fill:#aa4400"
             inkscape:connector-curvature="0"
             d="m 442.088,328.616 c -0.854,0 -1.707,-0.317 -2.368,-0.958 -1.362,-1.308 -1.401,-3.469 -0.094,-4.831 0.133,-0.136 13.324,-14.029 17.883,-33.813 1.801,-7.826 2.554,-19.083 3.162,-28.126 0.575,-8.551 0.935,-13.519 1.769,-16.138 5.264,-16.537 35.063,-10.616 36.331,-10.359 1.849,0.38 3.036,2.182 2.656,4.03 -0.374,1.848 -2.169,3.043 -4.029,2.663 -6.473,-1.314 -25.636,-3.103 -28.446,5.739 -0.627,1.958 -1.053,8.343 -1.468,14.521 -0.62,9.289 -1.394,20.845 -3.315,29.206 -4.999,21.692 -19.03,36.408 -19.625,37.022 -0.667,0.694 -1.561,1.044 -2.456,1.044 z"
             id="path5020" />
        </g>
      </g>
    </g>
    <g
       id="Ebene_1-5"
       transform="matrix(0,-0.04691971,0.07473614,0,45.639903,-328.81328)"
       inkscape:transform-center-x="58.886022"
       inkscape:transform-center-y="15.735495"
       style="fill:#3e169f;fill-opacity:0.9303483">
      <polygon
         id="path2050-0"
         points="902.25049,141.73242 902.25049,222.98633 233.17773,222.98633 233.17773,364.71875 0,182.35938 233.17773,0 233.17773,141.73242 "
         style="fill:#3e169f;fill-opacity:0.9303483" />
    </g>
    <g
       id="Ebene_1-4"
       transform="matrix(0,-0.04691971,0.07473614,0,114.42234,-328.81328)"
       inkscape:transform-center-x="58.886022"
       inkscape:transform-center-y="15.735495"
       style="fill:#3e169f;fill-opacity:0.9303483">
      <polygon
         id="path2050-03"
         points="233.17773,222.98633 233.17773,364.71875 0,182.35938 233.17773,0 233.17773,141.73242 902.25049,141.73242 902.25049,222.98633 "
         style="fill:#3e169f;fill-opacity:0.9303483" />
    </g>
    <g
       id="Ebene_1-4-0"
       transform="matrix(0,-0.04691971,0.07473614,0,114.95123,-375.90914)"
       inkscape:transform-center-x="58.886022"
       inkscape:transform-center-y="15.735495"
       style="fill:#3e169f;fill-opacity:0.9303483">
      <polygon
         id="path2050-03-0"
         points="233.17773,0 233.17773,141.73242 902.25049,141.73242 902.25049,222.98633 233.17773,222.98633 233.17773,364.71875 0,182.35938 "
         style="fill:#3e169f;fill-opacity:0.9303483" />
    </g>
  </g>
</svg>
