<?xml version="1.0" encoding="UTF-8" standalone="no"?>
<!-- Created with Inkscape (http://www.inkscape.org/) -->

<svg
   xmlns:dc="http://purl.org/dc/elements/1.1/"
   xmlns:cc="http://creativecommons.org/ns#"
   xmlns:rdf="http://www.w3.org/1999/02/22-rdf-syntax-ns#"
   xmlns:svg="http://www.w3.org/2000/svg"
   xmlns="http://www.w3.org/2000/svg"
   xmlns:sodipodi="http://sodipodi.sourceforge.net/DTD/sodipodi-0.dtd"
   xmlns:inkscape="http://www.inkscape.org/namespaces/inkscape"
   width="44.75061mm"
   height="70.296745mm"
   viewBox="0 0 158.56515 249.08295"
   id="svg4835"
   version="1.1"
   inkscape:version="0.91 r13725"
   sodipodi:docname="j04_body2.svg"
   inkscape:export-filename="E:\ol\kbr\2017-2018\git\2voor_jun_est\j04_body2.png"
   inkscape:export-xdpi="119.96004"
   inkscape:export-ydpi="119.96004">
  <defs
     id="defs4837">
    <marker
       inkscape:stockid="Arrow2Mend"
       orient="auto"
       refY="0"
       refX="0"
       id="marker6164-3"
       style="overflow:visible"
       inkscape:isstock="true">
      <path
         id="path5581-6"
         style="fill:#552200;fill-opacity:1;fill-rule:evenodd;stroke:#552200;stroke-width:0.625;stroke-linejoin:round;stroke-opacity:1"
         d="M 8.7185878,4.0337352 -2.2072895,0.01601326 8.7185884,-4.0017078 c -1.7454984,2.3720609 -1.7354408,5.6174519 -6e-7,8.035443 z"
         transform="scale(-0.6,-0.6)"
         inkscape:connector-curvature="0" />
    </marker>
  </defs>
  <sodipodi:namedview
     id="base"
     pagecolor="#ffffff"
     bordercolor="#666666"
     borderopacity="1.0"
     inkscape:pageopacity="0.0"
     inkscape:pageshadow="2"
     inkscape:zoom="1.2050696"
     inkscape:cx="-356.42932"
     inkscape:cy="26.276096"
     inkscape:document-units="px"
     inkscape:current-layer="g4359"
     showgrid="false"
     fit-margin-top="0"
     fit-margin-left="0"
     fit-margin-right="0"
     fit-margin-bottom="0"
     inkscape:window-width="1920"
     inkscape:window-height="1018"
     inkscape:window-x="-8"
     inkscape:window-y="-8"
     inkscape:window-maximized="1" />
  <metadata
     id="metadata4840">
    <rdf:RDF>
      <cc:Work
         rdf:about="">
        <dc:format>image/svg+xml</dc:format>
        <dc:type
           rdf:resource="http://purl.org/dc/dcmitype/StillImage" />
        <dc:title />
      </cc:Work>
    </rdf:RDF>
  </metadata>
  <g
     inkscape:label="Ebene 1"
     inkscape:groupmode="layer"
     id="layer1"
     transform="translate(-52.958246,-253.84852)">
    <g
       transform="matrix(1.0003015,0,0,0.93951112,-55.881813,-428.84588)"
       id="g4359"
       style="stroke:#552200">
      <path
         sodipodi:nodetypes="ccccccsccc"
         id="path5524-7"
         d="m 157.80823,769.72129 0,210.79317 c 0.0542,10.61757 -0.32582,10.20492 6.94705,10.20611 l 22.45112,0.0162 c 9.10384,-0.0309 9.08142,-0.0265 9.08142,-16.50137 l 0,-231.26566 c -0.2168,-15.30694 -0.2054,-15.28958 -10.63941,-15.28958 l -20.3737,0 c -7.48565,0.10152 -7.84536,-0.0744 -7.67883,12.15804 l 0,13.61968"
         style="color:#000000;clip-rule:nonzero;display:inline;overflow:visible;visibility:visible;opacity:1;isolation:auto;mix-blend-mode:normal;color-interpolation:sRGB;color-interpolation-filters:linearRGB;solid-color:#000000;solid-opacity:1;fill:none;fill-opacity:1;fill-rule:evenodd;stroke:#552200;stroke-width:2.06306815;stroke-linecap:round;stroke-linejoin:miter;stroke-miterlimit:4;stroke-dasharray:4.12613625, 4.12613625000000010;stroke-dashoffset:0;stroke-opacity:1;marker-end:url(#marker6164-3);color-rendering:auto;image-rendering:auto;shape-rendering:auto;text-rendering:auto;enable-background:accumulate"
         inkscape:connector-curvature="0" />
      <rect
         ry="0.038985983"
         rx="0.007147165"
         style="fill:#ffffff;fill-opacity:1;stroke:#552200;stroke-width:0.56309903;stroke-linejoin:round;stroke-miterlimit:4;stroke-dasharray:none;stroke-opacity:1"
         id="rect4790-8-8-3-5"
         width="28.588659"
         height="21.189932"
         x="143.14633"
         y="756.41364" />
      <rect
         ry="0.038985983"
         rx="0.007147165"
         style="fill:#ffffff;fill-opacity:1;stroke:#552200;stroke-width:0.56309903;stroke-linejoin:round;stroke-miterlimit:4;stroke-dasharray:none;stroke-opacity:1"
         id="rect4790-8-8-1-3"
         width="28.588659"
         height="21.189932"
         x="143.14633"
         y="785.29272" />
      <rect
         ry="0.038985983"
         rx="0.007147165"
         style="fill:#ffffff;fill-opacity:1;stroke:#552200;stroke-width:0.56309903;stroke-linejoin:round;stroke-miterlimit:4;stroke-dasharray:none;stroke-opacity:1"
         id="rect4790-8-8-6-5"
         width="28.588659"
         height="21.189932"
         x="143.14633"
         y="814.17188" />
      <rect
         ry="0.038985983"
         rx="0.007147165"
         style="fill:#ffffff;fill-opacity:1;stroke:#552200;stroke-width:0.56309903;stroke-linejoin:round;stroke-miterlimit:4;stroke-dasharray:none;stroke-opacity:1"
         id="rect4790-8-8-2-6"
         width="28.588659"
         height="21.189932"
         x="143.14633"
         y="843.05103" />
      <rect
         ry="0.03898599"
         rx="0.0071471655"
         style="fill:#ffffff;fill-opacity:1;stroke:#552200;stroke-width:0.56309903;stroke-linejoin:round;stroke-miterlimit:4;stroke-dasharray:none;stroke-opacity:1"
         id="rect4790-8-8-1-3-2"
         width="28.588661"
         height="21.189934"
         x="143.15645"
         y="871.93018" />
      <rect
         ry="0.038985994"
         rx="0.0071471659"
         style="fill:#ffffff;fill-opacity:1;stroke:#552200;stroke-width:0.56309903;stroke-linejoin:round;stroke-miterlimit:4;stroke-dasharray:none;stroke-opacity:1"
         id="rect4790-8-8-1-3-2-3"
         width="28.588661"
         height="21.189938"
         x="143.16139"
         y="900.80927" />
      <rect
         ry="0.038986001"
         rx="0.0071471669"
         style="fill:#ffffff;fill-opacity:1;stroke:#552200;stroke-width:0.56309903;stroke-linejoin:round;stroke-miterlimit:4;stroke-dasharray:none;stroke-opacity:1"
         id="rect4790-8-8-1-3-2-3-6"
         width="28.588661"
         height="21.189941"
         x="143.16139"
         y="929.68848" />
      <rect
         ry="0.038986005"
         rx="0.0071471673"
         style="fill:#ffffff;fill-opacity:1;stroke:#552200;stroke-width:0.56309903;stroke-linejoin:round;stroke-miterlimit:4;stroke-dasharray:none;stroke-opacity:1"
         id="rect4790-8-8-1-3-2-3-6-3"
         width="28.588663"
         height="21.189943"
         x="143.18672"
         y="958.56757" />
    </g>
  </g>
</svg>
