<?xml version="1.0" encoding="UTF-8" standalone="no"?>
<!-- Created with Inkscape (http://www.inkscape.org/) -->

<svg
   xmlns:dc="http://purl.org/dc/elements/1.1/"
   xmlns:cc="http://creativecommons.org/ns#"
   xmlns:rdf="http://www.w3.org/1999/02/22-rdf-syntax-ns#"
   xmlns:svg="http://www.w3.org/2000/svg"
   xmlns="http://www.w3.org/2000/svg"
   xmlns:sodipodi="http://sodipodi.sourceforge.net/DTD/sodipodi-0.dtd"
   xmlns:inkscape="http://www.inkscape.org/namespaces/inkscape"
   version="1.1"
   width="328.61212"
   height="125.81752"
   id="svg2"
   sodipodi:docname="Jack_soln_C.svg"
   inkscape:version="0.91 r13725">
  <metadata
     id="metadata30">
    <rdf:RDF>
      <cc:Work
         rdf:about="">
        <dc:format>image/svg+xml</dc:format>
        <dc:type
           rdf:resource="http://purl.org/dc/dcmitype/StillImage" />
        <dc:title />
      </cc:Work>
    </rdf:RDF>
  </metadata>
  <sodipodi:namedview
     pagecolor="#ffffff"
     bordercolor="#666666"
     borderopacity="1"
     objecttolerance="10"
     gridtolerance="10"
     guidetolerance="10"
     inkscape:pageopacity="0"
     inkscape:pageshadow="2"
     inkscape:window-width="1440"
     inkscape:window-height="803"
     id="namedview28"
     showgrid="false"
     fit-margin-top="0"
     fit-margin-left="0"
     fit-margin-right="0"
     fit-margin-bottom="0"
     inkscape:measure-start="0,0"
     inkscape:measure-end="0,0"
     inkscape:zoom="3.7134713"
     inkscape:cx="231.11169"
     inkscape:cy="62.775378"
     inkscape:window-x="0"
     inkscape:window-y="1"
     inkscape:window-maximized="1"
     inkscape:current-layer="layer1" />
  <defs
     id="defs4">
    <marker
       inkscape:stockid="Arrow1Lend"
       orient="auto"
       refY="0.0"
       refX="0.0"
       id="Arrow1Lend"
       style="overflow:visible;"
       inkscape:isstock="true">
      <path
         id="path4749"
         d="M 0.0,0.0 L 5.0,-5.0 L -12.5,0.0 L 5.0,5.0 L 0.0,0.0 z "
         style="fill-rule:evenodd;stroke:#000000;stroke-width:1pt;stroke-opacity:1;fill:#000000;fill-opacity:1"
         transform="scale(0.8) rotate(180) translate(12.5,0)" />
    </marker>
    <marker
       inkscape:stockid="Arrow1Lstart"
       orient="auto"
       refY="0.0"
       refX="0.0"
       id="Arrow1Lstart"
       style="overflow:visible"
       inkscape:isstock="true">
      <path
         id="path4746"
         d="M 0.0,0.0 L 5.0,-5.0 L -12.5,0.0 L 5.0,5.0 L 0.0,0.0 z "
         style="fill-rule:evenodd;stroke:#000000;stroke-width:1pt;stroke-opacity:1;fill:#000000;fill-opacity:1"
         transform="scale(0.8) translate(12.5,0)" />
    </marker>
    <marker
       inkscape:stockid="Arrow2Lend"
       orient="auto"
       refY="0.0"
       refX="0.0"
       id="Arrow2Lend"
       style="overflow:visible;"
       inkscape:isstock="true">
      <path
         id="path4767"
         style="fill-rule:evenodd;stroke-width:0.625;stroke-linejoin:round;stroke:#000000;stroke-opacity:1;fill:#000000;fill-opacity:1"
         d="M 8.7185878,4.0337352 L -2.2072895,0.016013256 L 8.7185884,-4.0017078 C 6.9730900,-1.6296469 6.9831476,1.6157441 8.7185878,4.0337352 z "
         transform="scale(1.1) rotate(180) translate(1,0)" />
    </marker>
    <marker
       inkscape:stockid="Arrow1Lstart"
       orient="auto"
       refY="0"
       refX="0"
       id="Arrow1Lstart-6"
       style="overflow:visible"
       inkscape:isstock="true">
      <path
         inkscape:connector-curvature="0"
         id="path4746-2"
         d="M 0,0 5,-5 -12.5,0 5,5 Z"
         style="fill:#000000;fill-opacity:1;fill-rule:evenodd;stroke:#000000;stroke-width:1.00000003pt;stroke-opacity:1"
         transform="matrix(0.8,0,0,0.8,10,0)" />
    </marker>
    <marker
       inkscape:stockid="Arrow1Lend"
       orient="auto"
       refY="0"
       refX="0"
       id="Arrow1Lend-9"
       style="overflow:visible"
       inkscape:isstock="true">
      <path
         inkscape:connector-curvature="0"
         id="path4749-1"
         d="M 0,0 5,-5 -12.5,0 5,5 Z"
         style="fill:#000000;fill-opacity:1;fill-rule:evenodd;stroke:#000000;stroke-width:1.00000003pt;stroke-opacity:1"
         transform="matrix(-0.8,0,0,-0.8,-10,0)" />
    </marker>
    <marker
       inkscape:stockid="Arrow1Lstart"
       orient="auto"
       refY="0"
       refX="0"
       id="Arrow1Lstart-3"
       style="overflow:visible"
       inkscape:isstock="true">
      <path
         inkscape:connector-curvature="0"
         id="path4746-6"
         d="M 0,0 5,-5 -12.5,0 5,5 Z"
         style="fill:#000000;fill-opacity:1;fill-rule:evenodd;stroke:#000000;stroke-width:1.00000003pt;stroke-opacity:1"
         transform="matrix(0.8,0,0,0.8,10,0)" />
    </marker>
    <marker
       inkscape:stockid="Arrow1Lend"
       orient="auto"
       refY="0"
       refX="0"
       id="Arrow1Lend-0"
       style="overflow:visible"
       inkscape:isstock="true">
      <path
         inkscape:connector-curvature="0"
         id="path4749-6"
         d="M 0,0 5,-5 -12.5,0 5,5 Z"
         style="fill:#000000;fill-opacity:1;fill-rule:evenodd;stroke:#000000;stroke-width:1.00000003pt;stroke-opacity:1"
         transform="matrix(-0.8,0,0,-0.8,-10,0)" />
    </marker>
    <marker
       inkscape:stockid="Arrow1Lstart"
       orient="auto"
       refY="0"
       refX="0"
       id="Arrow1Lstart-3-9"
       style="overflow:visible"
       inkscape:isstock="true">
      <path
         inkscape:connector-curvature="0"
         id="path4746-6-2"
         d="M 0,0 5,-5 -12.5,0 5,5 Z"
         style="fill:#000000;fill-opacity:1;fill-rule:evenodd;stroke:#000000;stroke-width:1.00000003pt;stroke-opacity:1"
         transform="matrix(0.8,0,0,0.8,10,0)" />
    </marker>
    <marker
       inkscape:stockid="Arrow1Lend"
       orient="auto"
       refY="0"
       refX="0"
       id="Arrow1Lend-0-0"
       style="overflow:visible"
       inkscape:isstock="true">
      <path
         inkscape:connector-curvature="0"
         id="path4749-6-2"
         d="M 0,0 5,-5 -12.5,0 5,5 Z"
         style="fill:#000000;fill-opacity:1;fill-rule:evenodd;stroke:#000000;stroke-width:1.00000003pt;stroke-opacity:1"
         transform="matrix(-0.8,0,0,-0.8,-10,0)" />
    </marker>
    <marker
       inkscape:stockid="Arrow1Lstart"
       orient="auto"
       refY="0"
       refX="0"
       id="Arrow1Lstart-3-2"
       style="overflow:visible"
       inkscape:isstock="true">
      <path
         inkscape:connector-curvature="0"
         id="path4746-6-28"
         d="M 0,0 5,-5 -12.5,0 5,5 Z"
         style="fill:#000000;fill-opacity:1;fill-rule:evenodd;stroke:#000000;stroke-width:1.00000003pt;stroke-opacity:1"
         transform="matrix(0.8,0,0,0.8,10,0)" />
    </marker>
    <marker
       inkscape:stockid="Arrow1Lend"
       orient="auto"
       refY="0"
       refX="0"
       id="Arrow1Lend-0-9"
       style="overflow:visible"
       inkscape:isstock="true">
      <path
         inkscape:connector-curvature="0"
         id="path4749-6-7"
         d="M 0,0 5,-5 -12.5,0 5,5 Z"
         style="fill:#000000;fill-opacity:1;fill-rule:evenodd;stroke:#000000;stroke-width:1.00000003pt;stroke-opacity:1"
         transform="matrix(-0.8,0,0,-0.8,-10,0)" />
    </marker>
  </defs>
  <g
     transform="translate(950.29209,-111.36608)"
     id="layer1">
    <g
       transform="translate(102.9475,2.840797)"
       id="g4284">
      <rect
         width="19.892416"
         height="119.42786"
         rx="0"
         ry="0"
         x="-892.98199"
         y="113.12368"
         id="rect4286"
         style="fill:#ffffff;stroke:#258ad8;stroke-width:3.51519346;stroke-linecap:square;stroke-linejoin:round;stroke-miterlimit:4;stroke-dasharray:none;stroke-opacity:1" />
      <path
         d="m -888.93012,125.56688 11.20733,0"
         id="path4288"
         style="fill:none;stroke:#258ad8;stroke-width:3;stroke-linecap:round;stroke-linejoin:miter;stroke-miterlimit:4;stroke-dasharray:none;stroke-opacity:1"
         inkscape:connector-curvature="0" />
      <path
         d="m -888.80277,218.35552 10.95262,0"
         id="path4290"
         style="fill:none;stroke:#258ad8;stroke-width:3;stroke-linecap:round;stroke-linejoin:miter;stroke-miterlimit:4;stroke-dasharray:none;stroke-opacity:1"
         inkscape:connector-curvature="0" />
    </g>
    <g
       id="g4563"
       transform="translate(201.45773,-1.8997202)">
      <rect
         style="fill:#ffffff;stroke:#258ad8;stroke-width:3.06141043;stroke-linecap:square;stroke-linejoin:round;stroke-miterlimit:4;stroke-dasharray:none;stroke-opacity:1"
         id="rect2844-1"
         y="143.31421"
         x="-931.11011"
         ry="0"
         rx="0"
         height="89.429794"
         width="22.24312" />
      <rect
         style="fill:none;stroke:#258ad8;stroke-width:4.85327721;stroke-linecap:square;stroke-linejoin:round;stroke-miterlimit:4;stroke-dasharray:none;stroke-opacity:1"
         id="rect3790"
         y="152.69035"
         x="-923.76196"
         ry="0.5"
         rx="0.49999997"
         height="71.081268"
         width="8.0391817" />
    </g>
    <rect
       width="14.259187"
       height="113.55029"
       rx="0"
       ry="0"
       x="-892.37146"
       y="119.26116"
       id="rect2844-7"
       style="fill:#ffffff;stroke:#258ad8;stroke-width:3.51519346;stroke-linecap:square;stroke-linejoin:round;stroke-miterlimit:4;stroke-dasharray:none;stroke-opacity:1" />
    <rect
       width="12.443138"
       height="111.24195"
       rx="0"
       ry="0"
       x="-660.34515"
       y="119.81741"
       id="rect2844-7-0"
       style="fill:#ffffff;stroke:#258ad8;stroke-width:3.21389127;stroke-linecap:square;stroke-linejoin:round;stroke-miterlimit:4;stroke-dasharray:none;stroke-opacity:1" />
    <rect
       width="11.545176"
       height="110.88537"
       rx="0"
       ry="0"
       x="-647.90204"
       y="119.81741"
       id="rect2844-7-0-9"
       style="fill:#ffffff;stroke:#258ad8;stroke-width:3.21389127;stroke-linecap:square;stroke-linejoin:round;stroke-miterlimit:4;stroke-dasharray:none;stroke-opacity:1" />
    <g
       id="g4568">
      <rect
         style="fill:#ffffff;stroke:#258ad8;stroke-width:3.0130229;stroke-linecap:square;stroke-linejoin:round;stroke-miterlimit:4;stroke-dasharray:none;stroke-opacity:1"
         id="rect2844"
         y="116.66273"
         x="-948.78558"
         ry="0"
         rx="0"
         height="116.17958"
         width="15.358693" />
      <path
         inkscape:connector-curvature="0"
         style="fill:none;stroke:#258ad8;stroke-width:1.9842751;stroke-linecap:round;stroke-linejoin:miter;stroke-miterlimit:4;stroke-dasharray:none;stroke-opacity:1"
         id="path3772"
         d="m -939.15193,127.8196 v 99.52658" />
      <path
         inkscape:connector-curvature="0"
         style="fill:none;stroke:#258ad8;stroke-width:1.97565687;stroke-linecap:round;stroke-linejoin:miter;stroke-miterlimit:4;stroke-dasharray:none;stroke-opacity:1"
         id="path3774"
         d="M -944.21141,128.10775 V 225.7972" />
    </g>
    <g
       id="g4573"
       transform="translate(126.98214,2.840797)">
      <rect
         style="fill:#ffffff;stroke:#258ad8;stroke-width:3.51519346;stroke-linecap:square;stroke-linejoin:round;stroke-miterlimit:4;stroke-dasharray:none;stroke-opacity:1"
         id="rect2844-7-4"
         y="113.12368"
         x="-892.98199"
         ry="0"
         rx="0"
         height="119.42786"
         width="19.892416" />
      <path
         inkscape:connector-curvature="0"
         style="fill:none;stroke:#258ad8;stroke-width:3;stroke-linecap:round;stroke-linejoin:miter;stroke-miterlimit:4;stroke-dasharray:none;stroke-opacity:1"
         id="path3780"
         d="m -888.93012,125.56688 h 11.20733" />
      <path
         inkscape:connector-curvature="0"
         style="fill:none;stroke:#258ad8;stroke-width:3;stroke-linecap:round;stroke-linejoin:miter;stroke-miterlimit:4;stroke-dasharray:none;stroke-opacity:1"
         id="path3782"
         d="m -888.80277,218.35552 h 10.95262" />
    </g>
    <g
       id="g4586"
       transform="translate(7.0234114,2.3411371)">
      <rect
         style="fill:#ffffff;stroke:#258ad8;stroke-width:3.51519346;stroke-linecap:square;stroke-linejoin:round;stroke-miterlimit:4;stroke-dasharray:none;stroke-opacity:1"
         id="rect2844-7-8"
         y="127.01207"
         x="-820.45801"
         ry="0"
         rx="0"
         height="105.69365"
         width="19.408279" />
      <path
         inkscape:connector-curvature="0"
         style="fill:none;stroke:#258ad8;stroke-width:3.17179918;stroke-linecap:round;stroke-linejoin:round;stroke-miterlimit:4;stroke-dasharray:none;stroke-opacity:1"
         id="path3786"
         d="m -817.18708,142.75076 h 8.69732" />
      <path
         inkscape:connector-curvature="0"
         style="fill:none;stroke:#258ad8;stroke-width:3.17179918;stroke-linecap:round;stroke-linejoin:miter;stroke-miterlimit:4;stroke-dasharray:none;stroke-opacity:1"
         id="path3788"
         d="m -817.18708,149.08069 h 11.39647" />
      <path
         inkscape:connector-curvature="0"
         style="fill:none;stroke:#258ad8;stroke-width:3.17179918;stroke-linecap:round;stroke-linejoin:miter;stroke-miterlimit:4;stroke-dasharray:none;stroke-opacity:1"
         id="path3786-8"
         d="m -817.18708,218.07696 h 8.69732" />
      <path
         inkscape:connector-curvature="0"
         style="fill:none;stroke:#258ad8;stroke-width:3.17179918;stroke-linecap:round;stroke-linejoin:miter;stroke-miterlimit:4;stroke-dasharray:none;stroke-opacity:1"
         id="path3788-2"
         d="m -817.18708,211.74702 h 11.39647" />
    </g>
    <g
       id="g4579"
       transform="translate(4.3478261,1.0033445)">
      <rect
         style="fill:#ffffff;stroke:#258ad8;stroke-width:4.51953459;stroke-linecap:square;stroke-linejoin:round;stroke-miterlimit:4;stroke-dasharray:none;stroke-opacity:1"
         id="rect2844-4"
         y="114.29224"
         x="-844.10077"
         ry="0"
         rx="0"
         height="118.11201"
         width="22.922926" />
      <path
         inkscape:connector-curvature="0"
         style="fill:none;stroke:#258ad8;stroke-width:3;stroke-linecap:round;stroke-linejoin:miter;stroke-miterlimit:4;stroke-dasharray:none;stroke-opacity:1"
         id="path3784"
         d="m -833.14783,157.02392 v 60.1094" />
      <path
         inkscape:connector-curvature="0"
         style="color:#000000;font-style:normal;font-variant:normal;font-weight:normal;font-stretch:normal;font-size:medium;line-height:normal;font-family:'Bitstream Vera Sans';-inkscape-font-specification:'Bitstream Vera Sans';text-indent:0;text-align:start;text-decoration:none;text-decoration-line:none;letter-spacing:normal;word-spacing:normal;text-transform:none;writing-mode:lr-tb;direction:ltr;text-anchor:start;display:inline;overflow:visible;visibility:visible;fill:#258ad8;fill-opacity:1;stroke:none;stroke-width:3;marker:none;enable-background:accumulate"
         id="rect3825"
         d="m -833.14784,129.44387 c -1.38979,0 -2.55529,0.83262 -3.27799,1.88746 -0.72268,1.05482 -1.10315,2.39885 -1.10315,3.83782 v 9.78329 c 0,1.43897 0.38047,2.783 1.10315,3.83782 0.7227,1.05484 1.8882,1.88746 3.27799,1.88746 1.38978,0 2.55529,-0.83262 3.27797,-1.88746 0.72269,-1.05482 1.10318,-2.39885 1.10318,-3.83782 v -9.78329 c 0,-1.43897 -0.38049,-2.783 -1.10318,-3.83782 -0.72268,-1.05484 -1.88819,-1.88746 -3.27797,-1.88746 z m 0,3.01993 c 0.20228,0 0.47179,0.10474 0.78797,0.56623 0.31619,0.4615 0.56734,1.25429 0.56734,2.13912 v 3.42886 h 1.82811 v 2.92557 h -1.82811 v 3.42886 c 0,0.88483 -0.25115,1.64617 -0.56734,2.10766 -0.31618,0.46149 -0.58569,0.59769 -0.78797,0.59769 -0.20229,0 -0.4718,-0.1362 -0.78797,-0.59769 -0.3162,-0.46149 -0.56736,-1.22283 -0.56736,-2.10766 v -9.78329 c 0,-0.88483 0.25116,-1.67762 0.56736,-2.13912 0.31617,-0.46149 0.58568,-0.56623 0.78797,-0.56623 z" />
      <path
         inkscape:connector-curvature="0"
         style="color:#000000;font-style:normal;font-variant:normal;font-weight:normal;font-stretch:normal;font-size:medium;line-height:normal;font-family:'Bitstream Vera Sans';-inkscape-font-specification:'Bitstream Vera Sans';text-indent:0;text-align:start;text-decoration:none;text-decoration-line:none;letter-spacing:normal;word-spacing:normal;text-transform:none;writing-mode:lr-tb;direction:ltr;text-anchor:start;display:inline;overflow:visible;visibility:visible;fill:#258ad8;fill-opacity:1;stroke:none;stroke-width:3;marker:none;enable-background:accumulate"
         id="path3827"
         d="m -830.78651,138.53511 v 3.01991 h 2.75116 v -3.01991 z" />
    </g>
    <rect
       style="fill:none;stroke:#258ad8;stroke-width:3.75136948;stroke-linecap:square;stroke-linejoin:round;stroke-miterlimit:4;stroke-dasharray:none;stroke-opacity:1"
       id="rect3867"
       y="233.48232"
       x="-948.41638"
       height="1.8256032"
       width="324.86072" />
    <rect
       width="11.545176"
       height="110.88537"
       rx="0"
       ry="0"
       x="-636.35687"
       y="119.81741"
       id="rect2844-7-0-9-6"
       style="fill:#ffffff;stroke:#258ad8;stroke-width:3.21389127;stroke-linecap:square;stroke-linejoin:round;stroke-miterlimit:4;stroke-dasharray:none;stroke-opacity:1" />
    <g
       transform="translate(271.0817,-1.782964)"
       id="g4568-7">
      <rect
         style="fill:#ffffff;stroke:#258ad8;stroke-width:3.0130229;stroke-linecap:square;stroke-linejoin:round;stroke-miterlimit:4;stroke-dasharray:none;stroke-opacity:1"
         id="rect2844-5"
         y="116.66273"
         x="-948.78558"
         ry="0"
         rx="0"
         height="116.17958"
         width="15.358693" />
      <path
         inkscape:connector-curvature="0"
         style="fill:none;stroke:#258ad8;stroke-width:1.9842751;stroke-linecap:round;stroke-linejoin:miter;stroke-miterlimit:4;stroke-dasharray:none;stroke-opacity:1"
         id="path3772-3"
         d="m -939.15193,127.8196 v 99.52658" />
      <path
         inkscape:connector-curvature="0"
         style="fill:none;stroke:#258ad8;stroke-width:1.97565687;stroke-linecap:round;stroke-linejoin:miter;stroke-miterlimit:4;stroke-dasharray:none;stroke-opacity:1"
         id="path3774-5"
         d="M -944.21141,128.10775 V 225.7972" />
    </g>
    <text
       xml:space="preserve"
       style="font-style:normal;font-weight:normal;font-size:12.5px;line-height:125%;font-family:sans-serif;letter-spacing:0px;word-spacing:0px;fill:#000000;fill-opacity:1;stroke:none;stroke-width:1px;stroke-linecap:butt;stroke-linejoin:miter;stroke-opacity:1"
       x="-783.47424"
       y="126.27553"
       id="text4292"
       sodipodi:linespacing="125%"><tspan
         sodipodi:role="line"
         id="tspan4294"
         x="-783.47424"
         y="126.27553"
         style="font-size:8.75px">3</tspan></text>
    <g
       transform="matrix(1.3885256,0,0,0.99332591,243.0023,2.1602857)"
       id="g4283">
      <rect
         width="22.922926"
         height="118.11201"
         rx="0"
         ry="0"
         x="-844.10077"
         y="114.29224"
         id="rect4285"
         style="fill:#ffffff;stroke:#258ad8;stroke-width:4.51953459;stroke-linecap:square;stroke-linejoin:round;stroke-miterlimit:4;stroke-dasharray:none;stroke-opacity:1" />
      <path
         d="m -833.14783,157.02392 0,60.1094"
         id="path4287"
         style="fill:none;stroke:#258ad8;stroke-width:3;stroke-linecap:round;stroke-linejoin:miter;stroke-miterlimit:4;stroke-dasharray:none;stroke-opacity:1"
         inkscape:connector-curvature="0" />
      <path
         d="m -833.14784,129.44387 c -1.38979,0 -2.55529,0.83262 -3.27799,1.88746 -0.72268,1.05482 -1.10315,2.39885 -1.10315,3.83782 l 0,9.78329 c 0,1.43897 0.38047,2.783 1.10315,3.83782 0.7227,1.05484 1.8882,1.88746 3.27799,1.88746 1.38978,0 2.55529,-0.83262 3.27797,-1.88746 0.72269,-1.05482 1.10318,-2.39885 1.10318,-3.83782 l 0,-9.78329 c 0,-1.43897 -0.38049,-2.783 -1.10318,-3.83782 -0.72268,-1.05484 -1.88819,-1.88746 -3.27797,-1.88746 z m 0,3.01993 c 0.20228,0 0.47179,0.10474 0.78797,0.56623 0.31619,0.4615 0.56734,1.25429 0.56734,2.13912 l 0,3.42886 1.82811,0 0,2.92557 -1.82811,0 0,3.42886 c 0,0.88483 -0.25115,1.64617 -0.56734,2.10766 -0.31618,0.46149 -0.58569,0.59769 -0.78797,0.59769 -0.20229,0 -0.4718,-0.1362 -0.78797,-0.59769 -0.3162,-0.46149 -0.56736,-1.22283 -0.56736,-2.10766 l 0,-9.78329 c 0,-0.88483 0.25116,-1.67762 0.56736,-2.13912 0.31617,-0.46149 0.58568,-0.56623 0.78797,-0.56623 z"
         id="path4289"
         style="color:#000000;font-style:normal;font-variant:normal;font-weight:normal;font-stretch:normal;font-size:medium;line-height:normal;font-family:'Bitstream Vera Sans';-inkscape-font-specification:'Bitstream Vera Sans';text-indent:0;text-align:start;text-decoration:none;text-decoration-line:none;letter-spacing:normal;word-spacing:normal;text-transform:none;direction:ltr;writing-mode:lr-tb;text-anchor:start;display:inline;overflow:visible;visibility:visible;fill:#258ad8;fill-opacity:1;stroke:none;stroke-width:3;marker:none;enable-background:accumulate"
         inkscape:connector-curvature="0" />
      <path
         d="m -830.78651,138.53511 0,3.01991 2.75116,0 0,-3.01991 z"
         id="path4291"
         style="color:#000000;font-style:normal;font-variant:normal;font-weight:normal;font-stretch:normal;font-size:medium;line-height:normal;font-family:'Bitstream Vera Sans';-inkscape-font-specification:'Bitstream Vera Sans';text-indent:0;text-align:start;text-decoration:none;text-decoration-line:none;letter-spacing:normal;word-spacing:normal;text-transform:none;direction:ltr;writing-mode:lr-tb;text-anchor:start;display:inline;overflow:visible;visibility:visible;fill:#258ad8;fill-opacity:1;stroke:none;stroke-width:3;marker:none;enable-background:accumulate"
         inkscape:connector-curvature="0" />
    </g>
    <text
       sodipodi:linespacing="125%"
       id="text4293"
       y="126.27553"
       x="-916.97437"
       style="font-style:normal;font-weight:normal;font-size:12.5px;line-height:125%;font-family:sans-serif;letter-spacing:0px;word-spacing:0px;fill:#000000;fill-opacity:1;stroke:none;stroke-width:1px;stroke-linecap:butt;stroke-linejoin:miter;stroke-opacity:1"
       xml:space="preserve"><tspan
         style="font-size:8.75px"
         y="126.27553"
         x="-916.97437"
         id="tspan4295"
         sodipodi:role="line">1</tspan></text>
    <rect
       style="fill:#ffffff;stroke:#258ad8;stroke-width:3.21389127;stroke-linecap:square;stroke-linejoin:round;stroke-miterlimit:4;stroke-dasharray:none;stroke-opacity:1"
       id="rect4265"
       y="119.81741"
       x="-744.34515"
       ry="0"
       rx="0"
       height="111.24195"
       width="12.443138" />
    <rect
       style="fill:#ffffff;stroke:#258ad8;stroke-width:3.21389127;stroke-linecap:square;stroke-linejoin:round;stroke-miterlimit:4;stroke-dasharray:none;stroke-opacity:1"
       id="rect4267"
       y="119.81741"
       x="-704.34515"
       ry="0"
       rx="0"
       height="111.24195"
       width="12.443138" />
    <g
       id="g4269"
       transform="matrix(1.3885256,0,0,0.99332591,297.0023,2.1602857)">
      <rect
         style="fill:#ffffff;stroke:#258ad8;stroke-width:4.51953459;stroke-linecap:square;stroke-linejoin:round;stroke-miterlimit:4;stroke-dasharray:none;stroke-opacity:1"
         id="rect4271"
         y="114.29224"
         x="-844.10077"
         ry="0"
         rx="0"
         height="118.11201"
         width="22.922926" />
      <path
         inkscape:connector-curvature="0"
         style="fill:none;stroke:#258ad8;stroke-width:3;stroke-linecap:round;stroke-linejoin:miter;stroke-miterlimit:4;stroke-dasharray:none;stroke-opacity:1"
         id="path4273"
         d="m -833.14783,157.02392 0,60.1094" />
      <path
         inkscape:connector-curvature="0"
         style="color:#000000;font-style:normal;font-variant:normal;font-weight:normal;font-stretch:normal;font-size:medium;line-height:normal;font-family:'Bitstream Vera Sans';-inkscape-font-specification:'Bitstream Vera Sans';text-indent:0;text-align:start;text-decoration:none;text-decoration-line:none;letter-spacing:normal;word-spacing:normal;text-transform:none;direction:ltr;writing-mode:lr-tb;text-anchor:start;display:inline;overflow:visible;visibility:visible;fill:#258ad8;fill-opacity:1;stroke:none;stroke-width:3;marker:none;enable-background:accumulate"
         id="path4275"
         d="m -833.14784,129.44387 c -1.38979,0 -2.55529,0.83262 -3.27799,1.88746 -0.72268,1.05482 -1.10315,2.39885 -1.10315,3.83782 l 0,9.78329 c 0,1.43897 0.38047,2.783 1.10315,3.83782 0.7227,1.05484 1.8882,1.88746 3.27799,1.88746 1.38978,0 2.55529,-0.83262 3.27797,-1.88746 0.72269,-1.05482 1.10318,-2.39885 1.10318,-3.83782 l 0,-9.78329 c 0,-1.43897 -0.38049,-2.783 -1.10318,-3.83782 -0.72268,-1.05484 -1.88819,-1.88746 -3.27797,-1.88746 z m 0,3.01993 c 0.20228,0 0.47179,0.10474 0.78797,0.56623 0.31619,0.4615 0.56734,1.25429 0.56734,2.13912 l 0,3.42886 1.82811,0 0,2.92557 -1.82811,0 0,3.42886 c 0,0.88483 -0.25115,1.64617 -0.56734,2.10766 -0.31618,0.46149 -0.58569,0.59769 -0.78797,0.59769 -0.20229,0 -0.4718,-0.1362 -0.78797,-0.59769 -0.3162,-0.46149 -0.56736,-1.22283 -0.56736,-2.10766 l 0,-9.78329 c 0,-0.88483 0.25116,-1.67762 0.56736,-2.13912 0.31617,-0.46149 0.58568,-0.56623 0.78797,-0.56623 z" />
      <path
         inkscape:connector-curvature="0"
         style="color:#000000;font-style:normal;font-variant:normal;font-weight:normal;font-stretch:normal;font-size:medium;line-height:normal;font-family:'Bitstream Vera Sans';-inkscape-font-specification:'Bitstream Vera Sans';text-indent:0;text-align:start;text-decoration:none;text-decoration-line:none;letter-spacing:normal;word-spacing:normal;text-transform:none;direction:ltr;writing-mode:lr-tb;text-anchor:start;display:inline;overflow:visible;visibility:visible;fill:#258ad8;fill-opacity:1;stroke:none;stroke-width:3;marker:none;enable-background:accumulate"
         id="path4277"
         d="m -830.78651,138.53511 0,3.01991 2.75116,0 0,-3.01991 z" />
    </g>
    <text
       xml:space="preserve"
       style="font-style:normal;font-weight:normal;font-size:12.5px;line-height:125%;font-family:sans-serif;letter-spacing:0px;word-spacing:0px;fill:#000000;fill-opacity:1;stroke:none;stroke-width:1px;stroke-linecap:butt;stroke-linejoin:miter;stroke-opacity:1"
       x="-862.97437"
       y="126.27553"
       id="text4279"
       sodipodi:linespacing="125%"><tspan
         sodipodi:role="line"
         id="tspan4281"
         x="-862.97437"
         y="126.27553"
         style="font-size:8.75px">2</tspan></text>
    <text
       sodipodi:linespacing="125%"
       id="text4283"
       y="130.27553"
       x="-741.47424"
       style="font-style:normal;font-weight:normal;font-size:12.5px;line-height:125%;font-family:sans-serif;letter-spacing:0px;word-spacing:0px;fill:#000000;fill-opacity:1;stroke:none;stroke-width:1px;stroke-linecap:butt;stroke-linejoin:miter;stroke-opacity:1"
       xml:space="preserve"><tspan
         style="font-size:8.75px"
         y="130.27553"
         x="-741.47424"
         id="tspan4285"
         sodipodi:role="line">4</tspan></text>
    <text
       xml:space="preserve"
       style="font-style:normal;font-weight:normal;font-size:12.5px;line-height:125%;font-family:sans-serif;letter-spacing:0px;word-spacing:0px;fill:#000000;fill-opacity:1;stroke:none;stroke-width:1px;stroke-linecap:butt;stroke-linejoin:miter;stroke-opacity:1"
       x="-701.47424"
       y="130.27553"
       id="text4287"
       sodipodi:linespacing="125%"><tspan
         sodipodi:role="line"
         id="tspan4289"
         x="-701.47424"
         y="130.27553"
         style="font-size:8.75px">5</tspan></text>
  </g>
</svg>
