<?xml version="1.0" encoding="UTF-8" standalone="no"?>
<!-- Created with Inkscape (http://www.inkscape.org/) -->

<svg
   xmlns:dc="http://purl.org/dc/elements/1.1/"
   xmlns:cc="http://creativecommons.org/ns#"
   xmlns:rdf="http://www.w3.org/1999/02/22-rdf-syntax-ns#"
   xmlns:svg="http://www.w3.org/2000/svg"
   xmlns="http://www.w3.org/2000/svg"
   xmlns:sodipodi="http://sodipodi.sourceforge.net/DTD/sodipodi-0.dtd"
   xmlns:inkscape="http://www.inkscape.org/namespaces/inkscape"
   width="41.272533mm"
   height="47.744797mm"
   viewBox="0 0 41.272535 47.744797"
   version="1.1"
   id="svg8"
   inkscape:version="0.91 r13725"
   sodipodi:docname="bracket1.svg">
  <defs
     id="defs2" />
  <sodipodi:namedview
     id="base"
     pagecolor="#ffffff"
     bordercolor="#666666"
     borderopacity="1.0"
     inkscape:pageopacity="0.0"
     inkscape:pageshadow="2"
     inkscape:zoom="0.64"
     inkscape:cx="52.865412"
     inkscape:cy="171.1999"
     inkscape:document-units="mm"
     inkscape:current-layer="layer1"
     showgrid="true"
     fit-margin-top="0"
     fit-margin-left="0"
     fit-margin-right="0"
     fit-margin-bottom="0"
     inkscape:window-width="719"
     inkscape:window-height="658"
     inkscape:window-x="939"
     inkscape:window-y="89"
     inkscape:window-maximized="0"
     objecttolerance="10000"
     guidetolerance="10000"
     inkscape:snap-perpendicular="false"
     inkscape:snap-tangential="false"
     inkscape:snap-others="false">
    <inkscape:grid
       type="xygrid"
       id="grid4792"
       dotted="false"
       originx="138.04158"
       originy="-243.6764" />
  </sodipodi:namedview>
  <metadata
     id="metadata5">
    <rdf:RDF>
      <cc:Work
         rdf:about="">
        <dc:format>image/svg+xml</dc:format>
        <dc:type
           rdf:resource="http://purl.org/dc/dcmitype/StillImage" />
        <dc:title></dc:title>
      </cc:Work>
    </rdf:RDF>
  </metadata>
  <g
     inkscape:label="Ebene 1"
     inkscape:groupmode="layer"
     id="layer1"
     transform="translate(348.19077,317.27402)">
    <path
       id="path4815"
       d="m -334.98779,-269.52955 c -2.58816,0 -4.9112,-1.905 -6.98553,-3.60574 -0.0937,-0.0775 -0.18891,-0.15452 -0.28258,-0.23204 -0.13229,0.20849 -0.27172,0.39978 -0.41671,0.57308 -1.06813,1.27873 -2.56329,1.83251 -3.87853,1.44383 -0.90197,-0.26458 -1.50786,-1.01044 -1.62057,-1.99654 -0.13944,-1.21021 0.49741,-2.46883 1.54807,-3.06202 0.61807,-0.34952 1.82219,-0.71941 3.49197,0.17383 0.0847,-0.821 -0.0442,-1.75578 -0.53128,-2.72865 -1.87484,-3.74703 -4.3905,-10.4185 -1.09458,-14.43752 -3.29618,-4.01955 -0.78052,-10.69128 1.09458,-14.43752 0.48736,-0.9734 0.61621,-1.90738 0.53128,-2.72838 -1.66634,0.89085 -2.87073,0.5244 -3.49197,0.17409 -1.05039,-0.5924 -1.68566,-1.85128 -1.54807,-3.06043 0.11271,-0.9861 0.71834,-1.73276 1.62057,-1.9976 1.31524,-0.38656 2.8104,0.16404 3.87853,1.4433 0.14499,0.17198 0.28442,0.36353 0.41671,0.57203 0.0937,-0.0759 0.18548,-0.15267 0.28073,-0.2294 2.31087,-1.89627 4.9485,-4.04204 7.87929,-3.53271 1.04325,0.18203 1.85552,0.67706 2.41326,1.4732 1.075,1.5367 0.74851,3.58642 0.70776,3.81502 -0.0863,0.48895 -0.54901,0.81122 -1.0451,0.72999 -0.49054,-0.0855 -0.81915,-0.55325 -0.73448,-1.04405 0.0495,-0.28972 0.42201,-2.83183 -1.65048,-3.19272 -2.13809,-0.3736 -4.31667,1.41763 -6.42434,3.14854 -0.22966,0.18785 -0.45562,0.37438 -0.67972,0.55536 0.35481,1.34514 0.31433,2.97921 -0.53684,4.68286 -1.75657,3.5089 -4.20317,9.8589 -0.85804,12.9667 0.18547,0.17039 0.28945,0.41063 0.28945,0.66199 0,0.25188 -0.10398,0.49159 -0.28945,0.66198 -3.34539,3.10727 -0.89853,9.45727 0.85804,12.96697 0.85117,1.70286 0.89165,3.33745 0.53684,4.6818 0.2241,0.18256 0.45191,0.36909 0.68316,0.55774 2.1082,1.73011 4.29709,3.51499 6.42249,3.1451 2.0709,-0.35904 1.6981,-2.90142 1.64889,-3.19087 -0.0847,-0.4908 0.24368,-0.95859 0.73448,-1.04431 0.49609,-0.0831 0.95885,0.24077 1.0451,0.72972 0.0408,0.22886 0.36724,2.27938 -0.70961,3.81608 -0.55774,0.79534 -1.36816,1.28985 -2.41141,1.47056 -0.3003,0.0521 -0.5969,0.0767 -0.89191,0.0767 z m -10.14757,-5.45333 c -0.22225,0 -0.42359,0.0484 -0.60007,0.14817 -0.48048,0.27093 -0.68871,0.86254 -0.64109,1.28084 0.0442,0.38312 0.254,0.44477 0.33364,0.46779 0.62865,0.18706 1.38245,-0.14843 1.98438,-0.86836 0.12726,-0.15293 0.25082,-0.32676 0.36221,-0.52018 -0.53499,-0.33628 -1.02394,-0.50826 -1.43907,-0.50826 z m -0.55589,-38.78342 c -0.12012,0 -0.23839,0.0167 -0.35163,0.0495 -0.0794,0.0238 -0.28945,0.0855 -0.33364,0.46858 -0.0476,0.41857 0.16061,1.00886 0.64109,1.27979 0.50641,0.2876 1.21788,0.15795 2.03914,-0.3601 -0.11139,-0.19315 -0.23495,-0.36724 -0.36221,-0.52096 -0.49213,-0.58659 -1.08903,-0.91679 -1.63275,-0.91678 z"
       inkscape:connector-curvature="0"
       style="fill:#666666;stroke-width:0.26458332" />
    <path
       id="path4817"
       d="m -320.12174,-269.52922 c -0.29475,0 -0.59161,-0.0246 -0.89165,-0.077 -1.04325,-0.18097 -1.85367,-0.67521 -2.40956,-1.47055 -1.07711,-1.5367 -0.75062,-3.58722 -0.70987,-3.81609 0.0865,-0.48895 0.54398,-0.8128 1.0451,-0.72972 0.49107,0.0857 0.81915,0.55325 0.73448,1.04431 -0.0495,0.28946 -0.42174,2.83263 1.64757,3.19088 2.11984,0.36962 4.3127,-1.41394 6.42064,-3.14246 0.23124,-0.1897 0.4609,-0.37677 0.68659,-0.56039 -0.35454,-1.34461 -0.31591,-2.97815 0.53684,-4.6818 1.75498,-3.5097 4.20026,-9.86155 0.85646,-12.96696 -0.18547,-0.17039 -0.28946,-0.41037 -0.28946,-0.66199 0,-0.25135 0.10399,-0.4916 0.28946,-0.66199 3.34539,-3.107 0.89852,-9.45726 -0.85646,-12.9667 -0.85063,-1.70365 -0.89138,-3.33851 -0.53684,-4.68286 -0.22569,-0.18204 -0.45349,-0.3691 -0.68315,-0.55774 -2.10952,-1.72932 -4.30398,-3.52028 -6.42382,-3.14616 -0.55827,0.0971 -0.96229,0.33549 -1.23746,0.72813 -0.65854,0.94033 -0.41142,2.44607 -0.40984,2.46089 0.0881,0.49159 -0.23997,0.96123 -0.73078,1.04881 -0.48021,0.0873 -0.96228,-0.23919 -1.0488,-0.73105 -0.0408,-0.2286 -0.36725,-2.27832 0.70802,-3.81582 0.55774,-0.79533 1.36816,-1.29063 2.40983,-1.4724 2.95672,-0.50933 5.56789,1.63406 7.87876,3.52901 0.0955,0.0786 0.18891,0.1561 0.28416,0.2331 0.13071,-0.20849 0.27014,-0.39979 0.41513,-0.57203 1.06945,-1.27979 2.55085,-1.83356 3.88012,-1.4433 0.90249,0.26458 1.5076,1.0115 1.61899,1.9976 0.13943,1.20994 -0.49769,2.46883 -1.54835,3.06096 -0.62151,0.34767 -1.82007,0.71597 -3.49197,-0.17489 -0.0831,0.82101 0.046,1.75499 0.53314,2.72839 1.87483,3.74729 4.38891,10.41876 1.09272,14.43752 3.29407,4.01822 0.78053,10.68943 -1.09272,14.43752 -0.4871,0.97287 -0.61648,1.90764 -0.53314,2.72864 1.6719,-0.89164 2.87046,-0.52361 3.49197,-0.17383 1.05066,0.59214 1.68778,1.85182 1.54835,3.06202 -0.11298,0.98611 -0.71862,1.7317 -1.61899,1.99655 -1.32213,0.38418 -2.81041,-0.16563 -3.88012,-1.44489 -0.14499,-0.17198 -0.28442,-0.36354 -0.41513,-0.57097 -0.095,0.0775 -0.1905,0.1561 -0.2876,0.23495 -2.07328,1.69889 -4.39447,3.6023 -6.98262,3.6023 z m 8.71035,-4.944 c 0.11139,0.19235 0.2331,0.36618 0.36195,0.51911 0.59849,0.71834 1.35758,1.05489 1.98437,0.86836 0.0794,-0.023 0.28787,-0.0839 0.33179,-0.46699 0.0476,-0.4191 -0.16034,-1.0107 -0.64082,-1.2819 -0.50482,-0.28311 -1.21788,-0.15611 -2.03729,0.36142 z m 0,-37.85553 c 0.81597,0.51435 1.52559,0.64612 2.03729,0.36195 0.48022,-0.27093 0.68845,-0.86227 0.64082,-1.28084 -0.0439,-0.38312 -0.254,-0.44503 -0.33179,-0.46805 -0.62679,-0.18812 -1.38588,0.15002 -1.98437,0.86677 -0.12885,0.15373 -0.25056,0.32782 -0.36195,0.52017 z"
       inkscape:connector-curvature="0"
       style="fill:#666666;stroke-width:0.26458332" />
  </g>
</svg>
