Nimi,Kool,Klass,Punkte,Lisainfo
Ants Kärner,Tallinna Reaalkool,11,37,
Argo Silver Sepp,Tallinna Tehnikagümnaasium,12,37,
Andres Alumets,Pärnu Koidula Gümnaasium,12,33,
Andres Sõmer,Hugo Treffneri Gümnaasium,12,33,
Martin Rahe,Tallinna Reaalkool,12,33,
Mattias Siilbek,Tallinna Reaalkool,11,33,
Peeter Aleksander Randla,Tallinna Reaalkool,11,33,
Priit Peterson,Tallinna Reaalkool,12,33,
Anette Hendrikson,Hugo Treffneri Gümnaasium,11,30,
Birgit Veldi,Tallinna Reaalkool,11,30,
Grete Olde,Tallinna Reaalkool,12,29,
Hannes Sidorov,Hugo Treffneri Gümnaasium,11,29,
Kermo Kütsen,Gustav Adolfi Gümnaasium,12,29,
Oskar Tiidemann,Gustav Adolfi Gümnaasium,11,29,
Ralf Joosep Kask,Tallinna Reaalkool,11,29,
Annika Prillop,Hugo Treffneri Gümnaasium,11,28,
Marko Tsengov,Tallinna Reaalkool,11,27,
Anitra Lukjanov,Tallinna Reaalkool,12,26,
Aleksei Juzar,Narva Keeltelütseum,11,25,
Andreas Laksberg,Tallinna Reaalkool,12,25,
Argo Merilo,Tallinna Reaalkool,12,25,
Asmus Soodla,Gustav Adolfi Gümnaasium,11,25,
Erik Heinvee,Tallinna Reaalkool,12,25,
Eva-Lotta Mett,Tallinna Reaalkool,12,25,
Hannes Hirmat,Tallinna Reaalkool,12,25,
Hans Rahi,Tallinna Reaalkool,11,25,
Kaarel Kristjan Katmuk,Tallinna Reaalkool,12,25,
Karmo Saviauk,Tallinna Reaalkool,12,25,
Linda Marie Zimmer,Tallinna Reaalkool,11,25,
Maksim Volotšinkov,Narva Keeltelütseum,11,25,
Marten Rannut,Tallinna Reaalkool,11,25,
Martin Hans Keskküla,Tallinna Reaalkool,12,25,
Mattias Moor,Tallinna Reaalkool,11,25,
Mihkel Aaremäe,Tallinna Reaalkool,12,25,
Mihkel Jaas Karu,Gustav Adolfi Gümnaasium,12,25,
Märten Tropp,Tallinna Reaalkool,11,25,
Paul Nurk,Tallinna Reaalkool,11,25,
Richard Friedrichs,Gustav Adolfi Gümnaasium,12,25,
Siim Tiivel,Tallinna Reaalkool,11,25,
Артур Архипов,Narva Keeltelütseum,11,25,
Martin Ottas,Hugo Treffneri Gümnaasium,11,24,
Uku Tonsiver,Tallinna Reaalkool,12,24,
Elisa Marie Hurt,Tallinna Reaalkool,11,23,
Hanno Remmelg,Gustav Adolfi Gümnaasium,11,23,
Kaarel Tamuri,Tallinna Reaalkool,12,23,
Mirttel Tovstsik,Vinni-Pajusti Gümnaasium,11,23,
Erik Joonatan Tepp,Tallinna Reaalkool,11,21,
Hanna Eliise Kitter,Tallinna Reaalkool,11,21,
Jan Halin,Tallinna 53. Keskkool,11,21,
Jekaterina Lavrinjova,Sakala Eragümnaasium,11,21,
Karl Erik Valdisoo,Hugo Treffneri Gümnaasium,11,21,
Karl Mell,Tallinna Reaalkool,12,21,
Laur Mehis Tammela,Tartu Waldorfgümnaasium,11,21,
Mihkel Jesse,Tallinna Reaalkool,11,21,
Triine Teder,Tallinna Reaalkool,12,21,
Virmo Papagoi,Tõrva Gümnaasium,12,21,
Gioia Pucci,Sakala Eragümnaasium,11,20,
Saskia Sova,Gustav Adolfi Gümnaasium,11,20,
Taavi Karjel,Tallinna Reaalkool,12,19,
Calista Krass,Gustav Adolfi Gümnaasium,12,18,
Erki Elbrecht,Tallinna Reaalkool,11,18,
Lisette Pihor,Hugo Treffneri Gümnaasium,11,18,
Markus Randma,Tallinna Reaalkool,12,18,
Adel Müürsepp,Tallinna Reaalkool,12,17,
Andres Nirgi,Vinni-Pajusti Gümnaasium,12,17,
Daniil Safajev,Tallinna 53. Keskkool,11,17,
Emma Oper,Tallinna Reaalkool,11,17,
Indrek Paljak,Tallinna Reaalkool,11,17,
Ivan Pokrovski,Sillamäe Gümnaasium,12,17,
Karina Ignatjeva,Sillamäe Gümnaasium,11,17,
Kaur Reidma,Tallinna Reaalkool,12,17,
Ksenija Mamontova,Tallinna 53. Keskkool,12,17,
Lars Tristan Lepik,Gustav Adolfi Gümnaasium,12,17,
Laura Anikina,Sakala Eragümnaasium,12,17,
Liisa Helena Timmerman,Tartu Waldorfgümnaasium,12,17,
Mariliis Jürgens,Tallinna Laagna Gümnaasium,11,17,
Mark Kritski,Tallinna Juudi Kool,12,17,
Oliver-Markus Vulf,Hugo Treffneri Gümnaasium,11,17,
Rait Roland Rodi,Hugo Treffneri Gümnaasium,11,17,
Richard Hussar,Tartu Waldorfgümnaasium,12,17,
Sergei Petrogradov,Tallinna 53. Keskkool,11,17,
Sten Kaarel Marvet,Gustav Adolfi Gümnaasium,12,17,
Tormi Tulvik,Tallinna Reaalkool,11,17,
Арсений Конев,Tallinna 53. Keskkool,11,17,
Adeele Must,Tallinna Reaalkool,11,16,
Karl Erik Peterson,Hugo Treffneri Gümnaasium,11,16,
Kirill Ognjov,Narva Keeltelütseum,11,16,
Kirke Männik,Saku Gümnaasium,11,16,
Richard Jõgi,Tartu Tamme Gümnaasium,12,16,
Anastassija Devadze,Narva Keeltelütseum,11,15,
Anna Pauliina Rumm,Tallinna Reaalkool,12,15,
Dana Fedotova,Ehte Humanitaargümnaasium,11,15,
Heleen Rahel Ojasalu,Tallinna Reaalkool,12,15,
Hiie-Helena Sünter,Tartu Waldorfgümnaasium,11,15,
Kseniya Bogdanova,Narva Keeltelütseum,12,15,
Liia Smelska,Jõhvi Gümnaasium,12,15,
Cassandra Ikmelt,Tallinna Reaalkool,11,14,
Joel Ruuben Seene,Hugo Treffneri Gümnaasium,12,14,
Johannes Peetsalu,Tartu Waldorfgümnaasium,11,14,
Kaidi Tootmaa,Tallinna Reaalkool,12,14,
Nicole Bobrikova,Tallinna 53. Keskkool,12,14,
Pärl Pind,Hugo Treffneri Gümnaasium,11,14,
Rauno Viil,Saku Gümnaasium,11,14,
Илья Пащенко,Tallinna Juudi Kool,12,14,
Кирилл Нефёдов,Narva Keeltelütseum,11,14,
Alina Remme,Tallinna Õismäe Vene Lütseum,12,13,
Anneliis Sloog,Tõrva Gümnaasium,11,13,
Ats Aavakivi,Tartu Waldorfgümnaasium,11,13,
Cardo Piisner,Paide Gümnaasium,11,13,
Daniel Halvorsen,Tallinna Õismäe Vene Lütseum,12,13,
Danila Karotam,Tallinna Õismäe Vene Lütseum,11,13,
Darja Kuznetsova,Tallinna 53. Keskkool,12,13,
Elis Siilbek,Gustav Adolfi Gümnaasium,11,13,
Elizaveta Zazimko,Sakala Eragümnaasium,12,13,
Henry Grünberg,Saku Gümnaasium,11,13,
Hugo Alandi,Saku Gümnaasium,11,13,
Julia Jushkova,Tallinna 53. Keskkool,12,13,
Karl-Oskar Pajus,Gustav Adolfi Gümnaasium,12,13,
Kirill Tsutsman,Tallinna Õismäe Vene Lütseum,12,13,
Ksenija Jarmuhhamedova,Narva Keeltelütseum,11,13,
Marko Põldma,Tallinna Reaalkool,12,13,
Mattias Johandi,Saku Gümnaasium,11,13,
Mihkel Jakobson,Tallinna Reaalkool,11,13,
Pipi-Lotta Laineste,Hugo Treffneri Gümnaasium,10,13,
Richard Veelaid,Väike-Maarja Gümnaasium,12,13,
Sander Sirge,Hugo Treffneri Gümnaasium,11,13,
Susanna Saadre,Tallinna Reaalkool,12,13,
Никита Зражевский,Tallinna 53. Keskkool,11,13,
Alisa Dreljova,Tallinna 53. Keskkool,12,12,
Kregor Ööbik,Tallinna Reaalkool,11,12,
Liisi Puura,Tallinna Reaalkool,11,12,
Sarah Tali,Hugo Treffneri Gümnaasium,11,12,
Sebastian Mais,Gustav Adolfi Gümnaasium,11,12,
Valeria Nazarova,Narva Keeltelütseum,,12,väljaspool vanuserühma
Õnne-Liis Loor,Tallinna Reaalkool,,12,väljaspool vanuserühma
Anastassia Ljubimova,Sakala Eragümnaasium,12,11,
Artjom Tsernozjomov,Narva Keeltelütseum,11,11,
Helena Laving,Hugo Treffneri Gümnaasium,11,11,
Jako Iva,Tartu Waldorfgümnaasium,11,11,
Kaila Mäesalu,Vinni-Pajusti Gümnaasium,11,11,
Karin Kolk,Tallinna 53. Keskkool,11,11,
Kirill Sereduk,Sakala Eragümnaasium,12,11,
Meribell Susi,Vinni-Pajusti Gümnaasium,11,11,
Polina Evdokimova,Narva Keeltelütseum,11,11,
Sofia Zukova,Tallinna 53. Keskkool,11,11,
Triin Uuring,Tallinna Reaalkool,11,11,
Alar Tamm,Saverna Põhikool,,10,väljaspool vanuserühma
Anna Laaksonen,Tallinna 53. Keskkool,11,10,
Emma Laureen Paul,Tõrva Gümnaasium,11,10,
Ilja Obuhov,Tallinna 53. Keskkool,12,10,
Karl Valter Oja,Hugo Treffneri Gümnaasium,11,10,
Marcus Kruustük,Saku Gümnaasium,11,10,
Mattias Tääts,Tartu Waldorfgümnaasium,12,10,
Peko Piirisild,Tartu Waldorfgümnaasium,11,10,
Polina Sergejeva,Tallinna Õismäe Vene Lütseum,11,10,
Polina Volohhonskaja,Tallinna Juudi Kool,12,10,
Sofia Haug,Tallinna Reaalkool,12,10,
Arina Jakusheva,Sillamäe Gümnaasium,12,9,
Artur J,Saku Gümnaasium,11,9,
Edgar Vildt,Sakala Eragümnaasium,12,9,
Eliis Lelov,Tallinna Reaalkool,11,9,
Erik Hurt,Tallinna Reaalkool,12,9,
Evelina Koop,Narva Keeltelütseum,11,9,
Karolin Allikas,Tallinna Reaalkool,12,9,
Katrin Rutenburg,Sillamäe Gümnaasium,11,9,
Margarita K,Saku Gümnaasium,11,9,
Marija Blagova,Narva Keeltelütseum,11,9,
Marija Klink,Tallinna Õismäe Vene Lütseum,11,9,
Mariliis Lääniste,Hugo Treffneri Gümnaasium,11,9,
Mihhail Movsisjan,Tallinna Juudi Kool,12,9,
Milena Jazeva,Tallinna 53. Keskkool,12,9,
Oleg Bunchukov,Narva Keeltelütseum,11,9,
Ralf Animägi,Gustav Adolfi Gümnaasium,12,9,
Robert Võssokov,Gustav Adolfi Gümnaasium,12,9,
Roman Boiko,Tallinna Õismäe Vene Lütseum,11,9,
Semion Ossipov,Tallinna Õismäe Vene Lütseum,11,9,
Stina-Marie Maripuu,Tallinna Reaalkool,12,9,
Stiven Šapiro,Tallinna 53. Keskkool,12,9,
Timofei Sakharov,Sillamäe Gümnaasium,11,9,
Vladimir Ulman,Tallinna Juudi Kool,12,9,
Давид Афанасьев,Narva Keeltelütseum,11,9,
Николай Чахутин,Narva Keeltelütseum,11,9,
Alina Stsukina,Sakala Eragümnaasium,12,8,
Jaakop Ivask,Gustav Adolfi Gümnaasium,11,8,
Jegor Skljar,Tallinna 53. Keskkool,11,8,
Käroliina Kask,Hugo Treffneri Gümnaasium,11,8,
Laura Kartavina,Tallinna 53. Keskkool,12,8,
Mark Korzin,Tallinna 53. Keskkool,11,8,
Mihkel Viires,Tallinna Reaalkool,11,8,
Rasmus Valk,Tallinna Reaalkool,11,8,
Rassell Muru,Tallinna 53. Keskkool,12,8,
Severin Bratus,Tallinna Reaalkool,12,8,
Allan Lip,Jõhvi Gümnaasium,11,7,
Anastasija Fjodorova,Tallinna 53. Keskkool,11,7,
Anna Polnikova,Narva Keeltelütseum,11,7,
Arina Kutuzova,Narva Keeltelütseum,11,7,
Helerin Lokutšievski,Vinni-Pajusti Gümnaasium,12,7,
Ivan Oleinik,Tallinna 53. Keskkool,12,7,
Karmen Atla,Vinni-Pajusti Gümnaasium,11,7,
Marta Kreegipuu,Hugo Treffneri Gümnaasium,11,7,
Mia Marleen Meeksa,Hugo Treffneri Gümnaasium,11,7,
Raimond Järg,Vinni-Pajusti Gümnaasium,11,7,
Reigo Kapsi,Vinni-Pajusti Gümnaasium,12,7,
Vanessa Viiding,Hugo Treffneri Gümnaasium,11,7,
Матвей Михайлов,Narva Keeltelütseum,11,7,
Anna Semenas,Narva Keeltelütseum,11,6,
Emil Rupert Kõiv,Tartu Waldorfgümnaasium,12,6,
Jelizaveta Zakina,Tallinna 53. Keskkool,12,6,
Kristina Dubovitski,Sakala Eragümnaasium,12,6,
Lii Schmidt,Tallinna Reaalkool,11,6,
Liina Tõnso,Tallinna Reaalkool,12,6,
Nikita Stjopin,Tallinna 53. Keskkool,12,6,
Polina Rattik,Tallinna 53. Keskkool,12,6,
Robin Järlak,Saku Gümnaasium,11,6,
Sebastian Mattias Ojap,Tartu Waldorfgümnaasium,11,6,
Simona Betrozova,Tallinna Juudi Kool,12,6,
Uku Sõrmus,Põlva Gümnaasium,11,6,
Vladislav Ignatjev,Narva Keeltelütseum,11,6,
София Подгорная,Tallinna 53. Keskkool,12,6,
Ahti Kenk,Tõrva Gümnaasium,12,5,
Aleks Jemets,Tallinna Juudi Kool,11,5,
Alina Krasavtseva,Tallinna Õismäe Vene Lütseum,11,5,
Anastasia Šimuk,Vinni-Pajusti Gümnaasium,11,5,
Anna Lugenberg,Sakala Eragümnaasium,12,5,
Artjom Kulikovski,Narva Keeltelütseum,11,5,
Darina Eemann,Kohtla-Järve Täiskasvanute Gümnaasium,11,5,
Emily Krutto,Tallinna Laagna Gümnaasium,11,5,
Erik Lill,Gustav Adolfi Gümnaasium,11,5,
Georg Villenberg,Tallinna Õismäe Vene Lütseum,11,5,
Hanna Marie Eliste,Vinni-Pajusti Gümnaasium,11,5,
Kevin Köster,Tõrva Gümnaasium,11,5,
Kirill Kosõhh,Tallinna 53. Keskkool,11,5,
Konstantin Dmitriuk,Tallinna Õismäe Vene Lütseum,11,5,
Marek Ritso,Tallinna 53. Keskkool,12,5,
Mark Trelin,Kohtla-Järve Täiskasvanute Gümnaasium,11,5,
Mart Marjak,Tallinna Reaalkool,12,5,
Maximilian Voroshilov,Haabersti Vene Gümnaasium,11,5,
Raiko Välja,Paide Gümnaasium,12,5,
Reijo Jauk,Tallinna Laagna Gümnaasium,11,5,
Sander Krajev,Saku Gümnaasium,11,5,
Shenyavskiy Nikolay,Tallinna 53. Keskkool,11,5,
Siim Nigul,Gustav Adolfi Gümnaasium,12,5,
Taissija Malinovskaja,Narva Keeltelütseum,11,5,
Артём Ногнибида,Haabersti Vene Gümnaasium,11,5,
Arkadi Statsenko,Tallinna Juudi Kool,11,4,
Danila Sapoznikov,Haabersti Vene Gümnaasium,11,4,
Ilja Kalosin,Tallinna 53. Keskkool,12,4,lahendas korduvalt
Jelena Sinelnik,Tallinna Õismäe Vene Lütseum,11,4,
Karina Kullam,Kohtla-Järve Täiskasvanute Gümnaasium,12,4,
Ly Johanson,Tõrva Gümnaasium,11,4,
Nikita Beljajev,Haabersti Vene Gümnaasium,11,4,
Rasmus Leinsalu,Gustav Adolfi Gümnaasium,12,4,
Ruslan Nolandt,Tallinna 53. Keskkool,11,4,
Aleksei Rumjantsev,Narva Keeltelütseum,11,3,
Anette Kikkas,Hugo Treffneri Gümnaasium,11,3,
Daniil Puntussov,Tallinna Õismäe Vene Lütseum,11,3,
Ilja Kalosin,Tallinna 53. Keskkool,12,3,lahendas korduvalt
Kairo Vaher,Tõrva Gümnaasium,11,3,
Keliin Teder,Vinni-Pajusti Gümnaasium,11,3,
Liisa Maria Artma,Tartu Waldorfgümnaasium,11,3,
Madli Freienthal,Vinni-Pajusti Gümnaasium,11,3,
Mark Gordin,Narva Keeltelütseum,11,3,
Siim Laas,Viljandi Gümnaasium,12,3,
Sofija Volõnskaja,Tallinna Õismäe Vene Lütseum,10,3,
Sofja Suhharukova,Narva Keeltelütseum,11,3,
Tim Jürgen,Saku Gümnaasium,11,3,
Aire Siivask,Tartu Waldorfgümnaasium,11,2,
Aleksandra Tremba,Tallinna Juudi Kool,11,2,
Anita Vares,Tallinna 53. Keskkool,12,2,
Artjom Kalugin,Narva Keeltelütseum,11,2,
Artur Demyanov,Tallinna Laagna Gümnaasium,11,2,
Heliis Lillipuu,Vinni-Pajusti Gümnaasium,12,2,
Ivan Galenko,Haabersti Vene Gümnaasium,11,2,
Jandar,Vinni-Pajusti Gümnaasium,11,2,
Janely Vahar,Tõrva Gümnaasium,11,2,
Joonas Jõeveer,Tartu Waldorfgümnaasium,11,2,
Kaur Kullamäe,Jõhvi Gümnaasium,12,2,
Laura Einbek,Tallinna 53. Keskkool,12,2,
Leonid Arhipov,Tallinna 53. Keskkool,12,2,
Marken Truu,Tallinna Reaalkool,11,2,
Merit Mäekalle,Tõrva Gümnaasium,11,2,
Nikolai Panko,Tallinna 53. Keskkool,12,2,
Reimo Gert Laaspere,Saku Gümnaasium,11,2,
Stefani Kruusamäe,Vinni-Pajusti Gümnaasium,11,2,
Aleksandr Gomzin,Sakala Eragümnaasium,12,1,
Alina Kožemjakina,Ehte Humanitaargümnaasium,11,1,
Andrei Smirnov,Haabersti Vene Gümnaasium,11,1,
Angelina Mosjakina,Tallinna Juudi Kool,12,1,
Artur Proskurin,Tallinna 53. Keskkool,11,1,
Daniela-Ester Armand,Tallinna Juudi Kool,11,1,
Daniil Dementjev,Tallinna Õismäe Vene Lütseum,11,1,
Daniil Mosnin,Tallinna Juudi Kool,12,1,
Elena Mashkova,Sakala Eragümnaasium,12,1,lahendas korduvalt
Genno Gramotin,Vinni-Pajusti Gümnaasium,11,1,
Hava Kuks,Tartu Waldorfgümnaasium,11,1,
Heiti Talvik,Tallinna Juudi Kool,12,1,
Ilja Žurba,Tallinna 53. Keskkool,12,1,
Jarmo Voitra,Hugo Treffneri Gümnaasium,11,1,
Joosep Põllu,Tartu Waldorfgümnaasium,11,1,
Kati Kivisaar,Vinni-Pajusti Gümnaasium,12,1,
Ksenija Juusu,Kohtla-Järve Täiskasvanute Gümnaasium,11,1,
Laila Rohtsalu,Vinni-Pajusti Gümnaasium,12,1,
Lilliana Zaitseva,Ehte Humanitaargümnaasium,11,1,
Markko,Tartu Waldorfgümnaasium,11,1,
Pavel Bašinski,Narva Keeltelütseum,11,1,
Rando Ingo Vatsk,Tõrva Gümnaasium,12,1,
Rasmus Lutter,Vinni-Pajusti Gümnaasium,11,1,
Sergei Tolbin,Tallinna 53. Keskkool,12,1,
Sofia Tsizova,Tallinna 53. Keskkool,12,1,
Sofiko Tabatadze,Tallinna 53. Keskkool,12,1,
Terentjev Alex,Tallinna Juudi Kool,12,1,
Uku Kõressaar,Gustav Adolfi Gümnaasium,12,1,
Uljana Aruvad,Tallinna Juudi Kool,11,1,
Anastasija Hristokina,Ehte Humanitaargümnaasium,11,0,
Denis Silanarusk,Tallinna Õismäe Vene Lütseum,11,0,
Ekaterina Shevchenko,Tallinna 53. Keskkool,12,0,
Elena Mashkova,Sakala Eragümnaasium,12,0,lahendas korduvalt
Elfriide Kask,Tartu Waldorfgümnaasium,11,0,
Elizabeth Berman,Tallinna Juudi Kool,11,0,
Habib Nurmagomedov,Tallinna Juudi Kool,12,0,
Hanna Britt Soots,Tallinna Reaalkool,,0,väljaspool vanuserühma
Hanno Remmelg,Gustav Adolfi Gümnaasium,11,0,lahendas korduvalt
Heigo Ankuhin,Pärnu Mai Kool,,0,väljaspool vanuserühma
Ijd2ede Djiwide,ABC,1,0,
Ivan Chistodelov,Narva Keeltelütseum,11,0,
Juulia Devadze,Sillamäe Gümnaasium,,0,väljaspool vanuserühma
Kalju Uibo,Parksepa Keskkool,8,0,
Karmel Uuselu,Saku Gümnaasium,11,0,
Kärt Moora,Tõrva Gümnaasium,11,0,
Laura Ehavee,Pärnu Mai Kool,6,0,
Lija Kobrisseva,Narva Keeltelütseum,11,0,lahendas korduvalt
Ljuba Lezhneva,Narva Soldino Gümnaasium,11,0,
Maksim Davidenko,Tallinna Laagna Gümnaasium,11,0,
Marcus Grünberg,Saku Gümnaasium,11,0,
Marij Jundas,Kohtla-Järve Täiskasvanute Gümnaasium,11,0,
Martis,Pärnu Kuninga Tänava Põhikool,7,0,
Milana Starovoitova,Tallinna 53. Keskkool,6,0,
Natali Mällo,Tartu Waldorfgümnaasium,12,0,
Rait Pärs,Vinni-Pajusti Gümnaasium,12,0,
Rita Izjumskaja,Sakala Eragümnaasium,,0,väljaspool vanuserühma
Tairi Alanurme,Vinni-Pajusti Gümnaasium,12,0,
Tõnis Tõnissoo,Saku Gümnaasium,11,0,
Valeria Nazarova,Narva Keeltelütseum,,0,väljaspool vanuserühma
Valter Pakk,Tartu Waldorfgümnaasium,12,0,
Vladislav Rudyk,Tallinna Juudi Kool,10,0,
Ülle Raavel,Rapla Gümnaasium,,0,väljaspool vanuserühma
Максим Тесленко,Tallinna 53. Keskkool,11,0,
Матвей Михайлов,Narva Keeltelütseum,11,0,lahendas korduvalt
Татьяна Семёнова,Narva Keeltelütseum,11,0,
Anton Kislitson,Sillamäe Gümnaasium,11,-1,
Eliise Viling,Hugo Treffneri Gümnaasium,11,-1,
Elina Bugrõšov,Ehte Humanitaargümnaasium,11,-1,
Kasper Kulp,Vinni-Pajusti Gümnaasium,11,-1,
Klarita-Carmen Prokopjeva,Rapla Gümnaasium,12,-1,
Krista Heido,Tartu Tamme Gümnaasium,12,-1,
Lina Latõševa,Tallinna Õismäe Vene Lütseum,11,-1,
Mathias Mõttus,Tartu Tamme Gümnaasium,12,-1,
Samuel Roost,Gustav Adolfi Gümnaasium,11,-1,
Toivo Reitalu,Lähte Ühisgümnaasium,,-1,väljaspool vanuserühma
Кристина Ценкман,Tallinna 53. Keskkool,12,-1,
Серафима Шкурко,Ehte Humanitaargümnaasium,11,-1,
Andrei Sapezko,Narva Keeltelütseum,11,-2,
Darja Berjozova,Tallinna Juudi Kool,12,-2,
Darja Simkina,Narva Keeltelütseum,11,-2,
Diana Iljina,Narva Keeltelütseum,11,-2,
Grete Tõniste,Hugo Treffneri Gümnaasium,11,-2,
Jevgenia Stserbinina,Kohtla-Järve Täiskasvanute Gümnaasium,12,-2,
Julia Tsõs,Tallinna 53. Keskkool,12,-2,
Kris,Tallinna Reaalkool,6,-2,
Leena Russak,Tallinna Laagna Gümnaasium,11,-2,
Mona Tolmats,Tallinna Reaalkool,11,-2,
Päiv Kleimann,Tartu Waldorfgümnaasium,12,-2,
Roland Küttim,Viljandi Gümnaasium,12,-2,
Anastasiya Shevchenko,Tallinna 53. Keskkool,12,-3,
Andrei Lipetski,Haabersti Vene Gümnaasium,11,-3,
Anna Igaševa,Tallinna 53. Keskkool,12,-3,
Diana Bozhanova,Tallinna 53. Keskkool,11,-3,
Elizabet Bubnova,Tallinna 53. Keskkool,11,-3,
Evgenia Lapina,Tallinna 53. Keskkool,6,-3,
Grethe Reedi,Vinni-Pajusti Gümnaasium,11,-3,
Henriette Kulpas,Vinni-Pajusti Gümnaasium,11,-3,
Herman Karol Hõrrak,Tallinna Reaalkool,12,-3,
Ingrid Tuberg,Tartu Waldorfgümnaasium,11,-3,
Kadilii Vellend,Tallinna Laagna Gümnaasium,11,-3,
Karmen Mõts,Tõrva Gümnaasium,11,-3,
Kert Gregor Tagamets,Luunja Keskkool,8,-3,
Lija Kobrisseva,Narva Keeltelütseum,11,-3,lahendas korduvalt
Maksim Kolje,Haabersti Vene Gümnaasium,11,-3,
Margarita Baburkina,Haabersti Vene Gümnaasium,11,-3,
Martin Larin,Tallinna Juudi Kool,12,-3,
Nikita Faskhutdinov,Narva Keeltelütseum,11,-3,
Nikita Sergejev,Kohtla-Järve Täiskasvanute Gümnaasium,11,-3,
Norman Tolmats,Tallinna Reaalkool,11,-3,
Olesja Solonko,Tallinna 53. Keskkool,11,-3,
Paula Liisa Ani,Tartu Waldorfgümnaasium,11,-3,
Rene Nugis,Tallinna Laagna Gümnaasium,11,-3,
Robert Šimuk,Vinni-Pajusti Gümnaasium,11,-3,
Silver Kukk,Tallinna 53. Keskkool,11,-3,
Sofia Aleksandrova,Ehte Humanitaargümnaasium,11,-3,
Viktor Arhipov,Tallinna 53. Keskkool,12,-3,
Мари-Лиина Кодас,Tallinna Juudi Kool,12,-3,
Amir Vagizov,Tallinna Õismäe Vene Lütseum,11,-5,
Andra,Vinni-Pajusti Gümnaasium,11,-5,
Sandra Lubi,Hugo Treffneri Gümnaasium,11,-5,
Saveli Mussijenko,Narva Keeltelütseum,11,-5,
Aleksandr Sapovalov,Ehte Humanitaargümnaasium,11,-6,
Ander Mägi,Vinni-Pajusti Gümnaasium,12,-6,
Anton Rogov,Narva Keeltelütseum,11,-6,
Jan Joonas Tuuna,Saku Gümnaasium,11,-6,
Jürnas Vigolainen,Vinni-Pajusti Gümnaasium,12,-6,
Lia Tsugunova,Tallinna 53. Keskkool,12,-6,
Liisbet Below,Tallinna Laagna Gümnaasium,11,-6,
Nicole Feldman,Tallinna Juudi Kool,11,-6,
Rashel Armon,Tallinna Juudi Kool,11,-6,
Reiko Pikorainen,Tallinna Laagna Gümnaasium,11,-6,
Sabrina Kiviste,Vinni-Pajusti Gümnaasium,11,-6,
Villem Noot,Saku Gümnaasium,11,-6,
Aleksei Näksi,Haabersti Vene Gümnaasium,11,-7,
Anja Vassiljeva,Kohtla-Järve Täiskasvanute Gümnaasium,12,-7,
Artur Grošev,Kohtla-Järve Täiskasvanute Gümnaasium,12,-7,
Daniel Kaserskiy,Ehte Humanitaargümnaasium,11,-7,
Dmitri Smirnov,Tallinna Mustamäe Humanitaargümnaasium,7,-7,
Dominik Uueni,Vinni-Pajusti Gümnaasium,12,-7,
Eike Engelbrecht,Tõrva Gümnaasium,11,-7,
Helina Reinol,Vinni-Pajusti Gümnaasium,12,-7,
Katerina Sofronova,Tallinna Juudi Kool,12,-7,
Katrina Lukk,Kohtla-Järve Täiskasvanute Gümnaasium,11,-7,
Kristo Saar,Pärnu Ülejõe Põhikool,7,-7,
Ksenija Goidina,Tartu Waldorfgümnaasium,11,-7,
Laura Petrova,Tallinna 53. Keskkool,12,-7,
Marchuk Oleksandra,Haabersti Vene Gümnaasium,11,-7,
Minna Arukaevu,Tartu Waldorfgümnaasium,11,-7,
Nicole Niinemets,Tallinna Juudi Kool,11,-7,
Sander Sipelga,Häädemeeste Keskkool,10,-7,
Sten Laanus,Tallinna Laagna Gümnaasium,11,-7,
Sten Martten Parman,Räpina Ühisgümnaasium,7,-7,
Timo Stamm,Tapa Gümnaasium,11,-7,
Valerija Von Kraft,Tallinna Juudi Kool,12,-7,
Viktoria Kotkova,Kohtla-Järve Täiskasvanute Gümnaasium,11,-7,
Violetta Tretjakova,Haabersti Vene Gümnaasium,11,-7,
Elis Vingisar,Hugo Treffneri Gümnaasium,11,-8,
Maris Karo,Hugo Treffneri Gümnaasium,11,-8,
Snezana Tkatsenko,Kohtla-Järve Täiskasvanute Gümnaasium,12,-9,
Darja Bahtina,Kohtla-Järve Täiskasvanute Gümnaasium,11,-10,
Sofja Ivanova,Tallinna Õismäe Vene Lütseum,11,-10,
Anastasia Melnik,Haabersti Vene Gümnaasium,11,-11,
Andrei Rukin,Kohtla-Järve Täiskasvanute Gümnaasium,11,-11,
Elis Eestalu,Tallinna Õismäe Vene Lütseum,11,-11,
Enri Udras,Tõrva Gümnaasium,11,-11,
Ilja Djumin,Tallinna Mustamäe Humanitaargümnaasium,7,-11,
Kermo Ohno,Tõrva Gümnaasium,11,-11,
Maria,Tartu Waldorfgümnaasium,11,-11,
Mark Vinogradov,Tallinna 53. Keskkool,12,-11,
Stefania Grati,Narva Keeltelütseum,11,-11,
Valerija Grinvald,Tallinna Juudi Kool,12,-11,
Anastasia Krapivko,Tallinna 53. Keskkool,12,-15,
Karina Pehme,Tallinna 53. Keskkool,12,-15,
Magro Goldman,Tallinna Juudi Kool,12,-15,
