<?xml version="1.0" encoding="UTF-8" standalone="no"?>
<svg
   xmlns:dc="http://purl.org/dc/elements/1.1/"
   xmlns:cc="http://creativecommons.org/ns#"
   xmlns:rdf="http://www.w3.org/1999/02/22-rdf-syntax-ns#"
   xmlns:svg="http://www.w3.org/2000/svg"
   xmlns="http://www.w3.org/2000/svg"
   xmlns:sodipodi="http://sodipodi.sourceforge.net/DTD/sodipodi-0.dtd"
   xmlns:inkscape="http://www.inkscape.org/namespaces/inkscape"
   width="242.28787mm"
   height="140.00845mm"
   viewBox="0 0 858.50033 496.09294"
   id="svg2"
   version="1.1"
   sodipodi:docname="j06-main.svg"
   inkscape:version="0.92.4 (5da689c313, 2019-01-14)"
   inkscape:export-filename="E:\ol\kbr\2019-2020\git\1voor_jun_est\j06-main.png"
   inkscape:export-xdpi="72.022781"
   inkscape:export-ydpi="72.022781">
  <metadata
     id="metadata63">
    <rdf:RDF>
      <cc:Work
         rdf:about="">
        <dc:format>image/svg+xml</dc:format>
        <dc:type
           rdf:resource="http://purl.org/dc/dcmitype/StillImage" />
      </cc:Work>
    </rdf:RDF>
  </metadata>
  <defs
     id="defs61" />
  <sodipodi:namedview
     pagecolor="#ffffff"
     bordercolor="#666666"
     borderopacity="1"
     objecttolerance="10"
     gridtolerance="10"
     guidetolerance="10"
     inkscape:pageopacity="0"
     inkscape:pageshadow="2"
     inkscape:window-width="1920"
     inkscape:window-height="1017"
     id="namedview59"
     showgrid="false"
     inkscape:zoom="1"
     inkscape:cx="457.86685"
     inkscape:cy="264.5829"
     inkscape:window-x="-8"
     inkscape:window-y="-8"
     inkscape:window-maximized="1"
     inkscape:current-layer="layer4" />
  <g
     id="layer1"
     transform="translate(19.583809,-712.46009)">
    <rect
       style="opacity:1;fill:#ffe680;fill-opacity:1;fill-rule:evenodd;stroke:#ffffff;stroke-width:3.03718877;stroke-linecap:square;stroke-linejoin:round;stroke-miterlimit:4;stroke-dasharray:none;stroke-dashoffset:0;stroke-opacity:1"
       id="rect4435"
       width="884.85651"
       height="137.34357"
       x="-21.153992"
       y="1002.0356" />
    <path
       style="fill:none;fill-rule:evenodd;stroke:#000000;stroke-width:1px;stroke-linecap:butt;stroke-linejoin:miter;stroke-opacity:1"
       d="m -18.299659,1139.041 587.571399,0 0,31.7143"
       id="path4310" />
    <path
       style="fill:none;fill-rule:evenodd;stroke:#000000;stroke-width:1.0664593px;stroke-linecap:butt;stroke-linejoin:miter;stroke-opacity:1"
       d="m -39.74625,1003.0573 668.96674,0 0,31.6811"
       id="path4310-5" />
  </g>
  <g
     id="layer2"
     transform="translate(19.583809,-712.46009)">
    <path
       style="display:inline;fill:#e58f56;fill-opacity:1;stroke:#000000;stroke-width:4.3596983;stroke-linecap:butt;stroke-linejoin:miter;stroke-miterlimit:4;stroke-dasharray:none;stroke-opacity:1"
       d="m 347.83426,1255.9026 c 0,0 -62.52928,27.1845 -56.76403,61.7805 5.76524,34.596 93.59507,-7.7263 108.05924,-55.9688 14.46426,-48.2426 -51.29521,-5.8117 -51.29521,-5.8117 z"
       id="path4037-5" />
    <path
       id="path4039-5"
       d="m 480.35516,1262.8082 c 0,0 62.83729,21.4497 59.98773,55.2954 -2.8495,33.8457 -91.44034,-0.2787 -109.30492,-45.7484 -17.86461,-45.4696 49.31719,-9.547 49.31719,-9.547 z"
       style="display:inline;fill:#e58f56;fill-opacity:1;stroke:#000000;stroke-width:4.3596983;stroke-linecap:butt;stroke-linejoin:miter;stroke-miterlimit:4;stroke-dasharray:none;stroke-opacity:1" />
    <path
       style="display:inline;fill:#e58f56;fill-opacity:1;stroke:#000000;stroke-width:4.3596983;stroke-linecap:butt;stroke-linejoin:miter;stroke-miterlimit:4;stroke-dasharray:none;stroke-opacity:1"
       d="m 484.27346,1272.3704 c 0,0 233.80789,-114.6592 158.88269,-266.556 -54.39879,-110.28339 -178.14283,130.6465 -178.54107,145.2229 -1.64221,60.1073 19.65838,121.3331 19.65838,121.3331 z"
       id="path4042-1" />
    <path
       style="display:inline;fill:#e58f56;fill-opacity:1;stroke:#000000;stroke-width:4.3596983;stroke-linecap:butt;stroke-linejoin:miter;stroke-miterlimit:4;stroke-dasharray:none;stroke-opacity:1"
       d="m 435.31254,1096.347 c 0,0 -143.79385,-31.1213 -110.17788,61.7837 -41.57859,66.4721 11.32467,162.2846 88.97233,120.2547 102.15037,51.5259 138.86869,-100.7892 83.49666,-124.1894 -53.08545,5.9305 0.45574,-51.3846 -12.75146,-53.1294 -27.14481,-3.586 -49.53965,-4.7196 -49.53965,-4.7196 z"
       id="path4016-5" />
    <path
       style="display:inline;fill:#ffad76;fill-opacity:1;stroke:none"
       d="m 375.01364,1085.8351 c 0,0 -21.09459,9.7034 -24.80967,68.6479 -3.37979,53.6244 -4.92111,103.9048 56.68964,102.1622 67.40689,-1.9065 81.10131,-17.6869 82.42208,-87.2079 0.78752,-41.4513 7.8371,-71.2878 -13.21209,-73.6283 -51.13496,-5.686 -101.08996,-9.9739 -101.08996,-9.9739 z"
       id="path4016-7-58" />
    <path
       style="display:inline;fill:#ffffff;fill-opacity:1;stroke:#000000;stroke-width:3.26977372;stroke-linecap:butt;stroke-linejoin:miter;stroke-miterlimit:4;stroke-dasharray:none;stroke-opacity:1"
       d="m 368.52498,1182.6292 -2.572,7.6313 c 0,0 6.22451,12.7127 9.73287,12.2753 3.50849,-0.4375 -2.20058,-18.1911 -2.20058,-18.1911 z"
       id="path4049-49" />
    <path
       style="display:inline;fill:#ffffff;fill-opacity:1;stroke:#000000;stroke-width:3.26977372;stroke-linecap:butt;stroke-linejoin:miter;stroke-miterlimit:4;stroke-dasharray:none;stroke-opacity:1"
       d="m 376.90247,1183.6457 0.33339,7.6107 c 0,0 10.9707,9.8868 14.28256,8.5578 3.31187,-1.3289 -9.05193,-15.9288 -9.05193,-15.9288 z"
       id="path4049-1-90" />
    <path
       style="display:inline;fill:#ffffff;fill-opacity:1;stroke:#000000;stroke-width:3.26977372;stroke-linecap:butt;stroke-linejoin:miter;stroke-miterlimit:4;stroke-dasharray:none;stroke-opacity:1"
       d="m 386.61235,1170.8707 3.34024,6.7624 c 0,0 14.75028,5.8535 17.4968,3.7352 2.74637,-2.1185 -15.24495,-11.8296 -15.24495,-11.8296 z"
       id="path4049-1-2-3" />
    <path
       style="display:inline;fill:#ffffff;fill-opacity:1;stroke:#000000;stroke-width:3.26977372;stroke-linecap:butt;stroke-linejoin:miter;stroke-miterlimit:4;stroke-dasharray:none;stroke-opacity:1"
       d="m 382.54087,1179.8731 3.2502,6.8011 c 0,0 14.6553,5.9919 17.42449,3.895 2.76911,-2.0969 -15.07385,-11.9804 -15.07385,-11.9804 z"
       id="path4049-1-6-0" />
    <path
       style="display:inline;fill:#e58f56;fill-opacity:1;stroke:#000000;stroke-width:4.3596983;stroke-linecap:butt;stroke-linejoin:miter;stroke-miterlimit:4;stroke-dasharray:none;stroke-opacity:1"
       d="m 340.98841,1094.346 c -41.90468,14.9227 -27.57276,51.9737 -27.57276,51.9737 8.05969,23.0316 33.7033,44.9384 61.859,48.0392 15.06774,1.0204 30.40093,-25.3547 -3.47468,-43.4625 1.53223,-11.0629 3.87437,-27.4289 -11.63897,-33.822"
       id="path4045-3" />
    <g
       style="display:inline"
       id="g5038"
       transform="matrix(2.1788703,-0.06531953,0.06531953,2.1788703,-26.101321,-68.634514)">
      <path
         id="path4049-49-9"
         d="m 207.38386,580.15472 1.1799,3.50088 c 0,0 -2.85548,5.8319 -4.46493,5.63123 -1.60951,-0.20069 1.00951,-8.34513 1.00951,-8.34513 z"
         style="display:inline;fill:#ffffff;fill-opacity:1;stroke:#000000;stroke-width:1.5;stroke-linecap:butt;stroke-linejoin:miter;stroke-miterlimit:4;stroke-dasharray:none;stroke-opacity:1" />
      <path
         id="path4049-1-90-9"
         d="m 203.54071,580.62104 -0.15294,3.49139 c 0,0 -5.03278,4.53556 -6.55209,3.92588 -1.51931,-0.60963 4.15255,-7.30728 4.15255,-7.30728 z"
         style="display:inline;fill:#ffffff;fill-opacity:1;stroke:#000000;stroke-width:1.5;stroke-linecap:butt;stroke-linejoin:miter;stroke-miterlimit:4;stroke-dasharray:none;stroke-opacity:1" />
      <path
         id="path4049-1-2-3-5"
         d="m 199.08633,574.76054 -1.53233,3.10227 c 0,0 -6.76665,2.68528 -8.02661,1.71348 -1.25989,-0.97185 6.99358,-5.4268 6.99358,-5.4268 z"
         style="display:inline;fill:#ffffff;fill-opacity:1;stroke:#000000;stroke-width:1.5;stroke-linecap:butt;stroke-linejoin:miter;stroke-miterlimit:4;stroke-dasharray:none;stroke-opacity:1" />
      <path
         id="path4049-1-6-0-5"
         d="m 200.95411,578.89037 -1.49102,3.11998 c 0,0 -6.72308,2.7488 -7.99344,1.78686 -1.27032,-0.96198 6.91509,-5.49601 6.91509,-5.49601 z"
         style="display:inline;fill:#ffffff;fill-opacity:1;stroke:#000000;stroke-width:1.5;stroke-linecap:butt;stroke-linejoin:miter;stroke-miterlimit:4;stroke-dasharray:none;stroke-opacity:1" />
      <path
         id="path4045-3-5"
         d="m 217.66442,536.58633 c 24.99673,11.08789 15.0007,26.9115 15.0007,26.9115 -3.69736,10.56573 -15.4613,20.61541 -28.37765,22.03786 -6.91229,0.46812 -13.94635,-11.6314 1.594,-19.93831 -2.18803,-9.63158 1.63706,-15.94557 6.76011,-16.98272"
         style="display:inline;fill:#e58f56;fill-opacity:1;stroke:#000000;stroke-width:2.01822066;stroke-linecap:butt;stroke-linejoin:miter;stroke-miterlimit:4;stroke-dasharray:none;stroke-opacity:1" />
    </g>
    <path
       style="display:inline;fill:#e58f56;fill-opacity:1;stroke:#000000;stroke-width:4.3596983;stroke-linecap:round;stroke-linejoin:round;stroke-miterlimit:4;stroke-dasharray:none;stroke-opacity:1"
       d="m 459.60847,923.2583 c 0,0 19.70363,-58.14536 36.18323,-24.61352 4.68257,9.52779 -20.00718,30.56843 -20.00718,30.56843 z"
       id="path3874-0" />
    <path
       style="display:inline;fill:#e58f56;fill-opacity:1;stroke:#000000;stroke-width:4.3596983;stroke-linecap:round;stroke-linejoin:round;stroke-miterlimit:4;stroke-dasharray:none;stroke-opacity:1"
       d="m 371.19084,923.14375 c 0,0 -20.95314,-56.9529 -38.4778,-24.10874 -4.9795,9.33239 21.27596,29.94152 21.27596,29.94152 z"
       id="path3874-7-7" />
    <path
       style="display:inline;fill:#e58f56;fill-opacity:1;stroke:#000000;stroke-width:4.3596983;stroke-linecap:round;stroke-linejoin:round;stroke-miterlimit:4;stroke-dasharray:none;stroke-opacity:1"
       d="m 329.40041,996.5053 c 0,0 -20.01895,-84.5377 78.58001,-88.38448 68.14893,-2.65874 102.26217,19.5318 90.56484,93.09008 0,0 65.62556,91.0747 -33.40133,114.8001 0,0 -48.30493,9.9589 -103.58277,0 0,0 -90.62042,-18.5182 -32.16075,-119.5057 z"
       id="path3801-6" />
    <path
       style="display:inline;fill:#ffffff;stroke:#000000;stroke-width:4.3596983;stroke-linecap:round;stroke-linejoin:round;stroke-miterlimit:4;stroke-dasharray:none;stroke-opacity:1"
       d="m 379.6266,1049.5928 c 0,0 5.24014,50.884 7.86014,53.2507 2.62007,2.3667 48.47113,2.9583 51.7462,-0.5917 3.27507,-3.55 6.55012,-53.2507 6.55012,-53.2507"
       id="path3830-7" />
    <path
       style="display:inline;fill:none;stroke:#000000;stroke-width:4.3596983;stroke-linecap:round;stroke-linejoin:round;stroke-miterlimit:4;stroke-dasharray:none;stroke-opacity:1"
       d="m 412.61401,1103.3481 c 0,0 0,-57.9481 1.0838,-57.9481"
       id="path3850-83" />
    <path
       style="display:inline;fill:#ffad76;fill-opacity:1;stroke:#000000;stroke-width:4.3596983;stroke-linecap:square;stroke-linejoin:round;stroke-miterlimit:4;stroke-dasharray:none;stroke-opacity:1"
       d="m 412.36277,1047.7482 c 0,0 -64.64167,50.7615 -83.28064,-8.7246"
       id="path3812-1" />
    <path
       id="path3827-9"
       d="m 413.15593,1047.7482 c 0,0 64.64163,50.7615 83.28061,-8.7246"
       style="display:inline;fill:#ffad76;fill-opacity:1;stroke:#000000;stroke-width:4.3596983;stroke-linecap:square;stroke-linejoin:round;stroke-miterlimit:4;stroke-dasharray:none;stroke-opacity:1" />
    <path
       style="display:inline;fill:#ffad76;fill-opacity:1;stroke:none"
       d="m 330.74021,1039.9016 c 0,0 -2.37944,-32.5191 25.38075,-30.9329 0,0 32.51912,-1.65 45.20946,19.765 13.58637,22.927 11.89727,19.0993 11.89727,19.0993"
       id="path3977-2-5" />
    <path
       style="display:inline;fill:#ffad76;fill-opacity:1;stroke:none"
       d="m 493.6685,1041.0913 c 0,0 11.89723,-34.1054 -34.1054,-29.3465 0,0 -31.72593,9.454 -36.48481,18.1786 -12.76144,23.3962 -11.89724,19.0993 -11.89724,19.0993"
       id="path3977-2-7-5" />
    <path
       style="display:inline;fill:none;stroke:#000000;stroke-width:3.92372847;stroke-linecap:round;stroke-linejoin:round;stroke-miterlimit:4;stroke-dasharray:none;stroke-opacity:1"
       d="m 469.98468,1000.3697 c 0,0 56.37809,-11.8718 108.48508,-11.0804"
       id="path3895-7" />
    <path
       style="display:inline;fill:none;stroke:#000000;stroke-width:3.92372847;stroke-linecap:round;stroke-linejoin:round;stroke-miterlimit:4;stroke-dasharray:none;stroke-opacity:1"
       d="m 470.83888,1017.7817 c 0,0 101.65142,-3.9572 105.06829,-2.3743"
       id="path3897-4" />
    <path
       style="display:inline;fill:none;stroke:#000000;stroke-width:3.92372847;stroke-linecap:round;stroke-linejoin:round;stroke-miterlimit:4;stroke-dasharray:none;stroke-opacity:1"
       d="m 469.13046,1032.028 105.06825,11.0803"
       id="path3899-7" />
    <path
       style="display:inline;fill:none;stroke:#000000;stroke-width:3.92372847;stroke-linecap:round;stroke-linejoin:miter;stroke-miterlimit:4;stroke-dasharray:none;stroke-opacity:1"
       d="m 358.66746,997.1823 c 0,0 -52.34781,-11.8972 -100.72985,-11.1041"
       id="path3895-4-3" />
    <path
       style="display:inline;fill:none;stroke:#000000;stroke-width:3.92372847;stroke-linecap:round;stroke-linejoin:miter;stroke-miterlimit:4;stroke-dasharray:none;stroke-opacity:1"
       d="m 357.87432,1014.6316 c 0,0 -94.38469,-3.9658 -97.55727,-2.3795"
       id="path3897-0-4" />
    <path
       style="display:inline;fill:none;stroke:#000000;stroke-width:3.92372847;stroke-linecap:round;stroke-linejoin:miter;stroke-miterlimit:4;stroke-dasharray:none;stroke-opacity:1"
       d="m 359.46062,1028.9082 -97.55727,11.1041"
       id="path3899-9-0" />
    <g
       id="g3808-8"
       transform="matrix(3.1407759,0,0,2.3133002,-1270.3382,298.50873)"
       style="display:inline;fill:#030303;fill-opacity:1;stroke:#000000;stroke-width:0.00719621;stroke-linecap:round;stroke-linejoin:round;stroke-miterlimit:4;stroke-dasharray:none;stroke-opacity:1">
      <path
         id="path3804-8"
         d="m 533.36054,323.53712 c 0,0 -19.44544,-21.1318 -0.50507,-21.2132"
         style="fill:#030303;fill-opacity:1;stroke:#000000;stroke-width:0.00719621;stroke-linecap:round;stroke-linejoin:round;stroke-miterlimit:4;stroke-dasharray:none;stroke-opacity:1" />
      <path
         style="fill:#030303;fill-opacity:1;stroke:#000000;stroke-width:0.00719621;stroke-linecap:round;stroke-linejoin:round;stroke-miterlimit:4;stroke-dasharray:none;stroke-opacity:1"
         d="m 531.34024,302.32392 8.50453,0 -2.44361,0 2.44361,0 c 18.68783,0.0814 -1.01015,21.2132 -1.01015,21.2132 0,0 -2.56988,3.53554 -5.97915,-0.50508"
         id="path3806-1" />
    </g>
  </g>
  <g
     id="layer3"
     style="display:inline"
     transform="translate(19.583809,-712.46009)">
    <path
       style="fill:#666666;fill-rule:evenodd;stroke:#000000;stroke-width:4;stroke-linecap:butt;stroke-linejoin:miter;stroke-miterlimit:4;stroke-dasharray:none;stroke-opacity:1"
       d="m 113.65124,990.7106 c 4.20838,-0.4454 21.85724,-3.3023 27.46841,0.261 5.61118,3.5633 35.47162,62.3577 28.92525,66.8118 -6.54636,4.4542 -79.491551,6.2358 -85.102721,0 -5.61117,-6.2357 24.500681,-66.6274 28.709061,-67.0728 z"
       id="path4229-9" />
    <path
       style="fill:#808080;fill-rule:evenodd;stroke:#000000;stroke-width:4;stroke-linecap:butt;stroke-linejoin:miter;stroke-miterlimit:4;stroke-dasharray:none;stroke-opacity:1"
       d="m 36.446707,872.71749 c 9.09138,-1.01015 165.665033,-8.08122 177.786863,0 12.12183,8.08122 18.18275,143.44161 4.04062,153.54321 -14.14214,10.1015 -171.725953,14.1421 -183.847783,0 -12.121831,-14.1422 -7.07107,-152.53306 2.0203,-153.54321 z"
       id="path4229" />
    <path
       style="fill:#cccccc;fill-rule:evenodd;stroke:#000000;stroke-width:3.5308578;stroke-linecap:butt;stroke-linejoin:miter;stroke-miterlimit:4;stroke-dasharray:none;stroke-opacity:1"
       d="m 45.925407,883.67258 c 8.02509,-0.89167 146.234913,-7.13341 156.935033,0 10.70011,7.13341 16.05017,126.61802 3.56671,135.53482 -12.48347,8.9167 -151.584983,12.4834 -162.285093,0 -10.70012,-12.4835 -6.24174,-134.64315 1.78335,-135.53482 z"
       id="path4229-6" />
    <path
       style="fill:#666666;fill-rule:evenodd;stroke:#000000;stroke-width:4;stroke-linecap:butt;stroke-linejoin:miter;stroke-miterlimit:4;stroke-dasharray:none;stroke-opacity:1"
       d="m 56.414927,1076.9063 c 4.20838,-0.4455 137.980203,-1.0668 143.591373,2.4966 5.61118,3.5632 9.25225,37.3936 2.70588,41.8477 -6.54636,4.4542 -144.646403,3.7104 -150.257573,-2.5254 -5.61117,-6.2357 -0.24806,-41.3735 3.96032,-41.8189 z"
       id="path4229-9-1" />
    <path
       style="fill:#666666;fill-rule:evenodd;stroke:#000000;stroke-width:4;stroke-linecap:butt;stroke-linejoin:miter;stroke-miterlimit:4;stroke-dasharray:none;stroke-opacity:1"
       d="m 11.081664,1075.8662 c 4.230947,-0.089 12.936183,-2.0039 18.227063,2.0197 5.29089,4.0235 7.1594,37.119 0.26092,41.0055 -6.898469,3.8865 -20.893179,4.9977 -25.9588177,-1.6888 -5.065639,-6.6865 3.2398877,-41.2473 7.4708347,-41.3364 z"
       id="path4229-9-1-7" />
    <path
       style="fill:#ffaacc;fill-rule:evenodd;stroke:#000000;stroke-width:4;stroke-linecap:round;stroke-linejoin:round;stroke-miterlimit:4;stroke-dasharray:none;stroke-opacity:1"
       d="m 448.17477,999.2453 c 0,0 -41.94851,-36.62291 -28.15301,-56.88288 9.41112,-13.8211 31.68854,-11.25526 34.54568,7.31617 0,0 22.46262,-27.15295 34.7908,-2.35207 15.0497,30.27582 -41.18347,51.91878 -41.18347,51.91878 z"
       id="path4293" />
    <path
       style="fill:#ffaacc;fill-rule:evenodd;stroke:#000000;stroke-width:4;stroke-linecap:round;stroke-linejoin:round;stroke-miterlimit:4;stroke-dasharray:none;stroke-opacity:1"
       d="m 378.3229,997.3688 c 0,0 41.94851,-36.62291 28.15301,-56.88288 -9.41112,-13.8211 -31.68854,-11.25526 -34.54568,7.31617 0,0 -22.46262,-27.15295 -34.7908,-2.35207 -15.0497,30.27582 41.18347,51.91878 41.18347,51.91878 z"
       id="path4293-3" />
  </g>
  <g
     id="layer4"
     transform="translate(19.583809,-712.46009)">
    <path
       style="fill:#ffffff;fill-rule:evenodd;stroke:#000000;stroke-width:1.74397731;stroke-linecap:butt;stroke-linejoin:miter;stroke-miterlimit:4;stroke-dasharray:none;stroke-opacity:1"
       d="m 103.06434,840.36401 161.30022,11.69966 -7.56095,4.34561 6.30078,5.01413 -6.04876,1.67138 6.04876,6.35125 -7.05688,2.67421 5.79672,6.35125 -6.55282,2.67421 6.04876,5.34843 -6.80485,2.33993 5.54469,5.34842 -6.30079,3.67704 5.79673,5.6827 -168.105071,-15.37672 10.837361,-5.34842 -7.308911,-4.01131 6.552811,-4.0113 -6.804851,-4.34561 6.048761,-3.67704 -5.796721,-5.34842 6.552811,-3.67704 -7.560941,-5.01413 5.796721,-5.01415 -6.804861,-8.69118 z"
       id="path4364" />
    <path
       style="fill:none;fill-rule:evenodd;stroke:#000000;stroke-width:3;stroke-linecap:square;stroke-linejoin:miter;stroke-miterlimit:4;stroke-dasharray:none;stroke-opacity:1"
       d="m 229.671,858.48 -8.516,31.126 c 0,0 14.411,0.576 18.342,-5.764 3.93,-6.341 -14.411,-12.105 -14.411,-12.105 v 0 c 0,0 21.616,-1.153 20.961,-8.07 -0.655,-6.916 -16.376,-5.187 -16.376,-5.187 z"
       id="path4380"
       inkscape:connector-curvature="0" />
    <path
       style="fill:none;fill-rule:evenodd;stroke:#000000;stroke-width:3;stroke-linecap:square;stroke-linejoin:miter;stroke-miterlimit:4;stroke-dasharray:none;stroke-opacity:1"
       d="m 168.9495,852.2795 -5.202,34.538"
       id="path4384"
       inkscape:connector-curvature="0" />
    <path
       style="fill:none;fill-rule:evenodd;stroke:#000000;stroke-width:3;stroke-linecap:square;stroke-linejoin:miter;stroke-miterlimit:4;stroke-dasharray:none;stroke-opacity:1"
       d="m 119.0075,848.3205 c 0,0 -1.041,16.127 -2.081,19.769 -1.04,3.642 -2.601,16.647 -2.601,16.647"
       id="path4386"
       inkscape:connector-curvature="0" />
    <path
       style="fill:none;fill-rule:evenodd;stroke:#000000;stroke-width:3;stroke-linecap:square;stroke-linejoin:miter;stroke-miterlimit:4;stroke-dasharray:none;stroke-opacity:1"
       d="m 132.7935,849.8765 c 0,0 -1.041,16.127 -2.081,19.769 -1.041,3.641 -2.602,16.647 -2.602,16.647"
       id="path4386-0"
       inkscape:connector-curvature="0" />
    <path
       style="fill:none;fill-rule:evenodd;stroke:#000000;stroke-width:3;stroke-linecap:square;stroke-linejoin:miter;stroke-miterlimit:4;stroke-dasharray:none;stroke-opacity:1"
       d="m 186.1575,852.9215 c 0,0 -11.965,2.081 -11.965,19.769 0,17.688 16.647,14.046 16.647,14.046 0,0 9.364,-6.242 8.844,-17.167 -0.52,-10.925 -6.243,-16.648 -13.526,-16.648 z"
       id="path4403"
       inkscape:connector-curvature="0" />
    <path
       style="fill:none;fill-rule:evenodd;stroke:#000000;stroke-width:3;stroke-linecap:square;stroke-linejoin:miter;stroke-miterlimit:4;stroke-dasharray:none;stroke-opacity:1"
       d="m 146.7445,852.5545 c 0,0 -9.312,1.8 -9.312,17.095 0,15.295 12.956,12.146 12.956,12.146 0,0 7.288,-5.399 6.883,-14.846 -0.405,-9.446 -4.859,-14.395 -10.527,-14.395 z"
       id="path4403-0"
       inkscape:connector-curvature="0" />
    <path
       style="fill:none;fill-rule:evenodd;stroke:#000000;stroke-width:3;stroke-linecap:square;stroke-linejoin:miter;stroke-miterlimit:4;stroke-dasharray:none;stroke-opacity:1"
       d="m 236.007,854.005 -5.202,39.018"
       id="path4384-2"
       inkscape:connector-curvature="0" />
  </g>
</svg>
