<?xml version="1.0" encoding="utf-8"?>
<!-- Generator: Adobe Illustrator 20.0.0, SVG Export Plug-In . SVG Version: 6.00 Build 0)  -->
<svg version="1.1" id="Layer_1" xmlns="http://www.w3.org/2000/svg" xmlns:xlink="http://www.w3.org/1999/xlink" x="0px" y="0px"
	 viewBox="0 0 2317 595.3" style="enable-background:new 0 0 2317 595.3;" xml:space="preserve">
<style type="text/css">
	.st0{fill:#FFFFFF;}
	.st1{fill:#ED1E24;}
	.st2{fill:none;stroke:#000000;stroke-width:2;stroke-miterlimit:10;}
	.st3{fill:#F1F0F0;stroke:#000000;stroke-width:0.75;stroke-miterlimit:10;}
	.st4{fill:#DF1F2B;stroke:#000000;stroke-width:0.75;stroke-miterlimit:10;}
	.st5{font-family:'Times-Bold';}
	.st6{font-size:77.7753px;}
</style>
<rect x="301.4" y="120.4" class="st0" width="1137" height="362.6"/>
<rect x="589.4" y="219.6" class="st0" width="142" height="87.8"/>
<rect x="589.4" y="307.4" class="st1" width="142" height="87.8"/>
<rect x="589.4" y="219.6" class="st1" width="142" height="87.8"/>
<rect x="589.4" y="395.2" class="st1" width="142" height="87.8"/>
<rect x="728.4" y="307.4" class="st1" width="142" height="87.8"/>
<rect x="870.4" y="307.4" class="st1" width="142" height="87.8"/>
<rect x="1012.4" y="307.4" class="st1" width="142" height="89.1"/>
<rect x="1154.4" y="307.4" class="st1" width="142" height="89.1"/>
<rect x="728.4" y="219.6" class="st1" width="142" height="87.8"/>
<rect x="728.4" y="395.2" class="st1" width="142" height="87.8"/>
<rect x="870.4" y="395.2" class="st1" width="142" height="87.8"/>
<rect x="1296.4" y="397.1" class="st1" width="142" height="86"/>
<rect x="446.4" y="307.4" class="st1" width="142" height="87.8"/>
<rect x="446.4" y="395.2" class="st1" width="142" height="87.8"/>
<rect x="301.4" y="120.4" class="st2" width="1137" height="362.6"/>
<polygon class="st3" points="1626.3,161.3 1663.5,199.5 1715.5,199.5 1752.9,161.3 "/>
<polygon class="st3" points="1621.9,293.6 1660.1,262.9 1660.1,204.4 1621.9,165.2 "/>
<polygon class="st4" points="1757.1,293.6 1718.9,262.7 1718.9,204.4 1757.1,165.2 "/>
<polygon class="st3" points="1752.7,434 1715.5,395.8 1663.5,395.8 1626.1,434 "/>
<polygon class="st4" points="1757.1,301.7 1718.9,332.3 1718.9,390.9 1757.1,430.1 "/>
<polygon class="st3" points="1621.9,301.7 1660.1,332.6 1660.1,390.9 1621.9,430.1 "/>
<polygon class="st3" points="1628,298 1660.1,270.1 1718.9,270.6 1751.1,298 1718.9,323.7 1660.1,323.6 "/>
<polygon class="st4" points="1808.4,161.3 1845.6,199.5 1897.5,199.5 1935,161.3 "/>
<polygon class="st4" points="1804,293.6 1842.2,262.9 1842.2,204.4 1804,165.2 "/>
<polygon class="st4" points="1939.2,293.6 1901,262.7 1901,204.4 1939.2,165.2 "/>
<polygon class="st4" points="1934.8,434 1897.5,395.8 1845.6,395.8 1808.1,434 "/>
<polygon class="st4" points="1939.2,301.7 1901,332.3 1901,390.9 1939.2,430.1 "/>
<polygon class="st4" points="1804,301.7 1842.2,332.6 1842.2,390.9 1804,430.1 "/>
<polygon class="st3" points="1810,298 1842.2,270.1 1901,270.6 1933.1,298 1901,323.7 1842.2,323.6 "/>
<polygon class="st4" points="1990.4,161.3 2027.6,199.5 2079.6,199.5 2117,161.3 "/>
<polygon class="st3" points="1986,293.6 2024.2,262.9 2024.2,204.4 1986,165.2 "/>
<polygon class="st4" points="2121.2,293.6 2083,262.7 2083,204.4 2121.2,165.2 "/>
<polygon class="st4" points="2116.8,434 2079.6,395.8 2027.6,395.8 1990.2,434 "/>
<polygon class="st4" points="2121.2,301.7 2083,332.3 2083,390.9 2121.2,430.1 "/>
<polygon class="st3" points="1986,301.7 2024.2,332.6 2024.2,390.9 1986,430.1 "/>
<polygon class="st4" points="1992.1,298 2024.2,270.1 2083,270.6 2115.2,298 2083,323.7 2024.2,323.6 "/>
<line class="st2" x1="301.4" y1="219.6" x2="1437.7" y2="219.6"/>
<line class="st2" x1="446.4" y1="120.4" x2="446.4" y2="483"/>
<line class="st2" x1="589.4" y1="120.4" x2="589.4" y2="483"/>
<line class="st2" x1="732.4" y1="120.4" x2="732.4" y2="483"/>
<line class="st2" x1="870.4" y1="120.4" x2="870.4" y2="483"/>
<line class="st2" x1="1012.4" y1="120.4" x2="1012.4" y2="483"/>
<line class="st2" x1="1154.4" y1="120.4" x2="1154.4" y2="483"/>
<line class="st2" x1="1296.4" y1="120.4" x2="1296.4" y2="483"/>
<line class="st2" x1="446.1" y1="306.4" x2="1438.4" y2="308.4"/>
<line class="st2" x1="445.9" y1="395.2" x2="1438.2" y2="397.2"/>
<text transform="matrix(1 0 0 1 491.1571 196.3681)" class="st5 st6">A</text>
<text transform="matrix(1 0 0 1 635.1571 196.3681)" class="st5 st6">B</text>
<text transform="matrix(1 0 0 1 775.1571 196.3681)" class="st5 st6">C</text>
<text transform="matrix(1 0 0 1 913.1571 196.3681)" class="st5 st6">D</text>
<text transform="matrix(1 0 0 1 1057.1571 196.3681)" class="st5 st6">E</text>
<text transform="matrix(1 0 0 1 1197.1571 196.3681)" class="st5 st6">F</text>
<text transform="matrix(1 0 0 1 1342.6498 196.3681)" class="st5 st6">G</text>
<g>
	<rect x="374.1" y="266.2" width="3" height="169.1"/>
	<rect x="360.8" y="392.2" transform="matrix(0.8152 -0.5792 0.5792 0.8152 -174.3015 286.8614)" width="3" height="48.8"/>
	<rect x="365.1" y="414.3" transform="matrix(0.5794 -0.8151 0.8151 0.5794 -175.0749 492.3452)" width="48.8" height="3"/>
</g>
</svg>
