<?xml version="1.0" encoding="UTF-8" standalone="no"?>
<svg
   xmlns:dc="http://purl.org/dc/elements/1.1/"
   xmlns:cc="http://creativecommons.org/ns#"
   xmlns:rdf="http://www.w3.org/1999/02/22-rdf-syntax-ns#"
   xmlns:svg="http://www.w3.org/2000/svg"
   xmlns="http://www.w3.org/2000/svg"
   xmlns:sodipodi="http://sodipodi.sourceforge.net/DTD/sodipodi-0.dtd"
   xmlns:inkscape="http://www.inkscape.org/namespaces/inkscape"
   width="1089pt"
   height="362pt"
   viewBox="0.00 0.00 1089.25 362.08"
   version="1.1"
   id="svg267"
   sodipodi:docname="b06.svg"
   inkscape:version="0.91 r13725"
   inkscape:export-filename="E:\ol\kbr\2017-2018\git\2voor_ben_est\b06.png"
   inkscape:export-xdpi="74.912277"
   inkscape:export-ydpi="74.912277">
  <metadata
     id="metadata271">
    <rdf:RDF>
      <cc:Work
         rdf:about="">
        <dc:format>image/svg+xml</dc:format>
        <dc:type
           rdf:resource="http://purl.org/dc/dcmitype/StillImage" />
        <dc:title />
      </cc:Work>
    </rdf:RDF>
  </metadata>
  <sodipodi:namedview
     pagecolor="#ffffff"
     bordercolor="#666666"
     borderopacity="1"
     objecttolerance="10"
     gridtolerance="10"
     guidetolerance="10"
     inkscape:pageopacity="0"
     inkscape:pageshadow="2"
     inkscape:window-width="1920"
     inkscape:window-height="1018"
     id="namedview269"
     showgrid="false"
     inkscape:zoom="0.97879262"
     inkscape:cx="585.27295"
     inkscape:cy="243.63704"
     inkscape:window-x="-8"
     inkscape:window-y="-8"
     inkscape:window-maximized="1"
     inkscape:current-layer="svg267" />
  <defs
     id="defs3">
    <style
       id="bx-google-fonts">@import url(https://fonts.googleapis.com/css?family=Roboto:100,300,500,700,900,100italic,300italic,400,400italic,500italic,700italic,900italic);</style>
  </defs>
  <g
     class="node"
     id="node1"
     transform="matrix(1.1729328,0,0,1.1055211,-20.351109,380.20914)">
    <title
       id="title9">Start</title>
    <ellipse
       style="fill:#87cefa;stroke:#1e90ff;stroke-width:2"
       id="ellipse11"
       ry="37.4533"
       rx="70.007103"
       cy="-172.42691"
       cx="65.161949" />
    <text
       xml:space="preserve"
       style="font-style:normal;font-weight:normal;font-size:14px;line-height:125%;font-family:sans-serif;letter-spacing:0px;word-spacing:0px;fill:#000000;fill-opacity:1;stroke:none;stroke-width:0.68795329px;stroke-linecap:butt;stroke-linejoin:miter;stroke-opacity:1"
       x="64.528084"
       y="-184.91939"
       id="text380"
       transform="scale(0.99020057,1.0098964)"><tspan
         sodipodi:role="line"
         id="tspan378"
         x="64.528084"
         y="-184.91939"
         style="text-align:center;text-anchor:middle;stroke-width:0.68795329px">Leida parim</tspan><tspan
         sodipodi:role="line"
         x="64.528084"
         y="-165.57071"
         style="text-align:center;text-anchor:middle;stroke-width:0.68795329px"
         id="tspan382">koht tammi</tspan><tspan
         sodipodi:role="line"
         x="64.528084"
         y="-146.22202"
         style="text-align:center;text-anchor:middle;stroke-width:0.68795329px"
         id="tspan384">ehitamiseks</tspan></text>
  </g>
  <g
     class="node"
     id="node2"
     transform="translate(4,358.0833)">
    <title
       id="title20">A</title>
    <polygon
       style="fill:#228b22;stroke:#006400;stroke-width:2"
       id="polygon22"
       points="176.0071,-270 356.0071,-270 356.0071,-342 176.0071,-342 " />
    <text
       id="text24"
       style="font-size:14px;font-family:Helvetica, sans-Serif;text-anchor:middle;white-space:pre;fill:#ffffff"
       font-size="14.00"
       y="-310.58313"
       x="237.81433">A: Koguda</text>
    <text
       id="text26"
       style="font-size:14px;font-family:Helvetica, sans-Serif;text-anchor:middle;white-space:pre;fill:#ffffff"
       font-size="14.00"
       y="-293.26715"
       x="266.00372">jämedaid oksi</text>
  </g>
  <g
     class="edge"
     id="edge1"
     transform="translate(4,358.0833)">
    <title
       id="title29">Start-&gt;A</title>
    <path
       style="fill:none;stroke:#000000"
       inkscape:connector-curvature="0"
       id="path31"
       d="m 94.6211,-206.2798 c 20.186,-26.9441 36.503,-40.3649 76.5756,-59.2893" />
    <polygon
       style="fill:#000000;stroke:#000000"
       id="polygon33"
       points="172.8052,-262.4568 169.8668,-268.8102 180.4123,-269.8313 " />
  </g>
  <g
     class="node"
     id="node3"
     transform="translate(4,358.0833)">
    <title
       id="title36">B</title>
    <polygon
       style="fill:#228b22;stroke:#006400;stroke-width:2"
       id="polygon38"
       points="176.0071,-180 356.0071,-180 356.0071,-252 176.0071,-252 " />
    <text
       id="text40"
       style="font-size:14px;font-family:Helvetica, sans-Serif;text-anchor:middle;white-space:pre;fill:#ffffff"
       font-size="14.00"
       y="-219.8"
       x="235.83891">B: Koguda</text>
    <text
       id="text42"
       style="font-size:14px;font-family:Helvetica, sans-Serif;text-anchor:middle;white-space:pre;fill:#ffffff;stroke-width:1.11612594"
       font-size="14.00"
       y="-228.5826"
       x="247.80867"
       transform="scale(1.116126,0.89595622)">peenikesi oksi</text>
  </g>
  <g
     class="edge"
     id="edge2"
     transform="translate(4,358.0833)">
    <title
       id="title45">Start-&gt;B</title>
    <path
       style="fill:none;stroke:#000000"
       inkscape:connector-curvature="0"
       id="path47"
       d="m 127.8016,-192.3473 c 10.4523,-2.7756 22.3584,-5.2702 38.3072,-8.0784" />
    <polygon
       style="fill:#000000;stroke:#000000"
       id="polygon49"
       points="166.7217,-196.9796 165.5383,-203.8788 175.986,-202.1198 " />
  </g>
  <polygon
     style="fill:#228b22;stroke:#006400;stroke-width:2"
     id="polygon54"
     points="176.007,-90 356.007,-90 356.007,-162 176.007,-162 "
     transform="translate(4,358.0833)" />
  <text
     id="text56"
     style="font-size:14px;font-family:Helvetica, sans-Serif;text-anchor:middle;white-space:pre;fill:#ffffff"
     font-size="14.00"
     y="236.7883"
     x="256.02292">C: Koguda kive</text>
  <g
     class="edge"
     id="edge3"
     transform="matrix(0.96606986,0,0,0.67389798,10.287588,313.47144)">
    <title
       id="title58">Start-&gt;C</title>
    <path
       style="fill:none;stroke:#000000"
       inkscape:connector-curvature="0"
       id="path60"
       d="m 126.8272,-148.981 c 10.628,2.9169 22.6907,5.4413 38.9818,8.2147" />
    <polygon
       style="fill:#000000;stroke:#000000"
       id="polygon62"
       points="175.9107,-139.0997 165.4743,-137.2743 166.6138,-144.1809 " />
  </g>
  <polygon
     style="fill:#228b22;stroke:#006400;stroke-width:2"
     id="polygon67"
     points="176.007,0 356.007,0 356.007,-72 176.007,-72 "
     transform="translate(4,358.0833)" />
  <text
     id="text69"
     style="font-size:14px;font-family:Helvetica, sans-Serif;text-anchor:middle;white-space:pre;fill:#ffffff"
     font-size="14.00"
     y="326.79129"
     x="260.6579">D: Koguda muda</text>
  <g
     class="edge"
     id="edge4"
     transform="matrix(0.98897644,0,0,0.88843878,6.0222196,350.08937)">
    <title
       id="title71">Start-&gt;D</title>
    <path
       style="fill:none;stroke:#000000"
       inkscape:connector-curvature="0"
       id="path73"
       d="m 94.2856,-135.6681 c 20.2146,27.471 36.3289,41.0415 75.4862,59.4068" />
    <polygon
       style="fill:#000000;stroke:#000000"
       id="polygon75"
       points="171.4301,-79.3514 179.0634,-72.004 168.5143,-72.9876 " />
  </g>
  <g
     id="g88"
     transform="translate(4,358.0833)">
    <ellipse
       style="fill:#87cefa;stroke:#1e90ff;stroke-width:2"
       id="ellipse80"
       ry="48.167"
       rx="75.820999"
       cy="-306"
       cx="467.668" />
    <g
       id="g86"
       transform="translate(0.003926,16.007801)">
      <text
         id="text82"
         style="font-size:14px;font-family:Helvetica, sans-Serif;text-anchor:middle;white-space:pre;fill:#000000"
         font-size="14.00"
         y="-324.79999"
         x="467.668">Valida parimad</text>
      <text
         id="text84"
         style="font-size:14px;font-family:Helvetica, sans-Serif;text-anchor:middle;white-space:pre;fill:#000000"
         font-size="14.00"
         y="-309.79999"
         x="467.668">jämedad oksad</text>
    </g>
  </g>
  <g
     class="edge"
     id="edge5"
     transform="translate(4,358.0833)">
    <title
       id="title90">A-&gt;A1</title>
    <path
       style="fill:none;stroke:#000000"
       inkscape:connector-curvature="0"
       id="path92"
       d="m 356.0528,-323.517 c 8.279,0.5835 17.5885,1.6691 28.5375,3.2569" />
    <polygon
       style="fill:#000000;stroke:#000000"
       id="polygon94"
       points="384.238,-316.7736 385.287,-323.6946 394.6496,-318.7355 " />
  </g>
  <ellipse
     style="fill:#87cefa;stroke:#1e90ff;stroke-width:2"
     id="ellipse99"
     ry="48.167"
     rx="71.335999"
     cy="156.0833"
     cx="658.98798" />
  <g
     id="g105"
     transform="translate(4.011418,374.09111)">
    <text
       id="text101"
       style="font-size:14px;font-family:Helvetica, sans-Serif;text-anchor:middle;white-space:pre;fill:#000000"
       font-size="14.00"
       y="-220.8"
       x="654.98798">Valida parimad</text>
    <text
       id="text103"
       style="font-size:14px;font-family:Helvetica, sans-Serif;text-anchor:middle;white-space:pre;fill:#000000"
       font-size="14.00"
       y="-205.8"
       x="654.98798">peenikesed oksad</text>
  </g>
  <g
     class="edge"
     id="edge9"
     transform="translate(4,358.0833)">
    <title
       id="title107">B-&gt;B1</title>
    <path
       style="fill:none;stroke:#000000"
       inkscape:connector-curvature="0"
       id="path109"
       d="m 356.1377,-229.6088 c 48.3475,-3.9949 96.2336,0.725 218.3337,16.8473" />
    <polygon
       style="fill:#000000;stroke:#000000"
       id="polygon111"
       points="574.1832,-209.2692 575.1019,-216.2087 584.556,-211.4265 " />
  </g>
  <ellipse
     style="fill:#87cefa;stroke:#1e90ff;stroke-width:2"
     id="ellipse116"
     ry="48.167"
     rx="72.25"
     cy="232.0833"
     cx="471.668" />
  <g
     id="g122"
     transform="matrix(1.0307759,0,0,1,-11.952824,374.09111)">
    <text
       id="text118"
       style="font-size:14px;font-family:Helvetica, sans-Serif;text-anchor:middle;white-space:pre;fill:#000000"
       font-size="14.00"
       y="-144.8"
       x="467.668">Valida parim</text>
    <text
       id="text120"
       style="font-size:14px;font-family:Helvetica, sans-Serif;text-anchor:middle;white-space:pre;fill:#000000"
       font-size="14.00"
       y="-129.8"
       x="467.668">muda ja parimad</text>
    <text
       style="font-size:14px;font-family:Helvetica, sans-Serif;text-anchor:middle;white-space:pre;fill:#000000"
       font-size="14.00"
       y="-111.18574"
       x="467.03702"
       id="text137">kivid</text>
  </g>
  <g
     class="edge"
     id="edge12"
     transform="translate(4,358.0833)">
    <title
       id="title124">C-&gt;C1</title>
    <path
       style="fill:none;stroke:#000000"
       inkscape:connector-curvature="0"
       id="path126"
       d="m 356.0093,-117.8837 c 8.5488,-0.3468 18.2794,-0.9147 29.7391,-1.7036" />
    <polygon
       style="fill:#000000;stroke:#000000"
       id="polygon128"
       points="386.0669,-116.101 385.57,-123.0834 395.7932,-120.302 " />
  </g>
  <g
     class="edge"
     id="edge14"
     transform="translate(4,358.0833)">
    <title
       id="title131">D-&gt;C1</title>
    <path
       style="fill:none;stroke:#000000"
       inkscape:connector-curvature="0"
       id="path133"
       d="m 353.5588,-72.1036 c 12.3379,-5.6691 27.1544,-12.6202 46.2329,-21.6491" />
    <polygon
       style="fill:#000000;stroke:#000000"
       id="polygon135"
       points="401.3249,-90.6061 398.3281,-96.9322 408.8638,-98.0503 " />
  </g>
  <ellipse
     style="fill:#87cefa;stroke:#1e90ff;stroke-width:2"
     id="ellipse140"
     ry="37.452999"
     rx="75.820999"
     cy="52.083302"
     cx="658.98798" />
  <g
     id="g146"
     transform="translate(4.01139,366.59112)">
    <text
       id="text142"
       style="font-size:14px;font-family:Helvetica, sans-Serif;text-anchor:middle;white-space:pre;fill:#000000"
       font-size="14.00"
       y="-317.29999"
       x="654.98798">Toimetada kohale</text>
    <text
       id="text144"
       style="font-size:14px;font-family:Helvetica, sans-Serif;text-anchor:middle;white-space:pre;fill:#000000"
       font-size="14.00"
       y="-302.29999"
       x="654.98798">jämedad oksad</text>
  </g>
  <g
     class="edge"
     id="edge6"
     transform="translate(4,358.0833)">
    <title
       id="title148">A1-&gt;A2</title>
    <path
       style="fill:none;stroke:#000000"
       inkscape:connector-curvature="0"
       id="path150"
       d="m 534.2701,-328.9864 c 19.9018,-5.3181 34.4121,-6.1767 51.3723,-2.5757" />
    <polygon
       style="fill:#000000;stroke:#000000"
       id="polygon152"
       points="584.8136,-328.1616 586.53,-334.9479 595.3666,-329.1028 " />
  </g>
  <ellipse
     style="fill:#87cefa;stroke:#1e90ff;stroke-width:2"
     id="ellipse157"
     ry="37.452999"
     rx="63.778999"
     cy="54.056396"
     cx="834.289" />
  <g
     id="g163"
     transform="translate(4.007737,366.59112)">
    <text
       id="text159"
       style="font-size:14px;font-family:Helvetica, sans-Serif;text-anchor:middle;white-space:pre;fill:#000000"
       font-size="14.00"
       y="-317.29999"
       x="830.289">Kasutada </text>
    <text
       id="text161"
       style="font-size:14px;font-family:Helvetica, sans-Serif;text-anchor:middle;white-space:pre;fill:#000000"
       font-size="14.00"
       y="-285.52866"
       x="831.27551">oksi</text>
    <text
       xml:space="preserve"
       style="font-style:normal;font-weight:normal;font-size:14px;line-height:125%;font-family:sans-serif;letter-spacing:0px;word-spacing:0px;fill:#000000;fill-opacity:1;stroke:none;stroke-width:0.70340794px;stroke-linecap:butt;stroke-linejoin:miter;stroke-opacity:1"
       x="742.29358"
       y="-321.83911"
       id="text149"
       transform="scale(1.0664824,0.93766199)"><tspan
         sodipodi:role="line"
         id="tspan147"
         x="742.29358"
         y="-321.83911"
         style="stroke-width:0.70340794px">jämedaid</tspan></text>
  </g>
  <g
     class="edge"
     id="edge7"
     transform="translate(4,358.0833)">
    <title
       id="title165">A2-&gt;A3</title>
    <path
       style="fill:none;stroke:#000000"
       inkscape:connector-curvature="0"
       id="path167"
       d="m 727.6466,-317.1426 c 13.4173,-1.7477 24.0089,-2.7333 33.198,-2.9569" />
    <polygon
       style="fill:#000000;stroke:#000000"
       id="polygon169"
       points="761.0431,-316.5978 761.1032,-323.5975 771.0728,-320.0119 " />
  </g>
  <ellipse
     style="fill:#87cefa;stroke:#1e90ff;stroke-width:2"
     id="ellipse174"
     ry="37.452999"
     rx="75.820999"
     cy="104.0833"
     cx="1009.589" />
  <text
     id="text176"
     style="font-size:14px;font-family:Helvetica, sans-Serif;text-anchor:middle;white-space:pre;fill:#000000"
     font-size="14.00"
     y="108.79129"
     x="1009.6">Tammi lõpetamine</text>
  <g
     class="edge"
     id="edge8"
     transform="translate(4,358.0833)">
    <title
       id="title178">A3-&gt;End</title>
    <path
       style="fill:none;stroke:#000000"
       inkscape:connector-curvature="0"
       id="path180"
       d="m 892.3881,-297.4747 c 25.1315,3.7353 41.6146,6.9108 54.978,11.1666" />
    <polygon
       style="fill:#000000;stroke:#000000"
       id="polygon182"
       points="946.4742,-282.9094 948.8448,-289.4958 957.0686,-282.8159 " />
  </g>
  <ellipse
     style="fill:#87cefa;stroke:#1e90ff;stroke-width:2"
     id="ellipse187"
     ry="48.167"
     rx="57.966"
     cy="156.0833"
     cx="834.289" />
  <g
     id="g193"
     transform="translate(4.007766,358.53643)">
    <text
       id="text189"
       style="font-size:14px;font-family:Helvetica, sans-Serif;text-anchor:middle;white-space:pre;fill:#000000"
       font-size="14.00"
       y="-205.72099"
       x="830.289">Materjalide</text>
    <text
       id="text191"
       style="font-size:14px;font-family:Helvetica, sans-Serif;text-anchor:middle;white-space:pre;fill:#000000"
       font-size="14.00"
       y="-189.778"
       x="830.297">transport</text>
  </g>
  <g
     class="edge"
     id="edge10"
     transform="translate(4,358.0833)">
    <title
       id="title195">B1-&gt;B2</title>
    <path
       style="fill:none;stroke:#000000"
       inkscape:connector-curvature="0"
       id="path197"
       d="m 726.6031,-204.4181 c 14.5958,-0.4347 25.9767,-0.6936 35.5922,-0.7766" />
    <polygon
       style="fill:#000000;stroke:#000000"
       id="polygon199"
       points="762.3853,-201.695 762.3721,-208.695 772.3787,-205.2138 " />
  </g>
  <g
     class="edge"
     id="edge11"
     transform="translate(4,358.0833)">
    <title
       id="title202">B2-&gt;End</title>
    <path
       style="fill:none;stroke:#000000"
       inkscape:connector-curvature="0"
       id="path204"
       d="m 885.8407,-215.9003 c 21.1428,-5.338 36.5866,-9.346 49.0095,-12.8185" />
    <polygon
       style="fill:#000000;stroke:#000000"
       id="polygon206"
       points="935.9876,-225.4039 934.0562,-232.1322 944.6337,-231.5271 " />
  </g>
  <g
     class="edge"
     id="edge13"
     transform="translate(4,358.0833)">
    <title
       id="title209">C1-&gt;B2</title>
    <path
       style="fill:none;stroke:#000000"
       inkscape:connector-curvature="0"
       id="path211"
       d="m 539.0283,-134.1983 c 137.4651,-15.9659 178.1453,-22.4565 229.7981,-42.0562" />
    <polygon
       style="fill:#000000;stroke:#000000"
       id="polygon213"
       points="770.2231,-173.0423 767.6837,-179.5655 778.2723,-179.9315 " />
  </g>
  <text
     id="text216"
     style="font-size:36px;font-family:Roboto;white-space:pre"
     y="248.4263"
     x="466.871" />
  <circle
     cx="122.26186"
     cy="154.44714"
     style="fill:#d8b817;stroke:#4c4217;stroke-width:2"
     id="ellipse219"
     r="15.533" />
  <ellipse
     cx="336.275"
     cy="20.358"
     rx="15.533"
     ry="15.533"
     style="fill: rgb(216, 184, 23); stroke: rgb(76, 66, 23); stroke-width: 2;"
     id="ellipse221" />
  <ellipse
     cx="337.346"
     cy="19.287"
     rx="15.533"
     ry="15.533"
     style="fill: rgb(216, 184, 23); stroke: rgb(76, 66, 23); stroke-width: 2;"
     transform="matrix(0.999998, 0, 0, 1, 719.856681, 48.204644)"
     id="ellipse223" />
  <ellipse
     cx="337.346"
     cy="19.287"
     rx="15.533"
     ry="15.533"
     style="fill: rgb(216, 184, 23); stroke: rgb(76, 66, 23); stroke-width: 2;"
     transform="matrix(1.000002, 0, 0, 1, 547.38984, 103.907779)"
     id="ellipse225" />
  <ellipse
     cx="337.346"
     cy="19.287"
     rx="15.533"
     ry="15.533"
     style="fill: rgb(216, 184, 23); stroke: rgb(76, 66, 23); stroke-width: 2;"
     transform="matrix(1.000002, 0, 0, 1, 544.176217, 3.213643)"
     id="ellipse227" />
  <ellipse
     cx="337.346"
     cy="19.287"
     rx="15.533"
     ry="15.533"
     style="fill: rgb(216, 184, 23); stroke: rgb(76, 66, 23); stroke-width: 2;"
     transform="matrix(0.999998, 0, 0, 1, 377.068107, 101.765354)"
     id="ellipse229" />
  <ellipse
     cx="337.346"
     cy="19.287"
     rx="15.533"
     ry="15.533"
     style="fill: rgb(216, 184, 23); stroke: rgb(76, 66, 23); stroke-width: 2;"
     transform="matrix(0.999998, 0, 0, 1, 377.068107, 1.071214)"
     id="ellipse231" />
  <ellipse
     cx="337.346"
     cy="19.287"
     rx="15.533"
     ry="15.533"
     style="fill: rgb(216, 184, 23); stroke: rgb(76, 66, 23); stroke-width: 2;"
     transform="matrix(0.999998, 0, 0, 1, 183.178336, 181.035213)"
     id="ellipse233" />
  <ellipse
     cx="337.346"
     cy="19.287"
     rx="15.533"
     ry="15.533"
     style="fill: rgb(216, 184, 23); stroke: rgb(76, 66, 23); stroke-width: 2;"
     transform="matrix(0.999998, 0, 0, 1, 188.534415, -3.213643)"
     id="ellipse235" />
  <ellipse
     cx="333.061"
     cy="290.304"
     rx="15.533"
     ry="15.533"
     style="fill: rgb(216, 184, 23); stroke: rgb(76, 66, 23); stroke-width: 2;"
     id="ellipse237" />
  <ellipse
     cx="335.204"
     cy="200.322"
     rx="15.533"
     ry="15.533"
     style="fill: rgb(216, 184, 23); stroke: rgb(76, 66, 23); stroke-width: 2;"
     id="ellipse239" />
  <ellipse
     cx="335.204"
     cy="109.269"
     rx="15.533"
     ry="15.533"
     style="fill: rgb(216, 184, 23); stroke: rgb(76, 66, 23); stroke-width: 2;"
     id="ellipse241" />
  <text
     x="97.086838"
     y="189.02802"
     style="font-weight:bold;font-size:18px;white-space:pre;stroke-width:1.63317084"
     transform="scale(1.1822454,0.84584808)"
     id="text243">5</text>
  <text
     x="296.19229"
     y="326.24777"
     style="font-weight:bold;font-size:19.78158188px;white-space:pre"
     transform="scale(1.0989768,0.90993732)"
     id="text245">4</text>
  <text
     x="298.14227"
     y="227.35966"
     style="font-weight:bold;font-size:19.78158188px;white-space:pre"
     transform="scale(1.0989768,0.90993732)"
     id="text247">4</text>
  <text
     x="298.14227"
     y="127.29452"
     style="font-weight:bold;font-size:19.78158188px;white-space:pre"
     transform="scale(1.0989768,0.90993732)"
     id="text249">4</text>
  <text
     x="299.11679"
     y="29.583395"
     style="font-weight:bold;font-size:19.78158188px;white-space:pre"
     transform="scale(1.0989768,0.90993732)"
     id="text251">4</text>
  <text
     x="955.03308"
     y="81.242119"
     style="font-weight:bold;font-size:19.78158188px;white-space:pre"
     transform="scale(1.0989768,0.90993732)"
     id="text253">5</text>
  <text
     x="798.29834"
     y="142.58897"
     style="font-weight:bold;font-size:19.78158188px;white-space:pre"
     transform="scale(1.0989768,0.90993732)"
     id="text255">3</text>
  <text
     x="794.8139"
     y="31.93811"
     style="font-weight:bold;font-size:19.78158188px;white-space:pre"
     transform="scale(1.0989768,0.90993732)"
     id="text257">1</text>
  <text
     x="642.75476"
     y="140.24416"
     style="font-weight:bold;font-size:19.78158188px;white-space:pre"
     transform="scale(1.0989768,0.90993732)"
     id="text259">1</text>
  <text
     x="643.315"
     y="29.573973"
     style="font-weight:bold;font-size:19.78158188px;white-space:pre"
     transform="scale(1.0989768,0.90993732)"
     id="text261">3</text>
  <text
     x="471.20093"
     y="24.874672"
     style="font-weight:bold;font-size:19.78158188px;white-space:pre"
     transform="scale(1.0989768,0.90993732)"
     id="text263">1</text>
  <text
     x="466.83917"
     y="227.49028"
     style="font-weight:bold;font-size:19.78158188px;white-space:pre"
     transform="scale(1.0989768,0.90993732)"
     id="text265">2</text>
</svg>
