<?xml version="1.0" encoding="UTF-8" standalone="no"?>
<svg
   xmlns:dc="http://purl.org/dc/elements/1.1/"
   xmlns:cc="http://creativecommons.org/ns#"
   xmlns:rdf="http://www.w3.org/1999/02/22-rdf-syntax-ns#"
   xmlns:svg="http://www.w3.org/2000/svg"
   xmlns="http://www.w3.org/2000/svg"
   xmlns:sodipodi="http://sodipodi.sourceforge.net/DTD/sodipodi-0.dtd"
   xmlns:inkscape="http://www.inkscape.org/namespaces/inkscape"
   inkscape:version="1.0 (4035a4fb49, 2020-05-01)"
   sodipodi:docname="j09-b.svg"
   id="svg555"
   viewBox="0 0 21461.402 21682.085"
   style="clip-rule:evenodd;fill-rule:evenodd;image-rendering:optimizeQuality;shape-rendering:geometricPrecision;text-rendering:geometricPrecision"
   version="1.1"
   height="2.1759124in"
   width="2.1537542in"
   xml:space="preserve"><metadata
   id="metadata559"><rdf:RDF><cc:Work
       rdf:about=""><dc:format>image/svg+xml</dc:format><dc:type
         rdf:resource="http://purl.org/dc/dcmitype/StillImage" /></cc:Work></rdf:RDF></metadata><sodipodi:namedview
   inkscape:current-layer="Layer_x0020_1"
   inkscape:window-maximized="1"
   inkscape:window-y="-8"
   inkscape:window-x="-8"
   inkscape:cy="104.44379"
   inkscape:cx="103.3802"
   inkscape:zoom="3.7675766"
   showgrid="false"
   id="namedview557"
   inkscape:window-height="1001"
   inkscape:window-width="1216"
   inkscape:pageshadow="2"
   inkscape:pageopacity="0"
   guidetolerance="10"
   gridtolerance="10"
   objecttolerance="10"
   borderopacity="1"
   bordercolor="#666666"
   pagecolor="#ffffff"
   inkscape:document-rotation="0" />
 <defs
   id="defs4">
  <style
   id="style2"
   type="text/css">
   <![CDATA[
    .str1 {stroke:#2B2A29;stroke-width:98.0761;stroke-linecap:round;stroke-linejoin:round}
    .str0 {stroke:#2B2A29;stroke-width:196.152;stroke-linecap:round;stroke-linejoin:round}
    .fil5 {fill:none}
    .fil1 {fill:#2B2A29}
    .fil2 {fill:#CC6F3C}
    .fil0 {fill:#D6E9D8}
    .fil4 {fill:#F7AA47}
    .fil3 {fill:#FCD5A6}
    .fil6 {fill:#FFFBDB}
    .fil7 {fill:#2B2A29;fill-rule:nonzero}
   ]]>
  </style>
 </defs>
 <g
   id="Layer_x0020_1"
   transform="translate(-7153.7996,-7227.496)">
  <metadata
   id="CorelCorpID_0Corel-Layer" />
  <circle
   id="circle7"
   r="2461.8"
   cy="10825.6"
   cx="23376"
   class="fil0"
   style="stroke-width:0.6" />
  <circle
   id="circle9"
   r="2461.8"
   cy="15275.2"
   cx="26153.4"
   class="fil0"
   style="stroke-width:0.6" />
  <circle
   id="circle11"
   r="2461.8"
   cy="20546.199"
   cx="25932"
   class="fil0"
   style="stroke-width:0.6" />
  <circle
   id="circle13"
   r="2461.8"
   cy="24932.801"
   cx="22965.6"
   class="fil0"
   style="stroke-width:0.6" />
  <circle
   id="circle15"
   r="2461.8"
   cy="26447.801"
   cx="17947.199"
   class="fil0"
   style="stroke-width:0.6" />
  <circle
   id="circle17"
   r="2461.8"
   cy="24743.199"
   cx="12961.2"
   class="fil0"
   style="stroke-width:0.6" />
  <circle
   id="circle19"
   r="2461.8"
   cy="20577.4"
   cx="9805.2002"
   class="fil0"
   style="stroke-width:0.6" />
  <circle
   id="circle21"
   r="2461.8"
   cy="15244"
   cx="9615.5996"
   class="fil0"
   style="stroke-width:0.6" />
  <circle
   id="circle23"
   r="2461.8"
   cy="9689.2002"
   cx="17979"
   class="fil0"
   style="stroke-width:0.6" />
  <circle
   id="circle25"
   r="2461.8"
   cy="10856.8"
   cx="12694.2"
   class="fil0"
   style="stroke-width:0.6" />
  <g
   id="_1128263392"
   transform="matrix(0.6,0,0,0.6,7153.8,7227.4)">
   <path
   id="path27"
   d="m 18071,23986 c 3486,0 6312,-2826 6312,-6312 0,-53 -1,-106 -2,-158 1,-52 2,-105 2,-158 0,-3486 -2826,-6312 -6312,-6312 -3486,0 -6312,2826 -6312,6312 0,53 1,106 2,158 -1,52 -2,105 -2,158 0,3486 2826,6312 6312,6312 z"
   class="fil1 str0" />
   <g
   id="g67">
    <path
   id="path29"
   d="m 16656,9990 c -261,782 281,800 400,141 22,-124 -402,-136 -400,-141 z m 2130,124 c 31,32 170,592 449,423 289,-173 -512,-926 -449,-423 z"
   class="fil2 str0" />
    <path
   id="path31"
   d="m 15726,9508 82,-2105 c 33,-1074 876,-764 752,-521 -190,-859 239,-1112 365,-870 l 1946,25 c 338,-89 715,-10 502,499 l 32,484 c 369,-488 568,-11 539,614 l 221,2018 c -126,529 -40,527 -463,512 -444,-178 -213,-440 -271,-302 l -327,545 -2356,-37 -186,-539 c -421,451 -1013,58 -854,-323 z"
   class="fil3 str0" />
    <path
   id="path33"
   d="m 16692,9409 c 422,-261 2603,-535 2620,93 6,210 -19,603 -265,731 -296,154 -843,24 -1127,71 -121,19 -696,107 -977,-28 -327,-157 -352,-556 -264,-789 z"
   class="fil4" />
    <path
   id="path35"
   d="m 19338,6280 c -1333,924 -2567,73 -2654,152 -89,80 -74,1315 103,1266 1751,-480 732,-358 2383,-169 234,27 170,-1251 168,-1249 z"
   class="fil4" />
    <line
   id="line37"
   y2="9742"
   x2="19487"
   y1="7115"
   x1="19357"
   class="fil5 str1" />
    <line
   id="line39"
   y2="9472"
   x2="16577"
   y1="6882"
   x1="16560"
   class="fil5 str1" />
    <path
   id="path41"
   d="m 16635,6193 c 201,762 2901,489 2697,-153"
   class="fil5 str1" />
    <path
   id="path43"
   d="m 16850,6529 c -194,463 -230,574 -351,1092"
   class="fil5 str1" />
    <path
   id="path45"
   d="m 16657,7754 c 467,-436 2106,-560 2627,-142 l 26,-79 c 9,-155 -34,-741 -39,-925"
   class="fil5 str1" />
    <path
   id="path47"
   d="m 15783,9755 c 196,-468 859,-517 749,79"
   class="fil5 str1" />
    <path
   id="path49"
   d="m 19558,9997 c 45,-771 927,-599 678,-4"
   class="fil5 str1" />
    <path
   id="path51"
   d="m 19840,9962 c -273,140 140,346 0,0 z"
   class="fil5 str1" />
    <path
   id="path53"
   d="m 16230,9621 c -244,-101 -242,281 -59,225"
   class="fil5 str1" />
    <path
   id="path55"
   d="m 16707,9331 c 125,123 1806,-361 2450,-74 1,1 316,58 347,21"
   class="fil5 str1" />
    <path
   id="path57"
   d="m 17267,6722 c -57,137 -248,633 -176,761"
   class="fil5 str1" />
    <path
   id="path59"
   d="m 17656,6813 c -31,213 -77,407 -46,619"
   class="fil5 str1" />
    <path
   id="path61"
   d="m 18132,6695 c -16,242 -49,483 69,684"
   class="fil5 str1" />
    <path
   id="path63"
   d="m 18811,6519 c 18,340 -14,548 169,785"
   class="fil5 str1" />
    <path
   id="path65"
   d="m 16608,9764 c 786,116 2146,271 2847,-110"
   class="fil5 str1" />
   </g>
   <g
   id="g107">
    <path
   id="path69"
   d="m 21542,10757 c -681,465 -261,807 234,355 92,-85 -239,-352 -234,-355 z m 1620,1390 c 5,44 -224,574 100,609 335,37 154,-1047 -100,-609 z"
   class="fil2 str0" />
    <path
   id="path71"
   d="m 21095,9810 1341,-1624 c 677,-835 1159,-77 914,41 370,-798 864,-740 817,-471 l 1533,1199 c 323,135 575,426 97,702 l -268,404 c 589,-164 459,336 57,815 l -1047,1739 c -422,345 -352,395 -679,127 -246,-411 97,-480 -33,-405 l -590,236 -1852,-1458 179,-541 c -608,103 -841,-568 -484,-774 z"
   class="fil3 str0" />
    <path
   id="path73"
   d="m 21924,10317 c 493,48 2394,1152 2027,1663 -123,170 -381,467 -653,420 -330,-57 -687,-492 -940,-627 -108,-57 -618,-336 -760,-614 -166,-323 57,-656 267,-788 z"
   class="fil4" />
    <path
   id="path75"
   d="m 25924,9432 c -1620,-73 -2086,-1498 -2203,-1488 -120,10 -855,1001 -685,1070 1684,679 799,158 1998,1310 170,163 893,-892 890,-892 z"
   class="fil4" />
    <line
   id="line77"
   y2="12276"
   x2="23945"
   y1="10107"
   x1="25433"
   class="fil5 str1" />
    <line
   id="line79"
   y2="10298"
   x2="21793"
   y1="8227"
   x1="23350"
   class="fil5 str1" />
    <path
   id="path81"
   d="m 23828,7725 c -303,727 2010,2147 2237,1512"
   class="fil5 str1" />
    <path
   id="path83"
   d="m 23794,8122 c -434,251 -530,317 -941,656"
   class="fil5 str1" />
    <path
   id="path85"
   d="m 22899,8979 c 635,-63 2014,832 2175,1479 l 69,-46 c 101,-118 422,-611 530,-759"
   class="fil5 str1" />
    <path
   id="path87"
   d="m 20990,10041 c 440,-253 997,110 548,517"
   class="fil5 str1" />
    <path
   id="path89"
   d="m 23847,12522 c 503,-586 1100,85 541,407"
   class="fil5 str1" />
    <path
   id="path91"
   d="m 24091,12665 c -301,-54 -97,360 0,0 z"
   class="fil5 str1" />
    <path
   id="path93"
   d="m 21428,10205 c -133,-228 -364,77 -183,144"
   class="fil5 str1" />
    <path
   id="path95"
   d="m 21983,10264 c 24,173 1655,808 1993,1426 0,2 216,238 263,227"
   class="fil5 str1" />
    <path
   id="path97"
   d="m 24009,8529 c -128,74 -581,353 -601,498"
   class="fil5 str1" />
    <path
   id="path99"
   d="m 24263,8837 c -153,151 -307,277 -412,464"
   class="fil5 str1" />
    <path
   id="path101"
   d="m 24714,9031 c -160,183 -333,354 -360,586"
   class="fil5 str1" />
    <path
   id="path103"
   d="m 25360,9303 c -191,281 -343,427 -341,726"
   class="fil5 str1" />
    <path
   id="path105"
   d="m 21642,10549 c 554,568 1542,1516 2331,1637"
   class="fil5 str1" />
   </g>
   <g
   id="g147">
    <path
   id="path109"
   d="m 24966,14156 c -824,-28 -687,497 -21,424 125,-14 15,-424 21,-424 z m 486,2078 c -22,38 -519,331 -279,551 249,227 743,-754 279,-551 z"
   class="fil2 str0" />
    <path
   id="path111"
   d="m 25165,13128 2041,-519 c 1039,-274 981,623 713,573 770,-426 1135,-87 938,103 l 528,1873 c 181,299 213,683 -336,623 l -454,168 c 572,216 171,542 -436,691 l -1873,785 c -543,29 -516,111 -622,-299 44,-476 362,-329 213,-346 l -616,-158 -633,-2270 464,-331 c -552,-276 -343,-956 67,-911 z"
   class="fil3 str0" />
    <path
   id="path113"
   d="m 25534,14026 c 369,330 1251,2344 654,2539 -200,65 -584,152 -776,-47 -232,-240 -263,-802 -388,-1061 -53,-110 -300,-636 -251,-944 58,-359 434,-496 682,-478 z"
   class="fil4" />
    <path
   id="path115"
   d="m 29285,15675 c -1265,-1016 -799,-2441 -899,-2502 -103,-63 -1282,302 -1185,458 958,1543 551,600 838,2237 41,233 1248,-192 1246,-193 z"
   class="fil4" />
    <line
   id="line117"
   y2="16801"
   x2="26008"
   y1="15930"
   x1="28490"
   class="fil5 str1" />
    <line
   id="line119"
   y2="13933"
   x2="25440"
   y1="13182"
   x1="27919"
   class="fil5 str1" />
    <path
   id="path121"
   d="m 28601,13059 c -674,408 354,2920 912,2542"
   class="fil5 str1" />
    <path
   id="path123"
   d="m 28340,13360 c -499,-55 -615,-58 -1147,-27"
   class="fil5 str1" />
    <path
   id="path125"
   d="m 27111,13522 c 550,324 1134,1861 881,2479 l 83,3 c 152,-36 701,-243 876,-300"
   class="fil5 str1" />
    <path
   id="path127"
   d="m 24944,13252 c 504,55 739,677 136,741"
   class="fil5 str1" />
    <path
   id="path129"
   d="m 25783,16941 c 752,-176 838,719 197,649"
   class="fil5 str1" />
    <path
   id="path131"
   d="m 25896,17201 c -211,-221 -291,233 0,0 z"
   class="fil5 str1" />
    <path
   id="path133"
   d="m 25200,13643 c 27,-263 -339,-153 -233,7"
   class="fil5 str1" />
    <path
   id="path135"
   d="m 25613,14018 c -83,154 858,1630 766,2328 -1,2 34,319 78,339"
   class="fil5 str1" />
    <path
   id="path137"
   d="m 28273,13815 c -147,-16 -677,-59 -779,46"
   class="fil5 str1" />
    <path
   id="path139"
   d="m 28296,14213 c -213,31 -412,42 -607,132"
   class="fil5 str1" />
    <path
   id="path141"
   d="m 28545,14637 c -237,52 -478,89 -637,260"
   class="fil5 str1" />
    <path
   id="path143"
   d="m 28906,15237 c -321,115 -530,142 -704,385"
   class="fil5 str1" />
    <path
   id="path145"
   d="m 25170,14046 c 111,787 349,2135 913,2699"
   class="fil5 str1" />
   </g>
   <g
   id="g187">
    <path
   id="path149"
   d="m 25723,18886 c -649,-509 -849,-5 -268,329 109,63 263,-333 268,-329 z m -836,1963 c -40,19 -614,-39 -550,280 66,330 1045,-169 550,-280 z"
   class="fil2 str0" />
    <path
   id="path151"
   d="m 26490,18173 1954,788 c 1000,393 423,1082 237,883 872,112 966,600 695,637 l -679,1823 c -31,349 -233,677 -640,305 l -466,-133 c 334,512 -182,538 -760,300 l -1974,-472 c -456,-298 -483,-216 -326,-610 317,-357 487,-51 376,-153 l -403,-491 830,-2206 569,7 c -282,-549 288,-973 593,-695 z"
   class="fil3 str0" />
    <path
   id="path153"
   d="m 26257,19116 c 103,485 -374,2631 -972,2435 -199,-65 -560,-222 -598,-496 -45,-331 262,-802 314,-1085 22,-120 134,-691 355,-910 258,-256 642,-144 832,17 z"
   class="fil4" />
    <path
   id="path155"
   d="m 28310,22662 c -420,-1566 798,-2441 753,-2549 -46,-112 -1213,-513 -1227,-331 -139,1811 90,810 -645,2301 -104,212 1120,582 1119,579 z"
   class="fil4" />
    <line
   id="line157"
   y2="21635"
   x2="25001"
   y1="22399"
   x1="27518"
   class="fil5 str1" />
    <line
   id="line159"
   y2="18986"
   x2="26236"
   y1="19844"
   x1="28681"
   class="fil5 str1" />
    <path
   id="path161"
   d="m 29304,20148 c -785,-69 -1439,2565 -766,2590"
   class="fil5 str1" />
    <path
   id="path163"
   d="m 28915,20236 c -370,-338 -462,-410 -910,-699"
   class="fil5 str1" />
    <path
   id="path165"
   d="m 27827,19641 c 253,587 -183,2172 -752,2521 l 64,52 c 144,60 710,217 885,275"
   class="fil5 str1" />
    <path
   id="path167"
   d="m 26239,18143 c 374,343 196,983 -328,679"
   class="fil5 str1" />
    <path
   id="path169"
   d="m 24737,21616 c 710,303 251,1074 -225,639"
   class="fil5 str1" />
    <path
   id="path171"
   d="m 24675,21892 c -40,-303 -373,16 0,0 z"
   class="fil5 str1" />
    <path
   id="path173"
   d="m 26214,18610 c 177,-196 -183,-323 -192,-131"
   class="fil5 str1" />
    <path
   id="path175"
   d="m 26326,19157 c -158,75 -270,1822 -757,2331 -1,1 -161,277 -137,319"
   class="fil5 str1" />
    <path
   id="path177"
   d="m 28592,20564 c -109,-100 -511,-447 -656,-423"
   class="fil5 str1" />
    <path
   id="path179"
   d="m 28376,20899 c -191,-101 -357,-209 -568,-252"
   class="fil5 str1" />
    <path
   id="path181"
   d="m 28326,21387 c -222,-97 -438,-209 -667,-166"
   class="fil5 str1" />
    <path
   id="path183"
   d="m 28263,22085 c -326,-97 -511,-198 -796,-105"
   class="fil5 str1" />
    <path
   id="path185"
   d="m 25951,18918 c -374,700 -979,1928 -856,2716"
   class="fil5 str1" />
   </g>
   <g
   id="g227">
    <path
   id="path189"
   d="m 23506,23181 c -223,-794 -682,-505 -411,108 51,115 409,-113 411,-108 z m -1835,1091 c -43,-9 -472,-394 -609,-99 -141,306 944,480 609,99 z"
   class="fil2 str0" />
    <path
   id="path191"
   d="m 24546,23060 1112,1789 c 574,908 -298,1123 -331,853 638,605 425,1055 185,925 l -1626,1069 c -231,264 -587,409 -695,-132 l -298,-382 c -33,610 -465,327 -791,-207 l -1314,-1547 c -191,-509 -261,-459 97,-684 468,-102 424,245 394,99 l -35,-635 1973,-1290 455,342 c 97,-609 808,-615 889,-211 z"
   class="fil3 str0" />
    <path
   id="path193"
   d="m 23801,23683 c -203,452 -1856,1901 -2222,1391 -123,-171 -322,-511 -190,-754 159,-293 685,-493 894,-690 89,-84 516,-478 824,-525 360,-53 604,264 661,506 z"
   class="fil4" />
    <path
   id="path195"
   d="m 23363,27757 c 586,-1512 2086,-1499 2113,-1613 29,-117 -675,-1130 -795,-991 -1181,1379 -405,707 -1879,1475 -209,110 560,1132 561,1129 z"
   class="fil4" />
    <line
   id="line197"
   y2="24974"
   x2="21300"
   y1="27076"
   x1="22880"
   class="fil5 str1" />
    <line
   id="line199"
   y2="23566"
   x2="23861"
   y1="25702"
   x1="25327"
   class="fil5 str1" />
    <path
   id="path201"
   d="m 25650,26315 c -593,-519 -2676,1220 -2147,1638"
   class="fil5 str1" />
    <path
   id="path203"
   d="m 25284,26156 c -99,-491 -131,-603 -321,-1101"
   class="fil5 str1" />
    <path
   id="path205"
   d="m 24758,25034 c -143,623 -1431,1644 -2096,1590 l 21,79 c 81,134 445,595 551,745"
   class="fil5 str1" />
    <path
   id="path207"
   d="m 24361,22887 c 100,497 -422,909 -665,354"
   class="fil5 str1" />
    <path
   id="path209"
   d="m 21098,24802 c 394,664 -432,1015 -559,383"
   class="fil5 str1" />
    <path
   id="path211"
   d="m 20884,24988 c 147,-268 -310,-207 0,0 z"
   class="fil5 str1" />
    <path
   id="path213"
   d="m 24065,23249 c 259,-53 43,-369 -77,-219"
   class="fil5 str1" />
    <path
   id="path215"
   d="m 23832,23756 c -172,-32 -1294,1311 -1987,1434 -2,0 -294,129 -299,177"
   class="fil5 str1" />
    <path
   id="path217"
   d="m 24830,26230 c -29,-145 -149,-663 -280,-728"
   class="fil5 str1" />
    <path
   id="path219"
   d="m 24457,26373 c -94,-194 -164,-380 -308,-539"
   class="fil5 str1" />
    <path
   id="path221"
   d="m 24129,26738 c -122,-210 -229,-428 -440,-529"
   class="fil5 str1" />
    <path
   id="path223"
   d="m 23666,27263 c -206,-271 -296,-461 -580,-554"
   class="fil5 str1" />
    <path
   id="path225"
   d="m 23672,23342 c -716,344 -1930,978 -2296,1686"
   class="fil5 str1" />
   </g>
   <g
   id="g267">
    <path
   id="path229"
   d="m 19390,25310 c 272,-778 -270,-804 -398,-146 -24,123 400,141 398,146 z m -2129,-154 c -30,-32 -161,-594 -443,-430 -290,170 500,934 443,430 z"
   class="fil2 str0" />
    <path
   id="path231"
   d="m 20313,25806 -112,2103 c -48,1073 -886,751 -759,511 177,861 -254,1108 -377,864 l -1945,-52 c -340,83 -716,-1 -495,-507 l -26,-484 c -376,482 -568,3 -530,-621 l -193,-2021 c 134,-527 48,-526 471,-506 441,184 207,444 266,306 l 335,-540 2355,70 178,541 c 428,-445 1015,-43 850,335 z"
   class="fil3 str0" />
    <path
   id="path233"
   d="m 19345,25891 c -425,254 -2610,498 -2618,-131 -3,-210 28,-602 275,-726 299,-150 844,-13 1129,-55 120,-18 696,-97 976,41 325,161 344,561 253,793 z"
   class="fil4" />
    <path
   id="path235"
   d="m 16656,28982 c 1345,-905 2568,-36 2656,-114 90,-80 92,-1314 -85,-1268 -1758,456 -737,348 -2386,136 -234,-31 -187,1248 -185,1246 z"
   class="fil4" />
    <line
   id="line237"
   y2="25519"
   x2="16555"
   y1="28147"
   x1="16649"
   class="fil5 str1" />
    <line
   id="line239"
   y2="25829"
   x2="19462"
   y1="28420"
   x1="19442"
   class="fil5 str1" />
    <path
   id="path241"
   d="m 19357,29107 c -190,-764 -2893,-530 -2698,115"
   class="fil5 str1" />
    <path
   id="path243"
   d="m 19147,28768 c 200,-460 238,-570 366,-1087"
   class="fil5 str1" />
    <path
   id="path245"
   d="m 19357,27546 c -473,429 -2113,530 -2628,105 l -28,78 c -11,156 24,742 26,926"
   class="fil5 str1" />
    <path
   id="path247"
   d="m 20260,25558 c -203,465 -867,504 -748,-90"
   class="fil5 str1" />
    <path
   id="path249"
   d="m 16488,25262 c -56,771 -935,586 -678,-5"
   class="fil5 str1" />
    <path
   id="path251"
   d="m 16206,25293 c 274,-136 -136,-348 0,0 z"
   class="fil5 str1" />
    <path
   id="path253"
   d="m 19810,25686 c 243,104 247,-278 62,-224"
   class="fil5 str1" />
    <path
   id="path255"
   d="m 19329,25968 c -122,-124 -1811,336 -2450,40 -1,-1 -315,-63 -347,-26"
   class="fil5 str1" />
    <path
   id="path257"
   d="m 18733,28569 c 59,-136 257,-629 187,-758"
   class="fil5 str1" />
    <path
   id="path259"
   d="m 18345,28473 c 34,-213 83,-406 55,-619"
   class="fil5 str1" />
    <path
   id="path261"
   d="m 17867,28584 c 20,-242 57,-482 -59,-685"
   class="fil5 str1" />
    <path
   id="path263"
   d="m 17187,28750 c -14,-340 21,-547 -159,-786"
   class="fil5 str1" />
    <path
   id="path265"
   d="m 19434,25537 c -784,-127 -2142,-301 -2848,70"
   class="fil5 str1" />
   </g>
   <g
   id="g307">
    <path
   id="path269"
   d="m 14609,24595 c 680,-465 259,-808 -234,-354 -93,85 238,351 234,354 z m -1622,-1388 c -5,-44 223,-574 -101,-609 -335,-36 -153,1048 101,609 z"
   class="fil2 str0" />
    <path
   id="path271"
   d="m 15057,25541 -1339,1627 c -676,835 -1159,78 -914,-40 -369,798 -863,741 -817,471 l -1534,-1197 c -323,-135 -575,-425 -98,-701 l 267,-405 c -589,165 -458,-335 -57,-815 l 1045,-1740 c 420,-345 351,-395 679,-128 246,410 -97,480 32,405 l 590,-237 1854,1456 -178,541 c 608,-104 842,567 485,774 z"
   class="fil3 str0" />
    <path
   id="path273"
   d="m 14228,25036 c -493,-48 -2396,-1150 -2030,-1660 123,-171 381,-468 653,-421 329,56 687,490 941,625 108,58 618,336 761,613 166,323 -57,656 -267,788 z"
   class="fil4" />
    <path
   id="path275"
   d="m 10228,25926 c 1620,70 2088,1495 2205,1485 120,-10 855,-1003 684,-1071 -1685,-677 -799,-157 -1999,-1307 -171,-163 -893,893 -890,893 z"
   class="fil4" />
    <line
   id="line277"
   y2="23079"
   x2="12204"
   y1="25250"
   x1="10718"
   class="fil5 str1" />
    <line
   id="line279"
   y2="25055"
   x2="14358"
   y1="27128"
   x1="12804"
   class="fil5 str1" />
    <path
   id="path281"
   d="m 12327,27630 c 302,-728 -2013,-2144 -2239,-1509"
   class="fil5 str1" />
    <path
   id="path283"
   d="m 12360,27233 c 434,-251 530,-318 940,-658"
   class="fil5 str1" />
    <path
   id="path285"
   d="m 13254,26375 c -635,64 -2015,-829 -2177,-1477 l -69,46 c -101,119 -421,612 -529,761"
   class="fil5 str1" />
    <path
   id="path287"
   d="m 15161,25311 c -439,253 -996,-109 -548,-517"
   class="fil5 str1" />
    <path
   id="path289"
   d="m 12302,22833 c -503,587 -1101,-84 -542,-407"
   class="fil5 str1" />
    <path
   id="path291"
   d="m 12057,22690 c 301,54 97,-360 0,0 z"
   class="fil5 str1" />
    <path
   id="path293"
   d="m 14724,25147 c 133,227 363,-78 183,-144"
   class="fil5 str1" />
    <path
   id="path295"
   d="m 14169,25088 c -25,-173 -1657,-805 -1995,-1423 -1,-1 -217,-237 -264,-227"
   class="fil5 str1" />
    <path
   id="path297"
   d="m 12144,26827 c 129,-75 581,-354 601,-499"
   class="fil5 str1" />
    <path
   id="path299"
   d="m 11890,26519 c 153,-151 307,-278 411,-465"
   class="fil5 str1" />
    <path
   id="path301"
   d="m 11439,26325 c 160,-183 332,-355 359,-587"
   class="fil5 str1" />
    <path
   id="path303"
   d="m 10793,26054 c 190,-282 342,-427 340,-727"
   class="fil5 str1" />
    <path
   id="path305"
   d="m 14509,24804 c -555,-568 -1544,-1515 -2333,-1635"
   class="fil5 str1" />
   </g>
   <g
   id="g347">
    <path
   id="path309"
   d="m 11227,21291 c 825,16 681,-507 15,-424 -124,15 -9,424 -15,424 z m -515,-2071 c 21,-39 514,-338 270,-555 -251,-223 -732,765 -270,555 z"
   class="fil2 str0" />
    <path
   id="path311"
   d="m 11044,22322 -2034,548 c -1035,288 -990,-609 -722,-563 -763,437 -1132,104 -938,-89 l -556,-1865 c -185,-297 -222,-680 327,-628 l 453,-175 c -576,-207 -180,-539 425,-697 l 1861,-812 c 543,-37 515,-118 627,290 -38,477 -357,335 -208,349 l 618,149 666,2261 -459,337 c 556,269 356,951 -54,912 z"
   class="fil3 str0" />
    <path
   id="path313"
   d="m 10662,21429 c -374,-325 -1285,-2326 -691,-2529 199,-68 581,-161 776,35 236,238 275,798 404,1056 54,109 309,632 264,940 -52,360 -426,502 -675,487 z"
   class="fil4" />
    <path
   id="path315"
   d="m 6887,19834 c 1279,998 834,2430 935,2489 104,61 1278,-321 1179,-475 -981,-1529 -561,-592 -871,-2225 -44,-232 -1245,210 -1243,211 z"
   class="fil4" />
    <line
   id="line317"
   y2="18661"
   x2="10148"
   y1="19568"
   x1="7679"
   class="fil5 str1" />
    <line
   id="line319"
   y2="21520"
   x2="10757"
   y1="22307"
   x1="8288"
   class="fil5 str1" />
    <path
   id="path321"
   d="m 7608,22440 c 668,-418 -395,-2914 -948,-2528"
   class="fil5 str1" />
    <path
   id="path323"
   d="m 7866,22135 c 499,48 616,49 1147,10"
   class="fil5 str1" />
    <path
   id="path325"
   d="m 9092,21955 c -555,-316 -1161,-1844 -917,-2465 l -83,-2 c -151,38 -698,253 -872,312"
   class="fil5 str1" />
    <path
   id="path327"
   d="m 11263,22194 c -505,-48 -749,-666 -147,-739"
   class="fil5 str1" />
    <path
   id="path329"
   d="m 10370,18518 c -749,186 -847,-707 -205,-646"
   class="fil5 str1" />
    <path
   id="path331"
   d="m 10253,18260 c 215,218 289,-238 0,0 z"
   class="fil5 str1" />
    <path
   id="path333"
   d="m 11001,21807 c -23,263 341,148 233,-11"
   class="fil5 str1" />
    <path
   id="path335"
   d="m 10583,21438 c 80,-156 -882,-1617 -800,-2317 1,-1 -38,-319 -83,-337"
   class="fil5 str1" />
    <path
   id="path337"
   d="m 7926,21680 c 147,14 678,48 778,-58"
   class="fil5 str1" />
    <path
   id="path339"
   d="m 7897,21281 c 213,-34 411,-47 605,-140"
   class="fil5 str1" />
    <path
   id="path341"
   d="m 7642,20862 c 236,-56 476,-96 633,-270"
   class="fil5 str1" />
    <path
   id="path343"
   d="m 7273,20266 c 319,-118 527,-149 698,-394"
   class="fil5 str1" />
    <path
   id="path345"
   d="m 11026,21403 c -123,-784 -380,-2129 -953,-2684"
   class="fil5 str1" />
   </g>
   <g
   id="g387">
    <path
   id="path349"
   d="m 10392,16643 c 661,494 849,-15 260,-336 -110,-60 -255,340 -260,336 z m 790,-1983 c 39,-19 614,25 543,-293 -74,-328 -1041,195 -543,293 z"
   class="fil2 str0" />
    <path
   id="path351"
   d="m 9642,17373 -1972,-741 c -1009,-369 -449,-1071 -258,-877 -875,-91 -980,-577 -710,-620 l 637,-1839 c 22,-350 216,-683 631,-320 l 470,122 c -347,-504 169,-543 752,-318 l 1985,425 c 463,287 488,205 340,602 -308,365 -485,63 -372,162 l 415,482 -778,2224 -570,7 c 295,542 -264,980 -575,709 z"
   class="fil3 str0" />
    <path
   id="path353"
   d="m 9852,16425 c -114,-482 313,-2639 915,-2457 201,61 565,209 609,482 53,329 -242,808 -288,1092 -19,121 -117,694 -333,918 -252,262 -639,159 -832,3 z"
   class="fil4" />
    <path
   id="path355"
   d="m 7716,12929 c 458,1556 -739,2459 -692,2566 49,110 1225,485 1235,301 95,-1813 -110,-807 590,-2315 99,-214 -1134,-555 -1133,-552 z"
   class="fil4" />
    <line
   id="line357"
   y2="13877"
   x2="11049"
   y1="13174"
   x1="8515"
   class="fil5 str1" />
    <line
   id="line359"
   y2="16555"
   x2="9876"
   y1="15755"
   x1="7412"
   class="fil5 str1" />
    <path
   id="path361"
   d="m 6782,15466 c 787,50 1378,-2598 704,-2607"
   class="fil5 str1" />
    <path
   id="path363"
   d="m 7169,15368 c 378,330 472,399 926,678"
   class="fil5 str1" />
    <path
   id="path365"
   d="m 8271,15937 c -267,-580 132,-2175 692,-2537 l -66,-50 c -145,-58 -714,-201 -890,-255"
   class="fil5 str1" />
    <path
   id="path367"
   d="m 9894,17397 c -382,-333 -220,-978 312,-686"
   class="fil5 str1" />
    <path
   id="path369"
   d="m 11313,13890 c -717,-285 -276,-1068 210,-644"
   class="fil5 str1" />
    <path
   id="path371"
   d="m 11369,13612 c 47,303 373,-24 0,0 z"
   class="fil5 str1" />
    <path
   id="path373"
   d="m 9908,16931 c -173,199 191,318 195,126"
   class="fil5 str1" />
    <path
   id="path375"
   d="m 9783,16387 c 156,-80 227,-1828 702,-2349 1,-1 154,-281 129,-323"
   class="fil5 str1" />
    <path
   id="path377"
   d="m 7484,15033 c 111,98 522,435 666,407"
   class="fil5 str1" />
    <path
   id="path379"
   d="m 7692,14693 c 193,96 363,201 574,239"
   class="fil5 str1" />
    <path
   id="path381"
   d="m 7731,14204 c 224,92 442,199 671,150"
   class="fil5 str1" />
    <path
   id="path383"
   d="m 7778,13504 c 328,90 515,186 797,87"
   class="fil5 str1" />
    <path
   id="path385"
   d="m 10163,16617 c 358,-709 933,-1952 792,-2737"
   class="fil5 str1" />
   </g>
   <g
   id="g427">
    <path
   id="path389"
   d="m 12496,12444 c 257,845 742,524 437,-126 -57,-122 -435,131 -437,126 z m 1940,-1213 c 46,8 515,411 655,91 144,-331 -1023,-492 -655,-91 z"
   class="fil2 str0" />
    <path
   id="path391"
   d="m 11384,12598 -1234,-1890 c -637,-960 292,-1211 334,-922 -698,-634 -481,-1121 -220,-987 l 1716,-1185 c 242,-288 620,-452 749,125 l 328,403 c 21,-655 490,-362 852,202 l 1445,1627 c 218,541 292,486 -87,735 -499,120 -460,-253 -425,-96 l 53,680 -2083,1428 -496,-355 c -89,655 -851,679 -947,247 z"
   class="fil3 str0" />
    <path
   id="path393"
   d="m 12167,11913 c 207,-489 1944,-2082 2349,-1543 135,179 357,539 221,802 -163,319 -722,545 -941,762 -94,92 -542,524 -871,581 -384,66 -653,-267 -721,-525 z"
   class="fil4" />
    <path
   id="path395"
   d="m 12539,7536 c -591,1635 -2199,1656 -2226,1779 -28,126 752,1196 876,1044 1233,-1507 417,-768 1978,-1626 222,-122 -627,-1199 -628,-1197 z"
   class="fil4" />
    <line
   id="line397"
   y2="10470"
   x2="14817"
   y1="8255"
   x1="13074"
   class="fil5 str1" />
    <line
   id="line399"
   y2="12040"
   x2="12106"
   y1="9786"
   x1="10484"
   class="fil5 str1" />
    <path
   id="path401"
   d="m 10123,9137 c 648,542 2839,-1371 2262,-1807"
   class="fil5 str1" />
    <path
   id="path403"
   d="m 10519,9298 c 118,524 155,644 371,1172"
   class="fil5 str1" />
    <path
   id="path405"
   d="m 11110,10488 c 138,-671 1494,-1796 2208,-1753 l -25,-86 c -89,-141 -490,-627 -608,-784"
   class="fil5 str1" />
    <path
   id="path407"
   d="m 11587,12779 c -119,-530 430,-984 704,-395"
   class="fil5 str1" />
    <path
   id="path409"
   d="m 15038,10649 c -439,-702 438,-1098 589,-424"
   class="fil5 str1" />
    <path
   id="path411"
   d="m 15262,10445 c -151,291 337,215 0,0 z"
   class="fil5 str1" />
    <path
   id="path413"
   d="m 11895,12385 c -276,63 -38,396 88,233"
   class="fil5 str1" />
    <path
   id="path415"
   d="m 12132,11836 c 185,30 1355,-1436 2096,-1584 1,-1 312,-146 316,-198"
   class="fil5 str1" />
    <path
   id="path417"
   d="m 11004,9208 c 34,155 175,707 317,774"
   class="fil5 str1" />
    <path
   id="path419"
   d="m 11400,9046 c 105,205 185,403 344,570"
   class="fil5 str1" />
    <path
   id="path421"
   d="m 11743,8647 c 135,222 256,453 485,556"
   class="fil5 str1" />
    <path
   id="path423"
   d="m 12227,8073 c 227,285 328,487 634,580"
   class="fil5 str1" />
    <path
   id="path425"
   d="m 12314,12275 c 759,-385 2044,-1094 2420,-1862"
   class="fil5 str1" />
   </g>
   <circle
   id="circle429"
   r="6312"
   cy="17358"
   cx="18071"
   class="fil6 str0" />
  </g>
  
  
  
  
  
  
  
  
  
  
  
  
  
  
  
  
  
  
  
  
  
  
  
  
  
  
  
  
  
  
  
  
  
  
  
  
  
  
  
  
  
  
  
  
  
  
  
  
  
  
  
  
  
  
  
  
  
  
  
  
  
  
  
  
  
 <g
   transform="matrix(12.90614,0,0,12.90614,-6399.4572,-2949.0092)"
   style="clip-rule:evenodd;fill-rule:evenodd;image-rendering:optimizeQuality;shape-rendering:geometricPrecision;text-rendering:geometricPrecision"
   id="g566" /><text
   xml:space="preserve"
   style="font-style:normal;font-weight:normal;font-size:1245.58px;line-height:125%;font-family:sans-serif;letter-spacing:0px;word-spacing:0px;clip-rule:evenodd;fill:#000000;fill-opacity:1;fill-rule:evenodd;stroke:none;stroke-width:62.2788px;stroke-linecap:butt;stroke-linejoin:miter;stroke-opacity:1;image-rendering:optimizeQuality;shape-rendering:geometricPrecision;text-rendering:geometricPrecision"
   x="17985.178"
   y="9884.8076"
   id="text14629-2"><tspan
     sodipodi:role="line"
     x="17985.178"
     y="9884.8076"
     style="font-style:normal;font-variant:normal;font-weight:bold;font-stretch:normal;font-size:1245.58px;font-family:'Arial Rounded MT Bold';-inkscape-font-specification:'Arial Rounded MT Bold, Bold';text-align:center;text-anchor:middle;stroke-width:62.2788px"
     id="tspan14631-1">Роберт</tspan></text><text
   inkscape:transform-center-y="84.60883"
   inkscape:transform-center-x="-42.305088"
   id="text14629-2-2"
   y="10270.185"
   x="23540.08"
   style="font-style:normal;font-weight:normal;font-size:1245.58px;line-height:125%;font-family:sans-serif;letter-spacing:0px;word-spacing:0px;clip-rule:evenodd;fill:#000000;fill-opacity:1;fill-rule:evenodd;stroke:none;stroke-width:62.2788px;stroke-linecap:butt;stroke-linejoin:miter;stroke-opacity:1;image-rendering:optimizeQuality;shape-rendering:geometricPrecision;text-rendering:geometricPrecision"
   xml:space="preserve"><tspan
     id="tspan14631-1-3"
     style="font-style:normal;font-variant:normal;font-weight:bold;font-stretch:normal;font-size:1245.58px;font-family:'Arial Rounded MT Bold';-inkscape-font-specification:'Arial Rounded MT Bold, Bold';text-align:center;text-anchor:middle;stroke-width:62.2788px"
     y="10270.185"
     x="23540.08"
     sodipodi:role="line">Мама</tspan><tspan
     id="tspan14740"
     style="font-style:normal;font-variant:normal;font-weight:bold;font-stretch:normal;font-size:1245.58px;font-family:'Arial Rounded MT Bold';-inkscape-font-specification:'Arial Rounded MT Bold, Bold';text-align:center;text-anchor:middle;stroke-width:62.2788px"
     y="11841.075"
     x="23540.08"
     sodipodi:role="line">Тамм</tspan></text><text
   id="text14629-2-6"
   y="14600.273"
   x="26560.762"
   style="font-style:normal;font-weight:normal;font-size:1245.58px;line-height:125%;font-family:sans-serif;letter-spacing:0px;word-spacing:0px;clip-rule:evenodd;fill:#000000;fill-opacity:1;fill-rule:evenodd;stroke:none;stroke-width:62.2788px;stroke-linecap:butt;stroke-linejoin:miter;stroke-opacity:1;image-rendering:optimizeQuality;shape-rendering:geometricPrecision;text-rendering:geometricPrecision"
   xml:space="preserve"><tspan
     id="tspan14631-1-2"
     style="font-style:normal;font-variant:normal;font-weight:bold;font-stretch:normal;font-size:1245.58px;font-family:'Arial Rounded MT Bold';-inkscape-font-specification:'Arial Rounded MT Bold, Bold';text-align:center;text-anchor:middle;stroke-width:62.2788px"
     y="14600.273"
     x="26560.762"
     sodipodi:role="line">Папа</tspan><tspan
     id="tspan14746"
     style="font-style:normal;font-variant:normal;font-weight:bold;font-stretch:normal;font-size:1245.58px;font-family:'Arial Rounded MT Bold';-inkscape-font-specification:'Arial Rounded MT Bold, Bold';text-align:center;text-anchor:middle;stroke-width:62.2788px"
     y="16171.164"
     x="26560.762"
     sodipodi:role="line">Каск</tspan></text><text
   id="text14629-2-7"
   y="20997.52"
   x="26328.52"
   style="font-style:normal;font-weight:normal;font-size:1245.58px;line-height:125%;font-family:sans-serif;letter-spacing:0px;word-spacing:0px;clip-rule:evenodd;fill:#000000;fill-opacity:1;fill-rule:evenodd;stroke:none;stroke-width:62.2788px;stroke-linecap:butt;stroke-linejoin:miter;stroke-opacity:1;image-rendering:optimizeQuality;shape-rendering:geometricPrecision;text-rendering:geometricPrecision"
   xml:space="preserve"><tspan
     id="tspan14631-1-1"
     style="font-style:normal;font-variant:normal;font-weight:bold;font-stretch:normal;font-size:1245.58px;font-family:'Arial Rounded MT Bold';-inkscape-font-specification:'Arial Rounded MT Bold, Bold';text-align:center;text-anchor:middle;stroke-width:62.2788px"
     y="20997.52"
     x="26328.52"
     sodipodi:role="line">Рита</tspan></text><text
   id="text14629-2-3"
   y="25492.91"
   x="23130.902"
   style="font-style:normal;font-weight:normal;font-size:1245.58px;line-height:125%;font-family:sans-serif;letter-spacing:0px;word-spacing:0px;clip-rule:evenodd;fill:#000000;fill-opacity:1;fill-rule:evenodd;stroke:none;stroke-width:62.2788px;stroke-linecap:butt;stroke-linejoin:miter;stroke-opacity:1;image-rendering:optimizeQuality;shape-rendering:geometricPrecision;text-rendering:geometricPrecision"
   xml:space="preserve"><tspan
     id="tspan14631-1-30"
     style="font-style:normal;font-variant:normal;font-weight:bold;font-stretch:normal;font-size:1245.58px;font-family:'Arial Rounded MT Bold';-inkscape-font-specification:'Arial Rounded MT Bold, Bold';text-align:center;text-anchor:middle;stroke-width:62.2788px"
     y="25492.91"
     x="23130.902"
     sodipodi:role="line">Генри</tspan></text><text
   id="text14629-2-4"
   y="26887.486"
   x="18031.035"
   style="font-style:normal;font-weight:normal;font-size:1245.58px;line-height:125%;font-family:sans-serif;letter-spacing:0px;word-spacing:0px;clip-rule:evenodd;fill:#000000;fill-opacity:1;fill-rule:evenodd;stroke:none;stroke-width:62.2788px;stroke-linecap:butt;stroke-linejoin:miter;stroke-opacity:1;image-rendering:optimizeQuality;shape-rendering:geometricPrecision;text-rendering:geometricPrecision"
   xml:space="preserve"><tspan
     id="tspan14631-1-32"
     style="font-style:normal;font-variant:normal;font-weight:bold;font-stretch:normal;font-size:1245.58px;font-family:'Arial Rounded MT Bold';-inkscape-font-specification:'Arial Rounded MT Bold, Bold';text-align:center;text-anchor:middle;stroke-width:62.2788px"
     y="26887.486"
     x="18031.035"
     sodipodi:role="line">Лиза</tspan></text><text
   id="text14629-2-1"
   y="24436.826"
   x="12889.248"
   style="font-style:normal;font-weight:normal;font-size:1245.58px;line-height:125%;font-family:sans-serif;letter-spacing:0px;word-spacing:0px;clip-rule:evenodd;fill:#000000;fill-opacity:1;fill-rule:evenodd;stroke:none;stroke-width:62.2788px;stroke-linecap:butt;stroke-linejoin:miter;stroke-opacity:1;image-rendering:optimizeQuality;shape-rendering:geometricPrecision;text-rendering:geometricPrecision"
   xml:space="preserve"><tspan
     id="tspan14631-1-8"
     style="font-style:normal;font-variant:normal;font-weight:bold;font-stretch:normal;font-size:1245.58px;font-family:'Arial Rounded MT Bold';-inkscape-font-specification:'Arial Rounded MT Bold, Bold';text-align:center;text-anchor:middle;stroke-width:62.2788px"
     y="24436.826"
     x="12889.248"
     sodipodi:role="line">Папа</tspan><tspan
     id="tspan14742"
     style="font-style:normal;font-variant:normal;font-weight:bold;font-stretch:normal;font-size:1245.58px;font-family:'Arial Rounded MT Bold';-inkscape-font-specification:'Arial Rounded MT Bold, Bold';text-align:center;text-anchor:middle;stroke-width:62.2788px"
     y="26007.717"
     x="12889.248"
     sodipodi:role="line">Тамм</tspan></text><text
   id="text14629-2-14"
   y="21122.332"
   x="9506.9883"
   style="font-style:normal;font-weight:normal;font-size:1245.58px;line-height:125%;font-family:sans-serif;letter-spacing:0px;word-spacing:0px;clip-rule:evenodd;fill:#000000;fill-opacity:1;fill-rule:evenodd;stroke:none;stroke-width:62.2788px;stroke-linecap:butt;stroke-linejoin:miter;stroke-opacity:1;image-rendering:optimizeQuality;shape-rendering:geometricPrecision;text-rendering:geometricPrecision"
   xml:space="preserve"><tspan
     id="tspan14631-1-22"
     style="font-style:normal;font-variant:normal;font-weight:bold;font-stretch:normal;font-size:1245.58px;font-family:'Arial Rounded MT Bold';-inkscape-font-specification:'Arial Rounded MT Bold, Bold';text-align:center;text-anchor:middle;stroke-width:62.2788px"
     y="21122.332"
     x="9506.9883"
     sodipodi:role="line">Диана</tspan></text><text
   id="text14629"
   y="15710.035"
   x="9348.7617"
   style="font-style:normal;font-weight:normal;font-size:1245.58px;line-height:125%;font-family:sans-serif;letter-spacing:0px;word-spacing:0px;clip-rule:evenodd;fill:#000000;fill-opacity:1;fill-rule:evenodd;stroke:none;stroke-width:62.2788px;stroke-linecap:butt;stroke-linejoin:miter;stroke-opacity:1;image-rendering:optimizeQuality;shape-rendering:geometricPrecision;text-rendering:geometricPrecision"
   xml:space="preserve"><tspan
     id="tspan14631"
     style="font-style:normal;font-variant:normal;font-weight:bold;font-stretch:normal;font-size:1245.58px;font-family:'Arial Rounded MT Bold';-inkscape-font-specification:'Arial Rounded MT Bold, Bold';text-align:center;text-anchor:middle;stroke-width:62.2788px"
     y="15710.035"
     x="9348.7617"
     sodipodi:role="line">Март</tspan></text><text
   id="text14629-2-17"
   y="10208.94"
   x="12427.458"
   style="font-style:normal;font-weight:normal;font-size:1245.58px;line-height:125%;font-family:sans-serif;letter-spacing:0px;word-spacing:0px;clip-rule:evenodd;fill:#000000;fill-opacity:1;fill-rule:evenodd;stroke:none;stroke-width:62.2788px;stroke-linecap:butt;stroke-linejoin:miter;stroke-opacity:1;image-rendering:optimizeQuality;shape-rendering:geometricPrecision;text-rendering:geometricPrecision"
   xml:space="preserve"><tspan
     id="tspan14631-1-37"
     style="font-style:normal;font-variant:normal;font-weight:bold;font-stretch:normal;font-size:1245.58px;font-family:'Arial Rounded MT Bold';-inkscape-font-specification:'Arial Rounded MT Bold, Bold';text-align:center;text-anchor:middle;stroke-width:62.2788px"
     y="10208.94"
     x="12427.458"
     sodipodi:role="line">Мама</tspan><tspan
     id="tspan14744"
     style="font-style:normal;font-variant:normal;font-weight:bold;font-stretch:normal;font-size:1245.58px;font-family:'Arial Rounded MT Bold';-inkscape-font-specification:'Arial Rounded MT Bold, Bold';text-align:center;text-anchor:middle;stroke-width:62.2788px"
     y="11779.831"
     x="12427.458"
     sodipodi:role="line">Каск</tspan></text></g>
</svg>
